"ID","created_at","text","like_count","rt_count"
1376481750759698432,"2021-03-29T10:29:57Z","@FuturenowArt AIR | Blow your mind - Available on foundation: https://t.co/JaNW58U67t - Reserve price: 0.4 ETH",1,0
1376481742920556544,"2021-03-29T10:29:55Z","⚡️New #FlashLoan 4.6977 $ETH to 0xcbb5dbbccfbf6af8af75d0cbd5646c73d847cd15  https://t.co/xIPq0sRYjL",0,0
1376481741200896004,"2021-03-29T10:29:55Z","https://t.co/ZO6G3wXrLQ  Oh wow. $BTC $USDC $ETH #cryptocurrency",0,0
1376481740659773445,"2021-03-29T10:29:55Z","Visa to use the the $ETH network to settle payments.  What do you think happens when ETH becomes deflationary mid year with increasing adoption?  10k+ is inevitable, always has been.",387,0
1376481734141825026,"2021-03-29T10:29:53Z","#BTC Price: $57868 #ETH Price: $1763 #LTC Price: $195  Next update in 10 minutes Last updated: 6:29:53.04",0,0
1376481730555736065,"2021-03-29T10:29:53Z","Visa to use the the $ETH network to settle payments.  What do you think happens when ETH becomes deflationary mid year with increasing adoption?  10k+ is inevitable, always has been.",387,0
1376481715905036290,"2021-03-29T10:29:49Z","RT @LordDurden: Visa announces it will use $ETH &amp; $USDC.  #Bitcoin pumps.   $ETHBTC drops.   Can’t make this shit up 😂",164,0
1376481713023459328,"2021-03-29T10:29:48Z","2.166 ETH HOLY HELL THE KING NOT DEAD YET https://t.co/qhVADqH6NS",7,2
1376481709428969485,"2021-03-29T10:29:47Z","Where was z UN/HRW &amp;women's rights advocates when z innocent Eth'n women were coercing to sell their sexual favors 2 official “bigshots” in exchange 4 safety for 3 decades,while they r exaggerating z disinformation of the hyperbolic experts &amp; TPLF lobbyists.#UN #UK #AU #Blinken",17,2
1376481708221038592,"2021-03-29T10:29:47Z","We are delighted to announce Great news! Today #REW #token has reached #1 on Biggest #Gainer List on #CMC we are giving away 50$#ETH to 1 lucky winner  1 :like &amp; retweet  2 :comment gif &amp; address good luck  #Giveaway  #winner #crypto #Blockchain #rewardiqa #Bitcoin #DeFi #staking https://t.co/tYZjeSisa0",227,2
1376481706807545857,"2021-03-29T10:29:47Z","The account is sponsored by #Maanky 🐵 #BTC #Bitcoin #ETH #FOREX Russia reportedly supports rollover of OPEC+ oil production to May https://t.co/b6Unka19jA",0,0
1376481686905442306,"2021-03-29T10:29:42Z","RT @zetta_icarus: @binance Join the miners of #bsc defi ! https://t.co/PlHwGyJmZL  You can start mining ETH on #bsc today 👀",121,0
1376481677791334406,"2021-03-29T10:29:40Z","@TupacRewoke @Infisnake @DATDropCases just exchange your ltc then to eth",0,0
1376481674784038912,"2021-03-29T10:29:39Z","I worked with @davidbelle_ from trading site Macrodesiac to create this #NFT for the secret sauce of Trading. You can grab one of a limited supply now at https://t.co/jS22HUzZxd  #nfts #crypto #opensea #nftartist #markets #investments #trading #btc #eth #ta $ada $dot $avax $egld https://t.co/JZJooQRaWb",11,0
1376481674519740416,"2021-03-29T10:29:39Z","🔥HOT🔥 - $100 in Cryptocurrency | Giveaway!  To win: ✔ Follow us &amp; @MatrixAINetwork ✔ Tag a friend ✔ Retweet ✔ Join: https://t.co/R9H48O8Tq3 Thats it! Good luck! 💖 Rolling in 24 hours!  #goodvibes #goodluck #giveaway #bitcoin #Giveaways  #cryptocurrency #eth #btc #BSC #TRON https://t.co/0Eju3gcguv",306,0
1376481671940280320,"2021-03-29T10:29:39Z","RT @ki_young_ju: I smell crypto mass adoption here  $ETH https://t.co/AUOfaqAT3M",1537,0
1376481662205358086,"2021-03-29T10:29:36Z","*GET YOURSELF A US PAYPAL ACCOUNT*  You'll Buy &amp; Sell Crypto (BTC,Eth,Litecoin) With it.  *You will be able to send and receive payments from any part of the world*  Service cost: *#5,000✅*  #PayPal #Bitcoin Seyi Shay  *Click Now to get yours* 👇🏽👇🏽  https://t.co/VQ9jyQ8NN9 https://t.co/Z1pUwLjlQx",128,0
1376481661618171904,"2021-03-29T10:29:36Z","@niftynist AIR | Blow your mind - Available on foundation: https://t.co/JaNW58U67t - Reserve price: 0.4 ETH",2,0
1376481660032663553,"2021-03-29T10:29:36Z","RT @CryptoMaestro: BTC pumping on news that Visa using ETH for transaction settlement",869,0
1376481659806179329,"2021-03-29T10:29:36Z","Visa announces it will use $ETH &amp; $USDC.  #Bitcoin pumps.   $ETHBTC drops.   Can’t make this shit up 😂",164,14
1376481649349771266,"2021-03-29T10:29:33Z","We are happy to announce that $REW will be listed on March 4, deposits now available on #ProBitExchange and to celebrate this #event, we are giving away 400$ #ETH to our community To Enter  1: like &amp; retweet &amp; follow 1 Tag 4 people  2 Comment wallet id #defi #Giveaway  #rewardiqa https://t.co/OozSqzFFno",2405,14
1376481637140156416,"2021-03-29T10:29:30Z","30 day EVIX: 85.0626 ETH/USD vwap: $1,762.68 04/16 expiry volume: $1,614,533.82 04/30 expiry volume: $7,268,942.93 Current time: 10:29:05",0,0
1376481631901474816,"2021-03-29T10:29:29Z","RT @sassal0x: We all don't own enough $ETH",962,0
1376481631591092224,"2021-03-29T10:29:29Z","RT @Crypto_guider: $ETH to $3000 see you there 🌝😉",25,0
1376481612909719552,"2021-03-29T10:29:24Z","I hope you watched last nights video where i explained why #Ethereum is about to break past $2,000!!!  #ETH has many big things coming, it is my largest holding aside from #Bitcoin https://t.co/up4Xk2VBMv",138,0
1376481611110305793,"2021-03-29T10:29:24Z","The first set of Ahegao NFTs sold out in a week, so I've been working on some more which are now live at https://t.co/MAOPR2F1DH  #pixel_dailies #nft #NFTs #nftart #nftartist #crypto #blockchain #eth #ethereum #digitalart #art #value #nftcollector #hentai #ahegao https://t.co/YWPHtqTMQv",78,0
1376481607167700992,"2021-03-29T10:29:23Z","🛡 MakerDAO Vault #4969 Repaid  🧑‍🚒 26.34k DAI paid back 🧯🧯 📉 14.96 ETH sold 💸  https://t.co/9lXml8kJKp",0,0
1376481599169171463,"2021-03-29T10:29:21Z","Realistic price targets for EOY 2021  $BTC $135k $ETH $8000 $RSR $1.25 $ZIL $2.50 $ANKR $3 $ONE $2 $DENT .50 $BAND $75 $UTK $10 $ADA $15 $NU $10 $LINK $100 $SXP $30 $BAT $9 $XRP $0",2348,0
1376481574439563266,"2021-03-29T10:29:15Z","Visa to use the the $ETH network to settle payments.  What do you think happens when ETH becomes deflationary mid year with increasing adoption?  10k+ is inevitable, always has been.",387,0
1376481571063136265,"2021-03-29T10:29:14Z","Black and white Dad's portrait .   NFT link at : https://t.co/vXFdNM6JIC #nft #nftart #nfts #nftartist #nftcollector #nftcommunity #superrare #mintable #rarible #niftygateway #opensea #eth #ethereum #Bitcoin  #doge #decentraland #sandbox #cryptoart #crypto https://t.co/IMGMa27fpc",9,0
1376481568802234369,"2021-03-29T10:29:14Z","RT @Wangarian1: I am finally convinced by the daily @sassal0x $ETH shills and have capitulated.",163,0
1376481567841869826,"2021-03-29T10:29:14Z","A reminder that $LUNA is well ahead of schedule on the 2021 price prediction chart in relation to $UST &amp; $LUNA burns 🔥  Wasn't predicted to surpass $9 in March..  $LUNA is now $19 😏  $BTC $ETH https://t.co/DvQqEERuGU",147,0
1376481550213263361,"2021-03-29T10:29:10Z","I just listed “Echoes.” for sale on @withFND! 🌐  https://t.co/w5WPBrW7Ny  #NFT #NFTs #NFTart #NFTcommunity #NFTcollectibles #NFTartists #ETH #Ethereum #artcollection #artistsoftwitter #art #artcollector #nftcollector #nftcollections #cryptoart #cryptocurrency #crypto #withFND",71,0
1376481530160250882,"2021-03-29T10:29:05Z","@bitfinex BTC BNB ETH",0,0
1376481529287835648,"2021-03-29T10:29:05Z","$ETH was at $230 at the time of this tweet--------&gt; $1,700+ Now 🥳 Road is very very clear,We will see $5,000- $10,000 $ETH 🙂 Buy under $2,000 If you did not buy around $200, Nothing has changed!! $ETH #cryptocurrency #CryptocurrencyNews  #Ethereum https://t.co/H7IvlaLyvr",20,1
1376481528180400131,"2021-03-29T10:29:04Z","🔥HOT🔥 - $100 in Cryptocurrency | Giveaway!  To win: ✔ Follow us &amp; @MatrixAINetwork ✔ Tag a friend ✔ Retweet ✔ Join: https://t.co/R9H48O8Tq3 Thats it! Good luck! 💖 Rolling in 24 hours!  #goodvibes #goodluck #giveaway #bitcoin #Giveaways  #cryptocurrency #eth #btc #BSC #TRON https://t.co/0Eju3gcguv",306,1
1376481523520655363,"2021-03-29T10:29:03Z","@CryptoRick6 @cryptocom Absolutely bro. I wish for $ETH to succeed and they most probably will.",0,0
1376481518613364736,"2021-03-29T10:29:02Z","🚀1111 #0373🚀 SOLD for 3.15 ETH on OpenSea! Great buy but they would have been better waiting for the @jurassicasylum drop  Check out the transaction: https://t.co/bQlxqYBjjU #JurassicAsylum #NFT #NFTartist #cryptoart #NFTCommunity https://t.co/KGmb4X9T73",0,0
1376481508370825217,"2021-03-29T10:29:00Z","@StockLizardKing Big for ETH, sad no one mentioning it.",1,0
1376481507938799620,"2021-03-29T10:28:59Z","RT @galaxyBTC: $ETH will turn from annoying it doesn't pump to annoying I don't have more real quick.  Have a great week. https://t.co/…",1057,0
1376481503018938370,"2021-03-29T10:28:58Z","Top 10 coin mentioned on twitterlast week🏆 $btc $eth $cake $doge $ada $rari $klv $link $bch $xrp #twitt https://t.co/xXCKYy2jRW",3,1
1376481499025965063,"2021-03-29T10:28:57Z","$ETH network might be used for @Visa payment settlements under the brand name $USDC.  Hope they don't make such mistake like using PriVaTe bLoCkcHain",360,1
1376481496538755073,"2021-03-29T10:28:57Z","@hassammunir1 $vxv vectorspace ai  So what's $vxv ? It's the Google for AI analysis of natural language data.  $alts $defi $dot $ltc $eth $bnb $btc $om $rfuel $ksm $gvt $sky $xvg $trx $rsr $link $ada $eos $aave $neo $zil $comp $icx $sol $tomo $kai $pols $maha $bondly  https://t.co/CikIgSzk28 https://t.co/Cj7G12sJLZ",1,0
1376481495452426244,"2021-03-29T10:28:56Z","Top  3 Trending Cryptos On reddit/SatoshiStreetBets :   #BTC, Score of 491  - Change   +0.61 %  #ETH, Score of 483  - Change   +3.87 %  #BNB, Score of 194  - Change   +2.65 %    Access The Full List https://t.co/VaWgphgbDg",0,0
1376481493451689984,"2021-03-29T10:28:56Z","Top  3 Trending Cryptos On reddit/CryptoCurrencies :   #BTC, Score of 26  - Change   -3.7 %  #USDT, Score of 26  - Change   -3.7 %  #ETH, Score of 26  - Change   -3.7 %    Access The Full List https://t.co/VaWgphgbDg",0,0
1376481493090983937,"2021-03-29T10:28:56Z","New Piece in my @rariblecom collection 💓💓💓  It should cost more than 0.03 ETH! And this is animated piece🤍  Thanks for your creativity @thoughtofdreamz ✨ you have a great future ahead in #nft  https://t.co/MmF3Nj02mZ Only Up🚀 https://t.co/TPlEmWB8iV",10,0
1376481492734517249,"2021-03-29T10:28:56Z","#CryptoNews $BTC $ETH $LTC $CRO $VET $ADA Yahoo Finance: Exclusive: #Visa moves to allow payment settlements using #cryptocurrency. https://t.co/KTttcsHhE9  via @GoogleNews",0,0
1376481487181205504,"2021-03-29T10:28:54Z","@day25 Lol, that would mean I should set a starting price of 7.6 ETH, don't think I would be seeing many sales😅",2,0
1376481485872635904,"2021-03-29T10:28:54Z","Our Bancor proposal for whitelisting MPH is expected to appear on Snapshot for voting on Monday 29 March 2020 at 12:00 pm UTC. If you want to support the proposal, stake your $vBNT in the governance contract now https://t.co/UMll0hL2Gy",133,0
1376481485419651078,"2021-03-29T10:28:54Z","$ETH #Ethereum   Visa news yada yada...just please don‘t long the resistance here with like a 50x  You do that in that red box if you do it 😉  Now, we wait for a) breakout wirh confirmation or b) pullback to like $1,700  At least, that is what I do. https://t.co/BpWowl8Yia",26,2
1376481480294080519,"2021-03-29T10:28:53Z","Whats with all the cryptocurrency Bitcoin, Eth, etc logo stuff repetitively used in nft's? I mean come on!'n Too much glorification is obnoxious!!!Make unique Art people! Dont be lazy kiss asses!!! #nftrant #nft #NFTs",2,0
1376481479723786243,"2021-03-29T10:28:53Z","I remember when this kind of news use to pump eth so hard!   https://t.co/0Yuh372ilo",4,0
1376481475470630914,"2021-03-29T10:28:52Z","Great projects are hard to find, hard to keep, and hard to forget $CATE $CGG $CONV $TIDAL  $SHFT  #nft #DeFi $bnb $one $ebox $ada $link #BSC $vet $DFT $icx $ern $super $DOT $uni #btc $delta $matic $theta $sol $Bles $ksm $dent $Spi $omi $labs #ETH $cell #BNB #NFTs $cope $fdd $snx https://t.co/zrCtEqXOPN",9,2
1376481471427354625,"2021-03-29T10:28:51Z","💧DogeSwap Airdrop💧  🏆 Task:          ➕   7 DOG  👨‍👩‍👧 Referral:     ➕   2 DOG  🔛  Airdrop Link &amp; Information: https://t.co/3rlt9kiu64  #cryptocurrency #Crypto #Bitcoin  #DogeSwap #Ethereum #ETH #Airdrop #bounty #Doge #AirdropStario",4198,2
1376481469779038209,"2021-03-29T10:28:50Z","Thanks to our early contributors this weekend we've now reached $1 MILLION in #DeFi contributions to our hookah that will continuously pour out #crypto gems on both #Ethereum and #BSC.  Our innovative 2 #blockchain #LGE runs for another 10+ days.  So prepare your $ETH &amp; $BNB! 💨 https://t.co/zTUndtqDVZ",75,2
1376481461499404295,"2021-03-29T10:28:48Z","⚡🔥 EASY $10(Litecoin) Giveaway!  To win: ✔ Tag a friend ✔ Retweet ✔ Follow us Thats it! Good luck! 💖  Rolling in 36 hours!  #goodvibes #goodluck #giveaway #bitcoin #Giveaways  #cryptocurrency #eth #btc #BSC #TRON",332,2
1376481455824588806,"2021-03-29T10:28:47Z","RT @DeFiTeller: . @Visa allowing to use #Ethereum blockchain for fiat transactions is so damn huge!  #ETH #cryptocurrency #Visa",4,2
1376481451068166145,"2021-03-29T10:28:46Z","RT @zetta_icarus: @binance Join the miners of #bsc defi ! https://t.co/PlHwGyJmZL  You can start mining ETH on #bsc today 👀",121,2
1376481450615316481,"2021-03-29T10:28:46Z","🎁Huge Giveaway!🎁  1x @PlasmaAIO beta key 1x @MooseAlertsCA Monthly 1x @TrinityProxies 1GB Resi 1x @SneakerPings Monthly 1x @studiobreit $100 ETH cash prize  🚨Rules🚨 -Follow all accounts✅ -Retweet🔁 -Tag a friend👥  Ends in 48 hours, good luck!🍀 https://t.co/RsyBvTzUU0",391,2
1376481448308350977,"2021-03-29T10:28:45Z","💧Roku Network Airdrop 💧  🏆 Task:          ➕  15 ROK (~$5)  👨‍👩‍👧 Referral:   ➕  3 ROK (~$1)  🔛  Airdrop Link &amp; Information: https://t.co/YhvsOcfEbH  #cryptocurrency #Crypto #Bitcoin  #BSC #BinanceSmartChain #Ethereum #ETH #Airdrop #bounty #ROK #RokuCoin #RokuNetwork",3811,2
1376481446987239430,"2021-03-29T10:28:45Z","RT @davidiach: Just so you know, Visa will need to buy $ETH to pay for transaction fees.",2333,2
1376481446785818624,"2021-03-29T10:28:45Z","Ah, the likely culprit for the pump. Looks like #ETH's rising tide may be lifting all other boats, including the flagship #BTC. https://t.co/wQnjL5rmHW",9,0
1376481436941873154,"2021-03-29T10:28:43Z","@tibbemetz1 @Infisnake @DATDropCases can anyone help me out with a eth deposit? i would send you back ltc when I withdraw the money. I'm just really happen right now :D",0,0
1376481431891886081,"2021-03-29T10:28:41Z","When people will look back, ETH at $1600 this month will be the best deal based on risk adjusted return. Because the case for defi is proven and massive, few risks there. But at the same time the narrative “ethereum - stock of the new financial system” is still not priced in.",4,0
1376481430860087303,"2021-03-29T10:28:41Z","🤑One of the biggest flips in the history of #digital assets on🤑 @SuperRare  🔥From .7 #Eth to 1000 Eth in 3 Years🚀🚀  Congratulations @XCOPYART 🎉 &amp; @punk4156 🤩  #NFT #NFTs #blockchain #Crypto #art #cryptoart  https://t.co/JlcYOxAd5K https://t.co/3o7dOKbOB4",121,0
1376481426695204866,"2021-03-29T10:28:40Z","@DeItaone They are using #ETH Not just USDC. Stop avoiding it.",2,0
1376481424908292103,"2021-03-29T10:28:40Z","Visa to use the the $ETH network to settle payments.  What do you think happens when ETH becomes deflationary mid year with increasing adoption?  10k+ is inevitable, always has been.",387,48
1376481405555900427,"2021-03-29T10:28:35Z","Ways to make money💰 in the $WISE ecosystem:  1️⃣Stake WISE in the contract - 8-12% APY🦉 2️⃣Send WISE to refill the insurance vault - 15.5% APY🦉 3️⃣Provide liquidity to WISE/ETH on Quickswap - 300% APY🦉 4️⃣Provide liquidity to WISE/QUICK on Quickswap - 500% APY🦉",17,48
1376481396026314754,"2021-03-29T10:28:33Z","RT @NFTFusion: What’s your ETH address?  No questions, just drop it below 👇 #NFT #NFTs",1953,48
1376481393719435273,"2021-03-29T10:28:32Z","🏆 Follow us &amp; Retweet this tweet, Specify the ETH address in the tweet comment to get 10 #BIT ($10 worth) or 50 #BIT ($50 worth) #BitScores Airdrop Tokens! 🎁 $250,000 Prize Pool Full rules: https://t.co/N53M5nRXr9  #giveaway #airdrops #bounty #giveaways #defi #eth #btc #airdrop https://t.co/m77hDtRsBv",3577,48
1376481381946101762,"2021-03-29T10:28:29Z","I worked with @davidbelle_ from trading site Macrodesiac to create this #NFT for the secret sauce of Trading. You can grab one of a limited supply now at https://t.co/jS22HUzZxd  #nfts #crypto #opensea #nftartist #markets #investments #trading #btc #eth #ta $ada $dot $avax $egld https://t.co/JZJooQRaWb",11,48
1376481381363159040,"2021-03-29T10:28:29Z","Not to steal anything away from Ethereum, but $BAT is very much linked to the price of $ETH and I am selfishly thinking about the pump it’s about to get. Golden cross spotted over the weekend. With news, this could get very very ugly.",9,48
1376481378993311748,"2021-03-29T10:28:29Z","Better now than never! I am so excited about UnoRe. THey provide the community to investin reinsurance and make money $$$  $ink $srk $yfi $exf $hnt $mne $eth $btc $xrp $ping $enj $omi $leo $ankr $flow $cel $mkr $aave $luna $trx $land $enj $yld $xtz $bu $icx $drep",0,0
1376481378703921153,"2021-03-29T10:28:29Z","Eth short scalp 1770 https://t.co/exbI5hM2f5",0,0
1376481368587132929,"2021-03-29T10:28:26Z","💎 Never Forget 💎  ✨ Artwork by @mbsjq 💰 Sold to arlogo for 70.0 ETH ($119,852.60)  https://t.co/yUYoutql89  #cryptoart #NFT https://t.co/jlY0cHTesc",89,0
1376481361758978049,"2021-03-29T10:28:25Z","#MXCExchange will list $TOWER and Launch the 43rd Session MX DeFi - Stake $USDT, $MX, $BTC, $ETH to Earn Yield $TOWER.  ▶️Follow @MXC_Exchange &amp; @TowerToken  ▶️Like, RT &amp; Tag 3 friends ▶️Comment  🏆10 ppl * 125 $TOWER  More info about the listing: https://t.co/VqsPboXOb5 https://t.co/6RZ4gmWYtY",998,0
1376481355991764993,"2021-03-29T10:28:23Z","@binance This is great news. Just think how much $ETH will moon once 2.0 is released too. Bright future for $ETH.  Get in or miss the ride!",2,0
1376481336853061635,"2021-03-29T10:28:19Z","4/ Alchemix v2 will add new features, such as the ability to borrow against ETH or BTC. After v2 launch, $ALCX will start paying cashflows to token holders. It won't be a valueless governance token.",37,2
1376481331752894469,"2021-03-29T10:28:17Z","💰What’s your #ETH wallet address?  🚀Don’t ask why, just drop it below👇  🚀Like、Retweet &amp; Tag ALL U CAN  🚀 USDT-NFTs has been listed on Uniswap！  🚀 The contract address: 0x6599fc3e77cbfa6f6e9cac605a30b1e78827eba0  #NFTs #NFT #AIRDROP #UNISWAP https://t.co/H29ZBOR0aL",1386,2
1376481328867196929,"2021-03-29T10:28:17Z","RT @NFTFusion: What’s your ETH address?  No questions, just drop it below 👇 #NFT #NFTs",1953,2
1376481320012972039,"2021-03-29T10:28:15Z","Welcome to massive Q DAO airdrop!   1. go now to telegram https://t.co/COyXgODY1z   2. Stay in telegram chat and wait announcement.  3. HOLD this gem until 10x   (soon - QDAO launch cross-chain for BSC, Polkadot and ETH)",4254,2
1376481319396519940,"2021-03-29T10:28:14Z","$ETH network might be used for @Visa payment settlements under the brand name $USDC.  Hope they don't make such mistake like using PriVaTe bLoCkcHain",360,2
1376481302111776772,"2021-03-29T10:28:10Z","🤑One of the biggest flips in the history of #digital assets on🤑 @SuperRare  🔥From .7 #Eth to 1000 Eth in 3 Years🚀🚀  Congratulations @XCOPYART 🎉 &amp; @punk4156 🤩  #NFT #NFTs #blockchain #Crypto #art #cryptoart  https://t.co/JlcYOxAd5K https://t.co/3o7dOKbOB4",121,23
1376481301872644099,"2021-03-29T10:28:10Z","RT @galaxyBTC: $ETH will turn from annoying it doesn't pump to annoying I don't have more real quick.  Have a great week. https://t.co/…",1057,23
1376481300249448449,"2021-03-29T10:28:10Z","RT @ki_young_ju: I smell crypto mass adoption here  $ETH",1537,23
1376481294301982721,"2021-03-29T10:28:09Z","The first set of Ahegao NFTs sold out in a week, so I've been working on some more which are now live at https://t.co/MAOPR2F1DH  #pixel_dailies #nft #NFTs #nftart #nftartist #crypto #blockchain #eth #ethereum #digitalart #art #value #nftcollector #hentai #ahegao https://t.co/YWPHtqTMQv",78,23
1376481292477341696,"2021-03-29T10:28:08Z","Save your ETH by paying gas in stablecoins with @biconomy Forward! Try testnet for https://t.co/kL2gefc0fz now.  0xdFdee4Db2023aF72847A1012De77106b202d2C24 https://t.co/fYNpX5XkrZ",0,0
1376481287054229506,"2021-03-29T10:28:07Z","RT @Cryptowaz87: $TRAC @origin_trail @TraceLabsHQ leading the way!! #blockchain #cryptocurrency #eth @xdaichain",36,0
1376481279277993986,"2021-03-29T10:28:05Z","RT @Wangarian1: I am finally convinced by the daily @sassal0x $ETH shills and have capitulated.",163,0
1376481279118606336,"2021-03-29T10:28:05Z","RT @An0nym0usNobody: “Girl In Chair”  Waiting...  .10 ETH  @opensea! #nft #opensea https://t.co/lY2ZyHeD0D https://t.co/isoZ4wjirv",9,0
1376481278158106628,"2021-03-29T10:28:05Z","$BTC $ETH #Bitcoin   Rallying nice of @Visa #Ethereum $USDC news... still looking for $60,000 target.  Sometimes that TA hocus pocus magic works🧐  Happy to help friends!🤝  #Cryptocurrencies https://t.co/A6y9tRTOv6",1,0
1376481273917579267,"2021-03-29T10:28:04Z","RT @zetta_icarus: @binance Join the miners of #bsc defi ! https://t.co/PlHwGyJmZL  You can start mining ETH on #bsc today 👀",121,0
1376481258264530946,"2021-03-29T10:28:00Z","Ethereum long-term is looking really bullish against bitcoin!!🚀 I think Ethereum is going to outperform Bitcoin in the coming weeks/months. #Ethereum #bitcoin #Crypto #trading $BTC $ETH https://t.co/nTQHs389D2",5,2
1376481254858764289,"2021-03-29T10:27:59Z","Is amazing to see how this project has been out since Dec 2020 and so far Liquidity Providers have earned about 6533.78 $ETH and that is the total value of $10.6 Million dollars. 💪  Also the APY doing 301.35% which is amazing.  #DeFi #UniSwap #BSC #SmartContract #Ethereum https://t.co/9a7rgyoMpE",2385,2
1376481250941276161,"2021-03-29T10:27:58Z","RT @galaxyBTC: $ETH will turn from annoying it doesn't pump to annoying I don't have more real quick.  Have a great week. https://t.co/…",1057,2
1376481247069929472,"2021-03-29T10:27:57Z","RT @ElCrypto8: $TOSA ready for liftoff, lots of news coming this week $TOSA $BTC $ETH $POODL $HOGE $GRUMPY https://t.co/cGJ3zBkOuj",18,2
1376481244381392897,"2021-03-29T10:27:57Z","Bitcoin #BTC and Ethereum #ETH Pop 4% as Visa $V Says Will Allow Payment Settlements Using Cryptocurrency https://t.co/1olFhmjApN https://t.co/uh1Vj65CY6",13,2
1376481239989911553,"2021-03-29T10:27:56Z","#Ethereum blew my mind in 2017! $Eth      ⟠ ☆。⟠。+。☆゜*⟠。⟠゜ 　。＊゜゜⟠☆＊+゜。*。゜ 　 ⟠☆゜*゜。+。☆＊⟠゜ 　゜+。☆゜⟠。*。⟠ 。+* 　    ＼。。*゜*。+／ 　　    ＼*+゜⟠。+／                ＼  ∧,,∧ .／ 　　　　     (◉‸◉) 　　　　　⟠ ⊂  ) 　　　　　  し-J",2,1
1376481235908853760,"2021-03-29T10:27:55Z","RT @ShiverMeLinkers: This is going to be one of the greatest weeks of our lives. I'm excited for all of us.  $BNT $ETH $LINK $GRT $REN $NU",3,1
1376481232561782791,"2021-03-29T10:27:54Z","@TupacRewoke @Infisnake @DATDropCases yes you need a eth depo",0,0
