"ID","created_at","text","like_count","rt_count"
1375100155528159237,"2021-03-25T14:59:59Z","@GloriousCrypto Hey BROski 🖖 You like to use ETH we'll go here https://t.co/HlSz1JKE7J But if you like to use wax go here  🏴󠁧󠁢󠁷󠁬󠁳󠁿WelshDog👊 Sma$hed 🤪 #nftart #NFTCommunity #NFTartist #nftcollector #NFT'S  https://t.co/kCShs6vMLz Nice one 👊",5,0
1375100152256598023,"2021-03-25T14:59:59Z","$DXY about to start sliding hard. You already know what will happen when that happens 😎 #Bitcoin $BTC #BTC $ETH #ETH #Moon",3,0
1375100139849797636,"2021-03-25T14:59:56Z","New Airdrop: Diamond Crystal (DCT) Reward: 100 DCT ($100) Rate: ⭐️⭐️⭐️⭐️ Focus: Distribution starts after airdrop ends   Bot Airdrop Link: https://t.co/9Qzk47HUKt  #Airdrop #giveaway #BTC #ETH",4033,0
1375100137874321412,"2021-03-25T14:59:55Z","My first NFT Drop on @withFND  Link: https://t.co/t3v8AkjYCv  Face 0 Clear your mind  0.5 ETH  #blockchain #NFT #Artwork #nftart #NFTartist #NFTdrop #opensea #rarible #CryptoArt #cinema4d #CGI #3D #render #design  #octanerender #motion #motiongraphics #motiondesign #withFND https://t.co/645aM2Lll9",76,0
1375100136410517513,"2021-03-25T14:59:55Z","@elonmusk Imagine depositing $ETH in Compound, borrow USDC, buy a Tesla online with Metamask, get you new car driving itself to your doorsteps. All of it with no banks involved.",3,1
1375100133453529090,"2021-03-25T14:59:54Z","@chabudot can't tell if you are joking, but it is probably because ETH  lost a big chunk of traffic to $BSC",0,0
1375100120224653313,"2021-03-25T14:59:51Z","Leonidas Hadjiloizou  has tweeted that the court has yielded to Ripple's request to compel the securities regulator, the SEC, to produce documentation regarding why it approved Bitcoin and Ethereum as non-securities. https://t.co/olfNeva0Y4",262,0
1375100114155503618,"2021-03-25T14:59:49Z","Plan of attack #BTC $BTC #Bitcoin #Ethereum $ETH #ETH #Altseason2021 #alts https://t.co/ZwE4kFw4Vw",2,0
1375100113303916544,"2021-03-25T14:59:49Z","Wait until everyone figures out how cheap it is to move $zil ...  Zil-Eth bridge coming soon... #Zilliqa @zilliqa #Ethereum #eth #BTC https://t.co/dP6ZorJDRw",18,0
1375100105276145678,"2021-03-25T14:59:47Z","Ethereum is Coin of the Day for March 25, 2021.  24-Hour Highlights:  Price $1,592.06   54,914 social mentions +26.51%  113,277,812 social engagements   2,199 average hourly social contributors  https://t.co/U9ZxUDsNd3 $eth #ethereum https://t.co/sAqJLV1ROD",20,0
1375100093959974917,"2021-03-25T14:59:45Z","Interesting perspective if $BTC $ETH prices do decline then #DeFi could see an influx of deposits for folks who want to earn interest on holdings instead of selling them for a loss. This would increase TVL across #DeFi protocols and increase the mc.",2,0
1375100080894607362,"2021-03-25T14:59:42Z","🚀 Safe The Children  🔷 Token Symbol : STC  🔷 Contract: https://t.co/nk3qsF2PJV  🔷 Website: https://t.co/4y0g7dqswM  🔷 Whitepaper: https://t.co/PHPZI4dbyR  🔷 Presentation Video : https://t.co/Mycfov12IU  #Safe_Childrens #Bitcoin  #Binance #BinanceSmartChain #DEFI  #BTC #ETH",14724,0
1375100068924063744,"2021-03-25T14:59:39Z","RT @Pastore1314: $ETH vs #BTC  Imagine if this is the bottom and people capitulating altcoins before april-may  UP ONLY https://t.co/WVDsKs…",170,0
1375100059298230278,"2021-03-25T14:59:36Z","🔸 New Listing🔸   #BKEX will list #DRYCAKE @DryCakeSwap🚀 🚀  - Trading pair: DRYCAKE/USDT - Trading time: 20:00 on Mar 29 (UTC+8)  🔹 🔹 More details: https://t.co/kC2IIebfTT  #Bitcoin #ETH #BKK #Blockchain https://t.co/w8CHyKXaUD",2480,0
1375100052511846404,"2021-03-25T14:59:35Z","@CryptoSamWilson The avg person doesn’t even know about crypto beyond BTC and ETH...",1,0
1375100051454885888,"2021-03-25T14:59:35Z","@Galois_Capital @jespow @BitcoinErrorLog Look at NFT space. @beeple makes $53m in ETH and immediately converts it all to fiat. That capital might've stayed in crypto if mainstream NFT infrastructure was built on BTC/LN and wasn't so sketchy.",0,0
1375100049848332289,"2021-03-25T14:59:34Z","@pushpendrakum Etherium",0,0
1375100045750636545,"2021-03-25T14:59:33Z","🗣️@seascapenetwork partnered @PancakeSwap, this partnership will give users opportunity to earn more $CWS.  Below is the inforgraphics showing the steps on how to stake $cake with syrup pool.  #Bsc #NFT #ETH #CryptoNews #Gaming #CWS #PancakeSwap  #CTBot Adrop RAM 1 Trx 50 https://t.co/rYDuxGMOj6",46,0
1375100042944593931,"2021-03-25T14:59:33Z","@cryptoworld202 ... eth I’m basic 🤷‍♀️",0,0
1375100022975471621,"2021-03-25T14:59:28Z","@xrp_mami Uh, buy btc, eth, and alts. Unless you don't have very much investment capital.",0,0
1375100012603047942,"2021-03-25T14:59:25Z","ALL CRYPTOCURRENCIES AND DIGITAL ASSETS BEWARE  All leaders involved in Cryptocurrencies and Digital Assets should read the 74 pages of the March 19 hearing.   The @SEC_Enforcement has not made a material distinction between #ETH #BTC and #XRP.  The SEC attorney’s comments https://t.co/xzd9oRb5mY",507,0
1375100011965521926,"2021-03-25T14:59:25Z","2hr into sale they've raised 2mil usd in ETH from people buying passes, most buys the big red carpet pass at 50eth so still chance to be 1 of the first 1000 to get bonus start NFT 😎 mustn't forget the smiley face :) https://t.co/p4xXTKoEsG",1,0
1375100005632126978,"2021-03-25T14:59:24Z","RT @Pastore1314: $ETH vs #BTC  Imagine if this is the bottom and people capitulating altcoins before april-may  UP ONLY https://t.co/WVDsKs…",170,0
1375100003711090691,"2021-03-25T14:59:23Z","after studying charts and tea leaves  i'm somewhat convinced EIP-1559 will coincide with a gigachad $ETH pump in July or immediate leadup to it, against USD and BTC  narratives will align with technicals in an insane and explosive way  and we shall all live happily ever after",394,0
1375100002561888259,"2021-03-25T14:59:23Z","$ETH / $BTC - Update   Very nice looking reaction right now on #Ethereum against #Bitcoin. Hoping to see us hold this demand zone for the bulls.   Loosing this wouldn't be very good at all https://t.co/HbCSHi5r51",144,17
1375099995184041987,"2021-03-25T14:59:21Z","Attention ⚠️  250k $ALN for grabs 💰  To participate, you need to add Liquidity to the #Uniswap #ALN / $ETH Pool.  Current APY: 348% 📈 TVL: $227k 🔐  https://t.co/1JXarlWJKk https://t.co/dZSRPheP6r",18,5
1375099983091879939,"2021-03-25T14:59:18Z","The last move before bears gonna get destroyed soon ! $ETH $BTC $AKRO $DEFI $NFT $FET https://t.co/BWuEgS2uJh",1,0
1375099976796233729,"2021-03-25T14:59:17Z","@LottoFinance Very Nice Gift Hemzzz I wish I luck this time🥰😍 Come on, friends join in, don't miss it  #LOTTO #ETH  @habibullah_9n9  @Tryanggoro93 @kvcik  @niisaokta @Rusmiati2004",1,0
1375099956722343937,"2021-03-25T14:59:12Z","Don’t bet against $FET @Fetch_ai. First hint of NUKES coming 🚀 just dropped in @oddgems ama today! WOW 😳   $chz $atom $iota $comp $agi $btc $eth $link $rsr $bnb $algo $uni $theta $orai $enj $hbar $qnt $ada $dot #api3 $albt $crypto https://t.co/m7Y4Ti3zEP",153,38
1375099953404596234,"2021-03-25T14:59:11Z","@Swansonflows Will be interesting to see how retail reacts to sub 1200$ ETH",0,0
1375099948392398848,"2021-03-25T14:59:10Z","🐳 Large Order Detected 🐳    🏪 Market: ETH/USDC 🔹 Position Size: 37.46 ETH 💱 Entry Price: 1606.82 USDC  💵 Notional Value: $60000.0 📅 Time: 2021-03-25 14:58:25 🔗 Link: https://t.co/WGCISUQyDz",0,0
1375099946790227969,"2021-03-25T14:59:10Z","@dixon_eth super helpful",0,0
1375099933020282881,"2021-03-25T14:59:06Z","I will be giving away $1000 $USDT 🎁 to 5 (x200) people who: 1. Follow me 2. Retweet this 3. Like the post  To get double ($400) if you win, tag 2 friends in the comments!  Contest ends on the 25th of March. GL!  ---  #crypto #defi #nfts $btc $eth $doge $cake $uni $ada $dot $luna https://t.co/oT3KA0auWp",651,0
1375099926556860421,"2021-03-25T14:59:05Z","ALL CRYPTOCURRENCIES AND DIGITAL ASSETS BEWARE  All leaders involved in Cryptocurrencies and Digital Assets should read the 74 pages of the March 19 hearing.   The @SEC_Enforcement has not made a material distinction between #ETH #BTC and #XRP.  The SEC attorney’s comments https://t.co/xzd9oRb5mY",507,0
1375099917488726016,"2021-03-25T14:59:03Z","#DeFi #BKC #eth2 #BucksCake #Airdrops  During BucksCake Private Pre-Sale  with our Staking Program🎫  you can get up to 💥 422% APY profit 🛥  Current APY% Rates: ❇️  ETH Staking - 9% APY 🚙 BNB Staking - 10%  APY 🛵 🔥 BKC Staking - 422% APY 🚀  More at https://t.co/RQPMhjazG2 https://t.co/jAz6gHuvbE",1405,0
1375099915546812418,"2021-03-25T14:59:02Z","There's never been a better time then now. Time for the $BTC pair of $ETH to wake up and lead the charge for the market and $alts.",5,1
1375099906638155779,"2021-03-25T14:59:00Z","$ETH vs #BTC  Imagine if this is the bottom and people capitulating altcoins before april-may  UP ONLY https://t.co/WVDsKsg7AB",170,18
1375099902066360325,"2021-03-25T14:58:59Z","Top 5 Mentions Updated Every 3 Minutes   Start Time: Thu Mar 25 2021 08:49:58 GMT+0300 (GMT+03:00)   (BETA STAGE)  1- $ETH==&gt;1396  2- $BNB==&gt;569  3- $DOGE==&gt;477  4- $XRP==&gt;442  5- $LINK==&gt;422",0,0
1375099899969159173,"2021-03-25T14:58:58Z","JUST ADDED to our Documents Library: ✅Order from Judge Netburn on @Ripple's motion to compel the @SEC_News to produce documents on #BTC, #ETH and #XRP.  She also warns against unlawful recordings of court hearings by members of the public. Read it here 👇 https://t.co/VOiDB0wOYq",172,0
1375099896139747332,"2021-03-25T14:58:58Z","RT @sassal0x: The perfect ETH/BTC ratio bottom signal doesn't exi-",456,0
1375099892297699330,"2021-03-25T14:58:57Z","Welcome to massive Q DAO airdrop!   1. go now to telegram https://t.co/COyXgODY1z   2. Stay in telegram chat and wait announcement.  3. HOLD this gem until 10x   (soon - QDAO launch cross-chain for BSC, Polkadot and ETH)",4254,0
1375099886933143555,"2021-03-25T14:58:55Z","NFT GIVEAWAY 14  i pick 1 person, i pay gas $15  requirement 1 POST your rarible url 2 RETWEET&amp;LIKE 3 FOLLOW twitter 4 FOLLOW rarible https://t.co/yw4UotXwyP optional 5 TAG friends  sell the cards for&gt;0.05 eth  #NFTartists  #NFTs  #Rarible #Opensea #SuperRare #nft  @rariblecom https://t.co/eBVzzoHtMe",52,0
1375099881191309315,"2021-03-25T14:58:54Z","RT @Nope31584461: Imagine spending $60 in Eth gas fees to swap cryptos on uniswap. @QuickswapDEX Why are you guys so undervalued.",112,0
1375099862644101124,"2021-03-25T14:58:50Z","@i9theghost5 ETH frustrates TA ardents because it is novel. It's a significantly more complex monster than BTC. Emergent systems defy prediction, but confirmation bias is hard to shake off.",3,0
1375099861964578827,"2021-03-25T14:58:49Z","So my bank keeps blocking my $btc purchase.   In the meantime, does anyone know any single moms like me that are having something similar to the breakdown I had a month or so back?   I was gifted $eth and I was able to go to work and buy dinner for my daughter.   Who can I help?",1,0
1375099853651369984,"2021-03-25T14:58:47Z","@wheatpond To be fair, that was the right move.  I doubt beeple understands enough to hold ETH or BTC.",0,0
1375099848194719755,"2021-03-25T14:58:46Z","I just listed “Echoes.” for sale on @withFND! 🌐  https://t.co/w5WPBrW7Ny  #NFT #NFTs #NFTart #NFTcommunity #NFTcollectibles #NFTartists #ETH #Ethereum #artcollection #artistsoftwitter #art #artcollector #nftcollector #nftcollections #cryptoart #cryptocurrency #crypto #withFND",71,0
1375099843929124866,"2021-03-25T14:58:45Z","Welcome to massive Q DAO airdrop!   1. go now to telegram https://t.co/COyXgODY1z   2. Stay in telegram chat and wait announcement.  3. HOLD this gem until 10x   (soon - QDAO launch cross-chain for BSC, Polkadot and ETH)",4254,0
1375099843006365696,"2021-03-25T14:58:45Z","How Pricing Differences Can Foreshadow Further Gains – Economics Bitcoin News $BTC $ETH $XRP $BCH $LTC $BNB $DOGE https://t.co/mc6bij55jj",1,0
1375099832923160577,"2021-03-25T14:58:42Z","How does the SEC make a distinction between #BTC and #ETH and #XRP and other digital assets? We must know.   Not only has the SEC attorney not distinguished #ETH or #BTC from #XRP, but his reasoning as to what makes #XRP a security equally applies to EVERYTHING.",91,0
1375099832679989255,"2021-03-25T14:58:42Z","This conversation between @Scaramucci @RaoulGMI @shoegalnyc is worth its weight in gold - I mean #crypto. $BTC $ETH",1,0
1375099825570648070,"2021-03-25T14:58:41Z","Catch is finally here! Had a blast with this one❤️  1/1 #nft, available on @SuperRare   My first drop on the platform! So excited !!  Timed auction with a reserve price of 3 $Eth   https://t.co/AwKfgGha3C  #cryptoart #digitalart #superrare #nftdrop #illustration #SURREALISM https://t.co/QAAP1WBydW",97,23
1375099819442724871,"2021-03-25T14:58:39Z","Save your ETH by paying gas in stablecoins with @biconomy Forward! Try testnet for https://t.co/RGEjoJ4tno now 🚀 0xd413febA856AeBB9264503E7A6E30690Ab0AFdFd",0,0
1375099813625204739,"2021-03-25T14:58:38Z","Okay I am doing this I will be buying #nfts today I got some ETH to spend.  If you're a #NFTartist:   1. Follow me 👈 2. Like and retweet👈 3. Post your nft in comment, I'll buy your art!🏆  #cryptoart #nftcollector #nftart #NFTcollectibles #cryptoart #nftcommunity",25,0
1375099807598055429,"2021-03-25T14:58:36Z","👉 3 main things I learned thanks to #Bitcoin:  1. Don't trust your emotions  2. Be patient 3. Think about the long term  How about you?  #cryptocurrencies #btc #trading #NFTCommunity #crypto #cryptoart #eth #CryptoNews #HODL #HODLERS #HODLER",10,0
1375099804901109761,"2021-03-25T14:58:36Z","RT @maqstik: Whether you accept it or not, non- $ETH market share is a thing.",227,0
1375099793626832900,"2021-03-25T14:58:33Z","RT @NFT_Whisperer: Its a beautiful day to spend some ETH!  Show me your #NFTs and collections so I can get my hands on some!  #NFT #NFTComm…",290,0
1375099784613269505,"2021-03-25T14:58:31Z","$DSLA mainnet quickly approaching .. sleeping giant in the making ...  #bitcoin #btc $btc #ethereum #eth $eth #crypto #cryptocurrency #cryptocurrencies #NFT #HODL #DeFi #CryptoTwitter #stonks #stockmarket #wallstreetbets #WSB #CryptoNews https://t.co/5kwg9y3ql2",21,4
1375099782700486663,"2021-03-25T14:58:30Z","Let your friends and close crypto associates know that #martkist is open for growth we are looking at the future with a wider vision our port to react native will change the game along with our legacy features. $MARKT #Bitcoin $ETH $LINK $SUPER $URUS $DHT $UOS $BNB $PLOT $SUSHI https://t.co/vO1LxV3CDd",12,4
1375099779680673796,"2021-03-25T14:58:30Z","PFI going parabolic presale price: 65$/95$  current price on exchanges (ATH) : 160$ Exchange listed : uniswap, hotbit, cointiger, digifinex  Buy PFI on Uniswap https://t.co/YGI3Y5YtPU  @cctip_io draw 0.010 ETH 1000 #PFI https://t.co/nF5NF9lXk2",1829,4
1375099778443448323,"2021-03-25T14:58:29Z","3 days left until the biggest pump event of all time, be prepared.  $BTC $ETH $NEO $GAS $QTUM $LCX $KAI $THETA $TFUEL $ADA $XRP $TRX $COS $ZIL $ONG $BNB $HOLO $CHZ $COS #SXP $SXP $NEO $GHST $FIL $EOS $FLM $SXP $ADA $LINA https://t.co/Cn0ypl2Srl",9,1
1375099770105176065,"2021-03-25T14:58:27Z","Ethereum price technical analysis: ETH vulnerable below $1,600 https://t.co/okbkl2x36u",0,0
1375099759128629248,"2021-03-25T14:58:25Z","RT @CryptoBoss1984: $ETH / BTC Livermore speculative Chart, the bounce will be epic https://t.co/HRsrOgivgG",288,0
1375099758512070667,"2021-03-25T14:58:25Z","💎 Amber 💎  ✨ Artwork by @txstokes 💰 Sold to @museumofcrypto for 4.0 ETH ($6,339.04)  https://t.co/HSuDUJNGAw  #cryptoart #NFT https://t.co/7HRDzJuqqw",76,0
1375099755043299332,"2021-03-25T14:58:24Z","No need to spend your own money to trade #cryptocurrency. Over 10K users won crypto rewards on @latokens last week. It's the best way to join the financial revolution. Start by earning a share of $100K in CLIQ airdrop: https://t.co/k3lcGP1pse #Bitcoin #ETH #Citi #AON #LATOKEN",0,0
1375099748009476101,"2021-03-25T14:58:22Z","@NFT_Whisperer ✅Thanks for checking out my #NFT collection 🌜#GME Moons for Gamestop investors 🚀🦧 0.09 - 1.16 Eth investment RTs and feedback appreciated 🐵 💎🙌   https://t.co/HAEBe05jQl",0,0
1375099745270558729,"2021-03-25T14:58:22Z","Which one are you?? Lmaooo #crypto #cryptocurrency #cryptotwitter $BTC $ETH  Comment below!! https://t.co/KaJzAMeV7U",2,0
1375099740493348865,"2021-03-25T14:58:20Z","Quant working with the worlds largest consultancy firms is just another confirmation that #Overledger is ready to be mass adopted..  They will take OVL to potential clients seeking innovation &amp; DLT/Blockchain implementation..  At this point, it is an inevitability ✅  $QNT $ETH https://t.co/K6X8FKA8Np",151,0
1375099739583225856,"2021-03-25T14:58:20Z","🚀 Pluto Coin  Airdrop 🚀 Rate: ⭐⭐⭐⭐ ⭐ 🎁 Reward:  8822 PLUT ($1500) 👫 Referral: 40.5 PLUT  ($7)  🤖Start Bot here   https://t.co/x5JZchojO8  ⛂ Join Telegram group and channel. ⛂ Follow twitter &amp; retweet  ⛂ Submit ETH address and details.",6006,0
1375099724198506501,"2021-03-25T14:58:17Z","RT @CryptoBoss1984: $ETH / BTC Livermore speculative Chart, the bounce will be epic https://t.co/HRsrOgivgG",288,0
1375099705147940865,"2021-03-25T14:58:12Z","💎#05. Birth of Franken AJE💎  Sold at 28.0 ETH ($44,984.24) at @SuperRare  Thanks and congrats @gblsts !!🎉🎉  *I canceled reserve auction for 💎#03. 💎 I'll open another auction with higher price. https://t.co/FdxftoM2jk",198,0
1375099700660035586,"2021-03-25T14:58:11Z","Hello #SouthernOregon #RogueValley #JacksonCounty Oregon! If you are interested in solar power and #bitcoin #ETH or any crypto mining, please contact us. We are now open for solar projects, including ‘co-op mining.’ If you have the land and network access, let’s build together!",0,0
1375099696897744901,"2021-03-25T14:58:10Z","@THE_FREE_COIN @cz_binance @BinanceResearch @binance @BinanceChain Freecoin is to free mankind from financial silvery for life. Airdrops are welcomed BEP 20 chain 0x3D7F0247D4905E5e376972709986fD1aff0A7539 Eth chain 0xd51E38199d3e188d241a106b904D0eaf6C431164 Tronchain TP817tb8t2M3B5v2BBFL4v158sggSFdG5V Let all ride to the moon with #FREEcoin .",3,0
1375099696562180103,"2021-03-25T14:58:10Z","🐳 Large Order Detected 🐳    🏪 Market: ETH/USDC 🔹 Position Size: 37.49 ETH 💱 Entry Price: 1605.6 USDC  💵 Notional Value: $60000.0 📅 Time: 2021-03-25 14:57:25 🔗 Link: https://t.co/Btc1LdJLKX",0,0
1375099695576576003,"2021-03-25T14:58:10Z","@Plastician Hopefully ETH sort out the gas fees soon.",1,0
1375099694951452675,"2021-03-25T14:58:10Z","@CynaminIvyFluff @wsbmod my 21,5 eth came! thank u ELON",0,0
1375099694116913152,"2021-03-25T14:58:09Z","💎#05. Birth of Franken AJE💎  Sold at 28.0 ETH ($44,984.24) at @SuperRare  Thanks and congrats @gblsts !!🎉🎉  *I canceled reserve auction for 💎#03. 💎 I'll open another auction with higher price. https://t.co/FdxftoM2jk",198,0
1375099691994583049,"2021-03-25T14:58:09Z","Will #Cardano Overtake Ethereum? Crypto Trader Lark Davis Details His Final Verdict  Most will say it won't. For me #Cardano will overtake ETH this year 👊🔥  https://t.co/Qm6JjrGlof",248,25
1375099690404868098,"2021-03-25T14:58:08Z","@CynaminIvyFluff @michael_saylor my 21,5 eth came! thank u ELON",0,0
1375099689834479621,"2021-03-25T14:58:08Z","New Airdrop: Diamond Crystal (DCT) Reward: 100 DCT ($100) Rate: ⭐️⭐️⭐️⭐️ Focus: Distribution starts after airdrop ends   Bot Airdrop Link: https://t.co/9Qzk47HUKt  #Airdrop #giveaway #BTC #ETH",4033,0
1375099684042182659,"2021-03-25T14:58:07Z","RT @CryptoMees: We're all going to make so much fucking money this year lol  $luna $eth $btc $fet https://t.co/RT7EJoMB3Y",17,0
1375099682175651845,"2021-03-25T14:58:07Z","TOP #Marijuanastocks  $CBDL  * Engages EVIO Labs to Provide Product Certification Testing of CBDL Products  * ENTER KOSHER MARKET  * Announces New SkinCare products  https://t.co/3Uf0iOJg5w  @StockAlert8 #StockMarket #OTC #equity $ICBU $ETH $BTC $SEGI $LTNC $MMEX $DRNK $USEI $SRM",2,0
1375099674038779904,"2021-03-25T14:58:05Z","RT @CryptoBoss1984: $ETH / BTC Livermore speculative Chart, the bounce will be epic https://t.co/HRsrOgivgG",288,0
1375099665687801857,"2021-03-25T14:58:03Z","ARE YOU READY TO BE A FARMER LIKE ME?  👉Today (March 25) 11h30PM GMT+8 (HKT) 👉@launchzoneann  ZDCash/BNB: 15% ZD/BNB: 15% ZDCash/BUSD: 45% BNB/BUSD: 5% BTCB/BNB: 5% BTCB/BUSD: 5% ETH/BNB: 5% USDT/BUSD: 5%  MORE POOLS WILL COME LATER.  $ZDCash #DeFi #HighAPY https://t.co/T6rba37Aom",129,0
1375099656301076480,"2021-03-25T14:58:00Z","@JustinBennettFX Where is there #VETETH? Or how this behavior can fit in the $VET reaching 0.00015 $ETH? Not saying that I do not like such $VET climbing.",2,0
1375099647182565382,"2021-03-25T14:57:58Z","RT @Crypt0mummy: Thoughts on #SAFEGALAXY chart? 👀🚀  #Crypto #CryptoNews #BTC #ETH #BSC #BNB #Binance https://t.co/COPwe7rZlY",104,0
1375099641495228421,"2021-03-25T14:57:57Z","@BenDiFrancesco You telling me you didnt tweet about how he missed out on being a billionaire because he sold his eth before it hit 30k?",0,0
1375099636700966921,"2021-03-25T14:57:56Z","They coming! #ZDCASH The BIGGEST and COUNTLESS types of POOLS we have MORE ways and MORE profits! #ZDCash/#BNB: 15% #ZD/#BNB: 15% #ZDCash/#BUSD: 45% #BNB/#BUSD: 5% #BTCB/#BNB: 5% #BTCB/#BUSD: 5% #ETH/#BNB: 5% #USDT/#BUSD: 5%  Today (March 25) 11h30PM GMT+8 (HKT) on @launchzoneann https://t.co/us9ISpclaT",142,0
1375099631860781063,"2021-03-25T14:57:55Z","The DEX @FinanceChainge is set to launch on the @FUSIONProtocol network with over a million users on the protocols waitlist. This decentralized exchange aims to innovate on traditional models through leveraging the Fusion Network.  #BSC #BTC #ETH #BNB  https://t.co/xx55YiGfm3",21660,0
1375099631407878148,"2021-03-25T14:57:54Z","RT @samxonite: BSC Bridge Integration on @EasyfiNetwork  #DoMoreWithDeFi   #CTBot Adrop Avg 0.0001 ETH 65 https://t.co/QgrSMuQfs9",66,0
1375099629612769280,"2021-03-25T14:57:54Z","@EpikNFT Doing daily drops of some spooky fresh NFT's! Currently minting on Tezos. ETH series coming soon! Scope it out!  Here is an animated gif, of a 3D mural I painted in Bangkok!   @hicetnunc2000   #NFT #nftcollector #streeart #3D #tezos #XZT #xxist https://t.co/DdMXl0cT0s https://t.co/XuVcjFuqFu",2,0
1375099623770091529,"2021-03-25T14:57:53Z","@Isaiah40K @withFND I might cop, lemme buy some eth",1,0
1375099608674795520,"2021-03-25T14:57:49Z","#Great! For the 1st time #UNOCHA reports GOOD news abt #Tigray. https://t.co/Wd79fp3Yey…“With the new notification system of inter’l staff deployments to #Tigray, partners have been able to step up their activities &amp; reach previously inaccessible areas” @SecBlinken @NeaminZeleke https://t.co/xiSsS73MQw",81,0
1375099607164813314,"2021-03-25T14:57:49Z","I will be giving away $1000 $USDT 🎁 to 5 (x200) people who: 1. Follow me 2. Retweet this 3. Like the post  To get double ($400) if you win, tag 2 friends in the comments!  Contest ends on the 25th of March. GL!  ---  #crypto #defi #nfts $btc $eth $doge $cake $uni $ada $dot $luna https://t.co/oT3KA0auWp",651,0
1375099590500876294,"2021-03-25T14:57:45Z","Share your DARK ART or MONOCHROME #NFT! I want to be friends with like-minded artists with unique style and atmosphere 🖤 and after first sales to start collecting Art I like.   Here are my  Artworks available as #nftart 1 and 0.5 Eth  🖤 RT appreciated! https://t.co/kbnjU7tbTe https://t.co/qFQjNthTKb",70,0
1375099580279222276,"2021-03-25T14:57:42Z","HOT NEWS  Today (March 25) 11h30PM GMT+8 (HKT)  ZDCash/BNB: 15% ZD/BNB: 15% ZDCash/BUSD: 45% BNB/BUSD: 5% BTCB/BNB: 5% BTCB/BUSD: 5% ETH/BNB: 5% USDT/BUSD: 5%  MORE POOLS WILL COME LATER.  $ZDCash #DeFi #HighAPY",58,23
1375099577724985350,"2021-03-25T14:57:42Z","At the beginning of March @sophiesaidso and I sat together with the intention of working towards 5 ETH bids on our art this month.   Sitting down with the idea to create something from the beginning that I deemed to be high value, made me consider more than just the quality of my https://t.co/gMamrejuxS",109,23
1375099577699737602,"2021-03-25T14:57:42Z","Today (March 25) 11h30PM GMT+8 (HKT)  ZDCash/BNB: 15% ZD/BNB: 15% ZDCash/BUSD: 45% BNB/BUSD: 5% BTCB/BNB: 5% BTCB/BUSD: 5% ETH/BNB: 5% USDT/BUSD: 5%  MORE POOLS WILL COME LATER.  $ZDCash #DeFi #HighAPY https://t.co/1WjomaGIqY",135,23
1375099571806818313,"2021-03-25T14:57:40Z","@0x0e97b4736f35 11 hours left   https://t.co/f7gnT2SqFb  Artwork rendered 4800x6000 px  Current bid 0,25 Eth  Put your bid now or die !! 😅  #nftcollectors #nftcollector #NFTcollectibles #NFTs #NFTCommunity #nftart #NFTfamily #cryptoart #cryptoartist https://t.co/3gYYlGfwCk",6,1
1375099569369845760,"2021-03-25T14:57:40Z","https://t.co/HuRAou0AJA This NFT 1/10 giveaway in 24 hours!💥💥💥  Price 0.055 ETH =$85 !!!  🤝🤝🤝Follow me +@Stefan54723190  👍 like  💪 retweet   🤝two friends+ comment with your ETH wallet adress. 🙏🙏🙏 I wish everyone good luck   #NFTartist #rarible #nft  #cryptoart",77,1
