"ID","created_at","text","like_count","rt_count"
1374677367956762630,"2021-03-24T10:59:59Z","I'll send $500 in #ETH or #BTC to one person who retweets this and follows @bud_crypto. Must complete these tasks:  1 - Like/RT his pinned tweet  2 - Must RETWEET &amp; LIKE 4 of his tweets  Ends in 72 hours!",1402,1861
1374677345576099841,"2021-03-24T10:59:54Z","The DEX @FinanceChainge is set to launch on the @FUSIONProtocol network with over a million users on the protocols waitlist. This decentralized exchange aims to innovate on traditional models through leveraging the Fusion Network.  #BSC #BTC #ETH #BNB  https://t.co/xx55YiGfm3",21105,13409
1374677337556549635,"2021-03-24T10:59:52Z","@XRPNews_ @PayPal is a dishonest party of my case, they helped somebody to steel $549.50 from me unfairly. Please 🔃🔁 retweet until they return my money. @binance @BinanceAfrica @BinanceP2P #BinanceSmartChain #Binance #Bitcoin #BitcoinCash #bitcoinnews #Crypto #ETH #ETHUSD #XRPCommunity",1,0
1374677332359790596,"2021-03-24T10:59:50Z","Hi, Dm for BTC investment methods #BTC #cryptocurrencies #btcusd #cryptocurrency #Bitcoin #crypto #Ethereum #investing #CryptocurrencyNews #forex #BCH #altcoin #Algorand #Binance #ETH",0,0
1374677326017929218,"2021-03-24T10:59:49Z","$YFDAI  Announce their next Initial Launchpad Offering, DEFIT! @360wellnessapp  @YfdaiF Also patnered with @FerrumNetwork🍻  Get ready and The two most promosing projects are working together to help us to bring upcoming hot Gems  💎   $FRM #YFDAI #DeFi #ETH https://t.co/UFYlyNicwN",57,37
1374677323169947656,"2021-03-24T10:59:48Z","I'll send $500 in #ETH or #BTC to one person who retweets this and follows @bud_crypto. Must complete these tasks:  1 - Like/RT his pinned tweet  2 - Must RETWEET &amp; LIKE 4 of his tweets  Ends in 72 hours!",1402,1861
1374677321471299584,"2021-03-24T10:59:48Z","$YFDAI  Announce their next Initial Launchpad Offering, DEFIT! @360wellnessapp  @YfdaiF Also patnered with @FerrumNetwork🍻  Get ready and The two most promosing projects are working together to help us to bring upcoming hot Gems  💎   $FRM #YFDAI #DeFi #ETH https://t.co/UFYlyNicwN",57,37
1374677321374859266,"2021-03-24T10:59:48Z","Since this the launch of @dypfinance back in Dec 2020 looks like Liquidity Providers have earned $11.4 Million dollars in $ETH just from Staking!  Also the project is paying out is $ETH as well and so far 6.2K $ETH have been rewarded.   #DeFi #Crypto #Cryptocurrency #BitcoinTalk https://t.co/zis10XPcL7",1784,1888
1374677312621309953,"2021-03-24T10:59:46Z","$YFDAI  Announce their next Initial Launchpad Offering, DEFIT! @360wellnessapp  @YfdaiF Also patnered with @FerrumNetwork🍻  Get ready and The two most promosing projects are working together to help us to bring upcoming hot Gems  💎   $FRM #YFDAI #DeFi #ETH https://t.co/UFYlyNicwN",57,37
1374677309656068096,"2021-03-24T10:59:45Z","time to invest in some bold art, boys and girls  only 1 copy available 🔥 current bid: 0.8 ETH  #nftart #nftcommunity #nft  https://t.co/XxAWGvp7mz",25,4
1374677293885362178,"2021-03-24T10:59:41Z","No need to spend your own money to trade #cryptocurrency. Over 10K users won crypto rewards on @latokens last week. It's the best way to join the financial revolution. Start by earning a share of $100K in CLIQ airdrop: https://t.co/lu1Qfg2lt2 #Bitcoin #ETH #Citi #AON #LATOKEN",0,0
1374677288403439616,"2021-03-24T10:59:40Z","@senturkburak @0xd3d3 Nice little collection! I will be using the ETH from my genesis (when she sells) to also purchase art.",0,0
1374677283831574528,"2021-03-24T10:59:39Z","Really @beeple didnt even keep a million worth of $ETH sold all   I guess he is not very good at financial planning  https://t.co/RKCu5yCJZ2",1,0
1374677277917650944,"2021-03-24T10:59:37Z","🔥 WoW!!! $DYP getting listed on @kucoincom !  DYP/USDT &amp; DYP/ETH trading will start tomorrow, March 25th at 10AM UTC! Good job @dypfinance team!  #DeFi #uniswap #Ethereum https://t.co/Rw9qa5l5tA",2211,2334
1374677277397684225,"2021-03-24T10:59:37Z","$COVAL @circuitsofvalue #coval #ETH @0xPolygon @DarkBuild1 @kucoincom @Bitcoin #NFT #Binance  #BinanceSmartChain    #Polygon @gate_io @DefiOracle @CryptoSlimer @gem_insider https://t.co/bnlNQGEBSO",11,4
1374677275812229122,"2021-03-24T10:59:37Z","$YFDAI  Announce their next Initial Launchpad Offering, DEFIT! @360wellnessapp  @YfdaiF Also patnered with @FerrumNetwork🍻  Get ready and The two most promosing projects are working together to help us to bring upcoming hot Gems  💎   $FRM #YFDAI #DeFi #ETH https://t.co/UFYlyNicwN",57,37
1374677273111101448,"2021-03-24T10:59:36Z","@elonmusk First and foremost thank you freaking genius and second When will u be able to with #ETH",2,0
1374677272142082049,"2021-03-24T10:59:36Z","$YFDAI  Announce their next Initial Launchpad Offering, DEFIT! @360wellnessapp  @YfdaiF Also patnered with @FerrumNetwork🍻  Get ready and The two most promosing projects are working together to help us to bring upcoming hot Gems  💎   $FRM #YFDAI #DeFi #ETH https://t.co/UFYlyNicwN",57,37
1374677270250590208,"2021-03-24T10:59:36Z","@TheCryptoClout @PayPal is a dishonest party of my case, they helped somebody to steel $549.50 from me unfairly. Please 🔃🔁 retweet until they return my money. @binance @BinanceAfrica @BinanceP2P #BinanceSmartChain #Binance #Bitcoin #BitcoinCash #bitcoinnews #Crypto #ETH #ETHUSD #XRPCommunity",0,0
1374677269629706245,"2021-03-24T10:59:36Z","Prediction of money for the Future of Bitcoin, ETH, XRP, and LTC. Trade with  https://t.co/NaLgQ8sYer     to know the progress of Cryprone and do fast movements for maximum results https://t.co/VLPPeL6rwW",0,0
1374677268115681283,"2021-03-24T10:59:35Z","ATD is now listed on https://t.co/ptwWy20gyB  via ATD/USDT and ATD/ETH pairs!  → https://t.co/9BvzGssM7L → https://t.co/eEcJk1auZN  Trading contests and other activity bonuses  will be available at 10.00 UTC  →  https://t.co/OecbgMWYUf  @gate_io  #A2DAO $ATD https://t.co/JWIBvrbRQN",3,1
1374677266131603464,"2021-03-24T10:59:35Z","📌 The TokenKennel #Giveaway | Rules 📌 =   - Step 1: Like &amp; Retweet + tag 3-5 People! - Step 2: Follow @KennelToken &amp; @__Bullish__ - Step 3: Join https://t.co/1wcwTits9h - Step 4: Send Proof!   Prize = 100$ in #BTC or #ETH  06/04, we will announce the winner! 🎁",1814,2129
1374677256157675520,"2021-03-24T10:59:32Z","Investor's Kit for your daily investment needs #Bitcoin #ETH #ethereum #Ripple #cryptocurrency #News #Price #business #finance #investing #money #rich #earn #realestate #propertyinvest #gold #silver 👉 Get it here 👉 👉 👉 https://t.co/9ZstPT0oXf",0,0
1374677254412906503,"2021-03-24T10:59:32Z","@ethanstewart14 simpler times, Eth. simpler times 😔",1,0
1374677252365979651,"2021-03-24T10:59:31Z","$DYP liquidity providers earned 6,401.87 #Ethereum worth $10,769,945 since launch!  Earn up to 303.11% APY 💰  If you want to start earning #ETH you just need to join one of our liquidity pools: DYP-ETH, DYP-WBTC, DYP-USDC, and DYP-USDT https://t.co/zxyI0V2tnr  #DeFi #uniswap https://t.co/G1k8VLAekB",430,380
1374677250017263622,"2021-03-24T10:59:31Z","The DEX @FinanceChainge is set to launch on the @FUSIONProtocol network with over a million users on the protocols waitlist. This decentralized exchange aims to innovate on traditional models through leveraging the Fusion Network.  #BSC #BTC #ETH #BNB  https://t.co/xx55YiGfm3",21105,13409
1374677244535304195,"2021-03-24T10:59:30Z","@BitAliens Self-discovery Vol. 2 (The Dream) For 0.44 ETH. Animated! Also, Sound-Designed by me. https://t.co/qhGfk14eqe",1,0
1374677239028015111,"2021-03-24T10:59:28Z","NFT COLLECTORS 💎 I'm giving away FIVE MORE copies of my NFT WYD ETH? to celebrate my latest piece getting a 1.4 ETH bid last night!! TO ENTER: 1. Like 2. Follow 3. Retweet with #CypherBot  https://t.co/EaUACOKhog  #NFTGiveaway #Cryptoartists #NFTCommunity #rarible #NFTs https://t.co/WAzcrLqgAR",73,38
1374677238780600323,"2021-03-24T10:59:28Z","$DYP liquidity providers earned 5,970.84 #ethereum worth $10,700,060 since launch!  Join one of their liquidity pools and earn up to 295.02% APY 💰  #defi #uniswap #eth https://t.co/lKbf20w2sm",1784,1875
1374677234770927618,"2021-03-24T10:59:27Z","Since @dypfinance staking dApp was released, Liquidity Providers have been earning #Ethereum Rewards and so far everyone has earned $10.9 Million dollars in total.  That is 5,781.41 #ETH and paying every 24hrs.  #DeFi #Uniswap #DeFiYieldProtocol https://t.co/F2wumBJM21",1764,1867
1374677233625800705,"2021-03-24T10:59:27Z","#Sponsored  😍The #DeFi Yield Protocol is developing a unique platform: Anyone can provide #liquidity &amp; be rewarded for the first time with #Ethereum  🤑6,366.95 #ETH worth $10,869,776.32 paid to the #liquidityproviders since launch  Check https://t.co/ftVaR00xr3 for details!! https://t.co/BvE29pWtpX",487,388
1374677230534545409,"2021-03-24T10:59:26Z","RT @isyourguy: i guess hodl means flip the nft as soon as you can? cash out your eth as soon as you get it? https://t.co/JMav8gHO3G",31,6
1374677222137552896,"2021-03-24T10:59:24Z","The good thing about @dypfinance Anti-Manipulation system is that it prevents the Liquidity providers to Sell $DYP instead they are earning $ETH as staking rewards 🧠  #DYP #ETH #Ethereum #SmartContract #DeFi https://t.co/yt6C9Vehln",1895,1969
1374677220757626884,"2021-03-24T10:59:24Z","🔥 We are thrilled to announce $DYP listing on @kucoincom !  🔷 DYP/USDT &amp; DYP/ETH trading will start tomorrow, March 25th at 10AM UTC!  🔸 Stay tuned: More News and Activities TBA!  ✅ More News at: https://t.co/7xB73Xen1N https://t.co/uQ3Q5sPpq3",564,461
1374677215993069579,"2021-03-24T10:59:23Z","That feeling when fundamental metrics and relative market cap are literally reversed.  Ethereum even settles more ETH (over $13b/day) than Bitcoin settles BTC (less than $12b/day).  And to top it all off, transacting ETH on Ethereum is cheaper than transacting BTC on Bitcoin.  🤯 https://t.co/nsYFOPr3GQ",339,83
1374677215158362119,"2021-03-24T10:59:23Z","1/ Uniswap v3 is amazing  Uniswap v3 - is up to 4000x more capital efficient - bundles a limit order system into the AMM - seems likely to deliver lower slippage on stablecoins vs. AMMs optimized for stablecoins  Here's more on Uniswap v3, including a benefit for ETH holders👇",56,9
1374677214977921024,"2021-03-24T10:59:22Z","$DYP liquidity providers earned 5,970.84 #ethereum worth $10,700,060 since launch!  Join one of their liquidity pools and earn up to 295.02% APY 💰  #defi #uniswap #eth https://t.co/lKbf20w2sm",1784,1875
1374677212897677318,"2021-03-24T10:59:22Z","@volmexfinance 0xce4ff940bafd50186f9c2f790ec10c8f4a6a07f3  Thanks in advance for anyone to send me first eth",2,0
1374677209202442241,"2021-03-24T10:59:21Z","https://t.co/Bck4sSU05u  Phenomenal #DomainName #ForSale   #VirtualDigitalArtists #Digitalart #Digitalartists #VR #Analytics #AI #MachineLearning #BigData #5G #AR #Robotics #ML #IoT #CloudComputing #futureofwork #100DaysOfCode #fintech #Blockchain #LIVE #Bitcoin  #BTC  #NFT #ETH https://t.co/Pxln5MajdY",10,27
1374677207440715777,"2021-03-24T10:59:21Z","Since this the launch of @dypfinance back in Dec 2020 looks like Liquidity Providers have earned $11.4 Million dollars in $ETH just from Staking!  Also the project is paying out is $ETH as well and so far 6.2K $ETH have been rewarded.   #DeFi #Crypto #Cryptocurrency #BitcoinTalk https://t.co/zis10XPcL7",1784,1888
1374677206803214339,"2021-03-24T10:59:21Z","🔥 WoW!!! $DYP getting listed on @kucoincom !  DYP/USDT &amp; DYP/ETH trading will start tomorrow, March 25th at 10AM UTC! Good job @dypfinance team!  #DeFi #uniswap #Ethereum https://t.co/Rw9qa5l5tA",2211,2334
1374677204966203394,"2021-03-24T10:59:20Z","All technical challenges will be solved in due time.  In a world of infinite L1s and forks, it was really all about the community.  $ETH #ETHEREUM 🔷🔹🌛 https://t.co/X3lYXJExKV",127,7
1374677204315959296,"2021-03-24T10:59:20Z","https://t.co/Bck4sSU05u  Phenomenal #DomainName #ForSale   #VirtualDigitalArtists #Digitalart #Digitalartists #VR #Analytics #AI #MachineLearning #BigData #5G #AR #Robotics #ML #IoT #CloudComputing #futureofwork #100DaysOfCode #fintech #Blockchain #LIVE #Bitcoin  #BTC  #NFT #ETH https://t.co/Pxln5MajdY",10,27
1374677202013421568,"2021-03-24T10:59:19Z","🔥 We are thrilled to announce $DYP listing on @kucoincom !  🔷 DYP/USDT &amp; DYP/ETH trading will start tomorrow, March 25th at 10AM UTC!  🔸 Stay tuned: More News and Activities TBA!  ✅ More News at: https://t.co/7xB73Xen1N https://t.co/uQ3Q5sPpq3",564,461
1374677201535201282,"2021-03-24T10:59:19Z","💧Roku Network Airdrop 💧  🏆 Task:          ➕  15 ROK (~$5)  👨‍👩‍👧 Referral:   ➕  3 ROK (~$1)  🔛  Airdrop Link &amp; Information: https://t.co/YhvsOcfEbH  #cryptocurrency #Crypto #Bitcoin  #BSC #BinanceSmartChain #Ethereum #ETH #Airdrop #bounty #ROK #RokuCoin #RokuNetwork",3593,4682
1374677198137745408,"2021-03-24T10:59:18Z","Queen Update 👑  She’s now in #India! 🇮🇳  Here she stands in the archway of the most romantic place in the world - the #TajMahal.  Only 7 #NFTs left! 47 &amp; 49 were bought earlier today.  #58 is 3.99 $ETH &amp; incl. 7200 $ROYA &amp; a forever discount on mainnet.  https://t.co/rthQimLJUD https://t.co/Ycei3Zkltd",178,141
1374677197148065794,"2021-03-24T10:59:18Z","@enreachio pre-sale is completed and launch is imminent 🥳  How $NRCH is bullish for $RFI:  🚀 RFI/NRCH pair on Launch!  🚀 Utility via Enreach MM pools.        - More volume to the network       - Locks up supply       - Helps us list on more CEXs 🚀 Sextuple Yield  #DeFi $eth https://t.co/qw7PW6D2Gm",26,10
1374677196942372872,"2021-03-24T10:59:18Z","I'll send $500 in #ETH or #BTC to one person who retweets this and follows @bud_crypto. Must complete these tasks:  1 - Like/RT his pinned tweet  2 - Must RETWEET &amp; LIKE 4 of his tweets  Ends in 72 hours!",1402,1861
1374677194627293185,"2021-03-24T10:59:18Z","$DYP liquidity providers earned 5,970.84 #ethereum worth $10,700,060 since launch!  Join one of their liquidity pools and earn up to 295.02% APY 💰  #defi #uniswap #eth https://t.co/lKbf20w2sm",1784,1875
1374677194350469120,"2021-03-24T10:59:18Z","@ShizoCrypto @ultra_io @Ultra_platform @PayPal is a dishonest party of my case, they helped somebody to steel $549.50 from me unfairly. Please 🔃🔁 retweet until they return my money. @binance @BinanceAfrica @BinanceP2P #BinanceSmartChain #Binance #Bitcoin #BitcoinCash #bitcoinnews #Crypto #ETH #ETHUSD #XRPCommunity",0,0
1374677192106475525,"2021-03-24T10:59:17Z","@Cryptofly777 $vxv vectorspace ai  So what's $vxv ? It's the Google for AI analysis of natural language data.  $alts $defi $dot $ltc $eth $bnb $btc $om $rfuel $ksm $gvt $sky $xvg $trx $rsr $link $ada $eos $aave $neo $zil $comp $icx $sol $tomo $kai $pols $maha $bondly  https://t.co/CikIgSzk28 https://t.co/4glE1GOpGl",2,0
1374677184267264005,"2021-03-24T10:59:15Z","The good thing about @dypfinance Anti-Manipulation system is that it prevents the Liquidity providers to Sell $DYP instead they are earning $ETH as staking rewards 🧠  #DYP #ETH #Ethereum #SmartContract #DeFi https://t.co/yt6C9Vehln",1895,1969
1374677173483798528,"2021-03-24T10:59:13Z","$COVAL @circuitsofvalue #coval #ETH @0xPolygon @DarkBuild1 @kucoincom @Bitcoin #NFT #Binance  #BinanceSmartChain    #Polygon @gate_io @DefiOracle @CryptoSlimer @gem_insider https://t.co/bnlNQGEBSO",11,4
1374677164512006147,"2021-03-24T10:59:10Z","$YFDAI  Announce their next Initial Launchpad Offering, DEFIT! @360wellnessapp  @YfdaiF Also patnered with @FerrumNetwork🍻  Get ready and The two most promosing projects are working together to help us to bring upcoming hot Gems  💎   $FRM #YFDAI #DeFi #ETH https://t.co/UFYlyNicwN",57,37
1374677163442589696,"2021-03-24T10:59:10Z","The good thing about @dypfinance Anti-Manipulation system is that it prevents the Liquidity providers to Sell $DYP instead they are earning $ETH as staking rewards 🧠  #DYP #ETH #Ethereum #SmartContract #DeFi https://t.co/yt6C9Vehln",1895,1969
1374677159680217091,"2021-03-24T10:59:09Z","I'll send $500 in #ETH or #BTC to one person who retweets this and follows @bud_crypto. Must complete these tasks:  1 - Like/RT his pinned tweet  2 - Must RETWEET &amp; LIKE 4 of his tweets  Ends in 72 hours!",1402,1861
1374677155095801856,"2021-03-24T10:59:08Z","#DeFiYieldProtocol is coming soon to #BSC and @PancakeSwap   Bridge for swapping $DYP between #BSC and #ETH networks    DYP-WBNB, DYP-ETH, and DYP-BUSD pools  WBNB/ETH/DYP as rewards  @binance #Ethereum #DeFi https://t.co/HgmwW8cGc1",713,572
1374677153560756229,"2021-03-24T10:59:08Z","Since this the launch of @dypfinance back in Dec 2020 looks like Liquidity Providers have earned $11.4 Million dollars in $ETH just from Staking!  Also the project is paying out is $ETH as well and so far 6.2K $ETH have been rewarded.   #DeFi #Crypto #Cryptocurrency #BitcoinTalk https://t.co/zis10XPcL7",1784,1888
1374677152268914688,"2021-03-24T10:59:08Z","$DYP liquidity providers earned 6,401.87 #Ethereum worth $10,769,945 since launch!  Earn up to 303.11% APY 💰  If you want to start earning #ETH you just need to join one of our liquidity pools: DYP-ETH, DYP-WBTC, DYP-USDC, and DYP-USDT https://t.co/zxyI0V2tnr  #DeFi #uniswap https://t.co/G1k8VLAekB",430,380
1374677145105137665,"2021-03-24T10:59:06Z","Beeple Immediately Converted His $53 Million NFT Earnings From ETH to USD - Decrypt https://t.co/JKblOQexGF",1,0
1374677144488542214,"2021-03-24T10:59:06Z","@cz_binance @PayPal is a dishonest party of my case, they helped somebody to steel $549.50 from me unfairly. Please 🔃🔁 retweet until they return my money. @binance @BinanceAfrica @BinanceP2P #BinanceSmartChain #Binance #Bitcoin #BitcoinCash #bitcoinnews #Crypto #ETH #ETHUSD #XRPCommunity",0,0
1374677143746179075,"2021-03-24T10:59:05Z","RT @mallarden85: @antiprosynth When the $ETH rocket lifts off its gonna be EPIC. We're not going to the moon, we're going to another solar…",9,1
1374677143049834498,"2021-03-24T10:59:05Z","$YFDAI  Announce their next Initial Launchpad Offering, DEFIT! @360wellnessapp  @YfdaiF Also patnered with @FerrumNetwork🍻  Get ready and The two most promosing projects are working together to help us to bring upcoming hot Gems  💎   $FRM #YFDAI #DeFi #ETH https://t.co/UFYlyNicwN",57,37
1374677133985861634,"2021-03-24T10:59:03Z",". Domain For Sale  https://t.co/1HPI7qWxVR  #Zumo #ZumoApp #bitcoin #btc #crypto #bit #cryptocurrency #blockchain #100DaysOfCode #javascript #python #Apple #vr #Microsoft #Linux #eth #cryptowallet #fintech #money #cash #Ethereum #entrepreneur #Business #startups #startup #Domain https://t.co/hI9y35uSM5",28,47
1374677133235261442,"2021-03-24T10:59:03Z","Since this the launch of @dypfinance back in Dec 2020 looks like Liquidity Providers have earned $11.4 Million dollars in $ETH just from Staking!  Also the project is paying out is $ETH as well and so far 6.2K $ETH have been rewarded.   #DeFi #Crypto #Cryptocurrency #BitcoinTalk https://t.co/zis10XPcL7",1784,1888
1374677132845060100,"2021-03-24T10:59:03Z","I'll send $500 in #ETH or #BTC to one person who retweets this and follows @bud_crypto. Must complete these tasks:  1 - Like/RT his pinned tweet  2 - Must RETWEET &amp; LIKE 4 of his tweets  Ends in 72 hours!",1402,1861
1374677132031447046,"2021-03-24T10:59:03Z","@Meaning_is_all Self-discovery Vol. 2 (The Dream) For 0.44 ETH. Animated! Also, Sound-Designed by me. https://t.co/qhGfk14eqe",1,0
1374677128927674369,"2021-03-24T10:59:02Z","Thanks @elonmusk...This is what we call BootStrapX   https://t.co/WsomswxigM  #Bitcoin  #btcusd #CashAppBitcoin #Crypto #cryptocurrency #cryptocurrencies #cryptoart #cryptoartist #NFTs #nftart #NFTartist  #NFTCommunity #digitalasset #Ethereum #ETH #doge  #Digital #ElonMusk #Tesla https://t.co/R6XlDFArvk",4,1
1374677126348034050,"2021-03-24T10:59:01Z","💧Poplink Oracles Airdrop 💧  🏆 Task:          ➕  50 POPO (~$50)  👨‍👩‍👧 Referral:  ➕  15 POPO (~$15)  🔛  Airdrop Link &amp; Information: https://t.co/DS6g34KhFp  #cryptocurrency #Crypto #Bitcoin  #BSC #BinanceSmartChain #Ethereum #ETH #Airdrop #bounty #POPO #Poplink",6483,8310
1374677124359938049,"2021-03-24T10:59:01Z","🔥 WoW!!! $DYP getting listed on @kucoincom !  DYP/USDT &amp; DYP/ETH trading will start tomorrow, March 25th at 10AM UTC! Good job @dypfinance team!  #DeFi #uniswap #Ethereum https://t.co/Rw9qa5l5tA",2211,2334
1374677124167073801,"2021-03-24T10:59:01Z","$YFDAI  Announce their next Initial Launchpad Offering, DEFIT! @360wellnessapp  @YfdaiF Also patnered with @FerrumNetwork🍻  Get ready and The two most promosing projects are working together to help us to bring upcoming hot Gems  💎   $FRM #YFDAI #DeFi #ETH https://t.co/UFYlyNicwN",57,37
1374677124142010369,"2021-03-24T10:59:01Z","BNB SMACK ETH - WHY EVERYONE WAS WRONG  6 months ago @cz_binance tweeted my last video.  Since then, $BNB @binance 10x-ed.  Fast forward to today. Was I right or wrong? Time for Episode 2!  Full video 9 min: https://t.co/JeNcXRhNcs https://t.co/eZh0dn8lMO",927,197
1374677122585919488,"2021-03-24T10:59:00Z","ICO-Sale Round 1 Price: $0.35 ICO-Sale Round 2 Price: $0.45 ICO-Sale Round 3 Price: $0.55 Minimum Purchase Amount: $1.0 USD 🚀Acceptable Currency: Credit-card, PayPal, BNB &amp; ETH",279,363
1374677122250375172,"2021-03-24T10:59:00Z","My lovely NFT project update  @Crypto_Gamblers first batch sold out and they made the lottery of 0.867 $ETH to which added $0.133 ETH as bonus to the runner up🚀  They started minting batch #2 which will be listed at 0.17 ETH, once all 70 are sold we will hold a lottery for 2 ETH https://t.co/iIRcZL2puu https://t.co/a3ZvTTfh3n",16,5
1374677121323429891,"2021-03-24T10:59:00Z","Get free $CAKE, worth $6942, max participants 1000, #airdrop $cake $matic $eth $nano $banano $btc $bnb https://t.co/h8jEtr8sDs",0,0
1374677119351939075,"2021-03-24T10:59:00Z","@BSCTalkForum @DGlaucomflecken @Knutti_ETH @fdgj0216  My wallet:0xdC70c112ba6667611bD6BfA385F5324196657eb0 #BSCTalk #BSC",0,0
1374677118387318784,"2021-03-24T10:58:59Z","The DEX @FinanceChainge is set to launch on the @FUSIONProtocol network with over a million users on the protocols waitlist. This decentralized exchange aims to innovate on traditional models through leveraging the Fusion Network.  #BSC #BTC #ETH #BNB  https://t.co/xx55YiGfm3",21105,13409
1374677116629905415,"2021-03-24T10:58:59Z","#Sponsored  😍The #DeFi Yield Protocol is developing a unique platform: Anyone can provide #liquidity &amp; be rewarded for the first time with #Ethereum  🤑6,366.95 #ETH worth $10,869,776.32 paid to the #liquidityproviders since launch  Check https://t.co/ftVaR00xr3 for details!! https://t.co/BvE29pWtpX",487,388
1374677107821793281,"2021-03-24T10:58:57Z","💧DogeSwap Airdrop💧  🏆 Task:          ➕   7 DOG  👨‍👩‍👧 Referral:     ➕   2 DOG  🔛  Airdrop Link &amp; Information: https://t.co/3rlt9kiu64  #cryptocurrency #Crypto #Bitcoin  #DogeSwap #Ethereum #ETH #Airdrop #bounty #Doge #AirdropStario",3945,5026
1374677090767757315,"2021-03-24T10:58:53Z","The DEX @FinanceChainge is set to launch on the @FUSIONProtocol network with over a million users on the protocols waitlist. This decentralized exchange aims to innovate on traditional models through leveraging the Fusion Network.  #BSC #BTC #ETH #BNB  https://t.co/xx55YiGfm3",21105,13409
1374677086439235585,"2021-03-24T10:58:52Z","🔥 We are thrilled to announce $DYP listing on @kucoincom !  🔷 DYP/USDT &amp; DYP/ETH trading will start tomorrow, March 25th at 10AM UTC!  🔸 Stay tuned: More News and Activities TBA!  ✅ More News at: https://t.co/7xB73Xen1N https://t.co/uQ3Q5sPpq3",564,461
1374677080655466509,"2021-03-24T10:58:50Z","@calaveritas_eth Amazing stuff Carlos!   🦇🦇🦇🔥🔥🔥",1,0
1374677075525705732,"2021-03-24T10:58:49Z","When TPLF witch was neutralized,the ambitious leaders of the HOA had started following a policy of detente &amp; became unbreakable iron bar.The West considered this move a direct threat to their interest by imposing sanctions on Eritrea at once, condemning Eth's law enf't operation. https://t.co/8CIbIMYH7Q",58,31
1374677070186381316,"2021-03-24T10:58:48Z","I'll send $500 in #ETH or #BTC to one person who retweets this and follows @bud_crypto. Must complete these tasks:  1 - Like/RT his pinned tweet  2 - Must RETWEET &amp; LIKE 4 of his tweets  Ends in 72 hours!",1402,1861
1374677067590103040,"2021-03-24T10:58:47Z","RT @DailyDogeUpdate: 🚀 $1000 to anyone who Like, Follow and Retweet 🚀  #Dogecoin #LTC $ETH",1838,1206
1374677062024269829,"2021-03-24T10:58:46Z","@XRP_intel BSC via pancakeswap + staking + farming. Who needs ETH anymore? Vitaly is aware he's on the back foot.",0,0
1374677060170436614,"2021-03-24T10:58:46Z","💰What’s your #ETH wallet address?  🚀Don’t ask why, just drop it below👇  🚀Like、Retweet &amp; Tag ALL U CAN  🚀 USDT-NFTs has been listed on Uniswap！  🚀 The contract address: 0x6599fc3e77cbfa6f6e9cac605a30b1e78827eba0  #NFTs #NFT #AIRDROP #UNISWAP https://t.co/H29ZBOR0aL",1380,1178
1374677056722718720,"2021-03-24T10:58:45Z","The good thing about @dypfinance Anti-Manipulation system is that it prevents the Liquidity providers to Sell $DYP instead they are earning $ETH as staking rewards 🧠  #DYP #ETH #Ethereum #SmartContract #DeFi https://t.co/yt6C9Vehln",1895,1969
1374677054055194631,"2021-03-24T10:58:44Z","🔥 WoW!!! $DYP getting listed on @kucoincom !  DYP/USDT &amp; DYP/ETH trading will start tomorrow, March 25th at 10AM UTC! Good job @dypfinance team!  #DeFi #uniswap #Ethereum https://t.co/Rw9qa5l5tA",2211,2334
1374677051848847364,"2021-03-24T10:58:44Z","Been screaming about this gem since the beginning for months now  $VRX is on the left, $AVAX on the right  Don't be shaken out,  5000$ incoming  🚀  Buy $VRX NOW!  Only 47.5k max supply, 60% staked! Game changing coin🔥  #bitcoin $btc $eth  $spi $chain $umx $cfi $ern $lpt $rfr https://t.co/VJheZrWKaa",2435,3576
1374677046207516673,"2021-03-24T10:58:42Z","#Airdrop is live now Complete tasks to get an airdrop. #Airdrop worth 5000 #DEFI (~$50000 at current price)  🔹️Follow 🔹️Like, RT &amp; Tag 5 friends 🔹️Join https://t.co/cGXUyW3sNJ 🔹️Follow Like &amp; Share https://t.co/LX8VEkTyjY 🔹️Comment ETH address  #ETH #ICO #Ethereum #DeFi https://t.co/pwG9tSiJaO",926,677
1374677036904636419,"2021-03-24T10:58:40Z","@LivingPixelated Self-discovery Vol. 2 (The Dream) For 0.44 ETH. Animated! Also, Sound-Designed by me. https://t.co/qhGfk14eqe",0,0
1374677033373032454,"2021-03-24T10:58:39Z","$COVAL @circuitsofvalue #coval #ETH @0xPolygon @DarkBuild1 @kucoincom @Bitcoin #NFT #Binance  #BinanceSmartChain    #Polygon @gate_io @DefiOracle @CryptoSlimer @gem_insider https://t.co/bnlNQGEBSO",11,4
1374677032903270405,"2021-03-24T10:58:39Z","Remember when I told you to buy $BANANO last month @GrindingPoet? Guess what? It's already up 10x since that time. It's not too late now to buy it. https://t.co/LYkwnzxpea $BNB $BTC $ETH",0,0
1374677031317766145,"2021-03-24T10:58:39Z","That feeling when fundamental metrics and relative market cap are literally reversed.  Ethereum even settles more ETH (over $13b/day) than Bitcoin settles BTC (less than $12b/day).  And to top it all off, transacting ETH on Ethereum is cheaper than transacting BTC on Bitcoin.  🤯 https://t.co/nsYFOPr3GQ",339,83
1374677030701314051,"2021-03-24T10:58:39Z","This definitely is a MUST READ!! Will make you even more #BULLISH on $MRPH!  #Crypto #cryptocurrency #blockchain #SupplyChain #Bitcoin $BTC $ETH https://t.co/Tu1mNCrzOw",35,10
1374677027085811718,"2021-03-24T10:58:38Z","RT @ShardiB2: Musk to the rescue.  You know my feelings about triple bottoms....  🐂  $ETH https://t.co/K337ZpKwKX",259,18
1374677013160550402,"2021-03-24T10:58:34Z","@cyberpirateznft Astro Chill - Available on @withFND  👨🏻‍🚀  Use headphone for the best experience!! Reserve Price: 0.5 ETH  Check out - https://t.co/6Nkl8HojMJ https://t.co/oK7tSN8EiO",1,0
1374677008299524099,"2021-03-24T10:58:33Z","Can you believe that? The just announced https://t.co/pnaszUpQuF Black platform offers 100+ NEW features and 200+ NEW integrations as well as an SDK.   Congrats @MRPHSupplyChain with this huge milestone!  $MRPH $BTC $ETH $DOT $LINK $TRAC $UBT $AAVE $ADA https://t.co/oYXNxIktZl",34,6
1374677005699014664,"2021-03-24T10:58:33Z","I'll send $500 in #ETH or #BTC to one person who retweets this and follows @bud_crypto. Must complete these tasks:  1 - Like/RT his pinned tweet  2 - Must RETWEET &amp; LIKE 4 of his tweets  Ends in 72 hours!",1402,1861
