"ID","created_at","text","like_count","rt_count"
1376376046421876741,"2021-03-29T03:29:55Z","RT @NFTFusion: What’s your ETH address?  No questions, just drop it below 👇 #NFT #NFTs",1953,3
1376376028910792704,"2021-03-29T03:29:51Z","Defi in the age of ETH 2.0 Jan 26 FREE VIRTUAL event @PaulFintech CEO @GuardaWallet Leo Vigna CEO/Founder Vulcan Link @stse Founder/CEO​  @harmonyprotocol @emmajane1313 CEO/Founder @digitalax_ @_alekslarsen Investor @blockchaincap @tacen_app must register https://t.co/TdFyqUVmg4 https://t.co/exzSYQDyg6",38,3
1376376017745403910,"2021-03-29T03:29:49Z","#dogecoin #doge $doge  $shib is the token that pays those that #hodl go follow my shibrother @BradleyMock5   #SHIBArmy #shibaswap #nft #NFTs #ElonMusk #ETH https://t.co/gUFFFFM1uI",18,3
1376376014612295682,"2021-03-29T03:29:48Z","@DonnieBigBags and eth upgrade is delayed",0,0
1376376008069251081,"2021-03-29T03:29:46Z","🔶 BlockFi Offers Interest-Earning 🔶 🔸Get up to $250 in #Bitcoin on your first deposit!🔸  🚦 Join: https://t.co/EMFDGJh10K  🌐 Open Link 🌐 Register website - Must lite KYC  🌐 Deposit one crypto 25$ 🌐 Done you get 250$  $BTC $ETH $BNB @CTBott Adrop Avg 100 SPKL 50",42,0
1376376002469789702,"2021-03-29T03:29:45Z","Join the @Holdefi community in HLD public sale!  #HLD #Holdefi #ETH #BSC #IDO #ICO 👇👇 https://t.co/IMS1pIueZ9",0,0
1376376000188145666,"2021-03-29T03:29:44Z","I just joined this $25k Crypto giveaway by @JRNYcrypto and @sparkpointio  Get daily entries to increase your chances of winning! 25 random winners of $1k each!  #Bitcoin #Crypto $BTC $ETH $SRK https://t.co/CVjAya4MGA",0,0
1376375998854258690,"2021-03-29T03:29:44Z","We are happy to announce that $REW will be listed on March 4, deposits now available on #ProBitExchange and to celebrate this #event, we are giving away 400$ #ETH to our community To Enter  1: like &amp; retweet &amp; follow 1 Tag 4 people  2 Comment wallet id #defi #Giveaway  #rewardiqa https://t.co/OozSqzFFno",2405,0
1376375986955067401,"2021-03-29T03:29:41Z","Phore holders get Graphene tokens for free!🚀  💸Get 10 $GFN for every 1 $PHR you hold*💸  ➡️➡️➡️ https://t.co/BnYkuvMvjq ⬅️⬅️⬅️   Don't have #Phore? Don't miss out!🤗  👇Watch the video below to find out how👇  #Bitcoin #Ethereum $BTC $ETH #Graphene $GFN #airdrop #cryptocurrency https://t.co/CXUBMdaIeI",78,0
1376375976507084802,"2021-03-29T03:29:39Z","Is amazing to see how this project has been out since Dec 2020 and so far Liquidity Providers have earned about 6533.78 $ETH and that is the total value of $10.6 Million dollars. 💪  Also the APY doing 301.35% which is amazing.  #DeFi #UniSwap #BSC #SmartContract #Ethereum https://t.co/9a7rgyoMpE",2385,0
1376375976267968512,"2021-03-29T03:29:39Z","🍀 Join Airdrop from Lucky Spin  🍀  🎲 Reward up to 1 BTC FREE! 🥳 🎲 More airdrop in chatting room.  💰 Spin now 👉 https://t.co/17q5hy2Cex  @CTBott Adrop Ram 500 TATM 100 #Playfree  #BCGame #cryptocurrency #BTC #ETH #TRX #XRP #DOGE #UNI #USDT #Gambling #Airdrop #Giveaway",43,0
1376375972727939073,"2021-03-29T03:29:38Z","The 5 Future Top Multi Trillion MC coins apart from $BTC to me are:  1) $VET 2) $DOT 3) $ALGO 4) $ETH 5) $HTR  #BTC #NFT #crypto #blockchain #DeFi",193,0
1376375952079515649,"2021-03-29T03:29:33Z","I'll send $300 in #ETH or #BTC to one person who retweets this and follows @bud_crypto. Must complete these tasks:  1 - Like/RT his pinned tweet  2 - Must RETWEET &amp; LIKE 4 of his tweets  Ends in 72 hours!",1206,0
1376375945267924992,"2021-03-29T03:29:31Z","30 day EVIX: 84.3422 ETH/USD vwap: $1,694.95 04/16 expiry volume: $1,259,524.18 04/30 expiry volume: $5,541,274.24 Current time: 03:29:06",0,0
1376375938301108230,"2021-03-29T03:29:30Z","Is amazing to see how this project has been out since Dec 2020 and so far Liquidity Providers have earned about 6533.78 $ETH and that is the total value of $10.6 Million dollars. 💪  Also the APY doing 301.35% which is amazing.  #DeFi #UniSwap #BSC #SmartContract #Ethereum https://t.co/9a7rgyoMpE",2385,0
1376375935436460032,"2021-03-29T03:29:29Z","1/ $EGT @ElasticDAO (https://t.co/8VBP7PdtkB). A super innovative approach to governance, an elastic token backed by $ETH reserves, some brilliant game theory, and an amazing team including former @SushiSwap devs..   This is the most excited I’ve been about a project in a while.. https://t.co/1tP4QmLcmS",268,0
1376375924384542721,"2021-03-29T03:29:26Z","Where was the UN/HRW &amp;women's rights advocates when the innocent Eth'n women were coercing to sell their sexual favors to official “bigshots” in exchange for safety for 3 decades,while they are exaggerating the disinformation of the hyperbolic experts &amp; TPLF lobbyists.Irony world",114,0
1376375924283822080,"2021-03-29T03:29:26Z","#BTC Price: $55410 #ETH Price: $1693 #LTC Price: $189  Next update in 10 minutes Last updated: 23:29:26.04",0,0
1376375918608801797,"2021-03-29T03:29:25Z","Spartan Casino $WAR is #BinanceSmartChain 1st live-dealer casino+ SportsBet. This project will be huge,invest early. $cake #PancakeSwap #uniswap $uni #sushiswap $sushi #nem $chz #chiliz $mana #trx #dodo #icx #xrp #eth #ada #cardano #Chainlink #klaytn #Ethereum #PUNDIX #Ravencoin https://t.co/IzACobqqSs",3,0
1376375917216325636,"2021-03-29T03:29:25Z","All the support to @thesecryptoguys. Who's next?  #Altcoins #Holochain $HOT #holoarmy #BTC #ETH #Bitcoin https://t.co/HMy4XEqHQP",2,0
1376375910744514563,"2021-03-29T03:29:23Z","I'll send $300 in #ETH or #BTC to one person who retweets this and follows @bud_crypto. Must complete these tasks:  1 - Like/RT his pinned tweet  2 - Must RETWEET &amp; LIKE 4 of his tweets  Ends in 72 hours!",1206,0
1376375899419860993,"2021-03-29T03:29:20Z","#DeFi #BKC #eth2 #BucksCake  ANNOUNCEMENT!  Dear BucksCake's community members!  The exact date of BKC listing on Uniswap set for 04/20/2021!  2 days before it, the exact opening time of the trading pair BKC/ETH on Uniswap...  More at https://t.co/RQPMhjazG2 https://t.co/VjtBbXBA1t",2856,0
1376375897264070666,"2021-03-29T03:29:20Z","#DeFi #BKC #eth2 #BucksCake  ANNOUNCEMENT!  Dear BucksCake's community members!  The exact date of BKC listing on Uniswap set for 04/20/2021!  2 days before it, the exact opening time of the trading pair BKC/ETH on Uniswap...  More at https://t.co/RQPMhjazG2 https://t.co/VjtBbXBA1t",2856,0
1376375891702374407,"2021-03-29T03:29:19Z","@niftynist 210327 - A Soft Haze On The Edge by LaineButler  1 of 3 • Now Available for Ξ 0.8  🔥 Genesis edition 🔥  https://t.co/fqk7HfD68F  @KnownOrigin_io  Art by @laine_butler  #cryptoart #NFT #cryptoartist #ETH",2,0
1376375878033100801,"2021-03-29T03:29:15Z","Join the @Holdefi community in HLD public sale!  #HLD #Holdefi #ETH #BSC #IDO #ICO 👇👇 https://t.co/3QaHhtCWNW",0,0
1376375863260889089,"2021-03-29T03:29:12Z","🔥🔥🔥Aaaaaand sold!! for 0.777 ETH! 🔥🔥🔥 Congratulations to @GanjaIfTheGrey for winning my genesis piece! I'll be working hard to make sure its the best investment you ever made!!  https://t.co/92DMYM4Fco  #nftart #NFT #crypto",49,0
1376375860689739780,"2021-03-29T03:29:11Z","@TheCryptoLark You were one of the best crypto you tuber out there... Unfortunately your heavy eth bag fucked up everything",0,0
1376375855438512130,"2021-03-29T03:29:10Z","BSC was an intermediary challenger to ETH which has provided the opportunity for other blockchains to be gain traction. Willing to bet the  @solana ecosystem is the next to skyrocket. Buy some of those Solana @SBF_Alameda coins before its too late. My favs: $SRM $KIN $RAY",9,0
1376375855409074176,"2021-03-29T03:29:10Z","Join the @Holdefi community in HLD public sale!  #HLD #Holdefi #ETH #BSC #IDO #ICO 👇👇 https://t.co/KBPk3J7cPM",0,0
1376375830574604289,"2021-03-29T03:29:04Z","🚨🚨 MEGA 4/20 MOMENT GIVEAWAY 🚨🚨  Details in the image below. Follow @TheeHustleHouse as he will be dropping the free NFT tickets on his twitter.   RT This And Follow: @KennethBosak @CryptoStache @riceboy42069 @grantpat @Topshotbabe @Wades_ETH @TheeHustleHouse @NBATopShotEast https://t.co/gKUgFyMGLD",96,0
1376375822840369152,"2021-03-29T03:29:02Z","My second #NFT Art is available at @opensea awaiting your first bid! Also help with your RT so my art can reach more people. Coração vermelho  https://t.co/7Sl50HJBK0  #cryptoart #nfts #ETH #Bitcoin https://t.co/odSTdsvQBQ",18,0
1376375822660042753,"2021-03-29T03:29:02Z","🚀Van Taxi🚀 SOLD for 10.9 ETH on OpenSea! Great buy but they would have been better waiting for the @jurassicasylum drop  Check out the transaction: https://t.co/1QKg399woU #JurassicAsylum #NFT #NFTartist #cryptoart #NFTCommunity https://t.co/CpE4lVd4Ko",0,0
1376375821951062016,"2021-03-29T03:29:02Z","Since @dypfinance staking dApp was released, Liquidity Providers have been earning #Ethereum Rewards and so far everyone has earned $10.9 Million dollars in total.  That is 5,781.41 #ETH and paying every 24hrs.  #DeFi #Uniswap #DeFiYieldProtocol https://t.co/F2wumBJM21",1772,0
1376375811360452612,"2021-03-29T03:28:59Z","To celebrate a great launch we do have a present for all of you EBOXers, especially our early adopters ❤️ YOLO!  🔥50.000 $EBOX EARLY ADOPTER GIVE-AWAY🔥 Invite your friends &amp; join us on https://t.co/GrzTPZlyJi for future community actions 🤝 $EBOX #EBOXERS $ETH #ERC20 #BSC #ETH https://t.co/KCJlXEdI4e",183,0
1376375791508807680,"2021-03-29T03:28:55Z","🔶 BlockFi Offers Interest-Earning 🔶 🔸Get up to $250 in #Bitcoin on your first deposit!🔸  🚦 Join: https://t.co/EMFDGJh10K  🌐 Open Link 🌐 Register website - Must lite KYC  🌐 Deposit one crypto 25$ 🌐 Done you get 250$  $BTC $ETH $BNB @CTBott Adrop Avg 100 SPKL 50",42,0
1376375781702598656,"2021-03-29T03:28:52Z","WoW, these statistics 🤩🤩🤩  Over $3M Liquidity, more than $1M Volume in less than 24 hours 🥳  There is still a chance for everyone to buy HLD at $0.625 in Public Sale. Whitelist is open until March 30 👇🏼  🌐 https://t.co/ip07iXLcTh\  #HLD #uniswap #Holdefi #ETH https://t.co/tKJ943nw1n",42,0
1376375767643250692,"2021-03-29T03:28:49Z","🔶 BlockFi Offers Interest-Earning 🔶 🔸Get up to $250 in #Bitcoin on your first deposit!🔸  🚦 Join: https://t.co/EMFDGJh10K  🌐 Open Link 🌐 Register website - Must lite KYC  🌐 Deposit one crypto 25$ 🌐 Done you get 250$  $BTC $ETH $BNB @CTBott Adrop Avg 100 SPKL 50",42,0
1376375754158567431,"2021-03-29T03:28:46Z","🚀 Pluto Coin  Airdrop 🚀 Rate: ⭐⭐⭐⭐ ⭐ 🎁 Reward:  8822 PLUT ($1500) 👫 Referral: 40.5 PLUT  ($7)  🤖Start Bot here   https://t.co/x5JZchojO8  ⛂ Join Telegram group and channel. ⛂ Follow twitter &amp; retweet  ⛂ Submit ETH address and details.",6005,0
1376375746856316931,"2021-03-29T03:28:44Z","$QUAM @quamnetwork  https://t.co/BzqGICCkgE  Up 15X from my tweets after the public sale.  COMING Q1/2:  🔻Multiple CEX listings  🔻Staking- Farming 🔻BSC - ETH bridge V1 🔻QUAM Start-up Aggregator launch  $1 is programmed  https://t.co/g25iM5YPBb https://t.co/PfJhZfBOlj",70,0
1376375740816629761,"2021-03-29T03:28:43Z","Best crypto to get into that can easily have massive gains?   #crypto #xrp #eth #btc",0,0
1376375738832728067,"2021-03-29T03:28:42Z","YGG will spend 20-30 ETH on breeding @AxieInfinity this week.  - Breeding fees go to community treasury, and ultimately $AXS holders - Breeding burns SLP, offsetting sell pressure from scholars - Axies go to our scholarship program so more players can play without upfront cost",197,0
1376375733031854081,"2021-03-29T03:28:41Z","🚨 NFT GIVEAWAY 🖼   How to get your  FREE jasper york NFT:   1) Drop your ETH address below👇  2) ❤️ This 3) Retweet ♻️  ✨ First come first serve ✨  Enjoy your jasper ☺️ 💕  #NFTCommunity #nftcollector #NFTartist #NFT #NFTart #NFTgiveaway #crypto #Ethereum #NFThypesquad https://t.co/MayseiqpV9",140,0
1376375721908600835,"2021-03-29T03:28:38Z","$DYP liquidity providers earned 6,085.31 #Ethereum worth $10,892,953 since launch!  Earn up to 296.36% APY 💰  If you want to start earning #ETH you just need to join one of our liquidity pools: DYP-ETH, DYP-WBTC, DYP-USDC, and DYP-USDT https://t.co/zxyI0V2tnr  #DeFi #Uniswap https://t.co/x22fJpFf0X",467,0
1376375720813993985,"2021-03-29T03:28:38Z","Excellent episode of from the @BanklessHQ team with @drakefjustin  about $ETH ultra sound money. I knew this one would be a good one so I waited for the weekend to watch it with some popcorn 🍿 Highly recommend  https://t.co/VJJAcECcxZ",29,0
1376375719283073029,"2021-03-29T03:28:37Z","Ethereum’s Hashrate Reaches New ATH Fueling ETH Price Recovery https://t.co/TBeXvJdczf",0,0
1376375718460985346,"2021-03-29T03:28:37Z","Special #0 chubby auctioned off and sold for 73.1745 #ETH... Great publicity for the @ChubbiesNFT community! #NFT #SpreadTheWord #retweet https://t.co/LRQQpvKeQf",0,0
1376375716388999169,"2021-03-29T03:28:37Z","Ethereum’s Hashrate Reaches New ATH Fueling ETH Price Recovery https://t.co/rA7JcqF55T",0,0
1376375706553176070,"2021-03-29T03:28:34Z","Join the @Holdefi community in HLD public sale!  #HLD #Holdefi #ETH #BSC #IDO #ICO 👇👇 https://t.co/tb1GMyRTch",0,0
1376375701595545604,"2021-03-29T03:28:33Z","Today, we've partnered with @amazon to bring a quick and easy way to instantly deploy Origin #Dshop to AWS. 🎉  Launch your own decentralized store on AWS with just a few clicks. You will be able to accept $ETH, $OUSD, $OGN, credit cards, and PayPal.   👇 https://t.co/xMG9kl7eOx https://t.co/2UrhMdBcxg",985,0
1376375690866483203,"2021-03-29T03:28:31Z","@bittybitbit86 Just ask 😅 #BTC #ALGO  #DOT #ETH #ADA #ATOM and some #USDC lending",1,0
1376375689004392449,"2021-03-29T03:28:30Z","Because CHUBBIE #0 is currently over 30ETH, we will giveaway CHUBBIES #5537 and #1963 (Both Shinies ~$1,500 each)   -to ONE person that retweets this tweet and follows!  Current bid: 69.69 ETH  CHUBBIE #0: https://t.co/NfK8fP1uZP https://t.co/DsIqf9abnz",613,0
1376375683090427911,"2021-03-29T03:28:29Z","Vitalik in 2019—ETH absolutely can be money if the community wants it to be https://t.co/a1uXB0g5rd  Vitalik in 2021—I do think that the Ethereum community wants ETH to be sound money (private chat; quoted with permission)",277,0
1376375679516700673,"2021-03-29T03:28:28Z","Because CHUBBIE #0 is currently over 30ETH, we will giveaway CHUBBIES #5537 and #1963 (Both Shinies ~$1,500 each)   -to ONE person that retweets this tweet and follows!  Current bid: 69.69 ETH  CHUBBIE #0: https://t.co/NfK8fP1uZP https://t.co/DsIqf9abnz",613,0
1376375675926368256,"2021-03-29T03:28:27Z","$DYP liquidity providers earned 5,970.84 #ethereum worth $10,700,060 since launch!  Join one of their liquidity pools and earn up to 295.02% APY 💰  #defi #uniswap #eth https://t.co/lKbf20w2sm",1795,0
1376375658855559173,"2021-03-29T03:28:23Z","Join the @Holdefi community in HLD public sale!  #HLD #Holdefi #ETH #BSC #IDO #ICO 👇👇 https://t.co/ACBbgQSCUZ",0,0
1376375656603295746,"2021-03-29T03:28:23Z","The good thing about @dypfinance Anti-Manipulation system is that it prevents the Liquidity providers to Sell $DYP instead they are earning $ETH as staking rewards 🧠  #DYP #ETH #Ethereum #SmartContract #DeFi https://t.co/yt6C9Vehln",1905,0
1376375646981529603,"2021-03-29T03:28:20Z","The DEX @FinanceChainge is set to launch on the @FUSIONProtocol network with over a million users on the protocols waitlist. This decentralized exchange aims to innovate on traditional models through leveraging the Fusion Network.  #BSC #BTC #ETH #BNB  https://t.co/xx55YiGfm3",21659,0
1376375645802885123,"2021-03-29T03:28:20Z","RT @NFTFusion: What’s your ETH address?  No questions, just drop it below 👇 #NFT #NFTs",1953,0
1376375626102415360,"2021-03-29T03:28:15Z","Reserve has been met with a Current bid of 0.50 #ETH placed by @SurrealSerpent1 🤯!! Auction for this ends in 23 hours!! https://t.co/UB9ji5BY7q https://t.co/XCynAy1DUw",30,0
1376375622331666434,"2021-03-29T03:28:14Z","Don't miss out!!! Space PEECHES are the juiciest!!  $PEECH $POODL $DOGE $GRUMPY $HOGE $BTC $ETH  @cousincrypt0  @elonmusk https://t.co/F8o5gk74nF",15,0
1376375614689615873,"2021-03-29T03:28:13Z","$DYP liquidity providers earned 6,214.46 #Ethereum worth $11,439,891 since launch!  If you want to start earning #ETH you just need to join one of our liquidity pools https://t.co/zxyI0V2tnr  You can also earn #DYP rewards by joining the farming pools https://t.co/z9yHmBCWyI https://t.co/DDuoAP0mgz",291,0
1376375580308963329,"2021-03-29T03:28:04Z","CryptoAnime #NFT #giveaway!  To be eligible to participate in this #NFTgiveaway you must:  1) Follow us, like our last 3 tweets and retweet them. 2) Tag 3 friends in the comments of this tweet 3) Post your $ETH #Ethereum address in comments  We'll pick a lucky winner on 15 April! https://t.co/OixVzImfrn",143,0
1376375580002672643,"2021-03-29T03:28:04Z","RT @NiftyReport: #chubbies #0000 has sold for 73 ETH! https://t.co/3XX4Vvc9XB",102,0
1376375571911938049,"2021-03-29T03:28:02Z","RT @intocryptoverse: For those that wish I spoke more about fundamental analysis, check out my last video on $ETH and some $BTC fundamental…",368,0
1376375559740006402,"2021-03-29T03:27:59Z","Join the @Holdefi community in HLD public sale!  #HLD #Holdefi #ETH #BSC #IDO #ICO 👇👇 https://t.co/UcCbCqdiVc",0,0
1376375547668889600,"2021-03-29T03:27:57Z","My second #NFT Art is available at @opensea awaiting your first bid! Also help with your RT so my art can reach more people. Coração vermelho  https://t.co/7Sl50HJBK0  #cryptoart #nfts #ETH #Bitcoin https://t.co/odSTdsvQBQ",18,7
1376375537355005953,"2021-03-29T03:27:54Z","Since this the launch of @dypfinance back in Dec 2020 looks like Liquidity Providers have earned $11.4 Million dollars in $ETH just from Staking!  Also the project is paying out is $ETH as well and so far 6.2K $ETH have been rewarded.   #DeFi #Crypto #Cryptocurrency #BitcoinTalk https://t.co/zis10XPcL7",1802,7
1376375530321289216,"2021-03-29T03:27:52Z","Leverage trading of any ERC20! And it's peer to peer, not to mention you can stake $DEXM for ETH! 💕💕💕 https://t.co/hFQ2mw5x6t",10,1
1376375520653271044,"2021-03-29T03:27:50Z","⚡🔥 EASY $10(Litecoin) Giveaway!  To win: ✔ Tag a friend ✔ Retweet ✔ Follow us Thats it! Good luck! 💖  Rolling in 36 hours!  #goodvibes #goodluck #giveaway #bitcoin #Giveaways  #cryptocurrency #eth #btc #BSC #TRON",332,1
1376375516224192515,"2021-03-29T03:27:49Z","RT @GbhoyDownUnder: @QuintenFrancois Getting ass raped by ETH fees is definitely not the best thing since the internet invention.",22,1
1376375506161999878,"2021-03-29T03:27:47Z","Join the @Holdefi community in HLD public sale!  #HLD #Holdefi #ETH #BSC #IDO #ICO 👇👇 https://t.co/oRUoH6vviY",0,0
1376375504245297153,"2021-03-29T03:27:46Z","/Waiting/in/the/InterPlanetary/File/System/ https://t.co/ZgDpj9Y3OJ  #blockchain #crypto #cryptoart #cryptonews #digitalart #digitalasset #eth #ethereum #foundationapp #nft #nftart #nftcollector #nftcollectors #nftcommunity #nfts #withfoundation @withFND  @101cryptoart",5,0
1376375495265239041,"2021-03-29T03:27:44Z","🚨 NFT GIVEAWAY 🖼   How to get your  FREE jasper york NFT:   1) Drop your ETH address below👇  2) ❤️ This 3) Retweet ♻️  ✨ First come first serve ✨  Enjoy your jasper ☺️ 💕  #NFTCommunity #nftcollector #NFTartist #NFT #NFTart #NFTgiveaway #crypto #Ethereum #NFThypesquad https://t.co/MayseiqpV9",140,0
1376375491888812034,"2021-03-29T03:27:43Z","RT @JohnLilic: Timing looks good with expiring futures $BTC $ETH ready to mega pump https://t.co/qMhHMkHAv6",6,0
1376375474004193282,"2021-03-29T03:27:39Z","Welcome to massive Q DAO airdrop!   1. go now to telegram https://t.co/COyXgODY1z   2. Stay in telegram chat and wait announcement.  3. HOLD this gem until 10x   (soon - QDAO launch cross-chain for BSC, Polkadot and ETH)",4254,0
1376375454043623436,"2021-03-29T03:27:34Z","Timing looks good with expiring futures $BTC $ETH ready to mega pump https://t.co/qMhHMkHAv6",6,2
1376375451019399172,"2021-03-29T03:27:33Z","🔥 WoW!!! $DYP getting listed on @kucoincom !  DYP/USDT &amp; DYP/ETH trading will start tomorrow, March 25th at 10AM UTC! Good job @dypfinance team!  #DeFi #uniswap #Ethereum https://t.co/Rw9qa5l5tA",2226,2
1376375445143293952,"2021-03-29T03:27:32Z","#NFT COLLECTORS!!! SHILL ME YOUR $ETH WALLET AND I WILL CHOSE SOMEONE TO BUY MY LAST DROP AT FOUNDATION!! GO GO GO GO!!!   #cryptoart #NFTCommunity",24,6
1376375444950315009,"2021-03-29T03:27:32Z","Meet DeLorean!🏎️🎸🌩️ Hurry to buy!  https://t.co/lrs4DmdpIL  One of the cars can be yours for free in 24 hours!  🙌follow me 👍like  🖖retweet  🤝🤝2 friends+ comment with your ETH wallet address.  I wish everyone good luck! #NFTs #NFT #NFTartist #nftart #nft_ru #NFTcollectibles https://t.co/3TgmokUlYK",186,6
1376375428584255489,"2021-03-29T03:27:28Z","@dixon_eth @withFND Great works, they stand out!",0,0
1376375414092746755,"2021-03-29T03:27:25Z","Good projectJoin the @Holdefi community in HLD public sale!  #HLD #Holdefi #ETH #BSC #IDO #ICO 👇👇 https://t.co/jHztMxYYNW",0,0
1376375411739885568,"2021-03-29T03:27:24Z","@ChainlinkNFThub Nice!! Adress ETH: 0x38733d7BfD6f0D76Be44764745625D182a5B2752",0,0
1376375408698871809,"2021-03-29T03:27:23Z","Join the @Holdefi community in HLD public sale!  #HLD #Holdefi #ETH #BSC #IDO #ICO 👇👇 https://t.co/xHBYGefwUW",0,0
1376375392471293952,"2021-03-29T03:27:20Z","RT @SlimeFriendsNFT: bubble slime is back on action, with a minimum bid of 0.02 ETH! https://t.co/geHn37WG6n #nft #nfts #nftauction #NFTcol…",6,0
1376375384787279875,"2021-03-29T03:27:18Z","Buy the dip $ETH https://t.co/Juichjc6qd",0,0
1376375383528894467,"2021-03-29T03:27:17Z","Twitter accounts saying I have 5 ETH to spend, show me your art is the modern equivalent of saying dance monkey, dance + attaching a monetary value like this looks shady af.  Artists deserve respectful engagement, not endless shills to boost one individual's follower count",564,0
1376375380915929091,"2021-03-29T03:27:17Z","@tphlat @cryptoJ911 The wave of the future of art 🌊🌊🌊  💫 The Beginning  💫 1 of 1 💫 0.032 Eth . I like to believe this is how us artists start out 😇🙏🏾 . Available on Opensea . #blacknftartist #nfts #nftart #nftartist #nftcollector #Bitcoin  #btc #ETH   https://t.co/iMDkxISDOp",5,2
1376375343041273859,"2021-03-29T03:27:08Z","I will accept the high bid for my #CyberWatch layer in about 24 hours!! 👉https://t.co/NGIhYif2z0  Layer includes: ~ AR-Enabled physical painting (20 x 40) ~ 1/1 animated NFT ~ Limited edition Cyber Watch poster NFT  Current bid is 0.5 ETH by skymine! #NFTart #arpainting https://t.co/sAPLKSgy8f",16,2
1376375335072174083,"2021-03-29T03:27:06Z","Ramon Lundqvist bought for 0.29 ETH (491.51$) on the secondary market   Season: 2020-2021 Level: 3 Serial: 1/10 Price: 491.51$  ⚽ Sorare: https://t.co/LOHg5DGBtM  📊: https://t.co/VdVA0HY9Nx  #Sorare #NFT #Ethereum #FantasyFootball",0,0
1376375328109699075,"2021-03-29T03:27:04Z","🟢 Swapped $101K in #ETH for #DPI on #Uniswap 🦄  🐟 ($259) #0x555F14 https://t.co/IrVSYUisQr",0,0
1376375311223283712,"2021-03-29T03:27:00Z","RT @beautyofhelin: 2017 HODLers ➰ New Investors 😬😂  It's been a wild ride 🎢  #Bitcoin $Btc $Eth #Crypto #Defi #HODL https://t.co/vaHzpVqFsO",5198,0
1376375308870426624,"2021-03-29T03:27:00Z","@CryptoWendyO eth and their homers https://t.co/lSxf5HRkwz",1,0
1376375295217909767,"2021-03-29T03:26:56Z","@whale_alert Switch to ETH i guess",0,0
1376375284140797955,"2021-03-29T03:26:54Z","do you want a slime companion? of course you do, they're adorable. slime friends series 1 is out now, ranging from 0.05 ETH at the cheapest and 0.2 ETH at the rarest! 22 slimes, each one of a kind! https://t.co/4Ad0CaS3hN #nft #nfts #NFTdrop #nftartist #NFTcollectibles #slime",17,0
1376375281481572352,"2021-03-29T03:26:53Z","Urban City Views  #djimavicpro #drone #uav #uas #London #NewYork #USA  #US #UK #England #PILOT #EarthHour #ETH #wellness #FlySafe #StaySafe #summer #summertime #dji #Cityliving #urban #beautiful #sky #Airdrop #EarthDay #Airdrops #Survivor2021  https://t.co/dwmEI14w8Q https://t.co/XFWIbVKVnc",7,3
1376375277060718593,"2021-03-29T03:26:52Z","The good thing about @dypfinance Anti-Manipulation system is that it prevents the Liquidity providers to Sell $DYP instead they are earning $ETH as staking rewards 🧠  #DYP #ETH #Ethereum #SmartContract #DeFi https://t.co/yt6C9Vehln",1905,3
1376375266147241987,"2021-03-29T03:26:49Z","🔴 Swapped $187K in #BONDLY for #ETH on #1inch 🐉  🦈 ($4.95M) #0xA14964 https://t.co/P6LWDes5Ds",0,0
1376375260036136962,"2021-03-29T03:26:48Z","Join the @Holdefi community in HLD public sale!  #HLD #Holdefi #ETH #BSC #IDO #ICO 👇👇 https://t.co/wzvWxW1OpR",0,0
1376375257649405957,"2021-03-29T03:26:47Z","Since this the launch of @dypfinance back in Dec 2020 looks like Liquidity Providers have earned $11.4 Million dollars in $ETH just from Staking!  Also the project is paying out is $ETH as well and so far 6.2K $ETH have been rewarded.   #DeFi #Crypto #Cryptocurrency #BitcoinTalk https://t.co/zis10XPcL7",1802,0
1376375256844279810,"2021-03-29T03:26:47Z","YGG will spend 20-30 ETH on breeding @AxieInfinity this week.  - Breeding fees go to community treasury, and ultimately $AXS holders - Breeding burns SLP, offsetting sell pressure from scholars - Axies go to our scholarship program so more players can play without upfront cost",197,0
