"ID","created_at","text","like_count","rt_count"
1377251826513424384,"2021-03-31T13:29:58Z","Infinite Divs / ID token is now officially listed on the Cryptocurrency Market Research Platform https://t.co/Ju1FuVKaKa 🥳🔥  You can track the price of ID and other stats now on:  https://t.co/p59GopKUM2  🔥🔥😎👍🚀 #BTC #bsc #ETH #Binance #bnb #Crypto $bnb $ETH $Cake $BTC $ID",18,11
1377251816329580547,"2021-03-31T13:29:55Z","RT @valon89x: Do your part! $ETH $MWG $MWBTC $PRIA $PAXG $REN $BTC #Crypto #CryptoNews #Bitcoin https://t.co/yQHF61WkWc",11,4
1377251812558864396,"2021-03-31T13:29:54Z","🚀 The $ACED #Giveaway | Rules 🚀 =  - Step 1: LIKE &amp; RETWEET + TAG 3-5 People!  - Step 2: Log-in on Coinmarketcap!  - Step 3: Add (⭐️) $ACED on CoinMarketCap to your list.  ( https://t.co/U8G9irLmdf )  - Step 4: Send proof.  Prize = 100$ in #BTC or #ETH  Giveaway ends on 06/04 https://t.co/TlvNBnhYAk",1563,1787
1377251809287233542,"2021-03-31T13:29:54Z","DCT TOKEN Airdrop Medium Star Claim 1 DCT ($ 100) + 0.045 DCT ($ 10) for each referral you make.   Steps  💎  Join channel and group  💎  Follow twitter, like and retweet pinned message   💎  Submit eth wallet address (ERC-20) Participate now Airdrop link: https://t.co/L24stp8tVI https://t.co/CVYQyLAWwU",8692,8870
1377251809203470338,"2021-03-31T13:29:54Z","@martinplaut Let me ask u if u answer me #ኣይተMartinPlaut (I believe ኣይተ is appropriate 2 u than Mr.), How much  do #zTPLF remnants pay u 2 #igniteFire b/t #Eritrea #Ethiopia? Z money u r getting was #StolenCash. Regardless #Er🇪🇷Eth🇪🇹 have cemented #irreversibleRelationship @mufti_dina https://t.co/n3VHwlmK91",0,1
1377251804417818629,"2021-03-31T13:29:52Z","Genuinely curious if Art Twitter is going to boycott Paypal now..??? This is exponentially more environmentally damaging than NFTs because not only is Ethereum supported, but so is Bitcoin, which has 4x the emissions of ETH. What alternative platforms can independent artists use? https://t.co/zek7xyXwqL",1602,473
1377251800760393728,"2021-03-31T13:29:52Z","Sushiswap / early presale access / tiers system are already developed and can be found on github :   https://t.co/GzpbMkemL6.   We are making final tests before then these features will go live on main net .  $UNL $SUSHI $ETH $BTC #BinanceSmartChain #BNB #BTC https://t.co/QR1Ceh5jR4",22,14
1377251797945966593,"2021-03-31T13:29:51Z","$NU Privacy Token  For #blockchain  Low MCap  On Sale Today  Join Us  @Coinbase @OKEx $btc $eth $ltc $bch $ada $yfi $atom $comp $link $xlm $dash $band  $knc $uni $wbtc $matic $atom $eos $knc #xrp $Lrc $algo $bal #xrpcommunity $eth $ltc $xtz $uma $yfi $nmr $mkr $zec $grt #Bitcoin",3,1
1377251786126454788,"2021-03-31T13:29:48Z","The winner of the 100$ in #BTC or #ETH is @taehyunggbabe 🙌  Proof of Winner = https://t.co/KSzdc2BJLN  Proof of Payment = https://t.co/Cg4UHELD4o  Thank you all for participating and we will see you all at our next giveaways! 😌 https://t.co/OqXHEXNxeg https://t.co/FHeYDtE516",10,4
1377251774868955145,"2021-03-31T13:29:45Z","Check out Lost Artifact ! My new #NFT on sale on  @withFND 🔥😁  Reserve price : 0.4 ETH  https://t.co/XE7AXeiGlQ  #NFTCommunity #nftcollectors #cryptoart #3D https://t.co/XW396YzYzH",55,13
1377251774424211460,"2021-03-31T13:29:45Z","@OXCChainNFT @John60347030 @Regg @reggie04128822 @richay101   Bsc/Eth address 0x2d6c18465402657cb8228fF1F8BdAEa0673e6f62  Join to this airdrop",1,1
1377251771769368577,"2021-03-31T13:29:45Z","HAWT. With my partnership with @illuviumio I can give away 100 HOLOGRAPHIC Scoot Scarabok NFTs.  Similar ones have gone for 5 eth to 50 eth.  How to get -Post your ETH address + BATTLE SCOOT! below -Retweet/tag a friend -Follow @illuviumio and join their discord in bio https://t.co/xcCVVW6KdR",2754,2661
1377251765188452356,"2021-03-31T13:29:43Z","New #nftartsist Staying Relevant........ya’ll.... #NFTs #decentralized #Bitcoin #altcoins #blockchain #Ethereum #SpaceX #theboreingcompany #DeFi #solarcity #Tesla #starlink #opensea #rarible #dogecoin #AgeOfAquarius #ETH #apearmy #mars #STARSHIP #thefutureisnow #GlobalCitizen https://t.co/heTMhQX9ob",0,0
1377251757605195776,"2021-03-31T13:29:41Z","The 2017 ICO craze has now been advanced into 2021 $IDO  Scam after scam.. Go check 97% of these new IDOs and they're just copy pasted ideas from other projects with a lil coss-chain something, defi &amp; NFTs on steroids  How bloody the next bear market will be!!!  $ETH $BTC $DEFI",8,0
1377251754610331649,"2021-03-31T13:29:41Z","The DEX @FinanceChainge is set to launch on the @FUSIONProtocol network with over a million users on the protocols waitlist. This decentralized exchange aims to innovate on traditional models through leveraging the Fusion Network.  #BSC #BTC #ETH #BNB  https://t.co/xx55YiGfm3",21535,13658
1377251748700680194,"2021-03-31T13:29:39Z","$ETH  Rejected (for now) at the resistance of the bull pennant/symmetrical triangle. RSI broke out and retesting resistance as support. An RSI breakout often precedes a breakout on price. https://t.co/gMkAtYZUNw",1081,120
1377251747970699270,"2021-03-31T13:29:39Z","How to build cross-chain dapps in 2021?  Let's say you have a game and some users use it on @0xPolygon and some users use it on @ethereum   Or you have a cross-chain DEX and want to keep track of funds cross-chain  Here is a demo for ETH and MATIC:  https://t.co/rwsqY5VTr6",341,88
1377251747840847878,"2021-03-31T13:29:39Z","#dailyFEG Wednesday, 31 March 2021 Where to buy: $FEG #ETH at @Uniswap @1inchExchange $FEG #BSC at @PancakeSwap #FEG #FEGex #FEGtrack #altcoin #altseason #blockchain #BNB #BTC #crypto #cryptonews #cryptoworld #cryptoinvestor #cryptotrader #DeFi #ERC20 #BEP20 #HODL #NFT #ToTheMoon https://t.co/z8JNhSf9UA",64,28
1377251735283118080,"2021-03-31T13:29:36Z","@cryptoartcollec Manbuns by TAS  1 of 10 • Now Available for offers  https://t.co/DUMjk5pEwO  @KnownOrigin_io  Art by @TerrorArtSquad  #cryptoart #NFT #cryptoartist #ETH",1,0
1377251733231955971,"2021-03-31T13:29:35Z","🏆 We have our winner!  Congratulations to @sonnydd1982. PM us Cocoricos account (email or ETH wallet) to receive your $100.  💰 Last Chance: You can still grab free airdrops on https://t.co/WWGggjZA2a https://t.co/DSX2QuTuCl https://t.co/rzqLXg6eCX",57,24
1377251729616474112,"2021-03-31T13:29:35Z","🌟 Announcing @GenShards &amp; @polkastarter First Ever Dual IDO  🌟 Polkastarter will integrate to BSC to increase the accessibility of IDOs and to promote cross-chain interoperability  🌟 GenShards ecosystem redefining NFTs as DeFi options  🗞️ INFO https://t.co/0JYXj8aK1P #SBN #BSC",149,145
1377251714588418049,"2021-03-31T13:29:31Z","@AlsisiOfficial et al don’t understand or care about #Ethiopia’s sovereign rights to utilize the natural sources present within her boundaries. They don’t want equitable share, but want the status quo of everything for them &amp; 0% to ETH. Not going to happen!#GERD #AfricaUnite https://t.co/yzZQc6Ecaw",32,30
1377251714047356930,"2021-03-31T13:29:31Z","30 day EVIX: 89.4194 ETH/USD vwap: $1,822.64 04/16 expiry volume: $1,390,525.50 04/30 expiry volume: $6,373,025.42 Current time: 13:29:05",0,0
1377251712969359363,"2021-03-31T13:29:31Z","The account is sponsored by #Maanky 🐵 #BTC #Bitcoin #ETH #FOREX ECB's Villeroy laments the slow rollout of EU recovery fund https://t.co/LpK8hzmx8N",0,0
1377251704266182659,"2021-03-31T13:29:29Z","SOLD! 🍾  🤯Wow... My 3rd #NFT Chameleon just got sold on @rariblecom for 1.15 ETH. 🤩  I really appreciate Servem9 for adding it to his collection.💎  https://t.co/u8lpSWlXio  #NFTs #nftart #NFTartist #digitalart #nftcommunity #cryptoart #rarible #nftcollectors #ethereum",47,6
1377251703213330433,"2021-03-31T13:29:28Z","We have passed the 25k followers!   Thanks guys, I will give one person 1 $ETH ( worth 1800 dollars)!   Only thing you have got to do is RT &amp; LIKE this tweet and make sure you follow me so I can DM you.   On to the 30K !   #giveaway",1492,1279
1377251699212099585,"2021-03-31T13:29:27Z","Momentum available for bids now on @withFND ! Let's goooo!🚀💞 The history of this work is written in the description🪐 https://t.co/W8jXI9YRNS #NFT #ETH #blockchain #cryptoart #nftcollector https://t.co/ZM20n9vydk",143,43
1377251695328124931,"2021-03-31T13:29:26Z","Even tho I hate ETH and them fees lets goooo 🚀🚀🚀 https://t.co/vpz3iKlVj6",1,0
1377251656878989314,"2021-03-31T13:29:17Z","Is indeed a welcome development, #StaFi Partners with #conflux to introduce #rTokens into #Binance Smart chain. #StaFi has worked with the cross-chain protocol #ShuttleFlow developed by #conflux network to introduce #rFIS, #rETH, #FIS tokens from #ETH to #Binance Smart chain. https://t.co/cbjzqgjTUx",4,3
1377251648976924676,"2021-03-31T13:29:15Z","DeriBot Daily Trading Report 31.03.2021 12:00 UTC #Bitcoin Trading Robots Comparison Report  Balance in $BTC:  0.0536 Balance in $USD:  3114.16  #BTC $XRP $AMPL $IOTA $DCT $LTC $OMNI $EOS $ZEC $LEND $COMP $BNB $ETC $TRX $LINK $KNC $WAVES $QTUM $ADA $XLM $ETH $REP $SNX $DAI $ZRX https://t.co/R5fqONxNRD",37,53
1377251648423202817,"2021-03-31T13:29:15Z","RT @PapaClarkyBTC: If you're selling $SHR here i dont know what to tell you. #SHR $BTC $ETH https://t.co/KpNu6yrYlr",44,9
1377251648293240833,"2021-03-31T13:29:15Z","RT @QuintenFrancois: $ETH to $2500 in April or I'm giving away 0.3 $ETH to someone who retweets this.",4150,6184
1377251633252368385,"2021-03-31T13:29:12Z","Beginning April 1st at 00:00 UTC — in 24 hours — we will be giving away $100 a day until we launch our presale on #bsc.   Rules are simple: Follow us and #Retweet any of our tweets from that day. We will choose one winner each day and send them $100 in $ETH. Good luck! https://t.co/XwxcRi05c1",381,463
1377251629204836357,"2021-03-31T13:29:11Z","Dear User Get your BKC now and belive the price will rise coz on Q2 Roadmap Marketing Audits ETH 2.0 Staking BKC Burn &amp; Buyback#BKC #eth2 #defi #airdrops @bucks_cake",0,0
1377251629095911424,"2021-03-31T13:29:11Z","@neelbs @ETH_en @ETH_DBIOL @mpi_bpc Thank you very much Neel bhai @neelbs 🙏",0,0
1377251623387459584,"2021-03-31T13:29:09Z","The winner of the 100$ in #BTC or #ETH is @taehyunggbabe 🙌  Proof of Winner = https://t.co/KSzdc2BJLN  Proof of Payment = https://t.co/Cg4UHELD4o  Thank you all for participating and we will see you all at our next giveaways! 😌 https://t.co/OqXHEXNxeg https://t.co/FHeYDtE516",10,4
1377251602151579652,"2021-03-31T13:29:04Z","Bruuhhhh stop over leveraging. You guys are like giant cock blocking robots built in a fucking lab somewhere. $BTC $ETH",0,0
1377251601782542338,"2021-03-31T13:29:04Z","The world’s first global #eSIM mobile data reseller platform is here 🌋 https://t.co/C6iBswXsEi With the #DENT #Gigastore 🏪 ANY 3rd party can resell mobile data everywhere! 📱Connectivity as a Service 🔥 #dentcoin #ethereum #esim #mobile #data #roaming #connectivity #btc #eth https://t.co/bb4KKvRVYs",1980,704
1377251600339701760,"2021-03-31T13:29:04Z","We have passed the 25k followers!   Thanks guys, I will give one person 1 $ETH ( worth 1800 dollars)!   Only thing you have got to do is RT &amp; LIKE this tweet and make sure you follow me so I can DM you.   On to the 30K !   #giveaway",1492,1279
1377251597449715717,"2021-03-31T13:29:03Z","📢Congrats！First launch on Uniswap！ 🚀USDT-NFTs trading pair is live！ 🚀The contract address:  0x6599fc3e77cbfa6f6e9cac605a30b1e78827eba0  💰Hold more NFTs, be richer！  🌸Like、Retweet &amp; Tag 3 friends  🚀Select 10 addresses to airdrop 1,000,000 NFTs, leave wallet #ETH address https://t.co/Slor4FBQzP",2960,2441
1377251595210096647,"2021-03-31T13:29:03Z","1/  📣 #1inch governance rewards weekly update 📣  🔷 #ETH: collected more than $153K (36K $1INCH tokens) 🎉🥳🎊  #DeFi #crypto #Ethereum https://t.co/3UGnhzQlJS",216,32
1377251585751977984,"2021-03-31T13:29:00Z","$BTC is a fixed supply, non-productive store of value  $ETH is a deflationary, productive store of value  One is sound money  The other is ultra sound money",792,100
1377251582207799303,"2021-03-31T13:28:59Z","Long $SOL, $ETH, $MTA, $COPE, and $SRN while I work today. GL frens",0,0
1377251581964484615,"2021-03-31T13:28:59Z","@VALRdotcom @Ripple @mercury_fx_ltd #PROPY Real Estate $217 trillions market.  Get your free 1000 #PROPY Real Estate tokens by creating an account with https://t.co/A7llZ8pDfL @PropyInc.  More info: https://t.co/WUL2P0XAA8  #xrp #flr #ada #vet #xdc #qnt #tel #pac #bitcoin #btc #eth #doge #bnb #dot #zap #hot",0,0
1377251574481739776,"2021-03-31T13:28:58Z","@DeGateDex #DeGate unique initial Social Media token offering: To honor contributors to Crypto Assets on social media, DeGate offers an early opportunity to buy DG tokens at a preferential rate. 10 m DG tokens at $0.005 Start  March 29 https://t.co/aoGdRr9Vo6… #ETH #BTC #DeFi",0,0
1377251568274259971,"2021-03-31T13:28:56Z","@LicolnEmily A new #crypto &lt;&gt; fiat gateway is LIVE on https://t.co/E2egCUthjD!  💳 Users can now buy or sell $ETH on Bancor via @MoonPayHQ using a credit card, @Apple Pay, @GooglePay, @Samsung Pay &amp; more.  Try it out 👉 https://t.co/jkW5vbFBO2 https://t.co/TjfFriIOh0",1,0
1377251566911172615,"2021-03-31T13:28:56Z","Genuinely curious if Art Twitter is going to boycott Paypal now..??? This is exponentially more environmentally damaging than NFTs because not only is Ethereum supported, but so is Bitcoin, which has 4x the emissions of ETH. What alternative platforms can independent artists use? https://t.co/zek7xyXwqL",1602,473
1377251561190002688,"2021-03-31T13:28:54Z","So easy to make money buying dips when you are confident we are moving higher.  $BTC $ETH",273,6
1377251556400189448,"2021-03-31T13:28:53Z","We are happy to announce that our new airdrop program is officially live! Visit https://t.co/lVOlgq2Fu5  for more info!  #Airdrop #airdropalert #freecoins  #cryptocurrency #Advertising #paywithcrypto #Crypto #BTC #coinsmarkets #Coinmarketcap  #CryptoNews #blockchain #ETH https://t.co/fWNNnTkJ7U",9810,15655
1377251556391845889,"2021-03-31T13:28:53Z","RT @QuintenFrancois: $ETH to $2500 in April or I'm giving away 0.3 $ETH to someone who retweets this.",4150,6184
1377251553925550096,"2021-03-31T13:28:53Z","@ledgerstatus The thing to watch out for is how many chains the new coins are raising on. They have a 150m market cap on eth and 250 mc on bsc for tokens a week old that aren't even in production yet. These IDO getting greedy we are closer to the top than bottom now",1,0
1377251540520464394,"2021-03-31T13:28:50Z","📌 The TokenKennel #Giveaway | Rules 📌 =   - Step 1: Like &amp; Retweet + tag 3-5 People! - Step 2: Follow @KennelToken &amp; @__Bullish__ - Step 3: Join https://t.co/1wcwTits9h - Step 4: Send Proof!   Prize = 100$ in #BTC or #ETH  06/04, we will announce the winner! 🎁",1833,2143
1377251520773820421,"2021-03-31T13:28:45Z","@mati82455703 @ben_gravis @ZapProtocol It will the same as using uniswap, you need metamask zap and eth, you press bond and you bought your subtoken, you press unbond and you sell it.",7,1
1377251513815363589,"2021-03-31T13:28:43Z","Wow this really met my expectations. UI looks unreal good.  Holding $mfi definitely paid off and it’s just getting started Take also into consideration that this is under 10M$ market cap which is a ripoff. Congratulations @marginswap !  #defi #uni #lowcap #bsc #crosschain #eth https://t.co/CVq1PX0EmW",33,17
1377251510963339269,"2021-03-31T13:28:42Z","@Ripple @mercury_fx_ltd #PROPY Real Estate $217 trillions market.  Get your free 1000 #PROPY Real Estate tokens by creating an account with https://t.co/A7llZ8pDfL @PropyInc.  More info: https://t.co/WUL2P0XAA8  #xrp #flr #ada #vet #xdc #qnt #tel #pac #bitcoin #btc #eth #doge #bnb #dot #zap #hot",0,0
1377251505141542916,"2021-03-31T13:28:41Z","@buzzcoins_ Every nature lover knows the importance of 🐝. I really appreciate the effort.  #ETH Address 0xdaC13e44908a89e9dd4B1435Ce46A833B16B4050",0,0
1377251492973793280,"2021-03-31T13:28:38Z","New Airdrop: Diamond Crystal (DCT) Reward: 100 DCT ($100) Rate: ⭐️⭐️⭐️⭐️ Focus: Distribution starts after airdrop ends   Bot Airdrop Link: https://t.co/9Qzk47HUKt  #Airdrop #giveaway #BTC #ETH",3978,4239
1377251487634571269,"2021-03-31T13:28:37Z","RT @QuintenFrancois: $ETH to $2500 in April or I'm giving away 0.3 $ETH to someone who retweets this.",4150,6184
1377251478360838144,"2021-03-31T13:28:35Z","🚨#GIVEAWAY ALERT 🚨  5$ Giveaway on BitKong. Just follow these 4 easy steps!  Follow @DistinctBlizz Follow @playbitkong Comment BitKong User below Retweet this Tweet  Remember to post screenshots for proof in one comment.  ENDS 07/04🗓  Goodluck 💜  #BTC #ETH #LTC #XRP #Crypto",10,10
1377251473369653252,"2021-03-31T13:28:34Z","🔥We have started random global airdrop of 100,000 NFTs to single wallet ETH address 🚀 USDT-NFTs is listed on Uniswap  🚀 The contract address: 0x6599fc3e77cbfa6f6e9cac605a30b1e78827eba0  💰 Holding more NFTs makes you richer  🚀Like、Retweet &amp; Tag 3 friends  #NFTs #NFT #AIRDROP https://t.co/1tf4LcEX3C",1093,949
1377251462154051590,"2021-03-31T13:28:31Z","The DEX @FinanceChainge is set to launch on the @FUSIONProtocol network with over a million users on the protocols waitlist. This decentralized exchange aims to innovate on traditional models through leveraging the Fusion Network.  #BSC #BTC #ETH #BNB  https://t.co/xx55YiGfm3",21535,13658
1377251456420614148,"2021-03-31T13:28:29Z","03/30/21 UPDATE: Net Assets Under Management, Holdings per Share, and Market Price per Share for our Investment Products.  Total AUM: $45.2 billion  $BTC $BCH $ETH $ETC $ZEN $LTC $XLM $ZEC $BAT $LINK $MANA $FIL $LPT https://t.co/Rs2BTjwNSo",525,87
1377251453459398657,"2021-03-31T13:28:29Z","@CoinMarketCap We are in testing. Rule with Ethereum to navigate uses Ropsten network metamask.   https: //governance.eth   OR  https://t.co/HfhKuH7YwH  #TRON #dogecoin #etherem #governance",1,0
1377251444122742785,"2021-03-31T13:28:27Z","DCT TOKEN Airdrop Medium Star Claim 1 DCT ($ 100) + 0.045 DCT ($ 10) for each referral you make.   Steps  💎  Join channel and group  💎  Follow twitter, like and retweet pinned message   💎  Submit eth wallet address (ERC-20) Participate now Airdrop link: https://t.co/L24stp8tVI https://t.co/CVYQyLAWwU",8692,8870
1377251441786650624,"2021-03-31T13:28:26Z","This is to announce that our Initial Token Offering-ITO(Pre-sale) is now live!  Token information: Ticker: YEY  Total supply: 500,000 YEY  Total allocated to Presale: 105,000 YEY   Hard cap: 500 ETH Soft cap: 200 ETH  Focus: 95% of Presale funds will fund uniswap liquidity pool. https://t.co/zm3gtFBXNj",6462,6759
1377251434069118976,"2021-03-31T13:28:24Z","Retweet for a chance to win 1000 $RISE.  After 72 hours we will select 5 random winners.   Go on a treasure hunt to find teasers for the Operation Phoenix reveal in September. A prize awaits! Scan the QR Code to start the hunt. #eth #bitcoin #altcoin #blockchain #ethereum https://t.co/lYPUqAVXsK",48,87
1377251430046793729,"2021-03-31T13:28:23Z","We have passed the 25k followers!   Thanks guys, I will give one person 1 $ETH ( worth 1800 dollars)!   Only thing you have got to do is RT &amp; LIKE this tweet and make sure you follow me so I can DM you.   On to the 30K !   #giveaway",1492,1279
1377251424938024964,"2021-03-31T13:28:22Z","We will randomly collect ETH wallet addresses every day and arrange to send the airdrops of 100,000 NFTs until the end of Q2. Those who haven't received NFTs don't need to worry, because it will always be your turn. https://t.co/3APkHz0uO3",888,664
1377251424564748291,"2021-03-31T13:28:22Z","@NFT_Elements My collection is up 2x. Looking forward to more upside as mining get more challenging! #NFT #NFTs #NFTelements $btc $eth The second generation #NFTcollectibles are here",4,0
1377251417489031169,"2021-03-31T13:28:20Z","$ETH  If the daily candle closes above 2k, it will easily cross 2500$ mark. Keep an eye on it.  Checkout the link in bio for crypto signals  $AVA $CTSI #bitcoin $RUNE $HIVE #cryptocurrency 32988 https://t.co/69pkIojMha",0,0
1377251413290520584,"2021-03-31T13:28:19Z","@PixelHeartsNFT here is my drop from the other day! this one is called Wonder, it's about spirituality and saying thank you to whoever looks after us in the aether. It's also 0.04 ETH on rarible! https://t.co/C5lvywbHoA it's also animated on rarible with 4 left :)) https://t.co/JiuCBiw9DV",4,1
1377251405598224386,"2021-03-31T13:28:17Z","RT @jonesking9: Ever heard of $ONE  it solves the gas fee problem on $ETH https://t.co/CJNw4DH6zL",25,6
1377251394848186369,"2021-03-31T13:28:15Z","Top 5 Mentions Updated Every 5 Minutes   Start Time: Wed Mar 31 2021 09:33:14 GMT+0300 (GMT+03:00)   (BETA STAGE)  1- $ETH==&gt;1449  2- $BNB==&gt;645  3- $XRP==&gt;421  4- $AMB==&gt;336  5- $ADA==&gt;332  - $Bitcoin #Bitcoin $Crypto #Crypto $Altcoin #Altcoin -",0,0
1377251377525702672,"2021-03-31T13:28:11Z","@BitsBeTrippin @RedPandaMining @rvn_foundation  Why ETH miners should soon move to Ravencoin mining. Here is a clear answer. (Full video: https://t.co/WAtZbt4ixa) https://t.co/VpDeLZ0hmm",89,32
1377251366805069826,"2021-03-31T13:28:08Z","@mamamesay Who do you think will answer? The gov't has chosen state violence as a means to achieve what it wants. Your complicit acts in everything that has been done is an endorsement of what is happening everywhere in #Ethiopia today. ETH is sinking and only national dialogue will help us",0,0
1377251349432168454,"2021-03-31T13:28:04Z","We have passed the 25k followers!   Thanks guys, I will give one person 1 $ETH ( worth 1800 dollars)!   Only thing you have got to do is RT &amp; LIKE this tweet and make sure you follow me so I can DM you.   On to the 30K !   #giveaway",1492,1279
1377251344805990400,"2021-03-31T13:28:03Z","@ZssBecker Lmao give me some ETH I'll take anything",0,0
1377251338967519235,"2021-03-31T13:28:01Z","Coins mooning today $dot $eth $xrp $skl $crv $grt $albt $gdao Fill your bags if you haven't yet #bitcoin #ethereum #polkadot #xrp",1,0
1377251335305797639,"2021-03-31T13:28:01Z","We have passed the 25k followers!   Thanks guys, I will give one person 1 $ETH ( worth 1800 dollars)!   Only thing you have got to do is RT &amp; LIKE this tweet and make sure you follow me so I can DM you.   On to the 30K !   #giveaway",1492,1279
1377251334420762626,"2021-03-31T13:28:00Z","@DeGateDex #DeGate unique initial Social Media token offering: To honor contributors to Crypto Assets on social media, DeGate offers an early opportunity to buy DG tokens at a preferential rate. 10 m DG tokens at $0.005 Start  March 29 https://t.co/aoGdRr9Vo6… #ETH #BTC #DeFi",0,0
1377251333028208640,"2021-03-31T13:28:00Z","The DEX @FinanceChainge is set to launch on the @FUSIONProtocol network with over a million users on the protocols waitlist. This decentralized exchange aims to innovate on traditional models through leveraging the Fusion Network.  #BSC #BTC #ETH #BNB  https://t.co/xx55YiGfm3",21535,13658
1377251330788577282,"2021-03-31T13:28:00Z","@CiaraHuobi @HuobiGlobal $CARD is soon going to have huge marketing and I am sure volume is going to rise like crazy. Something good to have it listed before others do :)  Lots of news are coming out and marketing material is already ramping up.  #Cardstack #Web3 #CryptoNews #cryptocommunity $BTC $ETH",3,1
1377251324081758212,"2021-03-31T13:27:58Z","After a long time I will start to invest again every first of the month some money in the holy trinity #BTC #ETH and #LINK. Literally can’t lose. Literally can’t have enough. https://t.co/ACuaStEF6Z",20,2
1377251321577754629,"2021-03-31T13:27:57Z","We have passed the 25k followers!   Thanks guys, I will give one person 1 $ETH ( worth 1800 dollars)!   Only thing you have got to do is RT &amp; LIKE this tweet and make sure you follow me so I can DM you.   On to the 30K !   #giveaway",1492,1279
1377251320969764873,"2021-03-31T13:27:57Z","DCT TOKEN Airdrop Medium Star Claim 1 DCT ($ 100) + 0.045 DCT ($ 10) for each referral you make.   Steps  💎  Join channel and group  💎  Follow twitter, like and retweet pinned message   💎  Submit eth wallet address (ERC-20) Participate now Airdrop link: https://t.co/L24stp8tVI https://t.co/CVYQyLAWwU",8692,8870
1377251318960693259,"2021-03-31T13:27:57Z","📢Scam Alert! ‼️Please be aware of scams‼️ There are fake groups, channels, and liquidity pools. We have not listed on Uniswap yet.   Here are our token information: HECO COOK: https://t.co/J5yvSaAENm BSC COOK: https://t.co/LL95w5pjvs ETH COOK: https://t.co/J23u3olh3N",245,152
1377251318428020738,"2021-03-31T13:27:57Z","RT @LynMaisha: I know right, I mean look at Eth and then you 🥲 https://t.co/DynOsldsAq",295,59
1377251315605143553,"2021-03-31T13:27:56Z","@namit_ranjan @ETH_en @ETH_DBIOL @mpi_bpc Wish you all the best... keep doing well",0,0
1377251303655530501,"2021-03-31T13:27:53Z","Join the @Holdefi community! Learn more about $HLD Token!  #HLD #Holdefi #ETH #BSC #IDO #ICO 👇👇 https://t.co/ucrHCpTjnq   Good Project",0,0
1377251302644801543,"2021-03-31T13:27:53Z","RT @MortyTrading: $ETH      $ZIL  TPS: 15           2400 + Gas:  $50+     $.15  Nothing against Eth, but #Zilliqa fixes this.  Eth-Zil brid…",56,19
1377251284244369408,"2021-03-31T13:27:48Z","Practically he is right. Why are there so many Eritreans in ExXxiopia??🤔 Preferably feeling safe, comfortable in Eth. even much better than their country.  Thou still Dina is dude!! https://t.co/2PncNAXLUG",0,0
1377251284122705923,"2021-03-31T13:27:48Z","@AlsisiOfficial et al don’t understand or care about #Ethiopia’s sovereign rights to utilize the natural sources present within her boundaries. They don’t want equitable share, but want the status quo of everything for them &amp; 0% to ETH. Not going to happen!#GERD #AfricaUnite https://t.co/yzZQc6Ecaw",32,30
1377251275042078721,"2021-03-31T13:27:46Z","$Rune breaking new highs weekly for months. @Asgardex is imminent. First ever native crosschain DEX. Get ready to use your $BTC $ETH and more. Instead of your assets just sitting in a wallet, let this money printer work for you 🔥🚀",53,9
1377251268163420162,"2021-03-31T13:27:45Z","@michael_saylor Idk man kinda sounds like #defi on $eth secured by $link. Think this already exists bro",33,1
1377251263662936069,"2021-03-31T13:27:44Z","@APompliano #PROPY Real Estate $217 trillions market.  Get your free 1000 #PROPY Real Estate tokens by creating an account with https://t.co/A7llZ8pDfL @PropyInc.  More info: https://t.co/WUL2P0XAA8  #xrp #flr #ada #vet #xdc #qnt #tel #pac #bitcoin #btc #eth #doge #bnb #dot #zap #hot",0,1
1377251261766983683,"2021-03-31T13:27:43Z","Coinomy's community is expanding! Today we've launched an official Telegram group for our Chinese users.  https://t.co/73ZHR6yJWi $OMYX $ETH $TRON $BNB $BTC #Cryptocurrency https://t.co/DSJWjQstHf",85,90
1377251252388704264,"2021-03-31T13:27:41Z","Quantnetwork hit $ 40 for the first time almost two months ago   Since then it stayed across the $ 40 mark for almost 40 days   Around 160 MILL $ worth of QNT changed owners at these level  Thats around 30 % of the total cap   $QNT  $xrp $btc $eth $link",52,6
1377251238723588097,"2021-03-31T13:27:38Z","The winner of the 100$ in #BTC or #ETH is @taehyunggbabe 🙌  Proof of Winner = https://t.co/KSzdc2BJLN  Proof of Payment = https://t.co/Cg4UHELD4o  Thank you all for participating and we will see you all at our next giveaways! 😌 https://t.co/OqXHEXNxeg https://t.co/FHeYDtE516",10,4
1377251235502419969,"2021-03-31T13:27:37Z","RT @ShardiB2: $ETH  One line to rule them all  LFG https://t.co/6hO4UKjst2",333,27
1377251231442276361,"2021-03-31T13:27:36Z","🚨🎨 My first ever giveaway from my first NFT collection 🎨🚨 To win a #2 Street Wayne by NGB just : 1. RT this tweet and Follow me 2. Tag 2 people and drop your ETH address! Winner picked 4/4 ONLY 8 OF THESE EXIST! #nft #NFTCommunity #nfts #eth #opensea  https://t.co/MwzpYSlc7w",42,43
