"ID","created_at","text","like_count","rt_count"
1376942280595054593,"2021-03-30T16:59:56Z","HAWT. With my partnership with @illuviumio I can give away 100 HOLOGRAPHIC Scoot Scarabok NFTs.  Similar ones have gone for 5 eth to 50 eth.  How to get -Post your ETH address + BATTLE SCOOT! below -Retweet/tag a friend -Follow @illuviumio and join their discord in bio https://t.co/xcCVVW6KdR",2754,2661
1376942271761891333,"2021-03-30T16:59:54Z","@Keen_James My real gambles are my XLM and ALGO. I hold BTC and ETH because I'm pretty certain they are for sure rising. I heard BTC $75000, ETH $20.000. I only have one ETH and like 1600 BTC. If I had to choose between the biggies, I'd go all in ETH",1,0
1376942269543157760,"2021-03-30T16:59:54Z","@BollingerBeans Eth will win on UI, talent base, and decentralization  Speed will catch up.   No one wants to essentially have a corporation manage their DeFi. Solana and BSC are CeFi in DeFi clothing.",3,1
1376942268481990659,"2021-03-30T16:59:53Z","🚨 #GIVEAWAY ALERT 🚨  5$ Giveaway on BitKong. Just follow these 3 easy steps!  Follow @DistinctBlizz  Follow @playbitkong  Comment BitKong User below  Remember to post screenshots for proof in one comment.  ENDS 31/03🗓  Goodluck  #BTC #ETH #LTC #XRP #Crypto",19,14
1376942260344918020,"2021-03-30T16:59:51Z","What #cryptocurrencies were tagged on Twitter most often last week?  Here is the list of the most trending #crypto by @LunarCRUSH :   $BTC $CAKE $ETH $DOGE $RARI $ADA $BCH $LINK $KLV $BNB https://t.co/L7fmMzRYsY",82,36
1376942258436632579,"2021-03-30T16:59:51Z","HAWT. With my partnership with @illuviumio I can give away 100 HOLOGRAPHIC Scoot Scarabok NFTs.  Similar ones have gone for 5 eth to 50 eth.  How to get -Post your ETH address + BATTLE SCOOT! below -Retweet/tag a friend -Follow @illuviumio and join their discord in bio https://t.co/xcCVVW6KdR",2754,2661
1376942252375822341,"2021-03-30T16:59:49Z","Check out this artwork by xbrucethegoose on @withFND! 🌐  9 hours left, bud still at 1 eth  https://t.co/n22miDgruX",9,2
1376942251029499904,"2021-03-30T16:59:49Z","HAWT. With my partnership with @illuviumio I can give away 100 HOLOGRAPHIC Scoot Scarabok NFTs.  Similar ones have gone for 5 eth to 50 eth.  How to get -Post your ETH address + BATTLE SCOOT! below -Retweet/tag a friend -Follow @illuviumio and join their discord in bio https://t.co/xcCVVW6KdR",2754,2661
1376942249762811906,"2021-03-30T16:59:49Z","RT @crypto_birb: $ETH will easily do 10k until 2021 ends imo",2045,176
1376942244108902405,"2021-03-30T16:59:48Z","Zombie thatcher #nft now 0.01 Eth @opensea! #NFTCommunity #NFTs #opensea https://t.co/RRnEfHx591",0,0
1376942241432928263,"2021-03-30T16:59:47Z","HAWT. With my partnership with @illuviumio I can give away 100 HOLOGRAPHIC Scoot Scarabok NFTs.  Similar ones have gone for 5 eth to 50 eth.  How to get -Post your ETH address + BATTLE SCOOT! below -Retweet/tag a friend -Follow @illuviumio and join their discord in bio https://t.co/xcCVVW6KdR",2754,2661
1376942238895206402,"2021-03-30T16:59:46Z","Time for WitLink Token #Airdrop!  ✔️ Start the Airdrop bot: https://t.co/8HDV9cCJse  Complete the tasks to earn  Get 10 WAI ($2.5) + Get 4 WAI ($1) For Each Valid Refer   #ETH #BTC #WAI #LINK #Airdrops",1478,1424
1376942230686998533,"2021-03-30T16:59:44Z","RT @ProBit_Exchange: #DFI will be listed on #ProBitExchange March 31 with an ETH market @defiqa3 #DeFi  https://t.co/2ZqO1n8Ezf https://t.c…",574,471
1376942220230721539,"2021-03-30T16:59:42Z","1/ seeing more talk of won't L2 scaling reduce L1 fees &amp; value of $ETH?  i doubt it on fees, and 100% reject it on the value of $ETH  the comparison i've made is to think of L2s like skyscrapers in Manhattan 🏗🌇  skyscrapers don't reduce the value of L1 (i.e., Manhattan land)",137,29
1376942213192675330,"2021-03-30T16:59:40Z","Eritrea has the right to confederate with Ethiopia not on Isaias's interest, but on Eritreans. Isaias is rushing in destroying Eritrean army, assimilating ER army with Eth'a, destroying Tigray if he can; all in keeping Eritreans in the dark. This will create FUTURE WAR &amp; HAVOC.",0,0
1376942207505104896,"2021-03-30T16:59:39Z","Want to giveaway some cryptocurrency over night.  #Bitcoin #ETH #CEL #MATIC #LINK  I got most of them in my wallet, and you can choose.  How to win:  -RT/Like this tweet -join: https://t.co/VWkNllhEqB -tag a Celsian(a)  ⏰Winner drawn tomorrow after waking up.  #StrongTogether https://t.co/cql1OfcwsJ",145,126
1376942200030904323,"2021-03-30T16:59:37Z","Rémy Descamps bought for 0.246 ETH (450.49$) on the secondary market   Season: 2020-2021 Level: 0 Serial: 61/100 Price: 450.49$  ⚽ Sorare: https://t.co/IAGNP5jalk  📊: https://t.co/QhCNweuIxs  #Sorare #NFT #Ethereum #FantasyFootball",0,0
1376942197413580801,"2021-03-30T16:59:36Z","Meanwhile, the poor souls fucking around with ETH 2.0 be like😥 https://t.co/UeAnHckB0e https://t.co/ZukzsslOk1",0,0
1376942192544120833,"2021-03-30T16:59:35Z","RT @RookieXBT: $ETH  Are you ready? https://t.co/4ydw2qd1Ik",1923,189
1376942192112062471,"2021-03-30T16:59:35Z","Acmilan was created for 100 $MANA ($109.00 USD = 0.0592 $ETH) by https://t.co/ViAPKdnZY7 https://t.co/P7rvmYZFQd #decentraland #names #avatar https://t.co/x0D9VaI2eO",2,1
1376942186575577089,"2021-03-30T16:59:34Z","SBFAlameda was created for 100 $MANA ($109.00 USD = 0.0592 $ETH) by https://t.co/ViAPKdnZY7 https://t.co/AdoNN1Iaz0 #decentraland #names #avatar https://t.co/KHFVhhHw3t",2,1
1376942186491736069,"2021-03-30T16:59:34Z","@UsmanPatel_ @darkbluechain @nbatopshot @rohamg @CatyTedman @Wades_ETH thanks bro ! your the best",1,0
1376942182326628353,"2021-03-30T16:59:33Z","Ltc and eth keep it up fam lol 📈 been a min",0,0
1376942181789884416,"2021-03-30T16:59:33Z","Marco Asensio bought for 23 ETH (42119.44$) on the secondary market   Season: 2020-2021 Level: 9 Serial: 1/1 Price: 42119.44$  ⚽ Sorare: https://t.co/7Nn68GZaEa  📊: https://t.co/mcAvjyFM4h  #Sorare #NFT #Ethereum #FantasyFootball",0,2
1376942165327142912,"2021-03-30T16:59:29Z","@russianfatalist @unborncreate 💀SK02💀  #2 of a 5 piece collection all inspired by traditional Mexican Día de Los muertos Candy skulls  💎1/1  🚨0.1 ETH NO BIDS YET🚨  https://t.co/gJSOwLqMmD",1,0
1376942152417222661,"2021-03-30T16:59:26Z","Worth a watch...  .@mcuban on NFTs, why ETH and upcoming competitors are all so exciting and where it's all headed in the near future.  https://t.co/6s0jklxmVX",5,1
1376942152358318080,"2021-03-30T16:59:26Z","The DEX @FinanceChainge is set to launch on the @FUSIONProtocol network with over a million users on the protocols waitlist. This decentralized exchange aims to innovate on traditional models through leveraging the Fusion Network.  #BSC #BTC #ETH #BNB  https://t.co/xx55YiGfm3",21535,13657
1376942151251107847,"2021-03-30T16:59:25Z","$CUR More realistic is pennant formation with $4.5 profit per token !!!  #DeFi #ETH #BTC #CUR #Binance #cryptocurrencies #cryptocurrency #ALTSEASON #altcoin #uniswap #uniswapgem #Altseason2021 #Huobi #OKEx #USDT #USDC #KuCoin #polkadot #LINK #kusama https://t.co/NFohfyykux",12,3
1376942150521298946,"2021-03-30T16:59:25Z","The DEX @FinanceChainge is set to launch on the @FUSIONProtocol network with over a million users on the protocols waitlist. This decentralized exchange aims to innovate on traditional models through leveraging the Fusion Network.  #BSC #BTC #ETH #BNB  https://t.co/xx55YiGfm3",21535,13657
1376942140081721345,"2021-03-30T16:59:23Z","You Can Buy ETH from Coinbase  Coinbase is based in San Fransisco and is one of the most reputable and well known exchanges in the world. Users can buy ETH with fiat or cryptocurrencies.   https://   #Defi   #MustHaveCrypto https://t.co/IhHb4jcRvI",0,0
1376942134683701255,"2021-03-30T16:59:21Z","@ZssBecker @illuviumio packosiris.eth   BATTLE SCOOT!",0,0
1376942134415159296,"2021-03-30T16:59:21Z","The DEX @FinanceChainge is set to launch on the @FUSIONProtocol network with over a million users on the protocols waitlist. This decentralized exchange aims to innovate on traditional models through leveraging the Fusion Network.  #BSC #BTC #ETH #BNB  https://t.co/xx55YiGfm3",21535,13657
1376942109324836866,"2021-03-30T16:59:15Z","Join $BASE Telegram &amp; Get ready for powerweek: https://t.co/fnmggXK3Ur  ___________________________ @cctip_com airdrop 0.01 ETH 99999  $ETH $LINK $MANA $HOT $OGN $MTL $ERN",98,153
1376942109241049097,"2021-03-30T16:59:15Z","@mattmedved Imagine when eth reaches high 6 figures one day and we look back at everything we bought lmao",7,0
1376942106887868416,"2021-03-30T16:59:15Z","@ZssBecker @illuviumio ricardgp.eth  @danhwang88 BATTLE SCOOT!",1,0
1376942090416979975,"2021-03-30T16:59:11Z","https://t.co/vCNztABJoG #DeFi Wallet  💰 Securely Manage, Swap &amp; Farm DeFi Tokens, including $UNI, $COMP, $YFI, $CRO, $AAVE, $DAI, $ETH  ⚡️ Boost your yields by up to 20x when you stake CRO!",5645,637
1376942084058456067,"2021-03-30T16:59:09Z","HAWT. With my partnership with @illuviumio I can give away 100 HOLOGRAPHIC Scoot Scarabok NFTs.  Similar ones have gone for 5 eth to 50 eth.  How to get -Post your ETH address + BATTLE SCOOT! below -Retweet/tag a friend -Follow @illuviumio and join their discord in bio https://t.co/xcCVVW6KdR",2754,2661
1376942065670623237,"2021-03-30T16:59:05Z","HAWT. With my partnership with @illuviumio I can give away 100 HOLOGRAPHIC Scoot Scarabok NFTs.  Similar ones have gone for 5 eth to 50 eth.  How to get -Post your ETH address + BATTLE SCOOT! below -Retweet/tag a friend -Follow @illuviumio and join their discord in bio https://t.co/xcCVVW6KdR",2754,2661
1376942051808399360,"2021-03-30T16:59:02Z","@NFT_us Hello #NFTCommunity!👋  Big Sale Day Today!  Our work named🔥#fckworld &amp; #fckworld🔥is currently on sale for 0.02 ETH!  If you want not to miss these opportunities, we are waiting for you!  On Sale @rariblecom https://t.co/5aaktJinaN  #nftcollector #NFTGiveaway #Giveaway https://t.co/azoR2MjS1D",1,0
1376942030362923011,"2021-03-30T16:58:57Z","RT @phoneinf: Ending a HEX stake now cost $300, can very well be $1,000-$2,000 after new ETH update https://t.co/cmm8vfBSSJ",30,4
1376942013774446593,"2021-03-30T16:58:53Z","RT @GhostofRanZ1: @JillFano2 I bought $2,000 of BTC from Coinbase in 2018. I split it and bought ETH.   I kept it. 😀👍  Taxes...oops 🙄",4,1
1376942013401026562,"2021-03-30T16:58:52Z","💧Roku Network Airdrop 💧  🏆 Task:          ➕  15 ROK (~$5)  👨‍👩‍👧 Referral:   ➕  3 ROK (~$1)  🔛  Airdrop Link &amp; Information: https://t.co/YhvsOcfEbH  #cryptocurrency #Crypto #Bitcoin  #BSC #BinanceSmartChain #Ethereum #ETH #Airdrop #bounty #ROK #RokuCoin #RokuNetwork",3738,4814
1376942010704203777,"2021-03-30T16:58:52Z","Bitcoin (BTC), Ethereum (ETH), and Litecoin (LTC) Now Available as Options on Paypal US https://t.co/gCWV0du7fI https://t.co/mdw7mcE34g",0,0
1376942002831556614,"2021-03-30T16:58:50Z","RT @xdc_news: Register for #xinfin #xdc event on APRIL 07! Scaling solution for #ethereum #ETH   https://t.co/tzhJO4q3tn",32,13
1376941998007980033,"2021-03-30T16:58:49Z","🚨30 Mins. to Go!🚨  ⚠️Grab the LIMITED EDITION 250 Sports uNFTs before it's gone.  🃏Total Supply: 250 Cards (50 Cards/5 Sportsperson ) 💰Price Per Card: 0.4 ETH 📍Where: https://t.co/33y4YQZUL3 📅When: 30th March 2021  ⏰Time: 5 PM UTC Onwards https://t.co/s6hDYsbN4w",55,13
1376941996623818754,"2021-03-30T16:58:48Z","The DEX @FinanceChainge is set to launch on the @FUSIONProtocol network with over a million users on the protocols waitlist. This decentralized exchange aims to innovate on traditional models through leveraging the Fusion Network.  #BSC #BTC #ETH #BNB  https://t.co/xx55YiGfm3",21535,13657
1376941984527618061,"2021-03-30T16:58:46Z","Imagine if #Bitcoin was the only #Crypto that existed ... Blockchain would be virtually useless as an actual payment solution and there would be nothing to talk about.  Yes, #BTC is King 👑 but Maximalism is silly. Blockchain has so much potential outside $BTC    #VISA $ETH $USDC",306,27
1376941984175190016,"2021-03-30T16:58:46Z","The #cryptocurrency market is looking to keep up its positive momentum, @Shasdam notes, as $ETH looks to solidify a bottom against $BTC. Meanwhile, competition in the #DEX space is tighter than ever.  https://t.co/swBh5sGJy3 https://t.co/8LxoYGA1Jc",35,13
1376941982371753986,"2021-03-30T16:58:45Z","@binance Quit buying this pumpm and dump coin and stick to mining btc or ETH...quite better way to earn profits...no farm server required..you can earn up to 1Btc mining...thats what Chinese do..reason they got up to 70% crypto in circulation... Confused and interested.. Send a Direct msg",0,0
1376941980542984193,"2021-03-30T16:58:45Z","🚨30 Mins. to Go!🚨  ⚠️Grab the LIMITED EDITION 250 Sports uNFTs before it's gone.  🃏Total Supply: 250 Cards (50 Cards/5 Sportsperson ) 💰Price Per Card: 0.4 ETH 📍Where: https://t.co/33y4YQZUL3 📅When: 30th March 2021  ⏰Time: 5 PM UTC Onwards https://t.co/s6hDYsbN4w",55,13
1376941972275961862,"2021-03-30T16:58:43Z","🟩 $BASE Will Moon So Hard 💎  Base Protocol will soon be doing a “Power Week” where they drop news every day.  👉 Hold a bag before it begin 😏 📈 My Target: Minimum 20x 🚀🌙  ___________________________ @cctip_com airdrop 0.01 ETH 99999 https://t.co/WPBJ9ZZp9k",155,213
1376941967439929346,"2021-03-30T16:58:42Z","@JRNYcrypto Bro I literally sold all my Eth few days ago for LTC... gotta say im pretty happy",0,0
1376941963451138052,"2021-03-30T16:58:41Z","The DEX @FinanceChainge is set to launch on the @FUSIONProtocol network with over a million users on the protocols waitlist. This decentralized exchange aims to innovate on traditional models through leveraging the Fusion Network.  #BSC #BTC #ETH #BNB  https://t.co/xx55YiGfm3",21535,13657
1376941948942999553,"2021-03-30T16:58:37Z","Join $BASE Telegram &amp; Get ready for powerweek: https://t.co/fnmggXK3Ur  ___________________________ @cctip_com airdrop 0.01 ETH 99999  $ETH $LINK $MANA $HOT $OGN $MTL $ERN",98,153
1376941943054331909,"2021-03-30T16:58:36Z","@queencristalla Dear Squares,  An amazing world of Tsquares limited set are now on sales. Enjoy our square community.  Grab it already on https://t.co/jvTQXxJLm2  #ethereum #eth #NFT #NFTs #NFTartists #NFTcollection #nftart #cryptoart #opensea https://t.co/SeAhhzIxb9",0,0
1376941940189458432,"2021-03-30T16:58:35Z","The DEX @FinanceChainge is set to launch on the @FUSIONProtocol network with over a million users on the protocols waitlist. This decentralized exchange aims to innovate on traditional models through leveraging the Fusion Network.  #BSC #BTC #ETH #BNB  https://t.co/xx55YiGfm3",21535,13657
1376941929007566850,"2021-03-30T16:58:32Z","Limited Edition, Crypto Queen Doomer Girl NFT. #BNB  #NFTcollectibles   #cryptocurrencies #cryptoart #cryptopunks #blockchain #NFTs #NFTCommunity #NFTartist #nftart #nfttweet #rarible #opensea #Ethereum #money $btc $eth $bnb  buy now at link: https://t.co/rmmXD9rG9y https://t.co/j2aIIpDtZW",4,1
1376941925773668356,"2021-03-30T16:58:32Z","💀SK02💀  #2 of a 5 piece collection all inspired by traditional Mexican Día de Los muertos Candy skulls  💎1/1  0.1 ETH 🚨NEW PRICE🚨NO BIDS YET  https://t.co/gJSOwLqMmD #NFT #NFTCommunity #NFTs #NFTartist",26,5
1376941920111366144,"2021-03-30T16:58:30Z","$storj you should be ready in 5-10 minutes. We really gonna fly now!!! Pack your bagss!!! $ada $btc $ltc $eth $fil $dot $xrp",6,1
1376941918160973824,"2021-03-30T16:58:30Z","🔥 SOLD!  Edition #7/8 of Amogus from the @lushsux x @Crypto888crypto collaboration has sold for 13.62 ETH ($24,700 USD)   FINAL edition is live and ends tomorrow 03/30 at 3:30pm PST  👇👇 https://t.co/LLBuPyXEkQ  #NFT #CryptoArt https://t.co/buLogic5S8",65,7
1376941917963976709,"2021-03-30T16:58:30Z","First hour into Launch!  We are LIVE!  This is the first day on our long journey.  Check out our roadmap!  $NARCOS $CAKE $BNB $BTC $ETH #bsc #defi #crypto #yieldfarming @narcosfinance https://t.co/zqKq4Pda0e https://t.co/nq8rY7zn0u",14,7
1376941916495941643,"2021-03-30T16:58:29Z","Join $BASE Telegram &amp; Get ready for powerweek: https://t.co/fnmggXK3Ur  ___________________________ @cctip_com airdrop 0.01 ETH 99999  $ETH $LINK $MANA $HOT $OGN $MTL $ERN",98,153
1376941911978733569,"2021-03-30T16:58:28Z","With the extra $QUICK rewards @QuickswapDEX gives juicy yields of up to 400% on some pairs. And the good thing is there are almost 0 fees because it runs on @0xPolygon L2. No more excessive ETH fees!  Watch this video, move over some funds and start earning $$$ https://t.co/OpQpnA2rib",8,1
1376941910141636608,"2021-03-30T16:58:28Z","Close to 380 $pBTC on #Ethereum locked in within #pNetwork!   How many are yours? ☝️  Start moving your assets on #Ethereum today:  https://t.co/TgEyZxsAzP     🦜 $BTC #Bitcoin #interoperability #DeFi 🦜 https://t.co/E6tKxwzmZM",42,9
1376941905611608067,"2021-03-30T16:58:27Z","I am doing the same 100K $VRA from me, when it hits 10 cents for lucky person who 1- ❤ 2- RT 👉 3-follows me 4-follow @verasitytech and 5- follow my favourite project @HailDraconis 🦎 comment below your eth address. Will randomly choose a winner. When VRA hit the 10c mark. 🤑😎 https://t.co/EAi3QMn0Aq",386,314
1376941905532088321,"2021-03-30T16:58:27Z","@goosecreekunltd @Cryptodeciple24 @Visa @dragonchaingang It only makes sense, Hard to imagine how high the eth fees will be",3,1
1376941899827851265,"2021-03-30T16:58:25Z","Is there a way to incentivize others to help me sell my #NFTs? Being an artist, maintaining social media, trying to sell my #cryptoart, and live life at the same time is rough. Recommend an #nftcollector to my art and if they buy I want to and will reward you with $eth/#NFTart ?",17,2
1376941899240464391,"2021-03-30T16:58:25Z","Time for WitLink Token #Airdrop!  ✔️ Start the Airdrop bot: https://t.co/8HDV9cCJse  Complete the tasks to earn  Get 10 WAI ($2.5) + Get 4 WAI ($1) For Each Valid Refer   #ETH #BTC #WAI #LINK #Airdrops",1478,1424
1376941887760838659,"2021-03-30T16:58:23Z","Rainboi 135143 sold for 0.0666 eth Get a unique, limited, first generation rainboi at https://t.co/z08B7JkCjy  #nft #nftart #art #CryptoNews #cryptocurrency #cryptoart #Ethereum #eth #rainbois #nftcollector #NFTCommunity #rainbois https://t.co/gLDGoxCnQL",11,1
1376941881813254156,"2021-03-30T16:58:21Z","@100trillionUSD I knew Tesla was great before most but then everyone jumped in harder than I predicted. I think the same for btc/eth..slowly then suddenly.",0,0
1376941879426682881,"2021-03-30T16:58:21Z","@digartcollector All one of ones for                                  ✨1 ETH.                                                https://t.co/AP8WCe8hqi",0,0
1376941879325941763,"2021-03-30T16:58:21Z","Welcome to massive Q DAO airdrop!   1. go now to telegram https://t.co/COyXgODY1z   2. Stay in telegram chat and wait announcement.  3. HOLD this gem until 10x   (soon - QDAO launch cross-chain for BSC, Polkadot and ETH)",4218,6164
1376941872354979840,"2021-03-30T16:58:19Z","Time for WitLink Token #Airdrop!  ✔️ Start the Airdrop bot: https://t.co/8HDV9cCJse  Complete the tasks to earn  Get 10 WAI ($2.5) + Get 4 WAI ($1) For Each Valid Refer   #ETH #BTC #WAI #LINK #Airdrops",1478,1424
1376941869331021825,"2021-03-30T16:58:18Z","💰7,044 #ETH (12,803,044 USD) move from unknown wallet to unknown wallet   Date : 2021-03-30 16:57:12 (GMT 0) Blockchain : #ETHEREUM Symbol : #ETH   Detail: https://t.co/R2ESLRK5Wi",0,0
1376941852394467332,"2021-03-30T16:58:14Z","RT @arktoshidotcom: I’ve heard that Whale groups 🇻🇳 are going to swap their $NEO $ETH $ETC bags to $ARK. Bullish signal confirmed! 🐳 #ARKto…",25,10
1376941852000202754,"2021-03-30T16:58:14Z","@CryptoWhale Oh they are backed. By BTC and ETH (although some of it is probably being siphoned off to private accounts of scammers).",0,0
1376941844630806538,"2021-03-30T16:58:12Z","There has been a long debate and research on the energy consumption per bitcoin transaction, and different analysts have come up with different data and analyses.   https://t.co/p8t7hEjqJY  #bitcoin #eth #mining #crypto",19,13
1376941843762528257,"2021-03-30T16:58:12Z","RT @Cgj_Crypto: No comment needed.  #ETH #TRX https://t.co/DHyPPHSlfs",108,22
1376941834958557186,"2021-03-30T16:58:10Z","RT @JRNYcrypto: Goodmorning to everyone besides the people that comment you shouldn't of sold your ETH bro",3833,116
1376941829694820353,"2021-03-30T16:58:09Z","@CryptoMiloNFT LOST LAND - 0.05 ETH  https://t.co/bBaqyPttdw https://t.co/fXhiarp5ys",0,0
1376941823378259972,"2021-03-30T16:58:07Z","HAWT. With my partnership with @illuviumio I can give away 100 HOLOGRAPHIC Scoot Scarabok NFTs.  Similar ones have gone for 5 eth to 50 eth.  How to get -Post your ETH address + BATTLE SCOOT! below -Retweet/tag a friend -Follow @illuviumio and join their discord in bio https://t.co/xcCVVW6KdR",2754,2661
1376941821226405890,"2021-03-30T16:58:07Z","RT @ProBit_Exchange: #DFI will be listed on #ProBitExchange March 31 with an ETH market @defiqa3 #DeFi  https://t.co/2ZqO1n8Ezf https://t.c…",574,471
1376941817019645953,"2021-03-30T16:58:06Z","RT @DavosCryptos: $BOLT also for the best #Football content in partnership with @Dugout  #Zilliqa $ZIL $ETH https://t.co/zdRpbY1uW4",300,278
1376941813823602691,"2021-03-30T16:58:05Z","Hello everyone!🧊  We can finally share with all of you our $ICE contract address!⛓️  The address is: 0xf16e81dce15b08f326220742020379b855b87df9  It is the same for FTM, BSC and ETH.  Add $ICE to your Metamask and be ready, airdrops are coming soon!🪂",479,111
1376941812879855616,"2021-03-30T16:58:05Z","The day after the #Visa ETH/USDC announcement and their adverts feature someone literally being rugged 😂 Should've bought a @majinsayan rug instead mate https://t.co/UHSEtKYI7e",5,1
1376941803144896514,"2021-03-30T16:58:02Z","Close to 380 $pBTC on #Ethereum locked in within #pNetwork!   How many are yours? ☝️  Start moving your assets on #Ethereum today:  https://t.co/TgEyZxsAzP     🦜 $BTC #Bitcoin #interoperability #DeFi 🦜 https://t.co/E6tKxwzmZM",42,9
1376941802608062464,"2021-03-30T16:58:02Z","@artlancer_nft Dear Squares,  An amazing world of Tsquares limited set are now on sales. Enjoy our square community.  Grab it already on https://t.co/jvTQXxJLm2  #ethereum #eth #NFT #NFTs #NFTartists #NFTcollection #nftart #cryptoart #opensea https://t.co/K04Z47Sfdp",0,0
1376941800808661005,"2021-03-30T16:58:02Z","🚀Polkastarter Babydragon🚀 SOLD for 17.2 ETH on OpenSea! Great buy but they would have been better waiting for the @jurassicasylum drop  Check out the transaction: https://t.co/1MOhDULUZD #JurassicAsylum #NFT #NFTartist #cryptoart #NFTCommunity https://t.co/JDMRCC5wS7",1,0
1376941792411664387,"2021-03-30T16:58:00Z","@j1mmyeth @opensea I use @opensea contract to get initial #ETH so that I can mint on chain ⛓️ since those #NFTs can take on new life beyond the contract just depends on the creators behind it.",4,0
1376941790578810887,"2021-03-30T16:57:59Z","Visa is the latest multinational to embrace blockchain technology, with the company announcing its payments network will utilize a stable coin backed by US Dollars to settle transactions over Ethereum.   BE BETTER INFORMED   #CURRE…https://t.co/XwEOTYQY7J https://t.co/3piep2txAV",0,0
1376941784757121028,"2021-03-30T16:57:58Z","🔥 Big Win Alert 🔥  Congratulations to our lucky player on this EPIC 20.91 $ETH win on “Chaos Crew” from Hacksaw Gaming!  Play Chaos Crew https://t.co/8xkJsPjvBl  Chips Casino support $BTC $ETH $TRX $XRP $USDT $BNB $CAKE $BUSD and $USDC  #Ethereum #ETH #Chipsgg #Cryptocasino https://t.co/4v1FJFzQqS",6,2
1376941779279306758,"2021-03-30T16:57:57Z","Anon  I told you April was going to be 🔥🔥 $DAG + $LTX  Hope you're ready  $npxs $zil $cel $etn $ksm $vet $btc $dyp $one $cake $ankr $chr $luna $sushi $coti $cake $oxt $xrp $ant $nim  $npxs $eth $ada $ankr $klv $hot $icx  $duck $core $xmr $ogn $skl $one $vra  $rari $zec https://t.co/JQEzkwusZa",43,12
1376941778687860739,"2021-03-30T16:57:57Z","@xBora I've heard stories of folks buying houses with ETH and yes, lots of payments have been made using crypto as one-offs but I haven't seen the rails directly integrated or a solve for the volatility (stablecoin intermediary, hourly price ave).",0,0
1376941774728404994,"2021-03-30T16:57:56Z","🟩 $BASE Will Moon So Hard 💎  Base Protocol will soon be doing a “Power Week” where they drop news every day.  👉 Hold a bag before it begin 😏 📈 My Target: Minimum 20x 🚀🌙  ___________________________ @cctip_com airdrop 0.01 ETH 99999 https://t.co/WPBJ9ZZp9k",155,213
1376941767258423296,"2021-03-30T16:57:54Z","@ArtOfHeroes @VitaiSlade @iamcrackedbro @TheCryptoLark @ethereum @VitalikButerin @EthereumMemes @EntEthAlliance And all of the functions on ETH are unusable because of the high fees. Wow, such a good system",1,0
1376941767128272897,"2021-03-30T16:57:54Z","💧DogeSwap Airdrop💧  🏆 Task:          ➕   7 DOG  👨‍👩‍👧 Referral:     ➕   2 DOG  🔛  Airdrop Link &amp; Information: https://t.co/3rlt9kiu64  #cryptocurrency #Crypto #Bitcoin  #DogeSwap #Ethereum #ETH #Airdrop #bounty #Doge #AirdropStario",4123,5206
1376941764230184962,"2021-03-30T16:57:53Z","HAWT. With my partnership with @illuviumio I can give away 100 HOLOGRAPHIC Scoot Scarabok NFTs.  Similar ones have gone for 5 eth to 50 eth.  How to get -Post your ETH address + BATTLE SCOOT! below -Retweet/tag a friend -Follow @illuviumio and join their discord in bio https://t.co/xcCVVW6KdR",2754,2661
1376941761306722306,"2021-03-30T16:57:52Z","@Debussy100 the ETH struggle is real",10,0
1376941758404235269,"2021-03-30T16:57:52Z","RT @crypto_birb: $ETH will easily do 10k until 2021 ends imo",2045,176
1376941756512616453,"2021-03-30T16:57:51Z","@NN3m3515 .05 eth! only!  dropping a couple a day!  https://t.co/hhezSe5syz",0,0
