"ID","created_at","text","like_count","rt_count"
1377282032506707974,"2021-03-31T15:29:59Z","Was in a meeting with my financial advisor today.   Told him I held ETH.  He gasped and suggested we get it into safer investments that are more likely to pay off.  He moved me into GME and also suggested betting on the Cleveland Browns as better alternatives.",1059,51
1377282032317952011,"2021-03-31T15:29:59Z","@mickalamasse1 taco4life      🌶️=========&gt;🚀 Objectif: #projetXcrypto   #eth #projetx #defi #dex #tacoswap #tacotoken🌶 #vampireattack #frenchdex #ethereum",32,25
1377282031734951944,"2021-03-31T15:29:59Z","Alright y’all is $ICX gonna approach all time high of $12+ or is it all unwarranted hype? Any advancements to the platform to justify a move like that? #crypto #eth #btc",1,0
1377282030619217920,"2021-03-31T15:29:59Z","@krakenfx @danheld My favorite $eth guy",0,0
1377282029822296071,"2021-03-31T15:29:59Z","Polkadot is still a young ecosystem, and dozens of projects are still under development. The operation’s effectiveness and opens the door to more opportunities within the blockchain. @Polkadot  #BinanceSmartChain #BSC #BTC #ETH #Ethereum #BNB https://t.co/aaY0pd8fVQ",33,7
1377282028719194112,"2021-03-31T15:29:58Z","Great project hurry join  @ayimubarok321 @puputfebriani77 0x898Cec3Ed67244D0c8744211145A943f80cd4b09  #eth #crypto #ksm #btc #blockchain #defi #BCH https://t.co/GeRvt3cKPA",0,1
1377282014261485572,"2021-03-31T15:29:55Z","Lee Jung-Min bought for 0.227 ETH (416.55$) by Sonhos_10A on the primary market   Season: 2021-2022 Level: 0 Serial: 1/100 Price: 416.55$  ⚽ Sorare: https://t.co/BHepY09IZW  📊: https://t.co/LKlwugrpTP  #Sorare #NFT #Ethereum #FantasyFootball",0,0
1377282006304886790,"2021-03-31T15:29:53Z","@nft_bets Sometimes you not find what you’re searching! CURIOSATY! @withFND  RESERVE PRICE: 0.14 ETH #NFT #NFTs #NFTartists #nftart #NFTCommunity #NFTcollectibles #NFTdrop #NFTshill  https://t.co/RcQ1YT8y98",1,0
1377281996225974278,"2021-03-31T15:29:51Z","Was in a meeting with my financial advisor today.   Told him I held ETH.  He gasped and suggested we get it into safer investments that are more likely to pay off.  He moved me into GME and also suggested betting on the Cleveland Browns as better alternatives.",1059,51
1377281984263774211,"2021-03-31T15:29:48Z","@michael_saylor Wait, you never heard about @MakerDAO? It's literally the largest DeFi application by value locked (~$7 billion, mostly ETH).",254,10
1377281966391898120,"2021-03-31T15:29:44Z","@achainofblocks in Texas it is difficult to do anything with Binance.. I’m trying to convert Eth to BNB to get on pcakeswap. cant buy through https://t.co/5EWMXJmcGS or any other platform cause of my Texas address. Know of any work arounds? Maybe we can get a video on it.. 🤷🏽‍♂️",1,0
1377281962507960320,"2021-03-31T15:29:43Z","DCT TOKEN Airdrop Medium Star Claim 1 DCT ($ 100) + 0.045 DCT ($ 10) for each referral you make.   Steps  💎  Join channel and group  💎  Follow twitter, like and retweet pinned message   💎  Submit eth wallet address (ERC-20) Participate now Airdrop link: https://t.co/L24stp8tVI https://t.co/CVYQyLAWwU",8624,8873
1377281949199388673,"2021-03-31T15:29:40Z","@The_NFT_Hub a cactus flower that blooms when the rain season come to brazilian desert inland. brings hope and joy :) Mandacaru flower power. 30c. unique color each  only 0.2 $eth🌵🌸 #nftart #woodcut #nftcollection #xilo #nicolau #ethereum #nftcollector #opensea  https://t.co/4jpb2pbZwo https://t.co/jBCF7cFN4a",0,0
1377281947546882057,"2021-03-31T15:29:39Z","@mickalamasse1 Let’s go to the #PoolParty !! #tacoswap #tacoswaptothemoon #tacotoken🌶 #defi #dex #binance #eth #crd #ToTheMoon @sushiswap @Uniswap @mickalamasse1 🌶🌶🌶🌶🚀🚀🚀🚀",27,24
1377281945860780032,"2021-03-31T15:29:39Z","X3 EARNING WITH LAST COIN💲💸  What a monster ✅🔥  FOLLOW @gem_insider   $sol $pax $qtbk $bnt $eth $mth $btc $chz $mana $busd $pet $btmx $oly $dcr $beet $atom $ltc $ame $smol $xmr $rvn $btcv $mtl $kick $ern $vet $bnb $leo $ftm $hsc $cyfm $lmch $pxg $kgo $dgb $npxs $play $jsb https://t.co/zVXY4jzIj6",0,0
1377281936897495059,"2021-03-31T15:29:37Z","RT @CryptoLimbo_: I had a Dream 🌕 $BTC to 100K  $ETH to 5k $BNB to 500$ $KSM to 2000$ $RSR to $1 $LUNA to $100 $HTR to $10 $UTK to $10",1003,110
1377281935769210883,"2021-03-31T15:29:36Z","Hey, my crypto FB group is growing...you should join us!  $ETH $LTC $XRP $ADA $DOT $TRX $ALGO $ZIL $DOGE $TEL $RSR $PLA $HPB $XLM $OCE $SHA $JUR $VET $LINK $BTC   https://t.co/cnWJclBENk",0,0
1377281927326076931,"2021-03-31T15:29:34Z","If it breaks this resistance we should see a considerable run IMO   Especially if $Eth moves up to give all #alts some breathing space   Who else is in $DIA   Anyone else agree with this #TA",2,0
1377281924859887625,"2021-03-31T15:29:34Z","30 day EVIX: 90.0581 ETH/USD vwap: $1,844.84 04/16 expiry volume: $1,699,547.60 04/30 expiry volume: $8,302,611.99 Current time: 15:29:08",0,0
1377281910385283074,"2021-03-31T15:29:30Z","RT @econoar: PayPal thinks ETH is money.",876,105
1377281908560834560,"2021-03-31T15:29:30Z","Hi @Exeedme @Poolz__ @bepronet   What do you think about we organise  a pool Crypto party all together on #tacoswap   Join us : https://t.co/3GeT48f0tm  #crypto #defi #dex #eth #tacoswaptothemoon #tacotoken🌶",1222,1085
1377281906438455298,"2021-03-31T15:29:29Z","It’s a #humpday miracle! #016-#019 are up &amp; live! 16 &amp; 18 have rare items; Check them out!🥸  ULTRA RARE #020 will still be up tonight @ 23:00UTC 👀 @opensea   #NFT #NFTs #NFTcollectibles #crypto #cryptoart #rare #unicorn #opensea #eth $eth #NFTCommunity   https://t.co/bq24GrWzKe",1,0
1377281901833031681,"2021-03-31T15:29:28Z","#DeGate unique initial Social Media token offering: To honor contributors to Crypto Assets on social media, DeGate offers an early opportunity to buy DG tokens at a preferential rate. 10 m DG tokens at $0.005 Start  March 29 https://t.co/aoGdRr9Vo6… #ETH #BTC #DeFi",0,0
1377281901061271557,"2021-03-31T15:29:28Z","Don't be shy. Only .01 ETH. https://t.co/UUODjz0qoI",1,0
1377281898490294273,"2021-03-31T15:29:27Z","🌟 Announcing @GenShards &amp; @polkastarter First Ever Dual IDO  🌟 Polkastarter will integrate to BSC to increase the accessibility of IDOs and to promote cross-chain interoperability  🌟 GenShards ecosystem redefining NFTs as DeFi options  🗞️ INFO https://t.co/0JYXj8aK1P #SBN #BSC",149,145
1377281887807418373,"2021-03-31T15:29:25Z","I think y'all knew this 🤔   Click on the link in our bio to start trading   #btc #mevineexchange #bitcoin #bitcoinmining #eth #facts https://t.co/7xxrFtUmIa",1,0
1377281883088646148,"2021-03-31T15:29:24Z","You do understand that eth maxis beating the drum 24/7, don’t acknowledge any competitors success, and don’t react on reasonable arguments, do you? https://t.co/77rR26877H",0,0
1377281881176215556,"2021-03-31T15:29:23Z","RT @PolkadotPePe: Whats the @Uniswap of everything? Oh yeah its @LatticeExchange $LTX........ $DOT $KSM $BTC $ETH $DAG $ATOM $QNT https://t…",46,10
1377281871051022336,"2021-03-31T15:29:21Z","@The_NFT_Hub In auction NOW!! RIGHT NOW!! https://t.co/w38lqYKuI2",0,0
1377281863056769024,"2021-03-31T15:29:19Z","RT @ForTubeFi: Check out the latest deposit APY rates for ForTube V3 (ETH)!  $BUSD $USDT $USDC https://t.co/R5FRsIHAbn",45,12
1377281857323065350,"2021-03-31T15:29:18Z","@digartcollector Hi! This is BBB Batman Bitcoin Blues #NFTs  Only 0.8 $ETH  Help an starving artist!!! Thank you 🙏🏽  https://t.co/Xe0fLQnTZ2",0,0
1377281847487393794,"2021-03-31T15:29:15Z","RT @QuintenFrancois: $ETH to $2500 in April or I'm giving away 0.3 $ETH to someone who retweets this.",4150,6184
1377281846585794560,"2021-03-31T15:29:15Z","RT @OliCS_: Quick 150$ ETH giveaway -💜  Just rt   Giving 20~ minutes gl :)",320,480
1377281842424991754,"2021-03-31T15:29:14Z","The scary thing about crypto is that all these big announcements and all this BTC and ETH is being bought daily, still it's not reflected in the price. But we're not talking about this at all.",6,2
1377281841904766983,"2021-03-31T15:29:14Z","@loomdart imagine if eth/btc and all alts giga moon with btc while it gigamoons",0,0
1377281839333834755,"2021-03-31T15:29:13Z","@mickalamasse1 To the moon !! 🌶🌶🚀  #PoolParty   #projetXcrypto  #eth #projetx #defi #dex #tacoswap #tacotoken🌶 #vampireattack #frenchdex #ethereum",25,23
1377281838796902402,"2021-03-31T15:29:13Z","RT @QuintenFrancois: $ETH to $2500 in April or I'm giving away 0.3 $ETH to someone who retweets this.",4150,6184
1377281838260092929,"2021-03-31T15:29:13Z","Slow 202 | Normal 223 | Fast 251 | Instant 281 👈 current Ethereum gas prices in gwei. DM me a price and I will DM you as soon as gas drops below that price 👍 #Ethereum #GasPrice #ETHGasPrice #ETH",0,1
1377281837689618435,"2021-03-31T15:29:13Z","@RulerProtocol is the real deal. I’ve always been intrigued by lending protocols in the crypto space. Ruler has a unique way to move forward in this sector and I think it’s going to do very, very well. Thanks @pwnlord69 #eth $RULER",8,2
1377281832882933765,"2021-03-31T15:29:12Z","@mickalamasse1 To the moon !! 🌶🌶🚀  #PoolParty   #projetXcrypto  #eth #projetx #defi #dex #tacoswap #tacotoken🌶 #vampireattack #frenchdex #ethereum",25,23
1377281825131921409,"2021-03-31T15:29:10Z","The Canary 👀💎 #StonedGems tribute to the most popular of the colored diamonds, the canary yellow, and the MOST SOUGHT AFTER of the colored diamonds. It is said to represent freedom, happiness and joy.😎 .05 ETH #nft #NFTCommunity #NFTcollectibles  https://t.co/HbjY1eLfGc https://t.co/QiuldN9n9g",6,1
1377281813798866947,"2021-03-31T15:29:07Z","I WROTE A POEM ABOUT #NFTs and #NFTartist   it goes as follows:  Ethereum gas,  What a pain in the ass, Wanted to buy some shit, Ended up throwing a fit  🖕you gas fees #ETH",2,2
1377281812637093888,"2021-03-31T15:29:07Z","RT @QuintenFrancois: $ETH to $2500 in April or I'm giving away 0.3 $ETH to someone who retweets this.",4150,6184
1377281807452925952,"2021-03-31T15:29:06Z","PCL/USDT will list a 3rd trading pair on #BitMart today!  More details at: https://t.co/ZCUm38RjcB  #listing #btc #eth #bnb #token #pcl #peculium #etn #xrp #bmx https://t.co/81AqEUBUfV",7,4
1377281804323934211,"2021-03-31T15:29:05Z","@defichain The Easter egg here is in the $45 fees per transaction that you have to pay in order for you to withdraw $20 worth of BTC. + Worthless DEX app that don't allow you to transfer ETH to MetaMask",0,0
1377281803292176384,"2021-03-31T15:29:05Z","RT @lushsux: winning bid of 15.3731 eth ($28,296.11) congrats to #makersmental on @makersplace 🦾 ballin",6,1
1377281799852675077,"2021-03-31T15:29:04Z","@jason_coleman Put mine in Ethereum, in my ETH wallet.",1,0
1377281792130998272,"2021-03-31T15:29:02Z","@neokseye Hi! This is BBB Batman Bitcoin Blues #NFTs  Only 0.8 $ETH  Help an starving artist!!! Thank you 🙏🏽  https://t.co/Xe0fLQnTZ2",0,0
1377281789933330432,"2021-03-31T15:29:02Z","I WROTE A POEM ABOUT #NFTs and #NFTartist   it goes as follows:  Ethereum gas,  What a pain in the ass, Wanted to buy some shit, Ended up throwing a fit  🖕you gas fees #ETH",2,2
1377281786485616645,"2021-03-31T15:29:01Z","@ThroneOfCrypto @Crypt0Paradox @UltimateCrypto7 #Algorand =  ⚡750+ projects in less than 2yrs ⚡4m+ NFT's @SIAE_Official ⚡Only public blockchain working with @ISDA $1 quadrillion derivatives market ⚡working with 16 CBDC's ⚡more daily transactions than ETH, with peak of 10m without an glitch or compromise in performance etc https://t.co/NEcAmDDkgu",15,8
1377281765534994441,"2021-03-31T15:28:56Z","@The_NFT_Hub Reserve is 0.5 ETH 🥰 https://t.co/rLJH4nJHIq",1,0
1377281757612023814,"2021-03-31T15:28:54Z","do you see this?  read carefully and jump aboard before we're REALLY taking of 🥰 $KAI @KardiaChain   limit order on a dex with low fees and ⚡transactions? YES PLEASE! #Bitcoin #btc #ethereum #Interoperability $btc $eth $ada $ltc $link $doge $ksm $dot $luna $xlm $neo $bsc $ocean https://t.co/IyRRfrd8rE",35,11
1377281750892617735,"2021-03-31T15:28:52Z","@2154Trx Hi! This is BBB Batman Bitcoin Blues #NFTs  Only 0.8 $ETH  Help an starving artist!!! Thank you 🙏🏽  https://t.co/Xe0fLQnTZ2",1,1
1377281741988192257,"2021-03-31T15:28:50Z","DeriBot Daily Trading Report 31.03.2021 12:00 UTC #Bitcoin Trading Robots Comparison Report  Balance in $BTC:  0.0536 Balance in $USD:  3114.16  #BTC $XRP $AMPL $IOTA $DCT $LTC $OMNI $EOS $ZEC $LEND $COMP $BNB $ETC $TRX $LINK $KNC $WAVES $QTUM $ADA $XLM $ETH $REP $SNX $DAI $ZRX https://t.co/R5fqONxNRD",37,53
1377281735990374409,"2021-03-31T15:28:49Z","$ENJ launching a new DEDICATED NFT Blockchain on t $DOT. IDC about the whole ETH Killer narrative - in the end I truly believe all these ecosystems will be able to coexist peacefully. Much like how #DoorDash #UberEats #Postmates is able to cater to an overlapping audience. https://t.co/ql0Yqp9ffY",6,0
1377281734509617153,"2021-03-31T15:28:48Z","Good project, 3XT go to moon. Eth wallet: 0xDF1897eb7D357583070207380204243F543d3dD9 @Vivi47496563 @Hainam881 @CaoXunLun1 @Quynhnhi23 @GiaBao2701 @PinetworkChian @Vivi47496563 @PiNetworkUSA @PiEmTi2 @Pi_diange https://t.co/0i9dOFzHma",2,0
1377281727207501824,"2021-03-31T15:28:47Z",".@ethereum $ETH 2.0 could be attacked in two ways, 30% of stake is required @hseas researchers say #Ethereum #ETH2 #Harvard https://t.co/HP7OVjVGab",3,1
1377281725521408004,"2021-03-31T15:28:46Z","🚨Are YOU ready to get chills? Turn on the surround sound for the epic #Kaidex promo below 🚨   $KAI about to blow the roof off 🚀   A DEX like you’ve never seen. A DED for millions!  $TEL $ETH $BTC $ATOM $AION $DOT $THETA $LINK $DGCL $LABS $VET $OCEAN $BNB $BSCPAD #DeFi #dex https://t.co/rpdd7D1sPp",50,21
1377281723558326278,"2021-03-31T15:28:46Z","Once again! 1 ETH to spend in #NFTs! Drop your art below, like &amp; retweet ! #NFTCommunity #nftart #NFTartist #NFTartists #nft #nftcollector #nftcollectors",217,59
1377281723122155522,"2021-03-31T15:28:46Z","#DeFi #BKC #eth2 #BucksCake  ANNOUNCEMENT!  Dear BucksCake's community members!  The exact date of BKC listing on Uniswap set for 04/20/2021!  2 days before it, the exact opening time of the trading pair BKC/ETH on Uniswap...  More at https://t.co/RQPMhjazG2 https://t.co/VjtBbXBA1t",2829,2636
1377281713076834306,"2021-03-31T15:28:43Z","@mickalamasse1 Join us on #tacoswap project!! The next level of the defy world !!!#projetXcrypto   #eth #projetx #defi #dex #tacoswap #tacotoken🌶 #vampireattack #frenchdex #ethereum",23,19
1377281709591396365,"2021-03-31T15:28:42Z","Those who know you on a cold night are not very close to you. But they are your only friends in the dark.  Dreamcatcher by @senturkburak  1 of 1 • Current offer of Ξ 0.5  🔥 Genesis edition 🔥  https://t.co/5PtXfuv0gM  @KnownOrigin_io  #cryptoart #NFT #cryptoartist #ETH",42,10
1377281709415280642,"2021-03-31T15:28:42Z","$coti #alteason ready🌶🍷👊🏽  💎#dominance #bitcoin going down  #coti x10 from here 🤯🧨  @COTInetwork is a sure bet 💣  @MetrixCoin will be something unbelievable   We built, huge things coming   #btc $btc $ada $mrx $dego $cake $theta $eth $xrp $vet $dot $chz $bnb $ankr $storj",29,7
1377281709104898054,"2021-03-31T15:28:42Z","DCT TOKEN Airdrop Medium Star Claim 1 DCT ($ 100) + 0.045 DCT ($ 10) for each referral you make.   Steps  💎  Join channel and group  💎  Follow twitter, like and retweet pinned message   💎  Submit eth wallet address (ERC-20) Participate now Airdrop link: https://t.co/L24stp8tVI https://t.co/CVYQyLAWwU",8624,8873
1377281703295733762,"2021-03-31T15:28:41Z","Another ATH for $VRA, seriously gonna be Top 100 SOON.🔥🔥🔥  Soon the EPIC pump starts!! 🚀🚀  If you don’t know about @verasitytech, continue to stay poor  @microman2020 @johnnymurphy83 @rjmark_verasity @prajwolb @RAFAELA_RIGO_   DYOR 🚀🚀🚀 $RSR $DOT $KSM $BTC $ETH",181,41
1377281701747953664,"2021-03-31T15:28:41Z","New Airdrop: Diamond Crystal (DCT) Reward: 100 DCT ($100) Rate: ⭐️⭐️⭐️⭐️ Focus: Distribution starts after airdrop ends   Bot Airdrop Link: https://t.co/9Qzk47HUKt  #Airdrop #giveaway #BTC #ETH",3978,4239
1377281701211107331,"2021-03-31T15:28:40Z","New Artists:  You will FOMO hard. You will see fellow artists eclipse you. You will see $ / ETH everywhere. You will have big lows, and big highs. You will feel the imposture syndrome.   But, if you are about the art and community, this will help drive you to innovate and grow.",785,155
1377281675026067456,"2021-03-31T15:28:34Z","DCT TOKEN Airdrop Medium Star Claim 1 DCT ($ 100) + 0.045 DCT ($ 10) for each referral you make.   Steps  💎  Join channel and group  💎  Follow twitter, like and retweet pinned message   💎  Submit eth wallet address (ERC-20) Participate now Airdrop link: https://t.co/L24stp8tVI https://t.co/CVYQyLAWwU",8624,8873
1377281672002076676,"2021-03-31T15:28:33Z","I think this cycle is going to absolutely shock people globally. $btc $eth $link",0,0
1377281667404996611,"2021-03-31T15:28:32Z","since it's #TDOV #TransDayOfVisibility donate to my top surgery fund &lt;3 i'm a disabled jewish transmasc who had quit work recently due to a serious nervous breakdown https://t.co/CSNHkIPo71",17,43
1377281665140056069,"2021-03-31T15:28:32Z","@ItsSpancs @withFND Hi! This is BBB Batman Bitcoin Blues #NFTs  Only 0.8 $ETH  Help an starving artist!!! Thank you 🙏🏽  https://t.co/Xe0fLQnTZ2",0,0
1377281661734375427,"2021-03-31T15:28:31Z","HO-LY SHIIIIIIIIIITTTTTTTT!!!!!!!!!!!! MY @picassopunks JUST SOLD FOR 23 ETH!!!!!!!!!!!!!!!!!!!!! 🤯🤯🤯  #NFT #NFTs #nftart #cryptoart #cryptoartist #cryptopunk #cryptopunks #NFTCommunity https://t.co/zxUVxObSFG",468,67
1377281657464614913,"2021-03-31T15:28:30Z","@SwitchGW_ What do you mine eth or btc?",0,0
1377281657204572163,"2021-03-31T15:28:30Z","RT @QuintenFrancois: $ETH to $2500 in April or I'm giving away 0.3 $ETH to someone who retweets this.",4150,6184
1377281656101466117,"2021-03-31T15:28:30Z","@mickalamasse1 Tired of small pools! You proved to me that we are powerful enough to have a hell of a #PoolParty!  Objective: #projetXcrypto  #eth #projetx #defi #dex #tacoswap # tacotoken🌶 #vampireattack #frenchdex #Ethereum",23,22
1377281655765938178,"2021-03-31T15:28:30Z","$GET protocol total supply is already Low to being with. Now that they decide to burn 30% of current supply - Doesn’t get better than this. $Defi $ETH $BTC https://t.co/WzcCJwlU8e",10,0
1377281638636220416,"2021-03-31T15:28:25Z","RT @QuintenFrancois: $ETH to $2500 in April or I'm giving away 0.3 $ETH to someone who retweets this.",4150,6184
1377281637533286401,"2021-03-31T15:28:25Z","Once again! 1 ETH to spend in #NFTs! Drop your art below, like &amp; retweet ! #NFTCommunity #nftart #NFTartist #NFTartists #nft #nftcollector #nftcollectors",217,59
1377281635431907332,"2021-03-31T15:28:25Z","@hakashiisensei OH NO HK 😱😱😱 It's okay. You're up BIGLY from your ETH longs.",4,0
1377281634404343812,"2021-03-31T15:28:24Z","@healingvisions @jatin_digra @withFND @jatin_digra I received an invite from @healingvisions and then the process to acquire some ETH becaus eof where I live proved to be exhausting and arduous. By the time I was able to I lost access to my wallet and therefore my fnd page. Please consider me. I'm so close!",0,0
1377281632403652609,"2021-03-31T15:28:24Z","Hey you...📢  We've extended our @Bitcointalk Signature Campaign!💪  1⃣Earn $PHR💰 2⃣Hold in your #Phore wallet 3⃣Get #Graphene for FREE🚀  👇View the campaign👇 https://t.co/4p3gjxUkfG  #Bitcoin #Ethereum $BTC $ETH $GFN #cryptocurrency #Airdrop @GetGraphene https://t.co/3XjSXsjOuK",76,59
1377281629048168449,"2021-03-31T15:28:23Z","@x3ideRaven @igcrawford3 @WSBCrypto @LBRYcom I'm just trying to say that no one has legally ruled that BTC and ETH are not security. The SEC has only decided not to label them as security for the time being. but without legislation this may change;)",7,0
1377281616637214720,"2021-03-31T15:28:20Z","@mavroses @withFND Sometimes you not find what you’re searching! CURIOSATY! @withFND  RESERVE PRICE: 0.14 ETH #NFT #NFTs #NFTartists #nftart #NFTCommunity #NFTcollectibles #NFTdrop #NFTshill  https://t.co/RcQ1YT8y98",1,0
1377281614451990531,"2021-03-31T15:28:20Z","The DEX @FinanceChainge is set to launch on the @FUSIONProtocol network with over a million users on the protocols waitlist. This decentralized exchange aims to innovate on traditional models through leveraging the Fusion Network.  #BSC #BTC #ETH #BNB  https://t.co/xx55YiGfm3",21535,13657
1377281612082188291,"2021-03-31T15:28:19Z","RT @LeoLemarie1: @mickalamasse1 To the moon #projetXcrypto   #eth #projetx #defi #dex #tacoswap #tacotoken🌶 #vampireattack #frenchdex #ethe…",58,43
1377281611935453185,"2021-03-31T15:28:19Z","Artificial_Bloom by DvdGoldberg  1 of 1 • Offers from 31st March, 7:00 pm  🔥 Genesis edition 🔥  https://t.co/rLE1nA5g41  @KnownOrigin_io  Art by @dvdgoldberg  #cryptoart #NFT #cryptoartist #ETH",20,3
1377281610479976454,"2021-03-31T15:28:19Z","3/ Besides being an RPG game with beautiful graphics ILV has room for all players and investors in its ecosystem. From the Leviathan Arena where you can wager unlimited ETH on Illuvial matches, to ranked events, to yield farming where 100% of in-game revenue is redistributed.",0,0
1377281601319632899,"2021-03-31T15:28:17Z","@mickalamasse1 #PoolParty !🌶🌶🌶🔥🔥🔥  Objectif: #projetXcrypto   #eth #projetx #defi #dex #tacoswap #tacotoken🌶 #vampireattack #frenchdex #ethereum",23,20
1377281599746797581,"2021-03-31T15:28:16Z","14 Days until @GetGraphene Snapshot #2... 🤯  📅April 11th @ 23:59 GMT📅  1⃣Hold $PHR in your wallet 2⃣Get the $GFN airdrop... FREE!   👉👉👉 https://t.co/BnYkuvMvjq  👈👈👈   #Graphene is coming to #BinanceSmartChain !   #Bitcoin #Phore #Airdrop $BTC $ETH @cz_binance @binance https://t.co/QYqfB5Sggl",109,71
1377281597918081029,"2021-03-31T15:28:16Z","@mickalamasse1 taco4life      🌶️=========&gt;🚀 Objectif: #projetXcrypto   #eth #projetx #defi #dex #tacoswap #tacotoken🌶 #vampireattack #frenchdex #ethereum",32,25
1377281596957491211,"2021-03-31T15:28:16Z","@mrkalopsia Hi! This is BBB Batman Bitcoin Blues #NFTs  Only 0.8 $ETH  Help an starving artist!!! Thank you 🙏🏽  https://t.co/Xe0fLQnTZ2",0,0
1377281593836986368,"2021-03-31T15:28:15Z","Top 5 Mentions Updated Every 5 Minutes   Start Time: Wed Mar 31 2021 09:33:14 GMT+0300 (GMT+03:00)   (BETA STAGE)  1- $ETH==&gt;2019  2- $BNB==&gt;1002  3- $XRP==&gt;613  4- $ADA==&gt;467  5- $DOT==&gt;450  - $Bitcoin #Bitcoin $Crypto #Crypto $Altcoin #Altcoin -",0,0
1377281591437897728,"2021-03-31T15:28:14Z","Guys, it's almost TOO EASY to make money!! Look at the callout about 3 weeks ago, $DUSK flew 140%. Now the price is discounted, fill your bag before we fly like this again, minimum 1 year target is $1!  $btc $eth $doge $ada $link $chain $egld $zil $uni https://t.co/uAegsg7IML https://t.co/2e8uGlbFTb",7,4
1377281585918058508,"2021-03-31T15:28:13Z","#Eth suffering at 1850  #BNB will act stable for sometime or follow #BTC to ath still to be known  #BTC might breakout to ATH   $dot suffering to crack 37 level  But yeah looks like will rally above 40",8,0
1377281581031768069,"2021-03-31T15:28:12Z","The DEX @FinanceChainge is set to launch on the @FUSIONProtocol network with over a million users on the protocols waitlist. This decentralized exchange aims to innovate on traditional models through leveraging the Fusion Network.  #BSC #BTC #ETH #BNB  https://t.co/xx55YiGfm3",21535,13657
1377281580050345989,"2021-03-31T15:28:11Z","RT @colonel___3: @mickalamasse1 Projet X @Uniswap @SushiSwap @bepronet @Poolz__ @Exeedme #DeFi #ETH",61,50
1377281579320549386,"2021-03-31T15:28:11Z","RT @1goonrich: $OLY about to rocket from the bottom great buy great project $eth $btc $link $pmon $one $dot $Feg $pxp $bfrm $wenr $peech 🍻",7,6
1377281579026800640,"2021-03-31T15:28:11Z","@StockSheiki @gifkeyboard @Matt_thetrader Posted the ETH chart just for you 😉",1,0
1377281578133508098,"2021-03-31T15:28:11Z","Moonboys in trouble 😈😈😈😈  Just took profit on my #Bitcoin long. The top is in imo I'm now SHORT'ing $BTC   #BTC   Signals: https://t.co/A8nrhLWVD2  #ETH $btc $ada #cardano $eth #Ethereum #tron $trx #trx #bnb #bsc $bnb $bsc $alice $btt #btt $chz $xrp $matic $tky $hot https://t.co/4dXlE2RUZj",3,0
1377281577894490113,"2021-03-31T15:28:11Z","@mickalamasse1 #PoolParty !  Objectif: #projetXcrypto   #eth #projetx #defi #dex #tacoswap #tacotoken🌶 #vampireattack #frenchdex #ethereum https://t.co/QWOS0mo7tK",15,16
