"ID","created_at","text","like_count","rt_count"
1374737766047682560,"2021-03-24T14:59:59Z","RT @EIonMuskerino: Stop trying to make Etherium happen, it's not gonna happen.",1192,103
1374737764772503560,"2021-03-24T14:59:59Z","📌 The TokenKennel #Giveaway | Rules 📌 =   - Step 1: Like &amp; Retweet + tag 3-5 People! - Step 2: Follow @KennelToken &amp; @__Bullish__ - Step 3: Join https://t.co/1wcwTits9h - Step 4: Send Proof!   Prize = 100$ in #BTC or #ETH  06/04, we will announce the winner! 🎁",1814,2129
1374737752655269892,"2021-03-24T14:59:56Z","We're getting ready for release.  Want to be one of the first to try Pollen Dao?  1. Follow Pollen 2. RT this tweet. 3. Fill in the form below. https://t.co/DxjzDg0jU4 Access will be granted on a first come, first serve basis. #DeFi #DAO #yields #ETH",59,62
1374737749740228618,"2021-03-24T14:59:55Z","Shill me your favorite altcoin 👀  Bags I'm holding / doing research into right now: #Bitcoin, $ETH, $RUNE, $LINK, $AAVE, $SUPER, $URUS, $APY, $BAO, $DHT, $DPI, $UOS, $BNB, $PLOT, $SUSHI, $DPH, $KWIK   Lmk if you have any favorites here, and what else I should be looking into 👀",395,79
1374737749698355203,"2021-03-24T14:59:55Z","The price of ETH has actually grown faster than Bitcoin since the beginning of the 2021 — driven by both retail investors and major financial institutions. As a result, search interest has hit all-time highs. https://t.co/9MhXXOMW5f",447,96
1374737739405475848,"2021-03-24T14:59:53Z","@DogecoinRise Can we just knock eth classic out to begin with",0,0
1374737733000826884,"2021-03-24T14:59:51Z","RT @BanklessHQ: @drakefjustin It’s time to understand what everyone is talking about.   “ETH is Ultra Sound Money” is now live.  https://t.…",12,2
1374737726012985350,"2021-03-24T14:59:49Z","The DEX @FinanceChainge is set to launch on the @FUSIONProtocol network with over a million users on the protocols waitlist. This decentralized exchange aims to innovate on traditional models through leveraging the Fusion Network.  #BSC #BTC #ETH #BNB  https://t.co/xx55YiGfm3",21105,13409
1374737724083740680,"2021-03-24T14:59:49Z","RT @DailyDogeUpdate: 🚀 $1000 to anyone who Like, Follow and Retweet 🚀  #Dogecoin #LTC $ETH",1838,1206
1374737712952004610,"2021-03-24T14:59:46Z","@FirstNFTHuman Germs are taking over the world. Bacteria, viruses, fungi, and parasites have spread everywhere!  Will we be able to save the world?  Get yours while it lasts - only 0.01 ETH  https://t.co/xMvcIhDJBP",0,0
1374737710733221890,"2021-03-24T14:59:46Z","oh hello - didn't notice this before   San Francisco resold on the secondary for 0.25 eth 👀https://t.co/iEwDRkCvsX",1,0
1374737708266917888,"2021-03-24T14:59:45Z","#Giveaway   Giving away $50 in, #Bitcoin #ETH #CEL #MATIC #LINK #SNX #GODL #USD, you choose after you win.  How to win: -RT/Like  ⏰Paid out once we reach 750 likes or 300 RT's.  @CelsiusNetwork = life.♥️  Will still be giving away normal giveways, so make sure to give a follow👌 https://t.co/sazB5Y6mm9",409,359
1374737687228342278,"2021-03-24T14:59:40Z","It Was Inevitable, BlockFi Slashes Rates for BTC &amp; ETH Holders &amp; Makes Changes to Tiers  #blockchain #dlike #cryptocurrency https://t.co/Pnmw694Wlf",0,0
1374737682664931330,"2021-03-24T14:59:39Z","Mr. Musk , might consider using #ALTCOINS too , instead of just #BTC  like $ZNN ! 🔥💪  #whoknows #futuresight  $BTC $ETH https://t.co/wY4MXEHW3m https://t.co/8ryT1naC0P",6,2
1374737680945270790,"2021-03-24T14:59:39Z","Current Gas Fee Per Transaction  $GO  $0.001💎 vs $ETH $100.00💩  #GoChain can handle 100X the Volume of #Ethereum you won’t have to raise the Gas price very often (if ever). So most days, GoChain Gas fees will only be a fraction of a penny. Switch to GO   https://t.co/LLrjT46zyL",85,35
1374737677715640322,"2021-03-24T14:59:38Z","It's time for the people to take back control of their data!!! Big tech will not profit off us any longer!!! Take control of your future and become a datapreneur with #Constellation $DAG   $LTX $DOT $UNI $XRP $BTC $ETH $DOGE $EOS $IOTA $ADA $REEF $ZEC $TRX $LINK $COTI $OCEAN $BNB https://t.co/iN5TwUKBAJ",32,10
1374737674616123392,"2021-03-24T14:59:37Z","@thatdenverguyYT DYOR but I like $algo and $cvc along with a healthy % of $btc and $eth",1,0
1374737662813339656,"2021-03-24T14:59:34Z","I think it is necessary to join their dense rows before it is too late #STC #ETH #DEFI #Airdrops https://t.co/HceTTmE2Sq",0,0
1374737653380358153,"2021-03-24T14:59:32Z","RT @CashNCrypto: $150 to one person in 48hrs  Rt &amp; follow me + @domscrypto &amp; @boar_eth",2050,4122
1374737648577703945,"2021-03-24T14:59:31Z","You can now buy a #Tesla car with #Bitcoin   “Nothing is stronger than habit” @DavosCryptos   $BTC $ETH #TSLA #Cryptocurrency https://t.co/L0UpN4xTtm",675,790
1374737640633815040,"2021-03-24T14:59:29Z","💎 Coco 💎  ✨ Artwork by @KalistoSenna 💰 Sold to defteq for 1.0 ETH ($1,709.15)  https://t.co/sh1A7lY0R7  #cryptoart #NFT https://t.co/NmIGT2hlNI",11,38
1374737639585280005,"2021-03-24T14:59:29Z","@Tpunks_official I have mint just now!! Here!!  0.3 ETH!!  https://t.co/kfNdURplB1",1,0
1374737635109834761,"2021-03-24T14:59:28Z","Been screaming about this gem since the beginning for months now  $VRX is on the left, $AVAX on the right  Don't be shaken out,  5000$ incoming  🚀  Buy $VRX NOW!  Only 47.5k max supply, 60% staked! Game changing coin🔥  #bitcoin $btc $eth  $spi $chain $umx $cfi $ern $lpt $rfr https://t.co/VJheZrWKaa",2435,3576
1374737634438832133,"2021-03-24T14:59:28Z","💎 Death Dip 💎  ✨ Artwork by @XCOPYART 💰 Sold to @punk4156 for 1000.0 ETH ($1,733,820.00)  https://t.co/FXegqMqNiY  #cryptoart #NFT https://t.co/oAoD1Hb3te",359,54
1374737632387723268,"2021-03-24T14:59:27Z","📌 The TokenKennel #Giveaway | Rules 📌 =   - Step 1: Like &amp; Retweet + tag 3-5 People! - Step 2: Follow @KennelToken &amp; @__Bullish__ - Step 3: Join https://t.co/1wcwTits9h - Step 4: Send Proof!   Prize = 100$ in #BTC or #ETH  06/04, we will announce the winner! 🎁",1814,2129
1374737619054071811,"2021-03-24T14:59:24Z","📌 The TokenKennel #Giveaway | Rules 📌 =   - Step 1: Like &amp; Retweet + tag 3-5 People! - Step 2: Follow @KennelToken &amp; @__Bullish__ - Step 3: Join https://t.co/1wcwTits9h - Step 4: Send Proof!   Prize = 100$ in #BTC or #ETH  06/04, we will announce the winner! 🎁",1814,2129
1374737616713572359,"2021-03-24T14:59:23Z","RT @CashNCrypto: $150 to one person in 48hrs  Rt &amp; follow me + @domscrypto &amp; @boar_eth",2050,4122
1374737612020256769,"2021-03-24T14:59:22Z","Miami gonna be the #Blockchainbeach of the world. $ONE   #Bitcoin #ETH $ALGO https://t.co/PKLpAsmZSk",1,0
1374737603539337216,"2021-03-24T14:59:20Z","#Giveaway   Giving away $50 in, #Bitcoin #ETH #CEL #MATIC #LINK #SNX #GODL #USD, you choose after you win.  How to win: -RT/Like  ⏰Paid out once we reach 750 likes or 300 RT's.  @CelsiusNetwork = life.♥️  Will still be giving away normal giveways, so make sure to give a follow👌 https://t.co/sazB5Y6mm9",409,359
1374737601844940800,"2021-03-24T14:59:20Z","Congratulations 🎉🥳 to @SelinaKKaiser1 for her successful PhD defence @catalysis_eth  entitled 'Nanostructured catalysts for sustainable acetylene-based vinyl chloride production' Thank you @TheorHetCatICIQ @CoperetGroup for the excellent questions and discussion! https://t.co/AD995GifqL",73,4
1374737593947074561,"2021-03-24T14:59:18Z","@2154Trx I have mint just now!! Here!!  0.3 ETH!!  https://t.co/kfNdURplB1",0,0
1374737580948922368,"2021-03-24T14:59:15Z","1 ETH to spend in #NFTs! Drop your art below, like &amp; retweet ! #NFTCommunity #nftart #NFTartist #NFTartists #nft #nftcollector #nftcollectors",324,69
1374737571255881729,"2021-03-24T14:59:13Z","After our 1st friendly attack, 13% of liquidity providers of  @bepronet-ETH trusted #tacoswap, stake their UniV2 LP &amp; start to earn #tacotoken 🌶️ Thank you🙏 Together, stronger 💪 #tacotothemoon #defi #crypto #ilovetacotoken https://t.co/PXfOOOzcII",33,31
1374737568940494850,"2021-03-24T14:59:12Z","🚀 Safe The Children  🔷 Token Symbol : STC  🔷 Contract: https://t.co/nk3qsF2PJV  🔷 Website: https://t.co/4y0g7dqswM  🔷 Whitepaper: https://t.co/PHPZI4dbyR  🔷 Presentation Video : https://t.co/Mycfov12IU  #Safe_Childrens #Bitcoin  #Binance #BinanceSmartChain #DEFI  #BTC #ETH",13976,13663
1374737563425120261,"2021-03-24T14:59:11Z","Hey @BigONEexchange, your public API is having 20+minute delay and increasing  https://t.co/vUQcMP5pXl https://t.co/LASIecL4E3",0,0
1374737549227270153,"2021-03-24T14:59:07Z","#Giveaway   Giving away $50 in, #Bitcoin #ETH #CEL #MATIC #LINK #SNX #GODL #USD, you choose after you win.  How to win: -RT/Like  ⏰Paid out once we reach 750 likes or 300 RT's.  @CelsiusNetwork = life.♥️  Will still be giving away normal giveways, so make sure to give a follow👌 https://t.co/sazB5Y6mm9",409,359
1374737536338296832,"2021-03-24T14:59:04Z","@jake_nft Hi! I'm Terence The Spider, a new #NFTartist specializing in funny and thought provoking #nftart, #nftcomics, and #nftmusic. I currently have NFTs ranging from 0.1 - 0.75 ETH.  Appreciate you checking out my work!  https://t.co/D14VKiuS5K https://t.co/T8Uc0f9ag0",3,0
1374737530549985286,"2021-03-24T14:59:03Z","Charlie was FIRST on $MEME -  Now the next great innovation in #NFTs will be @GenShards  $GS  Transform NFTs into a liquidity vehicle for Pre-IDO tokens and a whole new suite of DeFi products across $ETH &amp; $DOT  Get whitelisted here: Say Charlie sent ya  https://t.co/lNSHlBtoPJ",101,16
1374737524820705285,"2021-03-24T14:59:01Z","@itstonirain I have mint just now!! Here!!  0.3 ETH!!  https://t.co/kfNdURplB1",0,0
1374737523205763078,"2021-03-24T14:59:01Z","The DEX @FinanceChainge is set to launch on the @FUSIONProtocol network with over a million users on the protocols waitlist. This decentralized exchange aims to innovate on traditional models through leveraging the Fusion Network.  #BSC #BTC #ETH #BNB  https://t.co/xx55YiGfm3",21105,13409
1374737521293295621,"2021-03-24T14:59:01Z","Maybe when he reaches 500 followers he will do something special.  you're giving me a lot of love ... maybe a giveaway for a #Browntopink?  a #Browntopink for 0.0001 Eth ummm I have to think about it #Cryptoart #NFT #NFTart #NFTCommunity #nftcollector",8,1
1374737519024218117,"2021-03-24T14:59:00Z","Coming Q3 2021, the first AAA gaming title built on blockchain using Unreal Engine 4.  💜 Battle for ETH in a play to earn model 🎴 Collect rare NFT creatures  Quantstamp has secured their ERC20 and access control contracts.   Check out @illuviumio 👾 https://t.co/HAOL9BRXvg",115,27
1374737518835433474,"2021-03-24T14:59:00Z","RT @BanklessHQ: @drakefjustin It’s time to understand what everyone is talking about.   “ETH is Ultra Sound Money” is now live.  https://t.…",12,2
1374737514746032130,"2021-03-24T14:58:59Z","RT @CashNCrypto: $150 to one person in 48hrs  Rt &amp; follow me + @domscrypto &amp; @boar_eth",2050,4122
1374737514532077571,"2021-03-24T14:58:59Z","@sassal0x even ETH rich people don't beleive in ETH they prefer USD 😅man this is a brutal run for ETH ....",3,0
1374737514188115971,"2021-03-24T14:58:59Z","@MitchsJournal $MBX - @Mobie_Pay  30M MC 🔥🔥 This thing will 50x fast  On schedule for this month:   🔸 Bridge and Uniswap listing 🔸 Staking 🔸 Beta Launch 🔸 Retail Partner Announcement  $BTC $Eth $storj $theta $ankr $cvr $ont $orn  https://t.co/vIQZy590ew",15,2
1374737511864397825,"2021-03-24T14:58:58Z","The DEX @FinanceChainge is set to launch on the @FUSIONProtocol network with over a million users on the protocols waitlist. This decentralized exchange aims to innovate on traditional models through leveraging the Fusion Network.  #BSC #BTC #ETH #BNB  https://t.co/xx55YiGfm3",21105,13409
1374737509998080006,"2021-03-24T14:58:58Z","The DEX @FinanceChainge is set to launch on the @FUSIONProtocol network with over a million users on the protocols waitlist. This decentralized exchange aims to innovate on traditional models through leveraging the Fusion Network.  #BSC #BTC #ETH #BNB  https://t.co/xx55YiGfm3",21105,13409
1374737504776069120,"2021-03-24T14:58:57Z","RT @CashNCrypto: $150 to one person in 48hrs  Rt &amp; follow me + @domscrypto &amp; @boar_eth",2050,4122
1374737499973693441,"2021-03-24T14:58:56Z","Using @kalamint_io through #tezos I made around 15 transactions that cost me less than 3 cent and less than 10 seconds per transaction. At the same time I decided to sell ONE coin through #ethereum on #uniswap and it cost me $55 and took 20 minutes to complete....  $xtz $eth #NFT",108,39
1374737497410916356,"2021-03-24T14:58:55Z","RT @CashNCrypto: $150 to one person in 48hrs  Rt &amp; follow me + @domscrypto &amp; @boar_eth",2050,4122
1374737495502561282,"2021-03-24T14:58:54Z","@KONOGATARI I have mint just now!! Here!!  0.3 ETH!!  https://t.co/kfNdURplB1",0,0
1374737494659321862,"2021-03-24T14:58:54Z","The DEX @FinanceChainge is set to launch on the @FUSIONProtocol network with over a million users on the protocols waitlist. This decentralized exchange aims to innovate on traditional models through leveraging the Fusion Network.  #BSC #BTC #ETH #BNB  https://t.co/xx55YiGfm3",21105,13409
1374737483368386568,"2021-03-24T14:58:52Z","RT @EIonMuskerino: Stop trying to make Etherium happen, it's not gonna happen.",1192,103
1374737482424721409,"2021-03-24T14:58:51Z","People said I've been negative lately...So let's give away a THICC Pokemon NFT (valued at about $1000 now, but I think at least $2k in 3 months)  Post your ETH wallet below and your favorite pokemon. Tags/Retweets to friends who like NFTs/Crypto is super appreciated. https://t.co/GHxjLnTcb1",1142,509
1374737482219057152,"2021-03-24T14:58:51Z","RT @CashNCrypto: $150 to one person in 48hrs  Rt &amp; follow me + @domscrypto &amp; @boar_eth",2050,4122
1374737481682280459,"2021-03-24T14:58:51Z","🚀 GoodDollar Airdrop 💰Reward 60 G$ 🚀Daily Free Claim ✅Strong project  Don't skip The AIRDROP Follow @AirdropsBoY  Signup with google ID https://t.co/vzdtEs7H0N ✨Click claim button ✨verify selfie face 😍Check Balance  @cctip_io draw 0.00001 eth 199 #ctbot adrop ram 10 CTR 99 https://t.co/83vlbL1dyd",33,47
1374737481120288768,"2021-03-24T14:58:51Z","RT @sassal0x: Guys I'm joking lol but here's the context  https://t.co/iAG2Mt9mPK",105,5
1374737479635365890,"2021-03-24T14:58:51Z","The DEX @FinanceChainge is set to launch on the @FUSIONProtocol network with over a million users on the protocols waitlist. This decentralized exchange aims to innovate on traditional models through leveraging the Fusion Network.  #BSC #BTC #ETH #BNB  https://t.co/xx55YiGfm3",21105,13409
1374737475374043143,"2021-03-24T14:58:50Z","I'https://t.co/9lv9qhcUo5 away a million. Drop you wallet address below. Like, Follow, retweet.  Chainlink #Chainlink $Link #bitcoin btc #btc #eth $eth $eth #usdt $usdt #ada $ada #cardano #bnb $bnb #crypto #blockchain",634,438
1374737469103611907,"2021-03-24T14:58:48Z","The Pickers family now counts over 25k players🎉  To celebrate this milestone, we are giving away $50 of ETH and 3 exclusive #NFTs  How to join? ► Follow @CryptoPickHQ ► Like &amp; Retweet ► Tag 2 friends ► Comment your CryptoPick username below  🎁8 winners -⌛️Ends in 48H https://t.co/ItWwew1yv2",282,218
1374737468977733633,"2021-03-24T14:58:48Z","RT @CashNCrypto: $150 to one person in 48hrs  Rt &amp; follow me + @domscrypto &amp; @boar_eth",2050,4122
1374737468621213705,"2021-03-24T14:58:48Z","@cyberpirateznft I have mint just now!! Here!!  0.3 ETH!!  https://t.co/kfNdURplB1",0,0
1374737458118553611,"2021-03-24T14:58:46Z","🦄💎Adonx IEO Ongoing on Indoex Exchanger until 21th April  🏃💨Purchase now before it's too late: https://t.co/cidGl4st5i  💱💹Prices:  💶ETH: 0.0003 💷BTC: 0.000009 💵USDT: 0.54  ⚠️Min. Purchase 500 Adonx  #btc #eth #bnb #CryptoNews #cryptoart #cryptocurrencies #IEO #ICO https://t.co/sAU5ZRFf15",162,81
1374737452812931073,"2021-03-24T14:58:44Z","$coti 5min update :)  $BTC $ALGO $CHZ $USDT $RVN $XVG $BAND $ETH $SRM $CAKE $BAKE $DASH $NFT $BNB $LTC $FET $IOTA $THETA $DOGE $CHR $ROSE $REEF $ALICE $HOT $HOLO $ADA $SXP https://t.co/9QChIYERzJ",5,1
1374737441899315205,"2021-03-24T14:58:42Z","Even @beeple doesn’t want to hold ether, but Tesla def wants to hold btc  I wonder what that says about ethbtc. I wonder 🥲 https://t.co/akdkCUDnmI",0,0
1374737438707347458,"2021-03-24T14:58:41Z","Great news! @dypfinance team currently running tests on Kovan Test Network for the DYP Earn Vault!  ⭐Some features of $DYP Earn Vault: ~Support #ETH, WBTC, USDC, USDT, DAI ~5 different lockup durations ~Fixed APY for each pool  e.t.c  The DYP Earn Vault should be launched soon🥳 https://t.co/XyOBxjujIp",307,302
1374737430096515077,"2021-03-24T14:58:39Z","@KongWorldArt I have mint just now!! Here!!  0.3 ETH!!  https://t.co/kfNdURplB1",0,0
1374737429299609602,"2021-03-24T14:58:39Z","WARNING🚨   MASSIVE airdrop 🔥   $QDAO is a true💎since 2019, by famous team, just 10 MILLION CAP  1. Go now to Twitter @QDefi  or telegram https://t.co/x0vuSIVfV9   2. Get your free tokens  3. HODL this gem until 10x-20x  (soon - launch cross-chain tool for BSC, DOT and ETH) https://t.co/S3sdpsYnUu",1010,1142
1374737425365413891,"2021-03-24T14:58:38Z","@Wabisuki10 Only a few hours left! Take your chance and collect BigCornichon now:  https://t.co/DMVV33b3aT  Sales ends today at 22pm CET! #NFTs #ntf #opensea #btc #ETH #nftcollector #cryptoart #CryptoCornichon",3,0
1374737422269829123,"2021-03-24T14:58:37Z","Huge CONGRATS to the one and only @XCOPYART who just broke the All-Time sale record on SR 💎  “Death Dip”, SR token #14, just sold to collector @punk4156 for 1000 ETH ($1.73M USD) 💎 Congrats to jmahhh for the sale!   Link: https://t.co/4B4Mppib6I https://t.co/OJ3JNTvJ9x",556,81
1374737419753328642,"2021-03-24T14:58:36Z","@DSNR_1 Yeah I knew he was a fraud when he was on uponiy talking about how Eth is dumb and too complicated",0,0
1374737419312922633,"2021-03-24T14:58:36Z","💧YetuBit Airdrop 2nd Round💧  🏆 Task:          ➕  25 YETU (~$20)  👨‍👩‍👧 Referral:   ➕  5 YETU (~$4)  🔛  Airdrop Link &amp; Information: https://t.co/ZoGw3AR71I  #cryptocurrency #Crypto #Bitcoin  #BSC #BinanceSmartChain #Ethereum #ETH #Airdrop #bounty #YetuBit #YetuSwap #YETU",4309,5495
1374737418943926275,"2021-03-24T14:58:36Z","Imagine getting into #doge earlier. Basically, that’s $FEG today, except rewarding #HODLERS! Can open a MetaMask wallet with #ETH and use #uniswap at 5%+ slippage to buy. https://t.co/GKpTbxbGvT",4,1
1374737417790353410,"2021-03-24T14:58:36Z","“Boom, fifty-three million dollars in my account. Like, what the fuck”  The money was in ETH, and its value immediately started fluctuating. Spooked by the volatility, he converted it to U.S. dollars.  “I’m not remotely a crypto-purist”  ⁦@beeple 🧐 https://t.co/m4K3if4BN1",50,4
1374737417639497729,"2021-03-24T14:58:36Z","$DFT @DefiatOfficial I've been calling it some X's ago. Time to ride this parabolic 🌊  $btc $eth $doge $bnb $swap $pols $cake $sushi $enj $crv $oly $uni $xrp $ltc $spi $umx $dot $ada $YFI $BAO $nfy $ern $1inch $chz $trx $bondly $uncx $reef $ocean $paint $mph $om https://t.co/F35hVi8d3W https://t.co/35sOTgCGNi",5,2
1374737414569091076,"2021-03-24T14:58:35Z","💧Roku Network Airdrop 💧  🏆 Task:          ➕  15 ROK (~$5)  👨‍👩‍👧 Referral:   ➕  3 ROK (~$1)  🔛  Airdrop Link &amp; Information: https://t.co/YhvsOcfEbH  #cryptocurrency #Crypto #Bitcoin  #BSC #BinanceSmartChain #Ethereum #ETH #Airdrop #bounty #ROK #RokuCoin #RokuNetwork",3593,4682
1374737405291327489,"2021-03-24T14:58:33Z","🔸 New Listing🔸   #BKEX will list #DRYCAKE @DryCakeSwap🚀 🚀  - Trading pair: DRYCAKE/USDT - Trading time: 20:00 on Mar 29 (UTC+8)  🔹 🔹 More details: https://t.co/kC2IIebfTT  #Bitcoin #ETH #BKK #Blockchain https://t.co/w8CHyKXaUD",3136,4386
1374737398706315265,"2021-03-24T14:58:31Z","📌 The TokenKennel #Giveaway | Rules 📌 =   - Step 1: Like &amp; Retweet + tag 3-5 People! - Step 2: Follow @KennelToken &amp; @__Bullish__ - Step 3: Join https://t.co/1wcwTits9h - Step 4: Send Proof!   Prize = 100$ in #BTC or #ETH  06/04, we will announce the winner! 🎁",1814,2129
1374737389936123904,"2021-03-24T14:58:29Z","#dailyFEG Wednesday, 24 March 2021 Where to buy:  $FEG #ETH at @Uniswap @1inchExchange $FEG #BSC at @PancakeSwap  #FEG #FEGex #FEGtrack #altcoin #altseason #blockchain #BNB #BTC #crypto #cryptonews #cryptoworld #cryptoinvestor #cryptotrader #DeFi #ERC20 #BEP20 #HODL #NFT #moon https://t.co/aT18NFTbrL",205,84
1374737379064344579,"2021-03-24T14:58:27Z","The DEX @FinanceChainge is set to launch on the @FUSIONProtocol network with over a million users on the protocols waitlist. This decentralized exchange aims to innovate on traditional models through leveraging the Fusion Network.  #BSC #BTC #ETH #BNB  https://t.co/xx55YiGfm3",21105,13409
1374737372529713154,"2021-03-24T14:58:25Z","RT @DailyDogeUpdate: 🚀 $1000 to anyone who Like, Follow and Retweet 🚀  #Dogecoin #LTC $ETH",1838,1206
1374737368012488704,"2021-03-24T14:58:24Z","@Sa3Crypto @HukAleksandra ada bulls will always be pumping because they got in really early,get rich quickly why not,when the network is as big as eth and eth stays the same than its a sign",1,0
1374737366284333062,"2021-03-24T14:58:24Z","#Telfam, The #GSMA just put out their State of the Industry Report on #MobileMoney 2021 and I HIGHLY recommend reading it.   In doing so, you will understand why #Telcoin is MASSIVELY undervalued. 🚀✨  #COVID19 #TEL #telcoin #REST #ETH #Bitcoin #BTC #VET  https://t.co/T1hujO07jV",113,37
1374737361314140167,"2021-03-24T14:58:22Z","The Pickers family now counts over 25k players🎉  To celebrate this milestone, we are giving away $50 of ETH and 3 exclusive #NFTs  How to join? ► Follow @CryptoPickHQ ► Like &amp; Retweet ► Tag 2 friends ► Comment your CryptoPick username below  🎁8 winners -⌛️Ends in 48H https://t.co/ItWwew1yv2",282,218
1374737358231384069,"2021-03-24T14:58:22Z",".・゜゜✨・ Illumination Series ・✨゜゜・． Inspired by Persian art  .・゜゜✨・ ✣ Edition دو of 8 ✣ Ξ0.2  ✣Now available on:  https://t.co/Aaw3Ycw9aH  #thamotion #nfts #opensea  #artwork #Collectibles  #nftaday #crypto #cryptoart #collection #eth #2dart https://t.co/7g8PysSW07",10,1
1374737354611654656,"2021-03-24T14:58:21Z","@greek_prick More important they dont support shitcoins like eth.",2,0
1374737349905580034,"2021-03-24T14:58:20Z","@cz_binance is the real GOD of #Defi.  #BSC is number one and #ETH is obsolete.    The $BSCX community will be delighted to get listed on the #Binance   Follow GOD and we can be rich!! $BNB Lead, $BSCX will follow!! https://t.co/yCd2nMFLis",185,105
1374737347791572992,"2021-03-24T14:58:19Z","$eXRD will be listed on #MXCExchange  @radixdlt 🔥  1. Deposit &amp; Withdrawal: opened 🎉 2. Trading Launch 📈: 22:00 (UTC+8), March 24th, 2021  Stake $BTC $ETH $DOT $MX from Mar 22 - Mar 25 to Earn $eXRD Tokens.  Total Yield Pool: 190,000 $eXRD  Details: https://t.co/fJbBV80vG9 https://t.co/Bj2GSA7kNm",89,241
1374737346583785485,"2021-03-24T14:58:19Z","@ramani05 5/5 Pieces Available! (40 illustrations that I drew 1 by 1). This collection presented loops that meet me in everyday life and allow you to acquire this moment. https://t.co/RBTutfFZuQ  #NFTs #NFTCommunity #nftcollectors #nfteth #ETH #nftparty #2danimation #beeple #crafted https://t.co/J4FBehNkdN",1,0
1374737341420466178,"2021-03-24T14:58:18Z","#SISHI is getting confirmation for listing on a big #CEX before farming. More details will come.  #Yield of #Value   #SISHI is on the way become the most value #YieldFarming reward token.  TG- https://t.co/LDjYxqnUUz  #BinanceSmartChain #Binance #ETH #YieldFarming  #DeFi #BTC",2,1
1374737336886386690,"2021-03-24T14:58:17Z","Understanding what #Telcoin does is the key to holding.   $TEL will become a giant not just because of #remittances but because of #blockchain backed financial services, which start rolling out in Q2 (April 1).  $BTC $ETH #Bitcoin $ADA $UNI $XRP $DOT $LTC $XRP $BNB $BTT #NFT $BAL https://t.co/9oRm49elYX",126,48
1374737336764833793,"2021-03-24T14:58:17Z","$eXRD will be listed on #MXCExchange  @radixdlt 🔥  1. Deposit &amp; Withdrawal: opened 🎉 2. Trading Launch 📈: 22:00 (UTC+8), March 24th, 2021  Stake $BTC $ETH $DOT $MX from Mar 22 - Mar 25 to Earn $eXRD Tokens.  Total Yield Pool: 190,000 $eXRD  Details: https://t.co/fJbBV80vG9 https://t.co/Bj2GSA7kNm",89,241
1374737336542625799,"2021-03-24T14:58:17Z","Understanding what #Telcoin does is the key to holding.   $TEL will become a giant not just because of #remittances but because of #blockchain backed financial services, which start rolling out in Q2 (April 1).  $BTC $ETH #Bitcoin $ADA $UNI $XRP $DOT $LTC $XRP $BNB $BTT #NFT $BAL https://t.co/9oRm49elYX",126,48
1374737331844943882,"2021-03-24T14:58:15Z","$ETH $ETH  We confirmed a break in MS on the 1H &amp; closed above what I consider to be the range low (the low that led to price taking out/deviating above the range high).  Looking for Monday's high at $1800, followed by the naked PoC (point of control) + untapped supply at $1850. https://t.co/pw87CWA2B1",106,12
1374737331576393730,"2021-03-24T14:58:15Z","💧Roku Network Airdrop 💧  🏆 Task:          ➕  15 ROK (~$5)  👨‍👩‍👧 Referral:   ➕  3 ROK (~$1)  🔛  Airdrop Link &amp; Information: https://t.co/YhvsOcfEbH  #cryptocurrency #Crypto #Bitcoin  #BSC #BinanceSmartChain #Ethereum #ETH #Airdrop #bounty #ROK #RokuCoin #RokuNetwork",3593,4682
1374737321707311108,"2021-03-24T14:58:13Z","I’ve heard so much positive feedback from the community around their experience bridging Badger assets from ETH to BSC using @multichainxyz.   $20M in bBadger/bDIGG bridged already!  Personally it’s the easiest &amp; fastest bridge I’ve used.   👏 @AnyswapNetwork @AndreCronjeTech",108,24
1374737315126505473,"2021-03-24T14:58:11Z","💧Roku Network Airdrop 💧  🏆 Task:          ➕  15 ROK (~$5)  👨‍👩‍👧 Referral:   ➕  3 ROK (~$1)  🔛  Airdrop Link &amp; Information: https://t.co/YhvsOcfEbH  #cryptocurrency #Crypto #Bitcoin  #BSC #BinanceSmartChain #Ethereum #ETH #Airdrop #bounty #ROK #RokuCoin #RokuNetwork",3593,4682
1374737313809506309,"2021-03-24T14:58:11Z","Mandala Exchange - Powered by Binance Cloud announces listing of Tezos @tezos (XTZ)! Start trading #XTZ, #BTC, &amp; #ETH on Mandala with full Binance liquidity!      - Trade Hundreds of Pairs (990+)     - Lock MDX for .05% trading fees     - Refer and earn $ https://t.co/F6iC2OjO03 https://t.co/ZnsmlH7SZ4",130,44
1374737311720701952,"2021-03-24T14:58:11Z","I'll send $500 in #ETH or #BTC to one person who retweets this and follows @bud_crypto. Must complete these tasks:  1 - Like/RT his pinned tweet  2 - Must RETWEET &amp; LIKE 4 of his tweets  Ends in 72 hours!",1402,1861
