"ID","created_at","text","like_count","rt_count"
1375658832207126533,"2021-03-27T03:59:58Z","🎉Earn $12 $BRG🚀  💸💸Legit Airdrop💰💰  Join: https://t.co/XFCmFJdWQ9   Complete All Steps Done. At final step, it'll ask to buy tokens. Don't buy, Just click bought/done  #Bitcoin #BTC #Doge #TRX #ETH _____  @rocketbotpro airdrop 0.5 merge 50  #CTBot Adrop Avg 27 BTT 67",61,0
1375658795733381121,"2021-03-27T03:59:50Z","🚀 Safe The Children  🔷 Token Symbol : STC  🔷 Contract: https://t.co/nk3qsF2PJV  🔷 Website: https://t.co/4y0g7dqswM  🔷 Whitepaper: https://t.co/PHPZI4dbyR  🔷 Presentation Video : https://t.co/Mycfov12IU  #Safe_Childrens #Bitcoin  #Binance #BinanceSmartChain #DEFI  #BTC #ETH",14722,0
1375658785486766081,"2021-03-27T03:59:47Z","Did you know: GMNG token will be used for all transactions in the prize payout process or to purchase upcoming optional services (e.g., AI-powered predictions).   It enables the use of Smart Contracts, which are in turn crucial for platform security and transparency.   #eth #defi https://t.co/ANxC4ssFwg",87,0
1375658781149831176,"2021-03-27T03:59:46Z","New #digitalcurrencyalien #NFT pixel art available on https://t.co/zm1A0zl48c Limited to 1 mint each for 150+ artworks available using $ETH! RT for some free #Bitcoin !!  @coinkit_ com 50 1000 BTC #NFT",207,0
1375658773759414272,"2021-03-27T03:59:44Z","Important Notice:  📍Some Airdrop participants have joined the airdrop bot but they did not complete Airdrop mandatory tasks. Example: 💥Join telegram group  💥Join telegram channel 💥Follow Twitter 💥Like + Retweet pinned post with using hashtag below #STC #ETH #DEFI #Airdrops https://t.co/QREjAmTDDe",124,0
1375658767451254784,"2021-03-27T03:59:43Z","@Safe_Childrens Good project 👍👍👍👍👍👍👍  #STC #ETH #DEFI #Airdrops",0,0
1375658765978988547,"2021-03-27T03:59:42Z","@Safe_Childrens Good project #STC #ETH #DEFI #Airdrop",0,0
1375658764922089473,"2021-03-27T03:59:42Z","🎉Earn $12 $BRG🚀  💸💸Legit Airdrop💰💰  Join: https://t.co/XFCmFJdWQ9   Complete All Steps Done. At final step, it'll ask to buy tokens. Don't buy, Just click bought/done  #Bitcoin #BTC #Doge #TRX #ETH _____  @rocketbotpro airdrop 0.5 merge 50  #CTBot Adrop Avg 27 BTT 67",61,0
1375658762942357504,"2021-03-27T03:59:42Z","RT @benaliA94: December 2021 #Bitcoin ~22k$ #Ethereum ~600$ #TRX ~ 0.5$ #XRP ~20$ #BNB~100$ MY PROJECT 1$ ❤️👌 $ETH $TRX $BTC $BNB $XRP",344,0
1375658761986011140,"2021-03-27T03:59:42Z","Lending &amp; Margin Trading on SushiSwap 🔥  Available pairs:  - ETH/WBTC - SUSHI/ETH - ETH/UNI - AAVE/ETH - YFI/ETH - LINK/ETH - ETH/COMP https://t.co/oMxvOSSqDm",29,0
1375658760534949890,"2021-03-27T03:59:41Z","RT @AmandaCerny: Top 4 of my Crypto coin portfolio atm : $bnb $omi $eth  $doge",438,0
1375658756072075273,"2021-03-27T03:59:40Z","🎉Earn $12 $BRG🚀  💸💸Legit Airdrop💰💰  Join: https://t.co/XFCmFJdWQ9   Complete All Steps Done. At final step, it'll ask to buy tokens. Don't buy, Just click bought/done  #Bitcoin #BTC #Doge #TRX #ETH _____  @rocketbotpro airdrop 0.5 merge 50  #CTBot Adrop Avg 27 BTT 67",61,0
1375658741756874754,"2021-03-27T03:59:37Z","New #digitalcurrencyalien #NFT pixel art available on https://t.co/zm1A0zl48c Limited to 1 mint each for 150+ artworks available using $ETH! RT for some free #Bitcoin !!  @coinkit_ com 50 1000 BTC #NFT",207,0
1375658731489259522,"2021-03-27T03:59:34Z","BUNNEH’s #NFT is a #MentalHealth initiative we created!  Please get involved!! All funds from #BUNNEHs #NFT are being used to fund Mental Health Therapy for a loved one! Contribute to a fantastic cause https://t.co/pDr0GrcdGn  All NFT starting 0.005 $ETH @coinkit_ mon 25 1000 BTC",171,0
1375658725566988288,"2021-03-27T03:59:33Z","$STRAX performing well volume increasing two big news for $strax    1- $NFT coming to $Strax platform al 2- Stratis System contracts coming end of March that adds smart contract support to the Bitcoin based STRAX mainnet.  2X 🚀🚀🚀  $btc $eth $ltc $skl $sxp $kmd $xrp $chz $atom https://t.co/faYtKNo5aO",55,0
1375658702586322945,"2021-03-27T03:59:27Z","Did you know: GMNG token will be used for all transactions in the prize payout process or to purchase upcoming optional services (e.g., AI-powered predictions).   It enables the use of Smart Contracts, which are in turn crucial for platform security and transparency.   #eth #defi https://t.co/ANxC4ssFwg",87,0
1375658695497949185,"2021-03-27T03:59:26Z","#LaunchzonepoolX  is a hot phenomenon in the cryptocurrency for the past few days . 🎉🎉👨‍🌾👩‍🌾🚀 #BSCX #BNB #BUSD #USDT #BTCB #ETH #ZD #ZDCASH  #LaunchZone https://t.co/YzAArADuTr",150,0
1375658689583931396,"2021-03-27T03:59:24Z","BUNNEH’s #NFT is a #MentalHealth initiative we created!  Please get involved!! All funds from #BUNNEHs #NFT are being used to fund Mental Health Therapy for a loved one! Contribute to a fantastic cause https://t.co/pDr0GrcdGn  All NFT starting 0.005 $ETH @coinkit_ mon 25 1000 BTC",171,0
1375658682554310657,"2021-03-27T03:59:23Z","RT @QuintenFrancois: This is why $ETH is here to stay... https://t.co/USHKA6o26A",2745,0
1375658662027358209,"2021-03-27T03:59:18Z","#AxieInfinity #NFTCommunity brings together all kinds of people across the world to play and earn together! #Axies 💎 $AXS  $SLP $ETH #Crypto #NFTs #cryptocurrency #NFTgaming #PlayToEarn in the nation of #Lunacia.🌱",9,0
1375658655605870595,"2021-03-27T03:59:16Z","$DEFY just passed @TechRate1 audit with flying colours. Here is the link to the audit: https://t.co/Efzjn9A9lc  sincerely first ever deflationary #YieldFarming project.  #DeFi #BinanceSmartChain #binance #BNB $ETH $BTC",14,0
1375658655425650689,"2021-03-27T03:59:16Z","Best way to keep from giving away your money to shady developers is not to trade #Defi unless the #Crypto is listed on #Binance #Bitststamp or @Gemini. Defi needs to check itself, otherwise it's just a thiefs palace. And no research can change a developers honesty. #Uniswap $Eth",3,0
1375658640770760706,"2021-03-27T03:59:13Z","@BTCTN With 3 days left until the end of March, the big and good news of Bitcoin Gold #BTG will be released soon and this crypto currency  will become unattainable. #BTG #BTC #ETH #USDT #DOT #ADA #XRP #BNB #DOGE #TRX https://t.co/nxPS8ollrf",1,1
1375658636991557635,"2021-03-27T03:59:12Z","RT @Safe_Childrens: Thankyou For support us. $STC #STC #DEFI $BNB $BSC $BTC $ETH https://t.co/XcNikDySFH",83,1
1375658614355025921,"2021-03-27T03:59:06Z","RT @benaliA94: December 2021 #Bitcoin ~22k$ #Ethereum ~600$ #TRX ~ 0.5$ #XRP ~20$ #BNB~100$ MY PROJECT 1$ ❤️👌 $ETH $TRX $BTC $BNB $XRP",344,1
1375658607883255811,"2021-03-27T03:59:05Z","@Safe_Childrens This is a good project   #STC #ETH #DEFI #Airdrops  SAFE THE CHILDREN (STC) PRESENTATION https://t.co/QkAowoQAbf lewat @YouTube",0,0
1375658593773621250,"2021-03-27T03:59:01Z","The @Uniswap V3 x*y=k animation from @pplpleasr1 was just purchased for 310 ETH ($525,000)  The buyer was 0x067b9Bbbbc42d2AB9b9Ab6bB62646dAF7F344A76, a DAO formed for the sole purpose of forming capital buying this NFT  an NFT SPAC, if you will 🤯🤑💸  https://t.co/d8KrGgPn1L",1342,0
1375658590879555588,"2021-03-27T03:59:01Z","STC one of the respective thought is for Unprivileged Children in the world. STC 20% of total profit goes to STC special fund for Safe the Children forum. #STC $STC #ETH #DEFI #DONATION",2306,0
1375658587091922946,"2021-03-27T03:59:00Z","🚀 Safe The Children  🔷 Token Symbol : STC  🔷 Contract: https://t.co/nk3qsF2PJV  🔷 Website: https://t.co/4y0g7dqswM  🔷 Whitepaper: https://t.co/PHPZI4dbyR  🔷 Presentation Video : https://t.co/Mycfov12IU  #Safe_Childrens #Bitcoin  #Binance #BinanceSmartChain #DEFI  #BTC #ETH",14722,0
1375658580477534208,"2021-03-27T03:58:58Z","If u have to compare this to another project in nft space it would be  artblocks 720 minutes on the orignality  And concept it alters on every buy order !!  And they are edition of 720 With some goin for 50 eth ! 😬🤐🤐 https://t.co/8eyaiWAFnP",1,0
1375658564618911746,"2021-03-27T03:58:54Z","'JustAnotherGPUMiner' explains how you can #DualMine #ETH and #RTM on the same #MiningRig here -  https://t.co/Ybsuu79akk #Mining #Raptoreum helps to #support &amp; #secure the #Network and #Earn's you some real RTM! There's never a better time to #JumpOnBoard!  #Private #Secure #BTC",60,0
1375658560923832321,"2021-03-27T03:58:54Z","The @Uniswap V3 x*y=k animation from @pplpleasr1 was just purchased for 310 ETH ($525,000)  The buyer was 0x067b9Bbbbc42d2AB9b9Ab6bB62646dAF7F344A76, a DAO formed for the sole purpose of forming capital buying this NFT  an NFT SPAC, if you will 🤯🤑💸  https://t.co/d8KrGgPn1L",1342,0
1375658553659191299,"2021-03-27T03:58:52Z","#HODL until @binance listing or...   ... there is no or.   #HTMLCOIN $HTML #Bitcoin $BTC #Ethereum $ETH hybrid #Blockchain #WSB   A #hiddengem for 💎🙌    Still not even 1 sat! ATH was approx 40 sat! Go go go! 🚀🚀🚀 https://t.co/gjvzJlDMUt",25,0
1375658544385683458,"2021-03-27T03:58:50Z","Listed for 0.95 ETH   Have a great weekend  Check out this artwork by Paschamo on @withFND! 🌐  https://t.co/BCTQG75i8U",13,4
1375658533119647753,"2021-03-27T03:58:47Z","#HTMLCOIN $HTML #TOTHEMOON Thank you @bleutrade ! 🙏 #Bitcoin and #Ethereum hybrid #altcoin Best combo of $BTC and $ETH out there! Let’s go! 🚀🚀🚀 https://t.co/6Iy0Ur1eW1 https://t.co/bGitxRJqc5",21,4
1375658526165635074,"2021-03-27T03:58:45Z","@binance @cz_binance With 3 days left until the end of March, the big and good news of Bitcoin Gold #BTG will be released soon and this crypto currency  will become unattainable. #BTG #BTC #ETH #USDT #DOT #ADA #XRP #BNB #DOGE #TRX https://t.co/nqStiTk72L",1,0
1375658504271368198,"2021-03-27T03:58:40Z","600k $kat burned already since the announcement  Supply gonna drop more, price gonna spike even more  $btc $link $eth $rsr $ada $dot $vra $tel $kyte https://t.co/67iastrOMA",9,2
1375658495232462850,"2021-03-27T03:58:38Z","Is amazing to see how this project has been out since Dec 2020 and so far Liquidity Providers have earned about 6533.78 $ETH and that is the total value of $10.6 Million dollars. 💪  Also the APY doing 301.35% which is amazing.  #DeFi #UniSwap #BSC #SmartContract #Ethereum https://t.co/9a7rgyoMpE",2385,2
1375658492225150983,"2021-03-27T03:58:37Z","🏆 Follow us &amp; Retweet this tweet, Specify the ETH address in the tweet comment to get 10 #BIT ($10 worth) or 50 #BIT ($50 worth) #BitScores Airdrop Tokens! 🎁 $250,000 Prize Pool Full rules: https://t.co/N53M5nRXr9  #giveaway #airdrops #bounty #giveaways #defi #eth #btc #airdrop https://t.co/m77hDtRsBv",3577,2
1375658491033964548,"2021-03-27T03:58:37Z","@Safe_Childrens Good project #STC #ETH #DEFI #Airdrop",0,0
1375658486684524546,"2021-03-27T03:58:36Z","Today we are delighted to #announce to you all that #Raptoreum is now #listed on the great #Blockfolio.  Keep track of your #RTM stash on the best app their is!  https://t.co/EmLUeJsnba  #BlockchainGrowth #Privacy #NewListing #SmartContracts #AntiASIC #AntiFPGA #WeDidIt #BTC #ETH https://t.co/iFaRBOMkP9",77,0
1375658464903577607,"2021-03-27T03:58:31Z","NEW BID! ▁ ULTRAVIOLET ▔ currently at 0.2201 ETH 💎✨  Courtesy of @reidoNFT THANK U BRO!! so grateful once again for this. Artists I look up to bidding on my work this is CRAZYYY😫😫😫 https://t.co/QpTMug2baA https://t.co/VIc2GmEGB7",9,0
1375658464182108161,"2021-03-27T03:58:31Z","In the past two months, the open interest on #Ether $ETH options ⬆️by 50% to reach $3.1 billion, with #ETH price gaining 44% in that time period.   #Ethereum's price appreciation &amp; the rising options open interest has resulted in a historic $1.15 billion expiry set for Mar 26. https://t.co/Cqjnif2koF",56,0
1375658458385637378,"2021-03-27T03:58:29Z","Countdown begins for @VulcanForged utility token-launch 🔥Let's set the world on $PYR!🔥  JOIN US👇  👉https://t.co/9fzupeT8TJ 👉https://t.co/feyIqNmDbl  @vulcanverse @Berserk_Game @0xPolygon   #BlockchainGaming #metaverse #playtoearn   $PYR $MATIC $ENJ $ETH https://t.co/M55TZdw0A9",71,0
1375658456431099915,"2021-03-27T03:58:29Z","Welcome to massive Q DAO airdrop!   1. go now to telegram https://t.co/COyXgODY1z   2. Stay in telegram chat and wait announcement.  3. HOLD this gem until 10x   (soon - QDAO launch cross-chain for BSC, Polkadot and ETH)",4254,0
1375658456087212041,"2021-03-27T03:58:29Z","@cz_binance With 3 days left until the end of March, the big and good news of Bitcoin Gold #BTG will be released soon and this crypto currency  will become unattainable. #BTG #BTC #ETH #USDT #DOT #ADA #XRP #BNB #DOGE #TRX https://t.co/3XhnAhga8Z",0,0
1375658446100385795,"2021-03-27T03:58:26Z","New #digitalcurrencyalien #NFT pixel art available on https://t.co/zm1A0zl48c Limited to 1 mint each for 150+ artworks available using $ETH! RT for some free #Bitcoin !!  @coinkit_ com 50 1000 BTC #NFT",207,0
1375658434708729856,"2021-03-27T03:58:23Z","BUNNEH’s #NFT is a #MentalHealth initiative we created!  Please get involved!! All funds from #BUNNEHs #NFT are being used to fund Mental Health Therapy for a loved one! Contribute to a fantastic cause https://t.co/pDr0GrcdGn  All NFT starting 0.005 $ETH @coinkit_ mon 25 1000 BTC",171,0
1375658433974788101,"2021-03-27T03:58:23Z","Cat #389 just sold for 10.13 ETH (0X19) From: 0x9b2 To: 0x42f #Cryptocats #NFT #Ethereum The Lucky Cat team unites ! https://t.co/FqngsFty8u",19,5
1375658427322523648,"2021-03-27T03:58:22Z","🚀 Pluto Coin  Airdrop 🚀 Rate: ⭐⭐⭐⭐ ⭐ 🎁 Reward:  8822 PLUT ($1500) 👫 Referral: 40.5 PLUT  ($7)  🤖Start Bot here   https://t.co/x5JZchojO8  ⛂ Join Telegram group and channel. ⛂ Follow twitter &amp; retweet  ⛂ Submit ETH address and details.",6005,5
1375658425443479553,"2021-03-27T03:58:21Z","#DeFi #BKC #eth2 #BucksCake  ANNOUNCEMENT!  Dear BucksCake's community members!  The exact date of BKC listing on Uniswap set for 04/20/2021!  2 days before it, the exact opening time of the trading pair BKC/ETH on Uniswap...  More at https://t.co/RQPMhjazG2 https://t.co/VjtBbXBA1t",2855,5
1375658422004146180,"2021-03-27T03:58:20Z","🚀 Safe The Children  🔷 Token Symbol : STC  🔷 Contract: https://t.co/nk3qsF2PJV  🔷 Website: https://t.co/4y0g7dqswM  🔷 Whitepaper: https://t.co/PHPZI4dbyR  🔷 Presentation Video : https://t.co/Mycfov12IU  #Safe_Childrens #Bitcoin  #Binance #BinanceSmartChain #DEFI  #BTC #ETH",14722,5
1375658400198066179,"2021-03-27T03:58:15Z","🚀USDT-NFTs Trading Pair has been listed on Uniswap  🚀The contract address:  0x6599fc3e77cbfa6f6e9cac605a30b1e78827eba0  🌸Like、Retweet &amp; Tag 3 friends  🚀Select another 10 addresses to airdrop 1,000,000 NFTs, leave your wallet #ETH address！  #NFTs #NFT #UNISWAP #DEFI #AIRDROP https://t.co/m2ME6WNxXf",877,5
1375658395848601603,"2021-03-27T03:58:14Z","RT @CashNCrypto: $150 to one person in 48hrs  Rt &amp; follow me + @domscrypto &amp; @boar_eth",2067,5
1375658392195371012,"2021-03-27T03:58:13Z","Please Retweet if you find value in my content!  12000% Profit #Altcoin Picks! Next #altcoins to pump extreme! Explosive #altcoin season soon! Opportunity of a lifetime coming soon! $ETH $FET $WTC $BTT  https://t.co/ze4nUxbk47",156,5
1375658389523419138,"2021-03-27T03:58:13Z","🚀 Safe The Children  🔷 Token Symbol : STC  🔷 Contract: https://t.co/nk3qsF2PJV  🔷 Website: https://t.co/4y0g7dqswM  🔷 Whitepaper: https://t.co/PHPZI4dbyR  🔷 Presentation Video : https://t.co/Mycfov12IU  #Safe_Childrens #Bitcoin  #Binance #BinanceSmartChain #DEFI  #BTC #ETH",14722,5
1375658389074636806,"2021-03-27T03:58:13Z","This tweet is for sale on: https://t.co/L6E5b4vr1p @cent               $1,000,000 USD of dirty Fiat...                            🔥it.  #NFT #NFTART #Crypto  #NFTCommunity #nftcollectors #ETH #Bitcoin #booty4NFT  #NSFW #NFTarts #NFTs #NFTartist",1,0
1375658346032754689,"2021-03-27T03:58:02Z","@Safe_Childrens Nice project  @Himansh08921913 @Fantasymaster8   #STC #ETH  #DeFi #Airdrops",0,0
1375658334934552578,"2021-03-27T03:58:00Z","BUNNEH’s #NFT is a #MentalHealth initiative we created!  Please get involved!! All funds from #BUNNEHs #NFT are being used to fund Mental Health Therapy for a loved one! Contribute to a fantastic cause https://t.co/pDr0GrcdGn  All NFT starting 0.005 $ETH @coinkit_ mon 25 1000 BTC",171,0
1375658324553723910,"2021-03-27T03:57:57Z","GIVEAWAY TIME! in one week I will choose one winner to get one copy of The Bleeding Heart is Disconnected To ENTER  LIKE-FOLLOW-RETWEET-COMMENT ETH ADDY! Good luck! MUST DO ALL TO BE ENTERED.  Art Below  #nft #nfts #nftart #nftcommunity #nfthype #nftcollector #nftcollectors https://t.co/rgJEeiuZHV",184,0
1375658322095931393,"2021-03-27T03:57:57Z","@elonmusk With 3 days left until the end of March, the big and good news of Bitcoin Gold #BTG will be released soon and this crypto currency  will become unattainable. #BTG #BTC #ETH #USDT #DOT #ADA #XRP #BNB #DOGE #TRX https://t.co/zyVPEzFrrZ",1,0
1375658314818805764,"2021-03-27T03:57:55Z","Everyone remember that you can place limit orders for HEX at https://t.co/angIz1gFz2  or https://t.co/bcblZAmgZJ (convert you ETH to WETH first.) This system also works market orders spreading across different liquidity pools.",184,0
1375658281436389378,"2021-03-27T03:57:47Z","Aircoins (AIRx) now available on #CoinMarketCap  https://t.co/yq9NxjFWiS  To celebrate we are giving away $200 in #ETH and $200 In #BNB   To enter contest tag #BSC and #CMC   Two lucky winners will be selected March 28th 9am EST. #AIRx is both on #BSC &amp; #ETH networks!🎉🥳📸📱🥂💥 https://t.co/k1ytohl9Fa",479,0
1375658279049834505,"2021-03-27T03:57:46Z","#BTC Price: $54766 #ETH Price: $1698 #LTC Price: $182  Next update in 10 minutes Last updated: 23:57:46.06",0,0
1375658259294650370,"2021-03-27T03:57:42Z","@elonmusk With 3 days left until the end of March, the big and good news of Bitcoin Gold #BTG will be released soon and this crypto currency  will become unattainable. #BTG #BTC #ETH #USDT #DOT #ADA #XRP #BNB #DOGE #TRX https://t.co/32VuAvrAP0",0,0
1375658244467695616,"2021-03-27T03:57:38Z","Thanks everyone for all the #NFT I was not expecting so many talented artists, unfortunately I can’t buy everything. That’s why I charged my wallet with more ETH  1️⃣Follow Me 2️⃣Retweet  I’m ready to expand my collection #nftcollector   I’ll also like and RT some I like!",135,0
1375658244052422657,"2021-03-27T03:57:38Z","New #digitalcurrencyalien #NFT pixel art available on https://t.co/zm1A0zl48c Limited to 1 mint each for 150+ artworks available using $ETH! RT for some free #Bitcoin !!  @coinkit_ com 50 1000 BTC #NFT",207,0
1375658236813189127,"2021-03-27T03:57:36Z","My favorite food and crypto are: https://t.co/Ixs6sF8vuI #WeekendWithLATOKEN #LatokenApp #Bitcoin  A moeda ETH https://t.co/27763QmVmW",0,0
1375658228223143936,"2021-03-27T03:57:34Z","Please Retweet if you find value in my content!  12000% Profit #Altcoin Picks! Next #altcoins to pump extreme! Explosive #altcoin season soon! Opportunity of a lifetime coming soon! $ETH $FET $WTC $BTT  https://t.co/ze4nUxbk47",156,0
1375658222544171011,"2021-03-27T03:57:33Z","Thanks everyone for all the #NFT I was not expecting so many talented artists, unfortunately I can’t buy everything. That’s why I charged my wallet with more ETH  1️⃣Follow Me 2️⃣Retweet  I’m ready to expand my collection #nftcollector   I’ll also like and RT some I like!",135,0
1375658207742410753,"2021-03-27T03:57:29Z","@elonmusk With 3 days left until the end of March, the big and good news of Bitcoin Gold #BTG will be released soon and this crypto currency  will become unattainable. #BTG #BTC #ETH #USDT #DOT #ADA #XRP #BNB #DOGE #TRX https://t.co/ELwXPgNTw5",0,0
1375658200649764864,"2021-03-27T03:57:28Z","STC one of the respective thought is for Unprivileged Children in the world. STC 20% of total profit goes to STC special fund for Safe the Children forum. #STC $STC #ETH #DEFI #DONATION",2306,0
1375658197684420610,"2021-03-27T03:57:27Z","@Safe_Childrens hopefully this project is a success, sir, and then it becomes one of the best cryptos, I am enthusiastic about participating in this and also supporting it,Good luck sir. #STC $STC #ETH #DEFI #DONATION",0,0
1375658190583500800,"2021-03-27T03:57:25Z","🚀 Safe The Children  🔷 Token Symbol : STC  🔷 Contract: https://t.co/nk3qsF2PJV  🔷 Website: https://t.co/4y0g7dqswM  🔷 Whitepaper: https://t.co/PHPZI4dbyR  🔷 Presentation Video : https://t.co/Mycfov12IU  #Safe_Childrens #Bitcoin  #Binance #BinanceSmartChain #DEFI  #BTC #ETH",14722,0
1375658189488726017,"2021-03-27T03:57:25Z","🚀 Safe The Children  🔷 Token Symbol : STC  🔷 Contract: https://t.co/nk3qsF2PJV  🔷 Website: https://t.co/4y0g7dqswM  🔷 Whitepaper: https://t.co/PHPZI4dbyR  🔷 Presentation Video : https://t.co/Mycfov12IU  #Safe_Childrens #Bitcoin  #Binance #BinanceSmartChain #DEFI  #BTC #ETH",14722,0
1375658175718850568,"2021-03-27T03:57:22Z","📣Haze Finance #Giveaway📣  👉🏻We will be giving away 20 $HAZE(~$115 USD) to one lucky winner!👈🏻  ⏰Starting time: March 24th 7:15 pm EST ⏰Ending time:  March 28th 7:15 pm EST   #airdrop #prize $bnb $eth $btc #bsc #binance #defi #BinanceSmartChain #YieldFarming https://t.co/mE7CHtrFf9",28,0
1375658173139275777,"2021-03-27T03:57:21Z","This time on Nio compares...  $Moon vs $Uni, $Sushi &amp; $Cake  $Moon is a largely undervalued currently!  #Conflux $CFX $FC $FLUX $FIGGY $cITF #NFT #Ethereum $ETH #Layer2 #BSC #L2 https://t.co/CaihJUS6CH",19,0
1375658165329653763,"2021-03-27T03:57:19Z","14/25🔥 0.05 eth  SkullBoy *0x_z Connected👽 https://t.co/SKOlnMxUHI?   #rarible #ethereum #nonfungible #digitalasset #nft prin @rariblecom https://t.co/VbdTTU1Hnh",20,0
1375658162905178112,"2021-03-27T03:57:19Z","@Safe_Childrens join airdrop now @mamah4791  @vexanatoxic1  @medeng4791  @bimbi4791  @lola4791  @atek4791  @alianz47  @alexnz47  #STC #ETH #DEFI #Airdrops",0,0
1375658156047572997,"2021-03-27T03:57:17Z","Great project.verry happy join to this airdrop #STC #ETH #DEFI #Airdrops #Airdrop https://t.co/xFMB8TpCJG",0,0
1375658137680805894,"2021-03-27T03:57:13Z","And shall put My Ruach in you, and ye SHALL LIVE, and I SHALL PLACE you in YOUR OWN LAND;  then shall ye know that I Hashem have SPOKEN ETH, and PERFORMED ETH, saith HASHEM. Yechezkel 37:14  Everyone trying to Run b4 Walking in Holy Spirit 9.13  13Love 13Ahava 13Echad 13Y'hShem",44,0
1375658137160724485,"2021-03-27T03:57:13Z","🎉Earn $12 $BRG🚀  💸💸Legit Airdrop💰💰  Join: https://t.co/XFCmFJdWQ9   Complete All Steps Done. At final step, it'll ask to buy tokens. Don't buy, Just click bought/done  #Bitcoin #BTC #Doge #TRX #ETH _____  @rocketbotpro airdrop 0.5 merge 50  #CTBot Adrop Avg 100 TATM 90",45,0
1375658133343862784,"2021-03-27T03:57:12Z","@NetboxGlobal  NBX Is operated on which network.... BSC or ETH?",0,0
1375658132995768324,"2021-03-27T03:57:12Z","@JRNYcrypto Etherium 2.0 on Coinbase ? Wtf is that ?",0,0
1375658131741679616,"2021-03-27T03:57:11Z","My Crypto Strategy on ICONOMI just outperformed BTC. Check it out here: https://t.co/2Gze94L9u3 #bitcoinmining #eth #btc #cryptocurrency https://t.co/cs3tK6HsOL",0,0
1375658128872734721,"2021-03-27T03:57:11Z","My Crypto Strategy on ICONOMI just outperformed BTC. Check it out here: https://t.co/B2bX76KmuU #forextrader #investment #eth #ethereum https://t.co/1qkwIhIdSX",0,0
1375658128038068224,"2021-03-27T03:57:10Z","@unwashedcitizen @ledgerstatus @matchaxyz @Uniswap Naw, fuck $ETH. I prefer speed + low fees over congestion failed transactions and $75 gas fees.",3,0
1375658112284205060,"2021-03-27T03:57:07Z","RT @QuintenFrancois: This is why $ETH is here to stay... https://t.co/USHKA6o26A",2745,0
1375658106844184577,"2021-03-27T03:57:05Z","New Airdrop: Diamond Crystal (DCT) Reward: 100 DCT ($100) Rate: ⭐️⭐️⭐️⭐️ Focus: Distribution starts after airdrop ends   Bot Airdrop Link: https://t.co/9Qzk47HUKt  #Airdrop #giveaway #BTC #ETH",4033,0
1375658091341967360,"2021-03-27T03:57:02Z","The DEX @FinanceChainge is set to launch on the @FUSIONProtocol network with over a million users on the protocols waitlist. This decentralized exchange aims to innovate on traditional models through leveraging the Fusion Network.  #BSC #BTC #ETH #BNB  https://t.co/xx55YiGfm3",21660,0
1375658087374155778,"2021-03-27T03:57:01Z","@Safe_Childrens Awesome project $STC and have nice airdrop great hopefully succes on future 🚀🚀🚀🚀🚀 @Anggit_Dp  @Dewilovely18  @Orchids188  @PhoenixMembara7  @mr_jutexs   #STC #ETH #DEFI #Airdrops",0,0
1375658080130637830,"2021-03-27T03:56:59Z","No need to spend your own money to trade #cryptocurrency. Over 10K users won crypto rewards on @latokens last week. It's the best way to join the financial revolution. Start by earning a share of $100K in CLIQ airdrop: https://t.co/mHNXA7glXa #Bitcoin #ETH #Citi #AON #LATOKEN",0,0
1375658064229986308,"2021-03-27T03:56:55Z","join airdrop now @mamah4791  @vexanatoxic1  @medeng4791  @bimbi4791  @lola4791  @atek4791  @alianz47  @alexnz47  #STC #ETH #DEFI #Airdrops https://t.co/uBLxTaGFkX",0,0
1375658053870100483,"2021-03-27T03:56:53Z","🚀 Safe The Children  🔷 Token Symbol : STC  🔷 Contract: https://t.co/nk3qsF2PJV  🔷 Website: https://t.co/4y0g7dqswM  🔷 Whitepaper: https://t.co/PHPZI4dbyR  🔷 Presentation Video : https://t.co/Mycfov12IU  #Safe_Childrens #Bitcoin  #Binance #BinanceSmartChain #DEFI  #BTC #ETH",14722,0
1375658051634556929,"2021-03-27T03:56:52Z","New #digitalcurrencyalien #NFT pixel art available on https://t.co/zm1A0zl48c Limited to 1 mint each for 150+ artworks available using $ETH! RT for some free #Bitcoin !!  @coinkit_ com 50 1000 BTC #NFT",207,0
1375658047901605895,"2021-03-27T03:56:51Z","@QuintenFrancois 1. $ETH  2. $BTC 3. $EGLD 4. $LINK 5. $ACS 6. $SXP 7. $SUPER",0,0
1375658042721673223,"2021-03-27T03:56:50Z","Thanks to everyone who has already entered. #NFTGiveaway TIME!  1. LIKE &amp; FOLLOW 👍🏽  2. Share 😆  3. Comment with your $ETH address  You need to follow to be accepted! Feel free to enter again if you already have for a second chance! #blokcraft  https://t.co/FNlzXsmd2Y https://t.co/Q49aWs7cLY",103,0
1375658041891201026,"2021-03-27T03:56:50Z","Friday is now Rabble Day and number 8 by @XCOPYART is up for auction, reserve of just 5 ETH has been met by @benroy__ and this auction will be only be open for two days ... https://t.co/TWGsgjTbMv",21,0
1375658041396330502,"2021-03-27T03:56:50Z","@PiCoreTeam Missed out on #BitCoin? Don't miss out on this You can ⛏ with your 📱  Download the apps: https://t.co/BP4SbZSSXY 🐝 https://t.co/LLQL02Ue8g π use code: nitz69 &amp; start earning💰  #Pi #Bee #BTC #ETH #BNB #crypto #cryptocurrency #blockchain #altcoins #digitalasset #digitalcurrency",0,0
1375658040901308418,"2021-03-27T03:56:50Z","BUNNEH’s #NFT is a #MentalHealth initiative we created!  Please get involved!! All funds from #BUNNEHs #NFT are being used to fund Mental Health Therapy for a loved one! Contribute to a fantastic cause https://t.co/pDr0GrcdGn  All NFT starting 0.005 $ETH @coinkit_ mon 25 1000 BTC",171,0
