"ID","created_at","text","like_count","rt_count"
1377425463925071875,"2021-04-01T00:59:56Z","@NagatoDharma Indeed! I have always thought that the many rug pulls last summer was only to get enough 32 Eth for validating eth 2.0",1,0
1377425434673958916,"2021-04-01T00:59:49Z","Simple analysis:   $XRP market cap $26 billion  ETH market cap $223 billion  $XRP market cap grows up to ONLY HALF of current ETH market cap  That will be $26 billion x 4.3 = $112 billion #XRP market cap  #XRP price $0.57 x 4.3 = $2.45   * I’m being SUPER conservative 😉",6,0
1377425420157521922,"2021-04-01T00:59:46Z","It's safe to assume #cryptotwitter is not sleeping any time soon 💸  https://t.co/NTfc8yVmSd https://t.co/lwrF5JCfyp",58,6
1377425415493455874,"2021-04-01T00:59:45Z","Beginning April 1st at 00:00 UTC — in 24 hours — we will be giving away $100 a day until we launch our presale on #bsc.   Rules are simple: Follow us and #Retweet any of our tweets from that day. We will choose one winner each day and send them $100 in $ETH. Good luck! https://t.co/XwxcRi05c1",381,463
1377425413933178882,"2021-04-01T00:59:44Z","RT @MoneyNostra: Shill me your favorite DeFi project💎 👇👇👇👇👇👇👇👇👇👇👇  @cctip_com airdrop 0.01 ETH 99999 #DeFi",193,138
1377425413685747717,"2021-04-01T00:59:44Z","We love @superbid_io don't you! To prove it we're sharing 1/2 of the 10 ETH prize with ONE lucky person if we win!   ENTER: https://t.co/BvihIDYyyo  #Superbid is the first social-action app built on #ETH. ~ https://t.co/JrS8Kt08KI  #airdrop #contest #ethairdrop #giveaway #uniswap https://t.co/ocJmUFbBdp",503,1314
1377425408128258048,"2021-04-01T00:59:43Z","#bitcoin THE DUMP IS NOT OVER 🚨🚨🚨  HUGE CRASH IN 30mins-2hrs   DONT FALL FOR ANY TRAPS  Signals: https://t.co/A8nrhLWVD2  #btc $btc $ada #cardano $eth #Ethereum #tron $trx #trx #bnb #bsc $bnb $bsc $alice $stmx $btt #btt $chz https://t.co/oR3pxzG9Bc",4,0
1377425390835101696,"2021-04-01T00:59:39Z","@haydenzadams I think there’s an argument that it’ll get minimized down to just enough to provide security (like eth) to the oracle feeds. But with so many varying use cases and types of data, there’s a future where oracles extract majority of the value of the underlying dapps and blockchain",5,0
1377425386057924612,"2021-04-01T00:59:38Z","Shorting $ETH and $BTC",3,0
1377425383033688064,"2021-04-01T00:59:37Z","If $BTC ponzi scam could dump and $ETH could keep going up, that would be pretty nice  Ethereum is def the most useful of all right now",0,0
1377425377237209088,"2021-04-01T00:59:35Z","$ETH my only green number today gotta be patient",1,0
1377425371725881345,"2021-04-01T00:59:34Z","@josefajardo Have a hard time moving into alts. I feel like I will miss out a big move somewhere else. I already have &gt; 1btc worth in alts but they are mostly not moving (ltc, eth, doge, xlm, dash, ) and small amounts in omg, tfuel, theta, etc. With my luck once I move out f ltc it will go up",0,0
1377425361403736066,"2021-04-01T00:59:32Z","Crypto fees (avg) &amp; stats for the past 24 hours: -&gt; #Bitcoin: $18.08/tx paid in fees -&gt; #Ethereum: $24.37/tx paid in fees -&gt; #Litecoin: $0.032/tx paid in fees -&gt; #Nano: $0.00/tx paid in fees $BTC $ETH $LTC $NANO https://t.co/sCzRZOK4Np",12,2
1377425331498450944,"2021-04-01T00:59:25Z","https://t.co/JhMTlEkarz: KAWABANGA KABOOOOOOMER!!!  ETH, ETHUP, ETHBULL Trades are Filled &amp; PROFITABLE!!!  Come trade right next to me as a Gold Member!! https://t.co/pT7b085qrt https://t.co/mi56CzRKn7",11,2
1377425326452568065,"2021-04-01T00:59:23Z","We love @superbid_io don't you! To prove it we're sharing 1/2 of the 10 ETH prize with ONE lucky person if we win!   ENTER: https://t.co/BvihIDYyyo  #Superbid is the first social-action app built on #ETH. ~ https://t.co/JrS8Kt08KI  #airdrop #contest #ethairdrop #giveaway #uniswap https://t.co/ocJmUFbBdp",503,1314
1377425316352716810,"2021-04-01T00:59:21Z","@_Link_Adam i am trying to get some ETH to my MM but i need a few more days for it to process.. i don’t think we will be here in a few days..aaahhhhh",2,0
1377425305116188672,"2021-04-01T00:59:18Z","@EvaNicolette Fuck Eth.   That is all.",1,0
1377425298908647424,"2021-04-01T00:59:17Z","RT @intocryptoverse: What if $ETH goes to $2k tho?",1256,52
1377425290608078849,"2021-04-01T00:59:15Z","@chris_haroun This course cost me 10 bucks and has made me thousands! Thanks Chris. Below is what my initial investment could have been by now if I had fully followed Chris' formula. I invested 5 000 in June 2020 after the course in Eth, Ada and other coins. https://t.co/zWkH1LE1sc",1,0
1377425288053714947,"2021-04-01T00:59:14Z","RT @QuintenFrancois: $ETH to $2500 in April or I'm giving away 0.3 $ETH to someone who retweets this.",4150,6184
1377425280663359492,"2021-04-01T00:59:12Z","RT @EvaNicolette: Wow $ETH I have loved you, but now I’m going to leave you  Those $GAS fees are f$&amp;ked https://t.co/68OXYqRWxK",5,1
1377425279958708226,"2021-04-01T00:59:12Z","I got my eyes on a new project launching soon. Presale is live  $EARN$ is a revolutionary deflationary redistribution protocol.  Max contribution of 10 ETH. HARDCAP 110 ETH  I’m in. Trusted dev with a proven track record. Join the TG if you’re interested  https://t.co/shNuIPT3qZ",9,5
1377425278054453249,"2021-04-01T00:59:12Z","Eth projected to $2500 for now https://t.co/oekVSa2PGn",0,0
1377425276246786055,"2021-04-01T00:59:11Z","We love @superbid_io don't you! To prove it we're sharing 1/2 of the 10 ETH prize with ONE lucky person if we win!   ENTER: https://t.co/BvihIDYyyo  #Superbid is the first social-action app built on #ETH. ~ https://t.co/JrS8Kt08KI  #airdrop #contest #ethairdrop #giveaway #uniswap https://t.co/ocJmUFbBdp",503,1314
1377425266713096194,"2021-04-01T00:59:09Z","RT @QuintenFrancois: $ETH to $2500 in April or I'm giving away 0.3 $ETH to someone who retweets this.",4150,6184
1377425263617708034,"2021-04-01T00:59:08Z","We love @superbid_io don't you! To prove it we're sharing 1/2 of the 10 ETH prize with ONE lucky person if we win!   ENTER: https://t.co/BvihIDYyyo  #Superbid is the first social-action app built on #ETH. ~ https://t.co/JrS8Kt08KI  #airdrop #contest #ethairdrop #giveaway #uniswap https://t.co/ocJmUFbBdp",503,1314
1377425260832694275,"2021-04-01T00:59:08Z","Join the @Holdefi community! Learn more about $HLD Token!  #HLD #Holdefi #ETH #BSC #IDO #ICO 👇👇 https://t.co/Jp3bflgNzp",0,0
1377425259280752640,"2021-04-01T00:59:07Z","Time for WitLink Token #Airdrop!  ✔️ Start the Airdrop bot: https://t.co/8HDV9cCJse  Complete the tasks to earn  Get 10 WAI ($2.5) + Get 4 WAI ($1) For Each Valid Refer   #ETH #BTC #WAI #LINK #Airdrops",1478,1424
1377425257745821697,"2021-04-01T00:59:07Z","#Nessie #236 has emerged from the depths of Loch Ness and is now minted on the #ETH blockchain via @opensea  PRICE: Ξ0.085  https://t.co/DHaIat8fJv  #Nessies #NFT #NFTs #NFTCommunity #Crypto #ETH #CryptoPunks #DigitalArt https://t.co/2sBEDkVgov",25,6
1377425253215789060,"2021-04-01T00:59:06Z","Competition of Skill or Luck  Whoever owns the longest generational count on a 17*17 grid, before it reaches a loop or static state will be announced as the winner on the 3rd April  Winning BIO #NFT's owner address will be sent 1 $ETH  Visit the Design Lab https://t.co/lYXQLgdZWr",5,2
1377425250707632129,"2021-04-01T00:59:05Z","Join the @Holdefi community! Learn more about $HLD Token!  #HLD #Holdefi #ETH #BSC #IDO #ICO 👇👇 https://t.co/40q5g2mpZR",0,0
1377425229631356929,"2021-04-01T00:59:00Z","Na Sang-Ho bought for 0.22 ETH (420.96$) by SmartFC on the primary market   Season: 2021-2022 Level: 0 Serial: 2/100 Price: 420.96$  ⚽ Sorare: https://t.co/qiPRJoynl8  📊: https://t.co/Ki8N6X6VGY  #Sorare #NFT #Ethereum #FantasyFootball",0,0
1377425223486631937,"2021-04-01T00:58:59Z","Sologenic DEX is decentralized It's available anywhere to anyone with internet access. Yes you can buy Solo, #XRP, in USA and Canada or anywhere in the world via the DEX 😉👌 including #BTC #ETH, USD, EUR, https://t.co/aO8LCudXE1",169,43
1377425221427240962,"2021-04-01T00:58:58Z","@orion_protocol @orion_protocol. Can you please explain how to deposit binance smart chain tokens to metamask? Do we use same address as eth metamask? This is confusing, and I am pretty sure there are lot of people like me. I think connecting to binance chain wallet plugin would be way easier.",0,0
1377425212359245827,"2021-04-01T00:58:56Z","Slow 140 | Normal 153 | Fast 164 | Instant 185 👈 current Ethereum gas prices in gwei. DM me a price and I will DM you as soon as gas drops below that price 👍 #Ethereum #GasPrice #ETHGasPrice #ETH",0,0
1377425210178084871,"2021-04-01T00:58:56Z","RT @akarlin88: Curious fact - even leaving $ETH aside, a good half of my current crypto hodls were made by Russians - $LINK, $PRQ, $RBC.",9,1
1377425207682555904,"2021-04-01T00:58:55Z","Here we go $ETH!",0,0
1377425207288197124,"2021-04-01T00:58:55Z","Kim Ji-Hyun bought for 0.387 ETH (740.51$) by Gr3c0 on the primary market   Season: 2021-2022 Level: 0 Serial: 1/10 Price: 740.51$  ⚽ Sorare: https://t.co/xT64ikYbtK  📊: https://t.co/bZGBASiGcC  #Sorare #NFT #Ethereum #FantasyFootball",0,0
1377425202632478721,"2021-04-01T00:58:54Z","$ETH 5K buy now 🙃 https://t.co/JjUr7SxjYg",0,0
1377425197448404992,"2021-04-01T00:58:53Z","Hello #NFTCommunity Senpais, contest time! With $Senpai launched we're giving away a Silver Edition of Shi Shi!   Like, Follow, RT!  Be sure to comment your ETH address!  UNISWAP : https://t.co/yrLUNrpzUM  https://t.co/ipCTR5ZicD  Whitepaper : https://t.co/T3UGzz8krr  #NFT #NFTs",125,103
1377425194755719175,"2021-04-01T00:58:52Z","Got 5 Foundation invites to giveaway! 🔥@withFND  Follow me Retweet this Reply with your work down below. I'll announce winners tomorrow at 9 (GMT+2) Bonus points if u are a collector #nft #nftart #nftartist #eth #FoundationInvite  #cryptoart #cryptoartist  #crypto #nftcommunity https://t.co/Ct155VtRNb",86,66
1377425189651279875,"2021-04-01T00:58:51Z","🎁🎁  AIRDROP  Starts Soon 🎁🎁   We are giving 10,000 users 10,000   YearnCasino -YRNC-    Join the IEO  and grab it while it's still cheap https://t.co/sigigs6qZE   To Join the Airdrop   ✅ Retweet  ✅ Retweet Pinned Tweet  ✅ Follow us ✅ common wallet address  #Airdrop #eth https://t.co/LE1TgGDmxp",137,942
1377425187507953665,"2021-04-01T00:58:50Z","@kaniehtiio @MOHAWKEMOTIONS There is no reason whatsoever for us to be'eth restraint under the boot of our illegal unconstitutional foreign-imposed colonial oppressors. Even #SublimisDeus gives us full rights to extirpate their elites. Moreover we already gathered enough mutineers, overhauled our trad laws.",1,1
1377425178792108035,"2021-04-01T00:58:48Z","I swap $usdtz back to $XTZ for $0.05 to test it all out. If you been using #uniswap then the UX/UI ain't no different. $BTC $ETH #DeFi #NFT on #Tezos https://t.co/6XVCZejJKc",3,0
1377425172102189061,"2021-04-01T00:58:47Z","LMFAO he is talking about eth being THE NEXT TRILLION DOLLAR COIN THAT JUST MIGHT SURPASS BITCOIN   IM DED https://t.co/vinxgaRZIO",1,0
1377425171427028995,"2021-04-01T00:58:46Z","These ETH fees piss me off as much as it pisses you off, so I decided to quickly work out our own LTC Deposit System on @skinbetgg !  To celebrate this, we are offering a 10% Bonus on LTC Deposits instead of the Standard 5%!  Let us know if there are any issues with it, thanks! https://t.co/a0vGKG7X3t",26,8
1377425165957488641,"2021-04-01T00:58:45Z","🚘 $1.2 Million &amp; Tesla Giveaway ‼️  $BASE Protocol &amp; @Tesla have pooled over $1.2M USD for a 24h Giveaway MARATHON.  32 $ETH Airdropped every hour for the next 24 hours‼️  ⭐️ The final draw: ONE WALLET WIN A #TESLA CYBERTRUCK 🛻🚀  👉 Comment Ethereum address, Follow &amp; RT! https://t.co/n1tHCrucKk",169,176
1377425152770600960,"2021-04-01T00:58:42Z","https://t.co/8DOCSWNNda Want another easy way to make free Crypto or paypal money? Click the link and be a part of my team. Super easy sign up. #BTC #Bitcoin #ETH #Ethereum #ada #Litecoin",0,0
1377425141055954945,"2021-04-01T00:58:39Z","RT @MoneyNostra: Lets get $ETH to $5000!!!  SMASH🚀THE🚀LIKE 👍",130,18
1377425132889669635,"2021-04-01T00:58:37Z","RT @KoroushAK: One of these days $ETH is going to surge past $2000.  In retrospect, it will look like it was inevitable.",966,70
1377425128447909890,"2021-04-01T00:58:36Z","📢Congrats！First launch on Uniswap！ 🚀USDT-NFTs trading pair is live！ 🚀The contract address:  0x6599fc3e77cbfa6f6e9cac605a30b1e78827eba0  💰Hold more NFTs, be richer！  🌸Like、Retweet &amp; Tag 3 friends  🚀Select 10 addresses to airdrop 1,000,000 NFTs, leave wallet #ETH address https://t.co/Slor4FBQzP",2960,2441
1377425128208797702,"2021-04-01T00:58:36Z","Trying to move some of these NFTs as well for anyone interested &lt;3 you can pay in CC instead of $ETH !   https://t.co/4LUvkDTY79 https://t.co/v2gAuVnpfL",7,1
1377425112736137216,"2021-04-01T00:58:32Z","LarryLovestein was created for 100 $MANA ($101.00 USD = 0.0524 $ETH) by https://t.co/X1S37Y4gC0 https://t.co/GneZ9xskqn #decentraland #names #avatar https://t.co/Wa37UVRhlY",4,2
1377425101663006721,"2021-04-01T00:58:30Z","This Sunday, 4/4/2021.  The Legendary @nunocor_ will be representing @UTRUST in an AMA interview hosted by @Tradermayne. Stay tuned for more details.  👀Nuno may potentially unveil new utility for $UTK 🔥    💜Be there or be square.💜  #BTC #ETH #Crypto #Utrust #UTKarmy #Mayne https://t.co/jBKvJkaRBs",20,4
1377425092276199429,"2021-04-01T00:58:27Z","💧Fly Amanita Airdrop 💧  🏆 Task:          ➕ $5 worth of FLY  👨‍👩‍👧 Referral:   ➕ $0.5 worth of FLY  🔛Airdrop Link &amp; Information: https://t.co/Teh5tZDNPE  #cryptocurrency #Crypto #Bitcoin #Ethereum #ETH #Airdrop #bounty #FlyAmanita #FLY",1470,1810
1377425090971795456,"2021-04-01T00:58:27Z","We love @superbid_io don't you! To prove it we're sharing 1/2 of the 10 ETH prize with ONE lucky person if we win!   ENTER: https://t.co/BvihIDYyyo  #Superbid is the first social-action app built on #ETH. ~ https://t.co/JrS8Kt08KI  #airdrop #contest #ethairdrop #giveaway #uniswap https://t.co/ocJmUFbBdp",503,1314
1377425073301164035,"2021-04-01T00:58:23Z","Massive L habibi i sold all my eth at 200 usd last year and crypto is just going higher and higher",0,0
1377425047745220609,"2021-04-01T00:58:17Z","Think you're a great cryptocurrency trader? You can find more information on Bybit's 7 day trading challenge, with 400k USD prize pool, here:  https://t.co/Sc41e28ZFB  #Bitcoin #Ethereum  $BTC $ETH $RUNE $ADA $HBAR $UNI $KIN $ZRX  @coinkit_ mon 0.2 175 $TRX https://t.co/N5lyheKa3G https://t.co/vNr2b1XFN6",36,144
1377425044838621186,"2021-04-01T00:58:16Z","@kaniehtiio @MOHAWKEMOTIONS There is no reason whatsoever for us to be'eth restraint under the boot of our illegal unconstitutional foreign-imposed colonial oppressors. Even #SublimisDeus gives us full rights to extirpate their elites. Moreover we already gathered enough mutineers, overhauled our trad laws.",1,1
1377425039927042049,"2021-04-01T00:58:15Z","$RAMP is coming with V2. Who wants to generate a second income stream with #rUSD while staking your assets? #rampdefi #defi #BTC #ramp #inrampwetrust #yield #bsc #eth #crosschain",22,16
1377425031404290049,"2021-04-01T00:58:13Z","RT @Quanntzz: Up it goes! Criminally underpriced at only 0.5 eth - deserves a bidding war! https://t.co/MjRbUl1cXE",2,1
1377425026455011328,"2021-04-01T00:58:12Z","RT @cz_binance: Alright, I have one more tweet people may not like as much, or like a lot. 👇  #BSC comes from #ETH and ...  😂",2045,308
1377425023640731661,"2021-04-01T00:58:11Z","@icejaysefish ty mr yusuf for eth omg 2damoon🚀",0,0
1377425020486512643,"2021-04-01T00:58:10Z","March... GameStop $GME: +87% Ethereum $ETH: +34% Bitcoin $BTC: +30% AMC $AMC: +27% Dow $DIA: +7% S&amp;P 500 $SPY: +4.5% Nasdaq 100: +1.7% Gold $GLD: -1% Bonds $AGG: -1% 20+ Treasuries $TLT: -5% ARK Innovation $ARKK: -8% SPACs $SPAK: -12% ViacomCBS $VIAC: -30% Volatility $VIX: -31%",1363,286
1377425012089622530,"2021-04-01T00:58:08Z","@buzzcoins_ Nice project... ETH address : 0x0D8199b533b2E5694aa69C435b7507cD3DCca4c1  #Bsv #Trx #Chz #Fil #Xtz #Algo #Neo #Hbar #Ht #Dai",0,0
1377425006615875588,"2021-04-01T00:58:07Z","@mavroses ETH GAS FEES LEADING ETH YES 🚀",1,0
1377425002077642756,"2021-04-01T00:58:06Z","We love @superbid_io don't you! To prove it we're sharing 1/2 of the 10 ETH prize with ONE lucky person if we win!   ENTER: https://t.co/BvihIDYyyo  #Superbid is the first social-action app built on #ETH. ~ https://t.co/JrS8Kt08KI  #airdrop #contest #ethairdrop #giveaway #uniswap https://t.co/ocJmUFbBdp",503,1314
1377424994947448836,"2021-04-01T00:58:04Z","RT @davidgokhshtein: i'm happy because $ETH went crazy today. let's keep the same energy boys and girls.",229,21
1377424970960175105,"2021-04-01T00:57:59Z","#DeFi #BKC #eth2 #BucksCake  ANNOUNCEMENT!  Dear BucksCake's community members!  The exact date of BKC listing on Uniswap set for 04/20/2021!  2 days before it, the exact opening time of the trading pair BKC/ETH on Uniswap...  More at https://t.co/RQPMhjazG2 https://t.co/VjtBbXBA1t",2829,2635
1377424970087825409,"2021-04-01T00:57:58Z","Taking $eth profits as it goes up. If it dumps im buying the dip. The FUD doesn't scare me, Ethereum is 1000x more solid than Cardano. 10k here we come",0,0
1377424968493924355,"2021-04-01T00:57:58Z","@3xtokenexchange Good job,good projeck @DedeNunung6 @WickedRose83 @Tina1Queen @KumalasariEndah @Refierlangga @AjaibSarung @laloutreairdrop @BtcStorm @kavo_chivo @HelyananMamusu   Eth wallet: 0x0949788B922C6Bf1DEd6709B7932CDe671E16138",0,0
1377424959148937218,"2021-04-01T00:57:56Z","🥳200$ #giveaway paid in $BNB 🎁4 winners ( 50$ each )  ✅RT, Like and Tag 3 friends ✅Join discord: https://t.co/35loidugH9 ✅Verify at discord, post proof here  ⏳Ends in 4 days!  #bitcoin $BTC $ETH $DOT $ADA $SPI $GSPI @300Token https://t.co/FaTN8bD15F",1097,899
1377424951850885120,"2021-04-01T00:57:54Z","@girlgone_crypto ETH 2K",0,0
1377424949472792578,"2021-04-01T00:57:53Z","$Kin watch this crypto!  It's already above 2021 highs, coming back to test resistance.  If it bounces, there is no telling what the next high will be.  #Kin #NFTs #DeFi #btc  #bitcoin #solana #bch #usd #xrp #eth #price #crypto #ltc #fintech #blockchain #buythedip",41,20
1377424949422350336,"2021-04-01T00:57:53Z","RT @NFTFusion: What’s your ETH address?  No questions, just drop it below 👇 #NFT #NFTs",1955,1480
1377424948025696258,"2021-04-01T00:57:53Z","Sologenic DEX is decentralized It's available anywhere to anyone with internet access. Yes you can buy Solo, #XRP, in USA and Canada or anywhere in the world via the DEX 😉👌 including #BTC #ETH, USD, EUR, https://t.co/aO8LCudXE1",169,43
1377424942992564224,"2021-04-01T00:57:52Z","@MichelleSchlen6 Fluff to get to Etherium. I posted the gas fees are trash but I get the idea that it has all the ERC 20 coins. But gas fees... ugh...",1,0
1377424940987637766,"2021-04-01T00:57:51Z","ERC721 by Jessiejess 1 of 5 • On sale from 1st Apr, 11:20 pm  By Jessiejess @CortexJess   Support artists and #NFTart #NFTs #NFT #NFTCommunity   Follow + Like + Retweet = ♥️  https://t.co/WngsXADNKh @KnownOrigin_io #cryptoart #NFT #cryptoartist #ETH",6,1
1377424935908335617,"2021-04-01T00:57:50Z","Lots of banks and industrial stocks are keep recording their all time highs. I thought you always told people about valuations.  $TSLA $SPAC $SI $NNOX $BTC $ETH   Cramer is bullish on bank and industrial stocks, cautious on tech and health care into Q2 https://t.co/4bLDetmisz",1,0
1377424930141310976,"2021-04-01T00:57:49Z","MACD Trends:  Upward Trends: $BTC $XRP $TRX $LTC $NEO $XLM $ETH $ALGO $DASH $LINK  Downward Trends: $ADA $HBAR  00:57:48 • 04-01-2021 UTC #cryptoldeaMACD",0,0
1377424928048181257,"2021-04-01T00:57:48Z","We love @superbid_io don't you! To prove it we're sharing 1/2 of the 10 ETH prize with ONE lucky person if we win!   ENTER: https://t.co/BvihIDYyyo  #Superbid is the first social-action app built on #ETH. ~ https://t.co/JrS8Kt08KI  #airdrop #contest #ethairdrop #giveaway #uniswap https://t.co/ocJmUFbBdp",503,1314
1377424909089968129,"2021-04-01T00:57:44Z","💧Fly Amanita Airdrop 💧  🏆 Task:          ➕ $5 worth of FLY  👨‍👩‍👧 Referral:   ➕ $0.5 worth of FLY  🔛Airdrop Link &amp; Information: https://t.co/Teh5tZDNPE  #cryptocurrency #Crypto #Bitcoin #Ethereum #ETH #Airdrop #bounty #FlyAmanita #FLY",1470,1810
1377424882695168001,"2021-04-01T00:57:38Z","Think you're a great cryptocurrency trader? You can find more information on Bybit's 7 day trading challenge, with 400k USD prize pool, here:  https://t.co/Sc41e28ZFB  #Bitcoin #Ethereum  $BTC $ETH $RUNE $ADA $HBAR $UNI $KIN $ZRX  @coinkit_ mon 0.2 175 $TRX https://t.co/N5lyheKa3G https://t.co/vNr2b1XFN6",36,144
1377424881940242434,"2021-04-01T00:57:37Z","@OKEx @Tesla @unstoppableweb Tesla with eth is the ideal one",0,0
1377424879272611843,"2021-04-01T00:57:37Z","Finally! @PersonalCapital launched crypto tracking (beta) for your portfolio!! 🪙 $BTC $ETH  Use my link to get $20! https://t.co/O1fcCYaxMd   https://t.co/OI8NWQelbK",0,1
1377424878706454530,"2021-04-01T00:57:37Z","We love @superbid_io don't you! To prove it we're sharing 1/2 of the 10 ETH prize with ONE lucky person if we win!   ENTER: https://t.co/BvihIDYyyo  #Superbid is the first social-action app built on #ETH. ~ https://t.co/JrS8Kt08KI  #airdrop #contest #ethairdrop #giveaway #uniswap https://t.co/ocJmUFbBdp",503,1314
1377424878538612736,"2021-04-01T00:57:37Z","Think you're a great cryptocurrency trader? You can find more information on Bybit's 7 day trading challenge, with 400k USD prize pool, here:  https://t.co/Sc41e28ZFB  #Bitcoin #Ethereum  $BTC $ETH $RUNE $ADA $HBAR $UNI $KIN $ZRX  @coinkit_ mon 0.2 175 $TRX https://t.co/N5lyheKa3G https://t.co/vNr2b1XFN6",36,144
1377424874851893250,"2021-04-01T00:57:36Z","Think you're a great cryptocurrency trader? You can find more information on Bybit's 7 day trading challenge, with 400k USD prize pool, here:  https://t.co/Sc41e28ZFB  #Bitcoin #Ethereum  $BTC $ETH $RUNE $ADA $HBAR $UNI $KIN $ZRX  @coinkit_ mon 0.2 175 $TRX https://t.co/N5lyheKa3G https://t.co/vNr2b1XFN6",36,144
1377424872993742848,"2021-04-01T00:57:35Z","Think you're a great cryptocurrency trader? You can find more information on Bybit's 7 day trading challenge, with 400k USD prize pool, here:  https://t.co/Sc41e28ZFB  #Bitcoin #Ethereum  $BTC $ETH $RUNE $ADA $HBAR $UNI $KIN $ZRX  @coinkit_ mon 0.2 175 $TRX https://t.co/N5lyheKa3G https://t.co/vNr2b1XFN6",36,144
1377424863321681922,"2021-04-01T00:57:33Z","Digital Reserve Vault 3 has been deployed to Mainnet! GEN00 $DRC NFT Holders currently have access to the vault.  The allocations are as follows:  $FARM - 35%  $MPH - 35% $ETH - 30%  https://t.co/0CAVxETySN  DRC holders will have access very soon!",82,30
1377424846393516032,"2021-04-01T00:57:29Z","@kennedyspx @MCypto Not sure when I was talking shit, but okay..... 3-5% realized profit a day off ltf divergences amounts to something when playing with size. My fam eats well, don't worry about me. Go use your 11 ETH to get laid and get off my nuts guy.",0,0
1377424843843375104,"2021-04-01T00:57:28Z","@NFTignition A lot of people talk about how DOT has done anything and that it's all promises. May be true as of now, but ETH is also hasn't done anything lately. All promise too IMO. ETH 2.0 keeps getting pushed back.",0,0
1377424834984964099,"2021-04-01T00:57:26Z","SHORT $FIL 🧸  E $198-$186 T $178, $163, $157, $148, $132, $110 SL $213 LEV 50× SIZE 5% CROSS MARGIN  #Bitcoin $BTC #BTC   More signals: https://t.co/A8nrhLWVD2  #ETH $btc $ada #cardano $eth #Ethereum #tron $trx #trx #bnb #bsc $bnb $bsc $alice $btt #btt $chz $xrp $matic $tky $hot https://t.co/Mipm2KoIXx",3,2
1377424834326491136,"2021-04-01T00:57:26Z","RT @cryptodecova: @HathorNetwork $HTR Full send to $50+ 🤑💎 #Ethereum #ETH $ETH $BTC #ALTSEASON #altcoin https://t.co/kTKQTsXLgm",2,1
1377424823165444096,"2021-04-01T00:57:23Z","$Kin Just put a buy order in for above 3.  Looks like we're going to clear it!  #Kin #NFTs #DeFi #btc  #bitcoin #solana #bch #usd #xrp #eth #price #crypto #ltc #fintech #blockchain #buythedip",17,4
1377424822590836738,"2021-04-01T00:57:23Z","💧Fly Amanita Airdrop 💧  🏆 Task:          ➕ $5 worth of FLY  👨‍👩‍👧 Referral:   ➕ $0.5 worth of FLY  🔛Airdrop Link &amp; Information: https://t.co/Teh5tZDNPE  #cryptocurrency #Crypto #Bitcoin #Ethereum #ETH #Airdrop #bounty #FlyAmanita #FLY",1470,1810
1377424816572002306,"2021-04-01T00:57:22Z","💧Fly Amanita Airdrop 💧  🏆 Task:          ➕ $5 worth of FLY  👨‍👩‍👧 Referral:   ➕ $0.5 worth of FLY  🔛Airdrop Link &amp; Information: https://t.co/Teh5tZDNPE  #cryptocurrency #Crypto #Bitcoin #Ethereum #ETH #Airdrop #bounty #FlyAmanita #FLY",1470,1810
1377424813073915906,"2021-04-01T00:57:21Z","We love @superbid_io don't you! To prove it we're sharing 1/2 of the 10 ETH prize with ONE lucky person if we win!   ENTER: https://t.co/BvihIDYyyo  #Superbid is the first social-action app built on #ETH. ~ https://t.co/JrS8Kt08KI  #airdrop #contest #ethairdrop #giveaway #uniswap https://t.co/ocJmUFbBdp",503,1314
1377424807617159171,"2021-04-01T00:57:20Z","@ETH_Nation I’m curious about NFTs on crypto currencies using Proof-of-Stake algorithms rather then proof-of-work due to the environmental costs? Are there any such out there yet?",0,0
1377424805754937346,"2021-04-01T00:57:19Z","Think you're a great cryptocurrency trader? You can find more information on Bybit's 7 day trading challenge, with 400k USD prize pool, here:  https://t.co/Sc41e28ZFB  #Bitcoin #Ethereum  $BTC $ETH $RUNE $ADA $HBAR $UNI $KIN $ZRX  @coinkit_ mon 0.2 175 $TRX https://t.co/N5lyheKa3G https://t.co/vNr2b1XFN6",36,144
