"ID","created_at","text","like_count","rt_count"
1376919644519424004,"2021-03-30T15:29:59Z","“Brooo eth is pumping you missed ouuut hahaha lmao”  *Checks eth chart. Up 8%..2% today... checks XCUR, OGN, Chain, Enj, OVR... all up 20-80%*  My number bigger. You guys are fucking dumb lol.",850,54
1376919620645445640,"2021-03-30T15:29:54Z","Introducing #MettalexAmplify's brand new look. 🤩  Go to https://t.co/MJCQa2ciOO or https://t.co/BytZg4wtWm and check it out!  Farm with $USDT, $FET, $ETH, or $BUSD and get up to 275% APY!  It reminds us of something that is launching this week 😉  #DeFiCommodities #YieldFarming https://t.co/7joxqC3tCR",58,13
1376919617239666691,"2021-03-30T15:29:53Z","RT @RookieXBT: $ETH  Are you ready? https://t.co/4ydw2qd1Ik",1923,189
1376919616472150023,"2021-03-30T15:29:53Z","@MoonOverlord Check out @Polkaswitch bro. It's a game changer for cross chain liquidity for both Eth and Polka based altcoins.   ✅ 100% Trustless and non-custodial ✅ High quality TradingView Charts and Limit Orders ✅ Liquidity &amp; Asset Variety https://t.co/jQJvpeFGI6",77,51
1376919607353647104,"2021-03-30T15:29:50Z","https://t.co/pkdxjCrRD0 @CryptoRichYT is right  Everyone is aware that they are being manipulated You are afraid of the true potential of ETN @CoinMarketCap  Articles and videos are made on it.  When will you correct it? #ETN #Electroneum #bitcoin #Ethereum #ETH #cryptocurrency",10,3
1376919603394179081,"2021-03-30T15:29:50Z","I'm super excited to announce my New Drop🔥 @makersplaceco Help me to share this with all the #NFTcomunity And make this drop huge!  Date: 𝗔𝗽𝗿𝗶𝗹 𝟬𝟮 𝟳:𝟬𝟬 𝗣𝗠 (𝗚𝗠𝗧+𝟮)  #cryptoart #cryptoartist #NFT #NFTart #NFTartist #ETH  #digitalart #raredigitalart #Ξ #collectible https://t.co/94CVRu7I9M",61,16
1376919597576679428,"2021-03-30T15:29:48Z","RT @EvenOyou: First 20 people who retweet their ETH FEG address and retweet will recieve 40 billion FEG token. 40,000,000,000.  @FEGtoken",118,80
1376919592824664066,"2021-03-30T15:29:47Z","@MoonOverlord Check out @Polkaswitch bro. It's a game changer for cross chain liquidity for both Eth and Polka based altcoins.   ✅ 100% Trustless and non-custodial ✅ High quality TradingView Charts and Limit Orders ✅ Liquidity &amp; Asset Variety https://t.co/jQJvpeFGI6",77,51
1376919584629010437,"2021-03-30T15:29:45Z","Don't forget $VTHO you hit a home run and didn't even know it🤫 $BTC $ETH $OMG $TFUEL $ALGO $SKL $VET $VTHO $HOT $REP $MATIC $MANA $DGB $ZIL $GME $TSLA $NVDA $AMC https://t.co/yRTpKuLaNJ",0,0
1376919582666031115,"2021-03-30T15:29:45Z","RT @zhusu: Next key lvls are 72k / 100k on $BTC  And 2.5k / 4k on $ETH",3569,435
1376919576382898179,"2021-03-30T15:29:43Z","@ZssBecker @illuviumio yeehah.eth BATTLE SCOOT!",0,0
1376919572452892673,"2021-03-30T15:29:42Z","@MoonOverlord Check out @Polkaswitch bro. It's a game changer for cross chain liquidity for both Eth and Polka based altcoins.   ✅ 100% Trustless and non-custodial ✅ High quality TradingView Charts and Limit Orders ✅ Liquidity &amp; Asset Variety https://t.co/jQJvpeFGI6",77,51
1376919572104757258,"2021-03-30T15:29:42Z","An anonymous bidder has appeared with the top bid of 1.1055 ETH on The Ancient Gods.  @AntonDee_  @Ken40744017 @freezedrychief @paul_ponciano #NFTCommunity #nftcollectors #NFTartists #NFTartists https://t.co/y6AuWdiILi",17,5
1376919570590670849,"2021-03-30T15:29:42Z","@2020Xrp CORRUPTION coming out of the @SEC_Enforcement vs @Ripple LAWSUIT! SEC former Chairman Clayton getting paid in ETH and BTC while giving them a free pass yet suing the competition.#Justice4XRP @RepAOC @RepDanCrenshaw @RepKatiePorter @JohnCornyn @MittRomney @SenSanders https://t.co/fTdDpgNqFe",0,0
1376919565016428545,"2021-03-30T15:29:40Z","@one_bald_dude @CitezenB @UltimateCrypto7 Tezos block time is 4,61x longer than ETH, which means Tezos transaction takes on average 4,61x longer than ETH transaction. Thats just facts. Also, as far as I know B1 is settled with SEC, while Tezos Foundation is not. Not sure who is more likely to get sued here 😂",0,0
1376919564370407425,"2021-03-30T15:29:40Z","RT @ProBitSpanish: Trade #XDC en ProBit 🔥  https://t.co/YAACtJ8SP9 https://t.co/GnrKjUUmpT https://t.co/6SNqKf2iXN https://t.co/4rpcXVUPD8",34,10
1376919563342901251,"2021-03-30T15:29:40Z","$marsh team bought 250 eth worth of tokens before posting uniswap pair link on announcement channel which pumped price from $0.95 to $7....I'm guessing they'll dump on their unsuspecting community members! https://t.co/PcJJcuUoln",4,1
1376919558292914182,"2021-03-30T15:29:39Z","Wow, from 1993 on NFT's   Link below  #Bitcoin   Is this a simulation haha?  $BTC $ETH  https://t.co/Ern7cxm55m https://t.co/8GV3ZJ32wa",116,20
1376919558137778179,"2021-03-30T15:29:39Z","@adamsaunders5 On other wallets it says to send zero eth while mimicking the nonce... maybe sending. 001 or whatever is the problem?",0,0
1376919557915426817,"2021-03-30T15:29:39Z","@DefiStone will continue to support #rDOT and #rDOT/#ETH LP yield #farming after #rDOT lives on mainnet in near future.  In #rETH farming program on #STONE, there are total 1,120.177 #rETH and 118.021 rETH/ETH LP which are valued about $2.2 million $USDT.  https://t.co/h4Xu4oGAaK https://t.co/s5WZ9Eq6jE",46,10
1376919552395784199,"2021-03-30T15:29:37Z","@fish_finance @yorzy @oyinmicool  @itzbasito   0xb3c75cF152E09BB57CbdDEB6682db9b7DD9828d6  Telegram username- @Yorzyboii  #binancesmartchain  #tunatoken  $btc $bnb $eth $ada $xrp $cake",1,0
1376919552286547969,"2021-03-30T15:29:37Z","@MoonOverlord Check out @Polkaswitch bro. It's a game changer for cross chain liquidity for both Eth and Polka based altcoins.   ✅ 100% Trustless and non-custodial ✅ High quality TradingView Charts and Limit Orders ✅ Liquidity &amp; Asset Variety https://t.co/jQJvpeFGI6",77,51
1376919545609342986,"2021-03-30T15:29:36Z","RT @RookieXBT: $ETH  Are you ready? https://t.co/4ydw2qd1Ik",1923,189
1376919543768027139,"2021-03-30T15:29:35Z","$ETH Poppin off today",0,0
1376919541381537793,"2021-03-30T15:29:35Z","WOW  - Shiny Crown 👑 was sold 💸  Thank you very much @lpolzer !  Wear it with dignity! 😊👍  21/25 are left at @rariblecom for 0.02 ETH  #nftart #nft #cryptoart https://t.co/BPGYBpY8Xz",23,3
1376919538567106577,"2021-03-30T15:29:34Z","@EpikNFT NEW DROPS ALERT 🚨  #014 already SOLD..   #012 #013 is available at #opensea with low prices https://t.co/5cwNZpADYk  #NFTCollectors #NFTs #crypto #cryptoart #nftart #nftdrop #nftcommunity #eth #pixelart #NFTartist #NFT  https://t.co/I9tKZ6KWc3",1,1
1376919537770246148,"2021-03-30T15:29:34Z","Ethereum☆☆☆ https://t.co/gDYJU5IXZG   #ForexShakeel #coin #dogecoin #doge #ripple #xrp #bitcoin #btc #cardano #ada #stellar #xlm #nem #xem #Neo #ethereum #tron #coinmarketcap #binance #bnb #monero #money #BTSV #FTX #BCH #Crypto #Trx #XMR #link #Bat #Eth #Tezos #News #Terra https://t.co/UmEqhx2FSn",0,0
1376919528337256448,"2021-03-30T15:29:32Z","@simidarling @cruizewrld @SaharaReporters 20 ETH to this gray matter deficient fellow if he finds it.",3,0
1376919525128613889,"2021-03-30T15:29:31Z","30 day EVIX: 90.2495 ETH/USD vwap: $1,831.82 04/16 expiry volume: $1,619,467.45 04/30 expiry volume: $6,502,096.40 Current time: 15:29:06",0,0
1376919518199562241,"2021-03-30T15:29:29Z","Today we would like to sincerely thank our two platinum sponsors @ETH and @Empa_CH. Without them, Swissloop would hardly be able to realize the vision of the Hyperloop. We are very lucky to work with such generous partners. https://t.co/MbcMrc8ucF",24,5
1376919515225759748,"2021-03-30T15:29:29Z","Real demand + Killer Tokenomics will breed new parabolic paradigms🔥  This will lead to $QNT exploding🚀  Look at $LUNA for example..  ✅ $UST seeing real demand through protocols.. More $LUNA burnt   ✅ $QNT to see real demand through OVN.. More $QNT locked up on mass  $BTC $ETH https://t.co/GQEvy6Xr1S",166,30
1376919509613809670,"2021-03-30T15:29:27Z","OMG! 😱  I finally did it.  1st drop on @rariblecom . Teddy bear №10 - Brother miner 10 copies for 0.07 eth.  I hope you enjoy it. Teddy bear collection in progress  https://t.co/5hjlJPswvU   #rarible #ethereum #nft #cryptoart #nftcollector #NFTartist #rarible #NFTCommunity https://t.co/ycfMQwUutv",85,37
1376919497551061003,"2021-03-30T15:29:24Z","@nft_collections NEW DROPS ALERT 🚨  #014 already SOLD..   #012 #013 is available at #opensea with low prices https://t.co/5cwNZpADYk  #NFTCollectors #NFTs #crypto #cryptoart #nftart #nftdrop #nftcommunity #eth #pixelart #NFTartist #NFT   https://t.co/bI4x5ds7cy",0,0
1376919479716700161,"2021-03-30T15:29:20Z","@AdamHODL Maybe just keep btc and eth, low risk ok reward",0,0
1376919478466981896,"2021-03-30T15:29:20Z","HAWT. With my partnership with @illuviumio I can give away 100 HOLOGRAPHIC Scoot Scarabok NFTs.  Similar ones have gone for 5 eth to 50 eth.  How to get -Post your ETH address + BATTLE SCOOT! below -Retweet/tag a friend -Follow @illuviumio and join their discord in bio https://t.co/xcCVVW6KdR",2754,2661
1376919466290843653,"2021-03-30T15:29:17Z","RT @KennethBosak: ETH SUCKS SO BAD, THERE IS AN ENTIRE BUSINESS MODEL FOR MAKING ETHEREUM SUCK LESS. THINK ABOUT IT...",112,12
1376919455540899840,"2021-03-30T15:29:14Z","Welcome to massive Q DAO airdrop!   1. go now to telegram https://t.co/COyXgODY1z   2. Stay in telegram chat and wait announcement.  3. HOLD this gem until 10x   (soon - QDAO launch cross-chain for BSC, Polkadot and ETH)",4218,6164
1376919445201944578,"2021-03-30T15:29:12Z","RT @Holochain_NLD: Don’t miss it. #holochain #HOT #HODL   #BTC #ETH #ADA #LTC #REEF #VET  #ZIL #INJ #NPXS #Crypto",22,3
1376919437048078342,"2021-03-30T15:29:10Z","After the $COTI had retested its last resistance it should fly to atleast 6$ long term target can be anywhere between 15$ to 20$  $BTC $ETH $RSR $OCEAN $HTR $BXY https://t.co/fk44Jiqy7t",3,1
1376919435353714688,"2021-03-30T15:29:09Z","#BTT finally got to see it hit $0.004 plus. Didn’t miss it this time 🙌🙂!#crypto #cryptocurrency #cryptocurrencies #altcoin #altcoins #BTT #STMX #dogecoin #ADA #Litecoin #ETH #ETC #BTC  #ZIL #ALGO #ONE #Binance #VET #VTHO https://t.co/gxs7iFHnZi",5,1
1376919434514817029,"2021-03-30T15:29:09Z","HAWT. With my partnership with @illuviumio I can give away 100 HOLOGRAPHIC Scoot Scarabok NFTs.  Similar ones have gone for 5 eth to 50 eth.  How to get -Post your ETH address + BATTLE SCOOT! below -Retweet/tag a friend -Follow @illuviumio and join their discord in bio https://t.co/xcCVVW6KdR",2754,2661
1376919432707022849,"2021-03-30T15:29:09Z","Tonight @ 22 UTC (15 PT - 18 ET) on @rariblecom   🐬 #CryptoDogs #125 feat @DolphinsCrypto 🐶  💎 RARE (9% ONLY!!!)  👉 0.3 $ETH / 25% will flow to charity!!  #NFT #NFTs #NFTart #NFTCommunity #cryptoart #ethereum #rarible #collectibles #nonfungible #erc721 https://t.co/7ZQVI4eCQV",11,4
1376919428143587334,"2021-03-30T15:29:08Z","RT @Cgj_Crypto: No comment needed.  #ETH #TRX https://t.co/DHyPPHSlfs",108,22
1376919427350999042,"2021-03-30T15:29:08Z",".@PaulStayt @mr_rolzay @Tekla_GH @TrentKuhnArt @stephyfung have you checked out @ghostmarketio yet as an alternative for #NFTs till Eth fees come down? Its just $1-2 to mint an #NFT as it's on @PhantasmaChain, our fast scalable eco-friendly smart contract platform.   $SOUL $KCAL https://t.co/VGH0nWdFxD",30,10
1376919422502244353,"2021-03-30T15:29:06Z","HAWT. With my partnership with @illuviumio I can give away 100 HOLOGRAPHIC Scoot Scarabok NFTs.  Similar ones have gone for 5 eth to 50 eth.  How to get -Post your ETH address + BATTLE SCOOT! below -Retweet/tag a friend -Follow @illuviumio and join their discord in bio https://t.co/xcCVVW6KdR",2754,2661
1376919421562724352,"2021-03-30T15:29:06Z","5 Reasons why the March 31st @TenseT_io launch will be 🔥  1) 5000 ETH presale would have ended in 12 mins if ETH worked 2) HUGE interest from 🐳 in Japan &amp; Korea 🇯🇵/🇰🇷 3) I've never witnessed such fomo on any project. It's real 💯",636,534
1376919414226841602,"2021-03-30T15:29:04Z","RT @ThisisNFTs: Do you think #eth will reach $2k by the end of this week?",67,1
1376919409957163014,"2021-03-30T15:29:03Z","HAWT. With my partnership with @illuviumio I can give away 100 HOLOGRAPHIC Scoot Scarabok NFTs.  Similar ones have gone for 5 eth to 50 eth.  How to get -Post your ETH address + BATTLE SCOOT! below -Retweet/tag a friend -Follow @illuviumio and join their discord in bio https://t.co/xcCVVW6KdR",2754,2661
1376919408195551234,"2021-03-30T15:29:03Z","The first set of Ahegao NFTs sold out in a week, so I've been working on some more which are now live at https://t.co/MAOPR2F1DH  #pixel_dailies #nft #NFTs #nftart #nftartist #crypto #blockchain #eth #ethereum #digitalart #art #value #nftcollector #hentai #ahegao https://t.co/YWPHtqTMQv",78,704
1376919397151965188,"2021-03-30T15:29:00Z","If you heard Visa is settling transactions on Ethereum &amp; your reaction was how can Ethereum do this when gas fees are high then...and I mean this with all respect...you don't understand how this works.  Visa can batch billions of $'s in one ETH transaction  Gas doesn't matter",1368,179
1376919389321056256,"2021-03-30T15:28:58Z","💧Bitcoin Asset Airdrop💧  🏆 Task:          ➕ 1 BTA   🔛  Airdrop Link &amp; Information: https://t.co/WSXvQoY5Kb  #cryptocurrency #Crypto #Bitcoin  #BSC #BinanceSmartChain #Ethereum #ETH #Airdrop #bounty #BitcoinAsset #BTA",1226,1542
1376919382199164929,"2021-03-30T15:28:57Z","🍄VOTE to name the 1st #NFT Etherian #Crypto Prophet from gen.1   Comment+RT  1. Stump 2. Hollow Prince 3. Ancestree 4. Mighty Oak  #nftcollectors #gaming_news #blockchaingame #matic #blockchain #cryptocurrency #CT #Polygon  #NFTs #ETH #Ethereum   Sign up: https://t.co/EjmDEIe0jV https://t.co/IXgx85xgDu",273,229
1376919381767245824,"2021-03-30T15:28:57Z","@TsenatSaba They don’t care at all. They are concerned only with how Eth looks to the world, those images tell the truth they would prefer something else.",7,0
1376919381561774081,"2021-03-30T15:28:57Z","#Cryptocommunity, you need to know one thing, EVERYONE who will sell $Wan actually will cry for the rest of him life HODL ! The best will coming ! 🚀🐝 Don't forget the $Wasp, Token of the DEX of the ecosystem @wanchain_org  @JackLu_WAN is a genious  $xrp $bnb $eth $dot $btc https://t.co/AxZsoCGPJJ",12,2
1376919368328736768,"2021-03-30T15:28:53Z","Introducing #MettalexAmplify's brand new look. 🤩  Go to https://t.co/MJCQa2ciOO or https://t.co/BytZg4wtWm and check it out!  Farm with $USDT, $FET, $ETH, or $BUSD and get up to 275% APY!  It reminds us of something that is launching this week 😉  #DeFiCommodities #YieldFarming https://t.co/7joxqC3tCR",58,13
1376919367556993031,"2021-03-30T15:28:53Z","@depression2019 ETH killers are dead cuz VISA is using it  BSC: https://t.co/dQxvhptn3X",0,0
1376919349655564291,"2021-03-30T15:28:49Z","@ERcrypto74 @Yods60938027 @EldarDRM @a3voices @EthereumJesus true, ahahah, MuH shiTCoiN is Btter than ETH",0,0
1376919344177905665,"2021-03-30T15:28:48Z","@xrp_boom CORRUPTION coming out of the @SEC_Enforcement vs @Ripple LAWSUIT! SEC former Chairman Clayton getting paid in ETH and BTC while giving them a free pass yet suing the competition.#Justice4XRP @RepAOC @RepDanCrenshaw @RepKatiePorter @JohnCornyn @MittRomney @SenSanders https://t.co/pXYQwER5yA",1,0
1376919343783546880,"2021-03-30T15:28:48Z","Weird Science Frame by Unit72  1 of 3 • Now Available for Ξ 0.5  https://t.co/BZXi4B94vA  @KnownOrigin_io  #cryptoart #NFT #cryptoartist #ETH https://t.co/UfrWyvmM4W",2,0
1376919340268847109,"2021-03-30T15:28:47Z","@BLOCKCHAlNSPACE @sifchain For now, to take full advantage of Sifchain DEX, you need to have a Keplr wallet to manage assets in Sifchain and a MetaMask to manage assets in ETH. In the future will Sifchain be compatible with other wallets like Trust or network compatible wallets like BSC or POLKADOT?",0,0
1376919339677310976,"2021-03-30T15:28:47Z","To celebrate our launch we decided to give away to the #NFT community:  ⚡️1 NiftyMask limited edition 1 ETH worth ⚡️$1500 in ETH  To enter: 📌Retweet 📌Follow @NiftyMasks  📌Tag 3 friends  End when gets 400 retweets, good luck!❤️😍 #NFT #NFTs #Giveaway #Giveaways #nftcollector https://t.co/jUfZouqpHD",374,360
1376919337831895045,"2021-03-30T15:28:46Z","Metroids keep an eye out for the quarterly review video that will be posted shortly!  #mrx $mrx #metrix #btc #bitcoin $btc $agr $coti $tomo $ankr $eth $bnb $xrp $dash $cake $uni https://t.co/cW2mFZqJX0",37,11
1376919332756672514,"2021-03-30T15:28:45Z","Drawing this one in 1 hour.  Earn on your #Bitcoin #ETH #CEL #MATIC #LINK #USD #GOLD with @CelsiusNetwork.  I can also send you PayPal if you do not have CelPay available.👌♥️ https://t.co/iBUUz8PxIR",25,9
1376919330189889543,"2021-03-30T15:28:44Z","@chainyoda The answer is Eth no?",0,0
1376919329116020740,"2021-03-30T15:28:44Z","#DeFi #BKC #eth2 #BucksCake  🌟ITO at https://t.co/ACwUm221sk is LIVE🌟  BucksCake BKC Fixed-Swap  Pool amount 4 ETH/3500 BKC   1 ETH=875 BKC  0.5 ETH=437.5 BKC 0.1 ETH=87.5 BKC  HOW TO PURCHASE?  1. Proceed to https://t.co/bjZ32YGGB7  2..... Find more at https://t.co/9nIHO9rvBE https://t.co/TK68ut9xzt",1674,1593
1376919324506562564,"2021-03-30T15:28:43Z","HAWT. With my partnership with @illuviumio I can give away 100 HOLOGRAPHIC Scoot Scarabok NFTs.  Similar ones have gone for 5 eth to 50 eth.  How to get -Post your ETH address + BATTLE SCOOT! below -Retweet/tag a friend -Follow @illuviumio and join their discord in bio https://t.co/xcCVVW6KdR",2754,2661
1376919322350784517,"2021-03-30T15:28:43Z","@0xRevert bro you're really going to flush ETH (3.2 eth in gas a pop) down the drain for this ? lmaoooo",2,0
1376919317640589322,"2021-03-30T15:28:41Z","🔥 $MARSH Is Now Live On UniSwap!   MARSH/ETH UniSwap Pool: https://t.co/IZwP7mZjKP  $MARSH contract address: https://t.co/LOsmeZ8iUd  DEX Tools: https://t.co/UUY9bgAHG8 https://t.co/EeoRzLqzP5",124,34
1376919313077182471,"2021-03-30T15:28:40Z","HAWT. With my partnership with @illuviumio I can give away 100 HOLOGRAPHIC Scoot Scarabok NFTs.  Similar ones have gone for 5 eth to 50 eth.  How to get -Post your ETH address + BATTLE SCOOT! below -Retweet/tag a friend -Follow @illuviumio and join their discord in bio https://t.co/xcCVVW6KdR",2754,2661
1376919302566146058,"2021-03-30T15:28:38Z","HAWT. With my partnership with @illuviumio I can give away 100 HOLOGRAPHIC Scoot Scarabok NFTs.  Similar ones have gone for 5 eth to 50 eth.  How to get -Post your ETH address + BATTLE SCOOT! below -Retweet/tag a friend -Follow @illuviumio and join their discord in bio https://t.co/xcCVVW6KdR",2754,2661
1376919301404381188,"2021-03-30T15:28:38Z","⬅ 10.000 pBTC redeemed https://t.co/07Gvt7AQkE 👋 Total supply on ETH is 367.615 pBTC",0,0
1376919298816442370,"2021-03-30T15:28:37Z","In March 2017 we saw #ethereum go from $14 to $400 in under 100 days  We are going to see something similar with $theta as more people start to understand how big this project is going to be   Educate yourself. It is extremely cheap right now.  The #Thetasqueeze is coming $eth",116,25
1376919294362062852,"2021-03-30T15:28:36Z","RT @RookieXBT: $ETH  Are you ready? https://t.co/4ydw2qd1Ik",1923,189
1376919283893202946,"2021-03-30T15:28:33Z","Tron is in the top 10 now.  $TRX is up over 125% in the past 60 days alone.    People are tired of the $ETH gas fees are and are looking for alternative blockchains like #Tron where the gas fee is 1 penny.  @justinsuntron https://t.co/BaKFw1YsPe",653,170
1376919280172810244,"2021-03-30T15:28:32Z","@elonmusk 20 million of what .... Doge Btc eth .... Cardano?",0,0
1376919275122827273,"2021-03-30T15:28:31Z","Giveaway!  $40 in $eth for gas fees  How To ENTER!  1. Follow, Like &amp; Retweet 2. Comment with your eth address!  Giveaway @ 85K followers! #nftartist #nftgiveaway #ethgiveaway #passingitforward",91,59
1376919271792640001,"2021-03-30T15:28:30Z","HAWT. With my partnership with @illuviumio I can give away 100 HOLOGRAPHIC Scoot Scarabok NFTs.  Similar ones have gone for 5 eth to 50 eth.  How to get -Post your ETH address + BATTLE SCOOT! below -Retweet/tag a friend -Follow @illuviumio and join their discord in bio https://t.co/xcCVVW6KdR",2754,2661
1376919255485194242,"2021-03-30T15:28:27Z","Win #NFT worth ETH!  To WIN #Giveaway You MUST:    1.) Follow @degenasaurus  2.) RT tweet BELOW ⬇️+ comment  3.) OPTION -&gt; Discord twitter comp channel: https://t.co/alAVVDlyQu  NFT: https://t.co/l37pUrR6Y3  Wish luck!!🦖♥️  @coinkit_ mon 35 1000 BTC  https://t.co/wFeOut8N85",264,924
1376919255116091395,"2021-03-30T15:28:26Z","Cafeswap is a yield farming and staking platform on the Binance Smart Chain, driven by a talented team and fueled by an amazing community. @CafeSwapFinance  #BinanceSmartChain #BSC #BTC #ETH #Ethereum #BNB #crypto #defi #cryptocurrency   https://t.co/a8EIzolwXT",116,50
1376919255061520389,"2021-03-30T15:28:26Z","#COINQVEST's well documented multi-language REST APIs allow #developers to easily integrate with our #cryptocurrency #PaymentProcessor platform. Accept payments in $BTC, $ETH, or $XLM, and more.   Built on @StellarOrg   Visit https://t.co/gsXR0VOy5T and let us help you. https://t.co/73l8iCB4LU",27,13
1376919239500648455,"2021-03-30T15:28:23Z","The DEX @FinanceChainge is set to launch on the @FUSIONProtocol network with over a million users on the protocols waitlist. This decentralized exchange aims to innovate on traditional models through leveraging the Fusion Network.  #BSC #BTC #ETH #BNB  https://t.co/xx55YiGfm3",21535,13657
1376919238414368774,"2021-03-30T15:28:23Z","#Hot #Holochain is going to the moon and soon to 0.035$ 😍 #vet #vechain #dent #npxs #btt #win #sc #reef #Doge #ZIL #Ziliqa #matic #one #CHZ #NFT #ENJ #Theta #SFP #BAT #Mana #BNB #Binance #UNI #Eth #Ethereum #btc #Bitcoin 😍😍🚀🚀🐝🐝🐝🐝🔥🔥🔥🔥🔥 https://t.co/zGbY4xISvv",9,1
1376919238179352576,"2021-03-30T15:28:22Z","Drawing this one in 1 hour.  Earn on your #Bitcoin #ETH #CEL #MATIC #LINK #USD #GOLD with @CelsiusNetwork.  I can also send you PayPal if you do not have CelPay available.👌♥️ https://t.co/iBUUz8PxIR",25,9
1376919237919305729,"2021-03-30T15:28:22Z","Top 10 coins for April + Targets: $ADA 🎯$3 $CAKE 🎯$50 $BAKE 🎯$5 $CRV 🎯$20 $SXP 🎯$20 #1INCH 🎯$20 $ALPHA 🎯$20 $DODO 🎯$20 $LINA 🎯$1 $REEF 🎯$1  #AltSeason #DeFi $eth #bnb #bsc $xrp $trx $dot $eos $neo $xtz $atom $avax $aave $uni $algo $link $super $ankr $one $ltc $yfi $egld https://t.co/XyQ4pBOWL3",815,227
1376919237764210691,"2021-03-30T15:28:22Z","The Binance Smart Chain has experienced rapid growth in the last six months. This can be attributed to a plethora of things such as the DeFi boom or the extreme transaction fees on the Ethereum network.  #BinanceSmartChain #BSC #BTC #ETH #Ethereum #BNB  https://t.co/CPE62tRvOb",898,207
1376919235541135372,"2021-03-30T15:28:22Z","Time for WitLink Token #Airdrop!  ✔️ Start the Airdrop bot: https://t.co/8HDV9cCJse  Complete the tasks to earn  Get 10 WAI ($2.5) + Get 4 WAI ($1) For Each Valid Refer   #ETH #BTC #WAI #LINK #Airdrops",1478,1424
1376919235419643910,"2021-03-30T15:28:22Z","@annamcnaughty @bitcoinPalmer @pixls_dot_eth @fewocious @TedsLittleDream @temi_coker @Magdiellop @marcozagara @julien_tabet @michellevonkalb @TalithaKingArt @shantell_martin @MarischaBecker @exolorian @ronnaldong @nois7 @JNSilva_ @ThankYouX @RaviVora aw thanks Anna! 🥰💙",2,0
1376919235163734021,"2021-03-30T15:28:22Z","The #LuxCard Collection market cap is now over 385 Ξ (ETH), which is ~$700,000 USD!🏆🎉   What makes @LuxExpression special? 💎Lux-Token Rewards &amp; Burns🔥 ⚡️Virtual Galleries &amp; Events 💎300+ Card-Holders ⚡️1800+ Community 💎6% Royalty Cap ⚡️Web3 Soon!  👉https://t.co/uWrsflNLCB https://t.co/QtLu7uND0Q",105,58
1376919231955148807,"2021-03-30T15:28:21Z","RT @JRNYcrypto: Goodmorning to everyone besides the people that comment you shouldn't of sold your ETH bro",3833,116
1376919230470352899,"2021-03-30T15:28:21Z","@boy_xrp @JohnEDeaton1 @SEC_Enforcement @chrislarsensf CORRUPTION coming out of the @SEC_Enforcement vs @Ripple LAWSUIT! SEC former Chairman Clayton getting paid in ETH and BTC while giving them a free pass yet suing the competition.#Justice4XRP @RepAOC @RepDanCrenshaw @RepKatiePorter @JohnCornyn @MittRomney @SenSanders https://t.co/WFH8wWev8T",0,0
1376919214536163338,"2021-03-30T15:28:17Z","Real demand + Killer Tokenomics will breed new parabolic paradigms🔥  This will lead to $QNT exploding🚀  Look at $LUNA for example..  ✅ $UST seeing real demand through protocols.. More $LUNA burnt   ✅ $QNT to see real demand through OVN.. More $QNT locked up on mass  $BTC $ETH https://t.co/GQEvy6Xr1S",166,30
1376919213701537796,"2021-03-30T15:28:17Z","@kidsonthebchain @dao_duck What does 18x means in terms of approximate percentage for this boost week didn’t got an answer till now. As per current APY of ~120% equal to ~ 2,5%aweek an18fold means~45% of what you put in. Is that correct?So assuming 1k of $duck &amp; 1k $eth = 1k $duck staked - 1k $duck burned?",0,0
1376919210597703682,"2021-03-30T15:28:16Z","⚪ Swapped $907K in #WETH for #ETH on #1inch 🐉  🐬 ($1.81M) #0x95B1b4 https://t.co/54BysYrKPj",0,0
1376919205459660810,"2021-03-30T15:28:15Z","HAWT. With my partnership with @illuviumio I can give away 100 HOLOGRAPHIC Scoot Scarabok NFTs.  Similar ones have gone for 5 eth to 50 eth.  How to get -Post your ETH address + BATTLE SCOOT! below -Retweet/tag a friend -Follow @illuviumio and join their discord in bio https://t.co/xcCVVW6KdR",2754,2661
1376919198547521537,"2021-03-30T15:28:13Z","🚀 GoodDollar Airdrop 💰Reward 60 G$ 🚀Daily Free Claim ✅Strong project  Don't skip The AIRDROP Follow @AirdropsBoY  Signup with google ID https://t.co/vzdtEs7H0N ✨Click claim button ✨verify selfie face 😍Check Balance  @cctip_io draw 0.00001 eth 199 #ctbot adrop ram 10 CTR 99 https://t.co/83vlbL1dyd",35,49
1376919191333306370,"2021-03-30T15:28:11Z","This change focused on the Binance Chain mainnet and reduced multiple fees. We can expect further proposals to lower fees on the Binance Chain and the Binance Smart Chain as BNB price continues its steady accent higher. @BinanceChain  #BSC #BTC #ETH #BNB  https://t.co/oJLLPs1Icv",279,126
1376919188586037249,"2021-03-30T15:28:11Z","RT @SuperRare: @XCOPYART received a 10% royalty payment of 100 ETH ($173k) on the sale 🙌",115,14
1376919183955492867,"2021-03-30T15:28:10Z","RT @ProBit_Exchange: #DFI will be listed on #ProBitExchange March 31 with an ETH market @defiqa3 #DeFi  https://t.co/2ZqO1n8Ezf https://t.c…",574,471
1376919181812146178,"2021-03-30T15:28:09Z","If you know about Ethereum's EIP 1559 you're front-running the world. Full stop.  EIP 1559 is a game changer for ETH.  It's a game changer for crypto.  If you invest in crypto...you owe it to yourself to listen to this ep.  @hasufl makes it easy.  Listen: https://t.co/tqJqusrIcn",567,119
