"ID","created_at","text","like_count","rt_count"
1375432344245477378,"2021-03-26T12:59:59Z","@CashNCrypto @domscrypto @boar_eth Done  Make me the winner this time  Thanks https://t.co/3SVl6fa7H8",0,0
1375432341078769667,"2021-03-26T12:59:59Z","🏆 Follow us &amp; Retweet this tweet, Specify the ETH address in the tweet comment to get 10 #BIT ($10 worth) or 50 #BIT ($50 worth) #BitScores Airdrop Tokens! 🎁 $250,000 Prize Pool Full rules: https://t.co/N53M5nRXr9  #giveaway #airdrops #bounty #giveaways #defi #eth #btc #airdrop https://t.co/m77hDtRsBv",3577,0
1375432340143497228,"2021-03-26T12:59:58Z","ETH likely a 'significantly safer' investment than NFTs...  #Crypto #Bitcoin #cryptocurrencies #Swissborg #cryptocurrency #CryptoNews $CNR #cryptofarm #altcoins #Ethereum #ADA #CentricWarriors #blockchain #cryptography $CNS #Polkadot #Cardano #BTC https://t.co/zbi0lWkDXp",0,0
1375432335882063879,"2021-03-26T12:59:57Z","I have obtained all publicly available information that I can on Hinman. He made $15 million from his firm WHILE AT THE SEC.   While Hinman was at the SEC and after he gave his #BTC &amp; #ETH speech, his firm represented Canaan in its IPO. Cannan is the 2d largest Chinese Manuf. of https://t.co/ojXXCLIwqI",2297,0
1375432335835983872,"2021-03-26T12:59:57Z","🚀USDT-NFTs Trading Pair has been listed on Uniswap  🚀The contract address:  0x6599fc3e77cbfa6f6e9cac605a30b1e78827eba0  🌸Like、Retweet &amp; Tag 3 friends  🚀Select another 10 addresses to airdrop 1,000,000 NFTs, leave your wallet #ETH address！  #NFTs #NFT #UNISWAP #DEFI #AIRDROP https://t.co/m2ME6WNxXf",878,0
1375432322267275266,"2021-03-26T12:59:54Z","@Zaharia_af 0x2E1bC9F8Cd5d6d52A20f909531CdadF81dB9004c  (looking around... making sure the coast is clear... i gotta protect my three bux in eth lol) https://t.co/wKWTzluObB",3,0
1375432319461249029,"2021-03-26T12:59:53Z","🏆 Follow us &amp; Retweet this tweet, Specify the ETH address in the tweet comment to get 10 #BIT ($10 worth) or 50 #BIT ($50 worth) #BitScores Airdrop Tokens! 🎁 $250,000 Prize Pool Full rules: https://t.co/N53M5nRXr9  #giveaway #airdrops #bounty #giveaways #defi #eth #btc #airdrop https://t.co/m77hDtRsBv",3577,0
1375432319121625091,"2021-03-26T12:59:53Z","RT @MasksPoly: @EuroVideoMaping Batman Mask Just Dropped! 0.35 ETH Only! Grab it now. https://t.co/OJtTX9cpMI",1,0
1375432313509707779,"2021-03-26T12:59:52Z","RT @tacoswapcrd: @cz_binance @binance we want to list the taco token #tacoswap.io #DeFi @Project_Defi #crd #eth 🌶🌶🌶🌶🌶🌶🌶🌶🌶🌶🌶🌶🌶🌶🌶🚀🚀🚀🚀🚀🚀🚀🚀🚀🚀",6,0
1375432309369888769,"2021-03-26T12:59:51Z","Where is the collectors? Still hot! 🔥🔥  0.3 ETH and available for a bid! #nft #foundationapp #nftcollector   https://t.co/eubDeJxoMp https://t.co/7kgJoeewUg",30,0
1375432309168599041,"2021-03-26T12:59:51Z","ETH inspired artwork incoming, WIP pictures later today. Something a little different about this one. Stay tuned.   #nft #cryptoart",0,0
1375432308791066633,"2021-03-26T12:59:51Z","@nvidia chips are cutting edge GPUs for mining on alternative blockchains (ethereum etc) and can be repurposed for High Performance Computing, also provide optionality of payout in either ETH or #BTC. #HodltheHut  #bitcoinnews 🚀🚀 https://t.co/4vWLOl5vrX",31,0
1375432304529575940,"2021-03-26T12:59:50Z","🏆 Follow us &amp; Retweet this tweet, Specify the ETH address in the tweet comment to get 10 #BIT ($10 worth) or 50 #BIT ($50 worth) #BitScores Airdrop Tokens! 🎁 $250,000 Prize Pool Full rules: https://t.co/N53M5nRXr9  #giveaway #airdrops #bounty #giveaways #defi #eth #btc #airdrop https://t.co/m77hDtRsBv",3577,0
1375432300377309189,"2021-03-26T12:59:49Z","#dailyFEG Friday, 26 March 2021 Where to buy:  $FEG #ETH at @Uniswap @1inchExchange $FEG #BSC at @PancakeSwap  #FEG #FEGex #FEGtrack #altcoin #altseason #blockchain #BNB #BTC #crypto #cryptonews #cryptoworld #cryptoinvestor #cryptotrader #DeFi #ERC20 #BEP20 #HODL #NFT #ToTheMoon https://t.co/7om6IhEbCm",93,0
1375432298099666947,"2021-03-26T12:59:48Z","On sale at Open Sea. NFT has endless possibilities. 【NINJA ART】 Retweet and Follow me!! @NINJAART2021   #NFT #opensea #NINJAART #Bitcoin  #Ethereum  #ETH  #art #Virtualworld #Cryptocurrency  #japan #japanese https://t.co/u3ba6i7HFg",3,0
1375432297869099010,"2021-03-26T12:59:48Z","RT @bitcoinbella_: I’ll stick to my .15 ETH a day NFT addiction... oh wait 😫",13,0
1375432296883441666,"2021-03-26T12:59:48Z","THE REVOLVING DOOR OF CORRUPTION AT THE @SEC_News   So Hinman goes to the SEC and gratuitously declares #BTC and #ETH as non-securities.    He collects millions from his law firm while his law firm is heavily connected to #BTC and #ETH.   But it doesn’t stop there. https://t.co/fjWcnZjdMR",1169,0
1375432292500398080,"2021-03-26T12:59:47Z","RT @CryptoGemsBot: New CoinGecko Listing!  Cash Tech / $cate Price: 0.456069 24h Volume: 3534255 #crypto #gem #eth #defi  https://t.co/ohLQ…",2,0
1375432291279835136,"2021-03-26T12:59:47Z","$BTC | LTF Update  The upper green box and its liquidity have been emphasized and worked perfectly.  Price just came to its resistance zone.  This is the price action that I need to see and apply.  I have ETH short position (some portion) and BTC spot buying from $51600s. https://t.co/XV4Wgg6nU3 https://t.co/u8YFQ5pp8H",125,0
1375432290210226178,"2021-03-26T12:59:46Z","🚀USDT-NFTs Trading Pair has been listed on Uniswap  🚀The contract address:  0x6599fc3e77cbfa6f6e9cac605a30b1e78827eba0  🌸Like、Retweet &amp; Tag 3 friends  🚀Select another 10 addresses to airdrop 1,000,000 NFTs, leave your wallet #ETH address！  #NFTs #NFT #UNISWAP #DEFI #AIRDROP https://t.co/m2ME6WNxXf",878,0
1375432288175976454,"2021-03-26T12:59:46Z","@CryptoChandler @TheCryptoLark Every smart investor is holding $BTC and $ETH long term. They may not announce it, but those two are the base for a secure long term portfolio. Everything else are short term plays.",3,0
1375432287425282051,"2021-03-26T12:59:46Z","006# Morty Lil-Giu Exclusive 1of1 NFT Drop @rariblecom  https://t.co/KxYvGebYuC  #cryptoart #nftcollector #lilGuys #nftcollectors #nftart #nftartist #NFTCommunity #crypto #ethereum #NFTartist #eth #NFT #NFTs #artwork https://t.co/GPDqR6ouXT",10,2
1375432281997725696,"2021-03-26T12:59:44Z","RT @volmexfinance: What’s your ETH address?  Don’t ask why, just drop it below 👇",4852,2
1375432274687131648,"2021-03-26T12:59:43Z","@BitScores very good and this projector has a lot of attractions So hopefully the project will be better in the future and the cryptocurrency will be the best !!  ETH address 0x4C36e5e1Ef4540BBf18dE888612847950632F69d https://t.co/z8TDuPMd8Y",3,1
1375432273302937604,"2021-03-26T12:59:42Z","@CashNCrypto @domscrypto @boar_eth Good luck sir ✔️💖😇🤞",0,0
1375432271960829966,"2021-03-26T12:59:42Z","The DEX @FinanceChainge is set to launch on the @FUSIONProtocol network with over a million users on the protocols waitlist. This decentralized exchange aims to innovate on traditional models through leveraging the Fusion Network.  #BSC #BTC #ETH #BNB  https://t.co/xx55YiGfm3",21660,0
1375432268869591051,"2021-03-26T12:59:41Z","RT @CashNCrypto: $150 to one person in 48hrs  Rt &amp; follow me + @domscrypto &amp; @boar_eth",2067,0
1375432267519168522,"2021-03-26T12:59:41Z","Sometimes, you should listen to the market and what it is trying to tell you. $ADA $BTC $ETH $BNB $DOT #Bitcoin #Cardano #Ethereum #Binance https://t.co/c9lHWcBTHh",71,0
1375432266822860800,"2021-03-26T12:59:41Z","Kaleidoscopic Exploration  Send me an invite to @withFND Help me start minting NFTs Or just Vote here =&gt; https://t.co/ByMOKVXqVd  #nft #nftart #nftartist #nftcollector #cryptoart #crypto #cg #sculpture #digitalart #girl #eth #etherium #FoundationInvite #kaleidoscopic #trippy https://t.co/TavDAzJ6bg",4,0
1375432264452988934,"2021-03-26T12:59:40Z","@iamDCinvestor I 👏 don’t 👏 know 👏 enough 👏 about 👏 ETH 👏 architecture 👏 to 👏 have 👏 an 👏 opinion 👏 on 👏 your 👏 tweet",1,0
1375432262834135041,"2021-03-26T12:59:40Z","Even if #DeFi went nowhere, blockchain tech still needs $LINK to be adopted. Even if $ETH went nowhere and was overtaken, blockchain tech still needs $LINK to be adopted.   #Chainlink is the bottom line.",48,0
1375432262653730819,"2021-03-26T12:59:40Z","$XALL News - Xalles Announces a License Agreement with Xped Holdings to Create a Payment Platform Across Its Subsidiaries https://t.co/rew7K9NV91 $RTON $TSNPD $QBAN $BRLL $BYOC $ICBU $ETH $BTC $SEGI $LTNC $MMEX $DRNK $USEI $SRMX $VPER $BDGR $GTLL $FTEG $SANP $ENZC $PHIL $PVDG",3,0
1375432259835199488,"2021-03-26T12:59:39Z","Screenshot to #WIN 🎯   Three winners will receive £100 each into their Wirex #WXT account.   1️⃣ Follow @wirexapp   2️⃣Take a screenshot of the crypto you land on and upload it in the comments 3️⃣ RT  T&amp;Cs: https://t.co/xr6TX8r6eN  $BTC $LTC $XRP $ETH $WAVES $DAI $NANO $XLM $WXT https://t.co/dXev6DYHEz",175,0
1375432256681021441,"2021-03-26T12:59:38Z","Aircoins (AIRx) now available on #CoinMarketCap  https://t.co/yq9NxjFWiS  To celebrate we are giving away $200 in #ETH and $200 In #BNB   To enter contest tag #BSC and #CMC   Two lucky winners will be selected March 28th 9am EST. #AIRx is both on #BSC &amp; #ETH networks!🎉🥳📸📱🥂💥 https://t.co/k1ytohl9Fa",479,0
1375432255716392967,"2021-03-26T12:59:38Z","🏆 Follow us &amp; Retweet this tweet, Specify the ETH address in the tweet comment to get 10 #BIT ($10 worth) or 50 #BIT ($50 worth) #BitScores Airdrop Tokens! 🎁 $250,000 Prize Pool Full rules: https://t.co/N53M5nRXr9  #giveaway #airdrops #bounty #giveaways #defi #eth #btc #airdrop https://t.co/m77hDtRsBv",3577,0
1375432251987664898,"2021-03-26T12:59:37Z","RT @CashNCrypto: $150 to one person in 48hrs  Rt &amp; follow me + @domscrypto &amp; @boar_eth",2067,0
1375432249936592896,"2021-03-26T12:59:37Z","Pay with DENT Tokens and get 20% more Mobile Data! 😎 Download the DENT App and start using the world's first #Blockchain-powered Mobile Carrier. Click here:  https://t.co/559XcV3JDF  #dentcoin #eSIM #BTC #iOS #Android #GSMA #5G #eth $DENT https://t.co/Fs7Xgg1nlb",936,0
1375432240524582917,"2021-03-26T12:59:35Z","Free 5000 $POK   Receive a free #airdrop #crypto #blockchain #BTC #ETH #DeFi #Coin #free #BULLISH                                      https://t.co/7QQr9cVjG6",0,0
1375432237592801287,"2021-03-26T12:59:34Z","🔸 New Listing🔸   #BKEX will list #DRYCAKE @DryCakeSwap🚀 🚀  - Trading pair: DRYCAKE/USDT - Trading time: 20:00 on Mar 29 (UTC+8)  🔹 🔹 More details: https://t.co/kC2IIebfTT  #Bitcoin #ETH #BKK #Blockchain https://t.co/w8CHyKXaUD",2480,0
1375432237253017602,"2021-03-26T12:59:34Z","@AdvThinking @BGZeroTwoOne It's very clear how beneficial NFTs could be for digital creators, but it's irresponsible to ignore the environmental impact of ETH's energy demands and the cost of building on chain in general. I'm patiently waiting to see how the game changes again when/if ETH2.0 is introduced.",0,0
1375432236669960195,"2021-03-26T12:59:34Z","RT @CashNCrypto: $150 to one person in 48hrs  Rt &amp; follow me + @domscrypto &amp; @boar_eth",2067,0
1375432234077982726,"2021-03-26T12:59:33Z","Helping Hands - Apple  Now open for bids on @KnownOrigin_io  https://t.co/XEpgRmQoPS  #NFT #NFTcollectors #cryptoart #eth https://t.co/vvvsIrnfcB",8,0
1375432233817935879,"2021-03-26T12:59:33Z","RT @QuintenFrancois: My top 10 #crypto holdings:  1. $BTC 2. $LINK 3. $ETH 4. $VET 5. $ERN 6. $BNB 7. $BNT 8. $MATIC 9. $POLK 10. $ENJ   Wh…",2518,0
1375432231653572614,"2021-03-26T12:59:32Z","@TIAA :just a suggestion to provide more return to our customers for their retirement plans by investing small portion in $BTC and $eth https://t.co/amPCWdisIg",0,0
1375432220681383936,"2021-03-26T12:59:30Z","$PIKA #PIKA getting ready to fly. Load up kiddos, time to go meet up with Elon Musks Tesla in space!  $ETH #elongate #SAFEMOON $ETH. $HOGE $DOGE $POODL $FROGO $FEG $SLOTH $RHINO $ADA $SHINU $BDOG $SCAT $SHIBA $CHOW $LINK $BNT $RAINI $RFIII $KONG $WOLFY $KANGAL $RVN $BTC #Marines https://t.co/Y7f4xSsFW0",15,0
1375432220526010368,"2021-03-26T12:59:30Z","🏆 Follow us &amp; Retweet this tweet, Specify the ETH address in the tweet comment to get 10 #BIT ($10 worth) or 50 #BIT ($50 worth) #BitScores Airdrop Tokens! 🎁 $250,000 Prize Pool Full rules: https://t.co/N53M5nRXr9  #giveaway #airdrops #bounty #giveaways #defi #eth #btc #airdrop https://t.co/m77hDtRsBv",3577,0
1375432218676326403,"2021-03-26T12:59:29Z","RT @CashNCrypto: $150 to one person in 48hrs  Rt &amp; follow me + @domscrypto &amp; @boar_eth",2067,0
1375432217770532865,"2021-03-26T12:59:29Z","@Vxrcs I'm leaving it in the table want to build up a nice ETH positon waiting for 2.0 then make some sweet ETH rewards daily. What other projects you looking at. I am trying to find below $50M projects on Uniswap that's where the serious money can be made. https://t.co/tu7JwbaF31",0,0
1375432214217826304,"2021-03-26T12:59:28Z","RT @CashNCrypto: $150 to one person in 48hrs  Rt &amp; follow me + @domscrypto &amp; @boar_eth",2067,0
1375432213257457664,"2021-03-26T12:59:28Z","RT @CashNCrypto: $150 to one person in 48hrs  Rt &amp; follow me + @domscrypto &amp; @boar_eth",2067,0
1375432204692652033,"2021-03-26T12:59:26Z","The climate &amp; ecological emergencies will costs millions, if not billions of lives.  ETH knows. Scientific institutions know. Scientists know. Because they publish the truth about in their research. But what if governments don't listen?  Then we need to act. #ScientistRebellion https://t.co/SURJcrNcMA",95,0
1375432199072276485,"2021-03-26T12:59:25Z","Weekend sale of the Old Gods infested with Space Invaders.  These things should be sitting in someone's collection, not gathering dust! Bringing the price down; 0.7 Eth to 0.17 Eth; basically what they were released at before Eth went 🚀. https://t.co/xCpAdTnrO3 @BuildWithCargo https://t.co/Wuv5jpflq9",13,0
1375432198799585283,"2021-03-26T12:59:25Z","@CashNCrypto @domscrypto @boar_eth Donee🙏🙏🍀 https://t.co/WROioWaQIb",0,0
1375432197642055683,"2021-03-26T12:59:24Z","#poolz #uniswap #DeFi #ETH #Crypto #bepronet #liberezcrypto4youOFF #tacoswap  Welcome to our new dex! 🌶  Let’s see you on Telegram  https://t.co/o9xMAxk38s https://t.co/3LMlhH1vzG",5,0
1375432195075149825,"2021-03-26T12:59:24Z","Ripple/XRP-Ripple Has New Court Date,Ripple Wants Documents Sealed From Public,China Speaks At BIS  https://t.co/Qn0TkrEs7b  #XRP #BTC #ETH #BCH #LTC #xrpthestandard #ripple #ripplenews #DigitalPerspectives #Crypto #CryptonairesDocumentary https://t.co/9GdmCHb8om",104,0
1375432185780535296,"2021-03-26T12:59:22Z","@safex My $SFT is staked. Looking forward to collecting the Safex Cash $SFX dividends they generate. Glad I put some $BTC and $ETH into $SFT. Wrapped Safex Cash is coming, that'll be tradable on @Uniswap. $UNI https://t.co/61ygCaTgYo",14,2
1375432182735515653,"2021-03-26T12:59:21Z","#DENT - The world’s first digital and global mobile operator. This video gives a quick overview and supports our growing partner activities around the world: https://t.co/tciOAixkpO #dentcoin #esim #worldwide #traveling #mobile #data #blockchain #eth #btc #apple #iphone #android",1023,2
1375432181577699333,"2021-03-26T12:59:21Z","RT @CashNCrypto: $150 to one person in 48hrs  Rt &amp; follow me + @domscrypto &amp; @boar_eth",2067,2
1375432174292381699,"2021-03-26T12:59:19Z","Make sure you time it perfectly, these bitches ain't loyal! 🤣🤣🤣🤣🤣 $NVDA $TSLA $AMC $GME $VTHO $RVN $DOGE $SKL $ANKR $BTC $ETH https://t.co/qhkE5kj1eW",4,0
1375432167942201345,"2021-03-26T12:59:17Z","🔄 Prices update in $USDT (1 hour):  $BTC - 53037.48 $      (+0.79 %) $ETH - 1633.63 $       (+0.97 %) $DOT - 31.72 $         (+0.41 %) $ADA - 1.22 $          (-3.53 %)  #BTC #ETH #DOT #ADA #Crypto #Bitcoin",0,0
1375432167841529861,"2021-03-26T12:59:17Z","RT @_CryptoSam: #BTC dominance   some massive #alt gains gonna be made once this nukes down to 50%   $LINK $ETH $BAL #DeFi 🚀 https://t.co/r…",5,0
1375432163835973645,"2021-03-26T12:59:16Z","@JJcycles A deeper pullback always feels on the cards with ETH. ETHd has also not progressed much this week so am also expecting pretty much the same. Either way, ⬆️ 🤞🏼",0,0
1375432162590126081,"2021-03-26T12:59:16Z","I will be giving away $1000 $USDT 🎁 to 5 (x200) people who: 1. Follow me 2. Retweet this 3. Like the post  To get double ($400) if you win, tag 2 friends in the comments!  Contest ends on the 25th of March. GL!  ---  #crypto #defi #nfts $btc $eth $doge $cake $uni $ada $dot $luna https://t.co/oT3KA0auWp",651,0
1375432142277214210,"2021-03-26T12:59:11Z","VeChain is a solution to a huge problem in the world, has strong fundamentals and strong technicals, and it’s still under a dime.  “There’s no stronger project in the supply chain tracking space. 🔥  #VeChain $VET #VeFam $BTC $ETH $DOGE $XRP $ADA  https://t.co/9mccNTK6ys",386,0
1375432138544181249,"2021-03-26T12:59:10Z","RT @CashNCrypto: $150 to one person in 48hrs  Rt &amp; follow me + @domscrypto &amp; @boar_eth",2067,0
1375432138384842756,"2021-03-26T12:59:10Z","RT @CashNCrypto: $150 to one person in 48hrs  Rt &amp; follow me + @domscrypto &amp; @boar_eth",2067,0
1375432138133184524,"2021-03-26T12:59:10Z","📢Congrats！First launch on Uniswap！ 🚀USDT-NFTs trading pair is live！ 🚀The contract address:  0x6599fc3e77cbfa6f6e9cac605a30b1e78827eba0  💰Hold more NFTs, be richer！  🌸Like、Retweet &amp; Tag 3 friends  🚀Select 10 addresses to airdrop 1,000,000 NFTs, leave wallet #ETH address https://t.co/Slor4FBQzP",2943,0
1375432133431291908,"2021-03-26T12:59:09Z","RT @CashNCrypto: $150 to one person in 48hrs  Rt &amp; follow me + @domscrypto &amp; @boar_eth",2067,0
1375432130449260544,"2021-03-26T12:59:08Z","🔻🔻🔻 $ETH Short Position 🔻🔻🔻 Entry Price: 1636.44 Target:1628.58 Stop:1653.13 #Crypto #AlgoTrade #BinanceFuture #Sell #ETHUSDT #ETH",0,0
1375432129480298497,"2021-03-26T12:59:08Z","No need to spend your own money to trade #cryptocurrency. Over 10K users won crypto rewards on @latokens last week. It's the best way to join the financial revolution. Start by earning a share of $100K in CLIQ airdrop: https://t.co/yYQoo2SepO #Bitcoin #ETH #Citi #AON #LATOKEN",0,0
1375432124736544776,"2021-03-26T12:59:07Z","Is it really going to be that easy for everyone that you just need to survive until EOD 3/26 and all of our bags moon again?  Seems too simple... does that mean it will work or won't work? $btc #bitcoin $eth https://t.co/WNVuCJIexB",3,0
1375432119325843459,"2021-03-26T12:59:06Z","RT @Dagnum_PI: @Chad_DAG_Nasty @TheCryptoLark Exactly...why $DAG node on #ETH = free ETH  Simple...even my Dog could do it https://t.co/pcn…",4,0
1375432117417431040,"2021-03-26T12:59:05Z","THE REVOLVING DOOR OF CORRUPTION AT THE @SEC_News   So Hinman goes to the SEC and gratuitously declares #BTC and #ETH as non-securities.    He collects millions from his law firm while his law firm is heavily connected to #BTC and #ETH.   But it doesn’t stop there. https://t.co/fjWcnZjdMR",1169,0
1375432116687699969,"2021-03-26T12:59:05Z","@CashNCrypto @domscrypto @boar_eth Done thank you",0,0
1375432113126731777,"2021-03-26T12:59:04Z","🏆 Follow us &amp; Retweet this tweet, Specify the ETH address in the tweet comment to get 10 #BIT ($10 worth) or 50 #BIT ($50 worth) #BitScores Airdrop Tokens! 🎁 $250,000 Prize Pool Full rules: https://t.co/N53M5nRXr9  #giveaway #airdrops #bounty #giveaways #defi #eth #btc #airdrop https://t.co/m77hDtRsBv",3577,0
1375432111767703554,"2021-03-26T12:59:04Z","🏆 Follow us &amp; Retweet this tweet, Specify the ETH address in the tweet comment to get 10 #BIT ($10 worth) or 50 #BIT ($50 worth) #BitScores Airdrop Tokens! 🎁 $250,000 Prize Pool Full rules: https://t.co/N53M5nRXr9  #giveaway #airdrops #bounty #giveaways #defi #eth #btc #airdrop https://t.co/m77hDtRsBv",3577,0
1375432085553377294,"2021-03-26T12:58:58Z","@akocedoy ETH ruining great projects because of high gas fees smh 😤",1,0
1375432084240494594,"2021-03-26T12:58:57Z","🏆 Follow us &amp; Retweet this tweet, Specify the ETH address in the tweet comment to get 10 #BIT ($10 worth) or 50 #BIT ($50 worth) #BitScores Airdrop Tokens! 🎁 $250,000 Prize Pool Full rules: https://t.co/N53M5nRXr9  #giveaway #airdrops #bounty #giveaways #defi #eth #btc #airdrop https://t.co/m77hDtRsBv",3577,0
1375432081338036228,"2021-03-26T12:58:57Z","RT @CashNCrypto: $150 to one person in 48hrs  Rt &amp; follow me + @domscrypto &amp; @boar_eth",2067,0
1375432080432144394,"2021-03-26T12:58:56Z","🏆 Follow us &amp; Retweet this tweet, Specify the ETH address in the tweet comment to get 10 #BIT ($10 worth) or 50 #BIT ($50 worth) #BitScores Airdrop Tokens! 🎁 $250,000 Prize Pool Full rules: https://t.co/N53M5nRXr9  #giveaway #airdrops #bounty #giveaways #defi #eth #btc #airdrop https://t.co/m77hDtRsBv",3577,0
1375432078007877634,"2021-03-26T12:58:56Z","@Neo_Blockchain eat your hart out!!  🤭🤭🤭😂😂😂  @stratisplatform #strax $strax @OpdexProtocol #Cryptocurrency #Binance #BSC #btc #eth #uniswap #dao #defi #ntf #passiveincome https://t.co/6m8Rtfmb59",35,14
1375432075642298370,"2021-03-26T12:58:55Z","RT @scoinaldo: We aren’t finished before $BTC 150k and $ETH 9k.  Good Night 🌙",3062,14
1375432072349708288,"2021-03-26T12:58:54Z","RT @CashNCrypto: $150 to one person in 48hrs  Rt &amp; follow me + @domscrypto &amp; @boar_eth",2067,14
1375432070466506756,"2021-03-26T12:58:54Z","Well well well #Holochain number 1 again. It's only a matter of time till this rockets. #btc #Binance #ETH #CryptoNews #cryptocurrency #invest #investment #tech #technews #XRP #ada #Cardano https://t.co/TefBbTXrse",110,14
1375432067878649856,"2021-03-26T12:58:53Z","In an act of #civildisobedience, scientist pasted large scale academic papersrelated to the #climatchange! They want to raise awareness, that even if sustainability plays a major role in teaching and research at ETH, its funding is partly still dependent on investments ... https://t.co/7NtgEd8OEz",39,14
1375432058005295108,"2021-03-26T12:58:51Z","@cz_binance @binance The best system if ever, Mydexchain means much more than Bitcoin and Etherium in terms of transaction speed, but also suitable for Business Integration #Mydexchain",9,14
1375432055329157120,"2021-03-26T12:58:50Z","WARNING! MASSIVE airdrop!   $QDAO is a true gem, since 2019, by famous team, just 10 mln cap  1. Go now to Twitter @QDefi  or telegram https://t.co/QOFQA1Noc7   2. Get your free tokens  3. HOLD this gem until 10x   (soon - launch cross-chain tool for BSC, DOT and ETH) https://t.co/BlYQQFIyaC",10,14
1375432054058446855,"2021-03-26T12:58:50Z","No need to spend your own money to trade #cryptocurrency. Over 10K users won crypto rewards on @latokens last week. It's the best way to join the financial revolution. Start by earning a share of $100K in CLIQ airdrop: https://t.co/ouGjLlGbU6 #Bitcoin #ETH #Citi #AON #LATOKEN",0,0
1375432042393993216,"2021-03-26T12:58:47Z","@floyd_73 @singularity_net @IOHK_Charles Built on ETH and not ada?",0,0
1375432039181209600,"2021-03-26T12:58:47Z","NFT Linked to New York Times is Sold for $560,000 in ETH  https://t.co/S6IvFcAaBP",0,0
1375432038950506501,"2021-03-26T12:58:47Z","Filecoin valuation $200B &gt; Eth $188B  Seems about right.",0,0
1375432038681956352,"2021-03-26T12:58:46Z","@BitScores 0x01f6Bdc41B82d21064189EB481a61081673778c4 #BIT  #giveaway #airdrops #bounty #giveaways #defi #eth #btc #airdrop https://",0,0
1375432036928868354,"2021-03-26T12:58:46Z","Thank you to all of our partners which make this possible: @ETH, @eth_dmavt, @TU_Muenchen, @TUM_Hyperloop, @HS_EmdenLeer, and @UniOldenburg!🚀",4,1
1375432036794695685,"2021-03-26T12:58:46Z","️Ⓜ️ #IMe #Messager #Airdrop  like TelegramⓂ️   💰#Wallet Create Get 30AIC 👨‍👦‍👦Refer Get 10AIC  ✅🌐 👉 https://t.co/b8UZRKhUTB  1. Retweet + Like #CTBot Adrop Ram 2 TRX 90 #btc  #eth #bsc  #Free #Crypto #DeFi #nft #socialmedia #news #altcoins https://t.co/KxL75fsdeR",58,1
1375432028112424961,"2021-03-26T12:58:44Z","@collective_cbd @Roberto10578452 @0ldD0gNewTricks @BTCknow1 @CL207 @vevecollectible at most this creates a neutral pressure. in practice this still creates positive buying pressure as not all artists will liquidate 100% of proceeds, and some interested parties will keep some eth on hand to be able to quickly purchase new drops",2,0
1375432025214230535,"2021-03-26T12:58:43Z","RT @QuintenFrancois: This is why $ETH is here to stay... https://t.co/USHKA6o26A",2745,0
1375432024878628864,"2021-03-26T12:58:43Z","This is what $ada holders have invested in.  102 papers, a CEO that spends more time rambling on youtube rather than onboarding DApps &amp; developers and an '$eth killer' narrative used by big youtubers who bought bags in 2019 at all time lows and made deals with Charles + Whales https://t.co/icJj5wRECH",85,0
1375432023800573953,"2021-03-26T12:58:43Z","@CashNCrypto @domscrypto @boar_eth Done! Tysm ❤️🍀 https://t.co/0VlAzjgL6V",0,0
1375432017790132225,"2021-03-26T12:58:41Z","RT @QuintenFrancois: This is why $ETH is here to stay... https://t.co/USHKA6o26A",2745,0
1375432017228099588,"2021-03-26T12:58:41Z","@CashNCrypto @domscrypto @boar_eth Pick me",0,0
