"ID","created_at","text","like_count","rt_count"
1375515389044482050,"2021-03-26T18:29:59Z","📣 💰 Receive free 100 ANO (Value 0.4 ETH) Worth ~$600 + 100 ANO $600 / Ref (airdrop)  ⬇ Register:  https://t.co/1CaO1ZLWOX  ❗- Verify your Email    ❗- Download App with Arrano Network Exchange   ❗- Login &amp; Check your Balance ________  #airdrop #CTBot Adrop Ram 50 TATM 50 https://t.co/1xzFF5hQgU",32,0
1375515386393677827,"2021-03-26T18:29:58Z","➡️ 💸 Withdrawal for 2.53 ETH ($4,192.47) https://t.co/C37Gk8Uwww",0,0
1375515371784925184,"2021-03-26T18:29:55Z","$FEG family,  Please fill this form to request FEG to be listed on OpenOcean exchange  (  https://t.co/70OWUpaK8t  ). Fill it for both BSC and ETH  https://t.co/stYhhDz0jw",54,0
1375515371743047682,"2021-03-26T18:29:55Z","This week has been so fun!! 🙃  #stocks #stockmarket #nasdaq #spy #qqq #gme #amc $gme $amc $aapl $tsla $zom $psth $pltr $dis #pennystocks #Crypto #bitcoin #doge #ETH #crash https://t.co/92L7ACSrkN",13,1
1375515368647655425,"2021-03-26T18:29:54Z","🔥 #KLV is among Top 10 trending searches on @LunarCRUSH on March 26 ahead of the 629M coin burn today!   $nim #nimiq $npxs #pundix $eth #ethereum $btc #bitcoin $icx #icon $ankr #ankr $ada #cardano $hot #holo $klv #klever 🔥 $theta #thetatoken https://t.co/WnrpKOiauH",325,1
1375515366944739330,"2021-03-26T18:29:53Z","@visualatelier8 @FadedNFT 🔥 #Verification on Rarible! On Sale 0.2 ETH 🔥  https://t.co/nbVdWE7qyM https://t.co/a83MFRXq8M",2,1
1375515364767920129,"2021-03-26T18:29:53Z","*GIVEAWAY*   To celebrate hitting 100 followers, we have decided to give one lucky follower $25 in $ETH.   All you have to do to enter is RETWEET and FOLLOW my account @PrestigeBulls.   Good luck everyone, we’ll announce the winner next week. #crypto #bitcoin $eRSDL $wCRES $LUNA",30,1
1375515348171063297,"2021-03-26T18:29:49Z","#Sticker &amp; #magnet collections!🤩 Each one also available separately and in different sizes!👊 Stickers both glossy, matte and transparent😎  #Polkadot #dot #defi #ethereum #eth #xrp #ripple #doge #bnb  #stellar #hodl #crypto #blockchain #bitcoin #btc #bull #moon #code #redbubble https://t.co/al0fBwo2WV",0,0
1375515344488464384,"2021-03-26T18:29:48Z","🔷Nexo Banking on Crypto  🔹Earn up to 12% Interest daily 🔹Borrow Cryptocurrencies Instantly   https://t.co/tBKp7AYlJY   #Bitcoin #Etherium #Doge #BNB #LTC #Crypto #ADA #Cardano",0,0
1375515330710183942,"2021-03-26T18:29:45Z","Welcome to massive Q DAO airdrop!   1. go now to telegram https://t.co/COyXgODY1z   2. Stay in telegram chat and wait announcement.  3. HOLD this gem until 10x   (soon - QDAO launch cross-chain for BSC, Polkadot and ETH)",4254,0
1375515320706732037,"2021-03-26T18:29:42Z","work in progress for IDREAM#002⏳⌛️⏳⌛️  #NFTart #NFT #Cryptoart #NFTartist #NFTBastards #smartshop #SMRTSHP #nftsmartshop #nftdrop #artshare #cryptoart #cryptoartist #nftartist #nftcollector #nftcollectors #nftcommunity #crypto #digitalart #art $ETH https://t.co/LeaWrSMeS0",4,0
1375515319905624066,"2021-03-26T18:29:42Z","RT @AlphaSeeker21: $LUNA is NOT an Altcoin! It should be in the same discussion as $ETH and #BTC but it’s 100x cheaper. Place your bets acc…",632,0
1375515305577881601,"2021-03-26T18:29:39Z","$eRSDL this chad just bought 18 ETH worth for his first purchase EVER ...  https://t.co/MRnlfcaISM https://t.co/WrsUh9iarR",117,6
1375515303459782657,"2021-03-26T18:29:38Z","@CryptoByKsquare $KDA has huge potential: Kadenas Chainweb design for its scalable Proof-of-Work blockchain is unique. Offering low fees, easy to deploy smart contracts with human readable smart contract language PACT, enabling interoperability to $luna, $atom or $dot &amp; bridging to $eth https://t.co/jgLwARDENW",0,0
1375515298103627777,"2021-03-26T18:29:37Z","very excited to announce the first ever bio death NFT wherein i will pin myself under a large rock and the last electrosignals from my brain will be harnessed to place a tokenized version of the moment my spirit leaves my body onto the blockchain, starting bid 5 eth",207,0
1375515298095194114,"2021-03-26T18:29:37Z","#nftgiveaway !! I've decided to give away BAT COUNTRY to one lucky #NFTcollector ! Just like this post Retweet Comment with your ETH address tag a friend Winner will be picked Sat the 27th!! #NFTs #nftart #NFTCommunity #cryptoartist #GiveawayAlert  https://t.co/4LOjsJIEWE",46,0
1375515292256792579,"2021-03-26T18:29:36Z","RT @ArtThreadkill: Spending 1 ETH on #NFTs today.  What are the can't miss pieces? #nftcollectors Shill me your art!",558,0
1375515275131424769,"2021-03-26T18:29:32Z","THE REVOLVING DOOR OF CORRUPTION AT THE @SEC_News   So Hinman goes to the SEC and gratuitously declares #BTC and #ETH as non-securities.    He collects millions from his law firm while his law firm is heavily connected to #BTC and #ETH.   But it doesn’t stop there. https://t.co/fjWcnZjdMR",1169,0
1375515272270934016,"2021-03-26T18:29:31Z","“Land Of The Outlaws” is now available as a 1/1 Edition on @withFND   Reserve price: 0.5 ETH Check it out here → https://t.co/JUoZmyCnvm  All shares are appreciated 💛 https://t.co/PGJyGH0KHC",162,0
1375515264796684288,"2021-03-26T18:29:29Z","6pm Friday and #fbf to favourite things.  One Friday in Zürich. En route to a shoot. Happy Friday. @ETH_en @eu_Robotics  #science #technology #robotics #chocolate  #filming #production #story #film #yesplease  #TGIF #fridayfeeling https://t.co/fRt44wjoO0",2,0
1375515261239889921,"2021-03-26T18:29:28Z","30 day EVIX: 87.5605 ETH/USD vwap: $1,660.98 04/16 expiry volume: $1,943,145.27 04/30 expiry volume: $4,713,397.83 Current time: 18:29:05",0,0
1375515261013385222,"2021-03-26T18:29:28Z","“Land Of The Outlaws” is now available as a 1/1 Edition on @withFND   Reserve price: 0.5 ETH Check it out here → https://t.co/JUoZmyCnvm  All shares are appreciated 💛 https://t.co/PGJyGH0KHC",162,0
1375515258765209602,"2021-03-26T18:29:28Z","@santisiri @antiprosynth He meant ETH.  But he don't know. https://t.co/r0m5T8rc5F",2,0
1375515226943094790,"2021-03-26T18:29:20Z","@Mercurialbb1 $KDA at ~70m market cap Kadenas Chainweb is a Proof-of-Work blockchain but unlike $ETH scalable. It offers low fees and fast transactions, cross-chain transactions to $dot, $atom or $celo, Founders were part of JPMorgans blockchain division #Kadenaswap coming early Q2",0,0
1375515223163949056,"2021-03-26T18:29:19Z","Use #cryptocurrencies #bitcoin #BTC #Ethereum #ETH #XMR? So you trust #decentralized networks with your money. #Rakem is the secure decentralized messenger. #Android #Windows #MACOS &amp; #iOS  (#Linux use #wine). Get total #encryption #privacy everywhere https://t.co/nrzgaFmODl https://t.co/ORxVEyOoz3",2,0
1375515214771150850,"2021-03-26T18:29:17Z","Crypto looking like it may have a lil weekend pop. Taking starters in my favorite beat down mining stocks. Pay me #Bitcoin #Litecoin #etherium $ebon $lghl u know the fucking deal let’s get it",4,0
1375515210769788930,"2021-03-26T18:29:16Z","RT @EyeChozenOne: $GVT creeping up 👁  next big defi project 🤭 4.4m supply 👽   $btc $eth $dash $fun $xrp $doge",19,0
1375515204117692418,"2021-03-26T18:29:15Z","11 mins left on my genesis piece with a current bid of 1.1 ETH by ferchdaddy, will @mbsjq answer with a counter bid? 😳 https://t.co/opXNGopHpj",49,0
1375515203790544899,"2021-03-26T18:29:15Z","$btc $eth #btc #eth $vet $vtho #vet #vthor #VeChainThor #VeChain #ada $ada #zil $zil #doge $doge #dogecoin #dent #dentcoin #dentwireless #npxs #cryptocurrency #Crypto DENT WIRELESS Power ! Great project ! 🚀🚀🚀 https://t.co/a0rqV0wXwr",4,0
1375515200678359042,"2021-03-26T18:29:14Z","Use #cryptocurrencies #bitcoin #BTC #Ethereum #ETH #XMR? So you trust #decentralized networks with your money. #Rakem is the secure decentralized messenger. #Android #Windows #MACOS &amp; #iOS  (#Linux use #wine). Get total #encryption #privacy everywhere https://t.co/nrzgaFmODl https://t.co/ORxVEyOoz3",2,3
1375515199659143168,"2021-03-26T18:29:14Z","🔘 https://t.co/HyXJpoAgWb the cheapest and best quality/price ratio SMM Reseller Panel services  @MainpanelCom   🪙 Accepts: #BTC, #ETH, #LTC, #USDC &amp; other #cryptocurrencies  🌐 Special offers for Cryptwerk users https://t.co/25scFqcRrV https://t.co/k9X31B0ON9",4,3
1375515186602205186,"2021-03-26T18:29:10Z","Decentralized Finance = A programmable global financial system allowing users a broad range of economic activities without relying on or requiring centralized parties #DeFi #Eth",0,0
1375515186145021952,"2021-03-26T18:29:10Z","@davidgokhshtein If you don’t know now you know $ETH $ONE",1,0
1375515170244493314,"2021-03-26T18:29:07Z","🔥 My new piece on @makersplaceco 🔥  Masked Shadow of the Disowned Self- Animated Musical Mp4  ❤️👇❤️ https://t.co/u76PCmBKu6  #art #cryptoart #nft #makersplace #ETH #nftart  #NFTartist #DigitalArtist #nftcollector  #NFTcollectibles https://t.co/9gBjCaeA22",23,0
1375515156185149441,"2021-03-26T18:29:03Z","New Airdrop: Diamond Crystal (DCT) Reward: 100 DCT ($100) Rate: ⭐️⭐️⭐️⭐️ Focus: Distribution starts after airdrop ends   Bot Airdrop Link: https://t.co/9Qzk47HUKt  #Airdrop #giveaway #BTC #ETH",4033,0
1375515155560235011,"2021-03-26T18:29:03Z","Gonna mint this #NFT (zoomed in and cropped here) on @withFND just as soon as #ETH gas fees aren't insane... Whenever that is lol https://t.co/g3o9n5fKDj",11,2
1375515152691290115,"2021-03-26T18:29:02Z","@GrennHouseGas yup, anywhere where you need a store of value which is held over the very long-term and zero risk of rugging  ETH is really the only choice",3,0
1375515147381338117,"2021-03-26T18:29:01Z","🔥 We are thrilled to announce $DYP listing on @kucoincom !  🔷 DYP/USDT &amp; DYP/ETH trading will start tomorrow, March 25th at 10AM UTC!  🔸 Stay tuned: More News and Activities TBA!  ✅ More News at: https://t.co/7xB73Xen1N https://t.co/uQ3Q5sPpq3",570,0
1375515141459042306,"2021-03-26T18:29:00Z","CryptoWorm #0075 is now minted on the ETH blockchain via @opensea 💛💚  PRICE:  Ξ0.01  TOTAL SUPPLY: 1000  #cryptoworm #cryptopunks #nftcollectors #NFTs #NFTCommunity  https://t.co/bhXliS4c4a",3,1
1375515133099659264,"2021-03-26T18:28:58Z","Play games on #bitcoin and earn HST tokens for playing.  HST tokens will be convertible to bitcoin - 10% of bitcoin used is deposited to loyalty wallet in real time.  White paper available.  Not on $eth not on $bnb and def not on $btc  Use link below:  https://t.co/UN8wOmzaYI",111,1
1375515120919474176,"2021-03-26T18:28:55Z","As you see the price rise, remember that in a few months or weeks you'll look back on this period in $FEG's history and barely remember these tiny pumps.  As you click Collect Staking Rewards and withdraw your $ETH or $BNB to lay down the deposit on your new car, or house...",701,1
1375515115571666944,"2021-03-26T18:28:54Z","🔥 WoW!!! $DYP getting listed on @kucoincom !  DYP/USDT &amp; DYP/ETH trading will start tomorrow, March 25th at 10AM UTC! Good job @dypfinance team!  #DeFi #uniswap #Ethereum https://t.co/Rw9qa5l5tA",2225,1
1375515110706343938,"2021-03-26T18:28:52Z","Exchange data shows $ETH whales and arbitrage desks bought the dip to $1,550 on March 25 and are now reducing their long positions in the face of surging Etheruem gas costs according to @noshitcoins. https://t.co/zontSJHVv9 https://t.co/JJPh1UxHpI",13,1
1375515108466515970,"2021-03-26T18:28:52Z","So this was a bitter sweet birthday present. I listed my @hackatao high enough a while back that I thought he was 'safe' but apparently not. I woke up to Kim Jong-un gone from my collection. Sad to see him go but wow, 152 ETH! Thanks very much @batsoupyum. 🙏 https://t.co/XYXjsH3BsX",233,1
1375515098119241728,"2021-03-26T18:28:49Z","6th #GIVEAWAY : Tester Opportunity &amp; #NFT  Looking for another 50 Testers using  #Uniswap #Sushiswap #Pancakeswap #Autofarm #Venus  to join new DeFi product testing &amp; get NFT!   1. RT &amp; Follow  2. Comment your BSC address 3. Join https://t.co/pap2QqUzA8  #Defi #BSC #ETH #Airdrop https://t.co/FPEMjr9YZk",191,1
1375515097225854977,"2021-03-26T18:28:49Z","🚀 Safe The Children  🔷 Token Symbol : STC  🔷 Contract: https://t.co/nk3qsF2PJV  🔷 Website: https://t.co/4y0g7dqswM  🔷 Whitepaper: https://t.co/PHPZI4dbyR  🔷 Presentation Video : https://t.co/Mycfov12IU  #Safe_Childrens #Bitcoin  #Binance #BinanceSmartChain #DEFI  #BTC #ETH",14722,1
1375515072190017536,"2021-03-26T18:28:43Z","Since this the launch of @dypfinance back in Dec 2020 looks like Liquidity Providers have earned $11.4 Million dollars in $ETH just from Staking!  Also the project is paying out is $ETH as well and so far 6.2K $ETH have been rewarded.   #DeFi #Crypto #Cryptocurrency #BitcoinTalk https://t.co/zis10XPcL7",1802,1
1375515072160665605,"2021-03-26T18:28:43Z","$BTC $ALTS $ETH $SXP $AMB $TRAC $UDO $PPAY https://t.co/AE1sj8jIoW",1,0
1375515070180978688,"2021-03-26T18:28:43Z","Gonna smoke a joint and spend some ETH today,   Shill me your #NFTs and #NFT art, I'm stoned and looking to invest 🍀  #NFTCommunity #nftcollectors",339,0
1375515068931002369,"2021-03-26T18:28:42Z","$ANKR Quick reminder that I first alerted this one at 0.048 📊  Price now - 0.135   181% GAINS ✅ 2 weeks ⏰   I know some people who got in with me here.   $BTC $ETH #NFT $PERL $ENJ $FLOW #BSC  $CHZ $ADA $LTC $XRP $DOGE $ATOM $LUNA $BNB $FET $DENT $DOT $LINK $SC $AVAX https://t.co/vaKB4zLuhj",26,1
1375515034508357633,"2021-03-26T18:28:34Z","Hello @Poolz__ community !  After @bepronet ,  Tomorow #tacoswap Dex open a new pool for poolz token owner.   You will have more rewards than uniswap !  See you tomorow ! Welcome !  #poolz #uniswap #DeFi #ETH #Crypto #bepronet #liberezcrypto4youOFF #tacoswap",1210,1
1375515024714690560,"2021-03-26T18:28:32Z","Hi, I'm #nftcollector, show me your art, I want to buy some #NFT Balance 609 Eth) #NFTCommunity  https://t.co/ek1X1Wbd0r https://t.co/epHc2Ll4G7",27,1
1375515024504987651,"2021-03-26T18:28:32Z","RT @davidgokhshtein: could $ETH be the next Trillion dollar asset?",1460,1
1375515019648004098,"2021-03-26T18:28:31Z","$AAVE $ADA $ALGO $ATOM $BNB $BTC $CAKE $COMP $DOT $ETH $GRT $IOTA $KSM $LINK $LTC $LUNA $MATIC $NANO $NEO $OMG $ONE $RVN $SNX $SUSHI $THETA $UMA $UNI $VET $ZIL  He meant: because of $ICX, the retirement age HAS INCREASED. many more years to work, than expected earlier..😞😞😞 https://t.co/6LptZhYd78",0,0
1375515009288003584,"2021-03-26T18:28:28Z","Good read 📕: #cardano (#ADA) price #predictions for 2021 #disruption #blockchain #Fintech #VC #NFT #bitcoin #ETH #payment #banking via ⁦@InvestorPlace⁩  https://t.co/2hiuG6aENi",2,0
1375515008361111553,"2021-03-26T18:28:28Z","@tlk_eth Moon Macaw #4 */Blurp/*   Blurp is the #4 Moon Macaw from the Tree Series.   He likes painting. His favourite painter is Pollock.  #nft #NFTartist #NFTs #NFTCommunity #pixelart #moonMacaw #bitclout   https://t.co/E8nwW03XNG",0,0
1375514998244446209,"2021-03-26T18:28:26Z","Float Protocol is a two token, partially collateralized non pegged stablecoin protocol.  FLOAT draws its value from its underlying basket of collateral (ETH), and is stabilized through auctions.  BANK backstops FLOAT, earns protocol profits, and governs the Float protocol.  1/ https://t.co/eblKcaU3bd",66,0
1375514990401101828,"2021-03-26T18:28:24Z","$dego Is about to make a massive move! NFT Exchange!  $btc $eth",1,0
1375514973598703620,"2021-03-26T18:28:20Z","RT @davidgokhshtein: could $ETH be the next Trillion dollar asset?",1460,0
1375514962831929345,"2021-03-26T18:28:17Z","$50,000 #Bitcoin floor?  $1600 $ETH floor?  Who would’ve thought that, when a year ago BTC was trading at $6000, and ETH was trading at $120  So when we’ve pulled back a little bit, think about the potential growth from here.  When im doubt, zoom out  Top is not near imo https://t.co/rN1NEtEkZX",87,0
1375514961942769664,"2021-03-26T18:28:17Z","RT @TheBlock__: ETH likely a 'significantly safer' investment than NFTs, says L'Atelier BNP Paribas CEO https://t.co/iAMNMcPKJN",184,0
1375514960868958209,"2021-03-26T18:28:17Z","Exchange data shows $ETH whales and arbitrage desks bought the dip to $1,550 on March 25 and are now reducing their long positions in the face of surging Etheruem gas costs according to @noshitcoins. https://t.co/wHds2LFktX",61,0
1375514954468532224,"2021-03-26T18:28:15Z","Result for FREE signal 668487 #DBC/ETH at #HUOBI  Stop loss hit at 0.00000944 with 7.09% loss  Signal closed after 31 minutes  #cryptocurrencies #trading",1,0
1375514953772380167,"2021-03-26T18:28:15Z","Something fishy going on  A big dump may arrive today 1000s of $btc are taken to coinbase,binance,okex From wallets conversion to usdt have started Trade with strict stop loss $Btc $ETH $ADA $DOT $LINK $ORN $EGLD $BAND $ANKR $WAVES $BNB $BEL $ONE $ALICE https://t.co/2tNeahfXy4",1,1
1375514950299344898,"2021-03-26T18:28:14Z","End of month @VIDT_Datalink burn!  $vidt will burn 75k coin + buybback 37,5k coins = 115000$ $ada $akro $gvt $req $xtz $matic $egld $uni $coti $doge $sxp $aave $theta $eth $vidt $btc $reef $xem $rvn $xlm $xrp $zec $sushi $lit #holo $trx $bnb $link $iota $dot $atom $iost $vet $mkr https://t.co/sQMS6lHL47",21,1
1375514931668209670,"2021-03-26T18:28:10Z","🏆 Follow us &amp; Retweet this tweet, Specify the ETH address in the tweet comment to get 10 #BIT ($10 worth) or 50 #BIT ($50 worth) #BitScores Airdrop Tokens! 🎁 $250,000 Prize Pool Full rules: https://t.co/N53M5nRXr9  #giveaway #airdrops #bounty #giveaways #defi #eth #btc #airdrop https://t.co/m77hDtRsBv",3577,1
1375514916971446275,"2021-03-26T18:28:06Z","I just listed this new piece on @opensea! #opensea https://t.co/ODo0MP8jw4 #nft #nfts #nftart #nftcollector #collectible #crypto #cryptoart #digitalart #Exoplanets #OS1910 #story  @DigitalArt #eth #NFTCommunity #nftartist https://t.co/nzIGCRBnJW",0,0
1375514908498923525,"2021-03-26T18:28:04Z","RT @Harlum_UK: My top 10 #crypto holdings:  1. $BTC 2. $ETH 3. $DOT 4. $BNB 5. $MATIC 6. $CRO 7. $BAX 8. $POLK 9. $REEF 10. $XRP  What abou…",11,0
1375514907278385155,"2021-03-26T18:28:04Z","🔥 My new piece on @makersplaceco 🔥  Masked Shadow of the Disowned Self- Animated Musical Mp4  ❤️👇❤️ https://t.co/u76PCmBKu6  #art #cryptoart #nft #makersplace #ETH #nftart  #NFTartist #DigitalArtist #nftcollector  #NFTcollectibles https://t.co/9gBjCaeA22",23,9
1375514906254995458,"2021-03-26T18:28:04Z","@BlackFangAVI @cryptocom @Bosslogic @AstonMartinF1 Card, or cryptocurrency.. BTC, CRO, ETH !",2,0
1375514901746098183,"2021-03-26T18:28:03Z","🎁$15 Follower-only Giveaway🎁  🔹️Like &amp; Retweet for a chance to win! 🔴 Only people that followed me before I tweeted this can win!  Winner announced in 24 hours! 🥳  #Crypto #cryptocurrencies #Giveaway #DGB #COTI #MANA #BTC #HOT #ONE #ETH #DOGE #MBL #CHZ #ENJ",39,0
1375514899464421382,"2021-03-26T18:28:02Z","Join Robinhood with my link and we'll both get a free stock 🤝 $BBBY $SRNE $SABR $ETH $BBBY 🚀🚀 https://t.co/FAhp3jV2rh",0,0
1375514894158548994,"2021-03-26T18:28:01Z","$NVDA $TSLA $AMC $GME $VTHO $RVN $DOGE $SKL $ANKR $BTC $ETH Trust the process! #Team40 https://t.co/44NxC2W3Bw",0,0
1375514888714391553,"2021-03-26T18:27:59Z","🚀 Pluto Coin  Airdrop 🚀 Rate: ⭐⭐⭐⭐ ⭐ 🎁 Reward:  8822 PLUT ($1500) 👫 Referral: 40.5 PLUT  ($7)  🤖Start Bot here   https://t.co/x5JZchojO8  ⛂ Join Telegram group and channel. ⛂ Follow twitter &amp; retweet  ⛂ Submit ETH address and details.",6005,0
1375514888269819907,"2021-03-26T18:27:59Z","Get in on $ankr if you haven't already. At this price it is still super cheap, and tons of buying pressure today. @coinbase listing pump in full effect! FOOD FOR THOUGHT: $grt was listed at $0.10 and shot up to $0.70 in the first few days on CB. $btc $eth $crv $storj $ada $ltc",3,0
1375514886504022019,"2021-03-26T18:27:59Z","The Pringles NFT art that is going for 2.5 Ethereum, or about $4,000 on Rarible, and some are being listed for meme prices, too, like 42,069 ETH. Probably a little high. https://t.co/c0DoJAvHrl",5,0
1375514881110077447,"2021-03-26T18:27:58Z","@sdesiggn @FadedNFT 🔥 #Verification on Rarible! On Sale 0.2 ETH 🔥  https://t.co/nbVdWE7qyM https://t.co/GY9WXLbwYD",0,0
1375514873216442370,"2021-03-26T18:27:56Z","RT @CryptoCapo_: $ETH soon https://t.co/WlEDTph5Nj",668,0
1375514863645061122,"2021-03-26T18:27:53Z","Check out this artwork by jenstark on @withFND! 🌐  Its's now 12.5 ETH @mondoir Auction is going on ..@mondoir  https://t.co/XhTHJ5Bsxr  @cuneytozdemir",0,0
1375514858838323203,"2021-03-26T18:27:52Z","I'll send $500 in #ETH or #BTC to one person who retweets this and follows @bud_crypto. Must complete these tasks:  1 - Like/RT his pinned tweet  2 - Must RETWEET &amp; LIKE 4 of his tweets  Ends in 72 hours!",1406,0
1375514852458827777,"2021-03-26T18:27:51Z","Play games on #bitcoin and earn HST tokens for playing.  HST tokens will be convertible to bitcoin - 10% of bitcoin used is deposited to loyalty wallet in real time.  White paper available.  Not on $eth not on $bnb and def not on $btc  Use link below:  https://t.co/UN8wOmzaYI",111,0
1375514847647920130,"2021-03-26T18:27:50Z","We're in the last 45 minutes for Sleeping With the Fishes. If you're a well to do someone somewhere who fancies outbidding @rudyadler who currently has it on 2 eth, please do! The crew are manifesting 4 eth- will it happen??? https://t.co/61XLlDHDut https://t.co/gU8oOF7oca",48,0
1375514846293229570,"2021-03-26T18:27:49Z","@SuperRareBot @robnessofficial was having anxiety about not owning a #Robness on SR (gonna moon - Rob's OG status)  now i'm feeling great!   btw (shill alert!!) i have Rob's first digitial signature for only 5 eth https://t.co/r5FYQq5YEW  &amp; i'd also be open to offers on this KO #1 https://t.co/Ir7JO3r4bG",4,0
1375514841352265730,"2021-03-26T18:27:48Z","⚠️SCAM ALERT⚠️ This page started their scamming as yPAXG in December 2020. They acted like they were associated with Paxos. Many fell for it. They got away with millions in ETH. Now they trying to do the same with Veve! Dont send them nothing!🚫 #VeVe #ecomi #SCAM #rt https://t.co/kSC4f9xxIw",4,1
1375514823920787458,"2021-03-26T18:27:44Z","Exchange data shows $ETH whales and arbitrage desks bought the dip to $1,550 on March 25 and are now reducing their long positions in the face of surging Etheruem gas costs according to @noshitcoins. https://t.co/wHds2LFktX",61,1
1375514821358100481,"2021-03-26T18:27:43Z","$omg upside down chart from the man himself.  2 golden crosses on the weekly waiting to propel it to the ATH. An iH&amp;S on log weekly.   It doesn't get more bullish than that.  $BTC $ETH $XRP $DOT $ADA $LTC $BNB $XLM $UNI $AAVE $DOGE $SNX $EOS $MKR $ATOM $XTZ $SUSHI $SOL $UMA $DAI https://t.co/MASX6nINAs",0,0
1375514809026809857,"2021-03-26T18:27:40Z","@Crypto_maggss @iohanv @scottmelker I sell #NFTs of my feet, exchange the dirty $eth for #Bitcoin this is how I roll.",2,0
1375514806543806467,"2021-03-26T18:27:40Z","RT @WorldCoinIndex: Cryptocurrencies $ETH $LTC $DASH $XMR $ZCASH https://t.co/Vn54eNYPhz https://t.co/Q43FwWBW1Y",1,0
1375514800600403968,"2021-03-26T18:27:38Z","Dr. Baird describes the history of market cycles when asked if $HBAR puts an end to #Bitcoin &amp; $ETH 👀  Will $HBAR be among those 3-4 big cryptos at the top going forward? 😉 https://t.co/K677jw2vYF",125,0
1375514774813827073,"2021-03-26T18:27:32Z","@StackerSatoshi Satoshi stacker I appreciate what your doing‼️ can you please show the alts to BTC charts more often Ada/BTC ETH/BTC etc as I’m trying to stack satoshis",1,0
1375514772938973185,"2021-03-26T18:27:32Z","Cool! Many people don't actually realize this, but you can send funds to ANY Ethereum address using Loopring L2. As you see below, costing only 0.0001 ETH.   Doesn't matter if the recipient is aboard already, or if they have never even heard the word rollup 💸 https://t.co/m76OKbMIhd",196,0
1375514768040030208,"2021-03-26T18:27:31Z","RT @AlphaSeeker21: $LUNA is NOT an Altcoin! It should be in the same discussion as $ETH and #BTC but it’s 100x cheaper. Place your bets acc…",632,0
1375514762260275202,"2021-03-26T18:27:29Z","Christmas Elf Hat was purchased for 0.1336 $ETH ($222.94 USD = 0.1336 $ETH) by https://t.co/7QS0S5PtH3 from https://t.co/HvLWTfvthP https://t.co/HiQmI6Hlpx #decentraland #wearables https://t.co/vEkFyn3w1S",3,1
1375514754618290176,"2021-03-26T18:27:27Z","@GPujs it happens.   I hate it also because of that high fees to trade on ETH. its only worth IMO with super high volume.",2,0
1375514746955329539,"2021-03-26T18:27:26Z","I keep hearing about L1 traction on other networks but all I see is #L2Ethereum @0xPolygon adding multiple new projects to the network EVERY SINGLE DAY  Reality check: The “L1 race”, for the moment, is non existent, except between #Ethereum &amp; her derivative L2 network $ETH $MATIC",374,0
1375514744770060288,"2021-03-26T18:27:25Z","RT @sqashiel: @visualatelier8 @FadedNFT 🔥 #Verification on Rarible! On Sale 0.2 ETH 🔥  https://t.co/nbVdWE7qyM https://t.co/t4Ej6CusrO",1,0
1375514741393686529,"2021-03-26T18:27:24Z","@scott_lew_is BTC is being hyper-tokenized on ETH. Gold as synthetics. At scale ETH is unstoppable.",1,0
1375514730903707648,"2021-03-26T18:27:22Z","Today was an AMAZING DAY to #tacoswap !  🦎🦎🦎   See you tomorrow for the next step ! 🤯🤯   You re not ready for sure!!  🌶🌶🌶🚀🚀🚀  $eth $btc $xrp $vet $uni $sushi $bnb $dot $ada $mana $dent $dcn $chz $pmon $feg $shib $busd $usdt $bepro https://t.co/07O8JpjRjN",2,0
1375514718530543619,"2021-03-26T18:27:19Z","@HPNN Etherium for the long haul.",2,0
1375514718337605635,"2021-03-26T18:27:19Z","@iamDCinvestor The third clincher is likely to be widespread use of ETH as the core store of value in DAO treasuries",1,0
