"ID","created_at","text","like_count","rt_count"
1376889438303739907,"2021-03-30T13:29:58Z","RT @Wades_ETH: When MJ sees his Run It Back moment then sees the price tag @nbatopshot https://t.co/4YtfF2WL8A",231,44
1376889436168810497,"2021-03-30T13:29:57Z","The DEX @FinanceChainge is set to launch on the @FUSIONProtocol network with over a million users on the protocols waitlist. This decentralized exchange aims to innovate on traditional models through leveraging the Fusion Network.  #BSC #BTC #ETH #BNB  https://t.co/xx55YiGfm3",21536,13658
1376889433870454786,"2021-03-30T13:29:57Z","RT @CryptoMobsterYT: A little tease for this evenings video... We talk about $ETH and its potential for growth. #ETH https://t.co/Siio7B54Fy",20,1
1376889429747511305,"2021-03-30T13:29:56Z","@immasssi One of the most obvious inefficiencies in this market and the best example that narrative/hype is driving prices instead of fundamentals. Over time, this will change. Atom feels like Eth at 20$ 4 years ago. Enjoy while it lasts and seize the opportunity",5,1
1376889429319581697,"2021-03-30T13:29:55Z","Welcome to massive Q DAO airdrop!   1. go now to telegram https://t.co/COyXgODY1z   2. Stay in telegram chat and wait announcement.  3. HOLD this gem until 10x   (soon - QDAO launch cross-chain for BSC, Polkadot and ETH)",4218,6165
1376889425209262082,"2021-03-30T13:29:54Z","RT @BLACKKSNEAKERS: just placed a 2 eth bid on 'la violetera' on @SuperRare 🦋 the auction is live, go support yosnier if you can!",50,7
1376889421828526083,"2021-03-30T13:29:54Z","What a day! @Visa is ready, @PayPal is ready, @Verifone @Ingenico @PundiXLabs #XPOS #FXwallet are ready. Are you ready for #btc #eth #npxs #fx #pundix #cryptocurrency? https://t.co/TjJxdqOtBC",71,22
1376889421014913027,"2021-03-30T13:29:53Z","If you heard Visa is settling transactions on Ethereum &amp; your reaction was how can Ethereum do this when gas fees are high then...and I mean this with all respect...you don't understand how this works.  Visa can batch billions of $'s in one ETH transaction  Gas doesn't matter",1368,179
1376889417428701191,"2021-03-30T13:29:53Z","Punk 7483 bought for 19.99 ETH ($36,594.29 USD) by 0xdd23ab from 0xca8fe4. https://t.co/74XlGjBx1I #cryptopunks #ethereum https://t.co/PPBWgZH2TK",7,1
1376889411883962371,"2021-03-30T13:29:51Z","The first set of Ahegao NFTs sold out in a week, so I've been working on some more which are now live at https://t.co/MAOPR2F1DH  #pixel_dailies #nft #NFTs #nftart #nftartist #crypto #blockchain #eth #ethereum #digitalart #art #value #nftcollector #hentai #ahegao https://t.co/YWPHtqTMQv",78,704
1376889404229361666,"2021-03-30T13:29:49Z","$TCAKE more than 2x from my call  https://t.co/FlJraNrVBk  $BNB $BSC $OXB $BTC $ETH $JULD $Lead #GemAlerts #BinanceSmartChain #HODL https://t.co/waHnqi9wcX",19,7
1376889395089788930,"2021-03-30T13:29:47Z","Finally some NFTs that shake it to our Gachapon music! 🎶🎶  Twerky Plushies launching this Friday! 🐸🐸  1 ETH = 40 Spins!  1 SPIN = 1 Twerky Plushie but it's a mystery to find out what you get!  Exclusively on https://t.co/ms2VlDRJA3  $AZUKI $DOKI @0xPolygon #DeGacha #NFT https://t.co/U0Rt3vai8e",42,23
1376889388106326022,"2021-03-30T13:29:46Z","The DEX @FinanceChainge is set to launch on the @FUSIONProtocol network with over a million users on the protocols waitlist. This decentralized exchange aims to innovate on traditional models through leveraging the Fusion Network.  #BSC #BTC #ETH #BNB  https://t.co/xx55YiGfm3",21536,13658
1376889384511795206,"2021-03-30T13:29:45Z","@danheld Owning 32 ETH will be rare in the future.",4,0
1376889380879663108,"2021-03-30T13:29:44Z","RT @MetaCrypto2: I have 10 $ETH ready to deploy...what is going to outperform? $LINK $BNT $BTC",3,1
1376889366811979784,"2021-03-30T13:29:41Z","RT @EvenOyou: First 20 people who retweet their ETH FEG address and retweet will recieve 40 billion FEG token. 40,000,000,000.  @FEGtoken",118,80
1376889345886486532,"2021-03-30T13:29:36Z","☠️ WARNING! Last Remaining Standard Pirate Punk from #NFT drop #6 (0.0666 eth) https://t.co/gUMVft60UX 🏴‍☠️ ALL Legendary &amp; Rare SOLD OUT ⚡️ Standard is 33/111 🗺 Treasure Maps given to wallets holding 1 Legendary or 2 Rare or 2 Standard or 3 any combo of #PiratePunks ☠️ #nftart",5,0
1376889339481849859,"2021-03-30T13:29:34Z","🪴 First planting season on https://t.co/6wgqnJpM5r ends soon, block 12141500  Get your gear out of the barn 🚜👩‍🌾  https://t.co/UqotdioT3O https://t.co/APZHcPzAeZ",81,26
1376889334742319105,"2021-03-30T13:29:33Z","$SWGb gonna explode 🔥🚀  @Swirgenetwork   #bsc #BinanceSmartChain #binance $cake $bake $bifi $auto $watch $egg $eth $bnb #hiddengem https://t.co/c7WIm3228C",2,1
1376889334733885441,"2021-03-30T13:29:33Z","The DEX @FinanceChainge is set to launch on the @FUSIONProtocol network with over a million users on the protocols waitlist. This decentralized exchange aims to innovate on traditional models through leveraging the Fusion Network.  #BSC #BTC #ETH #BNB  https://t.co/xx55YiGfm3",21536,13658
1376889328899604480,"2021-03-30T13:29:32Z","$ETH at $2500 been waiting a while to see this happen.  Only a matter of time now.     #Ethereum #BTC #bullish https://t.co/ElaRZOdo8d",31,4
1376889328178200579,"2021-03-30T13:29:31Z","RT @whale_alert: 🚨 🚨  10,953 #ETH (20,167,566 USD) transferred from unknown wallet to unknown wallet  https://t.co/eVjGHXRyei",14,2
1376889325128982529,"2021-03-30T13:29:31Z","❗️#NFTGiveaway #CryptoCrawlerz ❗️  LIKE + RETWEET + FOLLOW @cryptocrawlerz TO ENTER 🐛🦋🐝💚  🐞(1) WINNER WILL RECEIVE (1) SERIES 02 / #003 / 'SCARLETT' 🐞  WINNER TBA 3/31 🔥  VIEW / PURCHASE ON @rariblecom 👇👇👇👇  https://t.co/skWtkNgWpu  #NFT $ETH #NFTCommunity #Cryptoart https://t.co/Ju1eycLJqY",225,153
1376889323119898628,"2021-03-30T13:29:30Z","30 day EVIX: 90.4723 ETH/USD vwap: $1,842.26 04/16 expiry volume: $1,636,989.04 04/30 expiry volume: $4,749,561.64 Current time: 13:29:04",0,0
1376889315712765952,"2021-03-30T13:29:28Z","@ivetools I need to get ETH 😩",1,0
1376889310302060547,"2021-03-30T13:29:27Z","@ArthurB @nic__carter @ChuckGoochee Then it will prove that Bitcoin to people is a better store of value than USD,  (ignoring XRP, ETH and LTC...), the new saving account.",0,0
1376889309190631424,"2021-03-30T13:29:27Z","RT @renderjuice: TWIST x TWIRL now available 0.111 ETH @opensea! #nft #opensea https://t.co/i43zd2Qz6p",6,3
1376889306837622792,"2021-03-30T13:29:26Z","Seems something is cooking for $TRAC 👀. Wondering if it is related to someone adding 200 eth liquidity on uniswap yesterday... I am buckled up towards top10 (team is aiming for top5, but I am keeping it conservative!) #adoption #StarFleetChain $DOT $STAKE #xdai @origin_trail https://t.co/0jf3des43q",50,13
1376889287069720578,"2021-03-30T13:29:22Z","Welcome to massive Q DAO airdrop!   1. go now to telegram https://t.co/COyXgODY1z   2. Stay in telegram chat and wait announcement.  3. HOLD this gem until 10x   (soon - QDAO launch cross-chain for BSC, Polkadot and ETH)",4218,6165
1376889278911836163,"2021-03-30T13:29:20Z","Excited to share a summerchool initiated and organised by EPFL @EPFL_CHEM_Tweet and ETHZ  @ETH_DCHAB chemistry PhD students in the framework of @NCCR_Catalysis. Registration will open on April 12. https://t.co/luxQVvn6yy",96,30
1376889276244361222,"2021-03-30T13:29:19Z","Jay Clayton, whose SEC declared #BTC and #ETH are not securities and removed all obstacles to trading them, now works for hedge fund that is betting on #BTC and #ETH.  (Coincidentally, he also sued @Ripple, crashed #XRP and forced its delisting.) https://t.co/W7boQD1zYq",2047,862
1376889274256158729,"2021-03-30T13:29:19Z","@GLISTEN_J @cz_binance @ChenHeina I received 30 ETH, thank you very much",0,0
1376889273153118209,"2021-03-30T13:29:18Z","What a day! @Visa is ready, @PayPal is ready, @Verifone @Ingenico @PundiXLabs #XPOS #FXwallet are ready. Are you ready for #btc #eth #npxs #fx #pundix #cryptocurrency? https://t.co/TjJxdqOtBC",71,22
1376889269831282689,"2021-03-30T13:29:17Z","⚠️ Flat Punk #20 has been listed for sale. ⚠️  LINK: https://t.co/Bp4iUjyt7U  Minted via  @opensea  #nft #nft #nftart #nftdrop #crypto #cryptoart #eth #nftcommunity #flatpunks #cryptopunks #unofficialpunks #punkverse",1,1
1376889258233958404,"2021-03-30T13:29:15Z","OK it's Tuesday  - Visa uses eth to settle USDC - PayPal turns on crypto for merchants - Tether attestation - CME micro futures - Dapper raises at $2.6B valuation  😅",40,5
1376889255130173441,"2021-03-30T13:29:14Z","RT @ivetools: $ETH will go absolutely nuclear this week. Just watch💰",7,2
1376889246259236867,"2021-03-30T13:29:12Z","My first drop on @withFND!🌐  @drouyang @3fmusic @vas_rel_por @caktux @timrix @zontedart @JabulonCrypto you are the best collector that i know on the market, and I challenge all of you in this game, only cost 0.70 ETH for the first round! #NFT @cryptoart  https://t.co/9JXIopRJwt",10,2
1376889245726502912,"2021-03-30T13:29:12Z","To celebrate our launch we decided to give away to the #NFT community:  ⚡️1 NiftyMask limited edition 1 ETH worth ⚡️$1500 in ETH  To enter: 📌Retweet 📌Follow @NiftyMasks  📌Tag 3 friends  End when gets 400 retweets, good luck!❤️😍 #NFT #NFTs #Giveaway #Giveaways #nftcollector https://t.co/jUfZouqpHD",374,360
1376889243797135368,"2021-03-30T13:29:11Z","What's interesting is that the VSYS swap smart contracts are twins, which is AMM the other is the Order book. So the DEX on VSYS can be Uniswap style and also Serum style. With the bridges to ETH and Solana, it will support 90% of tokens you are playing right now. Cool???😎",28,8
1376889238701084695,"2021-03-30T13:29:10Z","RT @marcosg50916140: If #ETH Gains support here, $2,000 will be on the menu for breakfast 📈🚀 https://t.co/jbQsIJlpCn",32,9
1376889228680814594,"2021-03-30T13:29:08Z","Time for WitLink Token #Airdrop!  ✔️ Start the Airdrop bot: https://t.co/8HDV9cCJse  Complete the tasks to earn  Get 10 WAI ($2.5) + Get 4 WAI ($1) For Each Valid Refer   #ETH #BTC #WAI #LINK #Airdrops",1478,1424
1376889223689670656,"2021-03-30T13:29:06Z","@MichiMei14 @Wades_ETH yes im gonna take it, thx",2,0
1376889217918234627,"2021-03-30T13:29:05Z","#MXCExchange will list $TOWER and Launch the 43rd Session MX DeFi - Stake $USDT, $MX, $BTC, $ETH to Earn Yield $TOWER.  ▶️Follow @MXC_Exchange &amp; @TowerToken  ▶️Like, RT &amp; Tag 3 friends ▶️Comment  🏆10 ppl * 125 $TOWER  More info about the listing: https://t.co/VqsPboXOb5 https://t.co/6RZ4gmWYtY",992,770
1376889217217871873,"2021-03-30T13:29:05Z","$ETH 2300 $AAVE 600 $LINK 45 $UNI 50 $ATOM 35 $ALGO 2 Conservative estimates for what's to come in April #ALTSEASON #crypto",0,0
1376889212121780225,"2021-03-30T13:29:04Z","@TraderTtv Look at what eth has done since they listed it.",1,0
1376889189036220420,"2021-03-30T13:28:58Z","Welcome to massive Q DAO airdrop!   1. go now to telegram https://t.co/COyXgODY1z   2. Stay in telegram chat and wait announcement.  3. HOLD this gem until 10x   (soon - QDAO launch cross-chain for BSC, Polkadot and ETH)",4218,6165
1376889187228643337,"2021-03-30T13:28:58Z","To the LEGEND, who verified, and funded my first ever mint on Rarible. @alubenNFT you’ve helped so many people you don’t even realize it. Everyone here knows who you are and what you do for artists. Love you bro. Thanks for everything. https://t.co/w5dC6sHNMR",32,2
1376889183474577409,"2021-03-30T13:28:57Z","$SWGb gonna explode 🔥🚀  @Swirgenetwork   #bsc #BinanceSmartChain #binance $cake $bake $bifi $auto $watch $egg $eth $bnb #hiddengem https://t.co/c7WIm3228C",2,1
1376889183378137098,"2021-03-30T13:28:57Z","#IOTX big news  $Ada $Btc $Ftm $Xrp $Doge $Eth $Bnb $Dot $Ltc $Xem $Link $Vet $Enj $Sushi $Atom $Dag $Lit $Uni $Luna $Neo $Cake $Trx $Bake  $Ksm $Tomo $Dash $Hot $Ankr  $Dia $Qtum $Band $Yfi $Etc $Sand $Rvn $TRB $zil $reef $ont https://t.co/ciB224lQ2Q",2,1
1376889168391925761,"2021-03-30T13:28:53Z","@bitcoinPalmer @pixls_dot_eth @fewocious @DrTchockII very welcome!",2,0
1376889159093116930,"2021-03-30T13:28:51Z","✈️Tavitt Launches Its Decentralized Exchange (DEX) TAVITT SWAP 🍾🎊   🏦 Swap ERC-20 tokens 💰 Get 0.3% fees by providing liquidity 🎁 Get free Tavittcoin on Tavitt Farming  👇🏻To use TAVITT SWAP, click the link now! #ETH #Tavittswap  https://t.co/2nP1vBzFsR https://t.co/DPcVYpnhsG",9,7
1376889158925492228,"2021-03-30T13:28:51Z","RT @TheCryptoCactus: $ETH will be $2000 before daily close",1529,109
1376889151803457538,"2021-03-30T13:28:49Z","Hopefully , #Algo will not turn out to be another #Eth.  The pumps and dumps are starting to appear the same.  #Algo has struggled to reach its ATH $1.82.   I know the ALGOs will disagree.  I too have #ALGO bags.",2,0
1376889151539318784,"2021-03-30T13:28:49Z","i'm sure this chart may look ridiculous, but i'm being 100% serious when i tell you this is the future i see for $ETH https://t.co/X3FO9DSkuH",691,64
1376889145184948224,"2021-03-30T13:28:48Z","🚀USDT-NFTs Trading Pair has been listed on Uniswap  🚀The contract address:  0x6599fc3e77cbfa6f6e9cac605a30b1e78827eba0  🌸Like、Retweet &amp; Tag 3 friends  🚀Select another 10 addresses to airdrop 1,000,000 NFTs, leave your wallet #ETH address！  #NFTs #NFT #UNISWAP #DEFI #AIRDROP https://t.co/m2ME6WNxXf",875,742
1376889143033139202,"2021-03-30T13:28:47Z","Time for WitLink Token #Airdrop!  ✔️ Start the Airdrop bot: https://t.co/8HDV9cCJse  Complete the tasks to earn  Get 10 WAI ($2.5) + Get 4 WAI ($1) For Each Valid Refer   #ETH #BTC #WAI #LINK #Airdrops",1478,1424
1376889141963730944,"2021-03-30T13:28:47Z","RT @BekaRiosART: @his_eth My first drop. Putting together a collection atm. https://t.co/y0Vvx3PSL9",1,1
1376889140470505478,"2021-03-30T13:28:47Z","Are you a $Kin whale?  One word:  accumulate.  #Kin #NFTs #DeFi #btc #bitcoin #solana #bch #usd #xrp #eth #price #crypto #ltc #fintech #blockchain #buythedip https://t.co/4ZQESVHLfz",57,20
1376889135747772416,"2021-03-30T13:28:45Z","🚨🛡 48.27405071 #ETH shielded. If it was sold completely, PRV/ETH ticker would increase by 🔼4.22%  Tx: https://t.co/biMtmCQEA3",0,0
1376889132828532741,"2021-03-30T13:28:45Z","RT @THE_FLASH_G: #Ethereum #Eth   $Eth Are you ready? 👽🛸🪐 https://t.co/ItGwsdHhBp",39,10
1376889121151582216,"2021-03-30T13:28:42Z","$ETH to 5k end of month",35,7
1376889115338104835,"2021-03-30T13:28:41Z","The DEX @FinanceChainge is set to launch on the @FUSIONProtocol network with over a million users on the protocols waitlist. This decentralized exchange aims to innovate on traditional models through leveraging the Fusion Network.  #BSC #BTC #ETH #BNB  https://t.co/xx55YiGfm3",21536,13658
1376889108753219587,"2021-03-30T13:28:39Z","#dailyFEG Tuesday, 30 March 2021 Where to buy: $FEG #ETH at @Uniswap @1inchExchange $FEG #BSC at @PancakeSwap  #FEG #FEGex #FEGtrack #altcoin #altseason #blockchain #BNB #BTC #crypto #cryptonews #cryptoworld #cryptoinvestor #cryptotrader #DeFi #ERC20 #BEP20 #HODL #NFT #ToTheMoon https://t.co/bD17CTTF6W",81,31
1376889107188740099,"2021-03-30T13:28:39Z","@CryptoArtCritic CyberRexes is a set of 10.000 unique 1/1 Rexes with different levels of rarity.   Price 0.01 ETH   Each Rex can be assigned a unique name by the buyer for additional scarcity.  Mint yours at our website: ( limit 20 per tx ) Website: https://t.co/TpFjqF1ccc https://t.co/wij324GT0L",0,0
1376889106161143815,"2021-03-30T13:28:38Z","🚨 🚨  10,953 #ETH (20,167,566 USD) transferred from unknown wallet to unknown wallet  https://t.co/eVjGHXRyei",14,2
1376889102608523266,"2021-03-30T13:28:38Z","@trmrt6 @trun1313 Hey ! I am pleased to present my very first NFT to you. A mix between an icon of modern art and the current health situation : UPDATED MODERN ART!  https://t.co/u7foeTRWnV  #nftcolletor #NFTs #art #nftart #Bitcoin #altcoin #cryptocurrency #ETH #NFTartists #NFTCommunity",2,0
1376889097457897473,"2021-03-30T13:28:36Z","Slow 118 | Normal 142 | Fast 169 | Instant 186 👈 current Ethereum gas prices in gwei. DM me a price and I will DM you as soon as gas drops below that price 👍 #Ethereum #GasPrice #ETHGasPrice #ETH",0,0
1376889088733802498,"2021-03-30T13:28:34Z","RT @IamCryptoWolf: Where all the $ETH disbelievers now ?",1213,90
1376889085147537411,"2021-03-30T13:28:33Z","Welcome to massive Q DAO airdrop!   1. go now to telegram https://t.co/COyXgODY1z   2. Stay in telegram chat and wait announcement.  3. HOLD this gem until 10x   (soon - QDAO launch cross-chain for BSC, Polkadot and ETH)",4218,6165
1376889082719129602,"2021-03-30T13:28:33Z","We will start Swap on the Bololex Exchange for the TRC-20 Network !! stay tuned for new updates from Newsolution !! https://t.co/lS6oq8wkYY Pairs : ETH/NST USDT/NST https://t.co/aPEzHQm6Nh",0,0
1376889081599197190,"2021-03-30T13:28:33Z","Time for WitLink Token #Airdrop!  ✔️ Start the Airdrop bot: https://t.co/8HDV9cCJse  Complete the tasks to earn  Get 10 WAI ($2.5) + Get 4 WAI ($1) For Each Valid Refer   #ETH #BTC #WAI #LINK #Airdrops",1478,1424
1376889067175051267,"2021-03-30T13:28:29Z","The Digital Art Market // John Crain @SuperRareJohn @SuperRare en Talent Land @talentrepublic_ @blockchain_land 💎 #nfts #cryptoart #blockchain https://t.co/YjDDndVISs #eth #nft",2,2
1376889066512207874,"2021-03-30T13:28:29Z","Time for WitLink Token #Airdrop!  ✔️ Start the Airdrop bot: https://t.co/8HDV9cCJse  Complete the tasks to earn  Get 10 WAI ($2.5) + Get 4 WAI ($1) For Each Valid Refer   #ETH #BTC #WAI #LINK #Airdrops",1478,1424
1376889063362416641,"2021-03-30T13:28:28Z","$aETH is currently trading at a 8.3% discount.  For anyone staking aETH on @OnXFinance, but not taking leverage and not willing to wait that aETH will be traded at fair value, supplying ETH on OnX Finance can be a good alternative (28.89% APY for ETH vs. 16.56% APY for aETH) https://t.co/AaqLAxCeMs",12,2
1376889062166917124,"2021-03-30T13:28:28Z","Why should journey of $HOT end up with TOP 10 of the market?  No mining No fee Instant transaction  #Holochain is not #blockchain. It has superior tech compared to $BTC $ETH $DOT.  Think outside the blocks! https://t.co/JLcOEb3xxX",598,229
1376889057913925637,"2021-03-30T13:28:27Z","Latest mint! Self-Portrait from the https://t.co/xcqpCCqvkc series-- This t-shirt actually exists.  5 #NFTs available, asking 2Ξ  open to bids! 😉💕  View on Rarible: https://t.co/slDhqEfFeZ  #NFTCommunity #nftartist #ETH #Ethereum #StarWars  @coinkit_ mon 10 100 btc #AED https://t.co/UOZnla16NZ",57,40
1376889039425568769,"2021-03-30T13:28:23Z","reddit 🤖: PayPal to Start Allowing Payments in BTC, ETH, LTC, BCH at Its 29 Million Online Merchants https://t.co/NPmuHggkec",0,0
1376889027580813317,"2021-03-30T13:28:20Z","#News of the day: Payment Firm Nuvei Extends Support To 40 New Crypto Assets Read more: https://t.co/0AiOlOsWYB  #dailynews #cryptocurrencies #nuvei #launch #paymentnetwork #digitalasset #ecommerce #btc #eth #dogecoin #cryptoexchange #Newsnight #cryptoassets #secure #Reddcoin https://t.co/AcMzJdCi8x",11,5
1376889011118108672,"2021-03-30T13:28:16Z","Time for WitLink Token #Airdrop!  ✔️ Start the Airdrop bot: https://t.co/8HDV9cCJse  Complete the tasks to earn  Get 10 WAI ($2.5) + Get 4 WAI ($1) For Each Valid Refer   #ETH #BTC #WAI #LINK #Airdrops",1478,1424
1376889007251075072,"2021-03-30T13:28:15Z","At an $80M mcap, $MBX still has A LOT of upside in my opinion (not financial advice). If @Mobie_Pay achieves its' goals, it should be a $1B mcap token.  🔥 $wMBX live today ( $ETH bridge) 💰 Up nearly 100% in 7 days 🚀In price discovery mode 🧠Massive partnerships in the works: https://t.co/iTdIjYb932",75,23
1376889006613524486,"2021-03-30T13:28:15Z","Hollaaaaa!!  Like this post if you bought that $veth dip !!!  🔥🚀🔥🚀🔥🚀🔥🚀  #zeedo #zeroswap #kickpad #bscpad $duck #ignite $pols $paid #daomaker  $delta $bles $labs $cate $ern $shft $cell $conv $mrch $dev $veth $bank $link $sol $bscpad $pols $bnb $cake $crv $perp $xrp $eth https://t.co/9y8zuTX6ro",13,1
1376888999567097856,"2021-03-30T13:28:13Z","@Rodrigo50717359 @Airdroppers1 No sorry, just on ETH wallet! 🦊",2,0
1376888994856853506,"2021-03-30T13:28:12Z","RT @zhusu: Next key lvls are 72k / 100k on $BTC  And 2.5k / 4k on $ETH",3569,435
1376888993623781386,"2021-03-30T13:28:12Z","On Feb 22, 2021 I was incorrectly liquidated by Kraken during their pricing flash crash. I lost quite a bit but I've since moved on. My next journey is to get it all back and more. it's my 11 #ETH  to 100 #ETH challenge!",5,1
1376888993602793472,"2021-03-30T13:28:12Z","Fake account please report!! CSC will move to the #XRPL, so there's no possibility to receive CSC on an ETH address.  #CSC #CasinoCoin https://t.co/wtjfHR1Ril",24,15
1376888987164405760,"2021-03-30T13:28:10Z","Welcome to massive Q DAO airdrop!   1. go now to telegram https://t.co/COyXgODY1z   2. Stay in telegram chat and wait announcement.  3. HOLD this gem until 10x   (soon - QDAO launch cross-chain for BSC, Polkadot and ETH)",4218,6165
1376888982349438982,"2021-03-30T13:28:09Z","RT @TheCryptoCactus: $ETH will be $2000 before daily close",1529,109
1376888972463443973,"2021-03-30T13:28:07Z","@0xkinnif @pixls_dot_eth @fewocious @DrTchockII Followed! Have been 😴 thanks kinnif",1,0
1376888969359618051,"2021-03-30T13:28:06Z","Is amazing to see how this project has been out since Dec 2020 and so far Liquidity Providers have earned about 6533.78 $ETH and that is the total value of $10.6 Million dollars. 💪  Also the APY doing 301.35% which is amazing.  #DeFi #UniSwap #BSC #SmartContract #Ethereum https://t.co/9a7rgyoMpE",2385,2476
1376888961092714503,"2021-03-30T13:28:04Z","2 hours and 30 minutes left!  The current bid sits at 0.425 eth https://t.co/iM87oIWPdj https://t.co/b456gc194t",24,2
1376888959113003014,"2021-03-30T13:28:03Z","We will randomly collect ETH wallet addresses every day and arrange to send the airdrops of 100,000 NFTs until the end of Q2. Those who haven't received NFTs don't need to worry, because it will always be your turn. https://t.co/3APkHz0uO3",888,664
1376888933296922626,"2021-03-30T13:27:57Z","Time for WitLink Token #Airdrop!  ✔️ Start the Airdrop bot: https://t.co/8HDV9cCJse  Complete the tasks to earn  Get 10 WAI ($2.5) + Get 4 WAI ($1) For Each Valid Refer   #ETH #BTC #WAI #LINK #Airdrops",1478,1424
1376888932944683013,"2021-03-30T13:27:57Z","RT @zhusu: Next key lvls are 72k / 100k on $BTC  And 2.5k / 4k on $ETH",3569,435
1376888932043005957,"2021-03-30T13:27:57Z","#ETH♦️will break $2K ceiling as news🗞@Visa’s adoption of #Ethereum♦️spreads.Despite best platform4 #smartcontracts &amp;multi-virtues of $ETH ♦️it lacks PUBLIC AWARENESS  $10K when HOUSEHOLD NAME @TrustlessState @LynAldenContact @BanklessHQ @drakefjustin @100trillionUSD @mcuban https://t.co/ZQ6UUBKuDs",0,0
1376888930935574534,"2021-03-30T13:27:57Z","I'll send $300 in #ETH or #BTC to one person who retweets this and follows @bud_crypto. Must complete these tasks:  1 - Like/RT his pinned tweet  2 - Must RETWEET &amp; LIKE 4 of his tweets  Ends in 72 hours!",1210,1759
1376888930084134923,"2021-03-30T13:27:56Z","@SoccerEthiopia Ha ha, with this rate, IV 10 - ETH 0",0,0
1376888929694126088,"2021-03-30T13:27:56Z","@an_valk CyberRexes is a set of 10.000 unique 1/1 Rexes with different levels of rarity.   Price 0.01 ETH   Each Rex can be assigned a unique name by the buyer for additional scarcity.  Mint yours at our website: ( limit 20 per tx ) Website: https://t.co/TpFjqF1ccc https://t.co/El5dTqECFe",0,0
1376888894499733504,"2021-03-30T13:27:48Z","@jims_eth Like it ❤️",2,0
1376888890485833729,"2021-03-30T13:27:47Z","Drop: https://t.co/cNNTPr8ElA  Claim Now.  #NFT #NFTs #NFTGiveaway #CryptoArt #nftcollectors #nftcollector #NFTartist $waxp $eos $eth #erc20 #erc721 #DefiNews #DAOMaker #glitch #GlitchArt #fintechnews #fintechnews #Investment #invest #investors #investorday $btc #eosio #aliens https://t.co/xxJ2jiL8MA",11,3
1376888888577384458,"2021-03-30T13:27:47Z","$ETH will go absolutely nuclear this week. Just watch💰",7,2
