"ID","created_at","text","like_count","rt_count"
1375991017128660994,"2021-03-28T01:59:57Z","Win #NFT worth ETH!  To WIN #Giveaway You MUST:    1.) Follow @degenasaurus   2.) Retweet the tweet BELOW ⬇️ + comment it  3.) OPTION -&gt; Join discord: https://t.co/alAVVDlyQu  NFT: https://t.co/l37pUrR6Y3  Wish luck!! 🦖♥️🛸👫  @coinkit_ mon 45 2000 BTC  https://t.co/wFeOut8N85",310,0
1375991001597288450,"2021-03-28T01:59:54Z","No need to spend your own money to trade #cryptocurrency. Over 10K users won crypto rewards on @latokens last week. It's the best way to join the financial revolution. Start by earning a share of $100K in CLIQ airdrop: https://t.co/B37cyyK5Tz #Bitcoin #ETH #Citi #AON #LATOKEN",1,0
1375990981191991301,"2021-03-28T01:59:49Z","#NFTs that earns you #dividens on @imMoonSwap #ETH #NFT https://t.co/qH4mr5vwkl",5,0
1375990962179076099,"2021-03-28T01:59:44Z","RT @crypto_birb: $BTC 90k $ETH 5k coming soon https://t.co/kKro6dgdJL",2404,0
1375990956638445572,"2021-03-28T01:59:43Z","Only 2 hours left on The Origin artwork @withFND ! ✨  🔴 Current bid is at 0.60 ETH by the gorgeous @LakeHills_ ! 🙏  https://t.co/v589yGF2Hl https://t.co/cyF3aIsx6T",130,0
1375990955791286274,"2021-03-28T01:59:43Z","Only few hours left until the « today we push » Binance +1000% Push!  Join the push: https://t.co/VJzp9YLWid https://t.co/DaDRtubvNn  #Bitcoin #BTC #Crypto $Bitcoin #Bitcoin $ETH #ETH $Ethereum #Ethereum $BTC #BNB $BNB #Binance",0,0
1375990950309154819,"2021-03-28T01:59:41Z","Realistic price target ranges for this year with most variables taken into account: (Peak parabola prices)  $LINK: $300-400 $BNT: $75-150 $ETH: $5-8k $BTC: $170-230k $ADA: $0 $GRT: $25-30 $NU: $10-$15 $LRC: $4-8 $MATIC: $3-5",956,0
1375990950103777284,"2021-03-28T01:59:41Z","New Airdrop: Diamond Crystal (DCT) Reward: 100 DCT ($100) Rate: ⭐️⭐️⭐️⭐️ Focus: Distribution starts after airdrop ends   Bot Airdrop Link: https://t.co/9Qzk47HUKt  #Airdrop #giveaway #BTC #ETH",4033,0
1375990936652677120,"2021-03-28T01:59:38Z","What do you think will happen to $zil price when the $zil / $eth bridge goes live ? @zilliqa @ZilliqaCo #zilliqa",20,3
1375990935553728512,"2021-03-28T01:59:38Z","Crypto Derivatives Platform FTX Now Supports Deposits via PayPal: https://t.co/arnhZGK2jI via @coindesk   Fund your account instantly via credit card or #Paypal balance: https://t.co/SdxTIcpu7V   $BTC $LTC $ETH $AVAX $DOT $KSM $LINK $GRT $FTT $SOL @coinkit_ mon 0.05 100 $TRX https://t.co/IWdvkv4NIc",28,3
1375990933595037699,"2021-03-28T01:59:37Z","RT @EthereumMemes: 🎵 I bought $ETH under $2K 🎵 https://t.co/z9Xvd0rywL",904,3
1375990925961261057,"2021-03-28T01:59:36Z","Top 10 Coins Mentioned on Twitter Last Week 📣  $BTC 2,039,139 $ETH 261,941 $CAKE 251,833 $DOGE 166,849 $ADA 119,458 $RARI 102,392 $KLV 82,619 $LINK 76,034 $BCH 75,261 $XRP 53,950  👉 https://t.co/AgXao7y3eB https://t.co/CtnCLEu4An",656,3
1375990920273747971,"2021-03-28T01:59:34Z","To celebrate @3DPunks_ #100/100 Auction Current bid at 16 ETH ($27K USD)  I'm giving away 3D Punk #049  Which last sold for 6.97 ETH ($12K USD)  How: - Follow @evankeast + @3DPunks_  - Like + Retweet - Tag a friend - Join the discord: https://t.co/5paneepNDb - Say hi in discord https://t.co/SOy3l78yP1",1043,3
1375990911054790658,"2021-03-28T01:59:32Z","Just loaded up on $AVAX looking undervalued despite looking like it can give $BNB and $ETH a run for their money @avalancheavax  #crypto",1,0
1375990910387900419,"2021-03-28T01:59:32Z","@nftsaid Reserve 0.5 ETH!!! 🥰💖🌸🌼 https://t.co/rLJH4nJHIq",2,1
1375990904675135488,"2021-03-28T01:59:31Z","🥇 We are https://t.co/w9DE49pwCm 🚀  👨‍🌾 @GoldFarmIO is a cross-chain DeFi FaaS protocol designed to bring utility to any token by turning it into an NFT farm with no code required on both BSC and ETH blockchains.  🔥 Max Supply: 1000000 $GOLD  Learn:  https://t.co/4nxZBcfdJO https://t.co/C90UElVsdw",247,1
1375990895967895552,"2021-03-28T01:59:28Z","ETH Daily Technical Outlook: $ETH and ETHBTC both closed as a doji. Ethereum closed positive and above the $1,680 support target. A bullish Bitcoin or a bullish ETHBTC will push Ethereum higher from here but Ethereum has a tendency to simply follow Bitcoin’s movement ⚡️ https://t.co/uxtdIekxXF",70,1
1375990893950345216,"2021-03-28T01:59:28Z","RT @cryptomanbot: Sales Alart! No.18 HALVING半減鬼 11 min ago 0.0500 ETH(1) #rarible #eth #CryptoArt  #自作シール #nft https://t.co/58YrXNbq2u",5,1
1375990891937214475,"2021-03-28T01:59:27Z","DeFi allows anyone who owns ETH to take out a loan or earn interest without the necessity of applications, credit checks, excessive fees, or commitments. You can also make savings deposits to earn interest on your assets.  #Defi   https:// #MustHaveCrypto https://t.co/40pmnevj5t",0,0
1375990889286397965,"2021-03-28T01:59:27Z","You had three years to buy btc in $3-5K range and Eth at $80-150  No complaining that you “missed it”.   Just means you didn’t bother reading and didn’t care to learn.",572,0
1375990865513025538,"2021-03-28T01:59:21Z","@davidgokhshtein Could you help me with some $ETH or any #ERC20 I have no money to invest. It is going up a lot and I will be able to earn money and I will be able to help my family. #ETH 0x863F3BBD250762f12e9e2475051bD23DC2C73024 $BTC 34pHHScartoFzSeKPiz9U2owUD9dPaYcpJ https://t.co/B7tNvQEHbg",1,0
1375990865311768576,"2021-03-28T01:59:21Z","@PointPay1 updates of the week...  🔥$370K raised last week 🔥Total raised funds at $1.8M 🔥#ico ending June 30th 🔥Price increase by 50% end of March 🔥PP #ecosystem is already built with 9 products  $btc $eth $ltc $uni $xrp $pxp  Plz join, referral link: https://t.co/1IRiGM9pML https://t.co/JtkW9eWt9N",9,0
1375990849612435456,"2021-03-28T01:59:17Z","To celebrate @3DPunks_ #100/100 Auction Current bid at 16 ETH ($27K USD)  I'm giving away 3D Punk #049  Which last sold for 6.97 ETH ($12K USD)  How: - Follow @evankeast + @3DPunks_  - Like + Retweet - Tag a friend - Join the discord: https://t.co/5paneepNDb - Say hi in discord https://t.co/SOy3l78yP1",1043,0
1375990848794542084,"2021-03-28T01:59:17Z","Hello @Poolz__ community !  After @bepronet ,  Tomorow #tacoswap Dex open a new pool for poolz token owner.   You will have more rewards than uniswap !  See you tomorow ! Welcome !  #poolz #uniswap #DeFi #ETH #Crypto #bepronet #liberezcrypto4youOFF #tacoswap",1209,0
1375990837775986689,"2021-03-28T01:59:15Z","Eth and btc. https://t.co/2Wl4GAyiZR",0,0
1375990835175563268,"2021-03-28T01:59:14Z","@GlitchProtocol GLCH/ETH 4hr MacD just ticked green AND they just announced a partnership with @RampDefi AND they're finalizing a listing on a top 10 CEX !!!!!!!!!!!  This one is going to the MOON.  It's only a matter of time. #DeFi #HiddenGemHunter #Hiddengems https://t.co/9QkEiiLFqF",11,0
1375990824987729920,"2021-03-28T01:59:12Z","I think making x10 $SAKE again adjusted and ready to run. I also hope that after the last addition of the BSC, the LP farm has increased again. @SakeSwap   $ETH $BTC $SUHI $UNI $BSC $ALTS https://t.co/XHhULci2DB",0,0
1375990807090630672,"2021-03-28T01:59:07Z","No need to spend your own money to trade #cryptocurrency. Over 10K users won crypto rewards on @latokens last week. It's the best way to join the financial revolution. Start by earning a share of $100K in CLIQ airdrop: https://t.co/mXKGM0MrWK #Bitcoin #ETH #Citi #AON #LATOKEN",1,0
1375990804540313601,"2021-03-28T01:59:07Z","Welcome to massive Q DAO airdrop!   1. go now to telegram https://t.co/COyXgODY1z   2. Stay in telegram chat and wait announcement.  3. HOLD this gem until 10x   (soon - QDAO launch cross-chain for BSC, Polkadot and ETH)",4254,0
1375990800664911872,"2021-03-28T01:59:06Z","@SalsaTekila ETH will overpower BTC",0,0
1375990793001857024,"2021-03-28T01:59:04Z","The true wrapped ETH https://t.co/CwYUAPE0se",1,0
1375990790476984320,"2021-03-28T01:59:03Z","🍌🔥#GIVEAWAY!! 🔥🍌 We're giving away our Kongz 3D #41  (0.6 eth)!  How to enter: 1. Follow us 2. Like &amp; RT 3. Tag 3 different crypto friends 4. Join our Discord Server: https://t.co/5DHGL6wW5C  Ends March 29th  📅  https://t.co/1wiE31YlmF  #NFT #nftcollector #NFTCommunity https://t.co/4fqQ0fFzlf",115,0
1375990788778233861,"2021-03-28T01:59:03Z","I’ve made more on BSC in the past 4 days than I did on eth in the last month. Was I lucky? Yeah probably, but the opportunities over there right now are too hard to pass up. Put the ego aside and make some money. https://t.co/2gSdn5gSNy",100,0
1375990788157403138,"2021-03-28T01:59:03Z","$DOT position finally in profit  I am also in $ETH long",0,0
1375990784047075331,"2021-03-28T01:59:02Z","🚀Hashmasks #12523🚀 SOLD for 2.55 ETH on OpenSea! Great buy but they would have been better waiting for the @jurassicasylum drop  Check out the transaction: https://t.co/4gGdGT2M6N #JurassicAsylum #NFT #NFTartist #cryptoart #NFTCommunity https://t.co/sEHZeN403h",2,0
1375990779303358467,"2021-03-28T01:59:01Z","Giveaway Time!! We're giving away CryptoFreak #201, a Rocking Rockstar worth .2 ETH ($400), to enter:  - Follow @digirocksnft  - Retweet this post - Tag 2 friends  Winner will be chosen at 9PM EST on Sunday (03/28) #NFT #Giveaway #Cryptoart #cryptofreaks #digirocks https://t.co/68WpYRcql7",221,0
1375990775041810435,"2021-03-28T01:59:00Z","CRYPTO NEWS - SELLING ETH, Buying Hidden Gems https://t.co/LomHQgHeF2 via @YouTube",0,0
1375990749989339137,"2021-03-28T01:58:54Z","Only 2 hours left on The Origin artwork @withFND ! ✨  🔴 Current bid is at 0.60 ETH by the gorgeous @LakeHills_ ! 🙏  https://t.co/v589yGF2Hl https://t.co/cyF3aIsx6T",130,0
1375990744033411072,"2021-03-28T01:58:52Z","@AyyMG Could you help me with some $ETH or any #ERC20 I have no money to invest. It is going up a lot and I will be able to earn money and I will be able to help my family. #ETH 0x863F3BBD250762f12e9e2475051bD23DC2C73024 $BTC 34pHHScartoFzSeKPiz9U2owUD9dPaYcpJ / https://t.co/ZRB1B3aj3j",1,0
1375990741994967044,"2021-03-28T01:58:52Z","Please don't fall for scams like this where buyers on @opensea like this tool are making offers in USDC to make it look like its in ETH.   They have picked up a few valuable assets as it looks like people either aren't paying attention or don't know.    https://t.co/q8cftYXQyN",14,0
1375990737230237696,"2021-03-28T01:58:51Z","To celebrate @3DPunks_ #100/100 Auction Current bid at 16 ETH ($27K USD)  I'm giving away 3D Punk #049  Which last sold for 6.97 ETH ($12K USD)  How: - Follow @evankeast + @3DPunks_  - Like + Retweet - Tag a friend - Join the discord: https://t.co/5paneepNDb - Say hi in discord https://t.co/SOy3l78yP1",1043,0
1375990733061165058,"2021-03-28T01:58:50Z","@nooz81_eth @tezos Thanks for sharing The picture attached really show low fees of #tezos which are cents versus double or triple digits $ for $ETH However the picture doesn’t show momentum (which is through time). Here’s one showing momentum below with an increase of 1300% of contract 6months $XTZ https://t.co/nj3qfp4yma",17,0
1375990722344726529,"2021-03-28T01:58:47Z","Empower #universities with an #ecosystem to #build and #develop on the #blockchain. Labs and courses, following #adoption.   Biggest #ICO of the time ending in April.  $BTC $ETH $STC $UNI $LTC #DeFi #NFT #crypto #cryptocurrenices  Plz join, referral link: https://t.co/Ij8QiMhPJj https://t.co/B3XTQGFREB",3,0
1375990711133351939,"2021-03-28T01:58:44Z","@nooz81_eth @tezos Thanks for sharing The picture attached really show low fees of #tezos which are cents versus double or triple digits $ for $ETH However the picture doesn’t show momentum (which is through time). Here’s one showing momentum below with an increase of 1300% of contract 6months $XTZ https://t.co/nj3qfp4yma",17,0
1375990706125250570,"2021-03-28T01:58:43Z","KEY LINKS FOR $POODL TELEGRAM: https://t.co/vXhJW7WD5c WEBSITE: https://t.co/tvVbp44Nv5  WHERE TO BUY:  -UNISWAP using $ETH -WHITEBIT using $USDT  $HOGE $DOGE $GRUMPY  #bitcoin #btc #cryptocurrency #price #blockchain #time #crypto #money #news #coinbase #usd #buying #eth #ada",41,0
1375990702375632898,"2021-03-28T01:58:42Z","Only few hours left until the « today we push » Binance +1000% Push!  Join the push: https://t.co/qaO1RK95bs https://t.co/9PocjYYBEI  #Bitcoin #BTC #Crypto $Bitcoin #Bitcoin $ETH #ETH $Ethereum #Ethereum $BTC #BNB $BNB #Binance",0,0
1375990698349113344,"2021-03-28T01:58:41Z","@THENFTKING Here you go, reserve 0.5 ETH! https://t.co/rLJH4nJHIq",4,0
1375990685493391363,"2021-03-28T01:58:38Z","Giveaway Time!! We're giving away CryptoFreak #201, a Rocking Rockstar worth .2 ETH ($400), to enter:  - Follow @digirocksnft  - Retweet this post - Tag 2 friends  Winner will be chosen at 9PM EST on Sunday (03/28) #NFT #Giveaway #Cryptoart #cryptofreaks #digirocks https://t.co/68WpYRcql7",221,0
1375990684809797635,"2021-03-28T01:58:38Z","Interesting creativity @safe_childrens PTO whitelisting, my love for the initiative #STC #ETH #DEFI #PTO #ICO all put in a good project https://t.co/ZfIPwy5o5A",1,0
1375990674516930562,"2021-03-28T01:58:36Z","As a wise man once said, it's weeeeekeeend! Which is why we've gone and bought 20 unrevealed Pixls that we put up for sale on OpenSea at 0.1 ETH buy now price each! #BeatTheCurve https://t.co/yA1bPCqUmj https://t.co/r8qXiEsBgG",18,0
1375990667701321732,"2021-03-28T01:58:34Z","A nice #YouTube #update from @andrey_svyatov the CEO of @PointPay1  https://t.co/EZJr2bc2vr  $btc $eth $ltc $uni $xrp $xmr $ada $coti $aave $doge $xlm $dash $tel $pac $prcy $avve $stc $vet #bank #crypto #blockchain #fintech   Please join using referral: https://t.co/1IRiGM9pML https://t.co/8hGo49a4dQ",18,0
1375990667273404417,"2021-03-28T01:58:34Z","🥇 We are https://t.co/w9DE49pwCm 🚀  👨‍🌾 @GoldFarmIO is a cross-chain DeFi FaaS protocol designed to bring utility to any token by turning it into an NFT farm with no code required on both BSC and ETH blockchains.  🔥 Max Supply: 1000000 $GOLD  Learn:  https://t.co/4nxZBcfdJO https://t.co/C90UElVsdw",247,0
1375990664513515525,"2021-03-28T01:58:33Z","$MBX             🚨 GET REAY 🚨  NO ONE IS SELLING!💥 With all the upcoming news.  150 to 200 million Market Cap with Uniswap Listing coming up on the 31st.   Hint : ( @orion_protocol 👀✔) FIREWORKS 🔥  INCOMING 🚀  #Bitcoin $Eth $Xlm $Link $Uni  $Orn $Dot $Ada $Xrp $Ltc $Doge https://t.co/NfFiMOi7XN",27,0
1375990664136175616,"2021-03-28T01:58:33Z","@SusanHan20 @unmarshal @polkastarter Dont send ETH to any address, thats not how it works, its all threw metamask",0,0
1375990650454355972,"2021-03-28T01:58:30Z","- higher low formed on 12hr timeframe ✅ - 100 MA support ✅ - Above 200MA ✅ - Ichi cloud support ✅  - Stoch RSI re-set ✅  Q2 could be good for $SXP 🐂  $BTC $ETH $LINK $VET $ICX $HAI $HOT $UNI $CAKE $DOT https://t.co/4rhdLl0aBm",3,0
1375990641407188993,"2021-03-28T01:58:28Z","Do you have money just sitting there in #stablecoins like #USDC or #BUSD? You could be early huge passive income by lending on FTX!   Register here and start earning now: https://t.co/SzgbT2Ypee  $BTC $ETH $BNB $CAKE $CRV $ADA $FTT $USDT $USDC  @coinkit_ mon 0.25 225 $TRX https://t.co/fO3EDM60eG",74,0
1375990640773750786,"2021-03-28T01:58:28Z","If you’re looking for somewhere to invest and make x100-x500 in a week. $POODL is at an amazing point to buy in! $POODL is special offer at the moment and it will not last! Get in before it’s too late!💪🏻🚀 $DOGE $TOSA $HOGE $KONG $PIPI $SAFE $BTC $ETH $FOX $ADA $XRP $HHOG https://t.co/QAcrV6JGs2",97,0
1375990639008026625,"2021-03-28T01:58:27Z","$STC - A #blockchain can be configured by an #entry level and will be used by #enterprises with full scale #ecosystem.  🔥#STC #exchange launching soon 🔥#Terminal - to launch blockchain #projects 🔥#education  🔥#Voting 🔥#Swap  $btc $eth $uni  Plz join: https://t.co/Ij8QiMhPJj https://t.co/e86ViCwFAX",3,0
1375990619949047809,"2021-03-28T01:58:23Z","🥇 We are https://t.co/w9DE49pwCm 🚀  👨‍🌾 @GoldFarmIO is a cross-chain DeFi FaaS protocol designed to bring utility to any token by turning it into an NFT farm with no code required on both BSC and ETH blockchains.  🔥 Max Supply: 1000000 $GOLD  Learn:  https://t.co/4nxZBcfdJO https://t.co/C90UElVsdw",247,0
1375990618111975424,"2021-03-28T01:58:22Z","Only few hours left until the wall street bets pump!  Join the pump: https://t.co/XOKmTfH6o6 https://t.co/7UA7cKVmdq  #Bitcoin #BTC #Crypto $Bitcoin #Bitcoin $ETH #ETH $Ethereum #Ethereum $BTC #BNB $BNB #Binance",1,0
1375990615083679746,"2021-03-28T01:58:21Z","reaching $229m full market cap, 19 days after launching on @harmonyprotocol   anonymous developer @VenomDAO, first cross-chain liquidity pool, bridges with ETH-ONE-BSC for @binance's BNB BUSD assets  time-locked and multi-sig contracts coming soon for  https://t.co/0wx8PXyASq https://t.co/GfeDOgszxM",453,0
1375990608959954949,"2021-03-28T01:58:20Z","Welcome to massive Q DAO airdrop!   1. go now to telegram https://t.co/COyXgODY1z   2. Stay in telegram chat and wait announcement.  3. HOLD this gem until 10x   (soon - QDAO launch cross-chain for BSC, Polkadot and ETH)",4254,0
1375990600231706624,"2021-03-28T01:58:18Z","@PointPay1 #bank $pxp #token #ico is getting a price increase by 50% in 12 days. Get in early to a promising #project of the time as early bird reaps the real #gains.  $btc $eth $ltc $xrp $ada $vet $tel $pxp $uni $ico $vet #crypto  Plz join, referral link: https://t.co/1IRiGM9pML https://t.co/q87xlBTrzt",9,0
1375990599879323652,"2021-03-28T01:58:18Z","🥇 We are https://t.co/w9DE49pwCm 🚀  👨‍🌾 @GoldFarmIO is a cross-chain DeFi FaaS protocol designed to bring utility to any token by turning it into an NFT farm with no code required on both BSC and ETH blockchains.  🔥 Max Supply: 1000000 $GOLD  Learn:  https://t.co/4nxZBcfdJO https://t.co/C90UElVsdw",247,0
1375990570267578374,"2021-03-28T01:58:11Z","Happy Sunday Everyone!!🙌  I have deposited 5.5 ETH to buy some #NFTs tonight.   1. Follow me 2. Like and retweet 3. Drop your NFTs in the comments, I'll buy your art! #NFTs #nft #nftcollector #nftart #cryptoart #nftcollectors #NFTcollectibles #NFTartist",214,0
1375990567973220352,"2021-03-28T01:58:10Z","To celebrate @3DPunks_ #100/100 Auction Current bid at 16 ETH ($27K USD)  I'm giving away 3D Punk #049  Which last sold for 6.97 ETH ($12K USD)  How: - Follow @evankeast + @3DPunks_  - Like + Retweet - Tag a friend - Join the discord: https://t.co/5paneepNDb - Say hi in discord https://t.co/SOy3l78yP1",1043,0
1375990556178927619,"2021-03-28T01:58:07Z","$MBX             🚨 GET REAY 🚨  NO ONE IS SELLING!💥 With all the upcoming news.  150 to 200 million Market Cap with Uniswap Listing coming up on the 31st.   Hint : ( @orion_protocol 👀✔) FIREWORKS 🔥  INCOMING 🚀  #Bitcoin $Eth $Xlm $Link $Uni  $Orn $Dot $Ada $Xrp $Ltc $Doge https://t.co/NfFiMOi7XN",27,0
1375990536402825216,"2021-03-28T01:58:03Z","METROPOLIS 0.06 ETH 12 of 12 The mediator of the head and the hands must be the heart. BDAY NFT  https://t.co/FVYkCR8Xfx https://t.co/eUYzQ5YDyD",18,8
1375990534435696641,"2021-03-28T01:58:02Z","🚀Singularity #689🚀 SOLD for 5.0 ETH on OpenSea! Great buy but they would have been better waiting for the @jurassicasylum drop  Check out the transaction: https://t.co/iLNrzktiVB #JurassicAsylum #NFT #NFTartist #cryptoart #NFTCommunity https://t.co/EB3SGSXsMG",0,0
1375990519046758403,"2021-03-28T01:57:59Z","Know what would be awesome?  If #cryptopunks #horrorpunks #altpunks owners came out to support @3DPunks_ final auction for #KingApe tonight because #allpunklivesmatter @DeezeFi @punk4156 @CSURAM88 @pranksyNFT  Ends at 10pm EST. Top bid currently 16 $ETH.  https://t.co/0aESdwcG3N",45,0
1375990517612314633,"2021-03-28T01:57:58Z","@mickalamasse1 @Poolz__ @bepronet Heyyy @Poolz__ community ! What’s up ? Tomorow #tacoswap #dex open a new pool for you ! For poolz token owner. Obviously you will have more rewards than uniswap it’s magic ? No it’s tacoswap bro 🥳🌶🚀‼️ See you ! Xoxo 😘 #poolz #uniswap #defi #eth #crypto #freeCRYPTO4YOUoff ‼️",60,0
1375990509177462785,"2021-03-28T01:57:56Z","@diakopter @JenNWCbus @thespybrief Fuckery abounds, there's no record on the ETH chain for this supposed $69 million sale (nice).  They need to investigate the f out of all of these scammers  https://t.co/JmTkMUdwYL",1,0
1375990498184331268,"2021-03-28T01:57:54Z","@mickalamasse1 @Poolz__ @bepronet Hey @Poolz__ community ! Tomorow #tacoswap Dex open a new pool for poolz token owner. This means that you have The possibility to get higher rewards than #UniSwap dex. See you tomorow ! Welcome ! #poolz #uniswap #DeFi #ETH #Crypto #bepronet #liberezcrypto4youOFF #tacoswap",18,0
1375990487295750147,"2021-03-28T01:57:51Z","$MBX             🚨 GET REAY 🚨  NO ONE IS SELLING!💥 With all the upcoming news.  150 to 200 million Market Cap with Uniswap Listing coming up on the 31st.   Hint : ( @orion_protocol 👀✔) FIREWORKS 🔥  INCOMING 🚀  #Bitcoin $Eth $Xlm $Link $Uni  $Orn $Dot $Ada $Xrp $Ltc $Doge https://t.co/NfFiMOi7XN",27,0
1375990487237074944,"2021-03-28T01:57:51Z","I just joined this $25k Crypto giveaway by @JRNYcrypto and @sparkpointio  Get daily entries to increase your chances of winning! 25 random winners of $1k each!  #Bitcoin #Crypto $BTC $ETH $SRK https://t.co/d0lQ3LjHc5",0,0
1375990486725505024,"2021-03-28T01:57:51Z","RT @AmandaCerny: Top 4 of my Crypto coin portfolio atm : $bnb $omi $eth  $doge",438,0
1375990480832450561,"2021-03-28T01:57:49Z","RT @kryptous: @ChenHeina @binance @bnb @xrp @btc #eth #fracti #bnb Eth chain Fracti free coin Bnb market maker  People's coin @fracti Ends…",7,0
1375990478307426305,"2021-03-28T01:57:49Z","🥇 We are https://t.co/w9DE49pwCm 🚀  👨‍🌾 @GoldFarmIO is a cross-chain DeFi FaaS protocol designed to bring utility to any token by turning it into an NFT farm with no code required on both BSC and ETH blockchains.  🔥 Max Supply: 1000000 $GOLD  Learn:  https://t.co/4nxZBcfdJO https://t.co/C90UElVsdw",247,0
1375990477271359493,"2021-03-28T01:57:49Z","To celebrate @3DPunks_ #100/100 Auction Current bid at 16 ETH ($27K USD)  I'm giving away 3D Punk #049  Which last sold for 6.97 ETH ($12K USD)  How: - Follow @evankeast + @3DPunks_  - Like + Retweet - Tag a friend - Join the discord: https://t.co/5paneepNDb - Say hi in discord https://t.co/SOy3l78yP1",1043,0
1375990476826886153,"2021-03-28T01:57:48Z","The @gridnetproject team have updated their Whitepaper on their fully #decentralized OS - #GRIDNET. Go visit the tweet below to read more!  You can also read all about the project here: https://t.co/IuXwMmAIUh  #Fintech #Cryptocurrency #Bitcoin #RT  @cctip_io draw .0005 $ETH 200 https://t.co/nPYdyVrCrx",57,0
1375990470506127364,"2021-03-28T01:57:47Z","$MBX             🚨 GET REAY 🚨  NO ONE IS SELLING!💥 With all the upcoming news.  150 to 200 million Market Cap with Uniswap Listing coming up on the 31st.   Hint : ( @orion_protocol 👀✔) FIREWORKS 🔥  INCOMING 🚀  #Bitcoin $Eth $Xlm $Link $Uni  $Orn $Dot $Ada $Xrp $Ltc $Doge https://t.co/NfFiMOi7XN",27,0
1375990464374050816,"2021-03-28T01:57:46Z","Join our airdrop and Earn 400 TKM and additional 40 TKM for every Referral  https://t.co/h6oyRpmJoh  #airdrop #tkm #crypto #eth https://t.co/7i0hyv5LE5",8468,0
1375990452801900545,"2021-03-28T01:57:43Z","Giveaway Time!! We're giving away CryptoFreak #201, a Rocking Rockstar worth .2 ETH ($400), to enter:  - Follow @digirocksnft  - Retweet this post - Tag 2 friends  Winner will be chosen at 9PM EST on Sunday (03/28) #NFT #Giveaway #Cryptoart #cryptofreaks #digirocks https://t.co/68WpYRcql7",221,0
1375990447445733376,"2021-03-28T01:57:41Z","RT @TheCryptoCactus: $ETH / USD  Looking juicy https://t.co/Ib3ItooAGd",389,0
1375990441791791106,"2021-03-28T01:57:40Z","🥇 We are https://t.co/w9DE49pwCm 🚀  👨‍🌾 @GoldFarmIO is a cross-chain DeFi FaaS protocol designed to bring utility to any token by turning it into an NFT farm with no code required on both BSC and ETH blockchains.  🔥 Max Supply: 1000000 $GOLD  Learn:  https://t.co/4nxZBcfdJO https://t.co/C90UElVsdw",247,0
1375990433969532928,"2021-03-28T01:57:38Z","It just amazing to see powerful entry of @PointPay1 as a #blockhain #bank. $PXP #ico ending in June with a top tier #exchange listing.  I highly appreciate, CEO of #PointPay @andrey_svyatov for such a dedication of finishing 9 #products even before the launch  $btc $eth $xrp $ada https://t.co/W8as9VhEXq https://t.co/oi3KwCaekR",9,0
1375990431213776896,"2021-03-28T01:57:38Z","Is ETH at $100k realistic?  imo, yes  Ethereum's total fees need to be $1b per day for ETH to be worth $100k from fees alone (using a 3% discount rate). That's 50x today's fees, or 20x the best ever day's fees of $50M on Feb 23.  I think we'll hit 50x total fees within five years https://t.co/rKfzx62oOF",299,0
1375990429913645056,"2021-03-28T01:57:37Z","reaching $229m full market cap, 19 days after launching on @harmonyprotocol   anonymous developer @VenomDAO, first cross-chain liquidity pool, bridges with ETH-ONE-BSC for @binance's BNB BUSD assets  time-locked and multi-sig contracts coming soon for  https://t.co/0wx8PXyASq https://t.co/GfeDOgszxM",453,0
1375990425148928000,"2021-03-28T01:57:36Z","Do you have money just sitting there in #stablecoins like #USDC or #BUSD? You could be early huge passive income by lending on FTX!   Register here and start earning now: https://t.co/SzgbT2Ypee  $BTC $ETH $BNB $CAKE $CRV $ADA $FTT $USDT $USDC  @coinkit_ mon 0.25 225 $TRX https://t.co/fO3EDM60eG",74,0
1375990422019977219,"2021-03-28T01:57:35Z","@PointPay1 #crypto #bank is conducting an #ico of the native #token $PXP and it's about to end by June 30th  ICO price in increasing by 50% end of March.  Follow CEO of #PointPay @andrey_svyatov  $btc $eth $ltc $uni $xrp $ada $xrp  Plz join, referral link: https://t.co/1IRiGM9pML https://t.co/OEYHOgYs9d",7,0
1375990411915886597,"2021-03-28T01:57:33Z","@KenTheCrypto @100_elon Get  your shill on!!! We are on our way to the moon where we will find financial freedom. Join us for the ride! Jen just started this an hour ago!!!  #safegalaxy #safemars #safemoon #doge #hoge  #btc   #HODL #ALTSEASON #ETH #CryptoNews #Binance   #BNB   #altcoins #crypto #DeFi",4,0
1375990408380055558,"2021-03-28T01:57:32Z","Opportunity to invest early into $PXP @PointPay1  🔥Total Supply: 1B #tokens 🔥500M are available in #ico 🔥Unsold tokens burn: less supply 🔥Buy back program 🔥Buy #PXP, move them to #saving account to earn upto 30% interest p/y. 🔥Price increase by 50% end of March.  $btc $eth https://t.co/I8RVk3s3K2 https://t.co/F322g1HqBA",6,0
1375990402398875651,"2021-03-28T01:57:31Z","RT @jlindsayfilm: Limited edition 3/3 available of Mount Rainier at Dusk my collab with @ohanzeetokala  Offered at 0.333 ETH  https://t.co/…",5,0
1375990401698439170,"2021-03-28T01:57:31Z","Call it Mellow Yellow.💛 Someone minted the very 1st Hefalump @NFTTrader Squads #NFT! https://t.co/ofF1mR0j21  #NFTs #blockchain #dapps #cryptocurrencies #crypto #cryptonews #cryptoart #ethereum #defi $ETH #nonfungible #ERC721  #ERC20 https://t.co/SsmtR3ybo3",10,2
1375990393620287488,"2021-03-28T01:57:29Z","🔄 Prices update in $USD (1 hour):  $BTC - 56072.1 $  (-0.0 %) $ETH - 1712.46 $  (+0.04 %) $DOT - 32.98 $    (+1.2 %) $ADA - 1.19 $     (+0.32 %)  #BTC #ETH #DOT #ADA #Crypto #Bitcoin",0,0
1375990392445894665,"2021-03-28T01:57:28Z","@CoinMarketCap @PointPay1 is going to be huge as a #crypto #bank. $PXP #ico is ending in June and a price increase from $0.10 to $0.15 scheduled end of March.  #DYOR and be early adaptors of a huge #ecosystem.  $BTC $ETH $DOGE $ADA $BAND $XRP $LTC $ENJ $CRV $NANO $UNI $LTC $XLM $VET $USDC $USDT https://t.co/AcQaaWNLJo",12,0
1375990386104078344,"2021-03-28T01:57:27Z","🚨️🔄 1.967636133 #ETH ➡️  12.124244515 #BNB Tickers: ETH/BNB: 6.033531322 🔻-4.12%, BNB/ETH: 0.165740417 PRV/ETH: 0.001727491 🔼0.16%, ETH/PRV: 578.874297695 PRV/BNB: 0.01042287 🔻-4.13%, BNB/PRV: 95.942867751  Tx: https://t.co/rhie1h3MIO",0,0
1375990384854175746,"2021-03-28T01:57:27Z","Have you heard of Gods Unchained?  It's a TCG, like Hearthstone, built on #Ethereum,  where you own all your assets as #NFTs!  They're currently offering $20 in #ETH to try it out! Download here: https://t.co/llX2nDsUNN  $BTC $LTC $ZRX $BAT $FIL $ZIL @coinkit_ mon 0.3 200 $TRX https://t.co/sla7cANHsY",82,0
1375990371856097284,"2021-03-28T01:57:23Z","RT @davidgokhshtein: I send you 1 $ETH - what are you buying this weekend on the market?  Comment below.",1058,0
1375990366223151104,"2021-03-28T01:57:22Z","RT @CryptocatsLive: Cat #0 just sold for 19.99 ETH (0X19) From: 0xedc To: 0xdb2 #Cryptocats #NFT #Ethereum The Yoko Cat team unites ! https…",13,0
