"ID","created_at","text","like_count","rt_count"
1375621087854166019,"2021-03-27T01:29:59Z","No need to spend your own money to trade #cryptocurrency. Over 10K users won crypto rewards on @latokens last week. It's the best way to join the financial revolution. Start by earning a share of $100K in CLIQ airdrop: https://t.co/SEX4gZVAMp #Bitcoin #ETH #Citi #AON #LATOKEN",1,0
1375621086587461632,"2021-03-27T01:29:59Z","@GrowthDefi ANNOUNCEMENT! $GRO Bridge is live!!!!!!! Swap your ERC-20 $GRO on #eth to BEP-20 $GRO on #BinanceSmartChain!! https://t.co/0a6OciuMSo  $GRO is officially a crosschain token!! 🔗  #DeFi #crosschain",14,0
1375621073316638720,"2021-03-27T01:29:56Z","@coinbase Come join the MegaWhale family! Click now! 💎  Members have made over 1400% since February 🤩  MegaWhale free channel 👇 ➡️ https://t.co/TYpYjYm52s 💎Ask about VIP premium 💎  #btc #reef #qkc $chr #chz #vite #eth #ada #wan #link #dot #ren #neo #gas #wpr #mth #sxp",0,0
1375621052772978692,"2021-03-27T01:29:51Z","@GrowthDeFi has officially gone Cross-Chain. You can now get your $GRO on #ETH @Uniswap and #BSC @PancakeSwap  You can also swap between erc20 and bep20 by using the GRO bridge https://t.co/daKoKKDSu7 Get in on the action as We are just getting started 🚀🚀🚀 $BNB $ETH",26,0
1375621047215476739,"2021-03-27T01:29:50Z","🌿 The STRAINZ #Giveaway | Rules 🌿 =   - Step 1: Like &amp; Retweet + tag 3-5 People! - Step 2: Follow @StrainZ_NFT  - Step 3: Join: https://t.co/MRZdJREL0N - Step 4: Like &amp; RT quoted tweet! - Step 5: Send Proof!   Prize = 100$ in #BTC or #ETH  Winner announced at 01/04 🎁 https://t.co/I0m7gDDbg7",1435,0
1375621044292218880,"2021-03-27T01:29:49Z","Stage 3  Sold for 0.2 ETH Congrats to @pan_danil And thanks again to @itstheAGAH For making this dream come true. https://t.co/xfA9jkx7HQ",8,3
1375621019105329157,"2021-03-27T01:29:43Z","This Week's Top Gainers!  🔥@VidyCoin, $VIDYX (363.6%) 🔥@AINORI_coin, $AIN (325.6%) 🔥@curio_invest, $CUR (289.3%) 🔥@DeepBrainChain, $DBC (259.6%) 🔥@macaronswap, $MCRN (256.8%)  #Crypto #DeFi #Ethereum #ETH #BSC #TRON https://t.co/CEMiGWvd32",101,3
1375621010683215880,"2021-03-27T01:29:41Z","@Crypto_Simms Could you help me with some $ETH or any #ERC20 I have no money to invest. It is going up a lot and I will be able to earn money and I will be able to help my family. #ETH 0x863F3BBD250762f12e9e2475051bD23DC2C73024 $BTC 34pHHScartoFzSeKPiz9U2owUD9dPaYcpJ https://t.co/A4E7bSdADy",0,0
1375621007180853248,"2021-03-27T01:29:40Z","🚀 Safe The Children  🔷 Token Symbol : STC  🔷 Contract: https://t.co/nk3qsF2PJV  🔷 Website: https://t.co/4y0g7dqswM  🔷 Whitepaper: https://t.co/PHPZI4dbyR  🔷 Presentation Video : https://t.co/Mycfov12IU  #Safe_Childrens #Bitcoin  #Binance #BinanceSmartChain #DEFI  #BTC #ETH",14722,0
1375620993239052289,"2021-03-27T01:29:37Z","@fish_finance @subhash85925209 @beniaminmincu , @insidepolling1 , @sinaEstavi    0x72809D91b9839ca05606Ba07678126C9701DF6bA  Telegram username- @KumariAditi09   God bless the team, I love the seal , is a success project  #binancesmartchain #tunatoken  $btc $bnb $eth $ada $xrp $cake",0,0
1375620979389501442,"2021-03-27T01:29:33Z","30 day EVIX: 91.4454 ETH/USD vwap: $1,699.70 04/16 expiry volume: $1,906,745.97 04/30 expiry volume: $5,783,011.03 Current time: 01:29:07",0,0
1375620955859513346,"2021-03-27T01:29:28Z","RT @flurtft: any $ETH or $DOGE influencers i can work with to give out some crypto? tag them!! 🐶🐶🐶🚀🚀🚀",116,0
1375620931872260101,"2021-03-27T01:29:22Z","RT @ProBitSpanish: Trade #XDC en ProBit 🔥  https://t.co/YAACtJ8SP9 https://t.co/GnrKjUUmpT https://t.co/6SNqKf2iXN https://t.co/4rpcXVUPD8",34,0
1375620930857267207,"2021-03-27T01:29:22Z","This year so far:   Coti 5x Dot 4x Sol 3x Fil 4x Ovr 2.5x Dia 3x Eth 4x Kyl 2.5x",0,1
1375620929712230406,"2021-03-27T01:29:22Z","What project bounces Litecoin from the Top 10 MC for good?  $BTC 1 $ETH 2 $USDT 3 $BNB 4 $ADA 5 $DOT 6 $XRP 7 $UNI 8 $THETA 9 $LTC 10  ....🔪🔪🔪 https://t.co/XZoB4aMfA0",0,0
1375620916814700544,"2021-03-27T01:29:19Z","@TrustWalletApp @pushpendrakum I have transferred 4.25 eth from my binance to trust wallet. and swap NFT token a)1ovr Nft b) DGCG nfts c) cws nfts d) NCT e)  bondly through uniswap After that I have checked my wallet but  NFTs are showing zero. I am your premium member.",0,0
1375620912288948226,"2021-03-27T01:29:17Z","@CesarPo71 I’m actually learning how to do it right now! There’s an online marketplace called OpenSea. That’s the one I’m trying to learn. It requires ETH gas fees, which are apparently pretty expensive. But I’ll pass along any info I find. 💪🏻",1,0
1375620903044849669,"2021-03-27T01:29:15Z","This is my best piece yet, and only one of mine available on the market as of now!  RT and tell me your thoughts! Honestly proud of this one  As always, reserve is 1 ETH! First bid triggers auction.  https://t.co/QKtww5C9Hw https://t.co/WrRTc2D1zX",151,0
1375620900029149186,"2021-03-27T01:29:15Z","Son Goku joined the @Zenon_Network party!🟢👽  $ZNN #Bitcoin #DeFi #ERC20 #NFT #Crypto #web3 #bitclout $dot $eth $ada $avax $sol $bnb $link $zec https://t.co/hlOK4Sbe4u",5,0
1375620899391463424,"2021-03-27T01:29:14Z","CryptoKaren #94 says her tattoo artist “has an obvious crush on her”: https://t.co/NyDsQBw36h  #NFTs #nftart #nftcollectors #NFTcollectibles #digitalassets #digitalasset #crypto #ETH #Ethereum #cryptoart #digitalart #opensea #NFTdrop https://t.co/W1WHds6u5W",9,0
1375620897965539328,"2021-03-27T01:29:14Z","2/ 🎁 EXCLUSIVE GIVEAWAY!  @moonwolf_io are giving away FIVE RARE WOLF NFTs Genesis to five winners! 🔥  To win these NFTs: ✅ Drop your Eth addresses as a reply to this tweet ✅ Follow @moonwolf_io  Winners will be announced on @moonwolf_io’s account! Stay tuned!",327,0
1375620880840093698,"2021-03-27T01:29:10Z","@sumitkapoor16 Your signals are our opportunity  Thanks a lot sir  Eth address  0xf1E50b42E2BC0705C81498E50C8A38E8f5B17b8A",0,0
1375620879430922243,"2021-03-27T01:29:10Z","@jdshutt Farmers and ETH 😍 Brother is arms",1,0
1375620878235435011,"2021-03-27T01:29:09Z","RT @flurtft: any $ETH or $DOGE influencers i can work with to give out some crypto? tag them!! 🐶🐶🐶🚀🚀🚀",116,0
1375620877295976449,"2021-03-27T01:29:09Z","@pushpendrakum @pushpendrakum i am premium member. I have swapped 4.25 eth from trust wallet to  NFT token a)1893.19 ovr Nft b) 1962.30 DGCG nfts c) 18.44 cws nfts d) 7087.63 NCT e) 1327.83 bondly through uniswap After that now my balance of  NFTs are zero. rl.khichi@gmail.com",0,0
1375620848204275713,"2021-03-27T01:29:02Z","tax accountant: so what's this? me: failed gas fee to eth miners for trying to buy mcat20 in order to provide liquidity on the eth/mcat20 pair (paid in muse). account: and.. mcat20? me: floor cats in coin form",6,0
1375620846383890435,"2021-03-27T01:29:02Z","@psycheusd i have a 20000 token i need eth ,trx any other coin how to exchange pleas help me",0,0
1375620845008211970,"2021-03-27T01:29:01Z","Diego Oliveira bought for 0.335 ETH (567.84$) on the secondary market   Season: 2020-2021 Level: 4 Serial: 25/100 Price: 567.84$  ⚽ Sorare: https://t.co/20oplXZs3v  📊: https://t.co/ovSpBPOdHv  #Sorare #NFT #Ethereum #FantasyFootball",0,0
1375620813710311427,"2021-03-27T01:28:54Z","@beaniemaxi @stellabelle @carlosmarcialt @maxtweetzz @1100mil @robnessofficial @maxosirisart yes true but over the last few days collector hib got 2 on bids; 0.75 &amp; 1 eth; one a reeeealy nice MacAfee i'm sauced i missed.   also missed a Max Salvator for 2.   I scoopd this one for sub-$5k this AM, but that's prolly it for cheapies https://t.co/ftSyCmjtqc",3,0
1375620812062011392,"2021-03-27T01:28:54Z","@pushpendrakum i am premium member. I have swapped 4.25 eth from trust wallet to  NFT token a)1893.19 ovr Nft b) 1962.30 DGCG nfts c) 18.44 cws nfts d) 7087.63 NCT e) 1327.83 bondly through uniswap After that now my wallet balance of  NFTs are showing zero. rl.khichi@gmail.com",0,0
1375620801513263106,"2021-03-27T01:28:51Z","The DEX @FinanceChainge is set to launch on the @FUSIONProtocol network with over a million users on the protocols waitlist. This decentralized exchange aims to innovate on traditional models through leveraging the Fusion Network.  #BSC #BTC #ETH #BNB  https://t.co/xx55YiGfm3",21660,0
1375620800661831688,"2021-03-27T01:28:51Z","🔥 $LUNA mcap triples in one month  🔥 $UST mcap exceeds $1b &amp; rising  🔥 $MIR surpasses $1b in TVL  🔥 $ANC launches with Fixed 20% APR  🔥 $LUNA community pool burned  🔥 $100m+ deposits in $ANC  🔥 Pay With Terra API payments gateway created  That's just March ✅  $BTC $ETH https://t.co/SoFjdJ7CKM",313,0
1375620794609364994,"2021-03-27T01:28:49Z","$CKB +130% from 2 entry 👉 Join Channel: https://t.co/Cg2lD5ExP8  $BTC $ETH #NFT $PERL $ENJ $FLOW $THETA #BSC $REEF $LUNA $SAND $AXS $TVK $HOGE $CHZ $STX $ROSE $TROY $ONE $CERL $IRIS $ANC $ADA $DIA $XRP $DOGE $ATOM $LUNA $ZCX $BNB $WABI $LTO $CVC https://t.co/4sHnFhKR8Z",5,0
1375620726263148544,"2021-03-27T01:28:33Z","#BITCOIN LUXURY RING! Oo 💎💎💎  https://t.co/cI9NzJcbqG #rarible #ethereum #xrp #eth #bitcoin #rarible #btc #satoshinakamoto #nonfungible #digitalasset #nft via  @rariblecom https://t.co/gPmBRppVL4",4,0
1375620708319961094,"2021-03-27T01:28:29Z","Let’s Go Go Go..  $btc $eth #Bitcoin #Ethereum https://t.co/GPBfSE7zK3",0,0
1375620702053744653,"2021-03-27T01:28:27Z","How the f.. can I use my $ETH on Metamask and $ETH wallet without paying 2 digits on gaz fees? $UNI",0,0
1375620692041949186,"2021-03-27T01:28:25Z","Fernando Gorriarán bought for 0.405 ETH (686.49$) by MjHyde on the primary market   Season: 2020-2021 Level: 0 Serial: 59/100 Price: 686.49$  ⚽ Sorare: https://t.co/6mdfvvzQ7I  📊: https://t.co/b0SUcxsWnf  #Sorare #NFT #Ethereum #FantasyFootball",0,0
1375620687914696705,"2021-03-27T01:28:24Z","New GIVEAWAY ! #Okcash $ok $BTC #ETH  “20” WINNERS 5 OK EACH. Valid until the next giveaway.  RULES:  1. Like and Retweet 2. Follow 3. Tag 3 friends 4. Post your Okcash address in answer to this tweet #Bitcoin  #Giveaway #cryptocurrency #Crypto #Sharing #EXCHANGE https://t.co/nVWonP0VuC",33,0
1375620680922886144,"2021-03-27T01:28:22Z","@DropYourNFT NEW DROP! Whoman x Drake, 2021  I’ve made the edition of 6ix, and 5 of them are available for sale. The first one starts at 0.15 eth and then doubles for each edition (0.15, 0.3, 0.6, 1.2, 2.4 eth) Link in bio #nft #nftcollectors @Drake #nftart #NFTcollectibles #NFTartist https://t.co/3HnDAThuUC",0,0
1375620668822224896,"2021-03-27T01:28:19Z","@Strange_G Very good! #Eth even better👍",1,0
1375620666150490116,"2021-03-27T01:28:19Z","Please Retweet if you find value in my content!  12000% Profit #Altcoin Picks! Next #altcoins to pump extreme! Explosive #altcoin season soon! Opportunity of a lifetime coming soon! $ETH $FET $WTC $BTT  https://t.co/ze4nUxbk47",156,0
1375620661100441601,"2021-03-27T01:28:18Z","@whale_alert Take advantage of the BULLRUN! Click below now!💎  Members have made over 1400% since February 🤩  MegaWhale free channel 👇 ➡️ https://t.co/TYpYjYm52s 💎Ask about VIP premium 💎  $btc $reef $qkc $chr $chz $vite $eth $ada $wan  $mtl $pay $dgb $rdd",1,0
1375620636941246473,"2021-03-27T01:28:12Z","No need to spend your own money to trade #cryptocurrency. Over 10K users won crypto rewards on @latokens last week. It's the best way to join the financial revolution. Start by earning a share of $100K in CLIQ airdrop: https://t.co/t6p0yQQJod #Bitcoin #ETH #Citi #AON #LATOKEN",0,0
1375620633497907204,"2021-03-27T01:28:11Z","🚀 Pluto Coin  Airdrop 🚀 Rate: ⭐⭐⭐⭐ ⭐ 🎁 Reward:  8822 PLUT ($1500) 👫 Referral: 40.5 PLUT  ($7)  🤖Start Bot here   https://t.co/x5JZchojO8  ⛂ Join Telegram group and channel. ⛂ Follow twitter &amp; retweet  ⛂ Submit ETH address and details.",6005,0
1375620629609603073,"2021-03-27T01:28:10Z","🏆 Follow us &amp; Retweet this tweet, Specify the ETH address in the tweet comment to get 10 #BIT ($10 worth) or 50 #BIT ($50 worth) #BitScores Airdrop Tokens! 🎁 $250,000 Prize Pool Full rules: https://t.co/N53M5nRXr9  #giveaway #airdrops #bounty #giveaways #defi #eth #btc #airdrop https://t.co/m77hDtRsBv",3577,0
1375620629458653189,"2021-03-27T01:28:10Z","About to close in 41 min https://t.co/kiP9JjQarn #nftcollector #nft #nfts #NFTCommunity #eth #Cryptoart #Cryptoartists",3,2
1375620628695367681,"2021-03-27T01:28:10Z","🎉Earn $12 $BRG🚀  💸💸Legit Airdrop💰💰  Join: https://t.co/XFCmFJdWQ9   Complete All Steps Done. At final step, it'll ask to buy tokens. Don't buy, Just click bought/done  #Bitcoin #BTC #Doge #TRX #ETH _____  @rocketbotpro airdrop 0.5 merge 50  #CTBot Adrop Avg 27 BTT 67",61,2
1375620606142648322,"2021-03-27T01:28:04Z","@hansondex_ NEW DROP! Whoman x Drake, 2021  I’ve made the edition of 6ix, and 5 of them are available for sale. The first one starts at 0.15 eth and then doubles for each edition (0.15, 0.3, 0.6, 1.2, 2.4 eth) Link in bio #nft #nftcollectors @Drake #nftart #NFTcollectibles #NFTartist https://t.co/EWJRAjsu6z",3,1
1375620582889373696,"2021-03-27T01:27:59Z","Axie #154844 was sold for 0.5 ETH ($850.18). Buyer: 0x005efa..., seller: 0x6bfb03... 🔥 Congrats to the new owner! Tx: https://t.co/RH8TrevoY5 #AxieInfinity #NFT #Ethereum #Play2Earn https://t.co/53CKiqzsI4",2,0
1375620562433703938,"2021-03-27T01:27:54Z","@chriswallace A couple of photo stories from me currently on sale. Very rare, highly collectible, and a great investment.   https://t.co/smZZt1EYVS  https://t.co/GyiBu09XsF   #nft #nftphotography #nftcollector #eth #nftart #NFTCommunity #NFTartist #Cryptoart #NTFs #Crypto",2,0
1375620557748703235,"2021-03-27T01:27:53Z","Join Robinhood with my link and we'll both get a free stock 🤝 $PLTR $SRNE $FOUR $AAVE $PLTR $ETH $AGEN $AMD $ZYNE $FIZZ $FOUR $AAVE $CODX $BTC $FOUR $SABR $FOUR $SRNE $AMZN 🚀 https://t.co/FAhp3kcDPR",0,0
1375620553000714241,"2021-03-27T01:27:52Z","Circle unveils plans to support #BTC and #ETH payments, as well as storage, custody and transfer of NFT assets @circlepay #Bitcoin #NFT #blockchain #payment #fintech #Trending  https://t.co/WdTcShFNSm",0,0
1375620541906878466,"2021-03-27T01:27:49Z","RT @kaspertrades: $10k $ETH before July and everybody who retweets this gets 250$",0,0
1375620535464292353,"2021-03-27T01:27:48Z","This change focused on the Binance Chain mainnet and reduced multiple fees. We can expect further proposals to lower fees on the Binance Chain and the Binance Smart Chain as BNB price continues its steady accent higher. @BinanceChain  #BSC #BTC #ETH #BNB  https://t.co/oJLLPs1Icv",280,0
1375620517152006146,"2021-03-27T01:27:43Z","Gonna smoke a joint and spend some ETH today,   Shill me your #NFTs and #NFT art, I'm stoned and looking to invest 🍀  #NFTCommunity #nftcollectors",339,0
1375620512735354882,"2021-03-27T01:27:42Z","No need to spend your own money to trade #cryptocurrency. Over 10K users won crypto rewards on @latokens last week. It's the best way to join the financial revolution. Start by earning a share of $100K in CLIQ airdrop: https://t.co/Vj6DSQOLYt #Bitcoin #ETH #Citi #AON #LATOKEN",1,0
1375620505399554050,"2021-03-27T01:27:40Z","@Pack2Digital A couple of photo stories from me currently on sale. Very rare, highly collectible, and a great investment.   https://t.co/smZZt1EYVS  https://t.co/GyiBu09XsF   #nft #nftphotography #nftcollector #eth #nftart #NFTCommunity #NFTartist #Cryptoart #NTFs #Crypto",0,0
1375620494657867784,"2021-03-27T01:27:38Z","Get BTC, ETH, LitCoin... free daily without investment. Only use Blockchain Wallet. https://t.co/ObVDrT9vOy https://t.co/zVWoRORcdw",0,0
1375620492380495872,"2021-03-27T01:27:37Z","#BTC Price: $54750 #ETH Price: $1700 #LTC Price: $183  Next update in 10 minutes Last updated: 21:27:37.06",0,0
1375620481945112578,"2021-03-27T01:27:35Z","This is why I will never buy/sell/trade $ETH ever again.  #Ethereum #Cardano $ADA #Cosmos $ATOM #Polkadot $DOT #HarmonyOne $ONE #Algorand $ALGO https://t.co/zl6bLDYtGq",4,0
1375620463410434052,"2021-03-27T01:27:30Z","🚀 Pluto Coin  Airdrop 🚀 Rate: ⭐⭐⭐⭐ ⭐ 🎁 Reward:  8822 PLUT ($1500) 👫 Referral: 40.5 PLUT  ($7)  🤖Start Bot here   https://t.co/x5JZchojO8  ⛂ Join Telegram group and channel. ⛂ Follow twitter &amp; retweet  ⛂ Submit ETH address and details.",6005,0
1375620460382195712,"2021-03-27T01:27:30Z","@tlk_eth How dare you? - My new DROP on  @withFND ♻️ This art is dedicated to the struggle of eco-activists against the leaders of states.  @GretaThunberg  is an eco-activist whose work is of particular interest to me.  LINK:  https://t.co/ORYW4mPrmL  #Cryptoart #NFT #NFTs",1,0
1375620446524084225,"2021-03-27T01:27:26Z","@MantaXR A couple of photo stories from me currently on sale. Very rare, highly collectible, and a great investment.   https://t.co/smZZt1EYVS  https://t.co/GyiBu09XsF   #nft #nftphotography #nftcollector #eth #nftart #NFTCommunity #NFTartist #Cryptoart #NTFs #Crypto https://t.co/sEx0GjBlkm",2,0
1375620440513724426,"2021-03-27T01:27:25Z","@H20DRTodd last bit on the topic, let's say ETH retains dominance and everyone uses the shard chains  the actual operational difference between using a shard and using SOL to go back and forth is practically nothing.   So worst-case scenario, SOL becomes an ETH shard of sorts.",0,0
1375620419105996803,"2021-03-27T01:27:20Z","@mickalamasse1 @Poolz__ @bepronet @Poolz__  Soon we'll go to the moon! But to carry out the #tacoswap project, we need you!!! It's now! #tacoswaptothemoon #ToTheMoon #Tacotoken🌶 #defi #dex #crypto @elonmusk #ETH #Crd #Sushiswap 🚀🚀🚀🌶🌶🌶🌶❤️❤️❤️❤️",62,0
1375620406791442433,"2021-03-27T01:27:17Z","$BTC Dom Vs #ALTS  Still being squeezed down. Again, this chart is where I've made most of my money.   If this can break down here we likely get an alt season like 17' once again. Massive extensions.   You need a large impact alt like $Eth to start the move (looks likely) https://t.co/55kfl9KBR6",566,0
1375620405961093127,"2021-03-27T01:27:17Z","@flurtft Sir @MoneyNostra for his love for $ETH above all 🤑🤑  buddy @flurtft",1,0
1375620401993224202,"2021-03-27T01:27:16Z","@SEANSTACKN @btcplebeian Etherium will have a larger market cap than btc.  Like if you agree",0,0
1375620380203778048,"2021-03-27T01:27:11Z","New GIVEAWAY ! #Okcash $ok $BTC #ETH  “20” WINNERS 5 OK EACH. Valid until the next giveaway.  RULES:  1. Like and Retweet 2. Follow 3. Tag 3 friends 4. Post your Okcash address in answer to this tweet #Bitcoin  #Giveaway #cryptocurrency #Crypto #Sharing #EXCHANGE https://t.co/nVWonP0VuC",33,0
1375620324197199875,"2021-03-27T01:26:57Z","The DEX @FinanceChainge is set to launch on the @FUSIONProtocol network with over a million users on the protocols waitlist. This decentralized exchange aims to innovate on traditional models through leveraging the Fusion Network.  #BSC #BTC #ETH #BNB  https://t.co/xx55YiGfm3",21660,0
1375620300801372160,"2021-03-27T01:26:52Z","RT @SpaceApeNFT: SpaceApe #11 has joined the galactic alliance and is now minted on the #ETH blockchain via  @opensea   https://t.co/OJ9eKH…",14,0
1375620297064255490,"2021-03-27T01:26:51Z","Let's start off this week with the four most traded coins and tokens on Bitpanda right now:   1️⃣ $BTC 2️⃣ $BTT 2️⃣ $ETH 4️⃣ $CHZ   Are you also planning on trading them this week? https://t.co/IZb9FupeUV",1680,0
1375620295579607042,"2021-03-27T01:26:50Z","some say: institutions aren't buying $ETH in size!  i say: they haven't bought $ETH in size, YET  this $BTC bull run is driven by institutional interest  you don't think the same will happen when they start entering into $ETH?  think ahead, or lag the move",334,0
1375620285789925376,"2021-03-27T01:26:48Z","Please Retweet if you find value in my content!  12000% Profit #Altcoin Picks! Next #altcoins to pump extreme! Explosive #altcoin season soon! Opportunity of a lifetime coming soon! $ETH $FET $WTC $BTT  https://t.co/ze4nUxbk47",156,0
1375620275845337088,"2021-03-27T01:26:46Z","RT @MoonOverlord: Everyone crying about btc and eth  Meanwhile my #bsc coins on a mission to Jupiter",437,0
1375620265699209216,"2021-03-27T01:26:43Z","Testnet of $DERO is so good.  With actual NFT (on $ETH or $BNB), people see who has NFT. With $DERO, NFT is public and nobody know who has the NFT.  Imagine in future people see what exactly do u have. $DERO fixes this.  More info about NFT on $DERO : https://t.co/Rnnc3WoigP",20,0
1375620241301065735,"2021-03-27T01:26:37Z","💰 Minted 9.270 #renBTC (508,249.95 USD) on #ETH. Darknodes fee: 0.0232 #BTC (1,270.62 USD) https://t.co/GWp7UWF7L5",0,0
1375620227623358465,"2021-03-27T01:26:34Z","RT @flurtft: any $ETH or $DOGE influencers i can work with to give out some crypto? tag them!! 🐶🐶🐶🚀🚀🚀",116,0
1375620226557964288,"2021-03-27T01:26:34Z","It would be such a waste of time and emotional energy. It uses such a small mount of the ETH network anyway. The best possible solution to this problem is the move to ETH2. Crypto isn't going anywhere and screaming on Twitter about it isn't going to change anything.",0,0
1375620225664606210,"2021-03-27T01:26:34Z","2/ Ethereum is so congested that is unusable for most people @0xPolygon solves this problem and more and  is by far the leading ETH Layer2 solution on the market @hosseeb @dragonfly_cap $Matic",2,1
1375620212800823296,"2021-03-27T01:26:31Z","@TimJDillon I want “The Wallet” when eth crashes",2,0
1375620200398118915,"2021-03-27T01:26:28Z","RT @flurtft: any $ETH or $DOGE influencers i can work with to give out some crypto? tag them!! 🐶🐶🐶🚀🚀🚀",116,0
1375620185726406658,"2021-03-27T01:26:24Z","@nftprofit A couple of photo stories from me currently on sale. Very rare, highly collectible, and a great investment.   https://t.co/smZZt1EYVS  https://t.co/GyiBu09XsF   #nft #nftphotography #nftcollector #eth #nftart #NFTCommunity #NFTartist #Cryptoart #NTFs #Crypto",0,0
1375620171671408642,"2021-03-27T01:26:21Z","RT @cryptofrog202: If any smoothbrain suggests some shitcoin is an $ETH killa, show them this. https://t.co/2spIt4b0ia https://t.co/IK1aUAQ…",18,0
1375620168945037313,"2021-03-27T01:26:20Z","$FIL +71% 👉 Join Channel: https://t.co/Cg2lD5ExP8  $BTC $ETH #NFT $PERL $ENJ $FLOW $THETA #BSC $REEF $LUNA $SAND $AXS $TVK $HOGE $CHZ $STX $ROSE $TROY $ONE $CERL $IRIS $ANC $ADA $DIA $XRP $DOGE $ATOM $LUNA $ZCX $BNB $WABI $LTO $CVC https://t.co/INbVmzKnz9",6,2
1375620162800345088,"2021-03-27T01:26:19Z","💎 Lick This Lotus 💎  ✨ Artwork by @thesarahshow 💰 Sold to @OSFCollections for 5.0 ETH ($8,339.40)  https://t.co/nRp8tah2wQ  #cryptoart #NFT https://t.co/WxHQ4hf7aJ",19,2
1375620158534782977,"2021-03-27T01:26:18Z","RT @ShardiB2: I know you were waiting for it, and now is the right time to say it.  WEEKENDS ARE MADE FOR $ETH https://t.co/V2mEFvVnRs",281,2
1375620109092392960,"2021-03-27T01:26:06Z","🎉Earn $12 $BRG🚀  💸💸Legit Airdrop💰💰  Join: https://t.co/XFCmFJdWQ9   Complete All Steps Done. At final step, it'll ask to buy tokens. Don't buy, Just click bought/done  #Bitcoin #BTC #Doge #TRX #ETH _____  @rocketbotpro airdrop 0.5 merge 50  #CTBot Adrop Avg 27 BTT 67",61,2
1375620099743178754,"2021-03-27T01:26:04Z","@witchgooch A couple of photo stories from me currently on sale. Very rare, highly collectible, and a great investment.   https://t.co/smZZt1EYVS  https://t.co/GyiBu09XsF   #nft #nftphotography #nftcollector #eth #nftart #NFTCommunity #NFTartist #Cryptoart #NTFs #Crypto",1,0
1375620083452497920,"2021-03-27T01:26:00Z","No need to spend your own money to trade #cryptocurrency. Over 10K users won crypto rewards on @latokens last week. It's the best way to join the financial revolution. Start by earning a share of $100K in CLIQ airdrop: https://t.co/6fO5sh6jDi #Bitcoin #ETH #Citi #AON #LATOKEN",0,0
1375620081133228032,"2021-03-27T01:25:59Z","RT @DavosCryptos: $BOLT also for the best #Football content in partnership with @Dugout  #Zilliqa $ZIL $ETH https://t.co/zdRpbY1uW4",297,0
1375620064171331590,"2021-03-27T01:25:55Z","@haltonsteel @LayahHeilpern Instead of recruiting someone else, on metamask, add new account. Send eth to new wallet. Link community builder to new wallet. Then stake eth. When ever you sign up new people, your new link is the primary and your old wallet is the https://t.co/LT0CDNSHsI recieve all rewards",0,0
1375620006466125824,"2021-03-27T01:25:41Z","RT @QuintenFrancois: My top 10 #crypto holdings:  1. $BTC 2. $LINK 3. $ETH 4. $VET 5. $ERN 6. $BNB 7. $BNT 8. $MATIC 9. $POLK 10. $ENJ   Wh…",2518,0
1375619985859567616,"2021-03-27T01:25:37Z","On parle plus du Taco ☁️      🛰         🌙     ☁️        ☁️ ☁️    🚀    ☁️            *       ☁️                   *       ☁️    *              *            *          *        *  💥 TacoToken 🌶🌶️🌶️🌶️🌶️ tacoswap is the best #dex on the blockchain #eth Come to #TACOSWAP 🌶️🌶️🚀🚀 https://t.co/xQepBdNPUx",4,0
1375619976321712128,"2021-03-27T01:25:34Z","To the moon @bepronet ☁️      🛰         🌙     ☁️        ☁️ ☁️    🚀    ☁️            *       ☁️                   *       ☁️    *              *            *          *        *  💥 TacoToken 🌶🌶️🌶️🌶️🌶️ tacoswap is the best #dex on the blockchain #eth Come to #TACOSWAP 🌶️🌶️🚀🚀 https://t.co/gOMacirWfB",2,0
1375619959167016970,"2021-03-27T01:25:30Z","RT @QuintenFrancois: My top 10 #crypto holdings:  1. $BTC 2. $LINK 3. $ETH 4. $VET 5. $ERN 6. $BNB 7. $BNT 8. $MATIC 9. $POLK 10. $ENJ   Wh…",2518,0
1375619957698961408,"2021-03-27T01:25:30Z","Welcome to massive Q DAO airdrop!   1. go now to telegram https://t.co/COyXgODY1z   2. Stay in telegram chat and wait announcement.  3. HOLD this gem until 10x   (soon - QDAO launch cross-chain for BSC, Polkadot and ETH)",4254,0
1375619948291166221,"2021-03-27T01:25:28Z","@Verox_AICrypto To the moon ☁️      🛰         🌙     ☁️        ☁️ ☁️    🚀    ☁️            *       ☁️                   *       ☁️    *             *            *          *        *  💥 TacoToken 🌶 tacoswap is the best #dex on the blockchain #eth Come to #TACOSWAP 🌶️🌶️🚀🚀",1,0
1375619941215440904,"2021-03-27T01:25:26Z","🔄 Prices update in $USD (1 hour):  $BTC - 54818.2 $  (-1.03 %) $ETH - 1697.98 $  (-0.99 %) $DOT - 32.83 $    (-1.73 %) $ADA - 1.21 $     (-1.28 %)  #BTC #ETH #DOT #ADA #Crypto #Bitcoin",0,0
1375619928829566978,"2021-03-27T01:25:23Z","RT @flurtft: any $ETH or $DOGE influencers i can work with to give out some crypto? tag them!! 🐶🐶🐶🚀🚀🚀",116,0
