"ID","created_at","text","like_count","rt_count"
1376557254699147269,"2021-03-29T15:29:59Z","The DEX @FinanceChainge is set to launch on the @FUSIONProtocol network with over a million users on the protocols waitlist. This decentralized exchange aims to innovate on traditional models through leveraging the Fusion Network.  #BSC #BTC #ETH #BNB  https://t.co/xx55YiGfm3",21659,0
1376557253281583106,"2021-03-29T15:29:59Z","@mickalamasse1 @Exeedme @Poolz__ @bepronet Join us guys! 🌶🌶   #tacotothemoon #tacotoken🌶 #defi #cryptocurrency #BinanceSmartChain  #eth #btc  #tacoswap @exeedme @poolz__ @bepronet",19,0
1376557250341437442,"2021-03-29T15:29:58Z","The first set of Ahegao NFTs sold out in a week, so I've been working on some more which are now live at https://t.co/MAOPR2F1DH  #pixel_dailies #nft #NFTs #nftart #nftartist #crypto #blockchain #eth #ethereum #digitalart #art #value #nftcollector #hentai #ahegao https://t.co/YWPHtqTMQv",78,0
1376557248839831554,"2021-03-29T15:29:57Z","Congress is officially now in Cryptocurrency, for the first time since https://t.co/2M31Ef2qcH has been watching🧐  Rep. Green bought Ethereum $ETH and two other cryptos. Report is edited for brevity. https://t.co/SCkw3ouona",39,10
1376557244955955200,"2021-03-29T15:29:57Z","@money_alotta @EclecticMethod @basileus_eth @cryptovoxels I need this Robot Head AND I want this party. &lt;3",1,0
1376557243747930113,"2021-03-29T15:29:56Z","@NickyPapersNFT @rariblecom 💀SK02💀  #2 of a 5 piece collection all inspired by traditional Mexican Dia de Los muertos Candy skulls  💎1/1  🔥0.2 ETH  https://t.co/gJSOwL9bv5",0,0
1376557239897481216,"2021-03-29T15:29:55Z","@NOFF31497209 wow awesome work hope to be the lucky one  @moroccanmahoga1 @demyangri @markethadameth @NftSnipers @theartoftheking @RichardHWebb   eth : 0x97f4319bfEFd1394fC33E0721cBe7388C57Aa810",1,0
1376557238848942084,"2021-03-29T15:29:55Z","RT @intocryptoverse: In case you missed it, make sure to check out my video yesterday on $ETH fundamental analysis:  https://t.co/mvJA15KhCG",203,0
1376557237557026816,"2021-03-29T15:29:55Z","The DEX @FinanceChainge is set to launch on the @FUSIONProtocol network with over a million users on the protocols waitlist. This decentralized exchange aims to innovate on traditional models through leveraging the Fusion Network.  #BSC #BTC #ETH #BNB  https://t.co/xx55YiGfm3",21659,0
1376557234256232457,"2021-03-29T15:29:54Z","Visa just announced they're using Ethereum as a settlement layer.  Ethereum.  ETHEREUM.  Visa will be paying ETH holders to use the network.  Lol this is so bullish for ETH and this market is still too dumb to understand it.  ETH under $2000 is hilarious.",3684,0
1376557233186598915,"2021-03-29T15:29:54Z","RT @coinlistings: New CoinGecko Listing: $LPL  Twitter: @linkpoolio Contract: #ERC20 #ETH #bitcoin #crypto #coingecko https://t.co/t6M3PJVy…",114,0
1376557232989499392,"2021-03-29T15:29:54Z","💧YetuBit Airdrop 2nd Round💧  🏆 Task:          ➕  25 YETU (~$20)  👨‍👩‍👧 Referral:   ➕  5 YETU (~$4)  🔛  Airdrop Link &amp; Information: https://t.co/ZoGw3AR71I  #cryptocurrency #Crypto #Bitcoin  #BSC #BinanceSmartChain #Ethereum #ETH #Airdrop #bounty #YetuBit #YetuSwap #YETU",4529,0
1376557230774964228,"2021-03-29T15:29:53Z","What is the added value of a @TheHashmasks  that holds an item you ask?!  Looking at Steampunk Masks w/o an item (left) we see an avg. sale price ~5 ETH.  However, a Steampunk Mask WITH any item (right) sells for 7.66 ETH on avg. Jamal, thanks for that sweet sweet data. https://t.co/nsexdW8QGb",22,2
1376557226224148480,"2021-03-29T15:29:52Z","We will randomly collect ETH wallet addresses every day and arrange to send the airdrops of 100,000 NFTs until the end of Q2. Those who haven't received NFTs don't need to worry, because it will always be your turn. https://t.co/3APkHz0uO3",886,2
1376557226060619779,"2021-03-29T15:29:52Z","RT @scoinaldo: What an opening on the weekly.  Total crypto mcap about to go absolutely nuts.  $BTC $ETH https://t.co/aEcIY2cu0F",335,2
1376557222440927237,"2021-03-29T15:29:51Z","@davidlin_TV @Frank_Giustra @michael_saylor @KitcoNewsNOW Frank Giustra helped launch the most Profitable Crypto Mining Company HIVE $hvbtf.     HIVE is the #1 ETH Miner &amp; a Leading BTC Miner that uses 100%“Stranded GREEN Energy”.  Kevin O’Leary, as a joke, said Frank is a BTC Hater &amp;  Eco-unfriendly (Kevin Follows Frank on Twitter).",0,1
1376557221073522688,"2021-03-29T15:29:51Z","TOP-5 coins with the largest market cap:   $BTC    $1,080,238,858,769 $ETH    $204,814,870,799 $BNB    $41,931,296,058 $USDT  $40,490,073,764 $ADA    $38,579,473,565",4,2
1376557215436398595,"2021-03-29T15:29:50Z","This is also another exciting upcoming event when #MorpheusLabs announces the completion of the Smart Compliance #application for @PwC!!  Do your research on $mitx now 💎💎  #Crypto #btc #eth #Polkadot #BSC #blockchain #xrp #etn #bnb  @oddgems @kucoincom  https://t.co/W2b0il0Tr2",37,2
1376557207307829248,"2021-03-29T15:29:48Z","RT if  you have at least one $ETH",0,0
1376557206548660228,"2021-03-29T15:29:47Z","We will randomly collect ETH wallet addresses every day and arrange to send the airdrops of 100,000 NFTs until the end of Q2. Those who haven't received NFTs don't need to worry, because it will always be your turn. https://t.co/3APkHz0uO3",886,0
1376557199447711750,"2021-03-29T15:29:46Z","RT @ki_young_ju: I smell crypto mass adoption here  $ETH",1537,0
1376557194922110982,"2021-03-29T15:29:45Z","@mickalamasse1 @Exeedme @Poolz__ @bepronet Men lie, not numbers 😜🚀 LOOK NOW at our 🌶‼️APY‼️🌶  #tacotothemoon #tacotoken🌶 #defi #cryptocurrency #BinanceSmartChain  #eth #btc  #tacoswap @exeedme @poolz__ @bepronet",16,0
1376557193332396037,"2021-03-29T15:29:44Z","$KAI will be the name in every household https://t.co/zWXSeMLXq3 exposing @KardiaChain to millions of users. @AlibabaGroup  https://t.co/LR8pm2W6Bg @HP @Microsoft  Connect the dots! One decision is all you need, you decide your future. It's never too late!  #BTC $ETH $ANKR $LINK https://t.co/mfLvE4IS0E",60,0
1376557192522833924,"2021-03-29T15:29:44Z","Join the @Holdefi community in HLD public sale!  #HLD #Holdefi #ETH #BSC #IDO #ICO 👇👇 https://t.co/piJgpSc1vo Nice project.",0,0
1376557182838210562,"2021-03-29T15:29:42Z","In case you missed it, make sure to check out my video yesterday on $ETH fundamental analysis:  https://t.co/mvJA15KhCG",203,26
1376557173862502400,"2021-03-29T15:29:40Z","@cryptorecruitr $ETH is all out of gas...",4,0
1376557173325578242,"2021-03-29T15:29:39Z","Jurriën Timber bought for 0.281 ETH (500.85$) by ManagerCB on the primary market   Season: 2020-2021 Level: 0 Serial: 45/100 Price: 500.85$  ⚽ Sorare: https://t.co/FGZbTHsix7  📊: https://t.co/uGQ0bdQKAJ  #Sorare #NFT #Ethereum #FantasyFootball",0,0
1376557172239241224,"2021-03-29T15:29:39Z","RT @cryptunez: my proof that aliens exist is that the creator of $ETH looks like this: https://t.co/YXbJ9yMRsX",537,0
1376557169579945986,"2021-03-29T15:29:39Z","@Jeroen_vd_Broek It’s nothing just more $ETH hype BS",2,0
1376557169466732547,"2021-03-29T15:29:39Z","LUKSO once again leading the pack.  Layer 1 - Eth 2. 0 tech Layer 2 - ERC725 Universal profiles Layer 3 - Ecosystem of creative people and outstanding thought leader advisors Layer 4 - Native &amp; partnership apps ready to deploy on mainnet Layer 5 - Thoughtful UI for mass adoption https://t.co/EM5ueDKLhS",23,0
1376557167432540164,"2021-03-29T15:29:38Z","RT @departed93: Show your collection, not your ETH if you want to be taken seriously in the space",4,0
1376557167394877442,"2021-03-29T15:29:38Z","RT @Bryaneadamson: EIP 1559, Berlin hard fork, and visa accepting ETH are not priced in yet. $ETH @sassal0x",454,0
1376557163678588928,"2021-03-29T15:29:37Z","It’s really great to see movements like this. Hopefully @stripe will follow. We currently accept $BTC, $ETH, $DAI, and $USDC through @CommerceCB. https://t.co/Gol7U0RG02",3,0
1376557163032702977,"2021-03-29T15:29:37Z","#DeFi #BKC #eth2 #BucksCake  ANNOUNCEMENT!  Dear BucksCake's community members!  The exact date of BKC listing on Uniswap set for 04/20/2021!  2 days before it, the exact opening time of the trading pair BKC/ETH on Uniswap...  More at https://t.co/RQPMhjazG2 https://t.co/VjtBbXBA1t",2856,0
1376557160981622793,"2021-03-29T15:29:37Z","@TheMoonCarl $matic is $eth 2.0",2,0
1376557159895367690,"2021-03-29T15:29:36Z","@davidgokhshtein #ETH is useless and has no future in finance",1,0
1376557159060676616,"2021-03-29T15:29:36Z","Dear investors !   #tacoswap is on 🔥 $ 5 million staked !  It’s just the begining !  What are you waiting for to have your taco and join the adventure!  #tacotothemoon #tacotoken🌶 #defi #cryptocurrency #BinanceSmartChain #eth #btc #tacoswap @exeedme @poolz__ @bepronet",1172,0
1376557149099286531,"2021-03-29T15:29:34Z","30 day EVIX: 87.0393 ETH/USD vwap: $1,768.53 04/16 expiry volume: $1,187,052.17 04/30 expiry volume: $4,474,627.78 Current time: 15:29:06",0,0
1376557147178295297,"2021-03-29T15:29:33Z","@iamDCinvestor ETH below $2000 - not sure people got it...",0,0
1376557144326176773,"2021-03-29T15:29:33Z","@mickalamasse1 @Exeedme @Poolz__ @bepronet Together 💪🏻🔥🌶   #tacotothemoon #tacotoken🌶 #defi #cryptocurrency #BinanceSmartChain  #eth #btc  #tacoswap @exeedme @poolz__ @bepronet",40,0
1376557141654265859,"2021-03-29T15:29:32Z","@mickalamasse1 @Exeedme @Poolz__ @bepronet welcome aboard the rocket🚀🚀 to the moon🌖🌖 #tacoswaptothemoon #tacoswap #crd #DeFi #Binance #eth #Ethereum #btc @mickalamasse1 🌶🇫🇷🇪🇺🇺🇸🇷🇺🇩🇿🌍🌎🌏🌶 https://t.co/PMlzmIqgze",21,0
1376557135786479624,"2021-03-29T15:29:31Z","@TheCryptoLark I like your grandeur of versatility to explain the factors and timeline to research before investing in any coin, good analysis I am a long term for $ADA Cardano with $ETH as my stronghold",0,0
1376557129046188033,"2021-03-29T15:29:29Z","@crypto_thai Take a look at $FCL. 👀  🍪@fractalprtcl is an open source zero-margin protocol that defines a basic standard to exchange user information in a fair and open way ensuring a high-quality version of the free internet.  🔒🔒🔒  #DeFi $BTC $ETH https://t.co/EgphbbrxtC",2,2
1376557120288661510,"2021-03-29T15:29:27Z","almost everyone in the #Ethereum community now understands that the value of $ETH is a critical parameter for security  this is especially the case under Proof of Stake  it took time, but people got it  to believe otherwise is to threaten the long-term security of Ethereum, imo",155,2
1376557119453863946,"2021-03-29T15:29:27Z","RT @slashiropsd: ETH Room is still looking for a home ! 😁😁 https://t.co/UqtSXqyGNi",14,2
1376557112621363205,"2021-03-29T15:29:25Z","We will randomly collect ETH wallet addresses every day and arrange to send the airdrops of 100,000 NFTs until the end of Q2. Those who haven't received NFTs don't need to worry, because it will always be your turn. https://t.co/3APkHz0uO3",886,2
1376557110545162251,"2021-03-29T15:29:25Z","We will randomly collect ETH wallet addresses every day and arrange to send the airdrops of 100,000 NFTs until the end of Q2. Those who haven't received NFTs don't need to worry, because it will always be your turn. https://t.co/3APkHz0uO3",886,2
1376557105730179076,"2021-03-29T15:29:23Z","Well done, Metroids!  Our social ranking from @LunarCRUSH is now in the top 150 of all #crypto projects in the world. Keep the momentum going by telling others how excited you are about #Metrix! Let's make this an incredible year together.  $MRX #altcoins #socialmedia $btc $eth https://t.co/ZHb78vdBhZ",104,2
1376557103058411520,"2021-03-29T15:29:23Z","RT @MightyFrenron: I mean, visa using ETH tells me that arbitrum is ready",34,2
1376557099933519879,"2021-03-29T15:29:22Z","@cryptorecruitr Eth splitting market with ada dot bnb avax etc etc, how will it possibly get to 10k this year ?",1,0
1376557091310067718,"2021-03-29T15:29:20Z","RT @scoinaldo: Looks like $BTC and $ETH could test their ATHs this week.",1549,0
1376557086885224448,"2021-03-29T15:29:19Z","@mickalamasse1 @Exeedme @Poolz__ @bepronet 5 million $ staked 🤑  🌶🚀🌕🌶 #tacotothemoon #tacotoken🌶 #defi #cryptocurrency #BinanceSmartChain #eth #btc #tacoswap @exeedme @poolz__ @bepronet",14,0
1376557086767788036,"2021-03-29T15:29:19Z","$BOND (@barn_bridge) is whitelisted on https://t.co/p15kzfbPrE!  Users can now stake $BOND single-sided with IL protection and earn swap fees in $BOND.  Stake 👉 https://t.co/u7D5WA7Fq9  No room for $BOND? Add $BNT to open up space. https://t.co/29yQgGLFCl",194,0
1376557084095864833,"2021-03-29T15:29:18Z","RT @davidgokhshtein: So, Visa is settling payments in $USDC stablecoin on #Ethereum blockchain.   Again, on the #Ethereum blockchain.   $ET…",194,0
1376557083269726208,"2021-03-29T15:29:18Z","@Sarah_ch_92 @SirLoveStain @m__btc I mean exactly. We will all do very well. But from what I see, Eth does better not just in a year but since it started compared to Bitcoin.",2,0
1376557073912233995,"2021-03-29T15:29:16Z","$CFI  https://t.co/8Km9VL7ZEl (CFI) - New IDO - 02/04/2021  https://t.co/HEDCLHeQuq  $EVENTS $XVG $XRP $ADA $BTC $ETH $LEND $REQ $XLM $NEO",0,0
1376557072100261888,"2021-03-29T15:29:15Z","RT @frombroke2bags: #VISA is using the #Ethereum network. The “Eth killer” FUD officially ended today.",490,0
1376557067951960066,"2021-03-29T15:29:14Z","@Walshy_Eth @TOBusinessLaw @ApeSloth @BCorgi12 @Polkamonorg It's incredible that people are so passive aggressive even though they tweaked it to be cheaper for everyone. Imagine if they had actually required minting an NFT for 200$ gas. Can't please anybody nowadays",1,0
1376557063258525703,"2021-03-29T15:29:13Z","IT HAPPENED, though I'm not a collector type person , and even more super unmaterialistic and on top of that i do not even exist in this physical realm and dimension. I MADE MY FIRST BID YESTERDAY🤣. And i wanna tell u guys, those ETH fees is a real barrier for new collectors",2,0
1376557062071652352,"2021-03-29T15:29:13Z","@mickalamasse1 @Exeedme @Poolz__ @bepronet Dear investors !   #tacoswap is on 🔥 $ 5 million staked !  #tacotothemoon #tacotoken🌶 #defi #cryptocurrency #BinanceSmartChain #eth #btc #tacoswap @exeedme @poolz__ @bepronet",54,0
1376557058221293568,"2021-03-29T15:29:12Z","@mickalamasse1 @Exeedme @Poolz__ @bepronet To the moon 🌶🌶🌶🌶🌶🌶   #tacoswap  #tacotothemoon #tacotoken🌶 #defi #cryptocurrency #BinanceSmartChain  #eth #btc  #tacoswap @exeedme @poolz__ @bepronet",6,0
1376557058095517700,"2021-03-29T15:29:12Z","@BullishKid Where is $USDC's loyalty to $ETH? @Algorand @SBF_Alameda @solana",1,0
1376557057642467330,"2021-03-29T15:29:12Z","@muratpak @ascribeIO blockchain platform for digital art. Register art, create limited editions, transfer ownership. Full legals.  Started 2013, beta in 2014 with several leading digital artists.   Built on Bitcoin; Eth didn't exist yet.   Grew to 10K+ users.",73,0
1376557046754127882,"2021-03-29T15:29:09Z","@ovmor Listed my last mint on @withFND over night! Retweeting to find the right #nftcollector is greatly appreciated 🤟🏼  REAL LASERS, glass, mirrors, h2o Not a lick of rendering/photoshop  Photograph📷 Concert for the Cosmos 1/1 .30 ETH  #nftart #NFT #NFTartist https://t.co/xV80lI58Xx https://t.co/beRv3vSL28",1,0
1376557044895948805,"2021-03-29T15:29:09Z","🚀 Pluto Coin  Airdrop 🚀 Rate: ⭐⭐⭐⭐ ⭐ 🎁 Reward:  8822 PLUT ($1500) 👫 Referral: 40.5 PLUT  ($7)  🤖Start Bot here   https://t.co/x5JZchojO8  ⛂ Join Telegram group and channel. ⛂ Follow twitter &amp; retweet  ⛂ Submit ETH address and details.",6005,0
1376557038168236032,"2021-03-29T15:29:07Z","Visa initially through the https://t.co/dxbdG2CIet card will allow settlement with $USDC instead of first selling the crypto to fiat. Great news for crypto but $ETH in particular where these transactions will use for settlement. https://t.co/vSOi6Hjjrf",0,0
1376557026189352971,"2021-03-29T15:29:04Z","Wow! Great times are coming to $ONE  #Bitcoin #etherium #Binance $ICX $VIPER https://t.co/QKBQUftluv",3,0
1376557019696492546,"2021-03-29T15:29:03Z","All we are teh future of art.   #nft #nftart #nfts #nftartist #nftcollector #nftcommunity #superrare #mintable #rarible #niftygateway #opensea #eth #ethereum #bitcoin #doge #decentraland #sandbox #cryptoart #crypto",2,0
1376557018958290949,"2021-03-29T15:29:03Z","🚀Chubbies #5868🚀 SOLD for 3.5 ETH on OpenSea! Great buy but they would have been better waiting for the @jurassicasylum drop  Check out the transaction: https://t.co/xYP1PVjh3d #JurassicAsylum #NFT #NFTartist #cryptoart #NFTCommunity https://t.co/eVYEaoF8kY",0,0
1376557016873889793,"2021-03-29T15:29:02Z","We're selling art as NFTs — all proceeds will be used to reimburse gas fees for users.   Slicing through — 1 ETH  https://t.co/DSjIgmxLLC https://t.co/LNut3yKJQv",8,0
1376557015577862147,"2021-03-29T15:29:02Z","@TylerDurden @Visa USDC not Eth mainnet",0,0
1376557014130728960,"2021-03-29T15:29:02Z","I'll send $300 in #ETH or #BTC to one person who retweets this and follows @bud_crypto. Must complete these tasks:  1 - Like/RT his pinned tweet  2 - Must RETWEET &amp; LIKE 4 of his tweets  Ends in 72 hours!",1206,0
1376557006643990529,"2021-03-29T15:29:00Z","So... Vanishinig head guy just came back as B&amp;W Artist!,  a tribute to #NFT haters!, available now on @SuperRare.  https://t.co/EHA5YEQOBE 1080 x 1080, with music by @manny_moods (IG)  List price: 2.06 ETH   #Cryptoart #NFTs #Monochromatic #Pixelart https://t.co/AntwE2wSwz",78,0
1376557004857077768,"2021-03-29T15:28:59Z","We will randomly collect ETH wallet addresses every day and arrange to send the airdrops of 100,000 NFTs until the end of Q2. Those who haven't received NFTs don't need to worry, because it will always be your turn. https://t.co/3APkHz0uO3",886,0
1376556992425308162,"2021-03-29T15:28:56Z","Dear investors !   #tacoswap is on 🔥 $ 5 million staked !  It’s just the begining !  What are you waiting for to have your taco and join the adventure!  #tacotothemoon #tacotoken🌶 #defi #cryptocurrency #BinanceSmartChain #eth #btc #tacoswap @exeedme @poolz__ @bepronet",1172,0
1376556991464628229,"2021-03-29T15:28:56Z","We are coming 👽 $ZNN @Zenon_Network   #BTC  #DeFi $ETH $DOT $DOGE $ADA $LINK $UNI $BNB $KAI $HTR https://t.co/4fUZzlIYY4",10,2
1376556983642251266,"2021-03-29T15:28:54Z","Is amazing to see how this project has been out since Dec 2020 and so far Liquidity Providers have earned about 6533.78 $ETH and that is the total value of $10.6 Million dollars. 💪  Also the APY doing 301.35% which is amazing.  #DeFi #UniSwap #BSC #SmartContract #Ethereum https://t.co/9a7rgyoMpE",2385,2
1376556977552191489,"2021-03-29T15:28:53Z","RT @coinlistings: New CoinGecko Listing: $DELTA  Twitter: @Delta_Token Contract: #ERC20 #ETH #bitcoin #crypto #coingecko https://t.co/a2Iqc…",10,2
1376556976386138114,"2021-03-29T15:28:53Z","RT @NFTFusion: What’s your ETH address?  No questions, just drop it below 👇 #NFT #NFTs",1953,2
1376556969251598342,"2021-03-29T15:28:51Z","$coti not till 31st but till July eyeing 3$ for sure $coti $eth $trx $grt $eos $ltc $bnb $btc $rsr $vet $neo $avax $celr $omg $qtum $nbs $bts $hbar $cos $dock $ada $xlm $link $dot #altcoin #BNB #altcoins #ALTSEASON #COTI #tothemoon #Binance #ADA   Hit follow button for gr8 tips.",5,2
1376556966403784710,"2021-03-29T15:28:50Z","$ETH  If the daily candle closes above 2k, it will easily cross 2500$ mark. Keep an eye on it.  Checkout the link in bio for crypto signals  $FTT $TROY $KMD #bitcoin #cryptocurrency $KCS 37751 https://t.co/LhyGGIDSty",0,0
1376556960259010561,"2021-03-29T15:28:49Z","We will randomly collect ETH wallet addresses every day and arrange to send the airdrops of 100,000 NFTs until the end of Q2. Those who haven't received NFTs don't need to worry, because it will always be your turn. https://t.co/3APkHz0uO3",886,0
1376556959944515595,"2021-03-29T15:28:49Z","💧Roku Network Airdrop 💧  🏆 Task:          ➕  15 ROK (~$5)  👨‍👩‍👧 Referral:   ➕  3 ROK (~$1)  🔛  Airdrop Link &amp; Information: https://t.co/YhvsOcfEbH  #cryptocurrency #Crypto #Bitcoin  #BSC #BinanceSmartChain #Ethereum #ETH #Airdrop #bounty #ROK #RokuCoin #RokuNetwork",3811,0
1376556950658326538,"2021-03-29T15:28:46Z","Meet DeLorean!🏎️🎸🌩️ Hurry to buy!  https://t.co/lrs4DmdpIL  One of the cars can be yours for free in 24 hours!  🙌follow me 👍like  🖖retweet  🤝🤝2 friends+ comment with your ETH wallet address.  I wish everyone good luck! #NFTs #NFT #NFTartist #nftart #nft_ru #NFTcollectibles https://t.co/3TgmokUlYK",186,0
1376556945453293573,"2021-03-29T15:28:45Z","We will randomly collect ETH wallet addresses every day and arrange to send the airdrops of 100,000 NFTs until the end of Q2. Those who haven't received NFTs don't need to worry, because it will always be your turn. https://t.co/3APkHz0uO3",886,0
1376556945155366912,"2021-03-29T15:28:45Z","His first shot and a good one from the start :o that looks dop @Infinity3dA the universe orbiting around GAS  https://t.co/x3X3jZfQpU  #NFTs  #nft #nftart #nftartist #nftcollector #cryptoart #crypto #cg  #sculpture #digitalart #eth #etherium #bitcoin #rarible #nifty",3,0
1376556941216915461,"2021-03-29T15:28:44Z","$AKRO super bullish weekly close + MACD bullish cross on 1d TF. We are on a moon mission 🚀  #DeFi #cryptocurrencies #Crypto #cryptocurrency #Bitcoin #BTC #Ethereum #eth https://t.co/jLJiqBwsan",40,0
1376556937576284164,"2021-03-29T15:28:43Z","We will randomly collect ETH wallet addresses every day and arrange to send the airdrops of 100,000 NFTs until the end of Q2. Those who haven't received NFTs don't need to worry, because it will always be your turn. https://t.co/3APkHz0uO3",886,0
1376556921155543046,"2021-03-29T15:28:39Z","@mickalamasse1 @Exeedme @Poolz__ @bepronet To the mooooon on vous a dit!! #tacotothemoon #tacotoken🌶 #defi #cryptocurrency #BinanceSmartChain  #eth #btc  #tacoswap @exeedme @poolz__ @bepronet",46,0
1376556918362152969,"2021-03-29T15:28:39Z","@mickalamasse1 @Exeedme @Poolz__ @bepronet 🌶️🌶️🌶️🌶️🌶️ 🌶️ 🌶️ 🌶️ 🌶️ 🌶️   #tacoswap is on 🔥 $ 5 million staked ! It’s just the begining !  What are you waiting for to have your taco and join the adventure!  #tacotothemoon #tacotoken🌶 #defi #cryptocurrency #BinanceSmartChain #eth #btc #tacoswap @exeedme @poolz__ @bepronet",31,0
1376556915396898819,"2021-03-29T15:28:38Z","We will randomly collect ETH wallet addresses every day and arrange to send the airdrops of 100,000 NFTs until the end of Q2. Those who haven't received NFTs don't need to worry, because it will always be your turn. https://t.co/3APkHz0uO3",886,0
1376556909373894656,"2021-03-29T15:28:37Z","🚀 Pluto Coin  Airdrop 🚀 Rate: ⭐⭐⭐⭐ ⭐ 🎁 Reward:  8822 PLUT ($1500) 👫 Referral: 40.5 PLUT  ($7)  🤖Start Bot here   https://t.co/x5JZchojO8  ⛂ Join Telegram group and channel. ⛂ Follow twitter &amp; retweet  ⛂ Submit ETH address and details.",6005,0
1376556900339224576,"2021-03-29T15:28:34Z","@NFTs_Group Where is the ETH wallet?",0,0
1376556899517128707,"2021-03-29T15:28:34Z","Remember the 1st #VoxelHotel Party?😎  ⚠️Well, you get till next Friday to get some new killing wearable!⚠️  PARTY² on The Rooftop,  @EclecticMethod LIVE video remix!   Like+Retweet to win a 🤖 Robot Head X1 wearable : https://t.co/XsNXwq2SOC  @basileus_eth  @cryptovoxels https://t.co/4hnbHb6QBN",223,0
1376556891053035524,"2021-03-29T15:28:32Z","🤘🤘🤘 First they are trying #ETH network and then they will try #BSC, and ultimatley will chose #FTM Opera network🤣🤣  Why Fantom⚡️Its super easy, super fast, and super cheap.  #Fantom $FTM @FantomFinance @KingsFantom #cryptocurrency #Bitcoin #BTC #Ethereum #BSC #Visa https://t.co/4f2SNnOZVH",18,0
1376556888184156165,"2021-03-29T15:28:31Z","@mickalamasse1 @Exeedme @Poolz__ @bepronet Dear investors !   #tacoswap is on 🔥 $ 5 million staked !  It’s just the begining !  What are you waiting for to have your taco and join the adventure!  #tacotothemoon #tacotoken🌶 #defi #cryptocurrency #BinanceSmartChain #eth #btc #tacoswap @exeedme @poolz__ @bepronet",8,0
1376556887597051907,"2021-03-29T15:28:31Z","@cryptoc2021 $Kin to the moon baby!  $KIN #KIN #Bitcoin #BTC #Ethereum #ETH #Solana #SOL #XRP #NFT #DeFi #Altcoin #alt #usd #fintech #blockchain #crypto #buythedip #gold #silver",13,0
1376556885462167554,"2021-03-29T15:28:31Z","@mickalamasse1 @Exeedme @Poolz__ @bepronet Road to 100k million 🌶!! #tacotothemoon #tacotoken🌶 #defi #cryptocurrency #BinanceSmartChain  #eth #btc  #tacoswap @exeedme @poolz__ @bepronet",6,0
1376556882995777536,"2021-03-29T15:28:30Z","We will randomly collect ETH wallet addresses every day and arrange to send the airdrops of 100,000 NFTs until the end of Q2. Those who haven't received NFTs don't need to worry, because it will always be your turn. https://t.co/3APkHz0uO3",886,0
1376556874598780943,"2021-03-29T15:28:28Z","We will randomly collect ETH wallet addresses every day and arrange to send the airdrops of 100,000 NFTs until the end of Q2. Those who haven't received NFTs don't need to worry, because it will always be your turn. https://t.co/3APkHz0uO3",886,0
