"ID","created_at","text","like_count","rt_count"
1375666377009328128,"2021-03-27T04:29:57Z","🦄Nifty Domains 🎉https://t.co/2jsEp7oVOM 🎉https://t.co/0SelISUHp5 🎉https://t.co/XC2qeucpuj 🎉https://t.co/EGaYZjPyxk  👇More 🔊https://t.co/I43MGm758p  #Defi #Ethereum #crypto #Domains  #cryptocurrency #Bitcoin #Blockchain #btc #eth #eth2 #dapp #vaults #NFTs #NFT #LPS #Pools https://t.co/bNBqw3dSdq",5,0
1375666366754119680,"2021-03-27T04:29:55Z","@Safe_Childrens nice project🚀  #STC #ETH #DEFI #Airdrops",1,0
1375666357241450498,"2021-03-27T04:29:52Z","Gus Check this Article and See for yourself @AnRKeyX's awesome rewards and how you can participate on it! 😍  Be sure to join their Telegram Community https://t.co/4VXAkuAIsT  Legionnaire and Guardians Program Coming your way‼️  @elonmusk @beeple @garyvee  $ANRX $ETH #BTC #BNB https://t.co/rtbu6xURkH https://t.co/LtuPrsUTEH",1,0
1375666356486430720,"2021-03-27T04:29:52Z","@ChrisBlec Can degen “ETH maxis” come if we’re polite? https://t.co/XQFHC0FnUV",1,0
1375666325910126597,"2021-03-27T04:29:45Z","🔥 New #NFTs art available on @rariblecom 🔥  Diamond Hands  #Ethereum #ETH  #NFT   Discover it here 👇 https://t.co/Ur901dKF9k https://t.co/doGogXRdVq",69,0
1375666325356388359,"2021-03-27T04:29:45Z","$ANDX Pre-sale is in full swing now. The token will be listed in Feb 2021. 🚀  Buy $ANDX with $ETH and  $TRX   👉https://t.co/MZsIZYoKjw  Grab token at the lowest Price in pre-sale. Bless your bags with the highest rising #DeFI token of #2021   #Arrano #CryptoNews",5172,0
1375666314551951360,"2021-03-27T04:29:42Z","My biggest problem with Ethereum? Transaction fees.  Just as an example, buying a $2 NFT on mintable would cost you at least $32 at the moment.   Absolutely not realistic to expect wide adoption at this point.  #eth #ethereum #crypto",2,0
1375666311917895683,"2021-03-27T04:29:42Z","@josh_solinger @business Proof of stake is one of many reasons why Eth is less secure than #Bitcoin. Anyone can stake, it literally takes zero work or commitment.",0,0
1375666296063459329,"2021-03-27T04:29:38Z","@Safe_Childrens Great project.I wish you good luck #STC #ETH #DEFI #AIRDROPS",0,0
1375666287179800585,"2021-03-27T04:29:36Z","@poplink16 Done your taks, goodluck everyone 🙏  @rivoach @riju @Eliily @FikriQiuu22   #POPO #ETH #BTC",0,0
1375666286693285892,"2021-03-27T04:29:36Z","@LincAveCapital @MarkYusko @RealVision they got the eth and #btc colors mixed up too",0,0
1375666274345230339,"2021-03-27T04:29:33Z","STC one of the respective thought is for Unprivileged Children in the world. STC 20% of total profit goes to STC special fund for Safe the Children forum. #STC $STC #ETH #DEFI #DONATION",2306,0
1375666274051702789,"2021-03-27T04:29:33Z","🦍Kong Punks Stats 📈   Unique Owners :  90 🙋‍♂️🙋‍♀️ Discord Members : 50 🌐 Total Traded : 3 ETH 💰  Consistent DAILY Growth!! 🔥  #NFT #NFTs #NFTart #NFTartist #NFTcollector #NFTcollectibles #NFTcommunity",9,0
1375666263855407105,"2021-03-27T04:29:30Z","30 day EVIX: 88.5744 ETH/USD vwap: $1,700.64 04/16 expiry volume: $1,236,882.85 04/30 expiry volume: $4,441,431.95 Current time: 04:29:06",0,0
1375666261858807811,"2021-03-27T04:29:30Z","STC one of the respective thought is for Unprivileged Children in the world. STC 20% of total profit goes to STC special fund for Safe the Children forum. #STC $STC #ETH #DEFI #DONATION",2306,0
1375666248940326914,"2021-03-27T04:29:27Z","#ONT #Reef #VET #ZIL #EasyFi next leg up soon...  $Ada $Btc $Ftm $Xrp $Doge $Eth $Bnb $Dot $Ltc $Xem $Link $Vet $Enj $Sushi $Atom $Dag $Lit $Uni $Luna $Neo $Cake $Trx $Bake  $Ksm $Tomo $Dash $Hot $Ankr  $Dia $Qtum $Band $Yfi $Etc $Sand $Rvn $TRB $zil $reef $ont https://t.co/mssyVGxtCe",1,2
1375666237477253122,"2021-03-27T04:29:24Z","@poplink16 Great project Going to make the difference and soon to be 🚀🚀🌞 #POPO #ETH #BTC @bryan_koloay @Indra_417124  @HeroDelta3",0,0
1375666232234369027,"2021-03-27T04:29:23Z","@Safe_Childrens It will be a good project   #Safe_Childrens #Bitcoin #Binance #BinanceSmartChain #DEFI #ETH #STC",0,0
1375666231638827009,"2021-03-27T04:29:22Z","🚀 Safe The Children  🔷 Token Symbol : STC  🔷 Contract: https://t.co/nk3qsF2PJV  🔷 Website: https://t.co/4y0g7dqswM  🔷 Whitepaper: https://t.co/PHPZI4dbyR  🔷 Presentation Video : https://t.co/Mycfov12IU  #Safe_Childrens #Bitcoin  #Binance #BinanceSmartChain #DEFI  #BTC #ETH",14722,0
1375666231286452224,"2021-03-27T04:29:22Z","@poplink16 to the moon $POPO  @MAIKEL1290 @kakungtri1 @Zio942   #POPO #ETH #BTC",0,0
1375666230170808325,"2021-03-27T04:29:22Z","@rariblecom #nftcollectors #crypto #DeFi $ETH $RARI Check out my profile: https://t.co/OX39Gw9swj https://t.co/Mmfn5Ra0cQ",0,0
1375666228505706496,"2021-03-27T04:29:22Z","@Safe_Childrens #STC #ETH #DEFI #Airdrops It's not too late to start investing your money, just invest your money in this project, to the moon soon !!",0,0
1375666217642569729,"2021-03-27T04:29:19Z","New Airdrop: Diamond Crystal (DCT) Reward: 100 DCT ($100) Rate: ⭐️⭐️⭐️⭐️ Focus: Distribution starts after airdrop ends   Bot Airdrop Link: https://t.co/9Qzk47HUKt  #Airdrop #giveaway #BTC #ETH",4033,0
1375666213267800065,"2021-03-27T04:29:18Z","Thx for #STC #ETH #DeFi https://t.co/6w27m27yTB",1,0
1375666201779712003,"2021-03-27T04:29:15Z","@poplink16 Great project Going to make the difference and soon to be 🚀🚀🌞 #POPO #ETH #BTC @TUYULke1  @TUYULke2  @TUYULke3",0,0
1375666192724062208,"2021-03-27T04:29:13Z","BUNNEH’s #NFT is a #MentalHealth initiative we created!  Please get involved!! All funds from #BUNNEHs #NFT are being used to fund Mental Health Therapy for a loved one! Contribute to a fantastic cause https://t.co/pDr0GrcdGn  All NFT starting 0.005 $ETH @coinkit_ mon 25 1000 BTC",171,0
1375666192686280709,"2021-03-27T04:29:13Z","RT @ArranoNetwork: $ETH hits $2000   This is Just the Beginning of Crypto.",4264,0
1375666189817376773,"2021-03-27T04:29:12Z","🦄Nifty Domains 🎉https://t.co/2jsEp7oVOM 🎉https://t.co/0SelISUHp5 🎉https://t.co/XC2qeucpuj 🎉https://t.co/EGaYZjPyxk  👇More 🔊https://t.co/I43MGm758p  #Defi #Ethereum #crypto #Domains  #cryptocurrency #Bitcoin #Blockchain #btc #eth #eth2 #dapp #vaults #NFTs #NFT #LPS #Pools https://t.co/bNBqw3dSdq",5,0
1375666172255825929,"2021-03-27T04:29:08Z","New #digitalcurrencyalien #NFT pixel art available on https://t.co/zm1A0zl48c Limited to 1 mint each for 150+ artworks available using $ETH! RT for some free #Bitcoin !!  @coinkit_ com 50 1000 BTC #NFT",207,0
1375666166543351810,"2021-03-27T04:29:07Z","Perspective.  Global wealth is approx $400 trillion.  US wealth $140tr.  Crypto wealth is $1.5-2 tr.   so like 35-50bps.     This will grow to 1-2 percent in a year or two.  That’s 3-4 times.   Just musing.  $BTC $ETH $LUNA $GLXY.",1557,0
1375666165817737216,"2021-03-27T04:29:07Z","🦄Nifty Domains 🎉https://t.co/2jsEp7oVOM 🎉https://t.co/0SelISUHp5 🎉https://t.co/XC2qeucpuj 🎉https://t.co/EGaYZjPyxk  👇More 🔊https://t.co/I43MGm758p  #Defi #Ethereum #crypto #Domains  #cryptocurrency #Bitcoin #Blockchain #btc #eth #eth2 #dapp #vaults #NFTs #NFT #LPS #Pools https://t.co/bNBqw3dSdq",5,3
1375666163598888961,"2021-03-27T04:29:06Z","RT @intocryptoverse: $BTC and $ETH are cooking",2181,3
1375666161593982979,"2021-03-27T04:29:06Z","🚀 Safe The Children  🔷 Token Symbol : STC  🔷 Contract: https://t.co/nk3qsF2PJV  🔷 Website: https://t.co/4y0g7dqswM  🔷 Whitepaper: https://t.co/PHPZI4dbyR  🔷 Presentation Video : https://t.co/Mycfov12IU  #Safe_Childrens #Bitcoin  #Binance #BinanceSmartChain #DEFI  #BTC #ETH",14722,3
1375666158540619776,"2021-03-27T04:29:05Z","🚀 XYM Token  Airdrop 🚀 Rate: ⭐⭐⭐⭐ ⭐ 🎁 Reward: 2000 XYM ($100) 👫 Referral: 50 XYM  ($35)  🤖Start Bot here   https://t.co/mIYRorsfms  ⛂ Join Telegram group and channel. ⛂ Follow twitter &amp; retweet  ⛂ Submit ETH address and details.",289,3
1375666130128232450,"2021-03-27T04:28:58Z","No need to spend your own money to trade #cryptocurrency. Over 10K users won crypto rewards on @latokens last week. It's the best way to join the financial revolution. Start by earning a share of $100K in CLIQ airdrop: https://t.co/KwwiM94qoN #Bitcoin #ETH #Citi #AON #LATOKEN",0,0
1375666114877812736,"2021-03-27T04:28:55Z","Thank-you for giving this opportunity hope u will achieve huge success   #Safe_Childrens #Bitcoin  #Binance #BinanceSmartChain #DEFI  #BTC #ETH @Munnash33406832   @richajhaa   @RohitKu06325175 https://t.co/7a8jdTmd4H",0,0
1375666101657468935,"2021-03-27T04:28:51Z","@AyyMG @BNBSwap Hello, nice to meet you. I am from China. Now I am raising funds to start ETH mining machine Mining. At present, there is still a lack of 0.6ETH. For the partners who sponsor me, they will receive twice the Sponsorship Award.",0,0
1375666088021753858,"2021-03-27T04:28:48Z","@BillyM2k is there a way to mint nfts thru @dogecoin? Im trying to sell my nfts starting at .25 cents so everyone can afford them! Eth and gas fees are too high everywhere i look.",3,0
1375666077993107456,"2021-03-27T04:28:46Z","🎉 RELEASE THE MONKEYS! Announcing VoxelMonkeys!   🐵 999 unique handcrafted #NFTs on the #ETH blockchain. The first bunch dropping on OpenSea TODAY!   FOLLOW/RT FOR GIVEAWAY DETAILS!  https://t.co/uXk7g9MKI2  #nft #nftart #cryptoart #nftcollector #nftartist #nftcommunity #voxel https://t.co/LwPFikHvx6",20,0
1375666077238063108,"2021-03-27T04:28:46Z","insider news $sc coinbase soon... $ankr $chz $sxp $dent $hot $key $npxs $btc $bnb $eth",8,1
1375666074495021057,"2021-03-27T04:28:45Z","🚀 Safe The Children  🔷 Token Symbol : STC  🔷 Contract: https://t.co/nk3qsF2PJV  🔷 Website: https://t.co/4y0g7dqswM  🔷 Whitepaper: https://t.co/PHPZI4dbyR  🔷 Presentation Video : https://t.co/Mycfov12IU  #Safe_Childrens #Bitcoin  #Binance #BinanceSmartChain #DEFI  #BTC #ETH",14722,1
1375666065468878852,"2021-03-27T04:28:43Z","Gas is LOW so here’s a reminder to the anonymous buyer of “The Divine Feminine” that you need to claim the NFT otherwise it and the $eth are held by @withFND; maybe now is a good time~  And thank you, I saw this is my 3rd NFT that you’ve bought, I’d love to know who you are 💜",32,9
1375666064269438980,"2021-03-27T04:28:43Z","All the crypto I’m holding rn: $BTC, $ETH, $LINK  $LINK,               $LTC,  $VET,  $NPXS,  $XRP,   $ONE",4,0
1375666061459120128,"2021-03-27T04:28:42Z","I'll send $500 in #ETH or #BTC to one person who retweets this and follows @bud_crypto. Must complete these tasks:  1 - Like/RT his pinned tweet  2 - Must RETWEET &amp; LIKE 4 of his tweets  Ends in 72 hours!",1406,0
1375666051690729475,"2021-03-27T04:28:40Z","Anticipation for the groundbreaking #V3 app from #Telcoin is starting to really show. Next week starts Q2. It's coming. We can't wait enter the next phase of $TEL's roll-out and progress! Exciting times for #Telfam!   #SendMoneySmarter #BTC $ETH #Crupto #Bitcoin #Kucoin https://t.co/PmC3TK0vz1",44,0
1375666038247854084,"2021-03-27T04:28:36Z","@ui_crystal Especially Thanks for the opportunity ❤️ Great giveaway project 🥰 I hope $DCT are success and go to the moon 🚀 i think it is one of the best project in the world🤩   ETH Address: 0x04cd657cd482a021C467682806F10202b867D72E  I have done All rules ✅✅   Good luck 🥰",0,0
1375666033638264833,"2021-03-27T04:28:35Z","🚀 Safe The Children  🔷 Token Symbol : STC  🔷 Contract: https://t.co/nk3qsF2PJV  🔷 Website: https://t.co/4y0g7dqswM  🔷 Whitepaper: https://t.co/PHPZI4dbyR  🔷 Presentation Video : https://t.co/Mycfov12IU  #Safe_Childrens #Bitcoin  #Binance #BinanceSmartChain #DEFI  #BTC #ETH",14722,0
1375666025035874307,"2021-03-27T04:28:33Z","🦊10/10 https://t.co/f664nZ7jYq  Check out the rest of the collection: https://t.co/11qfjGBSC9  #animal #digitalzoo #NFT #cryptoart #Rarible #Collectible #digitalart #art #artworld #blockchain #artist #rari #Ethereum #eth #opensea @rariblecom https://t.co/I8qGiPmC1k",3,0
1375666020812136450,"2021-03-27T04:28:32Z","Since this the launch of @dypfinance back in Dec 2020 looks like Liquidity Providers have earned $11.4 Million dollars in $ETH just from Staking!  Also the project is paying out is $ETH as well and so far 6.2K $ETH have been rewarded.   #DeFi #Crypto #Cryptocurrency #BitcoinTalk https://t.co/zis10XPcL7",1802,0
1375666020619145216,"2021-03-27T04:28:32Z","STC one of the respective thought is for Unprivileged Children in the world. STC 20% of total profit goes to STC special fund for Safe the Children forum. #STC $STC #ETH #DEFI #Airdrops https://t.co/IIKfhMhGgI",0,0
1375666013480611843,"2021-03-27T04:28:30Z","Top 30 Trending Searches on @coingecko from 20 - 26 Mar 2021.  Welcome newcomers: @ecomi_ @VesperFi @dentcoin @PundiXLabs @UniMex_Network @bittorrent  $OMI $VSP $DENT $NPXS $UMX $BTT $BTC $ETH $SUPER $MATIC $CAKE $ERN $CHAIN $SPI $ONE $CHZ $OVR $RAMP $THETA $AUDIO $COTI $CFI https://t.co/YKXdN5bvw6",784,0
1375665990705545218,"2021-03-27T04:28:25Z","the only #NFT project i really liked so far is #Chilliz $CHZ and its on $ETH so, no thank you.",0,0
1375665989065482244,"2021-03-27T04:28:25Z","@Safe_Childrens Awesome  #STC #ETH #DEFI #Airdrops.",0,0
1375665975668875266,"2021-03-27T04:28:21Z","@AirdropDet awesome project #STC #ETH #DEFI #Airdrops.",0,0
1375665967074738177,"2021-03-27T04:28:19Z","@Safe_Childrens Thank-you for giving this opportunity hope u will achieve huge success   #Safe_Childrens #Bitcoin  #Binance #BinanceSmartChain #DEFI  #BTC #ETH @Munnash33406832  @richajhaa  @RohitKu06325175",0,0
1375665952734408707,"2021-03-27T04:28:16Z","@ccfxstudios I’ve got a few spare eth ✌️",1,0
1375665946614931457,"2021-03-27T04:28:14Z","RT @rektcapital: Can you believe $ETH was at $89 a year ago?  #Ethereum",2719,0
1375665936561176576,"2021-03-27T04:28:12Z","@DigitalDoucheB Launched the first 20 of these tonight for 0.02-0.03 ETH: https://t.co/9UpPhMqLuy",2,0
1375665921759440899,"2021-03-27T04:28:09Z","$DYP liquidity providers earned 6,401.87 #Ethereum worth $10,769,945 since launch!  Earn up to 303.11% APY 💰  If you want to start earning #ETH you just need to join one of our liquidity pools: DYP-ETH, DYP-WBTC, DYP-USDC, and DYP-USDT https://t.co/zxyI0V2tnr  #DeFi #uniswap https://t.co/G1k8VLAekB",438,0
1375665918538248195,"2021-03-27T04:28:08Z","#Arrano Trade Analytics report #23  A MUST know if you're in crypto  The Report covers a chart of Top 10 Cryptos in order of their market cap.   The King, #Bitcoin $BTC is ruling the market with $1.01 T, $ETH at 199 b , $BNB at $42 , $ADA , $DOT $XRP $UNI $LTC $LINK.   $ANDX $ANO https://t.co/CirLAnY4ha",2598,0
1375665908568313857,"2021-03-27T04:28:05Z","Cheap #gas right now if you want to move some coins $ETH #BTC",1,0
1375665907708522503,"2021-03-27T04:28:05Z","🚀 Safe The Children  🔷 Token Symbol : STC  🔷 Contract: https://t.co/nk3qsF2PJV  🔷 Website: https://t.co/4y0g7dqswM  🔷 Whitepaper: https://t.co/PHPZI4dbyR  🔷 Presentation Video : https://t.co/Mycfov12IU  #Safe_Childrens #Bitcoin  #Binance #BinanceSmartChain #DEFI  #BTC #ETH",14722,0
1375665891153616896,"2021-03-27T04:28:01Z","@Safe_Childrens #STC #ETH #DEFI #Airdrops Remeber when BTC price is still worth of 1$ ? Don't want to missed a chance like that, join this project, GO GO GO !!",0,0
1375665891115814914,"2021-03-27T04:28:01Z","@Safe_Childrens nice project👍👍  #STC #ETH #DEFI #Airdrops",0,0
1375665888053977096,"2021-03-27T04:28:01Z","🏆 Follow us &amp; Retweet this tweet, Specify the ETH address in the tweet comment to get 10 #BIT ($10 worth) or 50 #BIT ($50 worth) #BitScores Airdrop Tokens! 🎁 $250,000 Prize Pool Full rules: https://t.co/N53M5nRXr9  #giveaway #airdrops #bounty #giveaways #defi #eth #btc #airdrop https://t.co/m77hDtRsBv",3577,0
1375665879220842504,"2021-03-27T04:27:58Z","🚀 Safe The Children  🔷 Token Symbol : STC  🔷 Contract: https://t.co/nk3qsF2PJV  🔷 Website: https://t.co/4y0g7dqswM  🔷 Whitepaper: https://t.co/PHPZI4dbyR  🔷 Presentation Video : https://t.co/Mycfov12IU  #Safe_Childrens #Bitcoin  #Binance #BinanceSmartChain #DEFI  #BTC #ETH",14722,0
1375665869095772161,"2021-03-27T04:27:56Z","@sergeyaveo @2552425273Mamun @Bmtheray @Houseofcryptoo The game is ok for me. In every game you need to find a way to win. Lets wait for ethereum then let us see what changes may look like... maybe eth will overpower other houses.",2,0
1375665856466812929,"2021-03-27T04:27:53Z","Deposit your BTC, ETH, USDT, BCH, DOGE, XMR, Dash, Zcash to get worry-free returns. Paid out daily. https://t.co/fcf1zFhlW5",0,0
1375665854638039045,"2021-03-27T04:27:53Z","@Safe_Childrens #Safe_Childrens  #Bitcoin #Binance #BinanceSmartChain #DeFi #BTC #ETH   god projeck sir  @Rudhy52538665  @MBahrul  @rhezal  @caem30_lisa  @comelanny",1,0
1375665847176359938,"2021-03-27T04:27:51Z","Join. #STC #ETH #DEFI #PTO #ICO @HendraS94351699 @rini2219 @Ningsih90010918 https://t.co/J4eV4ybP4u",1,0
1375665846173896706,"2021-03-27T04:27:51Z","🔥 WoW!!! $DYP getting listed on @kucoincom !  DYP/USDT &amp; DYP/ETH trading will start tomorrow, March 25th at 10AM UTC! Good job @dypfinance team!  #DeFi #uniswap #Ethereum https://t.co/Rw9qa5l5tA",2225,0
1375665836732641282,"2021-03-27T04:27:48Z","#BTC Price: $55050 #ETH Price: $1704 #LTC Price: $182  Next update in 10 minutes Last updated: 0:27:48.05",0,0
1375665833016356867,"2021-03-27T04:27:47Z","BUNNEH’s #NFT is a #MentalHealth initiative we created!  Please get involved!! All funds from #BUNNEHs #NFT are being used to fund Mental Health Therapy for a loved one! Contribute to a fantastic cause https://t.co/pDr0GrcdGn  All NFT starting 0.005 $ETH @coinkit_ mon 25 1000 BTC",171,0
1375665829530857472,"2021-03-27T04:27:47Z","@poplink16 A very good project i think it is one of the best projects  in the world.  @sarianasinaga3    @soylusamsunlu    @sinaEstavi   0x775129bd22eC4f34cbc19A143c4F747A6378512f  #POPO #ETH #BTC",0,0
1375665827387609091,"2021-03-27T04:27:46Z","💧Poplink Oracles Airdrop 💧  🏆 Task:          ➕  50 POPO (~$50)  👨‍👩‍👧 Referral:  ➕  15 POPO (~$15)  🔛  Airdrop Link &amp; Information: https://t.co/DS6g34KhFp  #cryptocurrency #Crypto #Bitcoin  #BSC #BinanceSmartChain #Ethereum #ETH #Airdrop #bounty #POPO #Poplink",6788,0
1375665811570888708,"2021-03-27T04:27:42Z","New #digitalcurrencyalien #NFT pixel art available on https://t.co/zm1A0zl48c Limited to 1 mint each for 150+ artworks available using $ETH! RT for some free #Bitcoin !!  @coinkit_ com 50 1000 BTC #NFT",207,0
1375665809629065216,"2021-03-27T04:27:42Z","RT @DavosCryptos: $BOLT also for the best #Football content in partnership with @Dugout  #Zilliqa $ZIL $ETH https://t.co/zdRpbY1uW4",297,0
1375665798404972547,"2021-03-27T04:27:39Z","@Safe_Childrens #Safe_Childrens  #Bitcoin #Binance #BinanceSmartChain #DeFi #BTC #ETH   god projeck sir  @Rudhy52538665  @MBahrul  @rhezal  @caem30_lisa  @comelanny",1,1
1375665797176119300,"2021-03-27T04:27:39Z","🚀 Safe The Children  🔷 Token Symbol : STC  🔷 Contract: https://t.co/nk3qsF2PJV  🔷 Website: https://t.co/4y0g7dqswM  🔷 Whitepaper: https://t.co/PHPZI4dbyR  🔷 Presentation Video : https://t.co/Mycfov12IU  #Safe_Childrens #Bitcoin  #Binance #BinanceSmartChain #DEFI  #BTC #ETH",14722,1
1375665790163120129,"2021-03-27T04:27:37Z","Screenshot to #WIN 🎯   Three winners will receive £100 each into their Wirex #WXT account.   1️⃣ Follow @wirexapp   2️⃣Take a screenshot of the crypto you land on and upload it in the comments 3️⃣ RT  T&amp;Cs: https://t.co/xr6TX8r6eN  $BTC $LTC $XRP $ETH $WAVES $DAI $NANO $XLM $WXT https://t.co/dXev6DYHEz",175,1
1375665784744108033,"2021-03-27T04:27:36Z","🚀 Safe The Children  🔷 Token Symbol : STC  🔷 Contract: https://t.co/nk3qsF2PJV  🔷 Website: https://t.co/4y0g7dqswM  🔷 Whitepaper: https://t.co/PHPZI4dbyR  🔷 Presentation Video : https://t.co/Mycfov12IU  #Safe_Childrens #Bitcoin  #Binance #BinanceSmartChain #DEFI  #BTC #ETH",14722,1
1375665777278296066,"2021-03-27T04:27:34Z","The DEX @FinanceChainge is set to launch on the @FUSIONProtocol network with over a million users on the protocols waitlist. This decentralized exchange aims to innovate on traditional models through leveraging the Fusion Network.  #BSC #BTC #ETH #BNB  https://t.co/xx55YiGfm3",21660,1
1375665773969088512,"2021-03-27T04:27:33Z","Awesome interview and insight into the @terra_money  Ecosystem and the evolving space as well as some upcoming things that are being worked on with @mirror_protocol  and @anchor_protocol. $ANC is going to be huge!   $LUNA $MIR $ANC #Terra #ETH https://t.co/9MT5BLrJQ4",26,1
1375665764154241026,"2021-03-27T04:27:31Z","STC one of the respective thought is for Unprivileged Children in the world. STC 20% of total profit goes to STC special fund for Safe the Children forum. #STC $STC #ETH #DEFI #DONATION",2306,1
1375665756919234564,"2021-03-27T04:27:29Z","Good project STC #ETH #DEFI #Airdrops https://t.co/1qIKHHXxug",0,0
1375665748878721024,"2021-03-27T04:27:27Z","@hashoshi4 Spending $30 to move ethereum from @binance to @MetaMask, only to find out the $UNI gas fee is now ~$100, I don't have enough &amp; have to spend more gas to get more $ETH on. Then when I made the uniswap trade, it failed, but was charged anyway. 🙃",73,0
1375665717094178816,"2021-03-27T04:27:20Z","No need to spend your own money to trade #cryptocurrency. Over 10K users won crypto rewards on @latokens last week. It's the best way to join the financial revolution. Start by earning a share of $100K in CLIQ airdrop: https://t.co/Lc2A59hKCO #Bitcoin #ETH #Citi #AON #LATOKEN",0,0
1375665690972102666,"2021-03-27T04:27:14Z","🦊10/10 https://t.co/f664nZ7jYq  Check out the rest of the collection: https://t.co/11qfjGBSC9  #animal #digitalzoo #NFT #cryptoart #Rarible #Collectible #digitalart #art #artworld #blockchain #artist #rari #Ethereum #eth #opensea @rariblecom https://t.co/I8qGiPmC1k",3,2
1375665685871751170,"2021-03-27T04:27:12Z","@Safe_Childrens #STC #ETH #DEFI #Airdrops BNB &gt; to the moon, BTC &gt; to the moon, ETH &gt; to the moon, and next moon is this project ! GO GO GO !!",0,0
1375665685335007233,"2021-03-27T04:27:12Z","We are on the brink of the greatest alt coin season humanity has ever witnessed. 2017 will look like a blip on the radar. Get ready and don't get greedy trading with leverage. Spot positions are the way to go.  $btc $eth $htr $zero $omi $strax $rsr $link $dot $RFI $vgx $bnb $ada",9,0
1375665671821004802,"2021-03-27T04:27:09Z","THE REVOLVING DOOR OF CORRUPTION AT THE @SEC_News   So Hinman goes to the SEC and gratuitously declares #BTC and #ETH as non-securities.    He collects millions from his law firm while his law firm is heavily connected to #BTC and #ETH.   But it doesn’t stop there. https://t.co/fjWcnZjdMR",1169,0
1375665644398538755,"2021-03-27T04:27:02Z","The DEX @FinanceChainge is set to launch on the @FUSIONProtocol network with over a million users on the protocols waitlist. This decentralized exchange aims to innovate on traditional models through leveraging the Fusion Network.  #BSC #BTC #ETH #BNB  https://t.co/xx55YiGfm3",21660,0
1375665642922205185,"2021-03-27T04:27:02Z","There is still a weird feeling sending even 1/2 a percent of my net worth through magic internet beans thought I have been hodlings various #cryptocurrencies since 2018, when it seems so casual at first. Oh, if you gots ta send dat #eth, typically now is decent fees.",0,0
1375665640283926531,"2021-03-27T04:27:01Z","Pair Created! Pairs → PORN-ETH  $PORN = &lt; 0.0001 ETH (&lt; $0.0001)  $ETH = 195,404,797 PORN ($1,693)  Total Liquidity $14,939  https://t.co/bRzwAlOwKL",2,0
1375665630309969923,"2021-03-27T04:26:59Z","Mood of the market: 🐃  My mood: 🐃🐃 - an #Altseason away from total financial freedom.  My bags to achieve this - all have the potential to x5 - x100 in an 2021: $DAG $COTI $UPI $KCAL $SOUL $CHR $SOUL $VET $TOMO $FTM $ETH $OCEAN  Something huge is cooking for @PhantasmaChain",8,0
1375665615747182594,"2021-03-27T04:26:56Z","@Philastru @_Checkmatey_ @RaoulGMI Let's hope so. Even if they do, @_Checkmatey_ 's thin protocol thesis remains (ETH not great at accruing value over time given its structure), and I don't see how solving scaling addresses that.",1,0
1375665608264716290,"2021-03-27T04:26:54Z","Mood of the market: 🐃  My mood: 🐃🐃 - an #Altseason away from total financial freedom.  My bags to achieve this - all have the potential to x5 - x100 in an 2021: $DAG $COTI $UPI $KCAL $SOUL $CHR $SOUL $VET $TOMO $FTM $ETH $OCEAN  Something huge is cooking for @PhantasmaChain",8,1
1375665592934404097,"2021-03-27T04:26:50Z","The Binance Smart Chain (BSC) is the leading development platform for decentralized applications. Critical to the reliability of BSC is a set of network nodes known as Validators.  #BinanceSmartChain #BSC #BTC #ETH #Ethereum #BNB #crypto  https://t.co/IPXIHQqDsv",147,1
1375665585955033093,"2021-03-27T04:26:48Z","catharsis  figures (beings) emerge in life to guide us towards paths of self love and light. they often come in moments of deepest despair and show us the way forward  0.333 ETH  Unlockable content 9x12 framed &amp; matted print Shipping within US included https://t.co/9EPbrEmKGf",18,1
1375665585523068929,"2021-03-27T04:26:48Z","🔥Lollipop 2021 Sabet🔥  1 of 1 • Now Available for Ξ 25.0  https://t.co/pNpziEHTTS  @KnownOrigin_io  Art by @sabet  #cryptoart #NFT #cryptoartist #ETH",24,1
