"ID","created_at","text","like_count","rt_count"
1376436456994918403,"2021-03-29T07:29:58Z","The DEX @FinanceChainge is set to launch on the @FUSIONProtocol network with over a million users on the protocols waitlist. This decentralized exchange aims to innovate on traditional models through leveraging the Fusion Network.  #BSC #BTC #ETH #BNB  https://t.co/xx55YiGfm3",21659,0
1376436454629515269,"2021-03-29T07:29:58Z","🎁Huge Giveaway!🎁  1x @PlasmaAIO beta key 1x @MooseAlertsCA Monthly 1x @TrinityProxies 1GB Resi 1x @SneakerPings Monthly 1x @studiobreit $100 ETH cash prize  🚨Rules🚨 -Follow all accounts✅ -Retweet🔁 -Tag a friend👥  Ends in 48 hours, good luck!🍀 https://t.co/RsyBvTzUU0",391,0
1376436429614682116,"2021-03-29T07:29:52Z","Dougy has been sold to @33NFT  that's a really big moment for me and I'm taking a bit of time now to work on new ideas. I'll be back soon. If you are still interested to get one of my pieces, I did one with @asimsart  available for 2 ETH 💀 https://t.co/Wmzc6vrWar",9,0
1376436422933061633,"2021-03-29T07:29:50Z","@wsbreddit Buy $ANRX &amp; geared up for #BattleWave2323 on 31st of March🥳  @AnRKeyX will be dropping 2 NFTs every 2 weeks &amp; celebrity NFTs next month👀  📌Earn $ANRX on Legionnaire Referral Program! Sign Up at  https://t.co/rjBcmx9FcH  @wsbreddit @elonmusk   $ANRX $ETH $LINK $DAO #BNB $XRP https://t.co/fwxZpzUJSh",2,0
1376436404293529604,"2021-03-29T07:29:46Z","Realistic price targets for EOY 2021  $BTC $135k $ETH $8000 $RSR $1.25 $ZIL $2.50 $ANKR $3 $ONE $2 $DENT .50 $BAND $75 $UTK $10 $ADA $15 $NU $10 $LINK $100 $SXP $30 $BAT $9 $XRP $0",2348,0
1376436400749445120,"2021-03-29T07:29:45Z","RT @NFTFusion: What’s your ETH address?  No questions, just drop it below 👇 #NFT #NFTs",1953,0
1376436389089280002,"2021-03-29T07:29:42Z","#BTC Price: $55840 #ETH Price: $1709 #LTC Price: $193  Next update in 10 minutes Last updated: 3:29:42.03",0,0
1376436386958606340,"2021-03-29T07:29:42Z","Our new @ETH_en @ethzWFSC @ETH4D #research on #Automated Online #FlowCytometry Advances #Microalgal #Ecosystem #Management as in situ, High-Temporal Resolution #Monitoring Tool, congratulations to our #PostDoc Iris Haberkorn &amp; the #greatteam https://t.co/gXiMMV5Rtc",11,0
1376436382663589888,"2021-03-29T07:29:41Z","@ETTelecom Quit buying those pumpum and dump coin and stick to mining BTC or ETH...quite better way to earn profits...no farm server required..you can earn up to 1Btc mining thats what Chinese do..reason they got up to 70% crypto in circulation.Confused and interested..Send a Direct message",0,1
1376436382168576004,"2021-03-29T07:29:41Z","#MXCExchange will list $TOWER and Launch the 43rd Session MX DeFi - Stake $USDT, $MX, $BTC, $ETH to Earn Yield $TOWER.  ▶️Follow @MXC_Exchange &amp; @TowerToken  ▶️Like, RT &amp; Tag 3 friends ▶️Comment  🏆10 ppl * 125 $TOWER  More info about the listing: https://t.co/VqsPboXOb5 https://t.co/6RZ4gmWYtY",998,1
1376436375315177477,"2021-03-29T07:29:39Z","Bitcoin dominance is a ticking time bomb, this chart will break out downwards over time. From then on, it's time for the altcoins!👀  #BitcoinDominance #Bitcoin $VET $BTC $ETH $ADA https://t.co/IQCWvauC4w",2,0
1376436370470793216,"2021-03-29T07:29:38Z","RT @intocryptoverse: Who was buying $ETH at &lt;$200?",3499,0
1376436358785417221,"2021-03-29T07:29:35Z","Have a look @VulcanForged. Their $PYR token is simular to $ALICE, $MANA $SAND, ico only 40 cent!🔥   Working ecosystem and utility already✅  Listing on exchanges 8/9 april. Mcap 8M.💣  Wallets secured by @SafeHavenio @Inheriti_com.  @binance @kucoincom $BTC $ETH $MATIC $VET $SHA",89,0
1376436352787578882,"2021-03-29T07:29:34Z","RT @WabisuCollector: Any live auction? Drop it here, I'll try to retweet them and help you to reach more ETH 💵",143,0
1376436350132568065,"2021-03-29T07:29:33Z","⚡🔥 EASY $10(Litecoin) Giveaway!  To win: ✔ Tag a friend ✔ Retweet ✔ Follow us Thats it! Good luck! 💖  Rolling in 36 hours!  #goodvibes #goodluck #giveaway #bitcoin #Giveaways  #cryptocurrency #eth #btc #BSC #TRON",332,0
1376436340917669888,"2021-03-29T07:29:31Z","@N4V1111 @JeffKirdeikis @boxmining @M10Hafsa Woahh, it's rising after long 😍 #1UP #ETH #UPTRENND  @Iqnooraaa  @MahamSherazi_1  @AyyatFatima50",0,0
1376436337163833344,"2021-03-29T07:29:30Z","30 day EVIX: 84.1244 ETH/USD vwap: $1,705.45 04/16 expiry volume: $1,162,701.15 04/30 expiry volume: $5,175,900.98 Current time: 07:29:06",0,0
1376436329072975872,"2021-03-29T07:29:28Z","New PRICE : 0.5 ETH 🔥  #nftcollectors #nftcollector #nft #NFTartist #NFTartists #nftart #NFTdrop #Auction #NFTCommunity https://t.co/keuXQWAG98",9,1
1376436328045416452,"2021-03-29T07:29:28Z","🎁Huge Giveaway!🎁  1x @PlasmaAIO beta key 1x @MooseAlertsCA Monthly 1x @TrinityProxies 1GB Resi 1x @SneakerPings Monthly 1x @studiobreit $100 ETH cash prize  🚨Rules🚨 -Follow all accounts✅ -Retweet🔁 -Tag a friend👥  Ends in 48 hours, good luck!🍀 https://t.co/RsyBvTzUU0",391,1
1376436320139153408,"2021-03-29T07:29:26Z","@crypt0paz Look into these Dutch 💎 - $LTO hybrid blockchain used by #UnitedNations &amp; enterprises @TheLTONetwork - $DUSK pioneer in zkProofs #STO @DuskFoundation - $BUX @buxcrypto the next Euro @investvoyager - $GET @GetProtocol  #ticketmaster with #NFTs #Dutch know #Crypto! #btc #eth #DeFi",0,0
1376436316611743746,"2021-03-29T07:29:25Z","March Interest Mania 🔥  They hype is real. We've bumped interest rates on $USDC, $BTC, $VGX, $ETH, $DOT,  $ADA, $LINK, &amp; $LTC 🌟    Grow your portfolio now: https://t.co/LOVIzxyEiR https://t.co/vTA3pRp48f",539,0
1376436297137582080,"2021-03-29T07:29:20Z","RT @giftg3ww: RT @ThusiastNf: I have exacly 1 ETH left, who does have #NFT or #NFTs art that I can buy. Needs to look appealing at least.  RT &amp; Follow to see your art! #nftcollector #nftartist #nftart #NFTCommunity",3,0
1376436285133316096,"2021-03-29T07:29:17Z","🚀 Pluto Coin  Airdrop 🚀 Rate: ⭐⭐⭐⭐ ⭐ 🎁 Reward:  8822 PLUT ($1500) 👫 Referral: 40.5 PLUT  ($7)  🤖Start Bot here   https://t.co/x5JZchojO8  ⛂ Join Telegram group and channel. ⛂ Follow twitter &amp; retweet  ⛂ Submit ETH address and details.",6005,0
1376436272789602304,"2021-03-29T07:29:15Z","📣 HighPotato #0062 from Planet#7 Available for 0.03 #ETH   ⚠️ Prices will INCREASE for future potatoes  https://t.co/Z3qxnW7kLH  🔴 Follow, like and #retweet to be one of the five lucky winners of the #HighPotato #GIVEAWAY!  #NFT #nftcollectors #nftart #nftartist #nftbuyer",49,0
1376436272160501762,"2021-03-29T07:29:14Z","@Crypto888crypto I just listed “PLAY THE GAME” for sale on @withFND! 🌐  Reserve start at 0.3 ETH  https://t.co/xfKebN3ejM",0,0
1376436251457294339,"2021-03-29T07:29:09Z","#MXCExchange will list $TOWER and Launch the 43rd Session MX DeFi - Stake $USDT, $MX, $BTC, $ETH to Earn Yield $TOWER.  ▶️Follow @MXC_Exchange &amp; @TowerToken  ▶️Like, RT &amp; Tag 3 friends ▶️Comment  🏆10 ppl * 125 $TOWER  More info about the listing: https://t.co/VqsPboXOb5 https://t.co/6RZ4gmWYtY",998,0
1376436248110268416,"2021-03-29T07:29:09Z","⚡🔥 EASY $10(Litecoin) Giveaway!  To win: ✔ Tag a friend ✔ Retweet ✔ Follow us Thats it! Good luck! 💖  Rolling in 36 hours!  #goodvibes #goodluck #giveaway #bitcoin #Giveaways  #cryptocurrency #eth #btc #BSC #TRON",332,0
1376436242590527489,"2021-03-29T07:29:07Z","PAC Global involved with its charity partners @Flame_of_Peace @SummitBchain @GlobalBoost @LiberlandAid @EdibleForests  and many more in this Food Forest project. Update from @NetworksManager. $PAC In charity there is no competition. #btc #Blockchain #charity #storage #eth #LTC https://t.co/gg3kR5UU3t",47,0
1376436233539321856,"2021-03-29T07:29:05Z","Order successful!  LAND Coordinates: [36, 70] Price: 6,000 $MANA ($6,840.0 USD = 4.0446 $ETH)  Purchased by https://t.co/oS6DKc2usf from https://t.co/6qb3qnGOjJ  https://t.co/mwIo6NNZIq #decentraland #land #parcel #estate #mana https://t.co/pb05OYpczX",2,0
1376436231479963649,"2021-03-29T07:29:05Z","As of March 28, 2021 at 09:29AMCET, 1 ETH is 1439.2509 EUR.",0,0
1376436226392170496,"2021-03-29T07:29:03Z","The DEX @FinanceChainge is set to launch on the @FUSIONProtocol network with over a million users on the protocols waitlist. This decentralized exchange aims to innovate on traditional models through leveraging the Fusion Network.  #BSC #BTC #ETH #BNB  https://t.co/xx55YiGfm3",21659,0
1376436221724004352,"2021-03-29T07:29:02Z","🚀Sandwich • 4/5🚀 SOLD for 15.0 ETH on OpenSea! Great buy but they would have been better waiting for the @jurassicasylum drop  Check out the transaction: https://t.co/Gzox2gojlm #JurassicAsylum #NFT #NFTartist #cryptoart #NFTCommunity https://t.co/86EcJHuKml",0,0
1376436213771603970,"2021-03-29T07:29:00Z","To sell my art faster and send invites to the community, I lower the price of my art just to cover the costs.  Up to 0.25 eth  If you want to get an invite faster, help with RT https://t.co/yI9vNnDcFH  #nftcollectors #nftart #NFTCommunity #FoundationInvite #withfoundation https://t.co/sbBC1aj83z",145,0
1376436210369986561,"2021-03-29T07:29:00Z","One day we will all look back at 2021/2022 like we look back at the  2017 bullrun and think... that was truly amazing! Make sure you are on the right side of history!   $TEL $SNTVT $RSR $VRA $SOUL $BTC $ETH #NFT",15,0
1376436202136502273,"2021-03-29T07:28:58Z","🔥My first audiovisual work for @withFND! 🌐.   Follow yourself - 0.789 ETH (~$1,430)  Check it out → https://t.co/fJHVSLhr69  #nftart #nftcollector #Foundation #NFT #NFTartist https://t.co/S2IcwTcs82",171,0
1376436199443689473,"2021-03-29T07:28:57Z","WoW, these statistics 🤩🤩🤩  Over $3M Liquidity, more than $1M Volume in less than 24 hours 🥳  There is still a chance for everyone to buy HLD at $0.625 in Public Sale. Whitelist is open until March 30 👇🏼  🌐 https://t.co/ip07iXLcTh\  #HLD #uniswap #Holdefi #ETH https://t.co/tKJ943nw1n",42,0
1376436182574276611,"2021-03-29T07:28:53Z","#MXCExchange will list $TOWER and Launch the 43rd Session MX DeFi - Stake $USDT, $MX, $BTC, $ETH to Earn Yield $TOWER.  ▶️Follow @MXC_Exchange &amp; @TowerToken  ▶️Like, RT &amp; Tag 3 friends ▶️Comment  🏆10 ppl * 125 $TOWER  More info about the listing: https://t.co/VqsPboXOb5 https://t.co/6RZ4gmWYtY",998,0
1376436178493210636,"2021-03-29T07:28:52Z","The DEX @FinanceChainge is set to launch on the @FUSIONProtocol network with over a million users on the protocols waitlist. This decentralized exchange aims to innovate on traditional models through leveraging the Fusion Network.  #BSC #BTC #ETH #BNB  https://t.co/xx55YiGfm3",21659,0
1376436176001851393,"2021-03-29T07:28:51Z","#DeFi Earn now live on https://t.co/vCNztABJoG DeFi Wallet  📈  Earn interest without losing control of your crypto   💰 #COMP #DAI #ETH #USDC #USDT #BAT #UNI #WBTC &amp; #ZRX supported  ✅  No Minimum Term or Lock-Up 🚀  Receive The Best Return On Your DeFi Assets Now!",1445,0
1376436164224245766,"2021-03-29T07:28:49Z","don't sell your $tel bags and u will be so happy very soon just hodl  and don't worry don't be afraid $tel is here to stay ......  $TEL $DENT $NPXS $KIN $UBX $VRA $DAG  $ONE $FET $CHZ $OCEAN $KCS $COTI $BTC  $ETH $XRP $DOT $LINK $RSR $SOL $LTC $ANKR $LUNA $THETA #cryptocurrency",37,0
1376436158406746112,"2021-03-29T07:28:47Z","🔒 MakerDAO Vault #10246 closed: 🤝 791.59 DAI paid back 💰 4.90 ETH withdrawn https://t.co/VgJgm6afv7",0,0
1376436140094353408,"2021-03-29T07:28:43Z","#MXCExchange will list $TOWER and Launch the 43rd Session MX DeFi - Stake $USDT, $MX, $BTC, $ETH to Earn Yield $TOWER.  ▶️Follow @MXC_Exchange &amp; @TowerToken  ▶️Like, RT &amp; Tag 3 friends ▶️Comment  🏆10 ppl * 125 $TOWER  More info about the listing: https://t.co/VqsPboXOb5 https://t.co/6RZ4gmWYtY",998,0
1376436137263259653,"2021-03-29T07:28:42Z","Good bye old friends, $BTC $ETH $REN $WAN $LINK $AAVE $ALGO $UTK https://t.co/yScqwGPvRO",1,0
1376436131466727424,"2021-03-29T07:28:41Z","My first minted animation...   💙💚💜✨“SPECTRAL RINGS”✨💜💚💙  Now Available on @withFND! 🌐  Reserve Price: .222 ETH   Check it out here!   https://t.co/WNLhnEHYib https://t.co/ZmyG2Hrmkf",130,0
1376436125967867905,"2021-03-29T07:28:40Z","I've decided I want to build my twitter and share the defi plays I've been making recently (e.g. $visr, $kpad, $ohm). To kick start the good times, I'll be choosing two random people to give $100 in $usdt, $eth or $bnb.  Entry: 1. Follow me 2. Like/retweet this post  Good luck!",207,0
1376436123182972929,"2021-03-29T07:28:39Z","The first #NFTart from CryptoAnimeNFT series is now minted and available on #Rarible: ETH GIRL 01 https://t.co/QvOOfL6Tbp? #rarible #ethereum #nonfungible #digitalasset #nft via @rariblecom",54,0
1376436121203208197,"2021-03-29T07:28:38Z","I just listed “Unbroken” for sale on @withFND! 🌐  https://t.co/otr9ySqxsA  #nft #nfts #nftcollectors #foundationapp   If you love it, RETWEET!",183,0
1376436111690641408,"2021-03-29T07:28:36Z","RT @MarcksVinicius: RT @NFTthinker: @NFTMansa Hey! My 1st piece is listed, and i'm so excited! Available for collection.  Relax, is now for sale on @withFND https://t.co/LDtcc17lCW  #NFTs #NFTartist #ETH #nftcollectors  #nft #nftart #cryptoart #animation #art #cg #3d #cinema4d …",2,0
1376436106976108549,"2021-03-29T07:28:35Z","🌋#ATD #Giveaway is on now! @a2dao_ 🌋  10 lucky users will receive $30 each in #ATD ✨  1️⃣Login &amp; Participate ☀️ https://t.co/wrbe0JlJuK   2️⃣Retweet and @ a friend  #DeFi #crypto #ALTSEASON #ETH #NFT https://t.co/oq0O5RbPbj",307,0
1376436101863333895,"2021-03-29T07:28:34Z","#MXCExchange will list $TOWER and Launch the 43rd Session MX DeFi - Stake $USDT, $MX, $BTC, $ETH to Earn Yield $TOWER.  ▶️Follow @MXC_Exchange &amp; @TowerToken  ▶️Like, RT &amp; Tag 3 friends ▶️Comment  🏆10 ppl * 125 $TOWER  More info about the listing: https://t.co/VqsPboXOb5 https://t.co/6RZ4gmWYtY",998,0
1376436100076568576,"2021-03-29T07:28:33Z","The first #NFTart from CryptoAnimeNFT series is now minted and available on #Rarible: ETH GIRL 01 https://t.co/QvOOfL6Tbp? #rarible #ethereum #nonfungible #digitalasset #nft via @rariblecom https://t.co/1EpO5DeiLY",69,0
1376436086294126598,"2021-03-29T07:28:30Z","🟢 Swapped $941K in #USDC for #ETH on #1inch 🐉  🐬 ($1.06M) #0x4bC968 https://t.co/VKGkeFzgtB",0,0
1376436083374891009,"2021-03-29T07:28:29Z","$bct update- these are two path for $btc I am looking for short term .Overall $btc is very bullish but may drop just a bit to punish overleveraged longs though path 1 is more likely. I will update some charts today let me know if any chart update needed. $eth $bnb $usdt $ada $dot https://t.co/7lp8vkcEAh",12,0
1376436053175721988,"2021-03-29T07:28:22Z","Uniswap listing Date: 31.03.21  Liquidity adding time: around 9-11 AM CET  Uniswap listing price: 0.0001 ETH ( 10000 10set/ 1 eth)  Uniswap initial liquidity: 1M$ worth of ETH and 1M$ worth of 10sets   Launch price is the same as Presale   @TenseT_io $10SET  #DYOR &amp; GOODLUCK 💙 https://t.co/XyG4aEbPRQ",272,0
1376436050931908610,"2021-03-29T07:28:22Z","🔥 #ODDZ #Giveaway is Now On! @oddz_finance 🔥  10 lucky users will receive $30 each in #ODDZ 😗  1️⃣Login &amp; Participate   https://t.co/81bh5CpMnK  2️⃣Retweet and @ a friend  Share with your friends &amp; get more rewards 💌  #Ethereum #ETH #cryptogiveaway https://t.co/M7MxexMYji",265,0
1376436034976776199,"2021-03-29T07:28:18Z","RT @nebraskangooner: If #ETH pumps alts pump.",630,0
1376436031734472705,"2021-03-29T07:28:17Z","@oceanprotocol @OortDigital Do you have a plan to launch on BSC Chain? Lots of ETH projects have done that.",0,0
1376436029041766403,"2021-03-29T07:28:16Z","💌 DM for any business enquiries | Sponsoring giveaways | Promotion | Business Growth   #GAHost #Giveaway #Giveaways #Crypto #BTC #XRP #Paypal #ETH #XTC #Business #SmallBusiness #Growth #Entrepreneur",570,0
1376435982568878082,"2021-03-29T07:28:05Z","💧Poplink Oracles Airdrop 💧  🏆 Task:          ➕  50 POPO (~$50)  👨‍👩‍👧 Referral:  ➕  15 POPO (~$15)  🔛  Airdrop Link &amp; Information: https://t.co/DS6g34KhFp  #cryptocurrency #Crypto #Bitcoin  #BSC #BinanceSmartChain #Ethereum #ETH #Airdrop #bounty #POPO #Poplink",6787,0
1376435972796252161,"2021-03-29T07:28:03Z","🎁Huge Giveaway!🎁  1x @PlasmaAIO beta key 1x @MooseAlertsCA Monthly 1x @TrinityProxies 1GB Resi 1x @SneakerPings Monthly 1x @studiobreit $100 ETH cash prize  🚨Rules🚨 -Follow all accounts✅ -Retweet🔁 -Tag a friend👥  Ends in 48 hours, good luck!🍀 https://t.co/RsyBvTzUU0",391,0
1376435960582447104,"2021-03-29T07:28:00Z","Sending $15 costs $48 in gas fees🤦🏻‍♂️ $eth isn’t the p2p payment platform for the future. Patiently waiting for @NexusOfficial to catch 👀👀 of the masses. Tech of the future 💯💯 $NXS #Nexus  #MobileLiteNode #SigChains #TAOFramework #DecentralizedOS #QuantumResistant https://t.co/tZMd4BNzXK",23,0
1376435948150394880,"2021-03-29T07:27:57Z","🔥New Listing @a2dao_ 🔥  #ATD trading will be enabled on https://t.co/8kWqgEeplL 😎  👉Trade: https://t.co/ExhZLJsBuu 👉Details: https://t.co/wHKyoIXPWV  #DeFi #crypto #ALTSEASON #ETH #NFT https://t.co/UjKmwZhqea",256,0
1376435944979451905,"2021-03-29T07:27:56Z","#MXCExchange will list $TOWER and Launch the 43rd Session MX DeFi - Stake $USDT, $MX, $BTC, $ETH to Earn Yield $TOWER.  ▶️Follow @MXC_Exchange &amp; @TowerToken  ▶️Like, RT &amp; Tag 3 friends ▶️Comment  🏆10 ppl * 125 $TOWER  More info about the listing: https://t.co/VqsPboXOb5 https://t.co/6RZ4gmWYtY",998,0
1376435938147110913,"2021-03-29T07:27:55Z","Meet DeLorean!🏎️🎸🌩️ Hurry to buy!  https://t.co/lrs4DmdpIL  One of the cars can be yours for free in 24 hours!  🙌follow me 👍like  🖖retweet  🤝🤝2 friends+ comment with your ETH wallet address.  I wish everyone good luck! #NFTs #NFT #NFTartist #nftart #nft_ru #NFTcollectibles https://t.co/3TgmokUlYK",186,0
1376435931880824833,"2021-03-29T07:27:53Z","RT @giftg3ww: RT @ThusiastNf: I have exacly 1 ETH left, who does have #NFT or #NFTs art that I can buy. Needs to look appealing at least.  RT &amp; Follow to see your art! #nftcollector #nftartist #nftart #NFTCommunity",3,0
1376435925123616771,"2021-03-29T07:27:52Z","#MXCExchange will list $TOWER and Launch the 43rd Session MX DeFi - Stake $USDT, $MX, $BTC, $ETH to Earn Yield $TOWER.  ▶️Follow @MXC_Exchange &amp; @TowerToken  ▶️Like, RT &amp; Tag 3 friends ▶️Comment  🏆10 ppl * 125 $TOWER  More info about the listing: https://t.co/VqsPboXOb5 https://t.co/6RZ4gmWYtY",998,0
1376435915648798721,"2021-03-29T07:27:49Z","@cz_binance @binance Quit buying those pumpum and dump coin and stick to mining BTC or ETH...quite better way to earn profits...no farm server required..you can earn up to 1Btc mining thats what Chinese do..reason they got up to 70% crypto in circulation.Confused and interested..Send a Direct message",0,0
1376435902952697859,"2021-03-29T07:27:46Z","The government ban on crypto must have hindered your crypto trading.  What if i tell you about https://t.co/kLcRxLqWC0, a platform that buys any crypto like bitcoin, eth,gift cards inclusive at very nice rates and get paid immediately. Chat up @btc_nigeria to begin. #MyBtcNigeria https://t.co/DX22QTcjhh",74,0
1376435895251857409,"2021-03-29T07:27:45Z","@aaronic11 @Poloniex Yes my Friend, #ETH &amp; #UNI. 😀",1,0
1376435894471819266,"2021-03-29T07:27:44Z","#MXCExchange will list $TOWER and Launch the 43rd Session MX DeFi - Stake $USDT, $MX, $BTC, $ETH to Earn Yield $TOWER.  ▶️Follow @MXC_Exchange &amp; @TowerToken  ▶️Like, RT &amp; Tag 3 friends ▶️Comment  🏆10 ppl * 125 $TOWER  More info about the listing: https://t.co/VqsPboXOb5 https://t.co/6RZ4gmWYtY",998,0
1376435894094155777,"2021-03-29T07:27:44Z","🚀 Pluto Coin  Airdrop 🚀 Rate: ⭐⭐⭐⭐ ⭐ 🎁 Reward:  8822 PLUT ($1500) 👫 Referral: 40.5 PLUT  ($7)  🤖Start Bot here   https://t.co/x5JZchojO8  ⛂ Join Telegram group and channel. ⛂ Follow twitter &amp; retweet  ⛂ Submit ETH address and details.",6005,0
1376435878449455108,"2021-03-29T07:27:41Z","#MXCExchange will list $TOWER and Launch the 43rd Session MX DeFi - Stake $USDT, $MX, $BTC, $ETH to Earn Yield $TOWER.  ▶️Follow @MXC_Exchange &amp; @TowerToken  ▶️Like, RT &amp; Tag 3 friends ▶️Comment  🏆10 ppl * 125 $TOWER  More info about the listing: https://t.co/VqsPboXOb5 https://t.co/6RZ4gmWYtY",998,0
1376435875433832450,"2021-03-29T07:27:40Z","🎁Huge Giveaway!🎁  1x @PlasmaAIO beta key 1x @MooseAlertsCA Monthly 1x @TrinityProxies 1GB Resi 1x @SneakerPings Monthly 1x @studiobreit $100 ETH cash prize  🚨Rules🚨 -Follow all accounts✅ -Retweet🔁 -Tag a friend👥  Ends in 48 hours, good luck!🍀 https://t.co/RsyBvTzUU0",391,0
1376435863824048131,"2021-03-29T07:27:37Z","$FROGE --- $grumpy $doge $hoge $nu $al $link $btc $eth $nu $algo $grt $ltc $alpha $ren $band $cvc $dnt $dash $knc $bnt $dot $aave $ada $uni $ren $xm $sushi $shib  #NFT $PERL $ENJ $FLOW $THETA #BSC $REEF $LUNA $SAND $AXS $TVK  $CHZ $STX $ROSE $TROY $ONE $CERL $ANC $ADA $DIA $XRP https://t.co/ypesaaXaUJ",0,0
1376435817892155392,"2021-03-29T07:27:26Z","@Rakesh_TheBoss That will be nice, a 2017 eth for ICX in 2021/2022. That will mean a 96x ... where can I sign.",1,0
1376435808639582212,"2021-03-29T07:27:24Z","RT @ethemozdemir83: #trb = 1 #eth very soon😉😎 #trb  #btc #trx #bnb  #tellor a binance lab.  project....🚀🚀🚀",1,0
1376435801517662213,"2021-03-29T07:27:22Z","CryptoAnime #NFT #giveaway!  To be eligible to participate in this #NFTgiveaway you must:  1) Follow us, like our last 3 tweets and retweet them. 2) Tag 3 friends in the comments of this tweet 3) Post your $ETH #Ethereum address in comments  We'll pick a lucky winner on 15 April! https://t.co/OixVzImfrn",143,0
1376435797549846529,"2021-03-29T07:27:21Z","There’s a 300 INV reward for supplying ETH (including as collateral to borrow DOLA) and an additional 300 INV for borrowing ETH  Which means lending and borrowing ETH have different APYs depending on total borrowed and supplied  Both APYs will be added to the interface soon",83,0
1376435790415204359,"2021-03-29T07:27:20Z","🔶 KICK Token Kick Exchange 🔶 🔸First round of start🔸 🔸Reward $KICK 50,000 ~$20🔸  🚦  Join:  https://t.co/ngvLWL1tP8  🌐 Registration by email 🌐 Verify your email 🌐 KYC need 5-10 minutes Approved 🌐 Get 50,000 $KICK 🌐 Done  #BTC #ETH #KICK @CTBott Adrop Avg 100 SPKL 50 https://t.co/tf8NeDwe1l",38,0
1376435767946399744,"2021-03-29T07:27:14Z","Did you see we bumped several of our interest rates (APR) for the month of March?! ⬆️    You can now earn up to:  9% on $USDC 6.25% on $BTC 5.25% on $ETH 8% on $DOT 5.25% on $ADA 5.5% on $LINK 6.5% on $LTC 5% on $VGX  Only on #Voyager!   Don't miss out: https://t.co/LOVIzxyEiR https://t.co/HhPznV9Len",326,0
1376435759788400641,"2021-03-29T07:27:12Z","The DEX @FinanceChainge is set to launch on the @FUSIONProtocol network with over a million users on the protocols waitlist. This decentralized exchange aims to innovate on traditional models through leveraging the Fusion Network.  #BSC #BTC #ETH #BNB  https://t.co/xx55YiGfm3",21659,0
1376435754860081154,"2021-03-29T07:27:11Z","@Wades_ETH @WhaleShark_Pro What the hell are Wade shitcoins? Did you make a token?",1,0
1376435752834228225,"2021-03-29T07:27:11Z","RT @chainlinkace: 🏆Drop your $ETH address here🏆",937,0
1376435716255793153,"2021-03-29T07:27:02Z","🔸 New Listing🔸   #BKEX will list #DRYCAKE @DryCakeSwap🚀 🚀  - Trading pair: DRYCAKE/USDT - Trading time: 20:00 on Mar 29 (UTC+8)  🔹 🔹 More details: https://t.co/kC2IIebfTT  #Bitcoin #ETH #BKK #Blockchain https://t.co/w8CHyKXaUD",2480,0
1376435715064659969,"2021-03-29T07:27:02Z","🎁Huge Giveaway!🎁  1x @PlasmaAIO beta key 1x @MooseAlertsCA Monthly 1x @TrinityProxies 1GB Resi 1x @SneakerPings Monthly 1x @studiobreit $100 ETH cash prize  🚨Rules🚨 -Follow all accounts✅ -Retweet🔁 -Tag a friend👥  Ends in 48 hours, good luck!🍀 https://t.co/RsyBvTzUU0",391,0
1376435707229659139,"2021-03-29T07:27:00Z","To celebrate @3DPunks_ #100/100 Auction Current bid at 16 ETH ($27K USD)  I'm giving away 3D Punk #049  Which last sold for 6.97 ETH ($12K USD)  How: - Follow @evankeast + @3DPunks_  - Like + Retweet - Tag a friend - Join the discord: https://t.co/5paneepNDb - Say hi in discord https://t.co/SOy3l78yP1",1043,0
1376435704721334280,"2021-03-29T07:26:59Z","🔶 KICK Token Kick Exchange 🔶 🔸First round of start🔸 🔸Reward $KICK 50,000 ~$20🔸  🚦  Join:  https://t.co/ngvLWL1tP8  🌐 Registration by email 🌐 Verify your email 🌐 KYC need 5-10 minutes Approved 🌐 Get 50,000 $KICK 🌐 Done  #BTC #ETH #KICK @CTBott Adrop Avg 100 SPKL 50 https://t.co/tf8NeDwe1l",38,0
1376435700602523649,"2021-03-29T07:26:58Z","The DEX @FinanceChainge is set to launch on the @FUSIONProtocol network with over a million users on the protocols waitlist. This decentralized exchange aims to innovate on traditional models through leveraging the Fusion Network.  #BSC #BTC #ETH #BNB  https://t.co/xx55YiGfm3",21659,0
1376435687549980673,"2021-03-29T07:26:55Z","Good morning everyone, please if you have cryptocurrency for sale be it Btc, Eth etc HMU. Thank you",0,1
1376435685633224706,"2021-03-29T07:26:55Z","@DoopieCash Ltc, xrp, sxp Eth please 🙏",0,0
1376435682139369478,"2021-03-29T07:26:54Z","I've made more gains from nft coins than defi ones.. (unless you count $eth as defi..) $ethv $axs $dego $enj $mana https://t.co/2ImstF3Q0C",4,0
1376435681472380930,"2021-03-29T07:26:54Z","$bct update- these are two path for $btc I am looking for short term .Overall $btc is very bullish but may drop just a bit to punish overleveraged longs though path 1 is more likely. I will update some charts today let me know if any chart update needed. $eth $bnb $usdt $ada $dot https://t.co/7lp8vkcEAh",12,2
1376435666095984644,"2021-03-29T07:26:50Z","🚀 Pluto Coin  Airdrop 🚀 Rate: ⭐⭐⭐⭐ ⭐ 🎁 Reward:  8822 PLUT ($1500) 👫 Referral: 40.5 PLUT  ($7)  🤖Start Bot here   https://t.co/x5JZchojO8  ⛂ Join Telegram group and channel. ⛂ Follow twitter &amp; retweet  ⛂ Submit ETH address and details.",6005,2
1376435661796823043,"2021-03-29T07:26:49Z","Michael Conn, CEO @zilliqacapital on @Blockworks_     ⚡️I firmly believe that there will not be ‘one coin or protocol to rule them all  ⚡️Maximum value for financial inclusion will come from cross-chain bridging and collaboration.   https://t.co/DvYtVXoS2X  @onejouroulautre",351,2
1376435657053249538,"2021-03-29T07:26:48Z","Last selling pressure on $cell is this stupid whale that's unloading 17 eth at a time. Right now only 69 eth of cell left in their wallet. Flush this guy out and we fly.",4,2
1376435656457523201,"2021-03-29T07:26:48Z","🎁 🎁 Celebrate the Listing of #BRG · Deposit &amp; Trade to Share 40,000 BRG @bridge_oracle  ⏰ 15:00 03/29/2021 - 15:00 04/06/2021 (UTC+8) ➡️ Deposit Activity  ➡️ Trading Competition  ✨ ✨ More details: https://t.co/oCl2mvHEod  #Bitcoin #ETH #Blockchain https://t.co/leAS37gG6f",304,2
1376435652565340162,"2021-03-29T07:26:47Z","Top 10 coins for April + Targets: $ADA 🎯$3 $CAKE 🎯$50 $BAKE 🎯$5 $CRV 🎯$20 $SXP 🎯$20 #1INCH 🎯$20 $ALPHA 🎯$20 $DODO 🎯$20 $LINA 🎯$1 $REEF 🎯$1  #AltSeason #DeFi $eth #bnb #bsc $xrp $trx $dot $eos $neo $xtz $atom $avax $aave $uni $algo $link $super $ankr $one $ltc $yfi $egld https://t.co/XyQ4pBOWL3",815,2
1376435649889202176,"2021-03-29T07:26:46Z","@elti_uk @dixon_eth YASSHHH BIG DIX https://t.co/jsyQ8wduku",1,0
1376435644218667015,"2021-03-29T07:26:45Z","Because CHUBBIE #0 is currently over 30ETH, we will giveaway CHUBBIES #5537 and #1963 (Both Shinies ~$1,500 each)   -to ONE person that retweets this tweet and follows!  Current bid: 69.69 ETH  CHUBBIE #0: https://t.co/NfK8fP1uZP https://t.co/DsIqf9abnz",613,0
1376435634915606529,"2021-03-29T07:26:42Z","The @Oxbull5 platform will work as a startup incubator and launchpad for the new startups, which means that it has a high potential to bring in new technologies for the community.  #BSC #BTC #ETH #Ethereum #BNB #DeFi #Binance #bitcoin #Crypto #definews  https://t.co/F4JS1AtmGY",116,0
