"ID","created_at","text","like_count","rt_count"
1376096714969452544,"2021-03-28T08:59:58Z","🔥🔥POPLINK HIGH EARNINGS🔥🔥 🎁 Airdrop - Poplink Oracles (POPO) 🎁 💰 Signup Reward:  50 POPO = 50 $ 👬 Referral Reward:  15 POPO = 15 $ 🌐 Link:  https://t.co/ZCKNHrZzLi  Launch the bot :  🔘 Join social networks 🔘 and perform tasks. 🔘 Enter Ethereum ETH address.",0,0
1376096713828536329,"2021-03-28T08:59:57Z","🤗 #XYM Lock &amp; Earn has launched at https://t.co/8kWqgEeplL @NEMofficial 🤗  💎Token: #XYM 💎Term: 7 days 💎Zero handling fee &amp; estimated annualized yield of 100%  👉Earn now: https://t.co/yAwwBIBTkA 👉Details: https://t.co/d1rkGcbUBU  #ALTSEASON #Altseason2021 #BTC #ETH https://t.co/OqLaEsRKWT",564,0
1376096713732194305,"2021-03-28T08:59:57Z","Bitcoin Takes Back $56,000: ETH Reclaims $1,700 (Weekend Watch) https://t.co/BKFMNBsxvp",0,0
1376096705167364097,"2021-03-28T08:59:55Z","@SwissKuwait @ETH Congrats 👌",1,0
1376096691095412736,"2021-03-28T08:59:52Z","@IOHK_Charles @KalKassa @jjtoconnor lol look at dress up Charles back from his mental health vacation riding away on the horse to show us the smart contracts from q1 of 2018 are still not done lol Charles your vapor ware project is about to implode after eth 2.0 hits... whats the plan shit talk them more ?",1,0
1376096683004674052,"2021-03-28T08:59:50Z","How will $ETH perform in the upcoming week? https://t.co/914vCGjbip",2,0
1376096679116611585,"2021-03-28T08:59:49Z","#ETH is the only platform whose fees can be higher than what you're literally transferring. ⚰⚰💀  Sunday afternoon meme, enjoy. 😔💕 https://t.co/NMU7sqwqVK",58,0
1376096660414160897,"2021-03-28T08:59:45Z","1 platform for DeFi management...Verto the multi-currency wallet https://t.co/jCIIMIEICr #DeFi #cryptocurrency #ETH #trade $vtx https://t.co/MvqKnk2RH4",5,1
1376096653443280898,"2021-03-28T08:59:43Z","ETH is dead? Come back when your chain supports billions in DeFi.   Every bullrun the “ETH killers” appear and they don’t support shit on their chains.  HEARD IT SO MANY TIMES. Same narrative. Different “ETH” killer",932,1
1376096652864393217,"2021-03-28T08:59:43Z","All you need to have:  $ETH $HOT $RSR  ... and my new GEM.",376,24
1376096647269117952,"2021-03-28T08:59:42Z","🌋#ATD #Giveaway is on now! @a2dao_ 🌋  10 lucky users will receive $30 each in #ATD ✨  1️⃣Login &amp; Participate ☀️ https://t.co/wrbe0JlJuK   2️⃣Retweet and @ a friend  #DeFi #crypto #ALTSEASON #ETH #NFT https://t.co/oq0O5RbPbj",307,24
1376096640151347202,"2021-03-28T08:59:40Z","I just joined this $25k Crypto giveaway by @JRNYcrypto and @sparkpointio  Get daily entries to increase your chances of winning! 25 random winners of $1k each!  #Bitcoin #Crypto $BTC $ETH $SRK https://t.co/dhFiyXARWq",0,0
1376096631741943808,"2021-03-28T08:59:38Z","The #NobelPrize of architecture goes to #Switzerland! Anne Lacaton, Emeritus Professor of Architecture &amp; Design at @ETH Zurich &amp; her partner Jean-Philippe Vassal have received the #Pritzker Prize for their sustainable &amp; social approach to building design.  https://t.co/OCkHVCLwpX",0,0
1376096628340314115,"2021-03-28T08:59:37Z","Bitcoin Hits N30M on Nairawey App! 🚀🚀  #Bitcoin #BTC #crypto #nairawey #eth #cryptocurrencies #cryptocurrency #blockchain #BNB #Nigeria #Africa #lagos",0,0
1376096628302577666,"2021-03-28T08:59:37Z","#Ethereum is going to outperform #Bitcoin and potentially even in a massive way.  I've analyzed $ETH and $LTC in the recent market update.  Check it out here: https://t.co/Yn09TgEnMg  Don't forget to subscribe!",715,0
1376096619880402944,"2021-03-28T08:59:35Z","Jeremie Frimpong bought for 0.212 ETH (363.22$) by Nanzo on the primary market   Season: 2020-2021 Level: 0 Serial: 9/100 Price: 363.22$  ⚽ Sorare: https://t.co/TfneitpWpi  📊: https://t.co/GRdO8cotkO  #Sorare #NFT #Ethereum #FantasyFootball",0,0
1376096602218201088,"2021-03-28T08:59:31Z","RT @VforVechain: $vet #vechain $eth $btc https://t.co/BCziGOVmiy",246,0
1376096599542218755,"2021-03-28T08:59:30Z","THX Eth. Com. in Houston, Amb. Dina, Eng. Gedion, Dr Yacob &amp; all for the great webinar.  - Ethiopia generates 86% of the Nile &amp; 77 billion m3/yr.  - GERD increases power by 15,692 GWh/year.  - GERD will be realized &amp; millions will be lifted out of poverty. https://t.co/dXo41dPbUo",114,0
1376096598850166784,"2021-03-28T08:59:30Z","@majorart_eth Hold longer than 1 year in germany = tax free (Until decided otherwise)",6,0
1376096591702937602,"2021-03-28T08:59:28Z","🔥New Listing @a2dao_ 🔥  #ATD trading will be enabled on https://t.co/8kWqgEeplL 😎  👉Trade: https://t.co/ExhZLJsBuu 👉Details: https://t.co/wHKyoIXPWV  #DeFi #crypto #ALTSEASON #ETH #NFT https://t.co/UjKmwZhqea",256,0
1376096589123444739,"2021-03-28T08:59:28Z","Not your keys, not your coins.  A non-custodial wallet like @AtomicDEX is a safe harbour for hedging against inflation.  #trading #reddit #Bitcoin $BTC $ETH #DeFi https://t.co/t6b7kzxs2j",53,0
1376096583159328775,"2021-03-28T08:59:26Z","@NftShilling my latest piece now available on OpenSea  https://t.co/ncSi2lcy77 #nft #nftart #nfts #nftartist #nftcollector #nftcommunity #superrare #mintable #rarible #niftygateway #opensea #eth #ethereum #bitcoin #decentraland #cryptoart #cryptoart https://t.co/Hv6exxqc2n",4,0
1376096581808746498,"2021-03-28T08:59:26Z","RT @The_NFT_Hub: 🎁Drop your $ETH address below🎁",1165,0
1376096580604936192,"2021-03-28T08:59:26Z","@Damian_Kidd You still can, dude. I meant you can collect that much Eth",1,0
1376096575601119232,"2021-03-28T08:59:24Z","If you ever feel FOMO this cycle - just remember, $ETH pulled ~50x the first half of 2017,  After that ? Plenty smaller coins went on to 30, 50, 100x+ just in the last few months that bull run.  You. are. still. early.",595,0
1376096572539215874,"2021-03-28T08:59:24Z","I'm giving away 100 $sxp in 3 days to a random person.   To qualify: like, retweet &amp; follow me.  $btc $eth $dot $matic $ada $link $sxp $trx $rsr $vet $reef $tvk $bnb $cake",335,0
1376096558173798402,"2021-03-28T08:59:20Z","Join the @Holdefi community in HLD public sale!  #HLD #Holdefi #ETH #BSC #IDO #ICO 👇👇 https://t.co/E8cErMJ0zs",0,0
1376096551466979328,"2021-03-28T08:59:19Z","🔥New Listing @a2dao_ 🔥  #ATD trading will be enabled on https://t.co/8kWqgEeplL 😎  👉Trade: https://t.co/ExhZLJsBuu 👉Details: https://t.co/wHKyoIXPWV  #DeFi #crypto #ALTSEASON #ETH #NFT https://t.co/UjKmwZhqea",256,0
1376096533968478208,"2021-03-28T08:59:14Z","🌋#ATD #Giveaway is on now! @a2dao_ 🌋  10 lucky users will receive $30 each in #ATD ✨  1️⃣Login &amp; Participate ☀️ https://t.co/wrbe0JlJuK   2️⃣Retweet and @ a friend  #DeFi #crypto #ALTSEASON #ETH #NFT https://t.co/oq0O5RbPbj",307,0
1376096516880822278,"2021-03-28T08:59:10Z","🌋#ATD #Giveaway is on now! @a2dao_ 🌋  10 lucky users will receive $30 each in #ATD ✨  1️⃣Login &amp; Participate ☀️ https://t.co/wrbe0JlJuK   2️⃣Retweet and @ a friend  #DeFi #crypto #ALTSEASON #ETH #NFT https://t.co/oq0O5RbPbj",307,0
1376096516188823553,"2021-03-28T08:59:10Z","$BONDLY going as predicted, looks very bullish and strong partnerships coming soon FireRocket #DYOR   $vet $xlm $bolt $ankr $doge $nebl  $xmr $btc $eth $fil $utk $cos $sys $rsr $bnb $bat $vra $chz $uni  $rsr $gxs $sfp $grt $bqx $one $xvg $mana $vidt $eos $chr https://t.co/ZfLD4NJCFE https://t.co/vppx8BuCOb",6,0
1376096506449522689,"2021-03-28T08:59:08Z","@bronzefozzz Some of his virtue signals : 1. satoshi is a coward, Buterin is more legit as he is the face of the project... 🤮 2. paying miners for btc to pollute The Planet (he was cool with it the year earlier...) 3. eth is Turing complete (2018 he said it was a major flaw in eth...)",0,0
1376096502330888194,"2021-03-28T08:59:07Z","How nice is it that you can use and manage ALL dapps on #Elastos with only one digital identity. Goodbye password manager with 100+ accounts and passwords. #TimeForSmartweb #PersonalFrustration #BTC #ETH #LINK #FIL #BNB #ELA🚀😍",38,0
1376096498706903042,"2021-03-28T08:59:06Z","🚀 Pluto Coin  Airdrop 🚀 Rate: ⭐⭐⭐⭐ ⭐ 🎁 Reward:  8822 PLUT ($1500) 👫 Referral: 40.5 PLUT  ($7)  🤖Start Bot here   https://t.co/x5JZchojO8  ⛂ Join Telegram group and channel. ⛂ Follow twitter &amp; retweet  ⛂ Submit ETH address and details.",6005,0
1376096473213890564,"2021-03-28T08:59:00Z","🐶Time to decide the champion Doge! 🏆  We select the raffle winner (valued at 3.5 ETH/$6k) at the end of this voting!  You will get an entry by: 1. Following us 2. Retweeting (each RT is an entry) 3. Tagging 3 friends!  @opensea #nft #doge #dogearmy #btc #ETH @elonmusk #airdrop https://t.co/9kCMXnKAQB",85,0
1376096470894440448,"2021-03-28T08:58:59Z","PRESTIGE’S EOY PREDICTIONS 🥸  $CELO - $12 💎🚀  $FLOW - $100 💎🚀  $ENJ - $9 💎🚀  $eRSDL - $25 💎🚀  $LABS - $0.70 💎🚀  $SMARTCREDIT - $350 💎🚀  $CELL - $40 💎🚀 $ETH - $4000 💎🚀 $XRP - $0 🥶  #Altseason #crypto #cryptonews #financialfreedom",16,0
1376096467912364032,"2021-03-28T08:58:59Z","@dennis56922936 @intocryptoverse Dennis, nobody is flipping eth. Give it a rest",1,0
1376096454066982915,"2021-03-28T08:58:55Z","Nvidia GeForce RTX 3060 With Full Unrestricted ETH Mining Hashrate, But Only With Single GPU in a Gaming PC CRYPTO CRYPTO NEWS - https://t.co/NJPYHp9ap6 https://t.co/Or5JnbFbTk",0,0
1376096453840363521,"2021-03-28T08:58:55Z","🔥New Listing @a2dao_ 🔥  #ATD trading will be enabled on https://t.co/8kWqgEeplL 😎  👉Trade: https://t.co/ExhZLJsBuu 👉Details: https://t.co/wHKyoIXPWV  #DeFi #crypto #ALTSEASON #ETH #NFT https://t.co/UjKmwZhqea",256,0
1376096453144231938,"2021-03-28T08:58:55Z","Buying the dip!  Apy $velo 52.8% Available on @kucoincom (Renewed)  🚀🚀🚀🚀  $VET $ANT $TVK $BRD $KSM $NPXS $BTT $VET $ANT $TRX $algo $chz $btc $reef $bnb $chr $dot $hot $omi $eth $omg $kmd $cake $dao $dego $srm $neo $rvn $sxp $xvg $atom $lit $ont $xem $iota $theta $tomo $audio https://t.co/L7PLcw2xrb",0,0
1376096430880874506,"2021-03-28T08:58:50Z","🔥 #ODDZ #Giveaway is Now On! @oddz_finance 🔥  10 lucky users will receive $30 each in #ODDZ 😗  1️⃣Login &amp; Participate   https://t.co/81bh5CpMnK  2️⃣Retweet and @ a friend  Share with your friends &amp; get more rewards 💌  #Ethereum #ETH #cryptogiveaway https://t.co/M7MxexMYji",265,0
1376096430570491906,"2021-03-28T08:58:50Z","Meet the new CryptoGummy!  CryptoGummy #005 \\ ETH Wizard  Everyone has heard of the Grey Wizard, but not many people know much about him. He is kind and fair. Rumor has it he knows a certain ancient language called Solidity.  https://t.co/fUtmWO8o4w  #NFT #rarbile #NFTs https://t.co/LC49VsYRau",35,0
1376096423800881154,"2021-03-28T08:58:48Z","🤖#Bitfinex doesn't require identity verification (#KYC) for depositing, #trading and withdrawing your #CLO👋  📢We increase trading volumes 🔹Trade CLO/USD 🔹Please RT &amp; Like this tweet and follow   👇 📌@CallistoSupport  #Bitcoin  #CLO #ETH #bitfinex #SmartContract $ALT https://t.co/iAfIg27zf4",89,0
1376096416884420608,"2021-03-28T08:58:47Z","🤗 #XYM Lock &amp; Earn has launched at https://t.co/8kWqgEeplL @NEMofficial 🤗  💎Token: #XYM 💎Term: 7 days 💎Zero handling fee &amp; estimated annualized yield of 100%  👉Earn now: https://t.co/yAwwBIBTkA 👉Details: https://t.co/d1rkGcbUBU  #ALTSEASON #Altseason2021 #BTC #ETH https://t.co/OqLaEsRKWT",564,0
1376096397892616195,"2021-03-28T08:58:42Z","🌋#ATD #Giveaway is on now! @a2dao_ 🌋  10 lucky users will receive $30 each in #ATD ✨  1️⃣Login &amp; Participate ☀️ https://t.co/wrbe0JlJuK   2️⃣Retweet and @ a friend  #DeFi #crypto #ALTSEASON #ETH #NFT https://t.co/oq0O5RbPbj",307,0
1376096385909547008,"2021-03-28T08:58:39Z","🔄 Prices update in $USD (1 hour):  $BTC - 56269.0 $  (+0.15 %) $ETH - 1717.34 $  (+0.05 %) $DOT - 32.96 $    (+0.25 %) $ADA - 1.21 $     (+0.38 %)  #BTC #ETH #DOT #ADA #Crypto #Bitcoin",0,0
1376096384093351940,"2021-03-28T08:58:39Z","🤗 #XYM Lock &amp; Earn has launched at https://t.co/8kWqgEeplL @NEMofficial 🤗  💎Token: #XYM 💎Term: 7 days 💎Zero handling fee &amp; estimated annualized yield of 100%  👉Earn now: https://t.co/yAwwBIBTkA 👉Details: https://t.co/d1rkGcbUBU  #ALTSEASON #Altseason2021 #BTC #ETH https://t.co/OqLaEsRKWT",564,0
1376096353781219330,"2021-03-28T08:58:32Z","First 5/500 Grimlins Dropped  https://t.co/Zhb23MgIBW  #nftcollectors #NFTCommunity #NFTs #nftart #cryptoart #CryptoNews #cryptocurrency #Ethereum #ETH #pixelart https://t.co/jHbkGyElaO",1,1
1376096349142269954,"2021-03-28T08:58:30Z","CRYPTO NEWS - SELLING ETH, Buying Hidden Gems https://t.co/8pm8rdj3XO via @YouTube",0,0
1376096343995772929,"2021-03-28T08:58:29Z","🌋#ATD #Giveaway is on now! @a2dao_ 🌋  10 lucky users will receive $30 each in #ATD ✨  1️⃣Login &amp; Participate ☀️ https://t.co/wrbe0JlJuK   2️⃣Retweet and @ a friend  #DeFi #crypto #ALTSEASON #ETH #NFT https://t.co/oq0O5RbPbj",307,0
1376096335582089218,"2021-03-28T08:58:27Z","1/20 NFT Kate Moss only available @PortionApp #NFTs #NFTCommunity #nftcollector #opensea #portion #nifty #NFTcollectibles #eth #nft #StreetArt #popart #NFTartist #nftart #NFTshill #NFTdrop https://t.co/XVPr77SgKy",19,0
1376096325389840393,"2021-03-28T08:58:25Z","Imagine being bearish on $ETH while you can see #DeFi and #NFTs (which are mostly on Ethereum) are growing rapidly.  Literally few understand this 😂",28,0
1376096325079609344,"2021-03-28T08:58:25Z","RT @crypto_birb: $BTC 90k $ETH 5k coming soon https://t.co/kKro6dgdJL",2404,0
1376096317424943105,"2021-03-28T08:58:23Z","Welcome to massive Q DAO airdrop!   1. go now to telegram https://t.co/COyXgODY1z   2. Stay in telegram chat and wait announcement.  3. HOLD this gem until 10x   (soon - QDAO launch cross-chain for BSC, Polkadot and ETH)",4254,0
1376096315302674432,"2021-03-28T08:58:22Z","🚀#FUSECASH  EVENT 💰 #Free up to Fuse #Unicorn #NFT + 500$ in Fuse Tokens  👉👉 https://t.co/uZUWTDkJG6   ✅ Enter Email ✅ Confirm Email  1. Retweet + Like #CTBot Adrop Ram 3 TRX 100 #btc #eth #bnb #bsc #DeFi #nftart #NFTGiveaway #NFTCommunity #NFTartists #NFTs #NFTcollectibles https://t.co/5NSpthpXcF",109,0
1376096298105978882,"2021-03-28T08:58:18Z","RT @virtujom: RT @TheCryptoFuture: DREAMPUNKS LAUNCH #GIVEAWAY  Step in to the Ether-realm with this limited drop of 100 unofficial DreamPunks #NFTs  0.5 ETH VALUE  To Win One For Yourself:  1. Follow @Dream_Punks_   2. Like &amp; Retweet  3. Tag some friends!  …",33,0
1376096291361452032,"2021-03-28T08:58:17Z","CRYPTO NEWS - SELLING ETH, Buying Hidden Gems https://t.co/3iKt43orDy via @YouTube",0,0
1376096285325811714,"2021-03-28T08:58:15Z","🔥New Listing @a2dao_ 🔥  #ATD trading will be enabled on https://t.co/8kWqgEeplL 😎  👉Trade: https://t.co/ExhZLJsBuu 👉Details: https://t.co/wHKyoIXPWV  #DeFi #crypto #ALTSEASON #ETH #NFT https://t.co/UjKmwZhqea",256,0
1376096253990203398,"2021-03-28T08:58:08Z","payment can be in #Bitcoin, $ETH, paypal, cashapp, gcash, indo ewallet, $DOGE, $BNB, any crypto, whatever you want. must be following if you win so i can dm. #giveaway ends in 1 week. 🍀",1200,0
1376096237183672321,"2021-03-28T08:58:04Z","🔥New Listing @a2dao_ 🔥  #ATD trading will be enabled on https://t.co/8kWqgEeplL 😎  👉Trade: https://t.co/ExhZLJsBuu 👉Details: https://t.co/wHKyoIXPWV  #DeFi #crypto #ALTSEASON #ETH #NFT https://t.co/UjKmwZhqea",256,0
1376096217541738497,"2021-03-28T08:57:59Z","🌋#ATD #Giveaway is on now! @a2dao_ 🌋  10 lucky users will receive $30 each in #ATD ✨  1️⃣Login &amp; Participate ☀️ https://t.co/wrbe0JlJuK   2️⃣Retweet and @ a friend  #DeFi #crypto #ALTSEASON #ETH #NFT https://t.co/oq0O5RbPbj",307,0
1376096213351723008,"2021-03-28T08:57:58Z","🔸 New Listing🔸   #BKEX will list #DRYCAKE @DryCakeSwap🚀 🚀  - Trading pair: DRYCAKE/USDT - Trading time: 20:00 on Mar 29 (UTC+8)  🔹 🔹 More details: https://t.co/kC2IIebfTT  #Bitcoin #ETH #BKK #Blockchain https://t.co/w8CHyKXaUD",2480,0
1376096206200389635,"2021-03-28T08:57:56Z","Quantnetwork   9 tech vacancies in London  https://t.co/H07QxyqDf0  $QNT  $xrp $link $btc $eth",10,0
1376096193730605063,"2021-03-28T08:57:53Z","🤗 #XYM Lock &amp; Earn has launched at https://t.co/8kWqgEeplL @NEMofficial 🤗  💎Token: #XYM 💎Term: 7 days 💎Zero handling fee &amp; estimated annualized yield of 100%  👉Earn now: https://t.co/yAwwBIBTkA 👉Details: https://t.co/d1rkGcbUBU  #ALTSEASON #Altseason2021 #BTC #ETH https://t.co/OqLaEsRKWT",564,0
1376096160767602691,"2021-03-28T08:57:46Z","🔥New Listing @a2dao_ 🔥  #ATD trading will be enabled on https://t.co/8kWqgEeplL 😎  👉Trade: https://t.co/ExhZLJsBuu 👉Details: https://t.co/wHKyoIXPWV  #DeFi #crypto #ALTSEASON #ETH #NFT https://t.co/UjKmwZhqea",256,0
1376096137216598020,"2021-03-28T08:57:40Z","🤗 #XYM Lock &amp; Earn has launched at https://t.co/8kWqgEeplL @NEMofficial 🤗  💎Token: #XYM 💎Term: 7 days 💎Zero handling fee &amp; estimated annualized yield of 100%  👉Earn now: https://t.co/yAwwBIBTkA 👉Details: https://t.co/d1rkGcbUBU  #ALTSEASON #Altseason2021 #BTC #ETH https://t.co/OqLaEsRKWT",564,0
1376096117159436294,"2021-03-28T08:57:35Z","🌋#ATD #Giveaway is on now! @a2dao_ 🌋  10 lucky users will receive $30 each in #ATD ✨  1️⃣Login &amp; Participate ☀️ https://t.co/wrbe0JlJuK   2️⃣Retweet and @ a friend  #DeFi #crypto #ALTSEASON #ETH #NFT https://t.co/oq0O5RbPbj",307,0
1376096090135519233,"2021-03-28T08:57:29Z","ETH bagholders: why isn't ETH mooning? why are all other coins, includin Bitcoin, outperforming? Why are the fees still so high?  Also ETH bagholder: https://t.co/QgK2C1vY0q",184,0
1376096083886149641,"2021-03-28T08:57:27Z","If you aren’t buying $GVT before this next phase of the bull run, then i’m afraid to say, you’re doing it wrong.  $alts $crypto $btc $eth $tomo $dia $vra $ela $link $vidt $ankr $fet",50,0
1376096078114721793,"2021-03-28T08:57:26Z","@defaultnap If I had that much Eth I would be collecting so many pieces.",1,0
1376096074281201664,"2021-03-28T08:57:25Z","To celebrate 🎉 this milestone im giving away 5555 $hex (about 100$ usd)  Everybody like, RT, and follow  ALL ENTRIES WILL BE DRAWN FROM THIS TWEET’s RT’s so be sure to RT to enter! good luck to all those participating the winner will be drawn Monday night 8PM!!!! #btc #eth #hex https://t.co/ram4Yvq5wg",178,0
1376096059894603778,"2021-03-28T08:57:21Z","🌋#ATD #Giveaway is on now! @a2dao_ 🌋  10 lucky users will receive $30 each in #ATD ✨  1️⃣Login &amp; Participate ☀️ https://t.co/wrbe0JlJuK   2️⃣Retweet and @ a friend  #DeFi #crypto #ALTSEASON #ETH #NFT https://t.co/oq0O5RbPbj",307,0
1376096027871039490,"2021-03-28T08:57:14Z","Tired of your exchange going down?  Trade #Crypto &amp; stocks anywhere in the world on FTX The easiest deposit methods available &amp; near instant KYC!  Trade here with a 5% lifetime fee discount: https://t.co/SzgbT2Ypee  $BTC $ETH $BNB $CAKE $CRV $ADA $FTT  @coinkit_ mon 0.2 200 $TRX",55,0
1376096012289236993,"2021-03-28T08:57:10Z","🔥New Listing @a2dao_ 🔥  #ATD trading will be enabled on https://t.co/8kWqgEeplL 😎  👉Trade: https://t.co/ExhZLJsBuu 👉Details: https://t.co/wHKyoIXPWV  #DeFi #crypto #ALTSEASON #ETH #NFT https://t.co/UjKmwZhqea",256,0
1376096005523865600,"2021-03-28T08:57:09Z","$bles another 50%+ move up from 7.5$ to 12.5$  if you get another entry at 9$ this time, dont miss it  $btc $eth $uni $ern $ebox $mrch",5,0
1376095999983255552,"2021-03-28T08:57:07Z","$vrx #nft ONLY 625 $eth still cheap when u WlLL see this AnnnimaL RUNNiNG in the TOP CHARTS JUNGLE!!!!!!! @opensea @coinlistings @cmclistings https://t.co/eGdGbGNUNe",0,0
1376095998615941120,"2021-03-28T08:57:07Z","RT @DailyDogeUpdate: 🚀 $1000 to anyone who Like, Follow and Retweet 🚀  #Dogecoin #LTC $ETH",1846,0
1376095991883988993,"2021-03-28T08:57:05Z","My first @opensea #nft drop just landed  Video with sound  #opensea #NFTArt #NFTArtist #CryptoArt #CryptoArtist #NFTCommunity #NFTcollectibles #ETH #NFTdrop   https://t.co/j0GGyqQrkF",7,0
1376095980412567560,"2021-03-28T08:57:03Z","🌋#ATD #Giveaway is on now! @a2dao_ 🌋  10 lucky users will receive $30 each in #ATD ✨  1️⃣Login &amp; Participate ☀️ https://t.co/wrbe0JlJuK   2️⃣Retweet and @ a friend  #DeFi #crypto #ALTSEASON #ETH #NFT https://t.co/oq0O5RbPbj",307,0
1376095979787542529,"2021-03-28T08:57:02Z","🔥New Listing @a2dao_ 🔥  #ATD trading will be enabled on https://t.co/8kWqgEeplL 😎  👉Trade: https://t.co/ExhZLJsBuu 👉Details: https://t.co/wHKyoIXPWV  #DeFi #crypto #ALTSEASON #ETH #NFT https://t.co/UjKmwZhqea",256,0
1376095977753305088,"2021-03-28T08:57:02Z","So you are not using a standard erc20 contract? Lets see after their launch, If we were right. Just dont put your money in it, #defiscambuster #defi #sgm #bsc #eth #cryptocurrency https://t.co/PZew8LBIaf",330,0
1376095953623506946,"2021-03-28T08:56:56Z","Hey guys, Im looking to spend some ETH today.. Budget: 1-2ETH for #NFTcollectibles  1. Follow me 2. Like and retweet 3. Tweet me your work in this thread #nft #NFTs #nftcollector #nftcollectors #collector #Ethereum #cryptoartist #cryptoart #NFTartist #newnftartist #NFTCommunity",81,34
1376095943443894278,"2021-03-28T08:56:54Z","Only few hours left until the « today we push » Binance +1000% Push!  Join the push: https://t.co/1LkdoFBXZR https://t.co/Cz44VJNrWA  #Bitcoin #BTC #Crypto $Bitcoin #Bitcoin $ETH #ETH $Ethereum #Ethereum $BTC #BNB $BNB #Binance",0,0
1376095942823211011,"2021-03-28T08:56:54Z","Do you have money just sitting there in #stablecoins like #USDC or #BUSD? You could be early huge passive income by lending on FTX!   Register here and start earning now: https://t.co/SzgbT2Ypee  $BTC $ETH $BNB $CAKE $CRV $ADA $FTT $USDT $USDC  @coinkit_ mon 0.25 225 $TRX https://t.co/fO3EDM60eG",74,0
1376095939883110404,"2021-03-28T08:56:53Z","@binance BTC ETH",1,0
1376095936062033921,"2021-03-28T08:56:52Z","RT @J0E007: Dropping $ETH $LINK $ADA and $DOT https://t.co/h59nuub798",368,0
1376095929711783936,"2021-03-28T08:56:50Z","My Public Address to Receive ETH 0x6ad0f9a5b57d03E447AEE20b57e3F732F420040f  Pay me via Trust Wallet: https://t.co/s2EEuI5E7Y https://t.co/qvdp9vyItX",0,0
1376095921717452800,"2021-03-28T08:56:49Z","Sigma protocol Airdrop is now🔥  A total of 3,000,000 Sash credit will be distributed. ❗Limited places💸 ❗A minimum of $105💰  ➡️Follow the steps on our TG BOT https://t.co/ii8xZSYf8p  RT and follow. We will pick winners for 100 BUSD💸.    #Airdrop #Giveaway  #eth #bsc #Crypto https://t.co/OsVCvYoTVo",18256,0
1376095919276429312,"2021-03-28T08:56:48Z","#bitcoinnews Crypto's Everything comes to an end... including bitcoin  #ETH - 0x3BC690c604d170BB53c155cb66074B4DE1172C36",0,0
1376095919091843075,"2021-03-28T08:56:48Z","🔥New Listing @a2dao_ 🔥  #ATD trading will be enabled on https://t.co/8kWqgEeplL 😎  👉Trade: https://t.co/ExhZLJsBuu 👉Details: https://t.co/wHKyoIXPWV  #DeFi #crypto #ALTSEASON #ETH #NFT https://t.co/UjKmwZhqea",256,0
1376095904252497921,"2021-03-28T08:56:44Z","@DonCryptoDraper $VIDYA quietly grinding up 57% in last 3 days ....   👁 $VIDYA #Gaming #Gamers #Nft #NFTS #3dGaming #Team3D #VIDYA @Team3D_Official ✅  $AXS $SAND $GAME $UMX $ERN $REHAB $KAVa $DOGE $ETH $OM $CONV $UTK $ENJ $omi $RAMP $ORN $BTC #Bitcoin #BTC 👇 https://t.co/1x6spi77i2",6,0
1376095888435634180,"2021-03-28T08:56:41Z","The DEX @FinanceChainge is set to launch on the @FUSIONProtocol network with over a million users on the protocols waitlist. This decentralized exchange aims to innovate on traditional models through leveraging the Fusion Network.  #BSC #BTC #ETH #BNB  https://t.co/xx55YiGfm3",21660,0
1376095880730701826,"2021-03-28T08:56:39Z","#DeFi #BKC #eth2 #BucksCake  ANNOUNCEMENT!  Dear BucksCake's community members!  The exact date of BKC listing on Uniswap set for 04/20/2021!  2 days before it, the exact opening time of the trading pair BKC/ETH on Uniswap...  More at https://t.co/RQPMhjazG2 https://t.co/VjtBbXBA1t",2856,0
1376095870979076096,"2021-03-28T08:56:36Z","@NeaminZeleke I don't want 2 say 2 little 2 late. TPLFies have already managed 2 turn z global community against Eth by their fabricated false narratives, using lobbyists. We must admit there is unbelievable level of incompetence on Eth gov part. They would have been able 2 mobilise this early",1,0
1376095855195918338,"2021-03-28T08:56:33Z","TARGET ➡️ 6$ 🔥🌝🦾🤫 #HARD $HARD 💥🚀  ➡️Stay $hard 🔥🔥🔥  #hardusdt $hard #hard #bitcoin #ethereum $btc #eth #btcusdt #xrp #bnb #binance #coinbase #ada $ada $eth #sxp #doge #dot #xrp #ltc #link #key #hot #chz #trx #btt https://t.co/1cmFuUVZAk",3,0
1376095853274750981,"2021-03-28T08:56:32Z","Elrond is Ethereum killer. Sorry Eth boys. Even if i'm no longer shilling $EGLD, ILL FOREVER LOVE THIS PROJECT.",0,0
1376095842386464770,"2021-03-28T08:56:30Z","FREE NFT HERE! 🚀 Giving away 1 #NFT to 1 lucky #collector ⭐️ Follow, retweet and DM/Reply your #RARIBLE profile to enter! Ends in 24h! 💨  #nfts #nftcollector #NFTCommunity #nftcollectors #crypto #cryptoart #eth #ethereum #nftart #nftartist #rarible #opensea #cryptoartist",7,0
1376095842155773952,"2021-03-28T08:56:30Z","RT @CryptoDiggler: @CryptoMichNL Maybe... But one thing is for sure: $GET protocol will outperform BTC and ETH this year.",10,0
1376095839597207552,"2021-03-28T08:56:29Z","RT @crypto_birb: $BTC 90k $ETH 5k coming soon https://t.co/kKro6dgdJL",2404,0
1376095835109404675,"2021-03-28T08:56:28Z","Realistic price target ranges for this year with most variables taken into account: (Peak parabola prices)  $LINK: $300-400 $BNT: $75-150 $ETH: $5-8k $BTC: $170-230k $ADA: $0 $GRT: $25-30 $NU: $10-$15 $LRC: $4-8 $MATIC: $3-5",956,0
