"ID","created_at","text","like_count","rt_count"
1374624513577476097,"2021-03-24T07:29:57Z","@HamdanDespacito @CryptoMichNL if you sold eth for ada you've already lost",1,0
1374624509970554883,"2021-03-24T07:29:57Z","@_benkaufman I'm taking $BTC. Give me your $ETH for wine on https://t.co/YdzXqZSzr2. I'll convert to $BTC and #HODL for life to ensure the markets stay stable this week! Here for you #BTCFamily https://t.co/8Rrv6pFwca",0,0
1374624507755855876,"2021-03-24T07:29:56Z","📌 The TokenKennel #Giveaway | Rules 📌 =   - Step 1: Like &amp; Retweet + tag 3-5 People! - Step 2: Follow @KennelToken &amp; @__Bullish__ - Step 3: Join https://t.co/1wcwTits9h - Step 4: Send Proof!   Prize = 100$ in #BTC or #ETH  06/04, we will announce the winner! 🎁",1814,2129
1374624507135025155,"2021-03-24T07:29:56Z","$DYP liquidity providers earned 6,401.87 #Ethereum worth $10,769,945 since launch!  Earn up to 303.11% APY 💰  If you want to start earning #ETH you just need to join one of our liquidity pools: DYP-ETH, DYP-WBTC, DYP-USDC, and DYP-USDT https://t.co/zxyI0V2tnr  #DeFi #uniswap https://t.co/G1k8VLAekB",430,380
1374624506531119105,"2021-03-24T07:29:56Z","Step 1: Download, install and set up the Maskwallet Step 2: Connect your metamask or sent ETH to $Mask wallet Step 3: Go to Gitcoin Grant web and find your project want to donate COPY LINK and make a Tweet with this link FINAL:click on above tweet, you will see donate button https://t.co/VeJmYmgXvb",0,0
1374624499723739140,"2021-03-24T07:29:54Z","💰What’s your #ETH wallet address?  🚀Don’t ask why, just drop it below👇  🚀Like、Retweet &amp; Tag ALL U CAN  🚀 USDT-NFTs has been listed on Uniswap！  🚀 The contract address: 0x6599fc3e77cbfa6f6e9cac605a30b1e78827eba0  #NFTs #NFT #AIRDROP #UNISWAP https://t.co/H29ZBOR0aL",1380,1178
1374624487304437761,"2021-03-24T07:29:51Z","RT @volmexfinance: What’s your ETH address?  Don’t ask why, just drop it below 👇",4854,1656
1374624480547471361,"2021-03-24T07:29:50Z","@JRNYcrypto No in ETH",0,0
1374624479997952004,"2021-03-24T07:29:49Z","What we can be sure of today is those who continue to trade in crypto either aren’t too concerned about negative regulation or may have figured out some safeguards” said @sathvikv of cryptocurrency exchange @Unocoin   Read more at https://t.co/3shVUZaijh  $BTC $ETH $ADA $Crypto https://t.co/e5B4wakEcw",14,4
1374624476512493577,"2021-03-24T07:29:49Z","@NFTs_Group I always Retweet and Tag my friends in your Twit but no Nft token recieve until now i tried many many times retweet your Twit after all nothing recieve!  Here is my Eth add check it  0xB1f6965E1c2dd2Af349b661f8c770333C947d298  https://t.co/wlU1pW0c6h",0,0
1374624476495638530,"2021-03-24T07:29:49Z","RT @DailyDogeUpdate: 🚀 $1000 to anyone who Like, Follow and Retweet 🚀  #Dogecoin #LTC $ETH",1838,1206
1374624473182244866,"2021-03-24T07:29:48Z","RT @ovocmoneyy: “Leaveth thy where they at..eth” took me tf out💀💀",1,1
1374624466240638977,"2021-03-24T07:29:46Z","Been screaming about this gem since the beginning for months now  $VRX is on the left, $AVAX on the right  Don't be shaken out,  5000$ incoming  🚀  Buy $VRX NOW!  Only 47.5k max supply, 60% staked! Game changing coin🔥  #bitcoin $btc $eth  $spi $chain $umx $cfi $ern $lpt $rfr https://t.co/VJheZrWKaa",2435,3576
1374624453213224963,"2021-03-24T07:29:43Z","RT @blu3sage: I just minted this appropriation piece on Rarible. You can grab one for 0.035 ETH Ξ   #NFTartist #NFTs   https://t.co/Bjbindv…",1,1
1374624451615133696,"2021-03-24T07:29:43Z","@volmexfinance @JLSanchez37 Stablecoins.eth  https://t.co/0nxRb5uUko  #NFT #NFTs #defi #nftcollector #Eth #Ethereum #crypto #Domains",1,1
1374624431373348871,"2021-03-24T07:29:38Z","An exciting upgrade for $UNI &amp; the world of #DeFi!  $STA cut its teeth on Uniswap 10 months ago, and we've been using it ever since. We're very excited for v3 and the possibilities it presents for LP providers, being able to maximise their capital efficiency.  #BTC #ETH #ALTS https://t.co/3S22xBez1J",42,9
1374624430387834880,"2021-03-24T07:29:38Z","Lol Bro this is going to keep happening until you stop chasing every candle with 125x leverage.  $BTC $ETH",0,0
1374624412587134978,"2021-03-24T07:29:33Z","Can you see the movement?  Maximum Flow by Zach Murray  1 of 10 • Now Available for Ξ 0.058  https://t.co/Ei0ru4oU07  @KnownOrigin_io  Art by @cosmozach1  #cryptoart #NFT #cryptoartist #ETH",0,0
1374624411110666246,"2021-03-24T07:29:33Z","Dude. Damien Hirst is still kickin' it on @opensea waiting for you to take his glitched arse home. He can paint dots for you or make you a nice NFT or just chill w/a cuppa tea innit?   Damien GlitchPunk by FG  1/1  .2 ETH  https://t.co/ACCR0LQpO2  #unofficialpunks #glitchpunk https://t.co/b2JQ3iPiWW",6,3
1374624410125144064,"2021-03-24T07:29:33Z","30 day EVIX: 94.5336 ETH/USD vwap: $1,690.82 04/09 expiry volume: $2,620,183.59 04/30 expiry volume: $9,822,383.17 Current time: 07:29:06",0,0
1374624407759519745,"2021-03-24T07:29:32Z","RT @OurielOhayon: Tesla will never accept ETH for payment.  Because of gas.",56,9
1374624405234479111,"2021-03-24T07:29:32Z","💧Roku Network Airdrop 💧  🏆 Task:          ➕  15 ROK (~$5)  👨‍👩‍👧 Referral:   ➕  3 ROK (~$1)  🔛  Airdrop Link &amp; Information: https://t.co/YhvsOcfEbH  #cryptocurrency #Crypto #Bitcoin  #BSC #BinanceSmartChain #Ethereum #ETH #Airdrop #bounty #ROK #RokuCoin #RokuNetwork",3593,4682
1374624404714315777,"2021-03-24T07:29:32Z","Been screaming about this gem since the beginning for months now  $VRX is on the left, $AVAX on the right  Don't be shaken out,  5000$ incoming  🚀  Buy $VRX NOW!  Only 47.5k max supply, 60% staked! Game changing coin🔥  #bitcoin $btc $eth  $spi $chain $umx $cfi $ern $lpt $rfr https://t.co/VJheZrWKaa",2435,3576
1374624386540433408,"2021-03-24T07:29:27Z","RT @DailyDogeUpdate: 🚀 $1000 to anyone who Like, Follow and Retweet 🚀  #Dogecoin #LTC $ETH",1838,1206
1374624377539420162,"2021-03-24T07:29:25Z","Nice   $BTC $ADA $REN $ETH $SRK $LTC $UNI $DOGE $BNB $DOT $KCS $vet $fil $enj $bch $aave $cro $ela $nft https://t.co/yYaq80bpHs",1,0
1374624372149776385,"2021-03-24T07:29:24Z","📌 The TokenKennel #Giveaway | Rules 📌 =   - Step 1: Like &amp; Retweet + tag 3-5 People! - Step 2: Follow @KennelToken &amp; @__Bullish__ - Step 3: Join https://t.co/1wcwTits9h - Step 4: Send Proof!   Prize = 100$ in #BTC or #ETH  06/04, we will announce the winner! 🎁",1814,2129
1374624368337285126,"2021-03-24T07:29:23Z","🔥 Burned 15.140 #renBTC (839,876.36 USD) on #ETH. Darknodes fee: 0.0151 #BTC (839.88 USD) https://t.co/0g0QxOkzgB",1,0
1374624365409619971,"2021-03-24T07:29:22Z","I want to buy some #NFTs  Shill your artwork in the comments below 🥰  RT'S, likes and follows appreciated 🦒  #nft #NFTartist #NFTCommunity #cryptoart #nfts #raffies #nfts #eth",299,68
1374624361852723202,"2021-03-24T07:29:21Z","ANNOUCEMENT  REMIX INITIAL ROUND 1 - PRESALE   ⚡️TOKEN Bonus = 10% 🙍🏽‍♂️Referral Bonus = 5% 💰Payment Methods: BNB, USDT, ETH  Visit https://t.co/HUHdctVVSm to Enter PRESALE ROUND 1  ➡️ PRESALE ROUND 1 ends on 20th March 2021 15:00(UTC) #presale #rmx #remix #BinanceSmartChain #BSC https://t.co/dPz6FNVPGI",878,920
1374624356937035780,"2021-03-24T07:29:20Z","RT @volmexfinance: What’s your ETH address?  Don’t ask why, just drop it below 👇",4854,1656
1374624338100518914,"2021-03-24T07:29:16Z","*** Giving away 1000 $Dusk ***  To celebrate $BTC reaching 60k I've decided to give you a chance to win 1000 of my favorite altcoin, $dusk, if you: - Like this tweet - Retweet this tweet - Follow me on Twitter.   Contest ends 27-03. $ETH $ADA $BNB $LINK #GiveawayAlert #Crypto https://t.co/nsWo1FFUVQ",269,221
1374624330357698561,"2021-03-24T07:29:14Z","Do not wait until #ElonMusk sends ETH or Doge to your account. Read and search and start investing today to get the better gains tomorrow.  #ADA #Bitcoin #altcoin",1,0
1374624323835600899,"2021-03-24T07:29:12Z","https://t.co/usXAzmrtPh  This NFT 1/50 giveaway in 24 hours!💥💥💥  Price 0.06 ETH =$100 !!!  🤝🤝🤝Follow me + @Watches1Crypto  👍 like  💪 retweet   🤝two friends+ comment with your ETH wallet adress. 🙏🙏🙏 I wish everyone good luck   #NFTartist #rarible #nft  #cryptoart https://t.co/aQh9S3iMc6",144,131
1374624322896203778,"2021-03-24T07:29:12Z","Ethereum Will Beat Bitcoin by 2025  by ⁦⁦@ryanallis⁩  I like the bet on #eth because there is more asymmetric risk still built in over #btc.  It’s still early to get in on #bitcoin but it’s still super to buy #ethereum.  https://t.co/DQuKzB2mPB",3,1
1374624322644545537,"2021-03-24T07:29:12Z","💧DogeSwap Airdrop💧  🏆 Task:          ➕   7 DOG  👨‍👩‍👧 Referral:     ➕   2 DOG  🔛  Airdrop Link &amp; Information: https://t.co/3rlt9kiu64  #cryptocurrency #Crypto #Bitcoin  #DogeSwap #Ethereum #ETH #Airdrop #bounty #Doge #AirdropStario",3945,5026
1374624322510155776,"2021-03-24T07:29:12Z","🔥🔥Friends, I'm glad to tell you that @CryptoClownNft and I are making a giveaway.🔥🔥  #3 - BOZO the cryptoclown - will be a gift for the winner!  1. Follow me and @CryptoClownNft 2.RT this tweet 3. Comment on your ETH address.  1 winner  Giveaway ends on March 25 https://t.co/SN2LHZmcSI",159,123
1374624321415569408,"2021-03-24T07:29:12Z","As of March 23, 2021 at 08:29AMCET, 1 ETH is 1420.5721 EUR.",0,0
1374624321226764291,"2021-03-24T07:29:12Z","📌 The TokenKennel #Giveaway | Rules 📌 =   - Step 1: Like &amp; Retweet + tag 3-5 People! - Step 2: Follow @KennelToken &amp; @__Bullish__ - Step 3: Join https://t.co/1wcwTits9h - Step 4: Send Proof!   Prize = 100$ in #BTC or #ETH  06/04, we will announce the winner! 🎁",1814,2129
1374624313333145607,"2021-03-24T07:29:10Z","My second #nft is now available on @rariblecom  Singularity  1/1  .3 Eth  https://t.co/Xioo4yrUFS #nftart #nftartist #cryptoart #cryptoartist https://t.co/KUPvVYE6XA",138,42
1374624310447411200,"2021-03-24T07:29:09Z","@birds_eye66 @JRNYcrypto Damn, what's that + 12 eth",0,0
1374624306848751617,"2021-03-24T07:29:08Z","💧Roku Network Airdrop 💧  🏆 Task:          ➕  15 ROK (~$5)  👨‍👩‍👧 Referral:   ➕  3 ROK (~$1)  🔛  Airdrop Link &amp; Information: https://t.co/YhvsOcfEbH  #cryptocurrency #Crypto #Bitcoin  #BSC #BinanceSmartChain #Ethereum #ETH #Airdrop #bounty #ROK #RokuCoin #RokuNetwork",3593,4682
1374624301215793152,"2021-03-24T07:29:07Z","Get free SFMONEY Token Visit https://t.co/EPoTIPqQbU now, and get free $51 SFMONEY tokens. Invite your friends and earn for each friend you refer.    #Airdrop #BTC #XVG #TRX #ADA #MANA #ETH #GRAB  @GrabAirdrop",0,0
1374624297147232258,"2021-03-24T07:29:06Z","@elonmusk @elonmusk  ETHERIUM CLASSIC all day OG Loc",0,0
1374624283406782468,"2021-03-24T07:29:03Z","🚨 We are pleased to announce that https://t.co/QSWYReRKz6 is now on @CoinMarketCap !   We are adding top tier pairs EVERY week. 🐉   Featuring: $QUICK $ETH $WMATIC $GAME $GHST $AZUKI $MAAVE and more. https://t.co/tkembMITgS",119,31
1374624282387550208,"2021-03-24T07:29:02Z","Mars House, First Digital Home to be Sold on the NFT Marketplace (288 ETH ~ $512,000) https://t.co/brG81eQhlM via @archdaily",0,0
1374624276360400902,"2021-03-24T07:29:01Z","Beeple Immediately Converted His $53 Million NFT Earnings From ETH to USD #SmartNews  https://t.co/aZk3IdiyXZ",1,2
1374624274917494788,"2021-03-24T07:29:01Z","https://t.co/usXAzmrtPh  This NFT 1/50 giveaway in 24 hours!💥💥💥  Price 0.06 ETH =$100 !!!  🤝🤝🤝Follow me + @Watches1Crypto  👍 like  💪 retweet   🤝two friends+ comment with your ETH wallet adress. 🙏🙏🙏 I wish everyone good luck   #NFTartist #rarible #nft  #cryptoart https://t.co/aQh9S3iMc6",144,131
1374624269427109889,"2021-03-24T07:28:59Z","@briandordevic Yup. And ETH and a bunch of Alts as well.",1,0
1374624269158776834,"2021-03-24T07:28:59Z","Super Rare Amber Master Art P&amp;M Jewelry   Only 3 pieces ever Ξ 0.55  Want to win a random NFT out of our collection?   &gt;Retweet this post &gt;Tag 2 NFT enthusiasts   #rarible #ethereum #collectable #NFT #3D #art $ETH $rari #art  #nftgiveaway #superrare  https://t.co/Ql9WRDkGsw https://t.co/vLn2VWpeIC",107,89
1374624258824019974,"2021-03-24T07:28:57Z","👽👽👽 $ONT target reached. First giveaway of 100 $usdt is a succes.   The winner is choosen by random number generator: the winner is:  Hokky NFT @Hokkymulu Congratulations. DM is send to you!  Stay tuned for other giveaways!  $btc #Bitcoin $eth $ada $vet $fet $tesla $link $bnb https://t.co/3YTDS7wkmf https://t.co/GkJUDzoeLm",1,0
1374624255900581891,"2021-03-24T07:28:56Z","@MichaelRihani @Darrenlautf But what about Eth?",0,0
1374624249785253894,"2021-03-24T07:28:55Z","Trade all your BITCOIN and All Valid Gift Cards  @GreysExchange and get paid fast 🔥  • BTC || ETH || USDT || XRP || LTC || BCH  ALL GIFT CARDS ✅  iTunes  Steam Google play Amazon  Walmart Grendot  Venmo  Slide into our dm @GreysExchange for Smooth Transactions.",43,47
1374624248346546177,"2021-03-24T07:28:54Z","RT @500altcoins: What’s your ETH (@ethereum) address? $ETH  Don’t ask why, just drop it below 👇",59,40
1374624220509011968,"2021-03-24T07:28:48Z","#MarsHouse designed by @krista_kim, founder of the #Techism movement, has become the first sold digital #NFThome in the world on @SuperRare for for 288 #Eth (approx. $512,000)  https://t.co/CwBdNEVU3m https://t.co/nQ308nssq9",32,9
1374624174845530114,"2021-03-24T07:28:37Z","@Safe_Childrens Nice project..! #STC #ETH #DEFI #Airdrop",0,0
1374624172417155072,"2021-03-24T07:28:36Z","@VitalikButerin @BBeardPirate Go F...yourself Blockchain theive....! Eth my A...",0,0
1374624136471969792,"2021-03-24T07:28:28Z","#Airdrop is live now Complete tasks to get an airdrop. #Airdrop worth 5000 #DEFI (~$50000 at current price)  🔹️Follow 🔹️Like, RT &amp; Tag 5 friends 🔹️Join https://t.co/cGXUyW3sNJ 🔹️Follow Like &amp; Share https://t.co/LX8VEkTyjY 🔹️Comment ETH address  #ETH #ICO #Ethereum #DeFi https://t.co/pwG9tSiJaO",926,677
1374624131635765248,"2021-03-24T07:28:26Z","Cafeswap is a yield farming and staking platform on the Binance Smart Chain, driven by a talented team and fueled by an amazing community. @CafeSwapFinance  #BinanceSmartChain #BSC #BTC #ETH #Ethereum #BNB #crypto #defi #cryptocurrency   https://t.co/a8EIzolwXT",115,49
1374624128884338688,"2021-03-24T07:28:26Z","💧Roku Network Airdrop 💧  🏆 Task:          ➕  15 ROK (~$5)  👨‍👩‍👧 Referral:   ➕  3 ROK (~$1)  🔛  Airdrop Link &amp; Information: https://t.co/YhvsOcfEbH  #cryptocurrency #Crypto #Bitcoin  #BSC #BinanceSmartChain #Ethereum #ETH #Airdrop #bounty #ROK #RokuCoin #RokuNetwork",3593,4682
1374624128838344706,"2021-03-24T07:28:26Z","Hashmask #8656 - “Centaurus” was purchased by https://t.co/q8mfri3EnQ from https://t.co/Fdvo4AG35b for 3.5555 $ETH ($6,369.43 USD) #thehashmasks #hashmasks  Character: Male Mask: Basic Eye: Dark Skin: Dark Item: Toilet Paper https://t.co/2YwujAPapP",1,0
1374624127378616324,"2021-03-24T07:28:25Z","Let's go $SFI $BTC $DOGE $ETH @elonmusk @cz_binance https://t.co/E8PUY5fBSK",0,0
1374624127198187523,"2021-03-24T07:28:25Z","The DEX @FinanceChainge is set to launch on the @FUSIONProtocol network with over a million users on the protocols waitlist. This decentralized exchange aims to innovate on traditional models through leveraging the Fusion Network.  #BSC #BTC #ETH #BNB  https://t.co/xx55YiGfm3",21105,13409
1374624124325216257,"2021-03-24T07:28:25Z","@berkokid @freshlinendaily @Wades_ETH @nbatopshot May be a good idea to examine sports card marketplace. Specific players/rookies/super rare cards end up retaining and gaining the most value.  The bigger this gets, the more that will hold true.",0,0
1374624118495182848,"2021-03-24T07:28:23Z","https://t.co/RgKPDsXHZO  Premium #Domain #ForSale @sedo   #libonomy #app #cryptocurrency #bitcoinify #app #bitcoin  #crypto #AI #MachineLearning #BigData #5G #AR #Robotics #ML #BTC #IoT #CloudComputing #futureofwork #100DaysOfCode #fintech #Blockchain #LIVE #ETH #technology #LINK https://t.co/IpKGEeDSPG",10,19
1374624111561863168,"2021-03-24T07:28:22Z","Retweet &amp; like this if you're going to buy more $BTC &amp; $BNB at dips 🔥  I'm a long term $BTC &amp; $BNB believer &amp; holder 🚀  #btc #Bitcoin #eth #BNb #binance #bsc #CryptoNews #HODL $eth $Ankr $storj $blz $theta $data $tfuel $CTSI",11,4
1374624107707400192,"2021-03-24T07:28:21Z","@beeple You sold all of your ETH? Fool man.",1,0
1374624104305754117,"2021-03-24T07:28:20Z","No need to spend your own money to trade #cryptocurrency. Over 10K users won crypto rewards on @latokens last week. It's the best way to join the financial revolution. Start by earning a share of $100K in CLIQ airdrop: https://t.co/YvFlYvfhGV #Bitcoin #ETH #Citi #AON #LATOKEN",0,0
1374624075889401857,"2021-03-24T07:28:13Z","@elonmusk Shill ETH and I buy one :)",0,0
1374624071984377863,"2021-03-24T07:28:12Z","@peer_coin @club_houses Great campaign🚀🚀  Guys join  @Nitu86753236  @MiguelC42692416  @phyrima   ETH Address : 0xdf2939706CF04497D7b5bcB4448A5F5aFc863534",0,0
1374624057862328320,"2021-03-24T07:28:09Z","#Telcoin ahead of schedule! This is a great thing to hear when you consider #V3 &amp; other updates due to come in Q2 (starting April 1). $Tel is on a rampage!   #Telfam $BTC $ETH #Bitcoin $ADA $UNI $XRP $DOT $LTC $XRP #NFT $NFT #crupto #kucoin $BNB $BTT $BAL $LINK #Binance #Kucoin https://t.co/I1ijSiagIW",56,16
1374624041173065730,"2021-03-24T07:28:05Z","@FootballPixel this is my last remaining piece on KO!   1of1  4800 x 6000  https://t.co/8Dlm9jymqk  #nft #cryptoart #cryptoartist #eth",1,0
1374624027461836807,"2021-03-24T07:28:02Z","Been screaming about this gem since the beginning for months now  $VRX is on the left, $AVAX on the right  Don't be shaken out,  5000$ incoming  🚀  Buy $VRX NOW!  Only 47.5k max supply, 60% staked! Game changing coin🔥  #bitcoin $btc $eth  $spi $chain $umx $cfi $ern $lpt $rfr https://t.co/VJheZrWKaa",2435,3576
1374624027394850817,"2021-03-24T07:28:02Z","RT @robnessofficial: BEEPLE CONVERTED HIS ETH TO USD...  I DON'T REALLY NEED TO SAY ANYMORE THAN THAT DO I? LOL.  #NFT",206,18
1374624027080151041,"2021-03-24T07:28:01Z","https://t.co/usXAzmrtPh  This NFT 1/50 giveaway in 24 hours!💥💥💥  Price 0.06 ETH =$100 !!!  🤝🤝🤝Follow me + @Watches1Crypto  👍 like  💪 retweet   🤝two friends+ comment with your ETH wallet adress. 🙏🙏🙏 I wish everyone good luck   #NFTartist #rarible #nft  #cryptoart https://t.co/aQh9S3iMc6",144,131
1374624023355617280,"2021-03-24T07:28:01Z","📌 The TokenKennel #Giveaway | Rules 📌 =   - Step 1: Like &amp; Retweet + tag 3-5 People! - Step 2: Follow @KennelToken &amp; @__Bullish__ - Step 3: Join https://t.co/1wcwTits9h - Step 4: Send Proof!   Prize = 100$ in #BTC or #ETH  06/04, we will announce the winner! 🎁",1814,2129
1374624021787082753,"2021-03-24T07:28:00Z","@The_NFT_Hub Hello, look at this amazing first drop of me and my friend on foundation https://t.co/4ihFuwACZP just 0.3 eth",0,0
1374623983363092484,"2021-03-24T07:27:51Z","- at 4:30pm EST we'll drop a link to our discord (if you're not in yet) - post a valid ETH address in the discord's #kirbonite channel - valid address = one that interacted w/ the EMN contract - we'll validate all submitted addresses - the first 110 will get the kirbonite airdrop https://t.co/RTByHc4ubZ",24,6
1374623982217953288,"2021-03-24T07:27:51Z","💧Roku Network Airdrop 💧  🏆 Task:          ➕  15 ROK (~$5)  👨‍👩‍👧 Referral:   ➕  3 ROK (~$1)  🔛  Airdrop Link &amp; Information: https://t.co/YhvsOcfEbH  #cryptocurrency #Crypto #Bitcoin  #BSC #BinanceSmartChain #Ethereum #ETH #Airdrop #bounty #ROK #RokuCoin #RokuNetwork",3593,4682
1374623969605685250,"2021-03-24T07:27:48Z","@NFTtrade this is my last remaining piece on KO!   1of1  4800 x 6000  https://t.co/8Dlm9jymqk  #nft #cryptoart #cryptoartist #eth",2,0
1374623962261491715,"2021-03-24T07:27:46Z","Congratulations, Rafaël Rozendaal on a stunning debut!    No small feat, @newrafael has been a force in the net art space for over 20 years.        His first 2 NFTs were collected by @mondoir and @3fmusic for a total of 118 $ETH (~$210,000 USD).     🟦 → https://t.co/zqfqOXD4CS https://t.co/qEHCKwbC5f",288,25
1374623951045894144,"2021-03-24T07:27:43Z","The DEX @FinanceChainge is set to launch on the @FUSIONProtocol network with over a million users on the protocols waitlist. This decentralized exchange aims to innovate on traditional models through leveraging the Fusion Network.  #BSC #BTC #ETH #BNB  https://t.co/xx55YiGfm3",21105,13409
1374623950970441729,"2021-03-24T07:27:43Z","https://t.co/usXAzmrtPh  This NFT 1/50 giveaway in 24 hours!💥💥💥  Price 0.06 ETH =$100 !!!  🤝🤝🤝Follow me + @Watches1Crypto  👍 like  💪 retweet   🤝two friends+ comment with your ETH wallet adress. 🙏🙏🙏 I wish everyone good luck   #NFTartist #rarible #nft  #cryptoart https://t.co/aQh9S3iMc6",144,131
1374623937578070016,"2021-03-24T07:27:40Z","@justinsuntron @Poloniex 10% commission discount on every transaction link #XRP #Dogecoin #doge #TRX #TRON #ElonMusk #Tesla #BNB #XLM #BTC #ETH #AVAX #link  #Chiliz #Cardano  #CHZ #XVS #XVG #EOS #SXP #LTO #reef  #LTC #CHR #XEM #AAVE #RVN #CAKE #bitfinex #KRAKEN #HOT #huobi #OKEx  https://t.co/kSeU1BEVTW",0,0
1374623931349397507,"2021-03-24T07:27:39Z","Would take allot of coding for #airnodes to leave #ETH  15 tps 🙄 and jump to something that could be 3mil TPS overtime with airnodes and @Blockstream satellite phone coms in 3rd world countries with no cell towers or get klv Satellite up for no down time ever @mishalederman",0,0
1374623928883249154,"2021-03-24T07:27:38Z","RT @DailyDogeUpdate: 🚀 $1000 to anyone who Like, Follow and Retweet 🚀  #Dogecoin #LTC $ETH",1838,1206
1374623920112947202,"2021-03-24T07:27:36Z","I want to buy some #NFTs  Shill your artwork in the comments below 🥰  RT'S, likes and follows appreciated 🦒  #nft #NFTartist #NFTCommunity #cryptoart #nfts #raffies #nfts #eth",299,68
1374623902878552070,"2021-03-24T07:27:32Z","🔄 Prices update in $USD (1 hour):  $BTC - 55209.4 $  (+2.59 %) $ETH - 1692.52 $  (+1.87 %) $DOT - 35.08 $    (+2.97 %) $ADA - 1.13 $     (+2.18 %)  #BTC #ETH #DOT #ADA #Crypto #Bitcoin",1,0
1374623897874657286,"2021-03-24T07:27:31Z","RT @DailyDogeUpdate: 🚀 $1000 to anyone who Like, Follow and Retweet 🚀  #Dogecoin #LTC $ETH",1838,1206
1374623889691660292,"2021-03-24T07:27:29Z","@volmexfinance snagglete.eth",0,0
1374623888072568833,"2021-03-24T07:27:28Z","📌 The TokenKennel #Giveaway | Rules 📌 =   - Step 1: Like &amp; Retweet + tag 3-5 People! - Step 2: Follow @KennelToken &amp; @__Bullish__ - Step 3: Join https://t.co/1wcwTits9h - Step 4: Send Proof!   Prize = 100$ in #BTC or #ETH  06/04, we will announce the winner! 🎁",1814,2129
1374623878652248065,"2021-03-24T07:27:26Z","$GVT platform provides ability to trade US stocks like $TSLA #TSLA as well but #crypto world is not aware of that fact ( almost hidden) but with #DeFi upcoming release soon all will start using the platform !  #ALTSEASON #altcoins #Bitcoin #BNB #ETH #NFT #investments $YFI $REEF https://t.co/0RsRWlNb8T",33,21
1374623876458627072,"2021-03-24T07:27:26Z","Will it finally start for $icx ? Can it hold it over the 2$ 🚀🚀.    #btc #eth #QLC #neo #ada",19,3
1374623875598671877,"2021-03-24T07:27:25Z","@BaikalBingo @Watches1Crypto ETH  wallet address: 0x0A999A0729Ec9CB4B2667  @muntingUlan  @baby_riego",0,0
1374623863779295235,"2021-03-24T07:27:23Z","Today we can buy a #Tesla with #Bitcoin, Tomorrow we can buy anything using $COTI (The NEW PAYPAL)   $btc $crv $dent $sxp $ada $btt $lsk $eos $crv $eth $reef $iost $utk $link $matic  $zil $vet $hot $npxs $tesla https://t.co/C9X0B5xWm9",7,2
1374623863611523074,"2021-03-24T07:27:23Z","@TurkElit 10% commission discount on every transaction link ⏬⬇️#Bitcoin #BTC #xrp #Ripple #DOGE #Dogecoin #ElonMusk #etherium #Crypto #hot #XLM #BNB #Binance #Dot #ONT #RVN #link #avax #ChiliZ #tesla       #unıswap #Tether #NEO #TRON #OKEx #Coinbase #Huobi https://t.co/kSeU1BEVTW",0,0
1374623861749260289,"2021-03-24T07:27:22Z","$QNT - OVN launch within next 3 months  $LUNA - ALICE reveal coming soon  $HTR - Nano Contracts &amp; NFT Support in Q2/Q3  $ZCX - Unizen launch on $LPOOL in April  $ALBT - Data Tunnel MVP Mainnet coming end of March  $MRPH - Government &amp; Enterprise adoption reveals  🔥🔥  $BTC $ETH https://t.co/ixBmYl3PY7",313,63
1374623844804128769,"2021-03-24T07:27:18Z","@unstoppableweb @opensea thereal5g.crypto (0.51 ETH) 5gfantastic.crypto (0.51 ETH) amazing5g.crypto (0.51 ETH) 5gunlimited.crypto (1 ETH) bespokeinsurance.crypto (1.1 ETH) bespokeinteriors.crypto (1.1 ETH) bespokeinteriordesign.crypto (1.1 ETH)",0,0
1374623828576514049,"2021-03-24T07:27:14Z","$GVT platform provides ability to trade US stocks like $TSLA #TSLA as well but #crypto world is not aware of that fact ( almost hidden) but with #DeFi upcoming release soon all will start using the platform !  #ALTSEASON #altcoins #Bitcoin #BNB #ETH #NFT #investments $YFI $REEF https://t.co/0RsRWlNb8T",33,21
1374623805075775491,"2021-03-24T07:27:09Z","$GVT platform provides ability to trade US stocks like $TSLA #TSLA as well but #crypto world is not aware of that fact ( almost hidden) but with #DeFi upcoming release soon all will start using the platform !  #ALTSEASON #altcoins #Bitcoin #BNB #ETH #NFT #investments $YFI $REEF https://t.co/0RsRWlNb8T",33,21
1374623803494522880,"2021-03-24T07:27:08Z","https://t.co/usXAzmrtPh  This NFT 1/50 giveaway in 24 hours!💥💥💥  Price 0.06 ETH =$100 !!!  🤝🤝🤝Follow me + @Watches1Crypto  👍 like  💪 retweet   🤝two friends+ comment with your ETH wallet adress. 🙏🙏🙏 I wish everyone good luck   #NFTartist #rarible #nft  #cryptoart https://t.co/aQh9S3iMc6",144,131
