"ID","created_at","text","like_count","rt_count"
1377780313821089795,"2021-04-02T00:29:59Z","RT @intocryptoverse: Can't wait to see the major influencers begin to back-peddle on their $ETH FUD",1285,77
1377780310558056448,"2021-04-02T00:29:58Z","If #BTC breaks $69,420 in APRIL 2021 I’ll give a random person my R8  Super SIMPLE: Like ✔️ RT ✔️ Follow ✔️ @JBTheCryptoKing  Drop eth addy ✔️ https://t.co/0ZTkU9CUuI",7875,3934
1377780308494348292,"2021-04-02T00:29:58Z","Spend $cws, earn NFT  The NFT brawl game by @seascapenetwork and comes with #paywave - an incentive for $cws holders  #seascape #Binance #eth #DeFi #CTBot Adrop RAM 1.5 trx 50 https://t.co/SKummkzomo",48,54
1377780306351161346,"2021-04-02T00:29:57Z","If #BTC breaks $69,420 in APRIL 2021 I’ll give a random person my R8  Super SIMPLE: Like ✔️ RT ✔️ Follow ✔️ @JBTheCryptoKing  Drop eth addy ✔️ https://t.co/0ZTkU9CUuI",7875,3934
1377780300957184002,"2021-04-02T00:29:56Z","omg towards the middle of this 'etherium is brokan ser' call full of maxi brainlets they start devouring one another lmaooooooooooooooooooooooooooooooooooooooooo",5,0
1377780290043584514,"2021-04-02T00:29:53Z","#NFT GIVEAWAY TIME.  We need to show the pink planets some love 💕🪐  Choose a planet from the pink planet pack: https://t.co/Celd4Gy2W9 and we'll give away ALL FOUR FOR FREE (gas included) worth 0.4 ETH / $740.  To enter simply follow, like, and retweet!  #NFTArt #FourInThePink https://t.co/YSCNoXAt6x",219,158
1377780286621155332,"2021-04-02T00:29:52Z","Mark Cuban on his cryptocurrency portfolio: 'I own a lot of Ethereum because I think it's the closest to a true currency' #ethereum #ETH  https://t.co/g5wwtFI8Kh",0,0
1377780278794543105,"2021-04-02T00:29:51Z","$ETH            vs         $2,000     ( •_•)                          (•_• )     ( ง )ง                          ୧( ୧ )    /︶\                              /︶\",12645,1704
1377780277141938178,"2021-04-02T00:29:50Z","If #BTC breaks $69,420 in APRIL 2021 I’ll give a random person my R8  Super SIMPLE: Like ✔️ RT ✔️ Follow ✔️ @JBTheCryptoKing  Drop eth addy ✔️ https://t.co/0ZTkU9CUuI",7875,3934
1377780273232945155,"2021-04-02T00:29:49Z","Since 7 pm $MARO (chtL) has surged 43.86% and $ARMOR 18.25% (chtR). Crypto markets finished the day in green. 2100NEWS DA Indexes ended between +0.52% and +5.13% (NWSMi500). Bitcoin ended +0.11%, Ether ended +2.26%. https://t.co/ODNK8Mo5J9 $BTC $ETH #crypto #cryptotrading https://t.co/KyskDFjhVc",0,1
1377780272624717837,"2021-04-02T00:29:49Z","U know! The gem $ETH is destroying the brains people https://t.co/xE46lpdOsA",12,0
1377780263506358275,"2021-04-02T00:29:47Z","$KSM has a 10 million token supply   5mil is locked in staking, 5mil available for projects &amp; public  30-40 Parachains expected on $KSM this year   There’s just not enough $KSM available for all..   DYK, @gavofyork was a genius businessman before he joined #eth ?  🤫 IYKYK 🤫🚀",370,67
1377780253507076096,"2021-04-02T00:29:45Z","🔴 Swapped $201K in #ETH for #USDT on #Uniswap 🦄  🐟 ($30.5K) #0xDdF439 https://t.co/gJexkBf5Bu",0,0
1377780241460948999,"2021-04-02T00:29:42Z","Aircoins has officially conducted its first monthly Token Melt! A multi chain burn 1b burned on each chain. That is 10% of the total supply worth roughly 1M usd! #eth #BSC https://t.co/MsSpqDYXZN",106,39
1377780238936072195,"2021-04-02T00:29:41Z","RT @ArtUnkown: Good art needs good food. #NFT #NFTCommunity #nftart #nftcollector #food #ETH https://t.co/NFSXmZgCe5",6,2
1377780214101512193,"2021-04-02T00:29:35Z","If #BTC breaks $69,420 in APRIL 2021 I’ll give a random person my R8  Super SIMPLE: Like ✔️ RT ✔️ Follow ✔️ @JBTheCryptoKing  Drop eth addy ✔️ https://t.co/0ZTkU9CUuI",7875,3934
1377780202990788612,"2021-04-02T00:29:32Z","Spend $cws, earn NFT  The NFT brawl game by @seascapenetwork and comes with #paywave - an incentive for $cws holders  #seascape #Binance #eth #DeFi #CTBot Adrop RAM 1.5 trx 50 https://t.co/SKummkzomo",48,54
1377780202277900296,"2021-04-02T00:29:32Z","30 day EVIX: 89.0874 ETH/USD vwap: $1,953.20 04/30 expiry volume: $7,665,929.52 05/28 expiry volume: $6,950,596.58 Current time: 00:29:09",0,0
1377780181327208448,"2021-04-02T00:29:27Z","RT @TheCryptoBomber: $EDDA SUPER RARE NFT just sold for 6.5 $ETH 🚀  AND IM GIVING AWAY AN $EDDA NFT!   CHECK MY TWITTER!",255,233
1377780178110214145,"2021-04-02T00:29:27Z","@DE_BOTHA A couple of photo stories from me currently on sale. Very rare, highly collectible, and a great investment.   https://t.co/smZZt1EYVS  https://t.co/GyiBu09XsF   #nft #nftphotography #nftcollector #eth #nftart #NFTCommunity #NFTartist #Cryptoart #NTFs #crypto",2,0
1377780177527173120,"2021-04-02T00:29:26Z","If #BTC breaks $69,420 in APRIL 2021 I’ll give a random person my R8  Super SIMPLE: Like ✔️ RT ✔️ Follow ✔️ @JBTheCryptoKing  Drop eth addy ✔️ https://t.co/0ZTkU9CUuI",7875,3934
1377780173525893121,"2021-04-02T00:29:25Z","If #BTC breaks $69,420 in APRIL 2021 I’ll give a random person my R8  Super SIMPLE: Like ✔️ RT ✔️ Follow ✔️ @JBTheCryptoKing  Drop eth addy ✔️ https://t.co/0ZTkU9CUuI",7875,3934
1377780173517414400,"2021-04-02T00:29:25Z","New GIVEAWAY ! #Okcash $ok $BTC #ETH  “20” WINNERS 5 OK EACH. Valid until the next giveaway.  RULES:  1. Like and Retweet 2. Follow 3. Tag 3 friends 4. Post your Okcash address in answer to this tweet #Bitcoin  #Giveaway #cryptocurrency #Crypto #Sharing #EXCHANGE https://t.co/H15ZfOGevn",28,26
1377780167519526913,"2021-04-02T00:29:24Z","RT @ShardiB2: 27 minutes until equity markets close and bankers go home for the weekend.....  THEN, our time begins...👿  $ETH",701,29
1377780146795655168,"2021-04-02T00:29:19Z","The real alpha is going to be to chart alts again $ETH in april. You want to outperform ETH, not BTC, as ETH is looking very good. $XRP usdt pair reclaim of 0.5 fib with 12H hidden bull div on OBV and a large ascending triangle. ETH pair 4H with bull div on the 200MA. Nice👀 https://t.co/tPOuu2k3Bx https://t.co/sDQx57A95S",5,0
1377780139203964929,"2021-04-02T00:29:17Z","New GIVEAWAY ! #Okcash $ok $BTC #ETH  “20” WINNERS 5 OK EACH. Valid until the next giveaway.  RULES:  1. Like and Retweet 2. Follow 3. Tag 3 friends 4. Post your Okcash address in answer to this tweet #Bitcoin  #Giveaway #cryptocurrency #Crypto #Sharing #EXCHANGE https://t.co/H15ZfOGevn",28,26
1377780139065495553,"2021-04-02T00:29:17Z","@SquawkCNBC Former SEC chief Joseph Grundfest at one point believed #BTC was a security. But Notice how Clayton volunteered that #Bitcoin  was decided not to be a security “before my time at the SEC”.  Sounds like Clayton is being a bit defensive. What about #ETH?",268,44
1377780134132871168,"2021-04-02T00:29:16Z","🟩 $BASE Will Moon So Hard 💎  Base Protocol will soon be doing a “Power Week” where they drop news every day.  👉 Hold a bag before it begin 😏 📈 My Target: Minimum 20x 🚀🌙  ___________________________ @cctip_com airdrop 0.01 ETH 99999 https://t.co/WPBJ9ZZp9k",155,213
1377780132711067650,"2021-04-02T00:29:16Z","@zxch_o @Dudesignals Why the hell are u using eth?",0,0
1377780126516011009,"2021-04-02T00:29:14Z","🟩 FastSwap 2.0 SOON ‼️  This Gem 💎 is just $1.5m Mcap 😏 I expect it to easily pump back to ATH and beyond 🤑  🚫 #1inch Mcap: $671m ✅ $FAST mcap: $1.5m 👉 447x For $FAST to be worth the same !!!📈 ___________________________ @cctip_com airdrop 0.01 ETH 99999 #FastSwap $eth https://t.co/07Sv6hAAIG",154,122
1377780117313744899,"2021-04-02T00:29:12Z","If #BTC breaks $69,420 in APRIL 2021 I’ll give a random person my R8  Super SIMPLE: Like ✔️ RT ✔️ Follow ✔️ @JBTheCryptoKing  Drop eth addy ✔️ https://t.co/0ZTkU9CUuI",7875,3934
1377780113203412992,"2021-04-02T00:29:11Z","Me watching #ETH go crazy while I wait for @jack to brand #Ethereum #hashtag https://t.co/h2mIakbJ1L",0,0
1377780105322369028,"2021-04-02T00:29:09Z","Only a dream and eth feels soo real....🎶🎵",1,1
1377780103397183489,"2021-04-02T00:29:09Z","* Daily 24HR ETH Derivatives Volume *  Call volume: $80,265,153.99 Put volume: $114,372,425.47 Futures volume: $356,088,125.10",0,0
1377780095851622404,"2021-04-02T00:29:07Z","! DROP YOUR $ETH ADDRESS BELOW, like, retweet and tag 2 friends to enter ETH &amp; limited edition #nft #Giveaway 🍔 https://t.co/LnKs0dJ6hw  #Ethereum #ether #BNB    #ALTSEASON #bitcoin  #NFTs #cryptoart #cryptoartist #collectible #rarible #digitalart #nftcollector #Crypto #vet #eth",60,66
1377780092819144704,"2021-04-02T00:29:06Z","New GIVEAWAY ! #Okcash $ok $BTC #ETH  “20” WINNERS 5 OK EACH. Valid until the next giveaway.  RULES:  1. Like and Retweet 2. Follow 3. Tag 3 friends 4. Post your Okcash address in answer to this tweet #Bitcoin  #Giveaway #cryptocurrency #Crypto #Sharing #EXCHANGE https://t.co/H15ZfOGevn",28,26
1377780090986201092,"2021-04-02T00:29:06Z","Get added to B ONE PAYMENT WALLET  📩Send a direct Message at Twitter/MAIL  We can offer:  📌Dedicated Profile for each asset at our website 📌Direct buy and sale via #Uniswap Exchange 📌Secure locally stored assets  #airdrop #eth #defi #crypto  @cctip_io draw 600 DOGE 600 #doge https://t.co/aM4HOhWn00",113,64
1377780089501278210,"2021-04-02T00:29:05Z","If $ORN doesnt hit $33USD in April ill randomly give one of my followers 1 ETH.. hit that follow at this rate youre pick rate is around 10% #33WasMyMiddleSchoolBasketballNumber #Represent",12,1
1377780083931418631,"2021-04-02T00:29:04Z","Dodo #12 released, Blue Tit colours #dodos #rspb #birds #opensea @opensea #NFTCommunity #Nfts #Nft #crypto #eth #cryptopunks #NFTcollectibles #NFTartist #nftart https://t.co/MJeTWbAXXJ",3,1
1377780071138795529,"2021-04-02T00:29:01Z","$NCASH .00000398   Keeping On Up ticking slowly to Pennies  #Defi #ETH #Crypto",1,0
1377780069725171714,"2021-04-02T00:29:01Z","Post photos. Make money. Maintain ownership.  Join the  Relica  revolution and experience an exciting new photo sharing platform built on #Bitcoin where you generate income from your content. https://t.co/PXuopmZiic  #Relica #BSV #Bitcoin #Photos  @cctip_com draw 0.00069 ETH 150",52,88
1377780053258420224,"2021-04-02T00:28:57Z","📣 calling all #ETH DEVS‼️  Yo!! Hit me up in my DMs.  I have some questions about costs, your limitations, and what's possible in general.  .. if anyone else sees this and knows some #DEVS then please retweet or @ them or wtvr.  Thx  #Ethereum $eth #dev #developer #DeveloperJobs",7,4
1377780030055456770,"2021-04-02T00:28:51Z","124 confirmations on #ETH transaction, transaction visible on “activity” screen, but not showing on “asset” screen in @MetaMask . Any ideas? Network? It’s been about 25 minutes...",0,0
1377780028478517249,"2021-04-02T00:28:51Z","Everybody raves about $ETH &amp; $DOT but forget about what $AVAX are doing.  With #blockchain set to undergo a multi-year bull market then why not back a project that is planning months &amp; years ahead themselves?  Bullish on @avalancheavax   Actions are more powerful than words. https://t.co/O0mLf157lK",19,7
1377780022048526339,"2021-04-02T00:28:49Z","RT @CaptvArt: I have 1000000000 ETH to spend on NFTs",407,29
1377780012523290626,"2021-04-02T00:28:47Z","@BullShining 4c or are you talking eth ? :)",0,0
1377780008672882695,"2021-04-02T00:28:46Z","New GIVEAWAY ! #Okcash $ok $BTC #ETH  “20” WINNERS 5 OK EACH. Valid until the next giveaway.  RULES:  1. Like and Retweet 2. Follow 3. Tag 3 friends 4. Post your Okcash address in answer to this tweet #Bitcoin  #Giveaway #cryptocurrency #Crypto #Sharing #EXCHANGE https://t.co/H15ZfOGevn",28,26
1377780002968596481,"2021-04-02T00:28:45Z","Our 1st Retweet Competition #Winner has been randomly selected! Congratulations, @frankfurtCity20! You have won $100 in #ETH. This tweet begins (and counts towards) the next day of the retweet competition. Winners will be selected daily until April 27th. https://t.co/EeZPT5MrJx",76,69
1377779991316926474,"2021-04-02T00:28:42Z","New GIVEAWAY ! #Okcash $ok $BTC #ETH  “20” WINNERS 5 OK EACH. Valid until the next giveaway.  RULES:  1. Like and Retweet 2. Follow 3. Tag 3 friends 4. Post your Okcash address in answer to this tweet #Bitcoin  #Giveaway #cryptocurrency #Crypto #Sharing #EXCHANGE https://t.co/H15ZfOGevn",28,26
1377779986401214467,"2021-04-02T00:28:41Z","RT @jackbutcher: Reply🪙 &amp; RT to scratch.  (Winner will need an ETH wallet) https://t.co/A47BDcJpVd",651,836
1377779976020373507,"2021-04-02T00:28:38Z","China is crazy for Filecoin, with a 24h increase of more than 30%, reaching a maximum of $236. The 24h trading volume of FIL in Huobi, China's largest exchange, reached $24.2b, nearly three times the volume of the second ETH $8.8b, Bitcoin was $7.8b. https://t.co/LbKlTkfBqt",56,29
1377779968596271106,"2021-04-02T00:28:37Z","🔥 Hathor Swap - First no-gas DEX to fix $ETH issues  🔥 Hathor Virtual Debit Card - Easy way to spend $HTR  🔥 Hathor WooCommerce Checkout - Cheaper than Stripe.. Settle in seconds  🔥 Hathor Chrome Extension - Go-to extension to build on $HTR  $BTC $ADA $DOT @htrfdt https://t.co/JOzsZxG5fT",395,127
1377779957934419968,"2021-04-02T00:28:34Z","if I lose this next auction I'm exchanging all my eth again for tez and going on an @hicetnunc2000 spree  🙆‍♂️",6,0
1377779945267597314,"2021-04-02T00:28:31Z","@Daniel_Plain_V @zxch_o @Dudesignals Legit been compounding my $ice on $ftm every .25 I'm gaining, it's like .002ish which.. is like .00088 cents at today's ftm price. Leaving my eth bags alone, this is the way!",6,2
1377779940960051201,"2021-04-02T00:28:30Z","@digartcollector A couple of photo stories from me currently on sale. Very rare, highly collectible, and a great investment.   https://t.co/smZZt1EYVS  https://t.co/GyiBu09XsF   #nft #nftphotography #nftcollector #eth #nftart #NFTCommunity #NFTartist #Cryptoart #NTFs #crypto",2,0
1377779939521388552,"2021-04-02T00:28:30Z","New GIVEAWAY ! #Okcash $ok $BTC #ETH  “20” WINNERS 5 OK EACH. Valid until the next giveaway.  RULES:  1. Like and Retweet 2. Follow 3. Tag 3 friends 4. Post your Okcash address in answer to this tweet #Bitcoin  #Giveaway #cryptocurrency #Crypto #Sharing #EXCHANGE https://t.co/H15ZfOGevn",28,26
1377779938489606146,"2021-04-02T00:28:29Z","HAWT. With my partnership with @illuviumio I can give away 100 HOLOGRAPHIC Scoot Scarabok NFTs.  Similar ones have gone for 5 eth to 50 eth.  How to get -Post your ETH address + BATTLE SCOOT! below -Retweet/tag a friend -Follow @illuviumio and join their discord in bio https://t.co/xcCVVW6KdR",2755,2661
1377779936551821313,"2021-04-02T00:28:29Z","#Bitcoin pi cycle to converge first week of April. New ATH, and #altseason followed by a significant market correction. $Eth $Doge",2,1
1377779932504412163,"2021-04-02T00:28:28Z","Am I doing this right? #Bitcoin #nxs #zrx #eth #FIL #ZEC .... Or do I need 50 inch screens for each lol https://t.co/zKPWnO6M7G",1,1
1377779932093374470,"2021-04-02T00:28:28Z","@Blockparty Where exactly does harmony come into play on this? I had to buy with cash because I didn't want to pay etherium gas fees. Will I be able to switch these to the harmony mainnet in the future?",0,0
1377779918465953794,"2021-04-02T00:28:25Z","Target 4012-4013 (eth lows) for 7.5R",1,0
1377779913424433154,"2021-04-02T00:28:23Z","@KryptoQuiet @CredibleCrypto When I read the 2.5k behind eth I assumed you were talking USD. Now I realize I made a mistake. My bad, and he'll yea for you",1,0
1377779912946429954,"2021-04-02T00:28:23Z","RT @JBTheCryptoKing: Shill me your #1 BAG...I’m buying $50k of a shitcoin tonight 💯!!!  #btc #eth #bnb #crypto #alts",460,59
1377779909876195329,"2021-04-02T00:28:23Z","😎TRIBUTE DROP!! @crypto_karens😎  Roo #790 has hopped onto the #ETH #Blockchain &amp; is now minted via @OpenSea.   Price:  Ξ0.25  Total Supply: 888  https://t.co/yvY5AG79ay  #tribute #nftcollectors #NFT #pixelart #NFTcommunity #NFTart https://t.co/WtvkblIGts",17,5
1377779892696190976,"2021-04-02T00:28:18Z","@CryptoNewsYes @BitboyCryplto Yeah well, he was adamant that eth was going to hit $2500 by Valentine's Day. If you're still waiting for those roses to show up you might be doubtful of this prediction.",1,0
1377779886429982723,"2021-04-02T00:28:17Z","#ETH DeFi Statistics via @defipulse  🔒 Locked in DeFi: $44,240,354,867  💸 Value lent: $21,129,009,451  🦄 Pooled funds: $17,432,804,415  📈 Derivatives: $2,761,875,973  📦 Assets: $2,916,665,028",0,0
1377779879412867073,"2021-04-02T00:28:15Z","Which is nuts. The only people that are bears are ourselves hating on other chains. ETH folks are short BTC. BTC folks are short ETH. ALTs are short ETH/BTC.  Everyone else thinks were all crazy and rich. https://t.co/XAI58N2SpG",1,0
1377779869535309824,"2021-04-02T00:28:13Z","1/ Let's try this thought experiment with Maker so only @nomos_paradox attacks me 😅. Also, while I designed a lot of Oracles v2, some things may be different now.  Ready?  @MakerDAO ETH/USD oracle starts reporting price is .000000000000000001 😱 https://t.co/CaD81RtjRE",85,31
1377779865240358915,"2021-04-02T00:28:12Z","steve ☻ @yungjake   Emoji portrait of an icon who needs no introduction.   Reserve price: 3 $ETH (~$5,900 USD)  → https://t.co/Wb1kdQUIhI https://t.co/XqFCAOvGsi",339,37
1377779863218626560,"2021-04-02T00:28:11Z","#Ethereum making the most important breakout of the year 👀  Break $1960 and we finally start price discovery after months of slow grind.   I’m watching the daily close and buying a big bag on the break.   $ETH https://t.co/iqxUtIlznZ",74,13
1377779862870454275,"2021-04-02T00:28:11Z","@KennethBosak A couple of photo stories from me currently on sale. Very rare, highly collectible, and a great investment.   https://t.co/smZZt1EYVS  https://t.co/GyiBu09XsF   #nft #nftphotography #nftcollector #eth #nftart #NFTCommunity #NFTartist #Cryptoart #NTFs #crypto",1,0
1377779858550448132,"2021-04-02T00:28:10Z","ETH needs to go up and be stuck lol",0,0
1377779857959100419,"2021-04-02T00:28:10Z","DCT TOKEN Airdrop Medium Star Claim 1 DCT ($ 100) + 0.045 DCT ($ 10) for each referral you make.   Steps  💎  Join channel and group  💎  Follow twitter, like and retweet pinned message   💎  Submit eth wallet address (ERC-20) Participate now Airdrop link: https://t.co/L24stp8tVI https://t.co/CVYQyLAWwU",8623,8871
1377779847532056583,"2021-04-02T00:28:08Z","@nebraskangooner A project for the people @Conste11ation $DAG = #FAMILY #SECURITY #FinancialFreedom   $LTX $DOT $UNI $XRP $BTC $ETH $DOGE $EOS $IOTA $ADA $REEF $ZEC $TRX $LINK $COTI $OCEAN $BNB $ZCX $DASH $XLM $TEL $RUNE $OCTO $QNT $MTV $BAX $NAX $LYM $CAKE $TRTL $SUSHI $hbar $lcx $rsr $HOT $zil https://t.co/0M76DL1wh1",2,0
1377779842767290370,"2021-04-02T00:28:07Z","RT @OliWhiteTV: Sometimes all you need to do is zoom out on a chart. 😎🚀#Bitcoin $BTC $ETH $LINK $DOT $KSM https://t.co/VWwx0Cca4E",45,6
1377779838442999811,"2021-04-02T00:28:06Z","🚨Stay tuned for our second historic event🚨 1 of 2 GOD MODE created CHUBBIES. Sales over 74 ETH include #7001. The evil twin!  Dutch Auction starting price 99.99Ξ -&gt; 50Ξ. Expire in 94 Hours @ 11PM EST/8PM PST April 2nd.  https://t.co/BLnQ7kQpOp",60,16
1377779836085706752,"2021-04-02T00:28:05Z","@anotheraltguy @ChrisTonev @ecomi_ Read again. LONG TERM HODL. This year $BTC will get to 3-9 Trillion MC $ETH will get to 1-5 Trillion. I can wait an extra 2-5 years to sell $OMI @ 1.66. Again it’s delflationary so market cap may only need to be 100 Billion possibly less. Only time which I have will tell. 💪🏽💙✊🏽",4,0
1377779816137596928,"2021-04-02T00:28:00Z","My current crypto sentiment..  Sell $LINK BUY $STORJ Don't Buy $ELE Hold $RFI BUY $eRSDL BUY $DIP Hold $ETH Hold $BTC Hold $amp Don't Buy $aave",11,3
1377779811616129024,"2021-04-02T00:27:59Z","Join our #Giveaway and win $100 in $ETH by retweeting this post which requires:  - Screenshot of your $ETH (BEP20) QR Code address - Hashtag $BSCX $ETH #swapX #launchzone   SwapX has very small price slippage and super low fee compared to other AMMs #BSC #giveaway https://t.co/xCZCiBX9Jq",815,647
1377779806864031751,"2021-04-02T00:27:58Z","@LifeOptimised @PeterSchiff @SchiffGold Some people are. I for example bought a lot when it was at $1,200. Sold half at $2,000, and kept the rest. Of course I also bought BTC at $7k last year. Sold my initial investment and kept the rest. I prefer ETH as it has an actual use.",0,0
1377779803043074049,"2021-04-02T00:27:57Z","🔄 Prices update in $USDT (1 hour):  $BTC - 58867.59 $      (+0.12 %) $ETH - 1921.0 $        (-0.05 %) $DOT - 37.11 $         (+4.02 %) $ADA - 1.19 $          (+0.08 %)  #BTC #ETH #DOT #ADA #Crypto #Bitcoin",0,1
1377779799683334145,"2021-04-02T00:27:56Z","💧Twinci Airdrop 💧  🏆 Task:          ➕ $15 worth of  TRX                              ➕ $50 worth of TWIN  🔛 Airdrop Link &amp; Information: https://t.co/aV7t49dRDX  #cryptocurrency #Crypto #Bitcoin #Ethereum #ETH #Twinci #TWIN",1336,1777
1377779798341115907,"2021-04-02T00:27:56Z","@asiahodl damnn.. you are so good sist.. how about Eip1559? Many thought its gonna be a game changer for ETH.",0,0
1377779791919779840,"2021-04-02T00:27:54Z","🔥@Modefi_official staking is off to an amazing start in less than 24 hours! 🔥  $2,437,776 TVL $400,000 in liquidity on @AnyswapNetwork ✅ 10x liquidity ✅ Over 10% of circulating supply is now locked up in staking ✅🚀  #Defi #Oracle #ETH #MOD $MOD $SWAP",217,73
1377779790573264897,"2021-04-02T00:27:54Z","All my homies getting guac on their burritos tonight $ETH https://t.co/2DXZQqLCOY",1,0
1377779775180316674,"2021-04-02T00:27:50Z","Cliq DAO Airdrop Officially Launched Fill this Form https://t.co/AFdBErdRVn to Get 500 CLQ Tokens Worth $50 USD  Don't Miss this chance  Token Distribution April 2021 Month End. #BSC $BNB $ETH $BTC  #Bitcoin #BinanceSmartChain #BNB #cryptocurrency #crypto #NFTs #Airdrops #Airdrop https://t.co/8whsgLzhEl",530,426
1377779772680331267,"2021-04-02T00:27:50Z","@davidgokhshtein LINK, LTC, ETH  Thank you for asking.",0,0
1377779760961617921,"2021-04-02T00:27:47Z","$ETH  Looking to bid $1880 - $1870 if offered",0,0
1377779745866227713,"2021-04-02T00:27:43Z","Whos grabbing one of the final 64 CBuds #NFT Tokens before they are all gone?! https://t.co/JIjMEEVoC2 - hurry while gas is super low!!   Like and RT to win a free CBUD!  #nftcomunity #cryptopunks #eth",24,15
1377779743039352832,"2021-04-02T00:27:43Z","If #BTC breaks $69,420 in APRIL 2021 I’ll give a random person my R8  Super SIMPLE: Like ✔️ RT ✔️ Follow ✔️ @JBTheCryptoKing  Drop eth addy ✔️ https://t.co/0ZTkU9CUuI",7875,3934
1377779741328031749,"2021-04-02T00:27:42Z","RT @yachtmaster8989: $API3 on tiktok! Sorry if you still not on board you will miss the next x100 for 2021!  #tiktok #crypto $bnb $eth  htt…",7,4
1377779731408519174,"2021-04-02T00:27:40Z","@AdvThinking @LifeMathMoney @CodingLanguages Mine cryptocurrency for free on you mobile device click the link below 👇👇👇..... To start earning, USE CODE: ElJefe560 https://t.co/fomrY63kFm   #btc #bitcoin #PiNetwork #crypto #ETH #cryptocurrency #blockchain",0,0
1377779719307935749,"2021-04-02T00:27:37Z","RT @intocryptoverse: $ETH's response: https://t.co/oK8mBxF280",1396,146
1377779716766232581,"2021-04-02T00:27:37Z","$ETH            vs         $2,000     ( •_•)                          (•_• )     ( ง )ง                          ୧( ୧ )    /︶\                              /︶\",12645,1704
1377779712823599104,"2021-04-02T00:27:36Z","Bought 3 $PMON boosters about 10hrs. ago. One finally opened! And it is very cool! My main gripes with it right now are due to $ETH network issues and not $PMON. The gas fees are too high to be appealing to kids or normal people IMO, and the lag time to open 1 of 3 was long!",2,0
1377779706066534405,"2021-04-02T00:27:34Z","Mark Cuban on his cryptocurrency portfolio: I own a lot of #ethereum because I think its the closest to a true currency #Bitcoin #Cryptocurrency #MarkCuban #Entrepreneurship $ETH https://t.co/WFzWjiLOmc https://t.co/df9wpDNF6o",7,3
1377779678480502784,"2021-04-02T00:27:27Z","Mark Cuban on his cryptocurrency portfolio: 'I own a lot of Ethereum' $ETH  https://t.co/Y6avI6x9nX",0,0
1377779677280997379,"2021-04-02T00:27:27Z","RT @NFTsShoutout: I have 1 ETH to giveaway to enter just RT this and follow me. I’ll pick one of you tomorrow.",614,749
1377779676278575106,"2021-04-02T00:27:27Z","$egld looking to move.  Staking is finally  here on #maiar   Dont miss out on passive income.  #BTC  #dogearmy $eth $bnb $orn $one $nu $ada $xlm $xrp  #NFTs coming soon too!! Way cheaper then the current #eth network https://t.co/2JYlwPIxTo  Check it out yourself #NFTCommunity",0,0
1377779671442546688,"2021-04-02T00:27:26Z","Here are the 2 things that will save you. 1) Buy crypto (specifically $ETH and $ATOM)  2) Move to Asia ASAP!  #Crypto https://t.co/QGf997MQhX",4,0
