"ID","created_at","text","like_count","rt_count"
1374684913547501571,"2021-03-24T11:29:58Z","-- #Ethereum UPDATE --  HTF based on count and volume 🔹looks like $ETH completed wave 3 of 3  🔹Now in the wave 4 correction  LTF (macro wave 4) 🔹Working on the wave 3 of the C wave 🔹Expecting further downside to meet support at just below 1.5k  Play Safu, keep it super green! https://t.co/J1pKXwFb58",26,4
1374684909504057349,"2021-03-24T11:29:57Z","Are you looking for a project to profit from ?  $PUX  is for you 💯  Great time to Buy $PUX because  it has less now!  Buy and HOLD. Enjoy the profits! Awesome project.   @polypuXapp #ETH #DeFi https://t.co/yNPdOV8uaY",33,37
1374684908430364674,"2021-03-24T11:29:57Z","Since @dypfinance staking dApp was released, Liquidity Providers have been earning #Ethereum Rewards and so far everyone has earned $10.9 Million dollars in total.  That is 5,781.41 #ETH and paying every 24hrs.  #DeFi #Uniswap #DeFiYieldProtocol https://t.co/F2wumBJM21",1764,1867
1374684907281190916,"2021-03-24T11:29:56Z","@NFTs_Group @IvyKn  @yuyu_0330_ @Li70510868  thank you NFTs Group My ETH address:0x59c8EBb8AD2a06C8F93AC5f75D6509cdC90adC03",0,0
1374684897453826050,"2021-03-24T11:29:54Z","RT @BitAliens: What's your ETH address?  Don't ask why, just drop it below and RT 😉👽  https://t.co/htrPiAQfY2",144,143
1374684894165659648,"2021-03-24T11:29:53Z","$DYP liquidity providers earned 6,401.87 #Ethereum worth $10,769,945 since launch!  Earn up to 303.11% APY 💰  If you want to start earning #ETH you just need to join one of our liquidity pools: DYP-ETH, DYP-WBTC, DYP-USDC, and DYP-USDT https://t.co/zxyI0V2tnr  #DeFi #uniswap https://t.co/G1k8VLAekB",430,380
1374684885470769158,"2021-03-24T11:29:51Z","Are you looking for a project to profit from ?  $PUX  is for you 💯  Great time to Buy $PUX because  it has less now!  Buy and HOLD. Enjoy the profits! Awesome project.   @polypuXapp #ETH #DeFi https://t.co/yNPdOV8uaY",33,37
1374684885374410756,"2021-03-24T11:29:51Z","I'https://t.co/9lv9qhcUo5 away a million. Drop you wallet address below. Like, Follow, retweet.  Chainlink #Chainlink $Link #bitcoin btc #btc #eth $eth $eth #usdt $usdt #ada $ada #cardano #bnb $bnb #crypto #blockchain",634,438
1374684884527120388,"2021-03-24T11:29:51Z","💥 New Listing @ShareRingGlobal💥  #SHR trading has been launched on https://t.co/8kWqgDWNXb😎  🕘 Time: Mar.24, 2021 8:00 UTC  ▶️ Trade: https://t.co/UnMcRNroX2 ⏩ Details: https://t.co/wHKyoJfqOt  #BTC #ETH #DeFi #Crypto #Altseason2021 https://t.co/Joc2nuqPPA",286,81
1374684883621142535,"2021-03-24T11:29:51Z","💧Roku Network Airdrop 💧  🏆 Task:          ➕  15 ROK (~$5)  👨‍👩‍👧 Referral:   ➕  3 ROK (~$1)  🔛  Airdrop Link &amp; Information: https://t.co/YhvsOcfEbH  #cryptocurrency #Crypto #Bitcoin  #BSC #BinanceSmartChain #Ethereum #ETH #Airdrop #bounty #ROK #RokuCoin #RokuNetwork",3593,4682
1374684881360461826,"2021-03-24T11:29:50Z","#Sponsored  😍The #DeFi Yield Protocol is developing a unique platform: Anyone can provide #liquidity &amp; be rewarded for the first time with #Ethereum  🤑6,366.95 #ETH worth $10,869,776.32 paid to the #liquidityproviders since launch  Check https://t.co/ftVaR00xr3 for details!! https://t.co/BvE29pWtpX",487,388
1374684879531646977,"2021-03-24T11:29:50Z","$DYP liquidity providers earned 5,970.84 #ethereum worth $10,700,060 since launch!  Join one of their liquidity pools and earn up to 295.02% APY 💰  #defi #uniswap #eth https://t.co/lKbf20w2sm",1784,1875
1374684877560352770,"2021-03-24T11:29:49Z","Current Gas Fee Per Transaction  $GO  $0.001💎 vs $ETH $100.00💩  #GoChain can handle 100X the Volume of #Ethereum you won’t have to raise the Gas price very often (if ever). So most days, GoChain Gas fees will only be a fraction of a penny. Switch to GO   https://t.co/LLrjT46zyL",85,35
1374684877338120193,"2021-03-24T11:29:49Z","@NFTs_Group @elonmusk @CoinDesk @binance   My eth wallet address:  0x617B1B780103e7a2A32d081cD78E3185792030c6  Thanks for the opportunity",0,0
1374684868626419714,"2021-03-24T11:29:47Z","In the recent market dump, ETH has shed almost $41 billion from its all time high to the current price of $1,682.  $EDDA has only shed around $6 million from its all time high to the current price of $4,455.  Which do you think will recover and hit an ATH faster?   Hint: $EDDA 🥷",241,218
1374684867858939905,"2021-03-24T11:29:47Z","RT @antiprosynth: ETH/BTC is dying https://t.co/5Xc9C1jyUb",330,46
1374684855414317059,"2021-03-24T11:29:44Z","Recently, a JPMorgan executive told the IMF and central bankers that, there is a rick you will be made obsolete  #Bitcoin #ETH",0,0
1374684850108649483,"2021-03-24T11:29:43Z","What a beautiful morning 🌎🚀🌓  #BTC #Litecoin $LTC #Ethereum #ETH #BCH #ElonTusk #Technoking https://t.co/LYnumsJG5v",0,0
1374684847847841798,"2021-03-24T11:29:42Z","Are you looking for a project to profit from ?  $PUX  is for you 💯  Great time to Buy $PUX because  it has less now!  Buy and HOLD. Enjoy the profits! Awesome project.   @polypuXapp #ETH #DeFi https://t.co/yNPdOV8uaY",33,37
1374684844769284098,"2021-03-24T11:29:42Z","💰What’s your #ETH wallet address?  🚀Don’t ask why, just drop it below👇  🚀Like、Retweet &amp; Tag ALL U CAN  🚀 USDT-NFTs has been listed on Uniswap！  🚀 The contract address: 0x6599fc3e77cbfa6f6e9cac605a30b1e78827eba0  #NFTs #NFT #AIRDROP #UNISWAP https://t.co/H29ZBOR0aL",1380,1178
1374684842579918849,"2021-03-24T11:29:41Z","🔥We have started random global airdrop of 100,000 NFTs to single wallet ETH address 🚀 USDT-NFTs is listed on Uniswap  🚀 The contract address: 0x6599fc3e77cbfa6f6e9cac605a30b1e78827eba0  💰 Holding more NFTs makes you richer  🚀Like、Retweet &amp; Tag 3 friends  #NFTs #NFT #AIRDROP https://t.co/1tf4LcEX3C",1086,943
1374684841711521799,"2021-03-24T11:29:41Z","📌 The TokenKennel #Giveaway | Rules 📌 =   - Step 1: Like &amp; Retweet + tag 3-5 People! - Step 2: Follow @KennelToken &amp; @__Bullish__ - Step 3: Join https://t.co/1wcwTits9h - Step 4: Send Proof!   Prize = 100$ in #BTC or #ETH  06/04, we will announce the winner! 🎁",1814,2129
1374684836322029573,"2021-03-24T11:29:40Z","Who wants to be a millionaire?  Join the Crypto Venture Today! https://t.co/qeIRxi9LVo  #investing #entrepreneur #cryptonews #invest #business #eth #bitcointrading #forextrader #litecoin #bitcoincash #trader #bitcoinprice #investor #forextrading  #crypto #bitcoin #cryptocurrency https://t.co/ctZd1T9d49",2,4
1374684835403423745,"2021-03-24T11:29:39Z","✅With @fastswapdex set to announce the launch of the liquidity aggregator and BSC implementation in coming days after a successful bridge to both ETH and BSC,it is safe to say a pump is definitely bound to happen.🤑🤑  ✅Still more to come in Q/2.🤯 $FAST 🚀🚀",22,7
1374684829510369281,"2021-03-24T11:29:38Z","I'https://t.co/9lv9qhcUo5 away a million. Drop you wallet address below. Like, Follow, retweet.  Chainlink #Chainlink $Link #bitcoin btc #btc #eth $eth $eth #usdt $usdt #ada $ada #cardano #bnb $bnb #crypto #blockchain",634,438
1374684825060249612,"2021-03-24T11:29:37Z","🔥 We are thrilled to announce $DYP listing on @kucoincom !  🔷 DYP/USDT &amp; DYP/ETH trading will start tomorrow, March 25th at 10AM UTC!  🔸 Stay tuned: More News and Activities TBA!  ✅ More News at: https://t.co/7xB73Xen1N https://t.co/uQ3Q5sPpq3",564,461
1374684824938508294,"2021-03-24T11:29:37Z","Great news! @dypfinance team currently running tests on Kovan Test Network for the DYP Earn Vault!  ⭐Some features of $DYP Earn Vault: ~Support #ETH, WBTC, USDC, USDT, DAI ~5 different lockup durations ~Fixed APY for each pool  e.t.c  The DYP Earn Vault should be launched soon🥳 https://t.co/XyOBxjujIp",307,302
1374684816277397506,"2021-03-24T11:29:35Z","💡 BUY EXPER: https://t.co/zujmCvzFLZ  How to buy EXPER TOKEN? 1. Register and Login to https://t.co/uAOFvgdpPx 2. ICO Buy 3. Select ETH or BNB  #binance #bitcoin #bnb #ethereum https://t.co/WJseK9CRZE",124,86
1374684814650003457,"2021-03-24T11:29:34Z","Show me your craziest/weirdest/boldest #NFT   When I reach 1K followers I’ll buy one of two if it’s below 0.3 ETH🤍  #nftart #nftcollector #ETH",139,20
1374684805623783424,"2021-03-24T11:29:32Z","Since this the launch of @dypfinance back in Dec 2020 looks like Liquidity Providers have earned $11.4 Million dollars in $ETH just from Staking!  Also the project is paying out is $ETH as well and so far 6.2K $ETH have been rewarded.   #DeFi #Crypto #Cryptocurrency #BitcoinTalk https://t.co/zis10XPcL7",1784,1888
1374684802708692992,"2021-03-24T11:29:32Z","Humans of the Cryptosphere! #uniswap V3 will soon decimate your feeble coins just as our #5G towers have decimated your immune systems! Secure your place in the New World Order.   Buy $RPTC and #JoinTheHorde TODAY.   https://t.co/2HL1NvInlX  #btc #nft #NWO #reptilians #ETH https://t.co/q8No4igILh",17,11
1374684789580599298,"2021-03-24T11:29:28Z","📌 The TokenKennel #Giveaway | Rules 📌 =   - Step 1: Like &amp; Retweet + tag 3-5 People! - Step 2: Follow @KennelToken &amp; @__Bullish__ - Step 3: Join https://t.co/1wcwTits9h - Step 4: Send Proof!   Prize = 100$ in #BTC or #ETH  06/04, we will announce the winner! 🎁",1814,2129
1374684782903357441,"2021-03-24T11:29:27Z","💡  BUY EXPER: https://t.co/zujmCvzFLZ  How to buy EXPER TOKEN? 1. Register and Login to https://t.co/uAOFvgdpPx 2. ICO Buy 3. Select ETH or BNB  #binance  #bitcoin  #bnb  #ethereum https://t.co/JsWpL5iLSY",83,59
1374684779044499459,"2021-03-24T11:29:26Z","Great news! @dypfinance team currently running tests on Kovan Test Network for the DYP Earn Vault!  ⭐Some features of $DYP Earn Vault: ~Support #ETH, WBTC, USDC, USDT, DAI ~5 different lockup durations ~Fixed APY for each pool  e.t.c  The DYP Earn Vault should be launched soon🥳 https://t.co/XyOBxjujIp",307,302
1374684777660383232,"2021-03-24T11:29:26Z","Morning! Didn't have A bid tonight but i did get a little heart attack from a random foundation mail. Still for sale a retweet costs nothing, it could change a life 💓💓💓 https://t.co/yHEUK7LfkR .15 eth #NFTCommunity  #nftcollectors #nftart #NFTartist  #NFTdrop #NFTcollection",9,5
1374684771809394691,"2021-03-24T11:29:24Z","The good thing about @dypfinance Anti-Manipulation system is that it prevents the Liquidity providers to Sell $DYP instead they are earning $ETH as staking rewards 🧠  #DYP #ETH #Ethereum #SmartContract #DeFi https://t.co/yt6C9Vehln",1895,1969
1374684770777624581,"2021-03-24T11:29:24Z","@nftorb 🚨 Gas fees got your BLOOD BOILING?🚨 Can't buy that #nft when gas costs more than the cute little kitty? Use ur HULK OUT GAS CARD! 1200x1680 #huge 22.9mb ONLY .0️⃣5️⃣ $eth 6 of 6 03/24/21 https://t.co/8pVXNtSdnl #nonfungible #nonfungibletokens #ethereum #eth  #rarible @rariblecom https://t.co/i4oGEMRbB0",0,0
1374684769825521665,"2021-03-24T11:29:24Z","Hey #NFTCommunity I'm going to pull the trigger on some fresh #nftart !  Not a fan of cute little #pixelart so drop your darkest stuff below and maybe retweet you might get noticed by another collector 🤷!  0.5 eth Price limit sorry  #NFT #nftcollector #NFTartists #nftanything",16,5
1374684768537776128,"2021-03-24T11:29:23Z","Good news: We just have our first successful test confirmed. Here is the transaction tx: https://t.co/u9Y75qRv7M  I successful swap eth for 100 1inch token from fastswap liquidity aggregator. Let prepare for launch and do the final finishing. This is amazing",53,20
1374684760409210884,"2021-03-24T11:29:21Z","6th #GIVEAWAY : Tester Opportunity &amp; #NFT  Looking for another 50 Testers using  #Uniswap #Sushiswap #Pancakeswap #Autofarm #Venus  to join new DeFi product testing &amp; get NFT!   1. RT &amp; Follow  2. Comment your BSC address 3. Join https://t.co/pap2QqUzA8  #Defi #BSC #ETH #Airdrop https://t.co/FPEMjr9YZk",190,195
1374684760342200322,"2021-03-24T11:29:21Z","Lots of questions.   YES as a holder of bBadger/bDIGG you are earning yield that’s autocompounding into your vault position on ETH. No matter what you do with it.  To realize those gains you need to bring those assets to the app, change network to ETH &amp; convert to Badger or DIGG. https://t.co/aOd3Uc0ByX",49,6
1374684757221646336,"2021-03-24T11:29:21Z","New interesting #Token #Gem found on #ETH #BlockChain Klondike Finance v2 $klonx Swap it on @UniSwap https://t.co/v8BkaREFDX",2,1
1374684755241938947,"2021-03-24T11:29:20Z","@shy22007 EOSIO will take over ETH and be the next big thing. To the moon with EOS",0,0
1374684754918969345,"2021-03-24T11:29:20Z","TRASH $ETH UPDATE: LOAD ZE DUMP!!! DUMP IT AND DELIST IT!!! P.S: I HATE $ETH JUST BECAUSE IT HAS NO BALLS !!! :))) https://t.co/17vxZxJjTJ https://t.co/SVVOhYgBrv",26,0
1374684754214219781,"2021-03-24T11:29:20Z","Hi I've created my own collections on [Opensea] So it would be a HUGE pleasure to me that if you come and see my very First NFT Art. retweet pls :) Available on https://t.co/ibFSbhUbMy #nft #nfts #nftart #nftarts #keii #nftcollector #opensea #etherium #NFTCommunity",40,35
1374684754017013760,"2021-03-24T11:29:20Z","🔥 WoW!!! $DYP getting listed on @kucoincom !  DYP/USDT &amp; DYP/ETH trading will start tomorrow, March 25th at 10AM UTC! Good job @dypfinance team!  #DeFi #uniswap #Ethereum https://t.co/Rw9qa5l5tA",2211,2334
1374684753400635394,"2021-03-24T11:29:20Z","@ashwsbreal $KIN for the win Grab urself the next 10x bagger -@RaydiumProtocol listing &amp; staking -token on 50k TPS @Solana chain -TRX fees only 0.000005 $SOL -SEC case settled = not a security! Alongside $BTC &amp; $ETH -dozens of real apps &amp; mn MAU Sleeping giant! We like the crypto :) #KinArmy",0,0
1374684749315334149,"2021-03-24T11:29:19Z","RT @volmexfinance: What’s your ETH address?  Don’t ask why, just drop it below 👇",4854,1656
1374684745305530373,"2021-03-24T11:29:18Z","Whats up #NFT peeps!  I want to giveaway one of my favoirite piece. Collector or artist - it doesnt matter  FUTUR 0.5 eth https://t.co/tK2NGos82d  rules: 1. Follow me on twitter 2. Like and retweet this post 3. Drop your ETH wallet in comments  48 hours  #nftcollector #NFTartist https://t.co/rrnP810r8C",80,43
1374684739991433216,"2021-03-24T11:29:17Z","Since this the launch of @dypfinance back in Dec 2020 looks like Liquidity Providers have earned $11.4 Million dollars in $ETH just from Staking!  Also the project is paying out is $ETH as well and so far 6.2K $ETH have been rewarded.   #DeFi #Crypto #Cryptocurrency #BitcoinTalk https://t.co/zis10XPcL7",1784,1888
1374684731590156297,"2021-03-24T11:29:15Z","🌿 The STRAINZ #Giveaway | Rules 🌿 =   - Step 1: Like &amp; Retweet + tag 3-5 People! - Step 2: Follow @StrainZ_NFT  - Step 3: Join: https://t.co/MRZdJREL0N - Step 4: Like &amp; RT quoted tweet! - Step 5: Send Proof!   Prize = 100$ in #BTC or #ETH  Winner announced at 01/04 🎁 https://t.co/I0m7gDDbg7",1437,1675
1374684726695399431,"2021-03-24T11:29:13Z","Are you looking for a project to profit from ?  $PUX  is for you 💯  Great time to Buy $PUX because  it has less now!  Buy and HOLD. Enjoy the profits! Awesome project.   @polypuXapp #ETH #DeFi https://t.co/yNPdOV8uaY",33,37
1374684723792936962,"2021-03-24T11:29:13Z","I'll send $500 in #ETH or #BTC to one person who retweets this and follows @bud_crypto. Must complete these tasks:  1 - Like/RT his pinned tweet  2 - Must RETWEET &amp; LIKE 4 of his tweets  Ends in 72 hours!",1402,1861
1374684717887467523,"2021-03-24T11:29:11Z","New interesting #Token #Gem found on #ETH #BlockChain A2DAO $atd Swap it on @UniSwap https://t.co/rT2x8inAXu",0,0
1374684712686428160,"2021-03-24T11:29:10Z","Great news! @dypfinance team currently running tests on Kovan Test Network for the DYP Earn Vault!  ⭐Some features of $DYP Earn Vault: ~Support #ETH, WBTC, USDC, USDT, DAI ~5 different lockup durations ~Fixed APY for each pool  e.t.c  The DYP Earn Vault should be launched soon🥳 https://t.co/XyOBxjujIp",307,302
1374684707506454537,"2021-03-24T11:29:09Z","💰What’s your #ETH wallet address?  🚀Don’t ask why, just drop it below👇  🚀Like、Retweet &amp; Tag ALL U CAN  🚀 USDT-NFTs has been listed on Uniswap！  🚀 The contract address: 0x6599fc3e77cbfa6f6e9cac605a30b1e78827eba0  #NFTs #NFT #AIRDROP #UNISWAP https://t.co/H29ZBOR0aL",1380,1178
1374684704855650304,"2021-03-24T11:29:08Z","I'll send $500 in #ETH or #BTC to one person who retweets this and follows @bud_crypto. Must complete these tasks:  1 - Like/RT his pinned tweet  2 - Must RETWEET &amp; LIKE 4 of his tweets  Ends in 72 hours!",1402,1861
1374684703953928198,"2021-03-24T11:29:08Z","RT @graphlinq_proto: Follow our roadmap &amp; progress in real time: https://t.co/78hpUQNEk5  #graphlinq #DeFi #glqroadmap #blockchain #crypto…",62,19
1374684699121963008,"2021-03-24T11:29:07Z","💧Roku Network Airdrop 💧  🏆 Task:          ➕  15 ROK (~$5)  👨‍👩‍👧 Referral:   ➕  3 ROK (~$1)  🔛  Airdrop Link &amp; Information: https://t.co/YhvsOcfEbH  #cryptocurrency #Crypto #Bitcoin  #BSC #BinanceSmartChain #Ethereum #ETH #Airdrop #bounty #ROK #RokuCoin #RokuNetwork",3593,4682
1374684698648121344,"2021-03-24T11:29:07Z","I'https://t.co/9lv9qhcUo5 away a million. Drop you wallet address below. Like, Follow, retweet.  Chainlink #Chainlink $Link #bitcoin btc #btc #eth $eth $eth #usdt $usdt #ada $ada #cardano #bnb $bnb #crypto #blockchain",634,438
1374684697956089864,"2021-03-24T11:29:07Z","🔥 WoW!!! $DYP getting listed on @kucoincom !  DYP/USDT &amp; DYP/ETH trading will start tomorrow, March 25th at 10AM UTC! Good job @dypfinance team!  #DeFi #uniswap #Ethereum https://t.co/Rw9qa5l5tA",2211,2334
1374684696739729412,"2021-03-24T11:29:06Z","RT @antiprosynth: ETH/BTC is dying https://t.co/5Xc9C1jyUb",330,46
1374684691933057024,"2021-03-24T11:29:05Z","@cz_binance $KIN for the win Grab urself the next 10x bagger -@RaydiumProtocol listing &amp; staking -token on 50k TPS @Solana chain -TRX fees only 0.000005 $SOL -SEC case settled = not a security! Alongside $BTC &amp; $ETH -dozens of real apps &amp; mn MAU Sleeping giant! We like the crypto :) #KinArmy",4,0
1374684690590875650,"2021-03-24T11:29:05Z","Ladies and gentlemen, brace yourselves for another amazing #bullrun this week. Lots of news coming out. Exciting new week. Watch out for the ones below and #RETWEEET if you're #HODLing. Have fun! #Bitcoin #ETH #holochain #Litecoin #uniswap #Chiliz #ADAcardano #onecoin",10,2
1374684689819049988,"2021-03-24T11:29:05Z","Hey I've created my own collections on [Opensea] So it would be a HUGE pleasure to me that if you come and see my very First NFT Art. retweet pls :)  Available on https://t.co/7Y9boVJF35  #nft #nfts #nftart #nftarts #keii #nftcollector #opensea #etherium #NFTCommunity",18,16
1374684686153302018,"2021-03-24T11:29:04Z","I'https://t.co/9lv9qhcUo5 away a million. Drop you wallet address below. Like, Follow, retweet.  Chainlink #Chainlink $Link #bitcoin btc #btc #eth $eth $eth #usdt $usdt #ada $ada #cardano #bnb $bnb #crypto #blockchain",634,438
1374684680386060288,"2021-03-24T11:29:02Z","💧Roku Network Airdrop 💧  🏆 Task:          ➕  15 ROK (~$5)  👨‍👩‍👧 Referral:   ➕  3 ROK (~$1)  🔛  Airdrop Link &amp; Information: https://t.co/YhvsOcfEbH  #cryptocurrency #Crypto #Bitcoin  #BSC #BinanceSmartChain #Ethereum #ETH #Airdrop #bounty #ROK #RokuCoin #RokuNetwork",3593,4682
1374684675571130368,"2021-03-24T11:29:01Z","💡Sold 70%. Hurry up...  BUY EXPER: https://t.co/zujmCvzFLZ  How to buy EXPER TOKEN? 1. Register and Login to https://t.co/uAOFvgdpPx 2. ICO Buy 3. Select ETH or BNB  #binance  #bitcoin  #bnb  #ethereum https://t.co/2WK5g3icvU",115,84
1374684670038794244,"2021-03-24T11:29:00Z","New NFT, In memories of Covid-19 0.2 ETH Invest your money in nft;  #NFT #nftart #NFTartists #NFTCommunity #NFTshare #NFTCommuty  #cryptoart #nonfungible #nonfungibletokens #ArtistOnTwitter #artwork #digitalart #digitalasset #DigitalArtist https://t.co/q0JwrA8vWP",8,1
1374684639965614084,"2021-03-24T11:28:53Z","@binance @CoinDesk @elonmusk   My eth wallet address:  0x617B1B780103e7a2A32d081cD78E3185792030c6  Thanks for remembering me https://t.co/Pt67VQLrxQ",0,0
1374684639940476931,"2021-03-24T11:28:53Z","@neverhodl @backpacker_btc @udiWertheimer @austerity_sucks @beeple Tax, he already has to pay tax for selling his art. If eth drops in price he still owes the tax on 100k. If he then converted to btc he would have to pay tax on 100k twice",0,0
1374684638438907905,"2021-03-24T11:28:52Z","RT @reggaeology: Beeple Immediately Converted His $53 Million NFT Earnings From ETH to USD #SmartNews  https://t.co/aZk3IdiyXZ",1,2
1374684632973729798,"2021-03-24T11:28:51Z","RT @volmexfinance: What’s your ETH address?  Don’t ask why, just drop it below 👇",4854,1656
1374684628485820423,"2021-03-24T11:28:50Z","I'll send $500 in #ETH or #BTC to one person who retweets this and follows @bud_crypto. Must complete these tasks:  1 - Like/RT his pinned tweet  2 - Must RETWEET &amp; LIKE 4 of his tweets  Ends in 72 hours!",1402,1861
1374684626543804417,"2021-03-24T11:28:50Z","📺Just in case anyone missed this piece of cryptoyoutube history 😱😉@ethbox_official got featured on @boxmining channel  ♥️Thank you so much for the appreciative and interesting interview!  LIKE,COMMENT &amp; SPREADTHEWORD $EBOX #ETH #BTC 🤫btw: also check out our #BSC Testnet Beta https://t.co/WKjJEDiuCJ",101,72
1374684624044064773,"2021-03-24T11:28:49Z","@LowIQPoor @pleyuh He actually probably did, ETH was flirting with 2k at the time and if he sold the bottom a couple days ago, 69M would indeed only be mid-50M cuckbucks... will be funny when ETH goes stratospheric when L2 is live...",0,0
1374684623553273863,"2021-03-24T11:28:49Z","$DYP liquidity providers earned 6,401.87 #Ethereum worth $10,769,945 since launch!  Earn up to 303.11% APY 💰  If you want to start earning #ETH you just need to join one of our liquidity pools: DYP-ETH, DYP-WBTC, DYP-USDC, and DYP-USDT https://t.co/zxyI0V2tnr  #DeFi #uniswap https://t.co/G1k8VLAekB",430,380
1374684621259046914,"2021-03-24T11:28:48Z","@ZacKomur @elonmusk I bought two cribs in a choice location (each worth $170k) during the lockdown paid in Eth.  2wks ago, I sold one for $312k.   I absolutely understand you @ZacKomur. Futuristic asset to buying liability (bad investment). But spare cash is meant to be spent tho. 😁",1,0
1374684601340268549,"2021-03-24T11:28:44Z","🎊Total Value Locked(TVL) in #TRON #DeFi Exceeded $6.2 Billion.  🚀As of 20:30, Feb 21, 2021(HKT), the total value locked in #JustStable, #JustLend, #JustSwap, #JustBTC/ETH/LTC, Total #TRX Frozen, SR Total Votes already exceeded $6.2 Billion.  🙌Thanks to all the users. https://t.co/8e49guWnSk",1912,1066
1374684599167512579,"2021-03-24T11:28:43Z","I'https://t.co/9lv9qhcUo5 away a million. Drop you wallet address below. Like, Follow, retweet.  Chainlink #Chainlink $Link #bitcoin btc #btc #eth $eth $eth #usdt $usdt #ada $ada #cardano #bnb $bnb #crypto #blockchain",634,438
1374684598307725312,"2021-03-24T11:28:43Z","🔥 We are thrilled to announce $DYP listing on @kucoincom !  🔷 DYP/USDT &amp; DYP/ETH trading will start tomorrow, March 25th at 10AM UTC!  🔸 Stay tuned: More News and Activities TBA!  ✅ More News at: https://t.co/7xB73Xen1N https://t.co/uQ3Q5sPpq3",564,461
1374684593366822914,"2021-03-24T11:28:42Z","Are you looking for a project to profit from ?  $PUX  is for you 💯  Great time to Buy $PUX because  it has less now!  Buy and HOLD. Enjoy the profits! Awesome project.   @polypuXapp #ETH #DeFi https://t.co/yNPdOV8uaY",33,37
1374684593052217347,"2021-03-24T11:28:42Z","The good thing about @dypfinance Anti-Manipulation system is that it prevents the Liquidity providers to Sell $DYP instead they are earning $ETH as staking rewards 🧠  #DYP #ETH #Ethereum #SmartContract #DeFi https://t.co/yt6C9Vehln",1895,1969
1374684583971672067,"2021-03-24T11:28:39Z","RT @BitAliens: What's your ETH address?  Don't ask why, just drop it below and RT 😉👽  https://t.co/htrPiAQfY2",144,143
1374684583246102528,"2021-03-24T11:28:39Z","@QavyArt Germs are taking over the world. Bacteria, viruses, fungi, and parasites have spread everywhere!  Will we be able to save the world?  Get yours while it lasts - only 0.01 ETH  https://t.co/xMvcIhDJBP",6,1
1374684575255859201,"2021-03-24T11:28:37Z","Since this the launch of @dypfinance back in Dec 2020 looks like Liquidity Providers have earned $11.4 Million dollars in $ETH just from Staking!  Also the project is paying out is $ETH as well and so far 6.2K $ETH have been rewarded.   #DeFi #Crypto #Cryptocurrency #BitcoinTalk https://t.co/zis10XPcL7",1784,1888
1374684573078933507,"2021-03-24T11:28:37Z","#Sponsored  😍The #DeFi Yield Protocol is developing a unique platform: Anyone can provide #liquidity &amp; be rewarded for the first time with #Ethereum  🤑6,366.95 #ETH worth $10,869,776.32 paid to the #liquidityproviders since launch  Check https://t.co/ftVaR00xr3 for details!! https://t.co/BvE29pWtpX",487,388
1374684554275983360,"2021-03-24T11:28:32Z","Just swapped a few $ftm for $BOMB .....stupidly small fees and the speed of the transaction compared to eth was mid blowing https://t.co/bOXTbi4aUN",3,1
1374684551134388225,"2021-03-24T11:28:32Z","🔥 WoW!!! $DYP getting listed on @kucoincom !  DYP/USDT &amp; DYP/ETH trading will start tomorrow, March 25th at 10AM UTC! Good job @dypfinance team!  #DeFi #uniswap #Ethereum https://t.co/Rw9qa5l5tA",2211,2334
1374684547468562436,"2021-03-24T11:28:31Z","This month @dypfinance have announce their new features to help DeFi projects and looks like other DeFi project can Lock Liquidity using $DYP Tools. 👀  Also you will be able so see Whale Transactions in the DeFi Space with the Big Swap Explorer. 🔥  #DeFi #DYP #BSC #ETH #BNB https://t.co/NiIwaIvRhb",1556,1638
1374684546831065100,"2021-03-24T11:28:31Z","In the recent market dump, ETH has shed almost $41 billion from its all time high to the current price of $1,682.  $EDDA has only shed around $6 million from its all time high to the current price of $4,455.  Which do you think will recover and hit an ATH faster?   Hint: $EDDA 🥷",241,218
1374684533375700995,"2021-03-24T11:28:27Z","Are you looking for a project to profit from ?  $PUX  is for you 💯  Great time to Buy $PUX because  it has less now!  Buy and HOLD. Enjoy the profits! Awesome project.   @polypuXapp #ETH #DeFi https://t.co/yNPdOV8uaY",33,37
1374684532876582913,"2021-03-24T11:28:27Z","Why we are bullish on @ZKSwapOfficial $Zks low fee trading high speed layer 2 dex! #zkrollups #DeFi #NFTs #altcoin #blockchain #BSC #Bitcoin $btc $eth $bnb  https://t.co/dij94887T8",16,6
1374684532314542084,"2021-03-24T11:28:27Z","Since @dypfinance staking dApp was released, Liquidity Providers have been earning #Ethereum Rewards and so far everyone has earned $10.9 Million dollars in total.  That is 5,781.41 #ETH and paying every 24hrs.  #DeFi #Uniswap #DeFiYieldProtocol https://t.co/F2wumBJM21",1764,1867
1374684531060469765,"2021-03-24T11:28:27Z","The DEX @FinanceChainge is set to launch on the @FUSIONProtocol network with over a million users on the protocols waitlist. This decentralized exchange aims to innovate on traditional models through leveraging the Fusion Network.  #BSC #BTC #ETH #BNB  https://t.co/xx55YiGfm3",21105,13409
1374684526174035975,"2021-03-24T11:28:26Z","-- #Ethereum UPDATE --  HTF based on count and volume 🔹looks like $ETH completed wave 3 of 3  🔹Now in the wave 4 correction  LTF (macro wave 4) 🔹Working on the wave 3 of the C wave 🔹Expecting further downside to meet support at just below 1.5k  Play Safu, keep it super green! https://t.co/J1pKXwFb58",26,4
1374684511892475905,"2021-03-24T11:28:22Z","🔥 WoW!!! $DYP getting listed on @kucoincom !  DYP/USDT &amp; DYP/ETH trading will start tomorrow, March 25th at 10AM UTC! Good job @dypfinance team!  #DeFi #uniswap #Ethereum https://t.co/Rw9qa5l5tA",2211,2334
1374684500316274693,"2021-03-24T11:28:19Z","Have fun staying poor  $ETH $AVAX $WAN $LINK $UNI https://t.co/vCA6dbzmd1",0,0
1374684499540209669,"2021-03-24T11:28:19Z","$DYP liquidity providers earned 5,970.84 #ethereum worth $10,700,060 since launch!  Join one of their liquidity pools and earn up to 295.02% APY 💰  #defi #uniswap #eth https://t.co/lKbf20w2sm",1784,1875
1374684496965042178,"2021-03-24T11:28:19Z","#Ethereum 2.0 has ~ 3.5 million $ETH staked in the Bacon Chain. That makes it 3% of the circulating supply. So the Ethereum community gives the update a 3% chance of success. In contrast #Cardano $ADA has over 70% staked. This shows HIGH confidence by the community! https://t.co/O8zoT1At1n",119,22
