"ID","created_at","text","like_count","rt_count"
1375001994239254531,"2021-03-25T08:29:56Z","WARNING🚨   MASSIVE airdrop 🔥   $QDAO is a true💎since 2019, by famous team, just 10 MILLION CAP  1. Go now to Twitter @QDefi  or telegram https://t.co/x0vuSIVfV9   2. Get your free tokens  3. HODL this gem until 10x-20x  (soon - launch cross-chain tool for BSC, DOT and ETH) https://t.co/S3sdpsYnUu",1023,0
1375001974425464834,"2021-03-25T08:29:51Z","I just joined the martkist faucet, an easy way to earn $Martk #Martkist #socialmedia #Faucet $eth $btc $Sushi $xrp $om $tomo $yam $ocean $coti #Binance #Bitcoin https://t.co/pi2CikBRWL",0,0
1375001973276221440,"2021-03-25T08:29:51Z","@airdrop_y @dodo_tokens Sooooper project we wish go to the mooooon with best wishes   Eth address  0xEF787F1eebCbB7406e929489425CcBBff485FC09",0,0
1375001945946066949,"2021-03-25T08:29:44Z","ETH down like 15% in the last week...good time to buy crypto art if you're putting in new fiat. I am seeing offers on artwork unch'd in ETH terms = cheaper in $$. 👍🏼",15,0
1375001941768466434,"2021-03-25T08:29:43Z","💧Roku Network Airdrop 💧  🏆 Task:          ➕  15 ROK (~$5)  👨‍👩‍👧 Referral:   ➕  3 ROK (~$1)  🔛  Airdrop Link &amp; Information: https://t.co/YhvsOcfEbH  #cryptocurrency #Crypto #Bitcoin  #BSC #BinanceSmartChain #Ethereum #ETH #Airdrop #bounty #ROK #RokuCoin #RokuNetwork",3813,0
1375001935212871680,"2021-03-25T08:29:42Z","Join Here and earn your passive income Crypto with staking,vault etc. https://t.co/DoOnJ4FodL  #BinanceSmartChain #BSC  #btc #ETH #Binance #cz_binance  @cz_binance @JackMa",4,0
1375001930791968770,"2021-03-25T08:29:41Z","The DEX @FinanceChainge is set to launch on the @FUSIONProtocol network with over a million users on the protocols waitlist. This decentralized exchange aims to innovate on traditional models through leveraging the Fusion Network.  #BSC #BTC #ETH #BNB  https://t.co/xx55YiGfm3",21660,0
1375001927956619268,"2021-03-25T08:29:40Z","The Pickers family now counts over 25k players🎉  To celebrate this milestone, we are giving away $50 of ETH and 3 exclusive #NFTs  How to join? ► Follow @CryptoPickHQ ► Like &amp; Retweet ► Tag 2 friends ► Comment your CryptoPick username below  🎁8 winners -⌛️Ends in 48H https://t.co/ItWwew1yv2",283,0
1375001918754279430,"2021-03-25T08:29:38Z","🔸 New Listing🔸   #BKEX will list #DRYCAKE @DryCakeSwap🚀 🚀  - Trading pair: DRYCAKE/USDT - Trading time: 20:00 on Mar 29 (UTC+8)  🔹 🔹 More details: https://t.co/kC2IIebfTT  #Bitcoin #ETH #BKK #Blockchain https://t.co/w8CHyKXaUD",2480,0
1375001916640358404,"2021-03-25T08:29:37Z","KLAYswap is now on the @CoinMarketCap DEX list as #10!   We're the 10th Largest DEX by volume in the whole #DeFi world.   Come and find high APY pools!  $ETH, $WBTC, $USDT, $DAI, $KLAY, $ORC, $KSP https://t.co/PEOJM2FutL",27,0
1375001911502413830,"2021-03-25T08:29:36Z","WARNING🚨   MASSIVE airdrop 🔥   $QDAO is a true💎since 2019, by famous team, just 10 MILLION CAP  1. Go now to Twitter @QDefi  or telegram https://t.co/x0vuSIVfV9   2. Get your free tokens  3. HODL this gem until 10x-20x  (soon - launch cross-chain tool for BSC, DOT and ETH) https://t.co/S3sdpsYnUu",1023,0
1375001908323225600,"2021-03-25T08:29:35Z","#LuaSwap weekly report has made a new appearance showing how $LUA's ongoing.  🌾New $LUA listings: https://t.co/nfNb0wzWwB; #DappBirds 🌾$LUA's total trading volume on exchanges surpassed $3 million. 🌾Top pools with highest APYs on #ETH with 136.99% APY on $TOMOE/ $USDC 🔥 https://t.co/CpXqqSb6xS",139,0
1375001890455363587,"2021-03-25T08:29:31Z","RT @CashNCrypto: $150 to one person in 48hrs  Rt &amp; follow me + @domscrypto &amp; @boar_eth",2067,0
1375001886173114368,"2021-03-25T08:29:30Z","@VIDT_Datalink @binance $vidt the big new player on #nft area. Soon proof of authencity and proof of originality will be the hottest #Crypto stuff and vidt will be the main solution worldwide  $btc #Binance $chz $theta $eth https://t.co/WTBjdwDmoh",25,0
1375001883987767296,"2021-03-25T08:29:30Z","Insane APY!  Insane Tokenomics!  NO inflation!  #DeFi #yieldfarming #BNB #BinanceSmartChain #Binance $auto $cake $bake $eth $dot #BSC https://t.co/u0dqOXpcaG",18,140
1375001881123115008,"2021-03-25T08:29:29Z","It's not impossible for anything anymore!  #dogecoin #chainlink $doge $ZIL $LTC $XRP $EOS $ADA $XLM $TRX $DOT $ATOM $BNB $VET $ONT $GRT $UNI  $NEO #btc #eth #ltc #chainlink  #Ethereum #bitcoin $BTC $ETH #litecoin #link #doge #coin #money #atom #crypto #Coinbase #Binance #FTX https://t.co/jY795HpAVh",2,0
1375001877063024641,"2021-03-25T08:29:28Z","30 day EVIX: 105.1901 ETH/USD vwap: $1,591.29 04/16 expiry volume: $530,303.22 04/30 expiry volume: $6,416,831.29 Current time: 08:29:05",0,0
1375001876677058567,"2021-03-25T08:29:28Z","RT @scottmelker: Nothing like flushing $ETH down the toilet on a failed swap, right?",2135,0
1375001861015625733,"2021-03-25T08:29:24Z","#BTC #Bitcoin #Crypto #Ethereum #ETH #Coinbase #Binance  Would you like to have more charts like this?  Would you like to have this chart daily? Smash the like button and follow!! https://t.co/a6151Te74h",0,0
1375001859723825155,"2021-03-25T08:29:24Z","Big Bird #023 has hatched 🐣  Price: .015 ETH  https://t.co/Lw9F3NAssr  #nft #nfts #nftart #crypto #cryptoart #nftcommunity",4,0
1375001843152093185,"2021-03-25T08:29:20Z","$kick #kick looks like a great investment.  #kicktoken M.cap : $4,3M  https://t.co/G7CB5XiqBD   #Bitcoin #cyrpto $xrp #BTC $eth $hot $link $doge $chz $trx $xlm $bnb $nft $ltc $defi $xvg $comp $twt $uni $defi $bat $sushi $ren $enj $grt $lrc $bal $mana $btt #Ethereum #uniswap $usdt https://t.co/nS8JTisKIs",16,3
1375001826139852801,"2021-03-25T08:29:16Z","$RVN looks ready for another leg up, perfect entry  right now if you're not already in 💵  Expecting this coin to do a 2-3 easily in the near future 🔥🚀  ---  #crypto $btc $eth $ltc $neo $link $kava $ftm $mft $chr $coti $one $jst $omg $aave $algo $ankr $arpa $atom $zil $chz $enj https://t.co/30JGSr3sIF",48,3
1375001816052604928,"2021-03-25T08:29:13Z","Alway in love 2021 collection by @sabet on @KnownOrigin_io  https://t.co/5MxCGW23Gk  Created by @sabet  #KOllections #cryptoart #NFT #cryptoartist #ETH  @WhaleShark_Pro @whale_community @niftynaut @JonnyB_NFT @catchNFTdrops https://t.co/O6GUDuHBiU",59,3
1375001810516148224,"2021-03-25T08:29:12Z","WARNING🚨   MASSIVE airdrop 🔥   $QDAO is a true💎since 2019, by famous team, just 10 MILLION CAP  1. Go now to Twitter @QDefi  or telegram https://t.co/x0vuSIVfV9   2. Get your free tokens  3. HODL this gem until 10x-20x  (soon - launch cross-chain tool for BSC, DOT and ETH) https://t.co/S3sdpsYnUu",1023,3
1375001804534996998,"2021-03-25T08:29:11Z","The DEX @FinanceChainge is set to launch on the @FUSIONProtocol network with over a million users on the protocols waitlist. This decentralized exchange aims to innovate on traditional models through leveraging the Fusion Network.  #BSC #BTC #ETH #BNB  https://t.co/xx55YiGfm3",21660,3
1375001794233868290,"2021-03-25T08:29:08Z","Alway in love 2021 collection by @sabet on @KnownOrigin_io  https://t.co/5MxCGW23Gk  Created by @sabet  #KOllections #cryptoart #NFT #cryptoartist #ETH  @WhaleShark_Pro @whale_community @niftynaut @JonnyB_NFT @catchNFTdrops https://t.co/O6GUDuHBiU",59,3
1375001787741073408,"2021-03-25T08:29:07Z","WARNING🚨   MASSIVE airdrop 🔥   $QDAO is a true💎since 2019, by famous team, just 10 MILLION CAP  1. Go now to Twitter @QDefi  or telegram https://t.co/x0vuSIVfV9   2. Get your free tokens  3. HODL this gem until 10x-20x  (soon - launch cross-chain tool for BSC, DOT and ETH) https://t.co/S3sdpsYnUu",1023,3
1375001785765482496,"2021-03-25T08:29:06Z","#DeFi #BKC #eth2 #BucksCake #Airdrops  During BucksCake Private Pre-Sale  with our Staking Program🎫  you can get up to 💥 422% APY profit 🛥  Current APY% Rates: ❇️  ETH Staking - 9% APY 🚙 BNB Staking - 10%  APY 🛵 🔥 BKC Staking - 422% APY 🚀  More at https://t.co/RQPMhjazG2 https://t.co/jAz6gHuvbE",1405,3
1375001785388036098,"2021-03-25T08:29:06Z","WARNING🚨   MASSIVE airdrop 🔥   $QDAO is a true💎since 2019, by famous team, just 10 MILLION CAP  1. Go now to Twitter @QDefi  or telegram https://t.co/x0vuSIVfV9   2. Get your free tokens  3. HODL this gem until 10x-20x  (soon - launch cross-chain tool for BSC, DOT and ETH) https://t.co/S3sdpsYnUu",1023,3
1375001772759089153,"2021-03-25T08:29:03Z","$BTC BITCOIN😈  In every significant upside move, btc corrected to 0.5 fibonnaci, i think we bottomed or near bottom.. MACD looks good too, nothing to be scare about.🌗  $ltc $eth $ankr $sxp $wtc $lsk $dot $mana $xtz $neo https://t.co/AWAOKg2cfd",4,1
1375001768636125188,"2021-03-25T08:29:02Z","It's community #CHAINO game night tonight at 9:30CST 🎮  Join us live on @YouTube &amp; @Twitch 🎥  #blockchain #gaming #eth #ethereum $MATIC @0xPolygon #layer2 #web3 $ETH $btc #bitcoin #btc  👇 https://t.co/8AzfuwkVKi https://t.co/N2TGUVrJJF https://t.co/r6rfQOfspK",104,1
1375001760494809089,"2021-03-25T08:29:00Z","Important Notice:  📍Some Airdrop participants have joined the airdrop bot but they did not complete Airdrop mandatory tasks. Example: 💥Join telegram group  💥Join telegram channel 💥Follow Twitter 💥Like + Retweet pinned post with using hashtag below #STC #ETH #DEFI #Airdrops https://t.co/QREjAmTDDe",124,1
1375001754983620609,"2021-03-25T08:28:59Z","Top 5 Mentions Updated Every 3 Minutes   Start Time: Thu Mar 25 2021 08:49:58 GMT+0300 (GMT+03:00)   (BETA STAGE)  1- $ETH==&gt;286  2- $DOGE==&gt;161  3- $BNB==&gt;137  4- $XRP==&gt;128  5- $HBAR==&gt;107",0,0
1375001752605319174,"2021-03-25T08:28:58Z","@George_harrap He came from the normie world, we cant expect him to be a cryptonaut and hold ETH overnight.",1,0
1375001746863353858,"2021-03-25T08:28:57Z","🚀 Safe The Children  🔷 Token Symbol : STC  🔷 Contract: https://t.co/nk3qsF2PJV  🔷 Website: https://t.co/4y0g7dqswM  🔷 Whitepaper: https://t.co/PHPZI4dbyR  🔷 Presentation Video : https://t.co/Mycfov12IU  #Safe_Childrens #Bitcoin  #Binance #BinanceSmartChain #DEFI  #BTC #ETH",14724,0
1375001739766624257,"2021-03-25T08:28:55Z","WARNING🚨   MASSIVE airdrop 🔥   $QDAO is a true💎since 2019, by famous team, just 10 MILLION CAP  1. Go now to Twitter @QDefi  or telegram https://t.co/x0vuSIVfV9   2. Get your free tokens  3. HODL this gem until 10x-20x  (soon - launch cross-chain tool for BSC, DOT and ETH) https://t.co/S3sdpsYnUu",1023,0
1375001738214711304,"2021-03-25T08:28:55Z","🔸 New Listing🔸   #BKEX will list #DRYCAKE @DryCakeSwap🚀 🚀  - Trading pair: DRYCAKE/USDT - Trading time: 20:00 on Mar 29 (UTC+8)  🔹 🔹 More details: https://t.co/kC2IIebfTT  #Bitcoin #ETH #BKK #Blockchain https://t.co/w8CHyKXaUD",2480,0
1375001735924703234,"2021-03-25T08:28:54Z","Do you realize where we are #Klever family? Look at this roadmap. The possibilities are endless thanks to our incredible #KLV team. We are in 2021 Quarter 1. We haven’t even begun! @klever_io will change the #Crypto world and hopefully bring everyone with it! #BTC #ETH #BNB #ADA https://t.co/JYTUjv2cox",151,0
1375001729687764992,"2021-03-25T08:28:53Z","The DEX @FinanceChainge is set to launch on the @FUSIONProtocol network with over a million users on the protocols waitlist. This decentralized exchange aims to innovate on traditional models through leveraging the Fusion Network.  #BSC #BTC #ETH #BNB  https://t.co/xx55YiGfm3",21660,0
1375001729578758145,"2021-03-25T08:28:53Z","Getting into crypto: BTC and ETH are everything. To the moon!  After doing research with an open mind: #IOTA could overtake everyone. The sheer audacity of this project is humbling.",240,0
1375001710368747520,"2021-03-25T08:28:48Z","The DEX @FinanceChainge is set to launch on the @FUSIONProtocol network with over a million users on the protocols waitlist. This decentralized exchange aims to innovate on traditional models through leveraging the Fusion Network.  #BSC #BTC #ETH #BNB  https://t.co/xx55YiGfm3",21660,0
1375001707864678400,"2021-03-25T08:28:48Z","The DEX @FinanceChainge is set to launch on the @FUSIONProtocol network with over a million users on the protocols waitlist. This decentralized exchange aims to innovate on traditional models through leveraging the Fusion Network.  #BSC #BTC #ETH #BNB  https://t.co/xx55YiGfm3",21660,0
1375001707730644996,"2021-03-25T08:28:48Z","🚀 Pluto Coin  Airdrop 🚀 Rate: ⭐⭐⭐⭐ ⭐ 🎁 Reward:  8822 PLUT ($1500) 👫 Referral: 40.5 PLUT  ($7)  🤖Start Bot here   https://t.co/x5JZchojO8  ⛂ Join Telegram group and channel. ⛂ Follow twitter &amp; retweet  ⛂ Submit ETH address and details.",6006,0
1375001669491167233,"2021-03-25T08:28:38Z","🎉🎉 Lighthouse produced its first #Eth1 &amp; #Eth2 merge transaction 🎉🎉  This is an ETH tx using *only* proof-of-stake validators. A step towards a 99.98% drop in Ethereum energy consumption 🌏🌲🌄  Credits to @gballet, @mkalinin2 &amp; @Teku_ConsenSys!  Important qualifications 👇 https://t.co/DW5GSk4JVo",917,0
1375001628923805697,"2021-03-25T08:28:29Z","Today MGI began rolling out their API-driven infrastructure for new business &amp; use cases beginning w/ successful integration of the G-Coin token to provide consumers a new way to access blockchain-based digital gold assets. G-Coin runs on Quorum (ETH).  -Thanks @NatePardue1 ! https://t.co/1GFR2p1hc0",22,0
1375001619738152960,"2021-03-25T08:28:27Z","of all sad words of tongue or pen the saddest are these: long eth again",12,2
1375001611949461505,"2021-03-25T08:28:25Z","💧Roku Network Airdrop 💧  🏆 Task:          ➕  15 ROK (~$5)  👨‍👩‍👧 Referral:   ➕  3 ROK (~$1)  🔛  Airdrop Link &amp; Information: https://t.co/YhvsOcfEbH  #cryptocurrency #Crypto #Bitcoin  #BSC #BinanceSmartChain #Ethereum #ETH #Airdrop #bounty #ROK #RokuCoin #RokuNetwork",3813,2
1375001610628210688,"2021-03-25T08:28:24Z","The DEX @FinanceChainge is set to launch on the @FUSIONProtocol network with over a million users on the protocols waitlist. This decentralized exchange aims to innovate on traditional models through leveraging the Fusion Network.  #BSC #BTC #ETH #BNB  https://t.co/xx55YiGfm3",21660,2
1375001587924537345,"2021-03-25T08:28:19Z","I just donated Green NFT Grant with 0.005 $ETH. Follow @realMaskbook (https://t.co/OhMCJBiV0z) to donate Gitcoin grants. #mask_io",0,0
1375001584397078531,"2021-03-25T08:28:18Z","RT @volmexfinance: What’s your ETH address?  Don’t ask why, just drop it below 👇",4852,0
1375001582497013763,"2021-03-25T08:28:18Z","RT @CashNCrypto: $150 to one person in 48hrs  Rt &amp; follow me + @domscrypto &amp; @boar_eth",2067,0
1375001544676962304,"2021-03-25T08:28:09Z","#LuaSwap weekly report has made a new appearance showing how $LUA's ongoing.  🌾New $LUA listings: https://t.co/nfNb0wzWwB; #DappBirds 🌾$LUA's total trading volume on exchanges surpassed $3 million. 🌾Top pools with highest APYs on #ETH with 136.99% APY on $TOMOE/ $USDC 🔥 https://t.co/CpXqqSb6xS",139,0
1375001543087247361,"2021-03-25T08:28:08Z","@brazilian_Scoin Done with a proof Thanks for this great opportunity  Eth Address : 0x30B8339C138aD46D48576B8fa16a3bF6574EE4A6  #bsv #Hbar #Ht #Dai #Algo #Btt #Mana #Nexo #Cro https://t.co/yrrKvhfhqR",1,1
1375001528801484802,"2021-03-25T08:28:05Z","@ValCoins My views on ETH , i thinks we are going to have months of consolidation in this range, Or we break the range lows and bull market is over for another 3 years 😑  Letting the 21EMA on the weekly to catch up to price.  What do you think? https://t.co/gN4AYDI5GX",0,0
1375001527258017792,"2021-03-25T08:28:05Z","RT @CashNCrypto: $150 to one person in 48hrs  Rt &amp; follow me + @domscrypto &amp; @boar_eth",2067,0
1375001525530066944,"2021-03-25T08:28:04Z","I just listed “Rocket in a Bottle” for sale only on @withFND! 🌐  Check it out → https://t.co/c1jrFHaMsc   Reserve price 0.5 ETH #nft #cryptoart #digitalart #nftart #NFTcollectors #nfts #nftcommunity https://t.co/2D7mFaoXoL",258,0
1375001522342219781,"2021-03-25T08:28:03Z","WARNING🚨   MASSIVE airdrop 🔥   $QDAO is a true💎since 2019, by famous team, just 10 MILLION CAP  1. Go now to Twitter @QDefi  or telegram https://t.co/x0vuSIVfV9   2. Get your free tokens  3. HODL this gem until 10x-20x  (soon - launch cross-chain tool for BSC, DOT and ETH) https://t.co/S3sdpsYnUu",1023,0
1375001502238969860,"2021-03-25T08:27:59Z","WARNING🚨   MASSIVE airdrop 🔥   $QDAO is a true💎since 2019, by famous team, just 10 MILLION CAP  1. Go now to Twitter @QDefi  or telegram https://t.co/x0vuSIVfV9   2. Get your free tokens  3. HODL this gem until 10x-20x  (soon - launch cross-chain tool for BSC, DOT and ETH) https://t.co/S3sdpsYnUu",1023,0
1375001500003487745,"2021-03-25T08:27:58Z","#BTC Price: $52758 #ETH Price: $1606 #LTC Price: $176  Next update in 10 minutes Last updated: 4:27:58.04",0,0
1375001493510709248,"2021-03-25T08:27:57Z","💧Roku Network Airdrop 💧  🏆 Task:          ➕  15 ROK (~$5)  👨‍👩‍👧 Referral:   ➕  3 ROK (~$1)  🔛  Airdrop Link &amp; Information: https://t.co/YhvsOcfEbH  #cryptocurrency #Crypto #Bitcoin  #BSC #BinanceSmartChain #Ethereum #ETH #Airdrop #bounty #ROK #RokuCoin #RokuNetwork",3813,0
1375001466126090241,"2021-03-25T08:27:50Z","$eth recovered that .03 level, idk what that means but prob good",0,0
1375001459360555011,"2021-03-25T08:27:48Z","RT @CryptoNewton: Only up! $BTC $ETH #alts",476,0
1375001456995147776,"2021-03-25T08:27:48Z","I just listed “Rocket in a Bottle” for sale only on @withFND! 🌐  Check it out → https://t.co/c1jrFHaMsc   Reserve price 0.5 ETH #nft #cryptoart #digitalart #nftart #NFTcollectors #nfts #nftcommunity https://t.co/2D7mFaoXoL",258,0
1375001452452663297,"2021-03-25T08:27:47Z","The price of @Bitcoin   will reach  72,000 $ in May and April #CryptoNews  #cryptocurrency  #ElonMusk #BTC  #BNB #BSC #ETH  #Binance https://t.co/1ltffxFDQZ",0,0
1375001434815492098,"2021-03-25T08:27:43Z","@PennyMcStacks Astro Chill - Available on @withFND  👨🏻‍🚀  Use headphone for the best experience!! Reserve Price: 0.5 ETH  Check out - https://t.co/6Nkl8HojMJ https://t.co/KIHhC5ohb2",0,0
1375001431896420357,"2021-03-25T08:27:42Z","$ETH  If the daily candle closes above 2k, it will easily cross 2500$ mark. Keep an eye on it.  Checkout the link in bio for crypto signals  $MATIC #bitcoin $FTM $XTZ $ATOM $WAVES 53071 https://t.co/etJW3kid09",1,0
1375001429765672960,"2021-03-25T08:27:41Z","#LuaSwap weekly report has made a new appearance showing how $LUA's ongoing.  🌾New $LUA listings: https://t.co/nfNb0wzWwB; #DappBirds 🌾$LUA's total trading volume on exchanges surpassed $3 million. 🌾Top pools with highest APYs on #ETH with 136.99% APY on $TOMOE/ $USDC 🔥 https://t.co/CpXqqSb6xS",139,0
1375001427920183297,"2021-03-25T08:27:41Z","NEW LAUNCH DATE:  Thursday 10pm GMT / 5pm EST / 2pm PST 💥  Waiting until this ETH / gas madness is over, probably better for all of us 🤓 https://t.co/3l6sNkUvep",4,0
1375001418923450368,"2021-03-25T08:27:39Z","People said I've been negative lately...So let's give away a THICC Pokemon NFT (valued at about $1000 now, but I think at least $2k in 3 months)  Post your ETH wallet below and your favorite pokemon. Tags/Retweets to friends who like NFTs/Crypto is super appreciated. https://t.co/GHxjLnTcb1",1142,0
1375001411998584833,"2021-03-25T08:27:37Z","#LuaSwap weekly report has made a new appearance showing how $LUA's ongoing.  🌾New $LUA listings: https://t.co/nfNb0wzWwB; #DappBirds 🌾$LUA's total trading volume on exchanges surpassed $3 million. 🌾Top pools with highest APYs on #ETH with 136.99% APY on $TOMOE/ $USDC 🔥 https://t.co/CpXqqSb6xS",139,0
1375001394717978624,"2021-03-25T08:27:33Z","@dodo_tokens ETH Address: 0xbea09a33FD0bF70bB426D1c282eFED76C539CBa2  thank you I have done All rules.",0,0
1375001382009311233,"2021-03-25T08:27:30Z","$ICX is aiming to be the first #AggregatorChain with its revolutionary BTP technology. With the help of @web3labs and, @helloiconworld aims to be the most interconnected block-chain by the end of 2021  #CryptoNews #Crypto $btc $eth $ada $ltc $luna $link $doge $dot $atom $trx $xrp https://t.co/waHMDAaziK",64,0
1375001374333763585,"2021-03-25T08:27:28Z","Update: $eth #etherum   Right on the button https://t.co/OngwGwatXR",2,0
1375001373352325126,"2021-03-25T08:27:28Z","RT @JimmyRagosa: @scott_lew_is no one should have 90% of their net worth in eth. https://t.co/JojKp1gKNC",142,0
1375001367228649472,"2021-03-25T08:27:26Z","🎉🎉 Lighthouse produced its first #Eth1 &amp; #Eth2 merge transaction 🎉🎉  This is an ETH tx using *only* proof-of-stake validators. A step towards a 99.98% drop in Ethereum energy consumption 🌏🌲🌄  Credits to @gballet, @mkalinin2 &amp; @Teku_ConsenSys!  Important qualifications 👇 https://t.co/DW5GSk4JVo",917,0
1375001365055963136,"2021-03-25T08:27:26Z","RT @tekinturee: @harneleon 1 Hour Left! Dream Valley ⛰️ Current bid 0,75 ETH 🚀  Check out this artwork! https://t.co/Ns2lUbmwhG",4,0
1375001351348977665,"2021-03-25T08:27:23Z","@TrustWalletApp Exchanges are a very big deal in crypto. Which is why Binance, uniswap, pancakeswap etc are giants in crypto. Now $FEG @FEGtoken is building a state of the art exchange that enables the swap of tokens between $ETH and $BSC chains. #BinanceSmartChain #Binance #Ethereum #altcoins",2,0
1375001344713617415,"2021-03-25T08:27:21Z","#BTC #Bitcoin #Crypto #Ethereum #ETH #Coinbase #Binance  Would you like to have more charts like this?  Would you like to have this chart daily? Smash the like button and follow!! https://t.co/bJ9fvKaqrA",0,0
1375001336874369024,"2021-03-25T08:27:19Z","Took some of my profits from youtube channel and gave away this $160 @LostRelicsGame  weapon.  Gave away this @hodlgodgame $80 chests.  Gave away $30 in $eth giveaway  Imagine when I am actually making thousands of dollars, its going to be a party through the free #nft. https://t.co/elyOY1tOjc",55,0
1375001336043999239,"2021-03-25T08:27:19Z","RT @davidgokhshtein: Regardless if the fees, $ETH will power its way to $10,000.  I’ll be repetitive.",522,0
1375001326493573120,"2021-03-25T08:27:17Z","Top 10 Coins Mentioned on Twitter Last Week 📣  $BTC 1,751,412 $ETH 267,287 $DOGE 200,050 $CAKE 152,555 $ADA 149,907 $CHZ 78,208 $LINK 71,556 $POLS 59,075 $KLV 52,392 $XRP 48,110 https://t.co/YOrRjJaYhn",99,0
1375001304347504640,"2021-03-25T08:27:11Z","Took some of my profits from youtube channel and gave away this $160 @LostRelicsGame  weapon.  Gave away this @hodlgodgame $80 chests.  Gave away $30 in $eth giveaway  Imagine when I am actually making thousands of dollars, its going to be a party through the free #nft. https://t.co/elyOY1tOjc",55,0
1375001284328185856,"2021-03-25T08:27:07Z","RT @CashNCrypto: $150 to one person in 48hrs  Rt &amp; follow me + @domscrypto &amp; @boar_eth",2067,0
1375001277629861889,"2021-03-25T08:27:05Z","#UNISWAP xV3 + #ETHEREUM xL2 = DEATH OF ALL #CHAINS  #BSC when we make a transaction on your chain and send $BNB it shows we are sending $ETH lol.  @cz_binance time to close #BSC good effort, it was a nice ride. Now please make way for the #UNICORN 🦄  #CRYPTO #WorldComputer $ETH https://t.co/JKNUrAhNh8 https://t.co/BMrIwNUrFR",11,0
1375001275062964228,"2021-03-25T08:27:04Z","@cryptoladin Mostly bullish on $KDA as Kadenas Chainweb is a Proof-of-Work blockchain but unlike $ETH scalable. It offers low fees and fast transactions, cross-chain transactions to $dot, $atom or $celo, interoperability with $dot, $atom, $luna or $celo &amp; bridging to $eth",0,0
1375001258671566852,"2021-03-25T08:27:01Z","WARNING🚨   MASSIVE airdrop 🔥   $QDAO is a true💎since 2019, by famous team, just 10 MILLION CAP  1. Go now to Twitter @QDefi  or telegram https://t.co/x0vuSIVfV9   2. Get your free tokens  3. HODL this gem until 10x-20x  (soon - launch cross-chain tool for BSC, DOT and ETH) https://t.co/S3sdpsYnUu",1023,0
1375001257723621380,"2021-03-25T08:27:00Z","RT @harvest_finance: The #EasterBunny 🐰 came early dropping 3-4 digit goodies 🐣 $iFARM $1INCH $ETH $wBTC $MUSE $DUDES https://t.co/YOkwbafD…",44,0
1375001254779179010,"2021-03-25T08:27:00Z","With $BTC cooling down, I can say with certainty:  Welcome to the start of yet another #Altseason ladies and gentlemen 💵💵  Get ready for some 🔥🔥 picks, if you don't walk away from this 2021 bull run a millionaire, that's on you.  🚀🌕  #crypto #defi #nfts $eth $doge $rvn $sxp",18,0
1375001240778772481,"2021-03-25T08:26:56Z","Steam✅ Gmerican Express✅ Google✅ eBay✅ Amazon Cash USA✅ Sephora✅ Nike✅ Vanilla✅ Visa✅ BTC/ETH all of these cards have high prices Sincerity, safety, reliability is my watchword  Tested and Trusted 💯 🤝✅ https://t.co/DZv5uBrWBS https://t.co/MfNOiwvegZ",20,0
1375001232239075337,"2021-03-25T08:26:54Z","Yoooo thanks @Don_Fancypants for grabbing THREE!  🔥🔥🔥  Cheers man!😁  #NFT #nftart #nftcollector #NFTcollectibles #Cryptoart #soldout #rarible #etherium",6,0
1375001231962292227,"2021-03-25T08:26:54Z","I don’t think so 👀 I paid almost 10 #ETH for transactions fees 😮 in the past 3 years 😶 I want my #ETH back @VitalikButerin 😶 @Tronfoundation 🙌 fees are almost free, try it out and see for yourself. Let’s Go @justinsuntron✊ #TRX https://t.co/LEytX9qjmv",2,0
1375001228443217921,"2021-03-25T08:26:53Z","🔔Less than 24 hours to go until the giveaway ends!🎁  $1000 $USDT up for grabs, don't miss it! 💵  $btc $eth $ltc $neo $link $kava $ftm $mft $chr $coti $one $jst $omg $aave $algo $ankr $arpa $atom $band $zil $chz $enj $eos $gto $icx $rlc $dot $xrp $ada $hbar $xlm $reef $crv $dia https://t.co/QUH5bL2J2B",22,0
1375001225091948553,"2021-03-25T08:26:53Z","Time to focus on big caps like $ETH   All of them right at their HTF supports,  $BTC.D looking like it's ready for a leg down  Decoupling from the #fractal is possible now!  If not, your SL below current supports give you a great r:r ratio.   Shortterm eyes on Major Caps ⚡️👀",547,0
1375001214828560384,"2021-03-25T08:26:50Z","@Scott93386182 $KDA at ~60m market cap Kadenas Chainweb is a Proof-of-Work blockchain but unlike $ETH scalable. It offers low fees and fast transactions, cross-chain transactions to $dot, $atom or $celo, Founders were part of JPMorgans blockchain division #Kadenaswap is coming soon",0,0
1375001208344166404,"2021-03-25T08:26:49Z","@Glob06823686 @AdrianRadut1 @EdgarAronov @Uniswap @AaveAave @SushiSwap Adrian is completely right. TVL and revenue don’t matter if the underlying assets that drive them are overvalued due to speculation.  If ETH drops 70% all that TVL and revenue dries up massively - keep that in mind.  The experimentation is good though",0,0
1375001208159539206,"2021-03-25T08:26:48Z","RT @intocryptoverse: A year ago when $ETH was around $200, imagine being upset a year later with a $1500 $ETH. Crazy how quickly crypto sen…",2079,0
1375001196197466117,"2021-03-25T08:26:46Z","I just listed “Rocket in a Bottle” for sale only on @withFND! 🌐  Check it out → https://t.co/c1jrFHaMsc   Reserve price 0.5 ETH #nft #cryptoart #digitalart #nftart #NFTcollectors #nfts #nftcommunity https://t.co/2D7mFaoXoL",258,0
1375001177511788550,"2021-03-25T08:26:41Z","The DEX @FinanceChainge is set to launch on the @FUSIONProtocol network with over a million users on the protocols waitlist. This decentralized exchange aims to innovate on traditional models through leveraging the Fusion Network.  #BSC #BTC #ETH #BNB  https://t.co/xx55YiGfm3",21660,0
1375001169207029760,"2021-03-25T08:26:39Z","price updated  new price: 1.2 ETH",4,0
1375001167873249284,"2021-03-25T08:26:39Z","RT @CashNCrypto: $150 to one person in 48hrs  Rt &amp; follow me + @domscrypto &amp; @boar_eth",2067,0
