"ID","created_at","text","like_count","rt_count"
1377531168879489034,"2021-04-01T07:59:58Z","🔥GIVEAWAY🔥 Win the Crystal ETHereum logo 💎 0.77 ETH worth FOR FREE   Take a chance to win: 1. Go to FND and click follow https://t.co/0lzEfbhPSH  2. Follow @igor_3000A 3. RT this post💙  https://t.co/THGW3ipZhY  #nftcollector #NFT #NFTart #NFTCommunity #cryptoart #NFTGiveaway https://t.co/UT9IeugDud",156,111
1377531168371961856,"2021-04-01T07:59:58Z","@YobitExchange can't stop having this issue with your api: Total transaction amount is less than minimal total: 0.00010000 (factual price 0.03148380)}   request(without nonce) : method=Trade&amp;pair=eth_btc&amp;type=buy&amp;amount=0.0016&amp;rate=0.18703879 which is &gt;0.0001 is the api working?",1,0
1377531165209473027,"2021-04-01T07:59:57Z","March... GameStop $GME: +87% Ethereum $ETH: +34% Bitcoin $BTC: +30% AMC $AMC: +27% Dow $DIA: +7% S&amp;P 500 $SPY: +4.5% Nasdaq 100: +1.7% Gold $GLD: -1% Bonds $AGG: -1% 20+ Treasuries $TLT: -5% ARK Innovation $ARKK: -8% SPACs $SPAK: -12% ViacomCBS $VIAC: -30% Volatility $VIX: -31%",1363,286
1377531155910561793,"2021-04-01T07:59:55Z","$EDDA Super Rare #NFT just sold for 6.5 ETH on  @opensea @EDDASWAP @TheMehulPatel   You can get these #NFTs for FREE if you stake your $EDDA tokens.   @EDDASWAP   https://t.co/PT1uuqW5f3 https://t.co/PT1uuqW5f3",223,218
1377531135182303232,"2021-04-01T07:59:50Z","2 stray goats 🐐🐐 looking for owners.  2 of 10 left.   Multifaceted Metaphor (Black Edition) collectible 2 of 10 Available for 0.11 ETH each. https://t.co/GwhKD0TQrl? #rarible #ethereum #nonfungible #digitalasset #nft via @rariblecom https://t.co/JbaUixzszF",9,4
1377531113401319424,"2021-04-01T07:59:45Z","Ⓜ️ Chance Win Unique #NFTⓂ️  🎯 Register👉 https://t.co/IEckR49FYj  🔹 Enter Your BEP20 BSC Address 🔹 Enter Your Email  1. Retweet + Like #CTBot Adrop Ram 3 TRX 100 #btc #eth #bnb #bsc #DeFi #nftart #NFTGiveaway #NFTCommunity #NFTartists #NFTs #NFTcollectibles #free #Airdrop https://t.co/6kzrHMjBNl",81,90
1377531109425176580,"2021-04-01T07:59:44Z","Ⓜ️ Chance Win Unique #NFTⓂ️  🎯 Register👉 https://t.co/IEckR49FYj  🔹 Enter Your BEP20 BSC Address 🔹 Enter Your Email  1. Retweet + Like #CTBot Adrop Ram 3 TRX 100 #btc #eth #bnb #bsc #DeFi #nftart #NFTGiveaway #NFTCommunity #NFTartists #NFTs #NFTcollectibles #free #Airdrop https://t.co/6kzrHMjBNl",81,90
1377531105188794368,"2021-04-01T07:59:43Z","Ⓜ️ Chance Win Unique #NFTⓂ️  🎯 Register👉 https://t.co/IEckR49FYj  🔹 Enter Your BEP20 BSC Address 🔹 Enter Your Email  1. Retweet + Like #CTBot Adrop Ram 3 TRX 100 #btc #eth #bnb #bsc #DeFi #nftart #NFTGiveaway #NFTCommunity #NFTartists #NFTs #NFTcollectibles #free #Airdrop https://t.co/6kzrHMjBNl",81,90
1377531104257835011,"2021-04-01T07:59:43Z","@NorthstarCharts I missed your crypto updates over the weekend/start of the week. Maybe there just wasn’t much to report on. We seem to be at a critical juncture again with big dogs ETH and BTC",2,0
1377531104249401346,"2021-04-01T07:59:43Z","$ETH cant catch a break -  Starts pumping then $DOT says fuck outta my way.",100,2
1377531096590508033,"2021-04-01T07:59:41Z","@DudesMini @xtatc @probablynayem @Crypto_Junsei @veronitab123 Btw here's my eth wallet, again thanks a lot🥳 0x1f65af9E069148aC9f3B8639AF130aba974bb973",1,0
1377531092710866944,"2021-04-01T07:59:40Z","$TROY I hope you listened 😄✅            $pond $rsr $eth $ocean $sys $mft $ong $ankr $fet $vet https://t.co/K1YbJQY5gE https://t.co/2v0LgUIYRY",4,0
1377531077141598209,"2021-04-01T07:59:36Z","🔶 ViteX Exchange Dex 🔶 🔸 $VX Staking APR 75%🔸  🚦Join:  https://t.co/24PTq7iglh 🚦Code:  𝟵𝟲𝟭𝟰𝟲𝟭𝟰𝟬𝟰  🌐 Install App &amp; Buy Vite Token 🌐 Mining Staking Vite Token 🌐 Dividends VX Token or #BTC #ETH #USDT 🌐 Trading Income VX Token 🌐 Done  @CTBott Adrop Avg 100 SPKL 50 https://t.co/s5XD1JU90v",41,48
1377531075895824385,"2021-04-01T07:59:36Z","Ⓜ️ Chance Win Unique #NFTⓂ️  🎯 Register👉 https://t.co/IEckR49FYj  🔹 Enter Your BEP20 BSC Address 🔹 Enter Your Email  1. Retweet + Like #CTBot Adrop Ram 3 TRX 100 #btc #eth #bnb #bsc #DeFi #nftart #NFTGiveaway #NFTCommunity #NFTartists #NFTs #NFTcollectibles #free #Airdrop https://t.co/6kzrHMjBNl",81,90
1377531069050798082,"2021-04-01T07:59:34Z","$FIL UPDATE +228% SOON Right pointing backhand index Join Channel: https:https://t.co/Wm1ZKCwhev  $BTC $ETH #NFT $PERL $ENJ $FLOW $THETA #BSC  $REEF $LUNA $SAND $AXS $TVK $HOGE $CHZ $STX $ROSE $TROY $ONE $CERL $IRIS $ANC $ADA $DIA $XRP $DOGE $ATOM $LUNA $ZCX $BNB $WABI $LTO $CVC https://t.co/GQNPmgMv6A",0,0
1377531058183278602,"2021-04-01T07:59:32Z","$EDDA Super Rare #NFT just sold for 6.5 ETH on  @opensea @EDDASWAP @TheMehulPatel   You can get these #NFTs for FREE if you stake your $EDDA tokens.   @EDDASWAP   https://t.co/PT1uuqW5f3 https://t.co/PT1uuqW5f3",223,218
1377531056564412416,"2021-04-01T07:59:31Z","@The_NFT_Hub Hey, my first NFT available on @rariblecom  0,05 ETH  🥰🙏💫 https://t.co/4egNJwjsT4",0,0
1377531056161763328,"2021-04-01T07:59:31Z","Hey there! I am deeply honoured now to present you the first and only Ethereum lamp. Yes, you read the right. Limited (42 pcs only) edition. Hand made. Check this out! https://t.co/Tr6fisL0hy https://t.co/tk6fRImG6p #eth #ethereum #crypto #VitalikButerin @rariblecom @opensea #BTC",417,145
1377531051564789760,"2021-04-01T07:59:30Z","The inforgraphics below shows the steps on how Users with $pCWS can use their coin to get their hands on freshly minted #seascape #NFTs, on the game too. #CWS #DeFi #BSC #Gaming How to play https://t.co/JtWRomcbMA Guide https://t.co/bXJD9QDk57 #CTBot Adrop RAM 1 TRX 50 https://t.co/1JsIppWCpk",49,50
1377531038864306178,"2021-04-01T07:59:27Z","[ETH TYPE] VOISART | Broken by Design https://t.co/ZBuTxBsT2p",0,0
1377531028147990529,"2021-04-01T07:59:25Z","Slow 172 | Normal 175 | Fast 182 | Instant 186 👈 current Ethereum gas prices in gwei. DM me a price and I will DM you as soon as gas drops below that price 👍 #Ethereum #GasPrice #ETHGasPrice #ETH",0,0
1377531017108541440,"2021-04-01T07:59:22Z","HAWT. With my partnership with @illuviumio I can give away 100 HOLOGRAPHIC Scoot Scarabok NFTs.  Similar ones have gone for 5 eth to 50 eth.  How to get -Post your ETH address + BATTLE SCOOT! below -Retweet/tag a friend -Follow @illuviumio and join their discord in bio https://t.co/xcCVVW6KdR",2755,2661
1377531005737766917,"2021-04-01T07:59:19Z","https://t.co/TSMUVpgEHU  NFT 1/100 giveaway in 24 hours! 💥💥💥  Price 0.055 ETH =$ 105 !!!  🤝🤝🤝Follow me +@rathzthemonk  👍 like  💪retweet   🤝two friends+ comment with your ETH wallet adress. 🙏🙏🙏 I wish everyone good luck   #NFTartist #rarible #nft https://t.co/wkEAXgWE8s",153,127
1377530999693836290,"2021-04-01T07:59:18Z","RT @mavroses: ETH at $1926 right now, might break $2000 tonight.  #BTC → $60,000 // #ETH → $2000 📈",95,7
1377530992576040961,"2021-04-01T07:59:16Z","We have been planning this for a long time. And now the moment has come: @Joel_Mesot and I have switched seats. He will run @EPFL_en for one week, and I have the honor to direct @ETH_en, my alma mater. #ChangingPlaces https://t.co/ZWDdN1F55y",409,14
1377530986901213187,"2021-04-01T07:59:15Z","💥Below is a detailed guide on how to participate in the #NFT Brawl.  Guide https://t.co/bXJD9QDk57 How to play https://t.co/JtWRomcbMA  #CWS #BSC #NFTBrawl #Gaming #ETH    #CTBot Adrop RAM 1 TRX 45 https://t.co/76WICqY9CA",46,47
1377530977954754562,"2021-04-01T07:59:13Z","🔶 BetFury Airdrop 🔶 🔸🚰 Claim Free $BTC $ETH $BNB every 20 min.🔸  🚦 Join: https://t.co/2VXxFsrJA8  🌐 Login your $TRX , $ETH &amp; $BSC Wallet! 🌐 Deposits/Withdrawals 🌐 Playing any games! 🌐 Mining $BFG ( $TRX &amp; $BTC ) 🌐 Staking payouts  #BFG @CTBott Adrop Avg 100 SPKL 50",17,17
1377530969842987011,"2021-04-01T07:59:11Z","This is what it looks like following 20 of the top Strategy Managers on the @covesting module on @PrimeXBT 🤑  Diversifying &amp; earning around 0.5% daily #passiveincome in $BTC $ETH $USDT $USDC 😎 $COV token utility opening up larger profit opportunities 💎🚀 #Finance #copytrade https://t.co/4vZQuAKMid",31,12
1377530964000321539,"2021-04-01T07:59:09Z","The account is sponsored by #Maanky 🐵 #BTC #Bitcoin #ETH #FOREX Oil climbs 2% as OPEC+ production cuts extension eyed https://t.co/3xqCIFdkqs",0,0
1377530963178164224,"2021-04-01T07:59:09Z","RT @TheCryptoBomber: $EDDA SUPER RARE NFT just sold for 6.5 $ETH 🚀  AND IM GIVING AWAY AN $EDDA NFT!   CHECK MY TWITTER!",255,233
1377530948258983937,"2021-04-01T07:59:06Z","Purple RTFKT X Atari Sneakers was purchased for 318 $MANA ($328.47 USD = 0.1705 $ETH) by https://t.co/01s8qCzTFu from https://t.co/1HW7DBrY3C https://t.co/P31smIGP7e #decentraland #wearables https://t.co/s1Ibfs5XAu",7,4
1377530944022851585,"2021-04-01T07:59:04Z","🔶 Hello Dear Friends 🔶 🔸Today I am sharing Binance Best offer with you🔸 🔸Join #Binance world No:1 Crypto Exchange🔸  🚦 Registration: https://t.co/PJLaNGDAaJ  🌐 With my link and get 10% Direct Trade Fee Discount  #BTC #ETH #DOT @CTBott Adrop Avg 100 SPKL 50",20,21
1377530937735442434,"2021-04-01T07:59:03Z","MANA Christmas Sweater was purchased for 0.1000 $ETH ($192.65 USD = 0.1000 $ETH) by https://t.co/01s8qCzTFu from https://t.co/znIwXZqszN https://t.co/5hQYVmjx8k #decentraland #wearables https://t.co/gC2jioEZe5",5,2
1377530924196368385,"2021-04-01T07:59:00Z","Many people complain about selling low and having bad rates, some don't even know who to trust to sell thier Btc, Eth and giftcard to, i can relate cause I was once like this, but now I use https://t.co/KllJ1TQQW3 and since then i have been getting the best rate 🔥 #MybtcNigeria https://t.co/8AEg8RD2mR",52,55
1377530923139297280,"2021-04-01T07:59:00Z","Bitcoin Christmas Sweater was purchased for 0.4900 $ETH ($939.79 USD = 0.4900 $ETH) by https://t.co/01s8qCzTFu from https://t.co/NVvFUkPqTS https://t.co/4Dw4TAA5YA #decentraland #wearables https://t.co/8QIbZHNNlZ",4,3
1377530923072163842,"2021-04-01T07:59:00Z","ETH-USDC pool is up on our L2 AMM 💵   In the below video, you see a swap of $10 of $ETH into $USDC, then a deposit of $10 of each into the AMM pool.  The video is 18 seconds, not sped up.  Cost 2 cents, no gas.  The world doesn't know about Ethereum L2. https://t.co/qRy7TPhGHD https://t.co/4IgFnMgjXw",1059,558
1377530914851405824,"2021-04-01T07:58:58Z","Join other investors !! 🌏 $ 5 million staked on #tacoswap 🌶 🚀🚀 Don't miss this adventure You want #TacoToken , too? Joins us !!!   #BSC #Bitcoin #BinanceSmartChain #Bepro #blockchain #CoinGecko #crypto #eth #poolz #ADA #Sushiswap #VeChain #Uniswap https://t.co/mxZnpt1QYw",108,82
1377530906278293504,"2021-04-01T07:58:56Z","RT @CryptoBethany: Sold all my $bnb + $cake  Bought $eth + $sushi  Ethereum, I just like it because.... errmmm....  APRIL FOOLS 😆",276,21
1377530905179222019,"2021-04-01T07:58:55Z","@JustinTPhillips @Dann_Sw There are already proof of stake blockchains you can mint NFTs on  Some of the biggest NFT markets used to be on proof of stake blockchains, but switched to ETH because that's what people wanted  Switching ETH to proof of stake requires tons of people pledging money towards that",4,0
1377530903434567681,"2021-04-01T07:58:55Z","👽 Oops he might do it again ...Master another Galaxy ..the One in which Tokens successfully and highly profitable operate ⛏ CIO - ROI - CRYPTOR GLOBAL ....a perfect composition for the ultimate Coin symphony 🎼   #Token #Coin #Roi #Cio #ElonMusk #ERC20 #Eth #Ethereum #Btc https://t.co/eNKGQoKrfZ",1,0
1377530895180124161,"2021-04-01T07:58:53Z","Our 1 #ETH Rainfall giveaway starts now!   5 people win .2 $ETH 🎉   How to enter - Create account/ login to ShapeShift https://t.co/IiAR4FmzL5 - Comment a screenshot of your Rainfall My Rewards Screen below - Retweet &amp; follow us  Ends 4/7-12pm MST Rules:https://t.co/BCkLHlREko https://t.co/wa9ZLEyIiC",191,201
1377530878264541185,"2021-04-01T07:58:49Z","Looks like the blue chips like $ETH, $ADA, $LINK, $DOT are about to start that move",4,0
1377530876767182849,"2021-04-01T07:58:48Z","Bitcoin is trading at ~$58,800 on April 1st.  https://t.co/86hNZZAjRE  #crypto #bitcoin #nft #eth #cryptonews https://t.co/2qC3gZYZ1L",0,0
1377530872132464641,"2021-04-01T07:58:47Z","@digartcollector @pillsforskills Hey, my first NFT available on @rariblecom  0,05 ETH  🥰🙏💫 https://t.co/4egNJwjsT4",0,0
1377530869120954370,"2021-04-01T07:58:47Z","You can use cryptocurrency to help Julian. The @couragefound's #Assange fund accepts various #crypto -  #BTC #etherium #Zcash  Other options to be added soon.   https://t.co/k5h9uSC0ha https://t.co/WTx6wx6Or1",81,53
1377530857137786888,"2021-04-01T07:58:44Z",".@ethereum shows green candles for 3 consecutive days, rises to $1,945, here’s why. $ETH https://t.co/8L7uHj7zEI",9,3
1377530837193912322,"2021-04-01T07:58:39Z","@TheCryptoLif7 @splytcore @cook_finance Francis strikes again! 🔥🔥  What a performance from $COOK and $SHOPX 🤯  Insane gains only in the TCL chat! 🚀🚀  #btc #bnb #bhb #eth #tcl #francisthemotherfokinglegend",11,1
1377530835629436928,"2021-04-01T07:58:39Z","Swipe Ignition is coming to #SwipeSwap next week on both #BSC AND #ETH chains.   50% off spot for a $4m allocation of our next IWO ⚡️  Purchased in $SXP only  🔥 Full sale goes towards $SXP burn.   Restrictions apply.  Void where prohibited  Details: April 5th Launch:  April 9th https://t.co/DhWKYCTN9v",1393,394
1377530830545911808,"2021-04-01T07:58:37Z","RT @CryptoNekoZ: U know what happens to alts after $ETH hits ATHs.   We’ve been here before fam 🤝 https://t.co/DWT4ibyLk4",463,35
1377530828318781442,"2021-04-01T07:58:37Z","*GET YOURSELF A US PAYPAL ACCOUNT TODAY*  You'll Buy &amp; Sell Crypto (BTC,Eth,Litecoin) With it.  *You will be able to send and receive payments from any part of the world easily*  cost just #5,000  *Click Now to get yours* 👇🏽👇🏽  https://t.co/VQ9jyQ8NN9 https://t.co/5gKQapYoTe",102,99
1377530815295467520,"2021-04-01T07:58:34Z","Many people complain about selling low and having bad rates, some don't even know who to trust to sell thier Btc, Eth and giftcard to, i can relate cause I was once like this, but now I use https://t.co/KllJ1TQQW3 and since then i have been getting the best rate 🔥 #MybtcNigeria https://t.co/8AEg8RD2mR",52,55
1377530779127848963,"2021-04-01T07:58:25Z","Sold all my $bnb + $cake  Bought $eth + $sushi  Ethereum, I just like it because.... errmmm....  APRIL FOOLS 😆",276,21
1377530777475411977,"2021-04-01T07:58:25Z","*GET YOURSELF A US PAYPAL ACCOUNT TODAY*  You'll Buy &amp; Sell Crypto (BTC,Eth,Litecoin) With it.  *You will be able to send and receive payments from any part of the world easily*  cost just #5,000  *Click Now to get yours* 👇🏽👇🏽  https://t.co/VQ9jyQ8NN9 https://t.co/5gKQapYoTe",102,99
1377530777144066048,"2021-04-01T07:58:25Z","Many people complain about selling low and having bad rates, some don't even know who to trust to sell thier Btc, Eth and giftcard to, i can relate cause I was once like this, but now I use https://t.co/KllJ1TQQW3 and since then i have been getting the best rate 🔥 #MybtcNigeria https://t.co/8AEg8RD2mR",52,55
1377530771284623363,"2021-04-01T07:58:23Z","The Dawn of a new Era in crypto! @PaypoolF 🚀  #BTC #BSC #ETH #DOT #PaypoolFinance #Q2 #Roadmap #NotAprilFools https://t.co/3Xo6gEF0EU",0,0
1377530763491561472,"2021-04-01T07:58:21Z","I am pleased to announce today that with the support of our Board of Directors, @MartinVetterli and I will be #ChangingPlaces. He will run @ETH_en for a week and I will have the honor of directing @EPFL_en and a chance to brush up my French. https://t.co/Gc1NV60A9x",332,16
1377530760131878922,"2021-04-01T07:58:21Z","$STPT+128% SOON Right pointing backhand index Join Channel: https:https://t.co/Wm1ZKCNS63  $BTC $ETH #NFT $PERL $ENJ $FLOW $THETA #BSC  $REEF $LUNA $SAND $AXS $TVK $HOGE $CHZ $STX $ROSE $TROY $ONE $CERL $IRIS $ANC $ADA $DIA $XRP $DOGE $ATOM $LUNA $ZCX $BNB $WABI $LTO $CVC https://t.co/y2g9TwugGv",1,0
1377530757606998018,"2021-04-01T07:58:20Z","Many people complain about selling low and having bad rates, some don't even know who to trust to sell thier Btc, Eth and giftcard to, i can relate cause I was once like this, but now I use https://t.co/KllJ1TQQW3 and since then i have been getting the best rate 🔥 #MybtcNigeria https://t.co/8AEg8RD2mR",52,55
1377530755400753154,"2021-04-01T07:58:20Z","#ETH / #USDT touched the target within 900.0 seconds.  #Congratulations to our VIP #scalpers.  Join our telegram channel to make money continuously.  #cryptocurrency #Bitcoin #Binance #Altcoins",0,0
1377530751915151362,"2021-04-01T07:58:19Z","DCT TOKEN Airdrop Medium Star Claim 1 DCT ($ 100) + 0.045 DCT ($ 10) for each referral you make.   Steps  💎  Join channel and group  💎  Follow twitter, like and retweet pinned message   💎  Submit eth wallet address (ERC-20) Participate now Airdrop link: https://t.co/L24stp8tVI https://t.co/CVYQyLAWwU",8621,8870
1377530748614238213,"2021-04-01T07:58:18Z","🏆 Top Volume Leaders on https://t.co/qihXWjOcFK  What's your fav? 🔹 $BTC @Bitcoin  🔹 $FIL @Filecoin  🔹 $ETH @ethereum  🔹 $STORJ @storjproject  🔹 $DOT @Polkadot  🔹 #TRX  @Tronfoundation  🔹 $THETA  @Theta_Network",211,121
1377530738430513153,"2021-04-01T07:58:15Z","@itsLisa__ Taco's, Vodka and chocolate Eth...could make for an early, or ranty night.",0,0
1377530728976543744,"2021-04-01T07:58:13Z","RT @TheCryptoBomber: $EDDA SUPER RARE NFT just sold for 6.5 $ETH 🚀  AND IM GIVING AWAY AN $EDDA NFT!   CHECK MY TWITTER!",255,233
1377530724627017730,"2021-04-01T07:58:12Z","RT @TheCryptoBomber: $EDDA SUPER RARE NFT just sold for 6.5 $ETH 🚀  AND IM GIVING AWAY AN $EDDA NFT!   CHECK MY TWITTER!",255,233
1377530719388504064,"2021-04-01T07:58:11Z","Many people complain about selling low and having bad rates, some don't even know who to trust to sell thier Btc, Eth and giftcard to, i can relate cause I was once like this, but now I use https://t.co/KllJ1TQQW3 and since then i have been getting the best rate 🔥 #MybtcNigeria https://t.co/8AEg8RD2mR",52,55
1377530715047399432,"2021-04-01T07:58:10Z","Many people complain about selling low and having bad rates, some don't even know who to trust to sell thier Btc, Eth and giftcard to, i can relate cause I was once like this, but now I use https://t.co/KllJ1TQQW3 and since then i have been getting the best rate 🔥 #MybtcNigeria https://t.co/8AEg8RD2mR",52,55
1377530707778633728,"2021-04-01T07:58:08Z","Many people complain about selling low and having bad rates, some don't even know who to trust to sell thier Btc, Eth and giftcard to, i can relate cause I was once like this, but now I use https://t.co/KllJ1TQQW3 and since then i have been getting the best rate 🔥 #MybtcNigeria https://t.co/8AEg8RD2mR",52,55
1377530701088759809,"2021-04-01T07:58:07Z","@StackerSatoshi As u know already Teeka Tiwari’s next Trillion Dollar coin is Ethereum. He also said that as ETH grows the Altcoins build on Ethereum will also go up with the time. DeFi  🚀🚀🚀",0,0
1377530691404070914,"2021-04-01T07:58:04Z","*GET YOURSELF A US PAYPAL ACCOUNT TODAY*  You'll Buy &amp; Sell Crypto (BTC,Eth,Litecoin) With it.  *You will be able to send and receive payments from any part of the world easily*  cost just #5,000  *Click Now to get yours* 👇🏽👇🏽  https://t.co/VQ9jyQ8NN9 https://t.co/5gKQapYoTe",102,99
1377530663763591168,"2021-04-01T07:57:58Z","Many people complain about selling low and having bad rates, some don't even know who to trust to sell thier Btc, Eth and giftcard to, i can relate cause I was once like this, but now I use https://t.co/KllJ1TQQW3 and since then i have been getting the best rate 🔥 #MybtcNigeria https://t.co/8AEg8RD2mR",52,55
1377530661788073985,"2021-04-01T07:57:57Z","3:00 AM water chug.  Also just had a dream ETH is going to $4K.",4,0
1377530660844363778,"2021-04-01T07:57:57Z","Many people complain about selling low and having bad rates, some don't even know who to trust to sell thier Btc, Eth and giftcard to, i can relate cause I was once like this, but now I use https://t.co/KllJ1TQQW3 and since then i have been getting the best rate 🔥 #MybtcNigeria https://t.co/8AEg8RD2mR",52,55
1377530658508185603,"2021-04-01T07:57:56Z","Many people complain about selling low and having bad rates, some don't even know who to trust to sell thier Btc, Eth and giftcard to, i can relate cause I was once like this, but now I use https://t.co/KllJ1TQQW3 and since then i have been getting the best rate 🔥 #MybtcNigeria https://t.co/8AEg8RD2mR",52,55
1377530657031782401,"2021-04-01T07:57:56Z","RT @sploofeek: Who wants free ETH?",184,42
1377530650522226689,"2021-04-01T07:57:55Z","*GET YOURSELF A US PAYPAL ACCOUNT TODAY*  You'll Buy &amp; Sell Crypto (BTC,Eth,Litecoin) With it.  *You will be able to send and receive payments from any part of the world easily*  cost just #5,000  *Click Now to get yours* 👇🏽👇🏽  https://t.co/VQ9jyQ8NN9 https://t.co/5gKQapYoTe",102,99
1377530646503952386,"2021-04-01T07:57:54Z","I just bought a 2021 #Volkswagen Golf for .6 #BTC. Putting a #system in it, custom paint, and lights in the wheel wells for another .1 #BTC - also love soylent and high estrogen levels.  https://t.co/M20050W8xr #Cut_token #CATX #WETH #ETH",0,0
1377530646097190912,"2021-04-01T07:57:53Z","Congratulations to our winners! 🥳  @xtatc - will get a card to the wallet!  @probablynayem @BwenasAlas23 @Crypto_Junsei  @veronitab123  We will post a private offer of 0Ξ for you! Please reply with your eth address! https://t.co/2v4uMi6kH9",7,3
1377530639486906370,"2021-04-01T07:57:52Z","Within 3 weeks we got Chrysalis live on the #IOTA network. Which will trigger a whole lot of news and upgrades. Be sure to be educated before this. Could be the smartest thing you have ever done!   #Bitcoin #BTC #Ethereum #Tron #ETH #Litecoin #Bitcoincash #Chainlink #Cardano #ADA",171,38
1377530639159820288,"2021-04-01T07:57:52Z","A glimpse of our Roadmap at the dawn of this Q2  📲Wallet App Beta V1 🛒Private &amp; Public Sales 💠Multiple Wallet Pool 👥Referral System ⚡️$PPF Listing  Stay tuned for more  #BTC #BSC #ETH #DOT #PaypoolFinance #Q2 #Roadmap #NotAprilFools  Check our roadmap below 🔽 https://t.co/6eWeoHB8Aj",7,6
1377530636282511365,"2021-04-01T07:57:51Z","@dariaschooler @daniel_bilar @SIDN @sidnlabs @NetSec_ETH the roots of SCION can be found at CMU, I believe",0,0
1377530635024146432,"2021-04-01T07:57:51Z","@liquifiorg a new-gen AMM DEX on BSC and ETH 💣 Feature - solved price slippage and best exchange rates, even in small pools ⚖ Independent Audit - the main guarantor of your investment 📄✅ Check it out guys 🔽🔽🔽",0,0
1377530624882401280,"2021-04-01T07:57:48Z","*GET YOURSELF A US PAYPAL ACCOUNT TODAY*  You'll Buy &amp; Sell Crypto (BTC,Eth,Litecoin) With it.  *You will be able to send and receive payments from any part of the world easily*  cost just #5,000  *Click Now to get yours* 👇🏽👇🏽  https://t.co/VQ9jyQ8NN9 https://t.co/5gKQapYoTe",102,99
1377530616820985857,"2021-04-01T07:57:46Z","Single Mystic Axie #1268 was sold for 25 ETH ($47895.81). Buyer: 0xe38171..., seller: 0x3f86f1... 🔥 Congrats to the new owner! Tx: https://t.co/RV5udV9uxd #AxieInfinity #NFT #Ethereum #Play2Earn https://t.co/YwSJUwsP0u",58,13
1377530609225117698,"2021-04-01T07:57:45Z","Many people complain about selling low and having bad rates, some don't even know who to trust to sell thier Btc, Eth and giftcard to, i can relate cause I was once like this, but now I use https://t.co/KllJ1TQQW3 and since then i have been getting the best rate 🔥 #MybtcNigeria https://t.co/8AEg8RD2mR",52,55
1377530604552515586,"2021-04-01T07:57:44Z","$TRX+83% REBUY AT ENTRY 0.08$  Join Channel: https:https://t.co/Wm1ZKCNS63  $BTC $ETH #NFT $PERL $ENJ $FLOW $THETA #BSC  $REEF $LUNA $SAND $AXS $TVK $HOGE $CHZ $STX $ROSE $TROY $ONE $CERL $IRIS $ANC $ADA $DIA $XRP $DOGE $ATOM $LUNA $ZCX $BNB $WABI $LTO https://t.co/bOhvnTmh2p",1,0
1377530599854997504,"2021-04-01T07:57:42Z","Many people complain about selling low and having bad rates, some don't even know who to trust to sell thier Btc, Eth and giftcard to, i can relate cause I was once like this, but now I use https://t.co/KllJ1TQQW3 and since then i have been getting the best rate 🔥 #MybtcNigeria https://t.co/8AEg8RD2mR",52,55
1377530596923224064,"2021-04-01T07:57:42Z","@ThisisNFTs I'm drop this animation for just  0.05 eth  https://t.co/fN4le7YX65",0,0
1377530592502382592,"2021-04-01T07:57:41Z","Many people complain about selling low and having bad rates, some don't even know who to trust to sell thier Btc, Eth and giftcard to, i can relate cause I was once like this, but now I use https://t.co/KllJ1TQQW3 and since then i have been getting the best rate 🔥 #MybtcNigeria https://t.co/8AEg8RD2mR",52,55
1377530574852780032,"2021-04-01T07:57:36Z","@python_trade No no no, I had it thoroughly tested by the best shit connoisseurs in the world - that is, .eth crowd. It's all bull, no doubt.",1,0
1377530543328346113,"2021-04-01T07:57:29Z","Many people complain about selling low and having bad rates, some don't even know who to trust to sell thier Btc, Eth and giftcard to, i can relate cause I was once like this, but now I use https://t.co/KllJ1TQQW3 and since then i have been getting the best rate 🔥 #MybtcNigeria https://t.co/8AEg8RD2mR",52,55
1377530541143121921,"2021-04-01T07:57:28Z","Got 5 Foundation invites to giveaway! 🔥@withFND  Follow me Retweet this Reply with your work down below. I'll announce winners tomorrow at 9 (GMT+2) Bonus points if u are a collector #nft #nftart #nftartist #eth #FoundationInvite  #cryptoart #cryptoartist  #crypto #nftcommunity https://t.co/Ct155VtRNb",86,66
1377530532238553092,"2021-04-01T07:57:26Z","RT @TheCryptoBomber: $EDDA SUPER RARE NFT just sold for 6.5 $ETH 🚀  AND IM GIVING AWAY AN $EDDA NFT!   CHECK MY TWITTER!",255,233
1377530525016031237,"2021-04-01T07:57:25Z","Many people complain about selling low and having bad rates, some don't even know who to trust to sell thier Btc, Eth and giftcard to, i can relate cause I was once like this, but now I use https://t.co/KllJ1TQQW3 and since then i have been getting the best rate 🔥 #MybtcNigeria https://t.co/8AEg8RD2mR",52,55
1377530523254460416,"2021-04-01T07:57:24Z","Many people complain about selling low and having bad rates, some don't even know who to trust to sell thier Btc, Eth and giftcard to, i can relate cause I was once like this, but now I use https://t.co/KllJ1TQQW3 and since then i have been getting the best rate 🔥 #MybtcNigeria https://t.co/8AEg8RD2mR",52,55
1377530523137028103,"2021-04-01T07:57:24Z","💧Fly Amanita Airdrop 💧  🏆 Task:          ➕ $5 worth of FLY  👨‍👩‍👧 Referral:   ➕ $0.5 worth of FLY  🔛Airdrop Link &amp; Information: https://t.co/Teh5tZDNPE  #cryptocurrency #Crypto #Bitcoin #Ethereum #ETH #Airdrop #bounty #FlyAmanita #FLY",1469,1809
1377530516380000259,"2021-04-01T07:57:23Z","*GET YOURSELF A US PAYPAL ACCOUNT TODAY*  You'll Buy &amp; Sell Crypto (BTC,Eth,Litecoin) With it.  *You will be able to send and receive payments from any part of the world easily*  cost just #5,000  *Click Now to get yours* 👇🏽👇🏽  https://t.co/VQ9jyQ8NN9 https://t.co/5gKQapYoTe",102,99
1377530510600241154,"2021-04-01T07:57:21Z","RT @CarpeNoctom: $ETH looks really good here, no cap",426,25
1377530496016642055,"2021-04-01T07:57:18Z","When you go to sleep with $ETH making big steps and waking up with $link 10% up. Only thing you can ask yourself is : did you buy more in the dip?! Probably the answer is https://t.co/EBqI2XGPRY",1,0
1377530493760110592,"2021-04-01T07:57:17Z","Congratulations to our winners! 🥳  @xtatc - will get a card to the wallet!  @probablynayem @BwenasAlas23 @Crypto_Junsei  @veronitab123  We will post a private offer of 0Ξ for you! Please reply with your eth address! https://t.co/2v4uMi6kH9",7,3
1377530492292063234,"2021-04-01T07:57:17Z","📣Another really great market analysis of e-Money by @MartiniGuyYT on his Youtube channel 📚🙌🏻  👀  Next week we will deliver the much anticipated #ETH bridge &amp; @Uniswap listing 🚀  🎥 Video link 👉🏻  https://t.co/3aaDJF0Kda  $NGM @ethereum #NextGenerationMoney https://t.co/3fbL4x0aSL",114,30
