"ID","created_at","text","like_count","rt_count"
1375892872881397768,"2021-03-27T19:29:58Z","@udezejoshua @360_trader Swap eth for labs on Uniswap. Current price is about 0.12c. Ots not listed on exchanges yet. But will be listing soon. Just under 100mill market cap 👍",2,0
1375892869278531592,"2021-03-27T19:29:57Z","$ETH fighting with 1710$",0,0
1375892865377726467,"2021-03-27T19:29:56Z","@eyes_of_lamia @DisartoArt I have just a bit of eth, I think I'm gonna get it. You practically giving away such beautiful stuff haha.",2,0
1375892864467677189,"2021-03-27T19:29:56Z","📢Congrats！First launch on Uniswap！ 🚀USDT-NFTs trading pair is live！ 🚀The contract address:  0x6599fc3e77cbfa6f6e9cac605a30b1e78827eba0  💰Hold more NFTs, be richer！  🌸Like、Retweet &amp; Tag 3 friends  🚀Select 10 addresses to airdrop 1,000,000 NFTs, leave wallet #ETH address https://t.co/Slor4FBQzP",2942,0
1375892854200004612,"2021-03-27T19:29:53Z","@majinsayan The slave finance deal the .eth’s did on bsc should have been a pretty decent indicator of that",1,0
1375892850035077120,"2021-03-27T19:29:52Z","RT @thelegionx_: 24 HOURS LEFT!  Current bid is 0.15 ETH from @PHILOUFTAB   Go check “APOLO” on @withFND  https://t.co/sJbLn9ecHf #nft #nft…",30,0
1375892841214451723,"2021-03-27T19:29:50Z","is it ETH tho?",0,0
1375892834935443459,"2021-03-27T19:29:49Z","🌋#ATD #Giveaway is on now! @a2dao_ 🌋  10 lucky users will receive $30 each in #ATD ✨  1️⃣Login &amp; Participate ☀️ https://t.co/wrbe0JlJuK   2️⃣Retweet and @ a friend  #DeFi #crypto #ALTSEASON #ETH #NFT https://t.co/oq0O5RbPbj",307,0
1375892831416553472,"2021-03-27T19:29:48Z","Yari Verschaeren bought for 0.299 ETH (511.56$) on the secondary market   Season: 2019-2020 Level: 7 Serial: 31/100 Price: 511.56$  ⚽ Sorare: https://t.co/iWiZcqtsWf  📊: https://t.co/JKwPswnRwO  #Sorare #NFT #Ethereum #FantasyFootball",0,0
1375892827318718465,"2021-03-27T19:29:47Z","@WabisuCollector I'm The ANT (Ancient) #NFT Creator on #rarible . Get my first 1/1 NFT.  Be first to grab it and get 100cm x 70cm canvas.  Price: 20 ETH  All #NFTs are based on Animals Some of the profits will be to help Some Animals where i can. Blesses from The ANT https://t.co/ghvLl67QNk",0,0
1375892824890167296,"2021-03-27T19:29:46Z","New #NFT drawing : #sexy NFTgirl Only 0,08 ETH #nftart #NFTCommunity #nftcollectors #picoftheday  https://t.co/PYU7LQWqUs",6,3
1375892821853503497,"2021-03-27T19:29:46Z","Updated the $ETH OG foundation members who have created their own blockchains.   $LYXe is gaining a bit of ground, but still so far to go.  $ETH $ADA $DOT $LYX https://t.co/ZbNl8g0178",71,3
1375892821169831937,"2021-03-27T19:29:46Z","@The_Ethusiast CyberRexes is a set of 10.000 unique 1/1 Rexes. No more can ever be created. Price 0.01 ETH  You can mint yours at our website https://t.co/IOjL6qNx7K https://t.co/jrkw3SF4XK",0,0
1375892817701007361,"2021-03-27T19:29:45Z","$eth please 😔",0,0
1375892817029918720,"2021-03-27T19:29:45Z","Another achievement:  ✅ 1,000 holders of the $VNLA token!  Incredible achievement, we’re so thankful for everyone whose got behind the Vanilla Movement  It’s still so early. Team will not stop until we disrupt the archaic betting industry with Blockchain technology.  $ETH $MATIC",48,0
1375892809891332101,"2021-03-27T19:29:43Z","ANNOUCEMENT  REMIX INITIAL ROUND 1 - PRESALE   ⚡️TOKEN Bonus = 10% 🙍🏽‍♂️Referral Bonus = 5% 💰Payment Methods: BNB, USDT, ETH  Visit https://t.co/HUHdctVVSm to Enter PRESALE ROUND 1  ➡️ PRESALE ROUND 1 ends on 20th March 2021 15:00(UTC) #presale #rmx #remix #BinanceSmartChain #BSC https://t.co/dPz6FNVPGI",926,0
1375892806242213894,"2021-03-27T19:29:42Z","@SatoshiiHeavy I wish btc btc moved today while eth didnt and btc cme gap at 54k ( btc been respecting the gap since beginning of the year ).",1,0
1375892794405888003,"2021-03-27T19:29:39Z","$kava  buy call was shared in premium group at 9000 sats after it broke the downtrend in $btc pair😉👍  20% up since then and looking good to go up more till Mar 31  $eth $ankr $storj $celr $fet $ast $wabi https://t.co/UE5pjVEfGY",7,2
1375892781923635201,"2021-03-27T19:29:36Z","🌋#ATD #Giveaway is on now! @a2dao_ 🌋  10 lucky users will receive $30 each in #ATD ✨  1️⃣Login &amp; Participate ☀️ https://t.co/wrbe0JlJuK   2️⃣Retweet and @ a friend  #DeFi #crypto #ALTSEASON #ETH #NFT https://t.co/oq0O5RbPbj",307,2
1375892772608212998,"2021-03-27T19:29:34Z","RT @CryptoJesusNFT: $ETH is cheap.  Why this Guy is still available?  🤔🤔🤔 https://t.co/mQX9wIIPKY",2,2
1375892766689988616,"2021-03-27T19:29:33Z","Join the African Global Hub where members from all over the world get educated, empowered and enlightened through #Cryptocurrency and #Blockchain tech. Crypto party tonight by 8pm GMT+1.   Venue: https://t.co/HpoYB8n5vi  #telokanda $kanda #kanda #telos #tlos #btc #eth #giveaway https://t.co/E9GuOZwnX8",15,2
1375892765301694468,"2021-03-27T19:29:32Z","How much #Holochain $HOT are you holding? Like and retweet if you 50,000+.  #Holo #Hot  #cryptocurrency #Crypto #HoloFuel #bitcoin #btc #Ethereum #blockchain #eth #currency #xrp #trading #altcoin #ripple #binance #CryptoNews #Holoarmy",20,2
1375892752618172421,"2021-03-27T19:29:29Z","30 day EVIX: 86.5020 ETH/USD vwap: $1,704.95 04/16 expiry volume: $1,736,588.18 04/30 expiry volume: $6,341,396.48 Current time: 19:29:05",0,0
1375892752022441985,"2021-03-27T19:29:29Z","@ZssBecker The amount of Eth I had to pay for my thicc Pokemon was mid priced escort status",16,0
1375892748289593347,"2021-03-27T19:29:28Z","RT @TromacPineapple: imagine you get ya ass beat, niggas record it, turn the video into a NFT and make 30 ETH off that shit",29,0
1375892748000055296,"2021-03-27T19:29:28Z","@davidgokhshtein #hex! Stake it for 15 years! you can come back to me in 5 years and I’ll return you 2 eth,  double this current market amount. If its 1.7K today will give you back 3.4K! deal? 🤣🤣🤣",5,0
1375892746964205575,"2021-03-27T19:29:28Z","Bitcoin and Ethereum Take The Lead As Bears Fade Away https://t.co/liG5QBiMDk $BTC $ETH $ADA $LTC",0,0
1375892735094317062,"2021-03-27T19:29:25Z","$ETH  If the daily candle closes above 2k, it will easily cross 2500$ mark. Keep an eye on it.  Checkout the link in bio for crypto signals  $IDEX #bitcoin $DOT $VIDT $RSR $CRV 16066 https://t.co/1CS638VVXi",0,0
1375892733940756485,"2021-03-27T19:29:25Z","🔥New Listing @a2dao_ 🔥  #ATD trading will be enabled on https://t.co/8kWqgEeplL 😎  👉Trade: https://t.co/ExhZLJsBuu 👉Details: https://t.co/wHKyoIXPWV  #DeFi #crypto #ALTSEASON #ETH #NFT https://t.co/UjKmwZhqea",256,0
1375892731860488194,"2021-03-27T19:29:24Z","*** GIVEAWAY ***  LIKE 👍 and RETWEET 🔁 this tweet for a chance to win a huge, fat altseason with green candles that will blow you away! $BTC $ETH $LINK $ADA $VET https://t.co/3SlSYcLS7c",480,0
1375892729679384578,"2021-03-27T19:29:24Z","🔥New Listing @a2dao_ 🔥  #ATD trading will be enabled on https://t.co/8kWqgEeplL 😎  👉Trade: https://t.co/ExhZLJsBuu 👉Details: https://t.co/wHKyoIXPWV  #DeFi #crypto #ALTSEASON #ETH #NFT https://t.co/UjKmwZhqea",256,0
1375892729104752642,"2021-03-27T19:29:24Z","@stakedTokens @NSapProductions @knowcryptoshow @Bergh44 @IgorBerezin3 @MikaelMleczko @joaoenmanuel @Elvismarq2712 @ruth89248428 @bmt0011 @leaze @MrMasternode @nilesmomma @kstellana @Quantstamp Follow that guide and obtain some Test $ETH from a faucet. Then you can swap for $stDivi and if you are feeling really ambitious you can add some liquidity to the Test pool. Have you tried this yet?   13/",47,0
1375892720053583883,"2021-03-27T19:29:21Z","And I've been outbid - congratulations @1030! Hope it gets up to 10.30 ETH for you 🤞😋  https://t.co/QGcOr8YGPA",3,0
1375892715091722244,"2021-03-27T19:29:20Z","Join our airdrop and Earn 400 TKM and additional 40 TKM for every Referral  https://t.co/h6oyRpmJoh  #airdrop #tkm #crypto #eth https://t.co/7i0hyv5LE5",8468,0
1375892707437019138,"2021-03-27T19:29:18Z","🔸 New Listing🔸   #BKEX will list #BRG @bridge_oracle🚀 🚀  - Trading pair: BRG/USDT - Trading time: 15:00 on Mar 29 (UTC+8)  🔹 🔹 More details: https://t.co/raIy9u7xzE  #Bitcoin #ETH #BKK #Blockchain https://t.co/WIj8dUbO9O",147,0
1375892705587433472,"2021-03-27T19:29:18Z","$DOGE 🚀 🙏AVAILABLE | #17 DOGE🙏  🔥Go and check him and the rest of the ⛪️Holy Order⛪️ before they sell! 🔥  👉Only 0.05 $ETH  https://t.co/d5JJNAtGzp  #NFT #NFTCommunity   🙏I will pray for the new Owner! 🙏 https://t.co/FpypUSWuWk",4,0
1375892702835974147,"2021-03-27T19:29:17Z","If you haven’t already check out $ICX as it is still early for #ICON in this bull run.. Lots of things coming up:  ✅Defi  ✅Interoperability  ✅NFT ✅Usage by certain parts of S Korean Government   $BTC $ETH $DOT $NEO $LINK $ADA $XRP $AAVE",33,0
1375892694074077184,"2021-03-27T19:29:15Z","Théo Defourny bought for 0.262 ETH (448.26$) by mcorvee37 on the primary market   Season: 2020-2021 Level: 0 Serial: 67/100 Price: 448.26$  ⚽ Sorare: https://t.co/UXyYqp1pmP  📊: https://t.co/YxEvUo0CSY  #Sorare #NFT #Ethereum #FantasyFootball",0,0
1375892691007995905,"2021-03-27T19:29:15Z","@buchara97 CyberRexes is a set of 10.000 unique 1/1 Rexes. No more can ever be created. Price 0.01 ETH  You can mint yours at our website https://t.co/IOjL6qNx7K https://t.co/VS25lTg7oq",4,1
1375892686952132608,"2021-03-27T19:29:14Z","🚀 #Airdrop: #Rewardiqa 💰 #Value: $ 236 👥 #Referral: $ 78 💸 15 + 5 REW ⏰ 2 minutes  AirDrop Link 👉 https://t.co/aACm0BzAjD  1. Retweet + Like #CTBot Adrop Ram 1 TRX 80 #btc #eth #BinanceSmartChain  #altcoins #bnb #free #bonus #defi #cake #NFT #ADA #Crypto #money https://t.co/tV7X3txt9y",49,1
1375892660922281994,"2021-03-27T19:29:07Z","Awesome interview and insight into the @terra_money  Ecosystem and the evolving space as well as some upcoming things that are being worked on with @mirror_protocol  and @anchor_protocol. $ANC is going to be huge!   $LUNA $MIR $ANC #Terra #ETH https://t.co/9MT5BLrJQ4",26,1
1375892660288942080,"2021-03-27T19:29:07Z","Can’t wait until Wall Street figures out that #Cardano has 3-5 minute settlement times while #Algorand has 5-10 second settlement times. $algo $ada $eth $hbar $vet $btc",42,1
1375892659894620167,"2021-03-27T19:29:07Z","🚀 Pluto Coin  Airdrop 🚀 Rate: ⭐⭐⭐⭐ ⭐ 🎁 Reward:  8822 PLUT ($1500) 👫 Referral: 40.5 PLUT  ($7)  🤖Start Bot here   https://t.co/x5JZchojO8  ⛂ Join Telegram group and channel. ⛂ Follow twitter &amp; retweet  ⛂ Submit ETH address and details.",6005,1
1375892654039392258,"2021-03-27T19:29:06Z","@millennialgen8 @depression2019 Yes because BTC has smart contracts 🤭. The point is: no innovation. ETH made lots of innovations that led to DeFi, NFTs etc",0,0
1375892649144639488,"2021-03-27T19:29:05Z","@canaksupsd Sit back, relax and enjoy the show  1/1 Edition High Resolution - 2160x2160px 60FPS Loop  https://t.co/yx8QyIJJrR https://t.co/opAg4l29Sr",3,0
1375892641355816965,"2021-03-27T19:29:03Z","🚀City🚀 SOLD for 4.2 ETH on OpenSea! Great buy but they would have been better waiting for the @jurassicasylum drop  Check out the transaction: https://t.co/LN3iOEaho7 #JurassicAsylum #NFT #NFTartist #cryptoart #NFTCommunity https://t.co/6z8v6jCEGv",0,0
1375892641158721537,"2021-03-27T19:29:03Z","*** GIVEAWAY ***  LIKE 👍 and RETWEET 🔁 this tweet for a chance to win a huge, fat altseason with green candles that will blow you away! $BTC $ETH $LINK $ADA $VET https://t.co/3SlSYcLS7c",480,0
1375892635295055875,"2021-03-27T19:29:01Z","@cryptopunksbot buyer snap re-lists for 29.99 eth. talk about tapping glass...",1,0
1375892635093757955,"2021-03-27T19:29:01Z","A key Ethereum signal you should know about https://t.co/rkqiMVmJno $ETH",0,0
1375892632157708301,"2021-03-27T19:29:01Z","@nftartistss mineral ohm 1.1 (0.5 Eth) is my Genesis piece for @KnownOrigin_io. it is a generative piece created with code utilizing correlated noise interacting with nested trigonometric functions. edition 1/1.   https://t.co/kcfpr9sHBk https://t.co/mc7tOIxFoX",0,0
1375892628839964674,"2021-03-27T19:29:00Z","CryptoWorm #0043 is now minted on the ETH blockchain via opensea 💛💚  PRICE:  Ξ0.01  TOTAL SUPPLY: 1000  #cryptopunks #nftART #NFTs #NFTCommunity  https://t.co/PtJA0kGCxK",3,1
1375892628324159495,"2021-03-27T19:29:00Z","Join our airdrop and Earn 400 TKM and additional 40 TKM for every Referral  https://t.co/h6oyRpmJoh  #airdrop #tkm #crypto #eth https://t.co/7i0hyv5LE5",8468,1
1375892625115512837,"2021-03-27T19:28:59Z","@barkersbags CyberRexes is a set of 10.000 unique 1/1 Rexes. No more can ever be created. Price 0.01 ETH  You can mint yours at our website https://t.co/IOjL6qNx7K https://t.co/Vgqzb7598t",2,0
1375892623165173760,"2021-03-27T19:28:58Z","@latokens @SmartTradeCoin I'm The ANT (Ancient) #NFT Creator on #rarible . Get my first 1/1 NFT.  Be first to grab it and get 100cm x 70cm canvas.  Price: 20 ETH  All #NFTs are based on Animals Some of the profits will be to help Some Animals where i can. Blesses from The ANT https://t.co/ghvLl67QNk",1,1
1375892621156085765,"2021-03-27T19:28:58Z","https://t.co/bUmm9D9yd0  - will accept any eth offer that starts with a .3 today....reduced the list price just now also.....and on Sunday I will gift this to a friend if no takers...cheers.",5,0
1375892618618540033,"2021-03-27T19:28:57Z","An Astrocat for AstroWorlDefi 😂 Love it ❤️ @renftlabs   $RENFT $ETH $NFT https://t.co/YnlsJf1LR3",4,1
1375892599886712837,"2021-03-27T19:28:53Z","$POODL AND $HOGE IS COMING FOR YOU $DOGE  $GRUMPY  #bitcoin #btc #cryptocurrency #price #blockchain #time #crypto #money #news #coinbase #usd #buying #eth #ada",96,1
1375892596153847817,"2021-03-27T19:28:52Z","#NFTcommunity let's help rising talent grow! She just lowered the price to 0.12 ETH just to make a low, but very helpful start! @BelanovaJul started drawing digital pieces and it's just magical! Make sure you check her artworks out!  #nftcollector #nft  https://t.co/Glt5do5nuR",5,2
1375892595109416960,"2021-03-27T19:28:52Z","No need to spend your own money to trade #cryptocurrency. Over 10K users won crypto rewards on @latokens last week. It's the best way to join the financial revolution. Start by earning a share of $100K in CLIQ airdrop: https://t.co/MCjkFRoaV6 #Bitcoin #ETH #Citi #AON #LATOKEN",0,0
1375892591884046339,"2021-03-27T19:28:51Z","If all you do is talk about BTC and ETH, you will have a hard time in crypto",0,0
1375892582002200579,"2021-03-27T19:28:49Z","$COVAL @circuitsofvalue #coval #ETH @0xPolygon @DarkBuild1 @kucoincom @Bitcoin #NFT #Binance  #BinanceSmartChain    #Polygon @gate_io @DefiOracle @CryptoSlimer @gem_insider https://t.co/bnlNQGEBSO",11,0
1375892547013337090,"2021-03-27T19:28:40Z","$Kin is #9 on Top Growing in Finance and Buisiness!  https://t.co/jHWLSGM7Gh  https://t.co/MYkff6519H https://t.co/eIkW4dVLKk  #Kin #NFTs #DeFi #btc #bitcoin #solana #bch #usd #xrp #eth #price #crypto #ltc #fintech #blockchain #buythedip https://t.co/hMn3f3mPlj",68,0
1375892545989971977,"2021-03-27T19:28:40Z","OMG! The reserve price on Journey was met by the awesome @eligh 💖💖💖 Current bid 0.35 ETH 23 hours to go!  https://t.co/9zgX1tPK2v  #nftcollector #nftcollectors #NFTs #NFTCommunity https://t.co/BYaR6bWxmh",60,0
1375892543343374339,"2021-03-27T19:28:39Z","@PennyMcStacks CyberRexes is a set of 10.000 unique 1/1 Rexes. No more can ever be created. Price 0.01 ETH  You can mint yours at our website https://t.co/IOjL6qNx7K https://t.co/kLQLK9QTnj",1,0
1375892542135341056,"2021-03-27T19:28:39Z","🐩🐩 Everything $POODL has achieved in 13  days!!💪🏻 We will not stop, full steam ahead and we welcome anyone to join our great community!👋🏻🤝 $DOGE $HOGE $TOSA $SAFE $BTC $BNB $ETH $XRP $PAC $PIPI $FOX $KONG $ADA https://t.co/YRPkuKut0Q",54,0
1375892531993513986,"2021-03-27T19:28:37Z","Show me your NFTs! 🤗  I'm ready to buy and add to my collection all day! 🌈  So show me yours with a short description below! 🚀  #NFT #nftcollectors #ETH #nftcollector",304,0
1375892529581850625,"2021-03-27T19:28:36Z","@binance $btc $pac $eth",0,0
1375892518559223811,"2021-03-27T19:28:33Z","Top 30 Trending Searches on @coingecko from 20 - 26 Mar 2021.  Welcome newcomers: @ecomi_ @VesperFi @dentcoin @PundiXLabs @UniMex_Network @bittorrent  $OMI $VSP $DENT $NPXS $UMX $BTT $BTC $ETH $SUPER $MATIC $CAKE $ERN $CHAIN $SPI $ONE $CHZ $OVR $RAMP $THETA $AUDIO $COTI $CFI https://t.co/YKXdN5bvw6",784,0
1375892511298838528,"2021-03-27T19:28:32Z",".@Cardano is the only #crypto to see green today in the top ten and has overtaken @Binance to third.   Will it stay like this till the end of February? or more twists and turns?  Stay up to date with the live markets here - https://t.co/7AXyIsiM7a  $ADA $BNB $BTC $ETH $DOT $USDT https://t.co/yGcFVd6qpC",522,0
1375892508371255301,"2021-03-27T19:28:31Z","How much #Holochain $HOT are you holding? Like and retweet if you 50,000+.  #Holo #Hot  #cryptocurrency #Crypto #HoloFuel #bitcoin #btc #Ethereum #blockchain #eth #currency #xrp #trading #altcoin #ripple #binance #CryptoNews #Holoarmy",20,0
1375892485642219520,"2021-03-27T19:28:26Z","RT @scoinaldo: $BTC popping.  $ETH &amp; alts popping even harder.  If you know what I mean 😏",1371,0
1375892484652433414,"2021-03-27T19:28:25Z","Hey! For this week I have already bought CryptoArts for 4 ETH, but this is not enough !? Offer me your art: 1. Follow me 2. Like and retweet 3. Leave your art in the comment!  #nft #defi #NFTs #NFTartist #nftart #cryptoart #nftcollectors #nftcollector #Ethereum #bitcoin #crypto https://t.co/3HYNtONY8A",602,0
1375892481351516162,"2021-03-27T19:28:25Z","@abduzeedo @ATOMICBUZZzz Hi there!  All my items are 0.01 ETH https://t.co/XcRDvLSfRt",1,1
1375892481041068032,"2021-03-27T19:28:24Z","RT @SatoshiiHeavy: #ETH looks good 😏👀",43,1
1375892476460990465,"2021-03-27T19:28:23Z","🔄 Prices update in $USD (1 hour):  $BTC - 55765.9 $  (-0.09 %) $ETH - 1705.61 $  (-0.06 %) $DOT - 32.41 $    (+0.45 %) $ADA - 1.18 $     (+0.03 %)  #BTC #ETH #DOT #ADA #Crypto #Bitcoin",1,0
1375892476347641857,"2021-03-27T19:28:23Z","🔥New Listing @a2dao_ 🔥  #ATD trading will be enabled on https://t.co/8kWqgEeplL 😎  👉Trade: https://t.co/ExhZLJsBuu 👉Details: https://t.co/wHKyoIXPWV  #DeFi #crypto #ALTSEASON #ETH #NFT https://t.co/UjKmwZhqea",256,0
1375892470836387850,"2021-03-27T19:28:22Z","new listing obvs ETH",0,0
1375892468256899074,"2021-03-27T19:28:21Z","🔥 New #NFTs art available on @rariblecom 🔥  Diamond Hands  #Ethereum #ETH  #NFT   Discover it here 👇 https://t.co/Ur901dKF9k https://t.co/doGogXRdVq",69,0
1375892453199331335,"2021-03-27T19:28:18Z","If you’re looking for somewhere to invest and make x100-x500 in a week. $POODL is at an amazing point to buy in! $POODL is special offer at the moment and it will not last! Get in before it’s too late!💪🏻🚀 $DOGE $TOSA $HOGE $KONG $PIPI $SAFE $BTC $ETH $FOX $ADA $XRP $HHOG https://t.co/QAcrV6JGs2",97,0
1375892445632815104,"2021-03-27T19:28:16Z","The DEX @FinanceChainge is set to launch on the @FUSIONProtocol network with over a million users on the protocols waitlist. This decentralized exchange aims to innovate on traditional models through leveraging the Fusion Network.  #BSC #BTC #ETH #BNB  https://t.co/xx55YiGfm3",21658,0
1375892445494456326,"2021-03-27T19:28:16Z","Looking to buy #NFTs under 300 ETH!   #NFTartist If you have any works for sale:  1. Follow me 2. Like and retweet 3. Leave your art in the comments!  #nft #defi #NFTs #NFTartist #nftart #cryptoart #nftcollectors #nftcollector #Ethereum #bitcoin #crypto https://t.co/3h0VJsicZV",101,0
1375892440352182274,"2021-03-27T19:28:15Z","Hi @Exeedme @Poolz__ @bepronet   What do you think about we organise  a pool Crypto party all together on #tacoswap   Join us : https://t.co/3GeT48f0tm  #crypto #defi #dex #eth #tacoswaptothemoon #tacotoken🌶",1218,0
1375892439534305285,"2021-03-27T19:28:15Z","Win Degenasaur #042 #NFT worth ETH! --&gt; https://t.co/l37pUrR6Y3   1.) RT this tweet   2.) Follow @degenasaurus  3.) Comment + tag 3 friends  OPTIONAL extra chance to Win! -&gt; 4.) Join discord post username twitter comp: https://t.co/Ewmuzju2wL  4.) Win randomly Sat 3rd April! https://t.co/eyLZUL4bFz",306,0
1375892437298774016,"2021-03-27T19:28:14Z","If you’re looking for somewhere to invest and make x100-x500 in a week. $POODL is at an amazing point to buy in! $POODL is special offer at the moment and it will not last! Get in before it’s too late!💪🏻🚀 $DOGE $TOSA $HOGE $KONG $PIPI $SAFE $BTC $ETH $FOX $ADA $XRP $HHOG https://t.co/QAcrV6JGs2",97,0
1375892433809125379,"2021-03-27T19:28:13Z","Join the @Holdefi community in HLD public sale!  #HLD #Holdefi #ETH #BSC #IDO #ICO 👇👇 https://t.co/J98paKtPzt",0,0
1375892422211821571,"2021-03-27T19:28:10Z","Join our airdrop and Earn 400 TKM and additional 40 TKM for every Referral  https://t.co/h6oyRpmJoh  #airdrop #tkm #crypto #eth https://t.co/7i0hyv5LE5",8468,0
1375892419904950280,"2021-03-27T19:28:10Z","@bake_eth  and I are the only two people who have seen most of the submissions for the first themed collection of #HarmonyAndDiscord, Cybercats.  He's harder to please than I am(classically trained) but we both said we would personally buy from these collections. 🐳🌊🐂🌙🎯🌋🕯️",2,0
1375892419619737600,"2021-03-27T19:28:10Z","You don't hear me shilling a lot (lately). Because I value quality over quantity.  Also, if I see something shilled already.. I tend to not jump on the bandwagon, because I know you're already aware of those projects.  A few solid HODL's: $ETH $ICX $INV $eQUAD #API3 $ORAI $LINK",52,13
1375892418713686019,"2021-03-27T19:28:10Z","We are hiring! Senior Lecturer at ETH NADEL - Center for Development and Cooperation, 80%, starting September 2021. To find out more about the position and how to apply, please visit https://t.co/ViJqOxKJOx #internationalcooperation #development #teaching #opportunity https://t.co/GLhXalzmgP",16,13
1375892418067857409,"2021-03-27T19:28:09Z","🐩🐩 Everything $POODL has achieved in 13  days!!💪🏻 We will not stop, full steam ahead and we welcome anyone to join our great community!👋🏻🤝 $DOGE $HOGE $TOSA $SAFE $BTC $BNB $ETH $XRP $PAC $PIPI $FOX $KONG $ADA https://t.co/YRPkuKut0Q",54,13
1375892403752742914,"2021-03-27T19:28:06Z","Ripple XRP - Get Your Popcorn Ready! It's ShowTime! XRP Pumping up 13%!   SEC Is In Big Trouble! We want to see the documents! 40k search results hits on BTC and ETH!  https://t.co/RMORdMnd2V https://t.co/swlrUkNMUu",174,13
1375892402054004737,"2021-03-27T19:28:06Z","Just received another bid on 'Green Oasis' 🌴💚 Current bid is 0.55 ETH by dolats 🙏 1 more hour till the auction ends!   https://t.co/7yWvGfqccV https://t.co/IRlkxkb7fD",27,2
1375892399566688259,"2021-03-27T19:28:05Z","Okay, who needs an NFT sale today? 💵  Link me to your NFTs or collections! ➡️  I'll be buying 5 pieces today with this budget!  #nftcollector #NFTcollectibles #nftartists #eth #NFTs https://t.co/7R4O1M1u0d",224,2
1375892393677963269,"2021-03-27T19:28:04Z","Mark W. Yusko, CEO of Morgan Creek Capital Management, believes you should own $VET.  Follow the smart money 💰  #VeChain $VET #VeFam $BTC $ETH $ADA $XRP $XLM $DOGE  $DOT $LINK $THETA $AAVE https://t.co/AoJvSiDeQy",224,2
1375892392251899909,"2021-03-27T19:28:03Z","If you haven’t already check out $ICX as it is still early for #ICON in this bull run.. Lots of things coming up:  ✅Defi  ✅Interoperability  ✅NFT ✅Usage by certain parts of S Korean Government   $BTC $ETH $DOT $NEO $LINK $ADA $XRP $AAVE",33,2
1375892390054092801,"2021-03-27T19:28:03Z","$POODL AND $HOGE IS COMING FOR YOU $DOGE  $GRUMPY  #bitcoin #btc #cryptocurrency #price #blockchain #time #crypto #money #news #coinbase #usd #buying #eth #ada https://t.co/o6CUySASBH",7,2
1375892388720218112,"2021-03-27T19:28:02Z","Top 10 Coins Mentioned on Twitter Last Week 📣  $BTC 1,751,412 $ETH 267,287 $DOGE 200,050 $CAKE 152,555 $ADA 149,907 $CHZ 78,208 $LINK 71,556 $POLS 59,075 $KLV 52,392 $XRP 48,110 https://t.co/YOrRjJaYhn",99,2
1375892385142554627,"2021-03-27T19:28:02Z","1 Bitcoin ( #BTC ) Dollar: 55,837.03$   1 Bitcoin Cash ( #BCH ) Dollar: 5,00.09$   1 Ethereum ( #ETH ) Dollar: 1,706.31$   1 Ripple ( #XRP ) Dollar: 0.55513$   Date: 27 Mar 2021 19:27  #Bitcoin #Ethereum #cryptocurrency #crypto #altcoin #Blockchain #Ripple",0,2
1375892383250923534,"2021-03-27T19:28:01Z","RT @holdefi: At last but not least, It is Public Time 😎🥳  #HLD #DeFi #BSC #ETH #publicsale   https://t.co/12bHllXEx9",130,2
1375892378251321345,"2021-03-27T19:28:00Z","1 Bitcoin ( #BTC ) Dollar: 55,837.03$   1 Bitcoin Cash ( #BCH ) Dollar: 5,00.09$   1 Ethereum ( #ETH ) Dollar: 1,706.31$   1 Ripple ( #XRP ) Dollar: 0.55513$   Date: 27 Mar 2021 19:27  #Bitcoin #Ethereum #cryptocurrency #crypto #altcoin #Blockchain #Ripple",0,1
