"ID","created_at","text","like_count","rt_count"
1377742560056123393,"2021-04-01T21:59:58Z","Glad to announce that @BitKeepOS  reached a strategic Partnership with @JustLiquidity @JulSwap .  Julswap is the first @BinanceChain  Dex fully integrated and deployed in Bitkeep Wallet.  User can now trade,track,favorite Julswap pairs.  #julswap #juld #julb #bnb #BSC #btc #eth https://t.co/nvEpaZd4tn",1298,817
1377742558886035460,"2021-04-01T21:59:57Z","RT @jackbutcher: Reply🪙 &amp; RT to scratch.  (Winner will need an ETH wallet) https://t.co/A47BDcJpVd",651,836
1377742553068486663,"2021-04-01T21:59:56Z","3 items for sale .01 ETH @ 6PM on   1 Auction item @ 9PM est on @opensea   Retweet Prize - EVERY RETWEET today generates one ticket :)  See details below! This is an major collaboration with the iconic artist @murdabeatz_  and will easily become an extremely scarce collectible",223,396
1377742541064298497,"2021-04-01T21:59:53Z","💧Bitcoin Asset Airdrop💧  🏆 Task:          ➕ 1 BTA   🔛  Airdrop Link &amp; Information: https://t.co/WSXvQoY5Kb  #cryptocurrency #Crypto #Bitcoin  #BSC #BinanceSmartChain #Ethereum #ETH #Airdrop #bounty #BitcoinAsset #BTA",1227,1544
1377742533690847234,"2021-04-01T21:59:51Z","Please bastard $btc just chill - we will bring those gains back to you. Let out bags of alts now outperform 100X. Fanks. $eth $grt $nu $skl $dnt $matic $etal https://t.co/tOCNtMElzO",4,1
1377742531765624838,"2021-04-01T21:59:51Z","The first set of Ahegao NFTs sold out in a week, so I've been working on some more which are now live at https://t.co/MAOPR2F1DH  #pixel_dailies #nft #NFTs #nftart #nftartist #crypto #blockchain #eth #ethereum #digitalart #art #value #nftcollector #hentai #ahegao https://t.co/YWPHtqTMQv",78,704
1377742527940464641,"2021-04-01T21:59:50Z","@robojoebot CyberRexes is a set of 10.000 unique 1/1 Rexes with different levels of rarity.   Price 0.01 ETH   Each Rex can be assigned a unique name by the buyer for additional scarcity.  Mint yours at our website: ( limit 20 per tx ) https://t.co/IOjL6qNx7K https://t.co/vMNUz6wdMj",0,0
1377742523767025666,"2021-04-01T21:59:49Z","@ahcastor Tesla&amp;Sailor bought, PayPal is kind of in...  Eth runs,Tether runs, pretty much all the scams are doing great... when would it be appropriate to suggest we don't need to be burning 1 Sweden watts of electricity to stay censorship resistant.. when nobody seems to want to censor?",2,0
1377742521707589635,"2021-04-01T21:59:49Z","💧YetuBit Airdrop 2nd Round💧  🏆 Task:          ➕  25 YETU (~$20)  👨‍👩‍👧 Referral:   ➕  5 YETU (~$4)  🔛  Airdrop Link &amp; Information: https://t.co/ZoGw3AR71I  #cryptocurrency #Crypto #Bitcoin  #BSC #BinanceSmartChain #Ethereum #ETH #Airdrop #bounty #YetuBit #YetuSwap #YETU",4424,5628
1377742516695531520,"2021-04-01T21:59:47Z","RT @LilMoonLambo: BREAKING: Coinbase is expected to go public on April 14th   Are you guys ready for $BTC and $ETH all time highs? https://…",2748,503
1377742502799753218,"2021-04-01T21:59:44Z","$ETH  If the daily candle closes above 2k, it will easily cross 2500$ mark. Keep an eye on it.  Checkout the link in bio for crypto signals  $OCEAN $SXP #bitcoin $SNX $TOMO $WAVES 1047 https://t.co/sCvaj9Ualp",1,0
1377742500765573120,"2021-04-01T21:59:44Z","RT @Dogecoin007: Which of the following cryptos have lowest fees for transfer crypto world wide ?! #wink #dogecoin #etherium",7,4
1377742499612139521,"2021-04-01T21:59:43Z","I like all my coins, they all look pretty good right now. Some have already done fantastic things. I think they're all going to moon (further). I only wish I had bought more.  $ETH $LINK $RUNE $LTC $DAG $AAVE $REN $ALPHA $DCR $BADGER $NANO",0,0
1377742498450259968,"2021-04-01T21:59:43Z","@mickalamasse1 The% APR are just amazing on https://t.co/CVmTA5mpcS ! After @Uniswap and @Sushiswap the best is #TacoSwap !! Long live the #TacoToken 🌶 #dextools  #tacoswaptomars #defi #eth #ADA #ethereum #crypto @exeedme @poolz__ @bepronet https://t.co/SdCglp6YL2 https://t.co/wQkpFAlzxt",8,14
1377742494222458885,"2021-04-01T21:59:42Z","Don't be a fool this April 1st Get in on our...  🚀Pre-sale in April #giveaways! 🌟20 x (100 #POPO) (worth$100)random winners   ✅RT and like this Tweet ✅TAG 3 Friends ✅Comment with Link and #ETH Wallet address #POPO #Poplink 🚀🚀🚀 https://t.co/PZv72o1Mxx",1028,810
1377742491512795137,"2021-04-01T21:59:41Z","RT @jackbutcher: Reply🪙 &amp; RT to scratch.  (Winner will need an ETH wallet) https://t.co/A47BDcJpVd",651,836
1377742486261616644,"2021-04-01T21:59:40Z","NFT GIVEAWAY 18  i pick 1 person, i pay gas $15  requirement 1 POST your rarible url 2 RETWEET&amp;LIKE 3 FOLLOW twitter 4 TAG friends  optional 5 FOLLOW insta https://t.co/YNn3gn37XL  sell the card for&gt;0.05 eth #NFTCommunity #nftcollector #nftart  @rariblecom https://t.co/t2btyXvg5z",49,34
1377742486194417667,"2021-04-01T21:59:40Z","@KRHFT @zed_run @TheMintCond @DrewAustin @ZedGazette So many people are about to be upset on the drop because they don’t understand MetaMask and eth and gas fees (let alone speeds). Zed run needs to do better or they’ll lose people. Bet",1,0
1377742485376561153,"2021-04-01T21:59:40Z","💧DogeSwap Airdrop💧  🏆 Task:          ➕   7 DOG  👨‍👩‍👧 Referral:     ➕   2 DOG  🔛  Airdrop Link &amp; Information: https://t.co/3rlt9kiu64  #cryptocurrency #Crypto #Bitcoin  #DogeSwap #Ethereum #ETH #Airdrop #bounty #Doge #AirdropStario",4124,5206
1377742482163838979,"2021-04-01T21:59:39Z","RT @LUKACACIC: This might be your last chance ever to buy $ETH sub 2000 usd. 😘",462,46
1377742470725955585,"2021-04-01T21:59:36Z","@Phantomkiwi That's just mining eth on the gpus. Mining Haven on the cpus.",0,0
1377742466124759050,"2021-04-01T21:59:35Z","RT @jackbutcher: Reply🪙 &amp; RT to scratch.  (Winner will need an ETH wallet) https://t.co/A47BDcJpVd",651,836
1377742462970691586,"2021-04-01T21:59:35Z","$ETH            vs         $2,000     ( •_•)                          (•_• )     ( ง )ง                          ୧( ୧ )    /︶\                              /︶\",12645,1704
1377742457647996928,"2021-04-01T21:59:33Z","Don't be a fool this April 1st Get in on our...  🚀Pre-sale in April #giveaways! 🌟20 x (100 #POPO) (worth$100)random winners   ✅RT and like this Tweet ✅TAG 3 Friends ✅Comment with Link and #ETH Wallet address #POPO #Poplink 🚀🚀🚀 https://t.co/PZv72o1Mxx",1028,810
1377742444347932676,"2021-04-01T21:59:30Z","I hope you guys listened 2x in one day 😂👍🏼 $xrge   $BTC $ADA $REN $ETH $SRK $LTC $UNI $DOGE $BNB $DOT $KCS $vet $fil $enj $bch $aave $cro $ela $nft https://t.co/Q9cC4r5QaB",8,1
1377742440052838400,"2021-04-01T21:59:29Z","$ETH            vs         $2,000     ( •_•)                          (•_• )     ( ง )ง                          ୧( ୧ )    /︶\                              /︶\",12645,1704
1377742435774775301,"2021-04-01T21:59:28Z","@jims_eth Thank you so much bro",0,0
1377742432335503370,"2021-04-01T21:59:27Z","GIVEAWAY TIME! We're doing 3 sets of giveaways on Twitter, Instagram, and Discord!   First up, we're giving away ETH Waifu #5189! Simply follow and retweet this tweet to enter, and winners will be announced in 5 days. (Sorry for repost!) https://t.co/Mqmlsz07Aw",75,100
1377742428556427264,"2021-04-01T21:59:26Z","RT @jackbutcher: Reply🪙 &amp; RT to scratch.  (Winner will need an ETH wallet) https://t.co/A47BDcJpVd",651,836
1377742427365199876,"2021-04-01T21:59:26Z","seeing bitcoin trust commercials on CNBC at increasing volumes... glad yall werent around last March when I bought the dip  $BTC $ETH",0,0
1377742414278971393,"2021-04-01T21:59:23Z","I just spent £100 on lingerie...  BTC - 1H4Cgv5K7Qun5f66e1j6D3TmEu6TdC7RcC ETH - 0xCb604A6D311bF355fC8faf6cAd87600DD891fB52 Verse - $spoilme321 £app- £mol1212 Bank - 04-00-04   61538056  Findom reimbursement finsub https://t.co/ZvulPZNto9",11,9
1377742411317846017,"2021-04-01T21:59:22Z","$ETH            vs         $2,000     ( •_•)                          (•_• )     ( ง )ง                          ୧( ୧ )    /︶\                              /︶\",12645,1704
1377742400664244224,"2021-04-01T21:59:20Z","Buyer will receive the original painting rendition of Devil Inna New Dress on @opensea !!   Only for 1 ETH!!! 👹👹👹  #NFT #nftart https://t.co/mm4l5II1DR",90,29
1377742390484697092,"2021-04-01T21:59:17Z","@_st4ytrue_ @alpineronin Hi! I'm Terence The Spider, a #NFTartist specializing in funny and thought provoking #nftart, #nftcomics, and #nftmusic. I currently have #NFTs ranging from 0.1 - 0.75 #ETH.  Appreciate you checking out my work!  https://t.co/D14VKiuS5K https://t.co/OGBcZ5W4NF",3,1
1377742373707522061,"2021-04-01T21:59:13Z","💎 $JRT Jarvis Netork’s Syntheteum will dominate the synthetic asset space. $20m mkt cap 🚀 #lowcapgem #crypto #altcoins $btc $eth $mir $snx $aave $reef $btt $cake https://t.co/9y6YmTGpth https://t.co/X1rnkKgYis",11,4
1377742367667720195,"2021-04-01T21:59:12Z","RT @jackbutcher: Reply🪙 &amp; RT to scratch.  (Winner will need an ETH wallet) https://t.co/A47BDcJpVd",651,836
1377742363477573633,"2021-04-01T21:59:11Z","payment can be in #Bitcoin, $ETH, paypal, cashapp, gcash, indo ewallet, $DOGE, $BNB, any crypto, whatever you want. must be following if you win so i can dm. #giveaway ends in 1 week. 🍀",1201,232
1377742359627059202,"2021-04-01T21:59:10Z","RT @ChartingOptions: $ETH #Ethereum   Pshhh what retest of $1,750?📈  #ActSeq https://t.co/Iwl6bH1dmy",24,3
1377742356477321217,"2021-04-01T21:59:09Z","$ETH            vs         $2,000     ( •_•)                          (•_• )     ( ง )ง                          ୧( ୧ )    /︶\                              /︶\",12645,1704
1377742340392165378,"2021-04-01T21:59:05Z","RT @ThisisNFTs: I have 1 ETH to giveaway to enter just RT this and follow me. I’ll pick one of you tomorrow.",517,518
1377742339687510018,"2021-04-01T21:59:05Z","RT @jims_eth: Amazing https://t.co/TqbMAzEpCb",5,2
1377742327909912579,"2021-04-01T21:59:02Z","RT @jackbutcher: Reply🪙 &amp; RT to scratch.  (Winner will need an ETH wallet) https://t.co/A47BDcJpVd",651,836
1377742326852882433,"2021-04-01T21:59:02Z","$ETH            vs         $2,000     ( •_•)                          (•_• )     ( ง )ง                          ୧( ୧ )    /︶\                              /︶\",12645,1704
1377742324524965888,"2021-04-01T21:59:02Z","RT @Cooopahtroopa: ETH under $2k is the April Fools joke.",290,17
1377742316467814400,"2021-04-01T21:59:00Z","RT @dAAAb: I will be buying a 1000 eth nft today. 👇",417,50
1377742312126738434,"2021-04-01T21:58:59Z","$DOGE $FREQ $MANA $ETH 👁️👄👁️",2,0
1377742307399774209,"2021-04-01T21:58:57Z","The first set of Ahegao NFTs sold out in a week, so I've been working on some more which are now live at https://t.co/MAOPR2F1DH  #pixel_dailies #nft #NFTs #nftart #nftartist #crypto #blockchain #eth #ethereum #digitalart #art #value #nftcollector #hentai #ahegao https://t.co/YWPHtqTMQv",78,704
1377742283995553793,"2021-04-01T21:58:52Z","The first day of Q2 confirms our enthusiasm.  The #Telcoin wallet can NOW be created within the NEXT corridor markets - #Australia &amp; #Singapore!  With #Philippines &amp; #Canada already live, the global expansion of $TEL is on!  #V3 is coming.  #SendMoneySmarter #Telfam $BTC $ETH https://t.co/fzDUtvZdlz",96,28
1377742282858799104,"2021-04-01T21:58:52Z","💧Twinci Airdrop 💧  🏆 Task:          ➕ $15 worth of  TRX                              ➕ $50 worth of TWIN  🔛 Airdrop Link &amp; Information: https://t.co/aV7t49dRDX  #cryptocurrency #Crypto #Bitcoin #Ethereum #ETH #Twinci #TWIN",1336,1777
1377742278534561795,"2021-04-01T21:58:51Z","@ClairvoyantArt This one is currently on auction, for only one more day. The bid is currently at .6 $ETH! :O  https://t.co/BcaJLwTInO",6,2
1377742276726640643,"2021-04-01T21:58:50Z","RT @jackbutcher: Reply🪙 &amp; RT to scratch.  (Winner will need an ETH wallet) https://t.co/A47BDcJpVd",651,836
1377742254224384002,"2021-04-01T21:58:45Z","If #BTC breaks $69,420 in APRIL 2021 I’ll give a random person my R8  Super SIMPLE: Like ✔️ RT ✔️ Follow ✔️ @JBTheCryptoKing  Drop eth addy ✔️ https://t.co/0ZTkU9CUuI",7875,3934
1377742248700375045,"2021-04-01T21:58:43Z","Last chance to enter this #IGGiveaway 👇  The 50,000 $IGG prize is currently worth $70 👀  #IGG #ETH #MATIC #IGGALAXY #PoweredbyPolygon #gaming #esports #crypto #altcoins #uniswap https://t.co/59ObeRmelD",61,28
1377742227850543113,"2021-04-01T21:58:38Z","@ClairvoyantArt 🔥 Our perfect 2 designs are on sale right now 🔥  https://t.co/ZWmItUKp2y If you want to profit, you should definitely look!  👑 Red Gang On Sale 0.005 ETH  👑 👑 Cropping The Date On Sale 0.15 ETH 👑  #NFT #NFTs #nftcollector #nftcollectors #NFTCommunity #nftart #NFTartist https://t.co/iWGInGYion",0,0
1377742222968324097,"2021-04-01T21:58:37Z","$ETH            vs         $2,000     ( •_•)                          (•_• )     ( ง )ง                          ୧( ୧ )    /︶\                              /︶\",12645,1704
1377742221697413123,"2021-04-01T21:58:37Z","@Swag_Stakepool @EggsStake Yup I've been talking to ppl about this every time someone tells me all the devs are on eth and dot, etc.  Ppl don't see the bigger picture, we have known this was coming for ages.",4,0
1377742220611162114,"2021-04-01T21:58:37Z","Vote for Ren’s Cross-Chain Asset Pool on @RariCapital.  Any of the following assets can be supplied and used as collateral to borrow any of the other assets in the pool: $renBTC / $renFIL / $ETH / $DAI / $USDC https://t.co/SO5mihAYZf",170,25
1377742217167527937,"2021-04-01T21:58:36Z","Pair Created! Pairs → TUBBY-ETH  $TUBBY = &lt; 0.0001 ETH  $ETH = 14,851 TUBBY ($1,960)  $197,737  https://t.co/dq1QLrOJMe",0,0
1377742207701106693,"2021-04-01T21:58:34Z","RT @jackbutcher: Reply🪙 &amp; RT to scratch.  (Winner will need an ETH wallet) https://t.co/A47BDcJpVd",651,836
1377742206195396610,"2021-04-01T21:58:33Z","🔥 Hathor Swap - First no-gas DEX to fix $ETH issues  🔥 Hathor Virtual Debit Card - Easy way to spend $HTR  🔥 Hathor WooCommerce Checkout - Cheaper than Stripe.. Settle in seconds  🔥 Hathor Chrome Extension - Go-to extension to build on $HTR  $BTC $ADA $DOT @htrfdt https://t.co/JOzsZxG5fT",395,127
1377742198574354433,"2021-04-01T21:58:32Z","Hey there! I am deeply honoured now to present you the first and only Ethereum lamp. Yes, you read the right. Limited (42 pcs only) edition. Hand made. Check this out! https://t.co/Tr6fisL0hy https://t.co/tk6fRImG6p #eth #ethereum #crypto #VitalikButerin @rariblecom @opensea #BTC",417,145
1377742195571232769,"2021-04-01T21:58:31Z","$ETH            vs         $2,000     ( •_•)                          (•_• )     ( ง )ง                          ୧( ୧ )    /︶\                              /︶\",12645,1704
1377742193482469378,"2021-04-01T21:58:30Z","3 items for sale .01 ETH @ 6PM on   1 Auction item @ 9PM est on @opensea   Retweet Prize - EVERY RETWEET today generates one ticket :)  See details below! This is an major collaboration with the iconic artist @murdabeatz_  and will easily become an extremely scarce collectible",223,396
1377742192937172993,"2021-04-01T21:58:30Z","THE OLD ONES collection by @Z4HIIR on @KnownOrigin_io  https://t.co/nbqXImZcdH  Curated by @Z4HIIR  #KOllections #cryptoart #NFT #cryptoartist #ETH https://t.co/0WiV6dBrfq",43,34
1377742190055723017,"2021-04-01T21:58:29Z","Lets sell your nfts today!! 🔥  Post your favourite nft piece below (below 1 ETH) 💯  Collectors are active - so show them something 🚀  Rt this and we will follow you back 🙌🏼  Letsss gooo sell your work 👏🏼  #nft #nfts #nftcollector #nftcollectors #NFTcollectibles #nftbets",205,77
1377742182161862657,"2021-04-01T21:58:28Z","RT @IAMLLUCIANA: Sold all my $ETH, $KSM, $HTR FOR $ADA",1791,78
1377742181000077314,"2021-04-01T21:58:27Z","@RANBBLADE twitter user eth ranbblade a flower boy tommy enjoyer confirmed???",1,0
1377742179490279424,"2021-04-01T21:58:27Z","It’s happening guys!!! It’s still early to get in. Already on 200x. PUMP IT UP!!! Vira-lata Finance 🚀 $REAU  ⏭ https://t.co/wsK2kT4EXU  #REAU #viralata #viralatafinance #crypto #cryptocurrency #bitcoin  #eth #doge #dogecoin #hoge #cryptocurrencies #ethereum #brazil #brasil https://t.co/70GmNRV41W",82,53
1377742176797536259,"2021-04-01T21:58:26Z","RT @IamCryptoWolf: $ETH season.  Charts don't lie. https://t.co/HMSqzpQncm",579,60
1377742176038252545,"2021-04-01T21:58:26Z","RT @Cooopahtroopa: ETH under $2k is the April Fools joke.",290,17
1377742170610864131,"2021-04-01T21:58:25Z","$ETH            vs         $2,000     ( •_•)                          (•_• )     ( ง )ง                          ୧( ୧ )    /︶\                              /︶\",12645,1704
1377742168425648133,"2021-04-01T21:58:24Z","RT @jackbutcher: Reply🪙 &amp; RT to scratch.  (Winner will need an ETH wallet) https://t.co/A47BDcJpVd",651,836
1377742167012220939,"2021-04-01T21:58:24Z","@nftorb Hi! I'm Terence The Spider, a #NFTartist specializing in funny and thought provoking #nftart, #nftcomics, and #nftmusic. I currently have #NFTs ranging from 0.1 - 0.75 #ETH.  Appreciate you checking out my work!  https://t.co/D14VKiuS5K https://t.co/hzN8NhmRBd",0,0
1377742163342073857,"2021-04-01T21:58:23Z","@_st4ytrue_ Hi! This is BBB Batman Bitcoin Blues #NFTs  Only 0.8 $ETH  Help an starving artist!!! Thank you 🙏🏽  https://t.co/Xe0fLQnTZ2",0,0
1377742153431015427,"2021-04-01T21:58:21Z","@ChinkliPinkli I wouldn’t touch any eth wallet, uniswap, erc20 anything without at least using 1 ETH worth of what you are trading and having 1 ETH in the wallet.",0,0
1377742144836866049,"2021-04-01T21:58:19Z","April will be huge.  *DFI SWAP *DFI GOVERNANCE  *DFI DEX *DFI STAAS #YFD @YFDecentralized https://t.co/ik5Q4aq1Ui WE ARE HERE TO STAY COME JOIN US ON TELEGRAM https://t.co/JMOtTEuVJt #decentralized #AMA  #altcoins #DEFI #etherium #YieldFarming",33,18
1377742142861422603,"2021-04-01T21:58:18Z","RT @jackbutcher: Reply🪙 &amp; RT to scratch.  (Winner will need an ETH wallet) https://t.co/A47BDcJpVd",651,836
1377742130119114764,"2021-04-01T21:58:15Z","$ETH            vs         $2,000     ( •_•)                          (•_• )     ( ง )ง                          ୧( ୧ )    /︶\                              /︶\",12645,1704
1377742110296801280,"2021-04-01T21:58:10Z","💎  •@StaterFinance - $STR mainnet 16th April ($AAVE of #NFT’s) •@FontCommunity mainnet 7th April (#NFT) •Insurance - $CVR  •Ecosystems - $ETH, $SOL, $HTR, $CELL, $DOT, $KSM, $ADA, $ATOM, $MATIC •Data - $OCEAN, $LINK, $DIA, #API3, $BAND, $FIL, $ORAI  April is gonna be F🔥 https://t.co/fZE6nbeQ93",29,9
1377742095058800643,"2021-04-01T21:58:07Z","$ETH            vs         $2,000     ( •_•)                          (•_• )     ( ง )ง                          ୧( ୧ )    /︶\                              /︶\",12645,1704
1377742094509412353,"2021-04-01T21:58:07Z","Support, resistance and trend graph for ETH [2.73% 🟩] on 1h timeframe of the last 7 days #eth #cryptocurrency #crypto https://t.co/qV1Mg2R7aG",0,0
1377742092181643269,"2021-04-01T21:58:06Z","@binance It's  fun waiting  on ETH to $2K. Still  waiting  on the moon to see more DeFi  projects  like https://t.co/ejkC2iuMii on the horizon",0,0
1377742088419311625,"2021-04-01T21:58:05Z","RT @jackbutcher: Reply🪙 &amp; RT to scratch.  (Winner will need an ETH wallet) https://t.co/A47BDcJpVd",651,836
1377742073101578244,"2021-04-01T21:58:02Z","ETH under $2k is the April Fools joke.",290,17
1377742067225522177,"2021-04-01T21:58:00Z","Buyer will receive the original painting rendition of Devil Inna New Dress on @opensea !!   Only for 1 ETH!!! 👹👹👹  #NFT #nftart https://t.co/mm4l5II1DR",90,29
1377742065996546052,"2021-04-01T21:58:00Z","$ETH            vs         $2,000     ( •_•)                          (•_• )     ( ง )ง                          ୧( ୧ )    /︶\                              /︶\",12645,1704
1377742057654128649,"2021-04-01T21:57:58Z","New drop 8/52  #CryptoCubbs toy tomorrow on @rariblecom  APRIL 2 UTC 7PM | EDT 3PM  https://t.co/guBxgFbAQK #nft #nftart #nftcollector #cryptoart #etherium #nftbastards #nft_ru https://t.co/bfpoxmBxgL",4,2
1377742041246011395,"2021-04-01T21:57:54Z","Don't be a fool this April 1st Get in on our...  🚀Pre-sale in April #giveaways! 🌟20 x (100 #POPO) (worth$100)random winners   ✅RT and like this Tweet ✅TAG 3 Friends ✅Comment with Link and #ETH Wallet address #POPO #Poplink 🚀🚀🚀 https://t.co/PZv72o1Mxx",1028,810
1377742029757767684,"2021-04-01T21:57:51Z","RT @TrueCrypto28: $ETH $BNB  What happens first?",35,9
1377742029187391489,"2021-04-01T21:57:51Z","RT @Crypto_WB: Bagged up and ready for $CTI moon mission. Are you?   $BTC $ETH #UNISWAP https://t.co/FFNMk6sSvj",5,1
1377742019452416001,"2021-04-01T21:57:49Z","April 👀  🔥 Coinbase IPO set for 14th  🔥 April considered best month of the #crypto year  🔥 $ZCX AME event on $LPOOL &amp; exchange listing  🔥 $LUNA lining up to launch #Nebula   🔥 Huge data provider teased for $ALBT's Data Tunnel  🔥 $ETH &amp; $BTC close to breaking ATHs.. again https://t.co/qW8EAHdMKs",133,25
1377742015643852801,"2021-04-01T21:57:48Z","$ETH            vs         $2,000     ( •_•)                          (•_• )     ( ง )ง                          ୧( ୧ )    /︶\                              /︶\",12645,1704
1377742015568482304,"2021-04-01T21:57:48Z","hey folks! check $duck out under #zilliqa on https://t.co/xnXl6H6UCR  you will be amazed of this. I don't want to say much, DYOR.   $zil $btc $eth $xrp $ada $bnb $uni $dot $comp $band $theta $vet $tfuel $rsr $pundix $npxs $mana #Bitcoin #ethereum #zil #ZilliqaCommunity  #altcoin",10,4
1377742011235758086,"2021-04-01T21:57:47Z","@_st4ytrue_ @alpineronin Hey BROski🖖 You like to use ETH we'll go here @rariblecom https://t.co/HlSz1JKE7J But if you like to use wax go here  It's cheaper fee's😁 🎉just been Whitelisted 🎉 🏴󠁧󠁢󠁷󠁬󠁳󠁿WelshDog👊 Sma$hed 🤪 #nftart #NFTCommunity #NFTartist #nftcollector #NFT https://t.co/kCShs6vMLz Nice one 👊",1,1
1377742008245190658,"2021-04-01T21:57:46Z","$ORN x $ADA It WILL aggregate every dex, every cex, every nft, every chain, every network, provides liquidity for everything, provides staking for everything. We're talking crypto Google/Amazon ceiling. No token besides corn/Eth/stables has a higher ceiling. No token. https://t.co/IgsyMMU5IW",10,1
1377742005829177344,"2021-04-01T21:57:46Z","RT @jackbutcher: Reply🪙 &amp; RT to scratch.  (Winner will need an ETH wallet) https://t.co/A47BDcJpVd",651,836
1377742004516487173,"2021-04-01T21:57:45Z","RT @jackbutcher: Reply🪙 &amp; RT to scratch.  (Winner will need an ETH wallet) https://t.co/A47BDcJpVd",651,836
1377742002243035138,"2021-04-01T21:57:45Z","Hey #HEXICANS ! Haters will hate! #hex #crypto #eth #btc #etherium #GodzillaVsKong https://t.co/7XZ9ydAL3Q",0,0
1377741997637840900,"2021-04-01T21:57:44Z","GIVEAWAY TIME! We're doing 3 sets of giveaways on Twitter, Instagram, and Discord!   First up, we're giving away ETH Waifu #5189! Simply follow and retweet this tweet to enter, and winners will be announced in 5 days. (Sorry for repost!) https://t.co/Mqmlsz07Aw",75,100
1377741990318723075,"2021-04-01T21:57:42Z","I just listed my 2004 portrait of Taylor Swift for 10 ETH on @withFND. #nftcollector",0,0
