"ID","created_at","text","like_count","rt_count"
1375236050881290251,"2021-03-25T23:59:59Z","Big news from Constellation $dag!  Their Stargazer Wallet will not only allow users to store multiple native assets in one place. It will also allow the purchasing of DAG with a credit card as well as swapping cross-chain assets like native $btc and $eth through Lattice exchange.",55,0
1375236050012889091,"2021-03-25T23:59:59Z","We just relisted the LIGHTSABER #NFTech at the low price of 0.09~ETH. PM me to pick a blade color before you buy! https://t.co/UvLxSNDD2l",1,0
1375236048486199297,"2021-03-25T23:59:59Z","@whale_alert NEW TRADING SITE FOR CRYPTO: https://t.co/95W1jQ3Wvp https://t.co/cPmEQcsGcN REFERRAL CODE: 5914880361 (AMPMCX) 615c066997(WOTH) Earn 20% commission every time your friends make a trade.  #cryptocurrency #trading #trade #ethtoken #etherium #Bitcoin",0,0
1375236042677133312,"2021-03-25T23:59:57Z","RT @volmexfinance: What’s your ETH address?  Don’t ask why, just drop it below 👇",4852,0
1375236042295418882,"2021-03-25T23:59:57Z","I haven’t lost money because I haven’t sold anything 🤟 $nu $dnt $ltc $eth $oxt $link",8,1
1375236035437858819,"2021-03-25T23:59:56Z","Welcome to massive Q DAO airdrop!   1. go now to telegram https://t.co/COyXgODY1z   2. Stay in telegram chat and wait announcement.  3. HOLD this gem until 10x   (soon - QDAO launch cross-chain for BSC, Polkadot and ETH)",4254,1
1375236029305655296,"2021-03-25T23:59:54Z","New #digitalcurrencyalien #NFT pixel art available on https://t.co/zm1A0zl48c Limited to 1 mint each for 150+ artworks available using $ETH! RT for some free #Bitcoin !!  @coinkit_ com 50 1000 BTC #NFT",207,1
1375236025476382720,"2021-03-25T23:59:53Z","RT @HexMac: Retweet the shit out of this 👇 @elonmusk @RichardHeartWin #HEX #BTC #ETH",58,1
1375236018186510337,"2021-03-25T23:59:52Z","@Gfilche @elonmusk NEW TRADING SITE FOR CRYPTO: https://t.co/95W1jQ3Wvp https://t.co/cPmEQcsGcN REFERRAL CODE: 5914880361 (AMPMCX) 615c066997(WOTH) Earn 20% commission every time your friends make a trade.  #cryptocurrency #trading #trade #ethtoken #etherium #Bitcoin",0,0
1375236013656707073,"2021-03-25T23:59:50Z","🚨 new drop / giveaway alert 🚨  buster bounce // galaxy animated collector card fifty mint available on @opensea  0.1 ETH  🎉 giveaway 🎉 like/follow/rt for a chance to win one  #whoisbuster #nft #nfts #NFTGiveaway #nftart #NFTartists #NFTartist  https://t.co/BGhAD9SUGF",38,0
1375236012801204226,"2021-03-25T23:59:50Z","@TesTimnit @UN @POTUS @UNHumanRights @UNOSAPG Tigray is damaged beyond any repair &amp; can Never, Ever be part of Eth. Again!   The human &amp; material damage inflicted on Tigray is incalculable!",1,0
1375236001354940421,"2021-03-25T23:59:48Z","🚨 new drop / giveaway alert 🚨  buster bounce // galaxy animated collector card fifty mint available on @opensea  0.1 ETH  🎉 giveaway 🎉 like/follow/rt for a chance to win one  #whoisbuster #nft #nfts #NFTGiveaway #nftart #NFTartists #NFTartist  https://t.co/BGhAD9SUGF",38,0
1375235990529306627,"2021-03-25T23:59:45Z","He was not in it for the tech.  @Beeple is out and who can blame him?  After selling $59 million of ETH for USD, many blame Beeple for causing the price to dump, but is what he did unfair?   Will this mark the end of the #NFT craze?   https://t.co/sw2HCQTBme",157,0
1375235951207792641,"2021-03-25T23:59:36Z","@boxmining Dips are a great buying opportunity.  That's why I won't mind if $FCL dips - it's just an opportunity to accumulate even more.  @fractalprtcl is an open source protocol for exchanging data in a fair and open way.  #DeFi $BTC $ETH https://t.co/TcknNRmUb3",3,0
1375235950821826564,"2021-03-25T23:59:35Z","On #cardano, you can send multiple tokens in the same transaction. The smart contract fees associated with said transactions are $0.00. When this functionality comes to a live DEX it'll be a crypto traders dream come true. $ADA $UNI $ETH https://t.co/b9yynfOUUu",154,0
1375235948611563531,"2021-03-25T23:59:35Z","💎1/1💎 + unlockable content 🔥  https://t.co/n3t68QPsuZ  #NFT #NFTCollector #Crypto #CryptoNews #cryptocurrencies #CryptoArt #ETH #NFTArt #defi https://t.co/czsaVH2Dmt",0,0
1375235940034080768,"2021-03-25T23:59:33Z","New #digitalcurrencyalien #NFT pixel art available on https://t.co/zm1A0zl48c Limited to 1 mint each for 150+ artworks available using $ETH! RT for some free #Bitcoin !!  @coinkit_ com 50 1000 BTC #NFT",207,0
1375235937614053381,"2021-03-25T23:59:32Z","Sunset Artworks by me 💜  Please help me find someone who can help me mint these💜😄  #NFTs #nftcollector #art444aura #nftart #NFT #NFTartists #NFTartist #NFTcollectibles #NFTartwork #ArtistOnTwitter #ETH #sunsetphotography   Respectfully tagging some lovely people 💜 https://t.co/QkGIQfz1WL",93,0
1375235937148493828,"2021-03-25T23:59:32Z","Frequency series each is 💎1/1💎 + unlockable content 🔥  https://t.co/ejfCvlbFOi  #NFT #NFTCollector #Crypto #CryptoNews #cryptocurrencies #CryptoArt #ETH #NFTArt #defi https://t.co/Uq5AsxrIyl",3,0
1375235934967500807,"2021-03-25T23:59:32Z","New Airdrop: Diamond Crystal (DCT) Reward: 100 DCT ($100) Rate: ⭐️⭐️⭐️⭐️ Focus: Distribution starts after airdrop ends   Bot Airdrop Link: https://t.co/9Qzk47HUKt  #Airdrop #giveaway #BTC #ETH",4033,0
1375235918211260416,"2021-03-25T23:59:28Z","Over 400k $ETH has left coinbase today. That is more #Ethereum that has left exchanges in the last 30 days combined.   Supply crisis incoming. https://t.co/X4nf04Xyau",404,0
1375235913589067777,"2021-03-25T23:59:27Z","Cryptocurrencies $ETH $LTC $DASH $XMR $ZCASH https://t.co/Vn54eOgqG9 https://t.co/nPuK5GlV1o",0,0
1375235909503741953,"2021-03-25T23:59:26Z","New Airdrop: Diamond Crystal (DCT) Reward: 100 DCT ($100) Rate: ⭐️⭐️⭐️⭐️ Focus: Distribution starts after airdrop ends   Bot Airdrop Link: https://t.co/9Qzk47HUKt  #Airdrop #giveaway #BTC #ETH",4033,0
1375235904990810113,"2021-03-25T23:59:25Z","This is accomplished by setting a gas price with every transaction, which is the cost of 1 unit of gas, denominated in Gwei (1 ETH = 1,000,000,000 Gwei).  https://t.co/Il9j36rR72   https://   #Defi   #MustHaveCrypto https://t.co/EpKqxUnSai",0,0
1375235903887699969,"2021-03-25T23:59:24Z","@nea_delavera @DAVID_FIRTH @flyinglotus @strangeloop @Rob__Morgan @screamerclauz I haven't been keeping up with it, but I thought it was confirmed that NFTs don't actually add anything to the energy cost of ETH? Like the same amount of electricity is being used no matter what is going on in the blockchain?",3,0
1375235880818982914,"2021-03-25T23:59:19Z","New Airdrop: Diamond Crystal (DCT) Reward: 100 DCT ($100) Rate: ⭐️⭐️⭐️⭐️ Focus: Distribution starts after airdrop ends   Bot Airdrop Link: https://t.co/9Qzk47HUKt  #Airdrop #giveaway #BTC #ETH",4033,0
1375235871276986375,"2021-03-25T23:59:17Z","@nftvisual Digitized Ethereum 1/1 Reserve price: .2 ETH Help me get more foundation invites to give people! https://t.co/Ioi0KtOZd1 https://t.co/Ck0dlzmBM8",1,0
1375235861973983236,"2021-03-25T23:59:14Z","Changels, what cryptocurrency do you find the most attractive for investment aside from $BTC and $ETH❓  If the #cryptocurrency you like isn't on the list, write its name in the replies⏬",20,0
1375235857376944129,"2021-03-25T23:59:13Z","Even with #ETH getting this clarity over #XRP, XRP still batted it for the # 2 spot throughout 2018. That’s a pretty damn resilient Digital Asset if you ask me.   So there is only one logical explanation:  The lawsuit was intentionally used as a weapon.   SEC, prove me wrong. https://t.co/Jj1t7II5HZ",267,0
1375235850401767432,"2021-03-25T23:59:12Z","fyi, EIP-1559 won't stop near-term miner selling, b/c it's still issuance first  but it creates a sustainable deflationary supply policy for $ETH long-term (better than a hardcap)  ETH is growing up as a desirable financial / reserve asset, and imo, the market will take notice",167,0
1375235834593505284,"2021-03-25T23:59:08Z","RT @aarvantOFRE: Markets drops.  $eth supply drops.  Diamond hands accumulation phase. 💎 https://t.co/uD8EYm34lX",19,0
1375235834341810177,"2021-03-25T23:59:08Z","WARNING🚨   MASSIVE airdrop 🔥   $QDAO is a true💎since 2019, by famous team, just 10 MILLION CAP  1. Go now to Twitter @QDefi  or telegram https://t.co/x0vuSIVfV9   2. Get your free tokens  3. HODL this gem until 10x-20x  (soon - launch cross-chain tool for BSC, DOT and ETH) https://t.co/S3sdpsYnUu",1023,0
1375235833398239246,"2021-03-25T23:59:07Z","@moonshilla I'm with you!  📈Waiting on a big pump on $FCL after this little dip from its ATH.  ⭐️$FCL got a great team with genius advisors such as Bruce from $OCEAN and Ingo from $KILT.  $BTC $ETH #DeFi https://t.co/FiV5n7ENuL",3,0
1375235830906773507,"2021-03-25T23:59:07Z","Why did Clayton and the SEC refuse to provide clarity for #XRP?   When asked by both #CNBC and individual investors about #XRP’s status, Clayton, Hinman and the SEC would only say “we don’t comment on specific products” after commenting on the specifics products #BTC and #ETH?",213,0
1375235819363991562,"2021-03-25T23:59:04Z","@joseit0_ @TheCryptoLark @Energicrypto I have used EnergiSwap and both the speed and the gas fees are such a contrast to using ETH based swap services",19,0
1375235814364377088,"2021-03-25T23:59:03Z","@CoskunLab @NCCR_Catalysis @catalysis_eth @UnifrResearch @unifrChemistry Congratulations, Prof. Coskun.",1,0
1375235799525027843,"2021-03-25T23:58:59Z","1 $xbE &gt; 1 $ETH. Soon enough we will flip $BTC as well.",2,0
1375235799051014152,"2021-03-25T23:58:59Z","@C4liCrypto That’s quite high for eth tbh",0,0
1375235784354242565,"2021-03-25T23:58:56Z","03/24/21 UPDATE: Net Assets Under Management, Holdings per Share, and Market Price per Share for our Investment Products.  Total AUM: $42.9 billion  $BTC $BCH $ETH $ETC $ZEN $LTC $XLM $ZEC $BAT $LINK $MANA $FIL $LPT https://t.co/j4g2xJJDNE",326,0
1375235783481786370,"2021-03-25T23:58:56Z","*RARE*  Nessie #827 has emerged from THE CREVICE of Loch Ness and is now minted on the #ETH blockchain via @opensea  PRICE:  Ξ0.5  https://t.co/xzp28rKSiu  #Nessies #pixelart #cryptopunks #crypto #NFT #NFTs #NFTCommunity  @opensea https://t.co/UqiCFmIYMb",17,0
1375235775722254340,"2021-03-25T23:58:54Z","@GraysonDolan get the truck 🛻 do it rn! if it’s something you want and it makes you happy get a truck! eth can drive his own tesla all he wants",0,0
1375235752221671425,"2021-03-25T23:58:48Z","RT @DailyDogeUpdate: 🚀 $1000 to anyone who Like, Follow and Retweet 🚀  #Dogecoin #LTC $ETH",1846,0
1375235748295798787,"2021-03-25T23:58:47Z","RT @CashNCrypto: $150 to one person in 48hrs  Rt &amp; follow me + @domscrypto &amp; @boar_eth",2067,0
1375235743824678924,"2021-03-25T23:58:46Z","@joseit0_ @TheCryptoLark @Energicrypto I have used EnergiSwap and both the speed and the gas fees are such a contrast to using ETH based swap services",19,0
1375235742142754821,"2021-03-25T23:58:46Z","Frankie Amaya bought for 0.22 ETH (348.48$) on the secondary market   Season: 2020-2021 Level: 0 Serial: 53/100 Price: 348.48$  ⚽ Sorare: https://t.co/6OPTC7A2Wq  📊: https://t.co/WNWXjnYkm3  #Sorare #NFT #Ethereum #FantasyFootball",0,0
1375235725038284800,"2021-03-25T23:58:42Z","@Bitcoin NEW TRADING SITE FOR CRYPTO: https://t.co/95W1jQ3Wvp https://t.co/cPmEQcsGcN REFERRAL CODE: 5914880361 (AMPMCX) 615c066997(WOTH) Earn 20% commission every time your friends make a trade.  #cryptocurrency #trading #trade #ethtoken #etherium #Bitcoin",2,0
1375235723943641090,"2021-03-25T23:58:41Z","*RARE*  Nessie #827 has emerged from THE CREVICE of Loch Ness and is now minted on the #ETH blockchain via @opensea  PRICE:  Ξ0.5  https://t.co/xzp28rKSiu  #Nessies #pixelart #cryptopunks #crypto #NFT #NFTs #NFTCommunity  @opensea https://t.co/UqiCFmIYMb",17,4
1375235719959023618,"2021-03-25T23:58:40Z","🚨 new drop / giveaway alert 🚨  buster bounce // galaxy animated collector card fifty mint available on @opensea  0.1 ETH  🎉 giveaway 🎉 like/follow/rt for a chance to win one  #whoisbuster #nft #nfts #NFTGiveaway #nftart #NFTartists #NFTartist  https://t.co/BGhAD9SUGF",38,4
1375235715907248130,"2021-03-25T23:58:39Z","RT @cryptowhitewalk: $ETH #Ethereum  time is here, can still wick till 1420s but who wants to buy the exact bottom $BTC pair looks solid ht…",40,4
1375235715441815557,"2021-03-25T23:58:39Z","Buterin's ETH sales more like a security offering than Ripple's XRP sales: John Deaton by #JakeSimmons via @CryptoNewsFlas3  https://t.co/NoK8RnEsIP",330,4
1375235698656165888,"2021-03-25T23:58:35Z","Selling this #Ultraman 7 for only $800 USD !! Need to get rid of him before he kills my Ponys! The #Batman 's cant chandler him ! -Accept $XRP, $XLM, $ETH, $BTC, $DOT $OMI  #UltramanSeven #Ultraman7 #veve #VeveApp #vevecollectible #ecomi #nft #NFTs #NFTCommunity #nftcollector https://t.co/ap3Gi9zrLp",6,4
1375235689449549824,"2021-03-25T23:58:33Z","RT @iamDCinvestor: ready to watch everyone rotate from $BTC to $ETH again  soon™",589,4
1375235650778202113,"2021-03-25T23:58:24Z","@ClairvoyantArt as i said.. all prices are down..   just check and grab one of them. they are still waiting for owners!!  prices are between Ξ0,01 and Ξ0,02  https://t.co/RrHo1N81U1  #NFTCollectors #NFTs #cryptoart #nftart #nftdrop #nftcommunity #eth #pixelart #NFTartist  https://t.co/Mn00Jr1zk7",2,4
1375235638845399041,"2021-03-25T23:58:21Z","@CryptoGodJohn $DAFI is the one I'm most bullish about.  ⚡️No hyperinflation, no excess supply, and the ability to reward early-users &amp; adoption even in low phases of demand.  ⚡️DAFI tokens are staked, which releases synthetic DFY units. These can be burned in return for DAFI.   $BTC $ETH #DeFi https://t.co/6VkhqEfuFQ",4,4
1375235615436861442,"2021-03-25T23:58:16Z","@neurocolor @basileus_eth Like this super rare, most rare #nft on the marketplace?  https://t.co/yNq0539rWl",0,0
1375235610517061632,"2021-03-25T23:58:14Z","Can understand why Mr.@VitalikButerin's inputs &amp; feedback is valuable :)) #ETH $RAZOR https://t.co/Ue9YaoVifX",3,0
1375235608969351170,"2021-03-25T23:58:14Z","RT @iamDCinvestor: ready to watch everyone rotate from $BTC to $ETH again  soon™",589,0
1375235606717075459,"2021-03-25T23:58:13Z","@cryptomon_eth Because is different.   https://t.co/XtdaDwJOgy https://t.co/WjFy6fGbFf",0,0
1375235590740795392,"2021-03-25T23:58:10Z","WARNING! MASSIVE airdrop🚨   $QDAO is a true 💎since 2019, by famous team, just 10 MILLION CAP  1. Go now to Twitter @QDefi  or telegram https://t.co/x0vuSIVfV9   2. Get your free tokens  3. HODL this gem until 10x-20x🚀  (soon - launch cross-chain tool for BSC, DOT and ETH) https://t.co/QV8KvEnydw",584,0
1375235580360024066,"2021-03-25T23:58:07Z","Someone just lost $1,150 (~0.72 ETH)! 1,150.38 USDT, transferred to contract itself https://t.co/PIOnhglPdY Open a support ticket with support@tether.to",1,0
1375235573091237888,"2021-03-25T23:58:05Z","No need to spend your own money to trade #cryptocurrency. Over 10K users won crypto rewards on @latokens last week. It's the best way to join the financial revolution. Start by earning a share of $100K in CLIQ airdrop: https://t.co/D0phguiqHw #Bitcoin #ETH #Citi #AON #LATOKEN",0,0
1375235554351153153,"2021-03-25T23:58:01Z","RT @MichaelCMcKee: Get Rich Like Beeple With This Crypto Art NFT Generator https://t.co/bWjJf5V4pV #Technology #ETH https://t.co/xHKogIKafE",0,0
1375235552996429829,"2021-03-25T23:58:01Z","@cryptomon_eth Because they're Handsome! 👐",0,0
1375235534516322306,"2021-03-25T23:57:56Z","@FEGtoken Deflationary asset that distributes rewards every transaction just for holding  #FEGex Unique low fee exchange bridging #Eth #Bsc providing further rewards - liquidity pool, staking #Crypto #DeFi #Blockchain #Alts #NFTs #YieldFarming #Passiveincome",29,0
1375235516472434689,"2021-03-25T23:57:52Z","$NPXS ETH is a good buy NOW",2,0
1375235491461791753,"2021-03-25T23:57:46Z","🔄 Prices update in $USDT (1 hour):  $BTC - 51523.18 $      (-0.45 %) $ETH - 1589.67 $       (+0.4 %) $DOT - 30.69 $         (+0.97 %) $ADA - 1.1 $           (-0.75 %)  #BTC #ETH #DOT #ADA #Crypto #Bitcoin",0,0
1375235491021402113,"2021-03-25T23:57:46Z","$ETH  If the daily candle closes above 2k, it will easily cross 2500$ mark. Keep an eye on it.  Checkout the link in bio for crypto signals  $OMG $TOMO $OCEAN $FET $ALGO #bitcoin 68305 https://t.co/px4hZ8RSwb",0,0
1375235483119149056,"2021-03-25T23:57:44Z","BUNNEH’s #NFT is a #MentalHealth initiative we created!  Please get involved!! All funds from #BUNNEHs #NFT are being used to fund Mental Health Therapy for a loved one! Contribute to a fantastic cause https://t.co/pDr0GrcdGn  All NFT starting 0.005 $ETH @coinkit_ mon 25 1000 BTC",171,0
1375235482259320832,"2021-03-25T23:57:44Z","WARNING! MASSIVE airdrop🚨   $QDAO is a true 💎since 2019, by famous team, just 10 MILLION CAP  1. Go now to Twitter @QDefi  or telegram https://t.co/x0vuSIVfV9   2. Get your free tokens  3. HODL this gem until 10x-20x🚀  (soon - launch cross-chain tool for BSC, DOT and ETH) https://t.co/QV8KvEnydw",584,0
1375235480061538304,"2021-03-25T23:57:43Z","6/ Some underperformance here with $LTC, $XTZ, or $DASH, but also some outperformance there with $ETH, $DOT, $ADA and also a flurry of more DeFi-looking coins -I’m thinking of $AAVE, $MAKER or $COMP.",1,0
1375235464056160256,"2021-03-25T23:57:39Z","AUDIO / ETH Liquitiy Pool   Available NOW .... APY OVER 1000 %  @AudiusProject   ( $AUDIO  / $ETH )   @1inchExchange  =&gt;   https://t.co/gfN23XY5FC     #Ethereum  #AUDIO #audius #DeFi #apy https://t.co/EOEncr2Hwu",4,0
1375235462181322753,"2021-03-25T23:57:39Z","RT @scoinaldo: We aren’t finished before $BTC 150k and $ETH 9k.  Good Night 🌙",3062,0
1375235459601768448,"2021-03-25T23:57:38Z","🚨 new drop / giveaway alert 🚨  buster bounce // galaxy animated collector card fifty mint available on @opensea  0.1 ETH  🎉 giveaway 🎉 like/follow/rt for a chance to win one  #whoisbuster #nft #nfts #NFTGiveaway #nftart #NFTartists #NFTartist  https://t.co/BGhAD9SUGF",38,0
1375235455155724290,"2021-03-25T23:57:37Z","Guys if youre gonna short, dont short the bottom lmao, you're all gonna get rekt on this squeeze before an eventual move down  #bitcoin #ethereum #btc #eth #crypto #cryptocurrency",0,0
1375235451154489352,"2021-03-25T23:57:36Z","🤌Fear is a strong emotion🤌  Remember how happy you were to see these prices on the way up🌎☁️🔥☁️🚀🌛   #Bitcoin #Ethereum #ETH",0,0
1375235444863074307,"2021-03-25T23:57:35Z","@cryptomon_eth I am more interested in what you plan to do once you buy it and what's your most prized piece so far as a collector :)",1,0
1375235442099032067,"2021-03-25T23:57:34Z","Order successful!  LAND Coordinates: [54, -125] Price: 3.0800 $ETH ($5,517.6 USD = 3.0800 $ETH)  Purchased by https://t.co/rIxMMRe20j from https://t.co/KxHX8bIJ1S  https://t.co/Yo5ycQG4Op #decentraland #land #parcel #estate #mana https://t.co/oJaTXXfqek",3,0
1375235440198946816,"2021-03-25T23:57:34Z","BREAKING:  @CoinDesk thinks ETH will be only at $2k in 5 months. https://t.co/ZiLVg1PD8c",0,0
1375235419529416706,"2021-03-25T23:57:29Z","Blue Winter Jacket was purchased for 0.0269 $ETH ($48.19 USD = 0.0269 $ETH) by https://t.co/CpkCGHryu1 from https://t.co/BbfHI8gzcO https://t.co/RvHYUQN0da #decentraland #wearables https://t.co/QOS2eIpEa2",3,0
1375235419244142597,"2021-03-25T23:57:29Z","@draecomino Specifically the sports betting prediction markets. Prediction mkts in general but sports betting is going to be so cool. Also the protocols making stock/asset exchanges. Gotta get some defi tesla synths. Stoked for it all. And if eth 2.0 is delayed sounds like optimism is close",3,0
1375235408481685505,"2021-03-25T23:57:26Z","Together with @NFTland &amp; @wildcards_world I created a CHARITY NFT!  You can buy this NFT for 0.1 ETH, you will get a handwritten Postcard sent to you and you can win up to 0.75 ETH and some NFTs from @wildcards_world   https://t.co/FUvTmtb4PL",9,0
1375235408125173762,"2021-03-25T23:57:26Z","The crypto market is painted red this morning! $BTC fell down to $52k. All top altcoins, including $ETH (-6.58%), $DOT (-14.16%), and $XRP (-9.08%), are also seeing major losses.  🚨 Buy the dip at the best rates on the market on https://t.co/N8fM0bij6O https://t.co/dOCWsHvQOr",6,0
1375235399858151429,"2021-03-25T23:57:24Z","@NFCrypT $PAINT #NFTs Made on The @MurAll_art! ;)  Finite supply token for regulation, all #nftart stored directly on ETH #blockchain. L2 @0xPolygon  is in works for the sit and already trading on @QuickswapDEX  https://t.co/V47wl8yjPx  #Painters #Murallists #Murall #Bitcoin #crypto https://t.co/Qq8Q0aAJRp",18,0
1375235391159173123,"2021-03-25T23:57:22Z","What is Bitcoin ?? { by Wasim Faiz } from @hashnode  #bitcoin #cryptocurrency #coding #blockchain #blogging #CryptoNews #ETH #100DaysOfCode  https://t.co/ACbuYXmJtJ",1,0
1375235386746662912,"2021-03-25T23:57:21Z","And here it is - $ZDCash liquidity mining by @launchzoneann and @ezDeFi 😉 You can check the allocation of the #ZDCash distribution here, even more pools are coming up:  ZDCash/BNB: 15% ZD/BNB: 15% ZDCash/BUSD: 45% BNB/BUSD: 5% BTCB/BNB: 5% BTCB/BUSD: 5% ETH/BNB: 5% USDT/BUSD: 5% https://t.co/3Ox7jSIy1P",220,0
1375235368891645953,"2021-03-25T23:57:17Z","Hello @Poolz__ community !  After @bepronet ,  Tomorow #tacoswap Dex open a new pool for poolz token owner.   You will have more rewards than uniswap !  See you tomorow ! Welcome !  #poolz #uniswap #DeFi #ETH #Crypto #bepronet #liberezcrypto4youOFF #tacoswap",1210,0
1375235368249782278,"2021-03-25T23:57:17Z","$AVAX Avalanche is an umbrella platform for launching decentralized finance (defi) apps, financial assets, trading and other services.  Similarities between $AVAX &amp; $ETH 👀👀 Is $AVAX going to 🪐🪐🪐? F#$%k the 🌜",0,0
1375235342622724103,"2021-03-25T23:57:10Z","🔄 Prices update in $USDT (1 hour):  $BTC - 51523.18 $      (-0.45 %) $ETH - 1589.67 $       (+0.4 %) $DOT - 30.69 $         (+0.97 %) $ADA - 1.1 $           (-0.75 %)  #BTC #ETH #DOT #ADA #Crypto #Bitcoin",0,1
1375235341519515648,"2021-03-25T23:57:10Z","$ETH 4H chart is showing a Resistance level at $1,882.50 and and a Support level at $1,441.17  The candles are above the uptrend and above the itchimoku cloud, once we break this resistance level then we will head to $2,046.28  Keep a lookout for breakout.  #ETH #Ethereum #DeFi https://t.co/oP4L6XzJO0",1005,1
1375235338445193217,"2021-03-25T23:57:09Z","Hey #NFTCommunity  I Reduced the price by 0.15 ETH. Self-discovery Vol.2 (The Dream) Is now available to bid. Any support and Retweet is appreciated. #nft #NFTs #NFTcollectibles #NFTcollector #NFTart #NFTcollectors #nft  https://t.co/qhGfk14eqe",30,1
1375235335794393092,"2021-03-25T23:57:09Z","LaCantina was created for 100 $MANA ($84.54 USD = 0.0525 $ETH) by https://t.co/mDRH8Rlg9D https://t.co/JedKFbKGwQ #decentraland #names #avatar https://t.co/MZBf6wjDMk",2,1
1375235325556064256,"2021-03-25T23:57:06Z","@nneed to spend your own money to trade #cryptocurrency. Over 10K users won crypto rewards on @latokens last week. It's the best way to join the financial revolution. Start by earning a share of $100K in CLIQ airdrop: https://t.co/3SnTSqa8Lu #Bitcoin #ETH #Citi #AON #LATOKEN",0,0
1375235318039777284,"2021-03-25T23:57:05Z","Which centralized finance platform do you recommend to a friend to invest early in to create passive income using your #crypto? @NexoFinance @CelsiusNetwork @BlockFi #btc #eth",180,0
1375235317452529666,"2021-03-25T23:57:04Z","💧YetuBit Airdrop 2nd Round💧  🏆 Task:          ➕  25 YETU (~$20)  👨‍👩‍👧 Referral:   ➕  5 YETU (~$4)  🔛  Airdrop Link &amp; Information: https://t.co/ZoGw3AR71I  #cryptocurrency #Crypto #Bitcoin  #BSC #BinanceSmartChain #Ethereum #ETH #Airdrop #bounty #YetuBit #YetuSwap #YETU",4530,0
1375235315653222400,"2021-03-25T23:57:04Z","🔥Yo are you excited ?  @dypfinance will be listing on my favourite exchange,  KuCoin!💫  ■DYP/USDT &amp; DYP/ETH trading will start tomorrow, March 25th at 10AM UTC!  ✅ More News at: https://t.co/vYtPN50K4e  ☆Stay tuned for more thrilling news  and innovations from $DYP https://t.co/Xd8hgWK2m2",282,0
1375235304148328449,"2021-03-25T23:57:01Z","Masturbator PRO Classic in now FREE (0,00 eth) on @opensea   Enjoy your lonely moments with a trusty companion. Masturbator PRO gives you the freedom you need: no more people, no more hands!  https://t.co/KNzkbqa7FN  @opensea  #nfts #NFTCommunity",0,0
1375235297743675397,"2021-03-25T23:57:00Z","@JRNYcrypto Some more #ETH #BTC #BNB  #DOT #ADA and # CRO",0,0
1375235292118982657,"2021-03-25T23:56:58Z","And here it is - $ZDCash liquidity mining by @launchzoneann and @ezDeFi 😉 You can check the allocation of the #ZDCash distribution here, even more pools are coming up:  ZDCash/BNB: 15% ZD/BNB: 15% ZDCash/BUSD: 45% BNB/BUSD: 5% BTCB/BNB: 5% BTCB/BUSD: 5% ETH/BNB: 5% USDT/BUSD: 5% https://t.co/3Ox7jSIy1P",220,0
1375235284187688961,"2021-03-25T23:56:57Z","My Crypto Strategy on ICONOMI just outperformed BTC. Check it out here: https://t.co/ahSkQlb9ov #eth #ethereum #investing #btc https://t.co/mLyyBTqImS",0,0
1375235277875122178,"2021-03-25T23:56:55Z","New #digitalcurrencyalien #NFT pixel art available on https://t.co/zm1A0zl48c Limited to 1 mint each for 150+ artworks available using $ETH! RT for some free #Bitcoin !!  @coinkit_ com 50 1000 BTC #NFT",207,0
