"ID","created_at","text","like_count","rt_count"
1375364384336216071,"2021-03-26T08:29:56Z","@scottmelker ADA will slowly slit the throat of ETH",1,0
1375364373120745475,"2021-03-26T08:29:54Z","RT @cryptogang_us: Tell someone to follow @cryptogang_us, whoever gets the most #RT wins $50 in #ETH Giveaway Friday 🤑🤑🤑 #CryptoGang",3,0
1375364355345252356,"2021-03-26T08:29:50Z","Crypto forecast - Using Bitcoin as our guide, cryptos should be seeing their final bull market surges in coming months, with huge gains ahead #Altseason2021 #cryptocurrencies #cryptocurrency #Crypto #Bitcoin #Litecoin #Ethereum #LINK #BTC #LTC #ETH #BNB https://t.co/XD0sDSjYpi",290,43
1375364339528572929,"2021-03-26T08:29:46Z","When are we getting those airdrops from the 10+ accounts who told us to:  Drop your $ETH address below and don't ask any questions",2,0
1375364325217427459,"2021-03-26T08:29:42Z","@tanya_4d @chriswallace SO SO Good! @chriswallace.eth you KNOW you want this one. :)",0,0
1375364319668535299,"2021-03-26T08:29:41Z","Earn $25 by completing simple tasks... Get 5 DFN Tokens ($25) for joining bonus &amp; 0.5 DFN ($2.5) for every referral... 1 DFN = 5$ https://t.co/i6eTLGuttM  #Airdrop #Airdrops #giveaway #giveaways #CryptoGiveaway #Crypto #DFN #ETH #ethereum #bounty #freetoken #blockchain",0,0
1375364307706290176,"2021-03-26T08:29:38Z","New #digitalcurrencyalien #NFT pixel art available on https://t.co/zm1A0zl48c Limited to 1 mint each for 150+ artworks available using $ETH! RT for some free #Bitcoin !!  @coinkit_ com 50 1000 BTC #NFT",207,0
1375364292002816002,"2021-03-26T08:29:34Z","🚀 Pluto Coin  Airdrop 🚀 Rate: ⭐⭐⭐⭐ ⭐ 🎁 Reward:  8822 PLUT ($1500) 👫 Referral: 40.5 PLUT  ($7)  🤖Start Bot here   https://t.co/x5JZchojO8  ⛂ Join Telegram group and channel. ⛂ Follow twitter &amp; retweet  ⛂ Submit ETH address and details.",6005,0
1375364291185016832,"2021-03-26T08:29:34Z","And the story continues... after reaching more than $1.5B TVL in pool 1 and whales started dumping, the @FloatProtocol community decided to cast a vote to end pool 1 rewards early (after 2 weeks) and only incentivize $BANK / $ETH LP (pool 2). A big FU whales! $FLOAT #fairlaunch https://t.co/RtqCsd59eL https://t.co/DAHtTqmO2F",5,3
1375364278966910976,"2021-03-26T08:29:31Z","@PeterMcCormack Most people lose trading anything including bitcoin...  eth serves purposes other than trading... like collateralized lending for example",0,0
1375364266350551047,"2021-03-26T08:29:28Z","30 day EVIX: 98.4074 ETH/USD vwap: $1,634.59 04/16 expiry volume: $1,643,067.93 04/30 expiry volume: $4,773,710.06 Current time: 08:29:06",0,0
1375364250290462732,"2021-03-26T08:29:24Z","No need to spend your own money to trade Over 10K users won crypto rewards on @latokens last week. It's the best way to join the revolution.Start by earning a share of $100K in CLIQ airdrop: https://t.co/vUOG79o8aa #Bitcoin #ETH #Citi #AON #LatokenApp  @honamktqd  @kekin_alex",0,0
1375364244040978433,"2021-03-26T08:29:23Z","RT @NSapProductions: Ahhh yeah getting stoked for some staked $DIVI on $ETH courtesy of @stakedTokens! 🚀 https://t.co/QhTTBbJNzQ",95,0
1375364214970191874,"2021-03-26T08:29:16Z","@SpiderMonkeyNFT with 0.15 ETH bid on THE OCEAN at @withFND   11 hours left to bid with @SpiderMonkeyNFT #nftcollector #nftart #NFTartists #ETH   https://t.co/2ErWX2HyGh",7,1
1375364214781587456,"2021-03-26T08:29:16Z","@tanya_4d First one just up, second one coming! (need more eth to mint lol) https://t.co/2oIfxaUMNA https://t.co/a3PSiIcq1z",0,0
1375364192459501568,"2021-03-26T08:29:11Z","NEW / Astro Punk #88 - Yos Aro  Who's going to choose Yos Aro as their new star fleet commander from astro space station 🚀  Just 0.02 $eth last chance at these prices   Plenty more also available, check link below 🛸  https://t.co/igLaJnwcQS  #nfts #nftcollectors #NFT #nftdrrop https://t.co/pZdzINTWzA",4,0
1375364187388530688,"2021-03-26T08:29:09Z","Ripple Scores Goal: Court Assigns Telephonic Conference on #SEC Documents Regarding #BTC and #ETH  Here comes the 🔥   HODL #XRP!! 📈📈📈 https://t.co/3HjYFhN28R",555,0
1375364181977825283,"2021-03-26T08:29:08Z","🚀 Safe The Children  🔷 Token Symbol : STC  🔷 Contract: https://t.co/nk3qsF2PJV  🔷 Website: https://t.co/4y0g7dqswM  🔷 Whitepaper: https://t.co/PHPZI4dbyR  🔷 Presentation Video : https://t.co/Mycfov12IU  #Safe_Childrens #Bitcoin  #Binance #BinanceSmartChain #DEFI  #BTC #ETH",14722,0
1375364180979556354,"2021-03-26T08:29:08Z","New #digitalcurrencyalien #NFT pixel art available on https://t.co/zm1A0zl48c Limited to 1 mint each for 150+ artworks available using $ETH! RT for some free #Bitcoin !!  @coinkit_ com 50 1000 BTC #NFT",207,0
1375364168338055168,"2021-03-26T08:29:05Z","Perr Schuurs bought for 0.219 ETH (357.71$) by Vipovitch on the primary market   Season: 2020-2021 Level: 0 Serial: 39/100 Price: 357.71$  ⚽ Sorare: https://t.co/skFVgkEqQ5  📊: https://t.co/ZQY1FYd909  #Sorare #NFT #Ethereum #FantasyFootball",0,0
1375364158233964545,"2021-03-26T08:29:03Z","Oyez, Oyez, Oyez!  🚀Floating in space🚀 SOLD for 5.0 ETH on OpenSea! FROM: 0x10d12277a6a6d24ea560859963afd0e61bc9d8ba TO: 0x3dfd85120cd01c63d3d5d77b1d561022001e8cb2 Check out the transaction: https://t.co/FjYfOueLGm #NFT #NFTartist #cryptoart https://t.co/DkFATHA2Ft",2,0
1375364155947900930,"2021-03-26T08:29:02Z","@anonymosrando Just got home, getting close to 20 ETH",5,0
1375364144753426432,"2021-03-26T08:28:59Z","Just 9h for this one! ⏰  Current bid 0.12 ETH  #NFT #NFTs #NFTCommunity   https://t.co/kY8vWF9f18",0,0
1375364124612427777,"2021-03-26T08:28:54Z","Finally out! #openaccess book Introduction to #Epigenetics with @LabSantoro and non-twitter #Paro #Grossniklaus #Wutz inspired by our #ETH #UZH lectures https://t.co/ZZSwEsusK0  @SpringerCellBio https://t.co/nX4f7Gb28a",245,0
1375364112901943297,"2021-03-26T08:28:52Z","Awesome, beautiful piece related to Onset Eclipse ... Save Yourself: Beginning is the End   1 of 1 • Current offer of Ξ 0.75  https://t.co/xHSDiAfpqQ  @KnownOrigin_io  Art by @WGMeets  #cryptoart #NFT #cryptoartist #ETH",12,0
1375364107071852554,"2021-03-26T08:28:50Z","*GET YOURSELF A US PAYPAL ACCOUNT*  You'll be able to Buy &amp; Sell Crypto (BTC,Eth,Litecoin) with it  *You can send &amp; receive money from any part of the world*  *It allows account numbers,Routing Number Enable*  *NOW AT A REDUCED RATE*🔥  *Get yours now* 👇  https://t.co/VQ9jyQ8NN9 https://t.co/rg3ho5vMAp",89,0
1375364098452426752,"2021-03-26T08:28:48Z","🏆 Follow us &amp; Retweet this tweet, Specify the ETH address in the tweet comment to get 10 #BIT ($10 worth) or 50 #BIT ($50 worth) #BitScores Airdrop Tokens! 🎁 $250,000 Prize Pool Full rules: https://t.co/N53M5nRXr9  #giveaway #airdrops #bounty #giveaways #defi #eth #btc #airdrop https://t.co/m77hDtRsBv",3577,0
1375364093306019842,"2021-03-26T08:28:47Z","$PIKA  NFT giveaway! ⚡Telegram:https://t.co/j3zKJldpi1 $link $xrp $bnf $bdog $eth $uni $bao $shib $feg $raini $bunny $raine $dash $doge $scat $kangal $rfi $fet $ada $dot $poodl $froge $ern $enj $chz $cgg #nft #nftcollector #NFTCommunity #NFTs #pokemon #pikachu #nidoking https://t.co/nnoSi9SaHM",7,2
1375364081004204032,"2021-03-26T08:28:44Z","RT @alecttn: SOOLD! Thank you @ModeratsArt for collecting this piece for 1.7 ETH on @KnownOrigin_io 😍🙏🏻 Super grateful 🔥 https://t.co/qJKtb…",12,2
1375364072636522499,"2021-03-26T08:28:42Z","@MyRugema @enne_d @withFND That what I was wondering. Prices are insane on Foundation. I hope it will change for the better especially with Eth 0.2, cuz with my teachers pay not something I can afford",1,0
1375364069063004160,"2021-03-26T08:28:41Z","RT @QuintenFrancois: This is why $ETH is here to stay... https://t.co/USHKA6o26A",2745,0
1375364068752654337,"2021-03-26T08:28:41Z","Leth #90  https://t.co/GzO7JaC5k4  #NFTs #NFT #nftcollector #nftcollectors #NFTCommunity #nftart #NFTartist #opensea #Ethereum #ETH #cryptoart #cryptoartist #crypto",8,0
1375364067670511616,"2021-03-26T08:28:41Z","ETH  0x24555E4d612128111Aa77c68B10C18493F2442bD  Very good, so good, thanks https://t.co/DGn8e0gVvC",0,0
1375364059713835010,"2021-03-26T08:28:39Z","@PeterMcCormack You tell me. It seems like your whole basis for hating eth as that you don't understand it and you don't think most people do, so therefore it's not safe...  but don't you defend the same garbage about bitcoin?",0,0
1375364051094634499,"2021-03-26T08:28:37Z","RT @CryptoGodJohn: April thoughts.   $ETH out performs $BTC   $XRP out performs $ETH  DeFi out performs the market.",918,0
1375364045461577729,"2021-03-26T08:28:36Z","I don’t think many people understand what’s about to happen.  At our current pace, in probably 1-3 years, the experience of #defi is going to be better than #tradfi in every imaginable way.  What do you think happens next?  $ETH",333,0
1375364034824929283,"2021-03-26T08:28:33Z","Today we are excited to announce the start of $LINK / $LCX trading pair at @LCX Exchange. Trading has started at https://t.co/Zjnt1fFLyq  This is the first new trading pair next to $BTC and $ETH for our exchange based token $LCX.   #100DaysLCX 💯 https://t.co/ei46bnfBQg",256,0
1375364016420220929,"2021-03-26T08:28:29Z","https://t.co/dBd1U9GQHK 🔹1 FLY = 0.40 USD 🔸For Joining - Get 30 FLY($12) ⭐️ For each referral - Get 10 FLY($4) #Airdrops #blockchain #cryptocurrency #ICO #bitcoin #Crypto #ETH #giveaway #DeFi #cctip_io #BNB #android11 #BSC #PancakeSwap #BinanceSmartChain #Aave #EarnX #BTC",0,0
1375364007750733824,"2021-03-26T08:28:27Z","RT @IamCryptoWolf: $ETH.  Bouncing from the 50% fib . 💪 https://t.co/vuqj3Yh8QC https://t.co/6Z9l7D3fHB",173,0
1375364005443866626,"2021-03-26T08:28:26Z","Im going long on $Eth  entry price: 1600 usdt",0,0
1375363995398516736,"2021-03-26T08:28:24Z","Just 9h for this one! 🌿  Current bid 0.13 ETH  #NFT #NFTs #NFTCommunity   https://t.co/hVJMp7TSeM",2,1
1375363958190829569,"2021-03-26T08:28:15Z","RT @IamCryptoWolf: $ETH.  Bouncing from the 50% fib . 💪 https://t.co/6Z9l7D3fHB",173,1
1375363955586125825,"2021-03-26T08:28:14Z","@senseiam @cryptoryum Gate Exchange @gate_io has completed $DREP upgrade and started the trading of UPGRADED $DREP / $USDT and $DREP / $ETH today!  👉 https://t.co/LqOC32baTr https://t.co/K8ZVnnqpH0",0,0
1375363940364992512,"2021-03-26T08:28:11Z","@TheADAApe shock news 💣 #Ethereum #ETH",2,0
1375363919099817989,"2021-03-26T08:28:05Z","New #digitalcurrencyalien #NFT pixel art available on https://t.co/zm1A0zl48c Limited to 1 mint each for 150+ artworks available using $ETH! RT for some free #Bitcoin !!  @coinkit_ com 50 1000 BTC #NFT",207,0
1375363915752861698,"2021-03-26T08:28:05Z","What moves price? Effort. What is effort? Large MARKET orders. What stops price? Liquidity. Large LIMT orders  Price moves up compelling you to buy, it moves down compelling you to sell. Price forces action on your part. Price moves to force participation in the market $BTC $ETH",376,0
1375363910312804353,"2021-03-26T08:28:03Z","80 Countries Included ✅ 365 Day Validity ✅  1 World 1 Operator 1 Gigabyte  1 Price  #eSIM #DENT $DENT #ETH #Apple #Android #Samsung #Travel #testimonials https://t.co/dIZVK8nodv",139,0
1375363906324008963,"2021-03-26T08:28:02Z","🗣️ @TheCryptoLark a renowned Crypto Analyst covered @seascapenetwork in one of his most recent videos.  In this video, Davis told investors he was bullish on Seascape ( $CWS )🚀 https://t.co/V18v5IuwDD  #BSC $CWS #DeFi #Seacape #NFT #ETH #CryptoNews  #CTBot Adrop RAM 1 trx 50",34,0
1375363890670866432,"2021-03-26T08:27:59Z","@trueMarcusSisk That is one argument. My primary argument against Eth is that most people lose trading, therefore it is risky. Eth will trend to zero v Bitcoin so better to hold Bitcoin.  My issue with Defi is there have been too many scams, rug pulls and smart contract hacks.",0,0
1375363884719120387,"2021-03-26T08:27:57Z","$ANKR +110% from entry!  👉 Join Channel: https://t.co/Cg2lD5ExP8  $BTC $ETH #NFT $PERL $ENJ $FLOW $THETA #BSC $REEF $LUNA $SAND $AXS $TVK $HOGE $CHZ $STX $ROSE $TROY $ONE $CERL $IRIS $ANC $ADA $DIA $XRP $DOGE $ATOM $LUNA $ZCX $BNB $WABI $LTO $CVC https://t.co/BSedDKAwbB https://t.co/4oSgMNlRyD",4,0
1375363882856939522,"2021-03-26T08:27:57Z","If you missed $ankr don't miss $fet!  If you ain't buying $fet you hate money!  $btc $eth $link $ankr $ast $mir $luna $trac $tone $idex $uni $xiot $wabi $storj $chz $theta",4,0
1375363877425270785,"2021-03-26T08:27:56Z","Thanks for this, God bless you Eth address: 0x0eaDaD55A37693aF574A0565100498402a83A687 https://t.co/U1GB9dkqdg",0,0
1375363874602377217,"2021-03-26T08:27:55Z","The DEX @FinanceChainge is set to launch on the @FUSIONProtocol network with over a million users on the protocols waitlist. This decentralized exchange aims to innovate on traditional models through leveraging the Fusion Network.  #BSC #BTC #ETH #BNB  https://t.co/xx55YiGfm3",21660,0
1375363865454780417,"2021-03-26T08:27:53Z","why isnt anyone talking about how NFTs being settled in ETH means ETH is now potentially the base currency of all internet culture, history, memes, and digital art",2472,0
1375363865127612417,"2021-03-26T08:27:53Z","#CoinInn #Airdrops  THINGS TO DO: -register https://t.co/o7VvqIKX60 -RT&amp;TAG 3 firends -comment your #Coininn #BTC wallet address we will select 10 luck winners 20€ each one special winner for 50€ if you are in the #telegram group https://t.co/OrtTBnXWke #ETH #Giveaways #Bitcoin",156,0
1375363848736137217,"2021-03-26T08:27:49Z","RT @CashNCrypto: $150 to one person in 48hrs  Rt &amp; follow me + @domscrypto &amp; @boar_eth",2067,0
1375363833317847049,"2021-03-26T08:27:45Z","Is it weird most people doesn’t like buying crypto cheap🤔 They only like it when it goes to ATH😂 See you during moon and pump😂 #Wanchain $Wan $Wasp #Wanswap $btc $Bnb $eth  $Win #Wink $Dia $trx #cryptowhattobuy",22,2
1375363830017097729,"2021-03-26T08:27:44Z","RT @Livercoin: $ETH - looks good https://t.co/UuFbG4HMRS",474,2
1375363826149859338,"2021-03-26T08:27:43Z","@TheMoonCarl Mark my words; in the near future, #Banks will be giving out #Cryptocurrency loans instead of #Fiat #Cash loans  This is how the top 5 #Crypto #Marketcap will look at the end of the year  1. $BTC 2. $ATOM 3. $ETH 4. $ADA 5. $BNB  👉 Don’t #Follow me if you’re already a #GENIUS 😉 https://t.co/gNYIY7v0SJ",3,0
1375363808672243715,"2021-03-26T08:27:39Z","@UgahJane @cryptomon_eth @NastyBlaq @haarttweets @met_africanart @ARTAFRICA_mag @ArtCollectionF1 @si_africanart The name only self worth a Disney movie 😄 Great work 💯",1,1
1375363808487612416,"2021-03-26T08:27:39Z","New #digitalcurrencyalien #NFT pixel art available on https://t.co/zm1A0zl48c Limited to 1 mint each for 150+ artworks available using $ETH! RT for some free #Bitcoin !!  @coinkit_ com 50 1000 BTC #NFT",207,1
1375363794570944517,"2021-03-26T08:27:36Z","Why Crypto Trading Is Exploding In Africa.#ukraine #ETH  #Eritrea #EthiopiaPrevails #Erdogan #Bitcoin #CryptoNews #cryptopunks #Ripple #BTC #US #Germany #SouthAfrica #Uniswap  https://t.co/kKODA7KlOZ",10,3
1375363793459539969,"2021-03-26T08:27:36Z","Video - https://t.co/sItz2VAYxM Atari Is Building a Casino in Ethereum’s Virtual World Decentraland  #Atari #Gaming #Decentraland #Casino #Crypto #cryptonews #cryptocurrency #crypto #btc #eth #bitcoin #ethereum #atri #mana #dg https://t.co/zE4Y4Y1PXF",10,3
1375363793002323971,"2021-03-26T08:27:35Z","Hello @Poolz__ community !  After @bepronet ,  Tomorow #tacoswap Dex open a new pool for poolz token owner.   You will have more rewards than uniswap !  See you tomorow ! Welcome !  #poolz #uniswap #DeFi #ETH #Crypto #bepronet #liberezcrypto4youOFF #tacoswap",1210,3
1375363791857332224,"2021-03-26T08:27:35Z","$ETH.  Bouncing from the 50% fib . 💪 https://t.co/vuqj3Yh8QC https://t.co/6Z9l7D3fHB",173,13
1375363787344150530,"2021-03-26T08:27:34Z","@zhusu Mark my words; in the near future, #Banks will be giving out #Cryptocurrency loans instead of #Fiat #Cash loans  This is how the top 5 #Crypto #Marketcap will look at the end of the year  1. $BTC 2. $ATOM 3. $ETH 4. $ADA 5. $BNB  👉 Don’t #Follow me if you’re already a #GENIUS 😉 https://t.co/kbC5TqfxSR",3,0
1375363786937405440,"2021-03-26T08:27:34Z","Ripple Scores Goal: Court Assigns Telephonic Conference on #SEC Documents Regarding #BTC and #ETH  Here comes the 🔥   HODL #XRP!! 📈📈📈 https://t.co/3HjYFhN28R",555,0
1375363773289046019,"2021-03-26T08:27:31Z","No need to spend your own money to trade #cryptocurrency. Over 10K users won crypto rewards on @latokens last week. It's the best way to join the financial revolution. Start by earning a share of $100K in CLIQ airdrop: https://t.co/tSBTKmxMSR #Bitcoin #ETH #Citi #AON #LATOKEN",0,0
1375363770508279811,"2021-03-26T08:27:30Z","@Vumpkin1 @withFND There all so goood I love grind tho and king eth then do all the cartoon remake ones",1,0
1375363769908436996,"2021-03-26T08:27:30Z","@blasterrjaxxx @withFND @CgFella Get them eth! https://t.co/sp32ptbAEz",1,0
1375363765135368192,"2021-03-26T08:27:29Z","okay so many of you are saying that #Ethereum is dead and lack everything it needs  but last time I checked the current hyped things like defi..nft or last bull market hyped thing ico they were all based on vitaliks coin there have been many ETH killers that came but nothing https://t.co/rDqoLGgTPY",19,0
1375363759871422472,"2021-03-26T08:27:28Z","🔥 The next giveaway is now live! 🔥  💸 This one is the first Crypto Room The Ethereum Exchange!  ➡️ https://t.co/c57LMBy10z  To participate, you need to have the Golden Ticket and:  🔄 Retweet 💟 Like 🐦 Follow 👥 Tag 2 friends 👛 ETH address or DM it if you win!  Good luck! https://t.co/B7Lv16KWqC",155,0
1375363758667694083,"2021-03-26T08:27:27Z","@davidgokhshtein Mark my words; in the near future, #Banks will be giving out #Cryptocurrency loans instead of #Fiat #Cash loans  This is how the top 5 #Crypto #Marketcap will look at the end of the year  1. $BTC 2. $ATOM 3. $ETH 4. $ADA 5. $BNB  👉 Don’t #Follow me if you’re already a #GENIUS 😉 https://t.co/nDu6vbFo93",3,0
1375363755891122179,"2021-03-26T08:27:27Z","No need to spend your own money to trade #cryptocurrency. Over 10K users won crypto rewards on @latokens last week. It's the best way to join the financial revolution. Start by earning a share of $100K in CLIQ airdrop: https://t.co/37ivxk35Cg #Bitcoin #ETH #Citi #AON #LATOKEN",0,0
1375363754771238914,"2021-03-26T08:27:26Z","#Bitcoin Slips to $52K; All Eyes on Friday’s $6B Options Expiry. Some traders calling for a possible test of the $47K support level.  【#Alpex_io Markets Wrap】 Up to 12:00 (GMT+4) today ◆ BTC     +5.17% ↑ ◆ ETH     +2.46% ↑ ◆ LINK    +1.29% ↑ ◆ COMP +8.66% ↑ https://t.co/Zlb9z8nkP2",0,0
1375363752510554114,"2021-03-26T08:27:26Z","🚨@Modefi_official has been added on @get_delta Direct!🚨  🚀 Great news! Be the first to see our announcements directly on your Delta investment tracker app 🙌🏻 Download &amp; subscribe. Lot’s of exciting updates coming very soon!😉🚀  #Defi #IDO #Uniswap #Oracle #ETH #MOD $MOD $SWAP https://t.co/n6DqOrWDEP",96,0
1375363752380485633,"2021-03-26T08:27:26Z","@MisterRNx Sio sana... Lakini nliona something about graphic cards been limited to mine ETH? Ama kitu kama iyo pale coin desk...it got messier?",0,0
1375363751570997257,"2021-03-26T08:27:26Z","Just 9h for this one!   Current bid 0.11 ETH  https://t.co/COhi7DvioN  #NFT #NFTs #NFTart #cryptoart",7,2
1375363695837126657,"2021-03-26T08:27:12Z","🌴 NEW ART DROP 🌴 'Green Oasis' only on @withFND 1/1 Reserve price 0.4 ETH #nftart #nftdrop #nftartist #nftcollectors #cryptoart  https://t.co/7yWvGfqccV https://t.co/w7Fpmm9dEk",111,2
1375363684818542593,"2021-03-26T08:27:10Z","https://t.co/qbseTuhDv5  “GypsyKing” still up for grabs. African and futurism art inspiration.  Price: 0.25 ETH  #Crypto #NFT #nftcollector #NFTCommunity #nftart #NFTartist #digitalart #africanart #Africa",10,2
1375363662148366336,"2021-03-26T08:27:04Z","🔸EXECUTIUM #BITCOIN #SWAP UPDATE🔸 The current BTC/USD swap payout rates from #exchanges. Negative rate means shorts pay longs (and vice versa). @bitfinex USD Funding Rate Best Bid: 2.00 Basis Points Daily.  #BTC #ETH #LINK #crypto #swap #traders #funding #rate #Bitfinex https://t.co/NZgy7NMhdE",2,0
1375363648948953089,"2021-03-26T08:27:01Z","RT @sisi_oniponmo1: Buy this phone or buy ETH?",2,0
1375363647896133632,"2021-03-26T08:27:01Z","No need to spend your own money to trade #cryptocurrency. Over 10K users won crypto rewards on @latokens last week. It's the best way to join the financial revolution. Start by earning a share of $100K in CLIQ airdrop: https://t.co/WuggrZRVLU #Bitcoin #ETH #Citi #AON #LATOKEN",0,0
1375363637565480963,"2021-03-26T08:26:58Z","The DEX @FinanceChainge is set to launch on the @FUSIONProtocol network with over a million users on the protocols waitlist. This decentralized exchange aims to innovate on traditional models through leveraging the Fusion Network.  #BSC #BTC #ETH #BNB  https://t.co/xx55YiGfm3",21660,0
1375363634298294272,"2021-03-26T08:26:58Z","Borrowed DOLA on your ETH and want to park it?  Deposit on Curve Swaps &amp; earn swap fees  In a few days, you’ll be able to earn:  💸 Interest on your ETH collateral 💸 INV reward for supplying ETH 💸 Curve swap fees 💸 More INV reward for staking DOLA-3CRV  https://t.co/kor5B26hoY",71,0
1375363632553459712,"2021-03-26T08:26:57Z","@Defigoing Can I contribute?  $INV - stablepool apy (udsc or dai) that dollarcost average buys Eth, wbtc or yfi  $rgt - two stablepools (that rebalances a bunch of stablecoins) rn now 18.96% and 16.56%. It also has fuse probably the best lending and borrowing platform out there  $ANC + UST",3,0
1375363627667095552,"2021-03-26T08:26:56Z","Yay! My first collectible series Seven Voxel Sins started now with first sin Pride | Superbia. 7 days, 7 cards, 7 sins. Stay clear, be smart, buy now. https://t.co/kOIiGNg6r2 #NFTs #rarible #sevenvoxelsins #eth #cryptoart #cryptoartist #Collectibles https://t.co/OF2NT2wAqm",60,0
1375363627373326343,"2021-03-26T08:26:56Z","#CoinInn #Airdrops  THINGS TO DO: -register https://t.co/o7VvqIKX60 -RT&amp;TAG 3 firends -comment your #Coininn #BTC wallet address we will select 10 luck winners 20€ each one special winner for 50€ if you are in the #telegram group https://t.co/OrtTBnXWke #ETH #Giveaways #Bitcoin",156,0
1375363627352399873,"2021-03-26T08:26:56Z","Welcome to massive Q DAO airdrop!   1. go now to telegram https://t.co/COyXgODY1z   2. Stay in telegram chat and wait announcement.  3. HOLD this gem until 10x   (soon - QDAO launch cross-chain for BSC, Polkadot and ETH)",4254,0
1375363598768214021,"2021-03-26T08:26:49Z","@BitScores Thank you so much for this opportunity, you guys have touch alot of lives with your contribution to the crypto community. Good luck to everyone  ETH:   0x5D90EC17f5A4b6C386e1191a44dE792Da9998f7E",0,0
1375363598340349960,"2021-03-26T08:26:49Z","RT @CashNCrypto: $150 to one person in 48hrs  Rt &amp; follow me + @domscrypto &amp; @boar_eth",2067,0
1375363595941281792,"2021-03-26T08:26:48Z","Aircoins (AIRx) now available on #CoinMarketCap  https://t.co/yq9NxjFWiS  To celebrate we are giving away $200 in #ETH and $200 In #BNB   To enter contest tag #BSC and #CMC   Two lucky winners will be selected March 28th 9am EST. #AIRx is both on #BSC &amp; #ETH networks!🎉🥳📸📱🥂💥 https://t.co/k1ytohl9Fa",479,0
1375363594439774209,"2021-03-26T08:26:48Z","RT @DeribitExchange: We've just introduced the $BTC and $ETH December 2021 futures!  Next up our Bitcoin Volatility Index 👀",174,0
1375363574269308930,"2021-03-26T08:26:43Z","NEW DROP!  [ARIES]   signs of the zodiac      [EXCLUSIVELY ON RARIBLE] https://t.co/ptJrBXOqDg          QUANTITY COLLECTION 1/13                                    [price 0.5 ETH]  #NFT #NFTs #nftart #rarible #cryproart #ethereum #nonfungible #digitalart #crypto #NFTshill https://t.co/R3S6xdtzwq",41,0
1375363572088238081,"2021-03-26T08:26:43Z","New #digitalcurrencyalien #NFT pixel art available on https://t.co/zm1A0zl48c Limited to 1 mint each for 150+ artworks available using $ETH! RT for some free #Bitcoin !!  @coinkit_ com 50 1000 BTC #NFT",207,0
1375363570272206850,"2021-03-26T08:26:42Z","🎉🎉 Lighthouse produced its first #Eth1 &amp; #Eth2 merge transaction 🎉🎉  This is an ETH tx using *only* proof-of-stake validators. A step towards a 99.98% drop in Ethereum energy consumption 🌏🌲🌄  Credits to @gballet, @mkalinin2 &amp; @Teku_ConsenSys!  Important qualifications 👇 https://t.co/DW5GSk4JVo",917,0
1375363542069747714,"2021-03-26T08:26:36Z","4000 subscribers on Youtube! I enjoy doing these reviews on $BTC and $ETH- here's my channel below, thanks for the support:   https://t.co/5fUzCCtQEI",132,0
1375363536218546183,"2021-03-26T08:26:34Z","2/ If you'd like to participate in the Genesis Staking Program, visit https://t.co/kYt8C6JhUr  $theta $fil $Storj $btc $eth #aws #mux #DeFi #nftcollector #nft #Binance #crypto #alts #100x",23,0
1375363530183094274,"2021-03-26T08:26:33Z","Check out this #NFT for sale on Mintable! Pick up 'Queen's Gambit' before its swooped up! https://t.co/Po6P4XjYEY  #mintable #mint #Bitcoin  #Ethereum  #blockchain #Mining #Airdrop #sale #art #QueensGambit #oilpainting #Canvas #NFTCommunity #nftcollector #NFTartist #ETH",15,0
1375363522167734273,"2021-03-26T08:26:31Z","@SEC_News Discuss how you’re going to provide evidence on your decision to classify Eth and BTC as non security and yet deem XRP as a security 🤭 followed by your personal bank statements and anything that is considered to be a conflict of interest 😎",1,0
