"ID","created_at","text","like_count","rt_count"
1376323207028936705,"2021-03-28T23:59:58Z","3LAU Blue Triangle Tee was purchased for 250 $MANA ($267.50 USD = 0.1601 $ETH) by https://t.co/GaKm6gG1TR from https://t.co/k3YSLw0f0P https://t.co/RjpyJQKxB5 #decentraland #wearables https://t.co/1DoOeihNnF",3,1
1376323206605385728,"2021-03-28T23:59:57Z","Realistic price targets for EOY 2021  $BTC $135k $ETH $8000 $RSR $1.25 $ZIL $2.50 $ANKR $3 $ONE $2 $DENT .50 $BAND $75 $UTK $10 $ADA $15 $NU $10 $LINK $100 $SXP $30 $BAT $9 $XRP $0",2348,1
1376323206479368192,"2021-03-28T23:59:57Z","📢Congrats！First launch on Uniswap！ 🚀USDT-NFTs trading pair is live！ 🚀The contract address:  0x6599fc3e77cbfa6f6e9cac605a30b1e78827eba0  💰Hold more NFTs, be richer！  🌸Like、Retweet &amp; Tag 3 friends  🚀Select 10 addresses to airdrop 1,000,000 NFTs, leave wallet #ETH address https://t.co/UZRolz7mvz",909,1
1376323194840346632,"2021-03-28T23:59:55Z","$AABB - Asia Metals Designates $10 Million To Initial Development Program For Colima, Mexico Gold Property And Facilities $EEENF $WDLF $SKDI $HMBL $AFOM $GMPW $TGGI $INCT $GME $FONU $MDMP $UAMM $AURI $VRCFF $PVDG $FTXP $HCMC $AMC $TSNPD $IMTL $ETH $BTC  https://t.co/9dgG12jogA",2,1
1376323194005544962,"2021-03-28T23:59:54Z","5/ Listen, spread this insight to as many people as you can, trying to help you build wealth. Dump your $ADA, diversify out of $ETH, $XRP will not be a bridge currency-Banks will create their own stable coins. $EOS is the future operating system for blockchain finance and dapps.",0,0
1376323193330266114,"2021-03-28T23:59:54Z","$TGGI pulled back to .003 . I would load .003-.0035 . I dont think you would see .002's $EEENF $SPRT $MDMP  $FONU $UAMM $AURI $VRCFF $PVDG $MDMP $FTXP $SMAA $HCMC $NWGC $WDLF $AMC $VBHI $GMPW $TSNPD $IMTL $BRLL $ICBU $ETH $BTC $LTNC $MMEX $AZFL $USEI $VPER $BDGR $GTLL $FTEG $SANP https://t.co/0yTYQiv4hs https://t.co/MexEUmR3d3",2,0
1376323187651317762,"2021-03-28T23:59:53Z","🔥 WoW!!! $DYP getting listed on @kucoincom !  DYP/USDT &amp; DYP/ETH trading will start tomorrow, March 25th at 10AM UTC! Good job @dypfinance team!  #DeFi #uniswap #Ethereum https://t.co/Rw9qa5l5tA",2226,0
1376323179233247234,"2021-03-28T23:59:51Z","⚡🔥 EASY $10(Litecoin) Giveaway!  To win: ✔ Tag a friend ✔ Retweet ✔ Follow us Thats it! Good luck! 💖  Rolling in 36 hours!  #goodvibes #goodluck #giveaway #bitcoin #Giveaways  #cryptocurrency #eth #btc #BSC #TRON",332,0
1376323171113046017,"2021-03-28T23:59:49Z","$DYP liquidity providers earned 6,533.78 #Ethereum worth $10,616,674 since launch!  Earn up to 301.35% APY 💰  If you want to start earning #ETH you just need to join one of our liquidity pools: DYP-ETH, DYP-WBTC, DYP-USDC, and DYP-USDT https://t.co/zxyI0V2tnr  #DeFi #Uniswap https://t.co/acaV7p6h3G",406,0
1376323163609427970,"2021-03-28T23:59:47Z","📢Congrats！First launch on Uniswap！ 🚀USDT-NFTs trading pair is live！ 🚀The contract address:  0x6599fc3e77cbfa6f6e9cac605a30b1e78827eba0  💰Hold more NFTs, be richer！  🌸Like、Retweet &amp; Tag 3 friends  🚀Select 10 addresses to airdrop 1,000,000 NFTs, leave wallet #ETH address https://t.co/epmq5guXuh",947,0
1376323158811176964,"2021-03-28T23:59:46Z","$1 $DAG  $5 $LTX BY SUMMER!!!  $LCX $DAG $DOT $UNI $XRP $BTC $ETH $DOGE $EOS $IOTA $ADA $REEF $ZEC $TRX $LINK $COTI $OCEAN $BNB $ZCX $DASH $XLM $TEL $RUNE $OCTO $QNT $MTV $BAX $NAX $LYM $CAKE $TRTL $SUSHI https://t.co/vMbTWd9KKy https://t.co/S23sGEDo5j",27,0
1376323140041596931,"2021-03-28T23:59:42Z","my notable #NFTs, sorted by estimated value in my personal holdings:  - Autoglyphs - Euler Beats - ArtBlocks (Ringers, Archetype &amp; others) - Beeple - CryptoPunks - XCOPY - $SOCKS - Squiggly WTF - Hashmasks - Ether Cards  i may be wrong on some, but my $ETH is where my mouth is",286,0
1376323134878453760,"2021-03-28T23:59:40Z","Come talk about $ETH here: https://t.co/zcOjz4cmEw Ignore the scammers pretending to be me. I will not DM you!",53,4
1376323133746114562,"2021-03-28T23:59:40Z","🚨 $ltc update: ducc haz same plan on $ltc as $eth which is a break-hook-n go of the previous necc line &amp; preform the S/R flip...👀   #ducconomics #UpOnly 📈 https://t.co/MFixxlBr7M",24,4
1376323130273247242,"2021-03-28T23:59:39Z","Is amazing to see how this project has been out since Dec 2020 and so far Liquidity Providers have earned about 6533.78 $ETH and that is the total value of $10.6 Million dollars. 💪  Also the APY doing 301.35% which is amazing.  #DeFi #UniSwap #BSC #SmartContract #Ethereum https://t.co/9a7rgyoMpE",2385,4
1376323127647555595,"2021-03-28T23:59:39Z","After All by NaimaAlmeida  1 of 1 • Now Available for offers  🔥 Genesis edition 🔥  https://t.co/dpNlsg8K8n  @KnownOrigin_io  Art by @naimaalmeida  #cryptoart #NFT #cryptoartist #ETH",13,3
1376323125562982404,"2021-03-28T23:59:38Z","🎉 3D MASKS GIVEAWAY 🎉  Value: 0.8+ ETH  Complete the following steps for the chance to win a 1/1 #3dmasks   ✅ Follow @3DMasks_  ✅ Like &amp; Retweet ✅ Comment + tag 3 NFT buddies  The winner will be announced 10AM EST April 6th  #NFTCommunity #nftart #nftgiveaway #nftcollectors https://t.co/NdyOwjzD5Q",331,3
1376323119514796038,"2021-03-28T23:59:37Z","Remember the 1st #VoxelHotel Party?😎  ⚠️Well, you get till next Friday to get some new killing wearable!⚠️  PARTY² on The Rooftop,  @EclecticMethod LIVE video remix!   Like+Retweet to win a 🤖 Robot Head X1 wearable : https://t.co/XsNXwq2SOC  @basileus_eth  @cryptovoxels https://t.co/4hnbHb6QBN",223,3
1376323113072226308,"2021-03-28T23:59:35Z","Is amazing to see how this project has been out since Dec 2020 and so far Liquidity Providers have earned about 6533.78 $ETH and that is the total value of $10.6 Million dollars. 💪  Also the APY doing 301.35% which is amazing.  #DeFi #UniSwap #BSC #SmartContract #Ethereum https://t.co/9a7rgyoMpE",2385,3
1376323103941345282,"2021-03-28T23:59:33Z","We are now listed on PanCakeSwap :  https://t.co/ZoehftymoO  #BSC #BEP20 #BNB #ETH #BTC #USDT #USD #PanCakeSwap @PancakeSwap https://t.co/20Vwdp54oD",5,3
1376323098010480640,"2021-03-28T23:59:32Z","RT @BihCrypto: $one is $eth 2.0 🚀🚀🚀🚀",60,3
1376323092507660288,"2021-03-28T23:59:30Z","The good thing about @dypfinance Anti-Manipulation system is that it prevents the Liquidity providers to Sell $DYP instead they are earning $ETH as staking rewards 🧠  #DYP #ETH #Ethereum #SmartContract #DeFi https://t.co/yt6C9Vehln",1905,3
1376323088707620868,"2021-03-28T23:59:29Z","The account is sponsored by #Maanky 🐵 #BTC #Bitcoin #ETH #FOREX Nomura says it has cancelled its planned sale of USD-denominated bonds https://t.co/wnCn6rhJVb",0,0
1376323086371459082,"2021-03-28T23:59:29Z","Cryptocurrencies $ETH $LTC $DASH $XMR $ZCASH https://t.co/Vn54eOgqG9 https://t.co/vjCvyWlXGO",0,0
1376323066217820161,"2021-03-28T23:59:24Z","RT @intocryptoverse: Who was buying $ETH at &lt;$200?",3499,0
1376323063931928582,"2021-03-28T23:59:23Z","I'll send $300 in #ETH or #BTC to one person who retweets this and follows @bud_crypto. Must complete these tasks:  1 - Like/RT his pinned tweet  2 - Must RETWEET &amp; LIKE 4 of his tweets  Ends in 72 hours!",1206,0
1376323057967493121,"2021-03-28T23:59:22Z","I'll send $300 in #ETH or #BTC to one person who retweets this and follows @bud_crypto. Must complete these tasks:  1 - Like/RT his pinned tweet  2 - Must RETWEET &amp; LIKE 4 of his tweets  Ends in 72 hours!",1206,0
1376323049797021696,"2021-03-28T23:59:20Z","Keep in mind that the main things you can do on Loopring at the moment is AMM based pooled liquidity, swap, trade and send transactions to any layer 1 eth address from the Loopring L2 once you want to move out of Loopring.  There will be more features added later and more pairs.",1,1
1376323042058465282,"2021-03-28T23:59:18Z","🚀USDT-NFTs Trading Pair has been listed on Uniswap  🚀The contract address:  0x6599fc3e77cbfa6f6e9cac605a30b1e78827eba0  🌸Like、Retweet &amp; Tag 3 friends  🚀Select another 10 addresses to airdrop 1,000,000 NFTs, leave your wallet #ETH address！  #NFTs #NFT #UNISWAP #DEFI #AIRDROP https://t.co/m2ME6WNxXf",877,1
1376323040552833028,"2021-03-28T23:59:18Z","Since this the launch of @dypfinance back in Dec 2020 looks like Liquidity Providers have earned $11.4 Million dollars in $ETH just from Staking!  Also the project is paying out is $ETH as well and so far 6.2K $ETH have been rewarded.   #DeFi #Crypto #Cryptocurrency #BitcoinTalk https://t.co/zis10XPcL7",1802,1
1376323035049955332,"2021-03-28T23:59:17Z","My first drop at @rariblecom is available   https://t.co/tyPz701sQz  How do you feel Collection  ( live auction, 0.1 eth )  You can see the #AR experience in my ig ( back cam)  https://t.co/lK9uggVmfx #nft #cryptoart  #nftart #NFTcollectibles https://t.co/y74nnY1BPo",29,1
1376323032516546560,"2021-03-28T23:59:16Z","#HTMLCOIN $HTML #TOTHEMOON Thank you @bleutrade ! 🙏 #Bitcoin and #Ethereum hybrid #altcoin Best combo of $BTC and $ETH out there! Let’s go! 🚀🚀🚀 https://t.co/6Iy0Ur1eW1 https://t.co/bGitxRJqc5",21,1
1376323026904612867,"2021-03-28T23:59:15Z","🚨 $eth attempting to break above the previous necc ling of the inverse H&amp;S bruh. if $eth buyers step in ducc would be looking for a break above the necc line, bakkt test as support, &amp; run the highs...👀   #ducconomics #UpOnly 📈 https://t.co/F9506BONes",35,1
1376323023171690501,"2021-03-28T23:59:14Z","RT @intocryptoverse: $BTC and $ETH are cooking",2181,1
1376323023154864130,"2021-03-28T23:59:14Z","RT @crypto_birb: $BTC 90k $ETH 5k coming soon https://t.co/kKro6dgdJL",2404,1
1376323021015822342,"2021-03-28T23:59:13Z","#BTC Price: $55632 #ETH Price: $1689 #LTC Price: $184  Next update in 10 minutes Last updated: 19:59:13.03",0,0
1376323014300684294,"2021-03-28T23:59:12Z","Help him with the first bid. Price 0.1 eth. @withFND! 🌐  https://t.co/rVwbWc6z3n",1,0
1376323004951638016,"2021-03-28T23:59:09Z","💡 Sold 90%. Hurry up...  BUY EXPER: https://t.co/zujmCvzFLZ  How to buy EXPER TOKEN? 1. Register and Login to https://t.co/uAOFvgdpPx 2. ICO Buy 3. Select ETH or BNB  #binance  #bitcoin  #bnb  #ethereum https://t.co/W5pJ35UTIf",140,0
1376323004670566400,"2021-03-28T23:59:09Z","Friends!   Imagine #Pokémon Go... but instead, replace collecting #Pokémon with free #Bitcoin and #Ethereum.   I just just earned another 18,130 #Satoshi from a Yellow Vault!  Come play and earn free #crypto 🙌 Click link and thank me later👇  https://t.co/4lpAy2M7yS  #btc #eth https://t.co/bAmwAos0JY",2,0
1376322992683147264,"2021-03-28T23:59:06Z","$SOL starting to get interesting to me here  Clear market structure break if that H4 OB flips into a breaker and price finds support there  As long as BTC and ETH hold up, this is forming a compelling long setup imo, however if they don't SOL could fall back into the range https://t.co/yvNIXfCFkq",3,0
1376322985783652357,"2021-03-28T23:59:05Z","Welcome home, Stella. You're a 60 in my eyes.   $MEGA @MegaCryptoPolis  #ETH #NFT https://t.co/zOXLfFD1j6",18,1
1376322977827061770,"2021-03-28T23:59:03Z","#Lattice $LTX   $DAG $LTC $DOT $UNI $XRP $BTC $ETH $DOGE $EOS $IOTA $ADA $REEF $ZEC $TRX $LINK $COTI $OCEAN $BNB $ZCX $DASH $XLM $TEL $RUNE $OCTO $QNT $MTV $BAX $NAX $LYM $CAKE $TRTL $SUSHI https://t.co/JQsxvsO4oa https://t.co/YBsFeGdTfX",0,0
1376322975646035978,"2021-03-28T23:59:02Z","I have exacly 1 ETH left, who does have #NFT or #NFTs art that I can buy. Needs to look appealing at least.  RT &amp; Follow to see your art! #nftcollector #nftartist #nftart #NFTCommunity",300,0
1376322974236749825,"2021-03-28T23:59:02Z","ANNOUCEMENT  REMIX INITIAL ROUND 1 - PRESALE   ⚡️TOKEN Bonus = 10% 🙍🏽‍♂️Referral Bonus = 5% 💰Payment Methods: BNB, USDT, ETH  Visit https://t.co/HUHdctVVSm to Enter PRESALE ROUND 1  ➡️ PRESALE ROUND 1 ends on 20th March 2021 15:00(UTC) #presale #rmx #remix #BinanceSmartChain #BSC https://t.co/dPz6FNVPGI",926,0
1376322967458607105,"2021-03-28T23:59:00Z","PAY TO PLAY IS OVER! World’s first mobile RPG with real money trading and a true digital economy. #guildofguardians are giving away exclusive heroes for a limited time only. Sign up for free.  #nft #NFTGame #cryptogames #btc #eth  #crypto   https://t.co/q6NebSFQr6",1,0
1376322963826487299,"2021-03-28T23:59:00Z","The first set of Ahegao NFTs sold out in a week, so I've been working on some more which are now live at https://t.co/MAOPR2F1DH  #pixel_dailies #nft #NFTs #nftart #nftartist #crypto #blockchain #eth #ethereum #digitalart #art #value #nftcollector #hentai #ahegao https://t.co/YWPHtqTMQv",78,0
1376322961766932482,"2021-03-28T23:58:59Z","I have exacly 1 ETH left, who does have #NFT or #NFTs art that I can buy. Needs to look appealing at least.  RT &amp; Follow to see your art! #nftcollector #nftartist #nftart #NFTCommunity",300,0
1376322955622424580,"2021-03-28T23:58:58Z","Keep accumulating $ersdl, find financial freedom. $btc $link $eth #akro  $lukso https://t.co/VnXN7xwVnv",7,0
1376322942854832129,"2021-03-28T23:58:55Z","@KittyPlays @balajis @tferriss @balajis suggested 50/50 allocation for btc/eth on simplest crypto portfolio! Can't agree more, Sir 💯🔥",0,0
1376322936035028996,"2021-03-28T23:58:53Z","Since this the launch of @dypfinance back in Dec 2020 looks like Liquidity Providers have earned $11.4 Million dollars in $ETH just from Staking!  Also the project is paying out is $ETH as well and so far 6.2K $ETH have been rewarded.   #DeFi #Crypto #Cryptocurrency #BitcoinTalk https://t.co/zis10XPcL7",1802,0
1376322931794448384,"2021-03-28T23:58:52Z","I have exacly 1 ETH left, who does have #NFT or #NFTs art that I can buy. Needs to look appealing at least.  RT &amp; Follow to see your art! #nftcollector #nftartist #nftart #NFTCommunity",300,0
1376322920545452035,"2021-03-28T23:58:49Z","this increase did not come by chance are 5 years of long work by a tireless team 👏👏 the giant is waking up 🔥🚀🚀 #htmlcoin #html #Bitcoin #Binance #Litecoin #dogecoin $doge $btc #etherium https://t.co/dKDl3rKGbY",23,0
1376322917902938113,"2021-03-28T23:58:49Z","The good thing about @dypfinance Anti-Manipulation system is that it prevents the Liquidity providers to Sell $DYP instead they are earning $ETH as staking rewards 🧠  #DYP #ETH #Ethereum #SmartContract #DeFi https://t.co/yt6C9Vehln",1905,0
1376322914778144768,"2021-03-28T23:58:48Z","@seanydough And it just dropped!?? Dawg we talkin 20X only got a 200 mill market cap. Shit it hasn’t even done a full 100% this week. I’m buying but these ETH gas fees on Uniswap are terrible lol",1,0
1376322912030969857,"2021-03-28T23:58:47Z","🟢 Swapped $169K in #ETH for #AAVE on #1inch 🐉  🐬 ($951K) #0xF9A957 https://t.co/WYQm4EmFvL",0,0
1376322904250458112,"2021-03-28T23:58:45Z","Since this the launch of @dypfinance back in Dec 2020 looks like Liquidity Providers have earned $11.4 Million dollars in $ETH just from Staking!  Also the project is paying out is $ETH as well and so far 6.2K $ETH have been rewarded.   #DeFi #Crypto #Cryptocurrency #BitcoinTalk https://t.co/zis10XPcL7",1802,0
1376322893701910531,"2021-03-28T23:58:43Z","$one is $eth 2.0 🚀🚀🚀🚀",60,16
1376322883207667715,"2021-03-28T23:58:40Z","🔥 WoW!!! $DYP getting listed on @kucoincom !  DYP/USDT &amp; DYP/ETH trading will start tomorrow, March 25th at 10AM UTC! Good job @dypfinance team!  #DeFi #uniswap #Ethereum https://t.co/Rw9qa5l5tA",2226,16
1376322881496342531,"2021-03-28T23:58:40Z","Is amazing to see how this project has been out since Dec 2020 and so far Liquidity Providers have earned about 6533.78 $ETH and that is the total value of $10.6 Million dollars. 💪  Also the APY doing 301.35% which is amazing.  #DeFi #UniSwap #BSC #SmartContract #Ethereum https://t.co/9a7rgyoMpE",2385,16
1376322875372793857,"2021-03-28T23:58:38Z","Take a look for my new drop. It's a Letter_#025_Y  Theme: Orange 10/10 0.2 ETH  @rariblecom——https://t.co/OVFXxXaDTL   #NFT #NFTs #NFTart #NFTCommunity #NFTartist #ethereum  #cryptoart #rarible https://t.co/9wMO05TZJq",1,0
1376322867613294595,"2021-03-28T23:58:37Z","@RubenAlexand3r @ETH_Nation that whole youtube channel is dope",0,0
1376322860617138178,"2021-03-28T23:58:35Z","Is amazing to see how this project has been out since Dec 2020 and so far Liquidity Providers have earned about 6533.78 $ETH and that is the total value of $10.6 Million dollars. 💪  Also the APY doing 301.35% which is amazing.  #DeFi #UniSwap #BSC #SmartContract #Ethereum https://t.co/9a7rgyoMpE",2385,0
1376322856666030085,"2021-03-28T23:58:34Z","RT @Econ_Rockstar: @money_alotta @EclecticMethod @basileus_eth @cryptovoxels Can’t believe it was 10 months ago 🤯 https://t.co/LGZmyKtfMq",4,0
1376322848306905092,"2021-03-28T23:58:32Z","Casino Visor was purchased for 250 $MANA ($267.50 USD = 0.1601 $ETH) by https://t.co/2udcWY3Pfw from https://t.co/2ZFrcrOFj6 https://t.co/nLEgAuWXn3 #decentraland #wearables https://t.co/l25EYtQyhk",5,1
1376322836181188615,"2021-03-28T23:58:29Z","RT @dominosmusic: I CANT BELIEVE I SOLD A PIECE FOR AN ETH TODAYYYYYY ITS JUST HITTING ME",721,1
1376322835497500680,"2021-03-28T23:58:29Z","Latif Blessing bought for 0.23 ETH (387.42$) on the secondary market   Season: 2020-2021 Level: 5 Serial: 39/100 Price: 387.42$  ⚽ Sorare: https://t.co/iiMQqoehgD  📊: https://t.co/KYFGtHr33K  #Sorare #NFT #Ethereum #FantasyFootball",0,0
1376322833928744962,"2021-03-28T23:58:29Z","Is amazing to see how this project has been out since Dec 2020 and so far Liquidity Providers have earned about 6533.78 $ETH and that is the total value of $10.6 Million dollars. 💪  Also the APY doing 301.35% which is amazing.  #DeFi #UniSwap #BSC #SmartContract #Ethereum https://t.co/9a7rgyoMpE",2385,0
1376322833547030528,"2021-03-28T23:58:29Z","we're up to 2.69 ETH in bids with the clock extended again!  how about this for a fine selection of portraits?  feat. anon, defi ape, derrida, m, antechris, nerfwrld, mickey mouse, rager &amp; weak simp! what a dinner party! https://t.co/Z4yKrgNO9i",1,0
1376322830795735043,"2021-03-28T23:58:28Z","Is amazing to see how this project has been out since Dec 2020 and so far Liquidity Providers have earned about 6533.78 $ETH and that is the total value of $10.6 Million dollars. 💪  Also the APY doing 301.35% which is amazing.  #DeFi #UniSwap #BSC #SmartContract #Ethereum https://t.co/9a7rgyoMpE",2385,0
1376322824814653443,"2021-03-28T23:58:26Z","@das_grasshopper ETH to the moon!!!!",0,0
1376322817919119360,"2021-03-28T23:58:25Z","I'll send $300 in #ETH or #BTC to one person who retweets this and follows @bud_crypto. Must complete these tasks:  1 - Like/RT his pinned tweet  2 - Must RETWEET &amp; LIKE 4 of his tweets  Ends in 72 hours!",1206,0
1376322814614106117,"2021-03-28T23:58:24Z","My genesis SLIMERMAID is already AVAILABLE on @withFND   Bid starts at 1,50 ETH ✨✨  Check this out:  https://t.co/Qu4vaaXjlS  #cryptoart #NFTartist  #nftcollector #nft #nftart #crypto #NFTCommunity https://t.co/7ndoLnj8Vv",75,0
1376322807982854146,"2021-03-28T23:58:22Z","Since this the launch of @dypfinance back in Dec 2020 looks like Liquidity Providers have earned $11.4 Million dollars in $ETH just from Staking!  Also the project is paying out is $ETH as well and so far 6.2K $ETH have been rewarded.   #DeFi #Crypto #Cryptocurrency #BitcoinTalk https://t.co/zis10XPcL7",1802,0
1376322803444637696,"2021-03-28T23:58:21Z","I'll send $300 in #ETH or #BTC to one person who retweets this and follows @bud_crypto. Must complete these tasks:  1 - Like/RT his pinned tweet  2 - Must RETWEET &amp; LIKE 4 of his tweets  Ends in 72 hours!",1206,0
1376322801016115201,"2021-03-28T23:58:21Z","Updating my pinned post! I currently have two pieces available, one on @opensea and the other on @withFND. The prices are .5 $ETH and a .75 reserve respectively. 😊  https://t.co/Kp70WEaXMu  https://t.co/ZMrIGllhuk  #NFT #cryptoart #nftcollector #nftart #NFTartist https://t.co/7NGMyHS6aw",114,0
1376322792463818758,"2021-03-28T23:58:19Z","I'll send $300 in #ETH or #BTC to one person who retweets this and follows @bud_crypto. Must complete these tasks:  1 - Like/RT his pinned tweet  2 - Must RETWEET &amp; LIKE 4 of his tweets  Ends in 72 hours!",1206,0
1376322791365050370,"2021-03-28T23:58:18Z","Édison Flores bought for 0.195 ETH (328.46$) on the secondary market   Season: 2020-2021 Level: 0 Serial: 42/100 Price: 328.46$  ⚽ Sorare: https://t.co/z2QDndzzDI  📊: https://t.co/SWA6CZ9kib  #Sorare #NFT #Ethereum #FantasyFootball",0,0
1376322776265539597,"2021-03-28T23:58:15Z","🔥 WoW!!! $DYP getting listed on @kucoincom !  DYP/USDT &amp; DYP/ETH trading will start tomorrow, March 25th at 10AM UTC! Good job @dypfinance team!  #DeFi #uniswap #Ethereum https://t.co/Rw9qa5l5tA",2226,0
1376322774126460930,"2021-03-28T23:58:14Z","I'll send $300 in #ETH or #BTC to one person who retweets this and follows @bud_crypto. Must complete these tasks:  1 - Like/RT his pinned tweet  2 - Must RETWEET &amp; LIKE 4 of his tweets  Ends in 72 hours!",1206,0
1376322774013202436,"2021-03-28T23:58:14Z","Borrowed DOLA on your ETH and want to park it?  Deposit on Curve Swaps &amp; earn swap fees  In a few days, you’ll be able to earn:  💸 Interest on your ETH collateral 💸 INV reward for supplying ETH 💸 Curve swap fees 💸 More INV reward for staking DOLA-3CRV  https://t.co/kor5B26hoY",71,0
1376322771890839552,"2021-03-28T23:58:14Z","Wanted: Collectors Did you know that I there's 2/3 editions left of my Original Glitch Cube Remix Genesis piece? (with @spookymadeit)  Origin of Rare Ore, available on @KnownOrigin_io for .17 Eth  https://t.co/NvL7AGmTyT  #nftart #nonfungible #NFTartists #Ethereum #knownorigin https://t.co/5OUf11fgzV",1,0
1376322768912846854,"2021-03-28T23:58:13Z","« That’s why I’m selling my BTC and ETH, which made up around 50% of my portfolio and put 60% into a KIN, LTO and ENJ, but with a stop loss! », Quora, @MariusKramer1 https://t.co/ebjb2FpmYL",22,0
1376322764039196674,"2021-03-28T23:58:12Z","RT @irjuancruz: Sooo now I only have $BTC $ETH $XRP and $HBAR after I sold others for #hbar!!!",42,0
1376322760226525186,"2021-03-28T23:58:11Z","@Rare_NFTs Chromesthesia - Flower of Life 0.013 ETH https://t.co/5y5EUz6bWU",0,0
1376322748704829441,"2021-03-28T23:58:08Z","If you didn't know $ETH was going to $10,000...  Now you do. #altseason #ethereum",1,0
1376322747505201156,"2021-03-28T23:58:08Z","Cole Bassett bought for 0.45 ETH (757.99$) on the secondary market   Season: 2020-2021 Level: 2 Serial: 52/100 Price: 757.99$  ⚽ Sorare: https://t.co/eHOIsBIvD1  📊: https://t.co/yr67g5YEpQ  #Sorare #NFT #Ethereum #FantasyFootball",0,0
1376322747211554816,"2021-03-28T23:58:08Z","I'll send $300 in #ETH or #BTC to one person who retweets this and follows @bud_crypto. Must complete these tasks:  1 - Like/RT his pinned tweet  2 - Must RETWEET &amp; LIKE 4 of his tweets  Ends in 72 hours!",1206,0
1376322738894352385,"2021-03-28T23:58:06Z","RT @crypto_birb: $BTC 90k $ETH 5k coming soon https://t.co/kKro6dgdJL",2404,0
1376322736948178951,"2021-03-28T23:58:05Z","finally secured a small bag of ersdl, also only paid like 20 bucks in eth fees which was bazaar, chinese must b asleep",2,0
1376322733991108609,"2021-03-28T23:58:05Z","20210328 4.8 ETH GONE 😭 Remember this day.",0,0
1376322732527394820,"2021-03-28T23:58:04Z","Who would like to be the lucky first owner of my very first #NFT “Look Out Of Any Window”?  Overtime, this will be one of your best investments yet, like buying Amazon stock in 2000.   0.269 ETH (5/5)  #nfts #nftcollector #NFTCommunity #cryptoart  https://t.co/QpqpKnhplR https://t.co/zrzbFAhVLB",37,0
1376322714726764552,"2021-03-28T23:58:00Z","Is amazing to see how this project has been out since Dec 2020 and so far Liquidity Providers have earned about 6533.78 $ETH and that is the total value of $10.6 Million dollars. 💪  Also the APY doing 301.35% which is amazing.  #DeFi #UniSwap #BSC #SmartContract #Ethereum https://t.co/9a7rgyoMpE",2385,0
1376322710431797251,"2021-03-28T23:57:59Z","@SparkDeFi @TrustWalletApp @MetaMask Is this only working for people with $SRK on the #BSC network?? Or also for those hodling on #ETH network?",0,0
1376322707340414983,"2021-03-28T23:57:58Z","⚡🔥 EASY $10(Litecoin) Giveaway!  To win: ✔ Tag a friend ✔ Retweet ✔ Follow us Thats it! Good luck! 💖  Rolling in 36 hours!  #goodvibes #goodluck #giveaway #bitcoin #Giveaways  #cryptocurrency #eth #btc #BSC #TRON",332,0
1376322702823292936,"2021-03-28T23:57:57Z","Realistic price target ranges for this year with most variables taken into account: (Peak parabola prices)  $LINK: $300-400 $BNT: $75-150 $ETH: $5-8k $BTC: $170-230k $ADA: $0 $GRT: $25-30 $NU: $10-$15 $LRC: $4-8 $MATIC: $3-5",956,0
1376322678706089988,"2021-03-28T23:57:52Z","The first set of Ahegao NFTs sold out in a week, so I've been working on some more which are now live at https://t.co/MAOPR2F1DH  #pixel_dailies #nft #NFTs #nftart #nftartist #crypto #blockchain #eth #ethereum #digitalart #art #value #nftcollector #hentai #ahegao https://t.co/YWPHtqTMQv",78,0
1376322677254713348,"2021-03-28T23:57:51Z","Is amazing to see how this project has been out since Dec 2020 and so far Liquidity Providers have earned about 6533.78 $ETH and that is the total value of $10.6 Million dollars. 💪  Also the APY doing 301.35% which is amazing.  #DeFi #UniSwap #BSC #SmartContract #Ethereum https://t.co/9a7rgyoMpE",2385,0
1376322669675700224,"2021-03-28T23:57:49Z","@fxNichola Not going to happen. lol. Not for ETH or Dogecoin. May in 5 year soft ETH and 10 years for dogecoin and a whole a lot of others.",0,0
1376322661832351746,"2021-03-28T23:57:48Z","Friendly reminder:  Right now, at 100 gwei, $1685 ETH, it costs ~$10 to deposit your ETH onto Loopring L2, and live gas-free.  That deposit *IS* onboarding.  If you've never onboarded to Loopring yet: $10  If you have, and are just depositing more: $10  https://t.co/qRy7TPhGHD 👈",220,0
1376322653062062082,"2021-03-28T23:57:45Z","Since this the launch of @dypfinance back in Dec 2020 looks like Liquidity Providers have earned $11.4 Million dollars in $ETH just from Staking!  Also the project is paying out is $ETH as well and so far 6.2K $ETH have been rewarded.   #DeFi #Crypto #Cryptocurrency #BitcoinTalk https://t.co/zis10XPcL7",1802,0
