"ID","created_at","text","like_count","rt_count"
1374533902006640640,"2021-03-24T01:29:54Z","RT @trader_blitz: ETH/USD | $ETHUSD | $ETH $USD  .  Long or short it with BTC on Trade8: https://t.co/yU5WDNPUGm https://t.co/nLtuc635J0",1,1
1374533891575447552,"2021-03-24T01:29:52Z","@NFTs_Group @wsz1987 @Yang8057 @posenlau  I really want this coin because I know its value and future. I did not participate in its past, but I want to participate in its future. Hope the project party can see me and give me a chance, thank you ETH:0xeb6E1f3598A408d6E2B2AC7e2ca519Ece0975971",0,0
1374533887901175811,"2021-03-24T01:29:51Z","$ETH has bullish divergences forming on the 4HR candles, 3HR candles, 2HR candles, and a 1HR bullish divergence that is already confirmed while the rest would need to close this candle to be confirmed. #ETH #Ethereum #cryptocurrency https://t.co/ul592gDkTX",4,1
1374533868712206337,"2021-03-24T01:29:46Z","💧Roku Network Airdrop 💧  🏆 Task:          ➕  15 ROK (~$5)  👨‍👩‍👧 Referral:   ➕  3 ROK (~$1)  🔛  Airdrop Link &amp; Information: https://t.co/YhvsOcfEbH  #cryptocurrency #Crypto #Bitcoin  #BSC #BinanceSmartChain #Ethereum #ETH #Airdrop #bounty #ROK #RokuCoin #RokuNetwork",3593,4683
1374533863611850759,"2021-03-24T01:29:45Z","🔥We have started random global airdrop of 100,000 NFTs to single wallet ETH address 🚀 USDT-NFTs is listed on Uniswap  🚀 The contract address: 0x6599fc3e77cbfa6f6e9cac605a30b1e78827eba0  💰 Holding more NFTs makes you richer  🚀Like、Retweet &amp; Tag 3 friends  #NFTs #NFT #AIRDROP https://t.co/1tf4LcEX3C",1086,943
1374533853122080769,"2021-03-24T01:29:42Z","Just wasted about £100 on gas fees trying to buy into a coin on UniSwap 😂  Why do ETH transactions cost so fucking much",1,0
1374533850488053761,"2021-03-24T01:29:42Z","#ProBit Exchange will open up $XDC wallets in 40 minutes, trading kicks off on the 26th with USDT, ETH, and KRW pairs 🎉 @XinFin_Official   https://t.co/ihzoNW8Q6U https://t.co/K4Kw3IsVwz",466,170
1374533840975241224,"2021-03-24T01:29:39Z","💧Roku Network Airdrop 💧  🏆 Task:          ➕  15 ROK (~$5)  👨‍👩‍👧 Referral:   ➕  3 ROK (~$1)  🔛  Airdrop Link &amp; Information: https://t.co/YhvsOcfEbH  #cryptocurrency #Crypto #Bitcoin  #BSC #BinanceSmartChain #Ethereum #ETH #Airdrop #bounty #ROK #RokuCoin #RokuNetwork",3593,4683
1374533839721164803,"2021-03-24T01:29:39Z","Buy $KICK right now: https://t.co/Zffmj4Cv5E $xrp #BTC $eth $hot $link $doge $chz $trx $xlm $bnb $nft $ltc $defi $xvg $comp $twt $uni $defi $bat $sushi $ren $enj $grt $lrc $bal $mana $btt #Ethereum #uniswap #SushiSwap #CryptoNews #Binance #Coinbase $usdt https://t.co/QGZwCmVAfc",19,2
1374533837280120833,"2021-03-24T01:29:39Z","What’s your ETH address?  Don’t ask why, just drop it below 👇",4854,1656
1374533832465080324,"2021-03-24T01:29:37Z","1/ Earn free #crypto while you read &amp; write about it on @publish0x! Claim FREE #Ethereum #Ampleforth &amp; $FARM tips every day  ⏰LIMITED TIME: $ETH $AMPL withdrawals to @kucoincom get a 10% bonus for the next 2 weeks!  https://t.co/5ubrW3rZ2C #Airdrops #ETH @coinkit_ mon 5 30 btc",9,26
1374533829227085824,"2021-03-24T01:29:37Z","30 day EVIX: 96.2257 ETH/USD vwap: $1,672.08 04/09 expiry volume: $2,605,119.25 04/30 expiry volume: $7,238,115.93 Current time: 01:29:09",0,0
1374533814316191749,"2021-03-24T01:29:33Z","And just like that, the #ChillZone is a member of the @origin_trail #V5TracGang. We're out here! Successful leapfrog into the future! 📺Video coming soon :) 🚀 #TraceOn #MultiChain $STAKE $DOT $ETH https://t.co/zTFwWp9MDq",49,13
1374533801477599232,"2021-03-24T01:29:30Z","Smosh was created for 100 $MANA ($84.07 USD = 0.0503 $ETH) by https://t.co/UKFsZz6dN1 https://t.co/paLCFx8sps #decentraland #names #avatar https://t.co/gta0gVK8MA",3,2
1374533794569592835,"2021-03-24T01:29:28Z","@TrustSwap @JackEllis2345 I'm hyped. I dont trade as much on ethereum because of high gas fees. 99.9% of my trading is on a centralized exchange. I realized the #Ethereum fanboy club doesn't pay membership rewards, so I'm using whatever increases my portfolio value. $Eth",1,0
1374533780321443842,"2021-03-24T01:29:25Z","@cz_binance is the real GOD of #Defi.  #BSC is number one and #ETH is obsolete.    The $BSCX community will be delighted to get listed on the #Binance   Follow GOD and we can be rich!! $BNB Lead, $BSCX will follow!! https://t.co/yCd2nMFLis",185,105
1374533775489527811,"2021-03-24T01:29:24Z","POLL RESULT:  31% of voters said $CHZ will be the top gainer this week.  $DENT in a very close 2nd place with 30% of votes  What coin should we poll next? 🚀   $DENT $HOT $ADA $REEF $KEY $DOGE $NPXS $OGN $DGB $XLM $BTC $MATIC $ETH $BNB $TEL $ONE $ENJ $CHZ $ENJ $CHR $XEM https://t.co/qQsYTnfP37",2,0
1374533770485846017,"2021-03-24T01:29:23Z","My To The Moon #NFT is still available on @rariblecom   https://t.co/biunBzSzaH 🌕  Price is 0.3 ETH ✨  #NFT #nftcollector #nftart  #NFTartists https://t.co/1anv8u6ExT",45,5
1374533764865519616,"2021-03-24T01:29:21Z","@NFT_Whisperer Check these out!  We haven't dropped them yet, but these are our first 5...  Make a bid pre-drop of .1 ETH and we'll accept it - guaranteed... 💯 https://t.co/o5vA3xSdwj",0,0
1374533742899965954,"2021-03-24T01:29:16Z","Let’s all remember, crypto death is just death for now. Death will always occur before rebirth.  I ate a bunch of mushrooms just now.  @spaceplanet #doge #LTC #BTC #eth #crypto #DogecoinRise #dogecoin #Litecoin #cheeseburger",3,0
1374533741905809408,"2021-03-24T01:29:16Z","TA: Ethereum Breaks Key Support, Why ETH Could Decline Further https://t.co/6Zd7hllfeF",0,0
1374533735387828228,"2021-03-24T01:29:14Z","💧Roku Network Airdrop 💧  🏆 Task:          ➕  15 ROK (~$5)  👨‍👩‍👧 Referral:   ➕  3 ROK (~$1)  🔛  Airdrop Link &amp; Information: https://t.co/YhvsOcfEbH  #cryptocurrency #Crypto #Bitcoin  #BSC #BinanceSmartChain #Ethereum #ETH #Airdrop #bounty #ROK #RokuCoin #RokuNetwork",3593,4683
1374533720137289731,"2021-03-24T01:29:11Z","@ZssBecker Bitcoin is going to be a boomer coin like gold , eth is going to be what ppl will want to mine",1,0
1374533712398852100,"2021-03-24T01:29:09Z","Giving away 0.1 ETH  U have to retweet this and like and also follow me After 24 hours i will randomly pick the winner and the winner will be announced per comment under this tweet !!! 🎁🎉🎊 $RWN $WAR $TFT $MOCHI #giveaway #crypto #btc  #altcoin #altcoins #Altseason2021",72,65
1374533712293994496,"2021-03-24T01:29:09Z","Great write up on @HathorNetwork by our community member Gonzo2000  If you havent had a chance to research Hathor, check out the link below.  Link👇 https://t.co/pELMPQUo3x  #BTC #Bitcoin #cryptocurrencies #Crypto #Ethereum #eth #DeFi #NFT",33,6
1374533691217707010,"2021-03-24T01:29:04Z","5th #GIVEAWAY : Tester Opportunity &amp; #NFT  Looking for another 50 Testers using $UNI $SUSHI $COMP $CAKE $XVS $AUTO  to join our new DeFi product testing &amp; get NFT!   1. RT &amp; Follow  2. Comment your BSC address  #Defi #BSC #ETH #Airdrop #YieldFarming #LiquidityMining",244,246
1374533685794512896,"2021-03-24T01:29:02Z","Do you wanna get more about #PCHAIN #2.0?  Pls stay tuned that @jeff_fengcao will give his insights on the #DCEP Cross-chain Expansion based on #EVM at the #2020 #Ethereum Technology &amp; #Application Convention organized by #CSDN &amp; #Unitimes on Aug.8th.   https://t.co/yfq6BR7mx3 https://t.co/d64QmrE3Ep https://t.co/be6T1OL9pF",41,17
1374533683147857922,"2021-03-24T01:29:02Z","5/ For example, the new software license may prevent SushiSwap from forking the Uniswap v3 codebase. This seems like a benefit for ETH holders since Uniswap is committed to ethereum, whereas SushiSwap is substantially controlled by SBF/Solana.",17,1
1374533682552320000,"2021-03-24T01:29:02Z","JUST ADDED to our Document Library under LEGAL CASES: ✅@SEC_News Letter to Judge Netburn opposing @Ripple discovery requests, aka the #BTC and #ETH requested materials are not relevant letter.  Read it here 👇 https://t.co/NqOAEP0XSZ",295,94
1374533680769736710,"2021-03-24T01:29:01Z","2/ As an example of Uniswap v3's capital efficiency, given an LP position in ETH-DAI, you'll earn 4x more fees in Uniswap v3 vs. Uniswap v2, as long as the price of ETH stays within the range of $800 to $2500. (In v3, you simply don't earn fees if ETH goes outside that range.)",7,0
1374533680014761984,"2021-03-24T01:29:01Z","1/ Uniswap v3 is amazing  Uniswap v3 - is up to 4000x more capital efficient - bundles a limit order system into the AMM - seems likely to deliver lower slippage on stablecoins vs. AMMs optimized for stablecoins  Here's more on Uniswap v3, including a benefit for ETH holders👇",56,9
1374533677204447239,"2021-03-24T01:29:00Z","📌 The TokenKennel #Giveaway | Rules 📌 =   - Step 1: Like &amp; Retweet + tag 3-5 People! - Step 2: Follow @KennelToken &amp; @__Bullish__ - Step 3: Join https://t.co/1wcwTits9h - Step 4: Send Proof!   Prize = 100$ in #BTC or #ETH  06/04, we will announce the winner! 🎁",1814,2129
1374533666643136514,"2021-03-24T01:28:58Z","@Altcoinbuzznews @ethereum @Altcoinbuzzio Big companies and people like @theRealKiyosaki  keep buying $ETH as much as they can... @SwissBorg this app has a very complete design, it allows users to find the best return with the least risks, to earn a yield of up to 17.5 % that is awesome, absolutely I am in!👀💥",0,0
1374533666462867458,"2021-03-24T01:28:58Z","If $KEY had a similar market cap as $DOGE it would be worth $1.80.  It’s currently sitting at a $71 million market cap. HUGE POTENTIAL for 🌙 🚀   $DENT $HOT $ADA $REEF $KEY $DOGE $NPXS $OGN $DGB $XLM $BTC $MATIC $ETH $BNB $TEL $ONE $ENJ $CHZ $ENJ $CHR $XEM https://t.co/kr4AHUZV7F",1,0
1374533660687302661,"2021-03-24T01:28:56Z","Our loyal Queen has made her way to #Rome, where she is taking in the sights of past glory.  She poses here by the Colosseum.  The Queen of Queens #NFT No. 49 can be yours for just 3.99 ETH. It comes with 7,200 $ROYA and a permanent discount on mainnet.  https://t.co/eaoHROmRrI https://t.co/W7qIHDR3uQ",105,63
1374533652563042305,"2021-03-24T01:28:55Z","@chrisjreichel Nice observation. ✅💯  It's the real deal. Seems many don't want to acknowledge it for some reason.  #DeFi  #L2 #ETH",0,0
1374533646493753345,"2021-03-24T01:28:53Z","💧Roku Network Airdrop 💧  🏆 Task:          ➕  15 ROK (~$5)  👨‍👩‍👧 Referral:   ➕  3 ROK (~$1)  🔛  Airdrop Link &amp; Information: https://t.co/YhvsOcfEbH  #cryptocurrency #Crypto #Bitcoin  #BSC #BinanceSmartChain #Ethereum #ETH #Airdrop #bounty #ROK #RokuCoin #RokuNetwork",3593,4683
1374533624188506115,"2021-03-24T01:28:48Z","@whale_alert Is this why putting a transaction through the $ETH chain right now costs $110?",2,0
1374533620266803201,"2021-03-24T01:28:47Z","Ethereum Price Analysis: ETH Could Nosedive To $1,500 https://t.co/QHnd3mZEpq",0,0
1374533614763970561,"2021-03-24T01:28:46Z","@NFTvisionary Super Undervalued (see upcoming artists... ;)) BASS CANNON by Neoliptus for Whonose Collective 002 is available to bid now! This is Neoliptus’s debut NFT Piece  https://t.co/wFgB0H7EIH…  https://t.co/zmsQnSNbdS  #nft #eth #nftart #nftcollector #nftcommunity #freshmint #whonose",0,0
1374533611026780160,"2021-03-24T01:28:45Z","@MasaSonCap With 32 ETH ($53k) you can be a miner / transaction validator on Ethereum. 32 ETH needs to be staked locked in escrow.  As an ETH miner if you act nefariously by doing something illegal like trying to double spend a coin, you get punished by losing 33% of your staked ETH coins.",0,0
1374533609797775362,"2021-03-24T01:28:44Z","📌 The TokenKennel #Giveaway | Rules 📌 =   - Step 1: Like &amp; Retweet + tag 3-5 People! - Step 2: Follow @KennelToken &amp; @__Bullish__ - Step 3: Join https://t.co/1wcwTits9h - Step 4: Send Proof!   Prize = 100$ in #BTC or #ETH  06/04, we will announce the winner! 🎁",1814,2129
1374533609688760320,"2021-03-24T01:28:44Z","💧Roku Network Airdrop 💧  🏆 Task:          ➕  15 ROK (~$5)  👨‍👩‍👧 Referral:   ➕  3 ROK (~$1)  🔛  Airdrop Link &amp; Information: https://t.co/YhvsOcfEbH  #cryptocurrency #Crypto #Bitcoin  #BSC #BinanceSmartChain #Ethereum #ETH #Airdrop #bounty #ROK #RokuCoin #RokuNetwork",3593,4683
1374533606547152900,"2021-03-24T01:28:44Z","The DEX @FinanceChainge is set to launch on the @FUSIONProtocol network with over a million users on the protocols waitlist. This decentralized exchange aims to innovate on traditional models through leveraging the Fusion Network.  #BSC #BTC #ETH #BNB  https://t.co/xx55YiGfm3",21105,13409
1374533580924145665,"2021-03-24T01:28:37Z","@news_of_bsc @BinanceChain @cz_binance #BSC has made #ETH look like an old and neglected blockchain. Is the Ethirium still a thing? Lol $BNB $BSCX https://t.co/AHqZsbNLHb",126,76
1374533563681366028,"2021-03-24T01:28:33Z","📌 The TokenKennel #Giveaway | Rules 📌 =   - Step 1: Like &amp; Retweet + tag 3-5 People! - Step 2: Follow @KennelToken &amp; @__Bullish__ - Step 3: Join https://t.co/1wcwTits9h - Step 4: Send Proof!   Prize = 100$ in #BTC or #ETH  06/04, we will announce the winner! 🎁",1814,2129
1374533562792251396,"2021-03-24T01:28:33Z","💧Roku Network Airdrop 💧  🏆 Task:          ➕  15 ROK (~$5)  👨‍👩‍👧 Referral:   ➕  3 ROK (~$1)  🔛  Airdrop Link &amp; Information: https://t.co/YhvsOcfEbH  #cryptocurrency #Crypto #Bitcoin  #BSC #BinanceSmartChain #Ethereum #ETH #Airdrop #bounty #ROK #RokuCoin #RokuNetwork",3593,4683
1374533554676371459,"2021-03-24T01:28:31Z","#STC #ETH #DEFI # Airdrops https://t.co/O4aAIJ712C",0,0
1374533545759272960,"2021-03-24T01:28:29Z","Everything you say will be used against you Available for 1.11 eth  Twitter does not allow you to upload gifs larger than 15mb, high resolution on rarible.  https://t.co/19gmazSUMg  #nft #NFTartist #nftart #nfts #NFTartists https://t.co/AmTgKI2mnd",15,5
1374533539266367489,"2021-03-24T01:28:28Z","@sof1azara03 @domscrypto @boar_eth done https://t.co/m6JQhE2Tno",0,0
1374533536863055873,"2021-03-24T01:28:27Z","📌 The TokenKennel #Giveaway | Rules 📌 =   - Step 1: Like &amp; Retweet + tag 3-5 People! - Step 2: Follow @KennelToken &amp; @__Bullish__ - Step 3: Join https://t.co/1wcwTits9h - Step 4: Send Proof!   Prize = 100$ in #BTC or #ETH  06/04, we will announce the winner! 🎁",1814,2129
1374533531708309504,"2021-03-24T01:28:26Z","RT @whale_alert: 🚨 🚨  16,398 #ETH (27,323,226 USD) transferred from #Binance to unknown wallet  https://t.co/AnAM2hCNmK",75,8
1374533526314496000,"2021-03-24T01:28:24Z","@iamDCinvestor this move might not have been helpful to $btc or $eth - hopefully you are an outlier!",0,0
1374533526276567041,"2021-03-24T01:28:24Z","#Flare vs. #Ethereum  I hear many people describing the Flare Network as the 'Ethereum killer'.   But few actually consider why that might be.  Let's look at the facts, $FLR vs $ETH  🧵[THREAD] https://t.co/Q0OSNidxL0",1211,492
1374533505548480514,"2021-03-24T01:28:19Z","Got a chance to finally listen to the ETH framework going forward &amp; how it’s being designed as “Ultra Sound Money”. This essentially creates an ultra sound digital economy, a foundation, from which true value can be created and grow. https://t.co/M88LXwosS2",1,0
1374533499470946304,"2021-03-24T01:28:18Z","What @VitalikButerin is doing in the below video is much more of an “offering” of a security than any specific sale of #XRP that I’m aware of - (although I’m not aware of all #XRP sales).   The transfer of 500k #ETH sold to @novogratz that Vitalik publicly stated SAVED the https://t.co/xyx1aPHVB0",670,191
1374533487135354883,"2021-03-24T01:28:15Z","RT @sof1azara03: $60 or 840rb Giveaway ✨  Rt and follow @domscrypto + @boar_eth + me  End : 48 hours.✨",1030,2331
1374533485982064641,"2021-03-24T01:28:15Z","Why is UNI and Uniswap seeing strong momentum?🔥🔥🔥  #Bitcoin #BTC #ethereum #ETH $btc #BTCUSDT #cryptocurrency #market #altcoins #Binance #UNI #UNIBTC #UNIUSDT https://t.co/dnBLHUj3FA",3,0
1374533484090257411,"2021-03-24T01:28:14Z","💧Roku Network Airdrop 💧  🏆 Task:          ➕  15 ROK (~$5)  👨‍👩‍👧 Referral:   ➕  3 ROK (~$1)  🔛  Airdrop Link &amp; Information: https://t.co/YhvsOcfEbH  #cryptocurrency #Crypto #Bitcoin  #BSC #BinanceSmartChain #Ethereum #ETH #Airdrop #bounty #ROK #RokuCoin #RokuNetwork",3593,4683
1374533474028187651,"2021-03-24T01:28:12Z","@2ftg1 dustrial posted some nft hype that included their eth address, i posted the ipfs urls for two things they minted with that address, they blocked me",7,1
1374533468168814603,"2021-03-24T01:28:11Z","RT @roogomes: PARANOIA_04 IS AVAILABLE ON @withFND!   bid starts at 2 ETH 🔥🔥🔥  check it out: https://t.co/uASKfbP0i8 #nfts #nft",232,19
1374533463064244226,"2021-03-24T01:28:09Z","@cz_binance is the real GOD of #Defi.  #BSC is number one and #ETH is obsolete.    The $BSCX community will be delighted to get listed on the #Binance   Follow GOD and we can be rich!! $BNB Lead, $BSCX will follow!! https://t.co/yCd2nMFLis",185,105
1374533460589699074,"2021-03-24T01:28:09Z","🔥We have started random global airdrop of 100,000 NFTs to single wallet ETH address 🚀 USDT-NFTs is listed on Uniswap  🚀 The contract address: 0x6599fc3e77cbfa6f6e9cac605a30b1e78827eba0  💰 Holding more NFTs makes you richer  🚀Like、Retweet &amp; Tag 3 friends  #NFTs #NFT #AIRDROP https://t.co/CMUC0Q0TXd",848,741
1374533459998248960,"2021-03-24T01:28:09Z","💧Roku Network Airdrop 💧  🏆 Task:          ➕  15 ROK (~$5)  👨‍👩‍👧 Referral:   ➕  3 ROK (~$1)  🔛  Airdrop Link &amp; Information: https://t.co/YhvsOcfEbH  #cryptocurrency #Crypto #Bitcoin  #BSC #BinanceSmartChain #Ethereum #ETH #Airdrop #bounty #ROK #RokuCoin #RokuNetwork",3593,4683
1374533448598089734,"2021-03-24T01:28:06Z","I unfortunately had to make four transactions on #ETH today - this cost me about $200 US and two of the transactions failed.    This is why #TRON will be successful my friends.  I have made tens of thousands of #TRX transactions and paid a big whopping 0 in fees.",759,143
1374533433444081664,"2021-03-24T01:28:02Z","@cz_binance is the real GOD of #Defi.  #BSC is number one and #ETH is obsolete.    The $BSCX community will be delighted to get listed on the #Binance   Follow GOD and we can be rich!! $BNB Lead, $BSCX will follow!! https://t.co/yCd2nMFLis",185,105
1374533426817077252,"2021-03-24T01:28:01Z","❤️ NEW LITTER OF CUTE DOGES ❤️  #101 - #110 joined the shelter! i spot some rare traits and cool combinations 🐶  #110 is one of the 23 RARE (0.03 ETH) doges with a unique animated trait, giving it a 1/250 rarity, what a special boi ✨  adopt yours now 👉 https://t.co/YJ5tFXGOTo https://t.co/DTqzSaR95y",22,4
1374533424648581120,"2021-03-24T01:28:00Z","Whales accumulating  $btc $eth",1,0
1374533420328443908,"2021-03-24T01:27:59Z","RT @sof1azara03: $60 or 840rb Giveaway ✨  Rt and follow @domscrypto + @boar_eth + me  End : 48 hours.✨",1030,2331
1374533414288646147,"2021-03-24T01:27:58Z","03/23/21 UPDATE: Net Assets Under Management, Holdings per Share, and Market Price per Share for our Investment Products.  Total AUM: $42.4 billion  $BTC $BCH $ETH $ETC $ZEN $LTC $XLM $ZEC $BAT $LINK $MANA $FIL $LPT https://t.co/s3vx4MRhrM",624,120
1374533411935645697,"2021-03-24T01:27:57Z","Just relisted A New Dimension - Into the Ether : 1 of 1' at a much more reasonable price. It was getting quite high due to the amazing rise of $zil  @mintable_app @maqstik #ZIL #ZilliqaCommunity   https://t.co/Cml2TRRcsp #NFTs #CryptoArt #blockchain",7,4
1374533409721217025,"2021-03-24T01:27:57Z","SEC Claims Bitcoin And #Ethereum Documents Are Not Relevant To #Ripple/#XRP Case  The SEC has asked the judge not to order the production of the $BTC and $ETH documents demanded by @Ripple. What is the SEC hiding? https://t.co/mej8nRHSOK",567,156
1374533396823748610,"2021-03-24T01:27:54Z","RT @coinbureau: Just as long as he didn't trade in his $ETH or $BTC to buy it 🙈 https://t.co/iynyovfaLZ",653,57
1374533396614029312,"2021-03-24T01:27:54Z","🚀 Safe The Children  🔷 Token Symbol : STC  🔷 Contract: https://t.co/nk3qsF2PJV  🔷 Website: https://t.co/4y0g7dqswM  🔷 Whitepaper: https://t.co/PHPZI4dbyR  🔷 Presentation Video : https://t.co/Mycfov12IU  #Safe_Childrens #Bitcoin  #Binance #BinanceSmartChain #DEFI  #BTC #ETH",13977,13665
1374533395741478912,"2021-03-24T01:27:53Z","$ETH seems to be struggling a little here. Breakdown from the pennant will probably see a retest of the  uptrend channel dating back to March 2020.  I'll be looking specifically for a break below 1300 to create the first convincing lower low since September 2020. https://t.co/5pzKJ0zymS",3,0
1374533383364173825,"2021-03-24T01:27:50Z","@whale_alert Whales 🐳 buying #eth deep",2,0
1374533378616094720,"2021-03-24T01:27:49Z","📌 The TokenKennel #Giveaway | Rules 📌 =   - Step 1: Like &amp; Retweet + tag 3-5 People! - Step 2: Follow @KennelToken &amp; @__Bullish__ - Step 3: Join https://t.co/1wcwTits9h - Step 4: Send Proof!   Prize = 100$ in #BTC or #ETH  06/04, we will announce the winner! 🎁",1814,2129
1374533378037444615,"2021-03-24T01:27:49Z","💧Roku Network Airdrop 💧  🏆 Task:          ➕  15 ROK (~$5)  👨‍👩‍👧 Referral:   ➕  3 ROK (~$1)  🔛  Airdrop Link &amp; Information: https://t.co/YhvsOcfEbH  #cryptocurrency #Crypto #Bitcoin  #BSC #BinanceSmartChain #Ethereum #ETH #Airdrop #bounty #ROK #RokuCoin #RokuNetwork",3593,4683
1374533363340509189,"2021-03-24T01:27:46Z","Legends Of Cryptonia 24 - Yearn  Collection - 2nd Gen. Class - Priest Capacity - Heal  #NFT available on @rariblecom ⚔️🔥 10ex - 0.1 ETH https://t.co/2JNvQ1IhYU  Collection : https://t.co/uKfWCfn95m  Website :  https://t.co/VJHXZiiUwS https://t.co/yocjjwAnrA",7,3
1374533351671963651,"2021-03-24T01:27:43Z","💧Roku Network Airdrop 💧  🏆 Task:          ➕  15 ROK (~$5)  👨‍👩‍👧 Referral:   ➕  3 ROK (~$1)  🔛  Airdrop Link &amp; Information: https://t.co/YhvsOcfEbH  #cryptocurrency #Crypto #Bitcoin  #BSC #BinanceSmartChain #Ethereum #ETH #Airdrop #bounty #ROK #RokuCoin #RokuNetwork",3593,4683
1374533347972636673,"2021-03-24T01:27:42Z","#MarsHouse designed by @krista_kim, founder of the #Techism movement, has become the first sold digital #NFThome in the world on @SuperRare for for 288 #Eth (approx. $512,000)  https://t.co/CwBdNEVU3m https://t.co/nQ308nssq9",32,9
1374533338715672576,"2021-03-24T01:27:40Z","🔥We have started random global airdrop of 100,000 NFTs to single wallet ETH address 🚀 USDT-NFTs is listed on Uniswap  🚀 The contract address: 0x6599fc3e77cbfa6f6e9cac605a30b1e78827eba0  💰 Holding more NFTs makes you richer  🚀Like、Retweet &amp; Tag 3 friends  #NFTs #NFT #AIRDROP https://t.co/1tf4LcEX3C",1086,943
1374533336950013955,"2021-03-24T01:27:39Z","@BuckyBigTime My 96 photo frame animation in collaboration with songwriter, Robert Patrick. The result is CONTROL. .6 ETH Reserve. https://t.co/PznxccljHZ #NFTcommunity #Nftbids #NFTcollector https://t.co/PvKW4cDxIO",1,2
1374533335687389189,"2021-03-24T01:27:39Z","What is this! o.O #watching #eth #defi #IDO $SCA https://t.co/7PZBsjTgta",1,0
1374533315558998021,"2021-03-24T01:27:34Z","📌 The TokenKennel #Giveaway | Rules 📌 =   - Step 1: Like &amp; Retweet + tag 3-5 People! - Step 2: Follow @KennelToken &amp; @__Bullish__ - Step 3: Join https://t.co/1wcwTits9h - Step 4: Send Proof!   Prize = 100$ in #BTC or #ETH  06/04, we will announce the winner! 🎁",1814,2129
1374533314258726912,"2021-03-24T01:27:34Z","💧Roku Network Airdrop 💧  🏆 Task:          ➕  15 ROK (~$5)  👨‍👩‍👧 Referral:   ➕  3 ROK (~$1)  🔛  Airdrop Link &amp; Information: https://t.co/YhvsOcfEbH  #cryptocurrency #Crypto #Bitcoin  #BSC #BinanceSmartChain #Ethereum #ETH #Airdrop #bounty #ROK #RokuCoin #RokuNetwork",3593,4683
1374533298706386944,"2021-03-24T01:27:30Z","@buchara97 My 96 photo frame animation in collaboration with songwriter, Robert Patrick. The result is CONTROL. .6 ETH Reserve. https://t.co/PznxccljHZ #NFTcommunity #Nftbids #NFTcollector",2,1
1374533294121836546,"2021-03-24T01:27:29Z","Don’t miss out on that $rsr dip anon I know I just bought the blood $btc $eth $rsr $dot $orn",2,0
1374533283606798338,"2021-03-24T01:27:27Z","🚀 Safe The Children  🔷 Token Symbol : STC  🔷 Contract: https://t.co/nk3qsF2PJV  🔷 Website: https://t.co/4y0g7dqswM  🔷 Whitepaper: https://t.co/PHPZI4dbyR  🔷 Presentation Video : https://t.co/Mycfov12IU  #Safe_Childrens #Bitcoin  #Binance #BinanceSmartChain #DEFI  #BTC #ETH",13977,13665
1374533273502769158,"2021-03-24T01:27:24Z","selling $143 in eth cashapp/venmo only",1,0
1374533272898695170,"2021-03-24T01:27:24Z","Any new, talented, unique crypto artists to recommend?  I wanna kickstart them with some ETH like those did for me back in the day [@CollinsCustomIP, @Hans_2024, @SkipperGemx, @gabusch @xavieriturralde .. plus many more]",34,6
1374533268498956288,"2021-03-24T01:27:23Z","🚨 🚨  16,398 #ETH (27,323,226 USD) transferred from #Binance to unknown wallet  https://t.co/AnAM2hCNmK",75,8
1374533262106787840,"2021-03-24T01:27:21Z","Heres your reminder that you can still buy $AAPX on the range lows. Dont sleep on this one! Very undervalued. DYOR.  When this range finally breaks out you want to be in.  $CELL $BTC $ETH $GLQ $ERN $LABS $KONO https://t.co/lW2D9UO9Rb",32,10
1374533243949748226,"2021-03-24T01:27:17Z","When everyone sells, the winners buy 😜  $BTC $ETH $DEGO $SLP $TVK $GVT",6,1
1374533238346051584,"2021-03-24T01:27:16Z","💧Roku Network Airdrop 💧  🏆 Task:          ➕  15 ROK (~$5)  👨‍👩‍👧 Referral:   ➕  3 ROK (~$1)  🔛  Airdrop Link &amp; Information: https://t.co/YhvsOcfEbH  #cryptocurrency #Crypto #Bitcoin  #BSC #BinanceSmartChain #Ethereum #ETH #Airdrop #bounty #ROK #RokuCoin #RokuNetwork",3593,4683
1374533214090461185,"2021-03-24T01:27:10Z","remember all non-animated doges are just 0.01 ETH and always will be!   they can however have rare traits, which can bee seen in our rarity chart 😊",6,0
1374533200320602112,"2021-03-24T01:27:07Z","Camilo Vargas bought for 0.297 ETH (491.48$) by PacMane3C on the primary market   Season: 2020-2021 Level: 0 Serial: 37/100 Price: 491.48$  ⚽ Sorare: https://t.co/tNKoMCys7E  📊: https://t.co/mBhRF08Fgm  #Sorare #NFT #Ethereum #FantasyFootball",0,0
1374533196180680704,"2021-03-24T01:27:06Z","@cz_binance is the real GOD of #Defi.  #BSC is number one and #ETH is obsolete.    The $BSCX community will be delighted to get listed on the #Binance   Follow GOD and we can be rich!! $BNB Lead, $BSCX will follow!! https://t.co/yCd2nMFLis",185,105
1374533185778843650,"2021-03-24T01:27:03Z","Going up signal on a 1 hour chart! Price: \181013.0 (2021/03/24 10:21) #ETH #ethereum",0,0
1374533177407111173,"2021-03-24T01:27:01Z","1/ Earn free #crypto while you read &amp; write about it on @publish0x! Claim FREE #Ethereum #Ampleforth &amp; $FARM tips every day  ⏰LIMITED TIME: $ETH $AMPL withdrawals to @kucoincom get a 10% bonus for the next 2 weeks!  https://t.co/5ubrW3rZ2C #Airdrops #ETH @coinkit_ mon 5 30 btc",9,26
