"ID","created_at","text","like_count","rt_count"
1375417245166403587,"2021-03-26T11:59:59Z","RT @PlanetsDaily: Love my new #NFTs! I will spend 0.5 ETH to buy more #NFTart this night, show me your dope works and retweet this #nftcoll…",271,1
1375417243757084672,"2021-03-26T11:59:59Z","Countdown begins for @VulcanForged utility token-launch 🔥Let's set the world on $PYR!🔥  JOIN US👇  👉https://t.co/9fzupeT8TJ 👉https://t.co/feyIqNmDbl  @vulcanverse @Berserk_Game @0xPolygon   #BlockchainGaming #metaverse #playtoearn   $PYR $MATIC $ENJ $ETH https://t.co/M55TZdw0A9",71,1
1375417240602832902,"2021-03-26T11:59:58Z","🚀 Pluto Coin  Airdrop 🚀 Rate: ⭐⭐⭐⭐ ⭐ 🎁 Reward:  8822 PLUT ($1500) 👫 Referral: 40.5 PLUT  ($7)  🤖Start Bot here   https://t.co/x5JZchojO8  ⛂ Join Telegram group and channel. ⛂ Follow twitter &amp; retweet  ⛂ Submit ETH address and details.",6005,1
1375417226291974153,"2021-03-26T11:59:55Z","RT @TurbotrixF: 1 #BSC 2 #ETH 3 #TRON your fav is..( )",77,1
1375417223515410433,"2021-03-26T11:59:54Z","Understanding what #Telcoin does is the key to holding.   $TEL will become a giant not just because of #remittances but because of #blockchain backed financial services, which start rolling out in Q2 (April 1).  $BTC $ETH #Bitcoin $ADA $UNI $XRP $DOT $LTC $XRP $BNB $BTT #NFT $BAL https://t.co/9oRm49elYX",126,1
1375417222013812739,"2021-03-26T11:59:54Z","#trx #btt #sun🌞 we are going to be bigger then eth we have beautiful art work from @lindsaylohan #nfts #nft #NFTCommunity #defi #everything https://t.co/ufDVVp2l8O",0,0
1375417216166883338,"2021-03-26T11:59:53Z","Deposit your BTC, ETH, USDT, BCH, DOGE, XMR, Dash, Zcash to get worry-free returns. Paid out daily. https://t.co/ARPGbvjrJQ",0,1
1375417210328469509,"2021-03-26T11:59:51Z","Tips From Expert #Traders Who Interviewed On A Trader's Journey These Top 5 Tips Can Dramatically Speed Up The Learning Curve.  ✡ Have a #Trading Plan ✡ Proper Risk Management ✡ Control Emotions ✡ Be Patient ✡ Don't Over #Trade  🌐 https://t.co/K5lFohw7sj  #shiftal #btc #eth https://t.co/TmpVybBLtZ",3,0
1375417173062082565,"2021-03-26T11:59:42Z","🔥I will give $80USDT to 3 Random Followers who retweet this tweet in 24 hours 💰Just Like and Retweet 💰Follow @NFTs_Group  💰Turn notifications on🔔 💰Tag Your 5 Friends + #NFTs 🚀Good luck The more you share, the more likely you win. Let's play!  Leave your ETH wallet address https://t.co/MOwBkJ2nCC",876,0
1375417171715756032,"2021-03-26T11:59:42Z","@MintCura @opensea This is the goal as soon as I get some more ETH😅",1,0
1375417159225110531,"2021-03-26T11:59:39Z","As of March 26, 2021 at 03:59PM, 1 ETH equals 1620.49 USD. Start invest now with https://t.co/gcyeFnWQim #investing #passiveincome $btc $ETM $eth #bitcoin #ethereum #ethersmart #investmentfunds",1,0
1375417150144413700,"2021-03-26T11:59:37Z","@dirtydogeee What about $POODL? $POODL comunity grow in 2 weeks to 4500 telegram members @poodl . And almost 7000 holders. What is comming next? 🐩🐩🌕🚀  Yesterday listed on @WhiteBit6  NEXT -&gt; Charity @POODLETOKEN   $HOGE $PIKA $TOSA $DOGE $BTC $ADA $ETH https://t.co/k8QFczwjZa https://t.co/VbX3UpIMah",7,2
1375417148789518341,"2021-03-26T11:59:36Z","WARNING! MASSIVE airdrop!   $QDAO is a true gem, since 2019, by famous team, just 10 mln cap  1. go now to Twitter @QDefi  or telegram https://t.co/82oDe0cvbe   2. get your free tokens  3. HOLD this gem until 10x   (soon - launch cross-chain tool for BSC, DOT and ETH) https://t.co/9Q7o0Fiwg5",20,2
1375417134768025601,"2021-03-26T11:59:33Z","Screenshot to #WIN 🎯   Three winners will receive £100 each into their Wirex #WXT account.   1️⃣ Follow @wirexapp   2️⃣Take a screenshot of the crypto you land on and upload it in the comments 3️⃣ RT  T&amp;Cs: https://t.co/xr6TX8r6eN  $BTC $LTC $XRP $ETH $WAVES $DAI $NANO $XLM $WXT https://t.co/dXev6DYHEz",175,2
1375417120402468866,"2021-03-26T11:59:30Z","🏆 Follow us &amp; Retweet this tweet, Specify the ETH address in the tweet comment to get 10 #BIT ($10 worth) or 50 #BIT ($50 worth) #BitScores Airdrop Tokens! 🎁 $250,000 Prize Pool Full rules: https://t.co/N53M5nRXr9  #giveaway #airdrops #bounty #giveaways #defi #eth #btc #airdrop https://t.co/m77hDtRsBv",3577,2
1375417113922445318,"2021-03-26T11:59:28Z","Yes guys I did buy the bottom of $POODL and this is me rn HAHAHAHA  Follow me for more TA. If this thread gets 400 likes I will buy 40 eth worth (currently only own around 6 eth of POODL at 0.0000002.  $GRUMPY $KONG $SIFI $PIPI $HOGE https://t.co/F2psk0yoMd",105,2
1375417102320996355,"2021-03-26T11:59:25Z","So the $FIL fully diluted market cap is now $200 billion  $ETH fully diluted market cap is $187 billion  In what world should $FIL market cap be worth more than $ETH 😬",2,2
1375417100295143425,"2021-03-26T11:59:25Z","Testnet of $DERO is so good.  With actual NFT (on $ETH or $BNB), people see who has NFT. With $DERO, NFT is public and nobody know who has the NFT.  Imagine in future people see what exactly do u have. $DERO fixes this.  More info about NFT on $DERO : https://t.co/Rnnc3WoigP",20,2
1375417093198331909,"2021-03-26T11:59:23Z","💙 BLIND 💙  Just listed a new artwork Blind. 👀  Limited digital art 1/1 on @withFND   Reserve is at 0.2 ETH 💙  Make it yours and make my day: https://t.co/HC1bZVTcNS https://t.co/vikXRspQn2",91,2
1375417092090994688,"2021-03-26T11:59:23Z","🔸 New Listing🔸   #BKEX will list #DRYCAKE @DryCakeSwap🚀 🚀  - Trading pair: DRYCAKE/USDT - Trading time: 20:00 on Mar 29 (UTC+8)  🔹 🔹 More details: https://t.co/kC2IIebfTT  #Bitcoin #ETH #BKK #Blockchain https://t.co/w8CHyKXaUD",2480,2
1375417091357036555,"2021-03-26T11:59:23Z","@QuintenFrancois Nice portfolio except for ethereum, actually eth is the best but russian mafia is angel compareed eth gas fees, this issue needs to be fixed ASAP. +LTC +1inch BNB BTC",2,0
1375417088622391304,"2021-03-26T11:59:22Z","Do you require super-fast transactions speeds for your #blockchain #DApp? Well $HPB has a proven speed of 5000tps... Compare this to #Ethereum #Eth tps speed of just 15tps! https://t.co/FOBj4b0GXZ",22,8
1375417087443746818,"2021-03-26T11:59:22Z","Artist: @BLACKKSNEAKERS  Piece: soulmate Platform: @withFND  Edition: 1 of 1 💰Reserve Price: 1.50 ETH ($2,431.95)  #blackcryptoart #blackart #nft #blacknft #21titles   🔥🔥🔥 https://t.co/b3CONx9xPy",17,8
1375417061438943235,"2021-03-26T11:59:16Z","The DEX @FinanceChainge is set to launch on the @FUSIONProtocol network with over a million users on the protocols waitlist. This decentralized exchange aims to innovate on traditional models through leveraging the Fusion Network.  #BSC #BTC #ETH #BNB  https://t.co/xx55YiGfm3",21660,8
1375417052018565120,"2021-03-26T11:59:13Z","Top 10 trending searches as of 12:28AM UTC Fri, Mar 26 on https://t.co/pWjOafzR2Q $nim #nimiq $npxs #pundix $eth #ethereum $icx #icon $btc #bitcoin $ada #cardano $hot #holo $klv #klever $ankr #ankr $theta #thetatoken",8,8
1375417050449989633,"2021-03-26T11:59:13Z","@djdogecoin What about $POODL? $POODL comunity grow in 2 weeks to 4500 telegram members @poodl . And almost 7000 holders. What is comming next? 🐩🐩🌕🚀  Yesterday listed on @WhiteBit6  NEXT -&gt; Charity @POODLETOKEN   $HOGE $PIKA $TOSA $DOGE $BTC $ADA $ETH https://t.co/k8QFczwjZa https://t.co/MJIzmLttlZ",8,0
1375417048470335488,"2021-03-26T11:59:13Z","@yousuf_191 @LayahHeilpern @van_eth Honestly! How is it different than flashing someone IRL?? That’s not legal. 🤷🏼‍♂️ idiots.",0,0
1375417038953406465,"2021-03-26T11:59:10Z","Coral Reef  Collab @spacecouupe x @jlindsayfilm  offered at 0.333 ETH  Unlockable content now includes framed print  shipping within US included  https://t.co/mAdz74fMwd https://t.co/7oyq9FVjvZ",6,0
1375417037367824390,"2021-03-26T11:59:10Z","RT @QuintenFrancois: This is why $ETH is here to stay... https://t.co/USHKA6o26A",2745,0
1375417028010381315,"2021-03-26T11:59:08Z","🔄 Prices update in $USDT (1 hour):  $BTC - 52623.58 $      (-1.48 %) $ETH - 1618.0 $        (-0.32 %) $DOT - 31.59 $         (-1.01 %) $ADA - 1.27 $          (+5.22 %)  #BTC #ETH #DOT #ADA #Crypto #Bitcoin",0,0
1375417018879385600,"2021-03-26T11:59:05Z","Welcome to massive Q DAO airdrop!   1. go now to telegram https://t.co/COyXgODY1z   2. Stay in telegram chat and wait announcement.  3. HOLD this gem until 10x   (soon - QDAO launch cross-chain for BSC, Polkadot and ETH)",4254,0
1375417018023735299,"2021-03-26T11:59:05Z","$10k ETH Airdrop every month for liquidity providers on Uniswap.  Earn ICAP by staking your Invictus fund tokens on their platfrom - and get ETH airdrops by adding liquidity to Uniswap.  Liquidity pool is still small - Get in now! https://t.co/3kWmDuGvaZ",25,0
1375417013435260930,"2021-03-26T11:59:04Z","@ValCoins EOS is the laggard younger brother of LTC who is the laggard brother of ETH and BTC..patience will be rewarded..EOS looks like it's gonna form same A&amp;E monthly like LTC..so glad i bought in around 3.2..boom time. today's volume is great",3,0
1375417012063776769,"2021-03-26T11:59:04Z","Gotta love Goaltoinspire on @tiktok_us giving $KIT a shoutout! Love the energy and some baller content to go along with it!   #KITcrew💪 #DeFi #dex #NFTs $BITT $ETH $BTC  https://t.co/PAeyFJOyXP",82,0
1375417010423795718,"2021-03-26T11:59:03Z","@genesisblockhk @BullyEsq #Cro not #ETH but anyway ill drop this 🎤 for ya 🚀🚀🚀🚀🚀",0,0
1375417009819672577,"2021-03-26T11:59:03Z","RT @CashNCrypto: $150 to one person in 48hrs  Rt &amp; follow me + @domscrypto &amp; @boar_eth",2067,0
1375417008179699715,"2021-03-26T11:59:03Z","🏆 Follow us &amp; Retweet this tweet, Specify the ETH address in the tweet comment to get 10 #BIT ($10 worth) or 50 #BIT ($50 worth) #BitScores Airdrop Tokens! 🎁 $250,000 Prize Pool Full rules: https://t.co/N53M5nRXr9  #giveaway #airdrops #bounty #giveaways #defi #eth #btc #airdrop https://t.co/m77hDtRsBv",3577,0
1375417005927374848,"2021-03-26T11:59:02Z","Im so bullish on $YFDAI right now. There is no keeping the price down &amp; Im so confident with this project feels like $10K is just a matter of time.  If you made mistake to buy BTC when it was cheap.  you can buy @YfdaiF &amp; see 👍  I hope this does not disappoint you❤  #YFDAI #ETH https://t.co/2EU0OmrSiM",26,0
1375417000277708802,"2021-03-26T11:59:01Z","@JoeBiden ETH ZURICH DO NOT CONSIDER UNIL ETH FRENCH PART THE BOSS MARX PIERRE ALAIN THE KIDNAPPER MAFIA THEY IMMIGRATES FOR PENSION ANYWAY",0,0
1375416984213581827,"2021-03-26T11:58:57Z","RT @colourfloyd: i will spent my newly come 4 ETH just share your #NFTs with me and rt. Tonight is on fire🔥#nftart #nftcollector",258,0
1375416971202813956,"2021-03-26T11:58:54Z","@ArtThreadkill Only 0.50 Eth Patience. /ˈpeɪʃ(ə)ns/ (noun) The capacity to accept or tolerate delay. https://t.co/xsLwxokaBa",2,0
1375416966878539781,"2021-03-26T11:58:53Z",".@dego_finance 50% of DEGO/ETH Liquidity injected by the team is removed in accordance with Liquidity Migration Proposal.  DEGO/BNB Liquidity be enhanced on @Pancakeswap by 8th April   #BSC #PancakeSwap #DEGO #BNB #Binance $DEGO https://t.co/Tllr83P4Nn",37,0
1375416966563909632,"2021-03-26T11:58:53Z","Top 30 Trending Searches on @coingecko from 20 - 26 Mar 2021.  Welcome newcomers: @ecomi_ @VesperFi @dentcoin @PundiXLabs @UniMex_Network @bittorrent  $OMI $VSP $DENT $NPXS $UMX $BTT $BTC $ETH $SUPER $MATIC $CAKE $ERN $CHAIN $SPI $ONE $CHZ $OVR $RAMP $THETA $AUDIO $COTI $CFI https://t.co/YKXdN5bvw6",784,0
1375416954845020160,"2021-03-26T11:58:50Z","Still only the beginning for decentralized social media, retail, &amp; fashion. Miss out on investing in Facebook pre-ipo? Take a look here - $lyxe $uni $ada $link $eth $etc  https://t.co/voIVgLFXHt",0,0
1375416950969360387,"2021-03-26T11:58:49Z","Not all whales are bad 🥺🐳 #Doge #Safemoon #BTC #Eth #crypto we should be sponsoring the good ones that don’t give us shit! Ans stay in the ocean.... each community should look after a whale named after their coin. https://t.co/tV7D0Ak1MD",625,0
1375416949728014343,"2021-03-26T11:58:49Z","@NftPeople Current bid - 0,1 ETH - https://t.co/P6Oz9YqkZe",2,0
1375416949019082754,"2021-03-26T11:58:49Z","🏆 Follow us &amp; Retweet this tweet, Specify the ETH address in the tweet comment to get 10 #BIT ($10 worth) or 50 #BIT ($50 worth) #BitScores Airdrop Tokens! 🎁 $250,000 Prize Pool Full rules: https://t.co/N53M5nRXr9  #giveaway #airdrops #bounty #giveaways #defi #eth #btc #airdrop https://t.co/m77hDtRsBv",3577,0
1375416934750154752,"2021-03-26T11:58:45Z","FYI @atomix_ai by $FET @Fetch_ai is coming! The more $FET you own the MORE Atomix tokens you will receive FOR FREE! Mark the date April 7th down in your calendars! 🗓🚀  $atom $iota $comp $agi $btc $eth $link $rsr $bnb $algo $uni $theta $orai $enj $hbar $qnt $ada $dot $crypto https://t.co/QHZZGhuP1V",47,0
1375416922871713798,"2021-03-26T11:58:43Z","Welcome to massive Q DAO airdrop!   1. go now to telegram https://t.co/COyXgODY1z   2. Stay in telegram chat and wait announcement.  3. HOLD this gem until 10x   (soon - QDAO launch cross-chain for BSC, Polkadot and ETH)",4254,0
1375416915439591425,"2021-03-26T11:58:41Z","→ The story begins! The world in which you are now is sacramental →  My first drop is now available on @withFND!  Created in VR, 1/1 edition  https://t.co/ol9DaUOmM1   #nft #NFTartist #eth #nftcollector #cryptoart #womenartists #ArtistOnTwitter  #NftBastards #Foundation https://t.co/i0JRW1miPs",108,0
1375416900549763072,"2021-03-26T11:58:37Z","@aWebAnalysis What about $POODL ? $POODL comunity grow in 2 weeks to 4500 telegram members @poodl . And almost 7000 holders. What is comming next? 🐩🐩🌕🚀  Yesterday listed on @WhiteBit6  NEXT -&gt; Charity @POODLETOKEN   $HOGE $PIKA $TOSA $DOGE $BTC $ADA $ETH https://t.co/k8QFczwjZa https://t.co/ejJt6gcVIG",7,0
1375416899769618433,"2021-03-26T11:58:37Z","@QuintenFrancois $btc $eth $link $dot $grt $unn $dip $xed $wcres",1,0
1375416878869270529,"2021-03-26T11:58:32Z","🏆 Follow us &amp; Retweet this tweet, Specify the ETH address in the tweet comment to get 10 #BIT ($10 worth) or 50 #BIT ($50 worth) #BitScores Airdrop Tokens! 🎁 $250,000 Prize Pool Full rules: https://t.co/N53M5nRXr9  #giveaway #airdrops #bounty #giveaways #defi #eth #btc #airdrop https://t.co/m77hDtRsBv",3577,0
1375416877363695618,"2021-03-26T11:58:32Z","Finally out! #openaccess book Introduction to #Epigenetics with @LabSantoro and non-twitter #Paro #Grossniklaus #Wutz inspired by our #ETH #UZH lectures https://t.co/ZZSwEsusK0  @SpringerCellBio https://t.co/nX4f7Gb28a",245,0
1375416875140669445,"2021-03-26T11:58:31Z","RT @Jimmy_Wojeca: $RSR to $1 = only 12,5x  #Grayscale #Coinbase #Paypal #Mainnet  referral bonuses #adoption #LFG $BTC $ETH $LINK $ADA http…",57,0
1375416873454559233,"2021-03-26T11:58:31Z","Fully diluted market caps this AM  $FIL Filecoin $201,000,000,000 $ETH Ethereum $187,000,000,000 $AR Arweave $1,470,000,000  I spy a couple things wrong here",23,0
1375416869356732421,"2021-03-26T11:58:30Z","2nd edition of the Crypto Airships collectible figures is now available!  #002-Big Scott https://t.co/onXRXW0rKJ Let them fly! @m_barutcu_ @opensea @rariblecom   #NFT #NFTs #nftcollector #NFTCommunity #ArtOfTheDay #CryptoNews #Crypto #ETH #cryptoairships https://t.co/hLd8Jm3lzQ",0,0
1375416860326260739,"2021-03-26T11:58:28Z","Look what I found! nftindex.eth collectible https://t.co/1xDP3J4QCA? #rarible #ethereum #nonfungible #digitalasset #nft via @rariblecom   #ensname #ensdomain #nftdomain",0,0
1375416858526973953,"2021-03-26T11:58:27Z","#Dogecoins #DogecoinToTheMoon @elonmusk @billhuang688 cryptocurrency joining me on @ndaxio – Buy and sell BTC, ETH, LTC, LINK, USDT, XRP, EOS, DOGE, ADA, and XLM in Canada. Use my referral link and we will both get $10. https://t.co/0u2Uml0qK1 #ndax #crypto",1,0
1375416856211820550,"2021-03-26T11:58:27Z","Update! We’re going to extend the #giveaway to Sunday, March 28th at 11:59pm   We’re doubling the prize and number of winners! 1 $bnb and 20 $cake split between 4!   Retweet with the cashtag $libra   Read pinned message for contest rules!   $bsc $btc $uni $dot $eth #defi $ada",27,0
1375416837224198146,"2021-03-26T11:58:22Z","@The_NFT_Hub 2nd edition of the Crypto Airships collectible figures is now available!  #002-Big Scott https://t.co/onXRXW0rKJ Let them fly! @m_barutcu_ @opensea @rariblecom   #NFT #NFTs #nftcollector #NFTCommunity #ArtOfTheDay #CryptoNews #Crypto #ETH #cryptoairships",0,0
1375416823852769282,"2021-03-26T11:58:19Z","Nice uptrend on $PIKA 💥🚀  ⚡Telegram:https://t.co/j3zKJldpi1 $link $xrp $bnf $bdog $eth $uni $bao $shib $feg $raini $bunny $raine $dash $doge $scat $kangal $rfi $fet $ada $dot $poodl $froge $ern $enj $chz $cgg $omi https://t.co/dkMXag1Fu0",9,0
1375416818857295878,"2021-03-26T11:58:18Z","RT @CryptoCapo_: $ETH soon https://t.co/WlEDTph5Nj",668,0
1375416818156724230,"2021-03-26T11:58:18Z","BUNNEH’s #NFT is a #MentalHealth initiative we created!  Please get involved!! All funds from #BUNNEHs #NFT are being used to fund Mental Health Therapy for a loved one! Contribute to a fantastic cause https://t.co/pDr0GrcdGn  All NFT starting 0.005 $ETH @coinkit_ mon 25 1000 BTC",171,0
1375416816550338567,"2021-03-26T11:58:17Z","🏆 Follow us &amp; Retweet this tweet, Specify the ETH address in the tweet comment to get 10 #BIT ($10 worth) or 50 #BIT ($50 worth) #BitScores Airdrop Tokens! 🎁 $250,000 Prize Pool Full rules: https://t.co/N53M5nRXr9  #giveaway #airdrops #bounty #giveaways #defi #eth #btc #airdrop https://t.co/m77hDtRsBv",3577,0
1375416804483375106,"2021-03-26T11:58:14Z","All #NFTArtist who are selling their #NFTArt above 0.5 #ETH, shill your NFTs!!! 💎 Follow &amp; 💎 RT 💎 I will retweet your #cryptoart 💎 Let’s grow together 💪",141,0
1375416797491425281,"2021-03-26T11:58:13Z","@BitScores one of the best project  My Eth address  0xa797aF336f195b5BD1E637Be96F319d3a9d82B42",0,0
1375416792454197254,"2021-03-26T11:58:11Z","RT @RokoMijicUK: It would be funny if these jokers managed to call the rock bottom of ETH/BTC with their Death of ETH party.",10,0
1375416789161639937,"2021-03-26T11:58:11Z","@opensea 2nd edition of the Crypto Airships collectible figures is now available!  #002-Big Scott https://t.co/onXRXW0rKJ Let them fly! @m_barutcu_ @opensea @rariblecom   #NFT #NFTs #nftcollector #NFTCommunity #ArtOfTheDay #CryptoNews #Crypto #ETH #cryptoairships",3,1
1375416786909327364,"2021-03-26T11:58:10Z","Alessio Castro-Montes bought for 0.48 ETH (779.69$) on the secondary market   Season: 2020-2021 Level: 4 Serial: 6/10 Price: 779.69$  ⚽ Sorare: https://t.co/oc6pPU67Dq  📊: https://t.co/XdEOdFgaM2  #Sorare #NFT #Ethereum #FantasyFootball",0,0
1375416785638354951,"2021-03-26T11:58:10Z","You can now buy a Tisla NFT on Blockchain - @elonmusk  @withFND! 🌐  ➡https://t.co/MIeYThJ5xI   Buy This First Ever Exclusive 1/1 Crypto Collectible on the Blockchain! Published 3/25/21.  #NFTs #nftart #Cryptoart #NFTCommunity #nftcollectors #Blockchain #ETH #Tesla #ElonMusk https://t.co/CSOsAndfUM",32,0
1375416779791548420,"2021-03-26T11:58:08Z","Come over to @0xPolygon, THE L2 SOLUTION 🚀💎 $matic $eth #defi #nft #gaming https://t.co/KmzotV6ZmZ",1,1
1375416775601385478,"2021-03-26T11:58:07Z","@GabrielSotill0 @Dogecoinxx What about $POODL ? $POODL comunity grow in 2 weeks to 4500 telegram members @poodl . And almost 7000 holders. What is comming next? 🐩🐩🌕🚀  Yesterday listed on @WhiteBit6  NEXT -&gt; Charity @POODLETOKEN   $HOGE $PIKA $TOSA $DOGE $BTC $ADA $ETH https://t.co/k8QFczwjZa https://t.co/QAuRAT3Lc7",6,1
1375416760371924992,"2021-03-26T11:58:04Z","#ChillBill #NFT Giveaway at 💯 retweets.  Comment RANCH to Enter! #ETH #Bitcoin #nftcollector #NFTCommunity #cryptoartist https://t.co/4xBmdSNPZM",26,1
1375416755695325187,"2021-03-26T11:58:03Z","RT @QuintenFrancois: This is why $ETH is here to stay... https://t.co/USHKA6o26A",2745,1
1375416755649142785,"2021-03-26T11:58:03Z","@QuintenFrancois $BTC $DOT $KSM $ETH",0,0
1375416749705850880,"2021-03-26T11:58:01Z","FYI, #ChainX aims to facilitate asset interoperability with other #blockchains It measures users' #mining power based on the market value of $BTC, $DOT, $ETH, $ERC20, $EOS, and other assets that are deposited in an inter-chain bridge. 💯 Get $PCX now on #KuCoin! 🚀 https://t.co/IyiYhSX6EF",7,0
1375416747994587141,"2021-03-26T11:58:01Z","So this was a bitter sweet birthday present. I listed my @hackatao high enough a while back that I thought he was 'safe' but apparently not. I woke up to Kim Jong-un gone from my collection. Sad to see him go but wow, 152 ETH! Thanks very much @batsoupyum. 🙏 https://t.co/XYXjsH3BsX",233,0
1375416747784863745,"2021-03-26T11:58:01Z","Like、Retweet &amp; Tag 3 friends！ Next, we will continue to select 100 addresses to airdrop 100,000 NFTs, leave your wallet #ETH address, and still have a chance to get it. #NFTs #NFT #DEFI #UNISWAP https://t.co/7EprHJ6VOJ",915,0
1375416737739501569,"2021-03-26T11:57:58Z","@TheRealDasBeatz @shawnsmith26 What about $POODL ? $POODL comunity grow in 2 weeks to 4500 telegram members @poodl . And almost 7000 holders. What is comming next? 🐩🐩🌕🚀  Yesterday listed on @WhiteBit6  NEXT -&gt; Charity @POODLETOKEN   $HOGE $PIKA $TOSA $DOGE $BTC $ADA $ETH https://t.co/k8QFczwjZa https://t.co/Dxyoucu4Mg",6,1
1375416735680057346,"2021-03-26T11:57:58Z","Get rich and help others - CHARITY comming 🐩🐩🌕  $POODL comunity grow in 2 weeks to 4500 telegram members @poodl . And almost 7000 holders. What is comming next? 🐩🐩🌕🚀 Yesterday listed on @WhiteBit6  @POODLETOKEN   $HOGE $PIKA $TOSA $DOGE $BTC $ADA $ETH https://t.co/cTGS31c2G9",18,1
1375416733436104705,"2021-03-26T11:57:57Z","@millionchubbies 2nd edition of the Crypto Airships collectible figures is now available!  #002-Big Scott https://t.co/onXRXW0rKJ Let them fly! @m_barutcu_ @opensea @rariblecom   #NFT #NFTs #nftcollector #NFTCommunity #ArtOfTheDay #CryptoNews #Crypto #ETH #cryptoairships",0,0
1375416732681039883,"2021-03-26T11:57:57Z","New #digitalcurrencyalien #NFT pixel art available on https://t.co/zm1A0zl48c Limited to 1 mint each for 150+ artworks available using $ETH! RT for some free #Bitcoin !!  @coinkit_ com 50 1000 BTC #NFT",207,0
1375416726511349765,"2021-03-26T11:57:56Z","A fellow $ETH holder https://t.co/iHtYKSOe9f",1,0
1375416721931173889,"2021-03-26T11:57:55Z","@kaleazy Buy ETH,",0,0
1375416716583374854,"2021-03-26T11:57:53Z","We are happy to announce #GSX will be listing on @BitMartExchange  Debut pairing: GSX/USDT  Deposits open: 4/18/2021 10:00 AM (EDT) Trading opens: 4/19/2021 10:00 AM (EDT)  #BTC and #ETH pairings coming soon. 🤝  Register now at https://t.co/PahzS1PRWG  https://t.co/chEnFBEFL4 https://t.co/va7dcELivO",134,0
1375416710338125824,"2021-03-26T11:57:52Z","Okay, #NFT makers! Show me your BEST work, I will RT my favorites. 🤝🤝🤝  Retweet to spread the message!    #NFTs #ETH #cryptoart #nftart #nftcollector #NFTcollection #nftbastards #NFTCommunity",173,0
1375416710317154306,"2021-03-26T11:57:52Z","There really is nothing else to say here....amazing!!!! #eth #btc #crypto #FridayFeeling DYOR https://t.co/pBy1jKyC2p",0,0
1375416708832317440,"2021-03-26T11:57:52Z","$POODL comunity grow in 2 weeks to 4500 telegram members @poodl . And almost 7000 holders. What is comming next? 🐩🐩🌕🚀  Yesterday listed on @WhiteBit6  NEXT -&gt; Charity @POODLETOKEN   $HOGE $PIKA $TOSA $DOGE $BTC $ADA $ETH https://t.co/k8QFczwjZa https://t.co/VIItzAZqqF",13,0
1375416708584722433,"2021-03-26T11:57:51Z","Good Friday morning #NFT Family!  It’s time for your daily shilling! Drop it below 🚀🚀🚀🚀  #nft #nftart #cryptoart #nftcollector #cryptoartist #ETH",118,15
1375416706953326597,"2021-03-26T11:57:51Z","@udiWertheimer U just wanna be wrong when it comes to eth ?🤣 And U know it. It's called self harm",0,0
1375416703472046080,"2021-03-26T11:57:50Z","Exactly. Any time anyone working on Cardano leaves it is very difficult to find and retrain someone to replace them. This is the main problem with Haskell and why #Cardano is doomed to always be a slow project, constantly trailing its competitors. $algo $ada $hbar $vet $eth https://t.co/d1nkPBdlku",9,1
1375416701613830146,"2021-03-26T11:57:50Z","🏆 Follow us &amp; Retweet this tweet, Specify the ETH address in the tweet comment to get 10 #BIT ($10 worth) or 50 #BIT ($50 worth) #BitScores Airdrop Tokens! 🎁 $250,000 Prize Pool Full rules: https://t.co/N53M5nRXr9  #giveaway #airdrops #bounty #giveaways #defi #eth #btc #airdrop https://t.co/m77hDtRsBv",3577,1
1375416697700691968,"2021-03-26T11:57:49Z","RT @QuintenFrancois: This is why $ETH is here to stay... https://t.co/USHKA6o26A",2745,1
1375416695234437126,"2021-03-26T11:57:48Z","#Mercury Mercury @JosefBsharah @makersplaceco  https://t.co/9xHy2qXqWE    Day Long Listing, message if interested, #eth only https://t.co/qPqRsABOPp",6,1
1375416684639612929,"2021-03-26T11:57:46Z","https://t.co/Xz331JarVJ Don't miss this opportunity, Ethereum is going to the moon...🚀✨🌙 Start mining now...💰⛏️ #mygbit #binance #coinbase #nexo #bitcoin #BTC #ethereum #mining #airdrop #bill_gates #elon_musk #okex #meme #crypto #trading #doge #ada #cardano #xrp #BNB #eth https://t.co/PAMQi8p8AQ",0,0
1375416655988264960,"2021-03-26T11:57:39Z","The coins that did not pump yet are pumping....  $EOS, $TRX &amp; $XRP.   THESE COINS HAVE LESS BAGHOLDER SELL PRESSURE...  $ctsi $eth $xrp $brd $one $lto $vidt $ada $dot $doge $ckb $neo $storj $mth $btc $get $bnb $chz $storj $kmd $vet $vra $neo $pre $kda $myst $cake @RAFAELA_RIGO_",1,0
1375416654927069186,"2021-03-26T11:57:39Z","New #digitalcurrencyalien #NFT pixel art available on https://t.co/zm1A0zl48c Limited to 1 mint each for 150+ artworks available using $ETH! RT for some free #Bitcoin !!  @coinkit_ com 50 1000 BTC #NFT",207,0
1375416646815350784,"2021-03-26T11:57:37Z","📢Congrats！First launch on Uniswap！ 🚀USDT-NFTs trading pair is live！ 🚀The contract address:  0x6599fc3e77cbfa6f6e9cac605a30b1e78827eba0  💰Hold more NFTs, be richer！  🌸Like、Retweet &amp; Tag 3 friends  🚀Select 10 addresses to airdrop 1,000,000 NFTs, leave wallet #ETH address https://t.co/Tlc9LlMieo",674,0
1375416633548804101,"2021-03-26T11:57:34Z","is $coti slowly forming a cup and handle pattern? ☕️ if yes  I predict massive gainage over the next few days 🚀  $BTC $MATIC $ENJ $PERL $ADA $ETH $DOT $VET $UNI $THETA $DENT $SPI $ORN $SKL $KEY $SRM $KSM https://t.co/93Bviz7lBE",13,0
