"ID","created_at","text","like_count","rt_count"
1375885323675131907,"2021-03-27T18:59:58Z","As BSC continues its growth, it is easy to forget about the basics. Take some time to refresh your memory.  Check out this article about @PancakeSwap   #DeFi #crypto #BNB #ETH #BSC #BTC #PancakeSwap #bitcoin #binance #cryptocurrency   https://t.co/5t83FhX7oP",97,0
1375885319891939329,"2021-03-27T18:59:57Z","$HASH was born out of the idea to create a $ETH coffee book.  But there wasn’t many visuals of our history then.  So we created $HASH.   Someday that coffee book will exist because of $HASH.",32,0
1375885318772064256,"2021-03-27T18:59:57Z","Some $ONE to help $ETH be it’s best self! Hahaha https://t.co/bFIKskBwPJ",1,0
1375885316737892352,"2021-03-27T18:59:56Z","RT @The_NFT_Hub: 🎁Drop your $ETH address below🎁",1165,0
1375885310060425217,"2021-03-27T18:59:55Z","Ghosty #23 - Full Power is available for .08ETH!  https://t.co/70Ac2dlm99  #nftart #nftdrop #nftcollector #eth #opensea #nft https://t.co/HjQOg8VP0M",8,0
1375885303098044421,"2021-03-27T18:59:53Z","Hey guys, Im looking to spend some ETH today.. Budget: 12ETH for #NFTcollectibles  1. Follow me 2. Like and retweet 3. Tweet me your work in this thread  #nft #NFTs #nftcollector #nftcollectors #collector #Ethereum #cryptoartist #cryptoart #NFTartist #newnftartist #NFTCommunity https://t.co/JOKEISdEXO",555,0
1375885302150148100,"2021-03-27T18:59:53Z","1/1 The 7th Twitter Campaign organised by #UnityForEthiopia @UnityForEthio themed  The Truth Defends Ethiopia on 28/3/21, let all of us stand together to make our voice heard for our country #Ethiopia @iyoba4u @EACC_EAN @DeaconYoseph @Qale23 @ams_kas @TagelLeraseh https://t.co/bDwYC2J2X8",317,0
1375885284718620673,"2021-03-27T18:59:49Z","Ugh more delays!! Ironic that $ETH layer 2 solution is called Optimism, something which must be waning in regards to their ability to preserve the #2 spot. I like the $ONE 's who complete their objectives on time. https://t.co/voGleousjM",5,0
1375885280486379524,"2021-03-27T18:59:48Z","Another one 👀 Ghosty #27 - Phase just dropped!  Available now! https://t.co/skXqfk2G44  #nftart #nftcollector #nft #nftdrop #eth #ethereum https://t.co/QvJfn4xzH3",42,0
1375885273016410113,"2021-03-27T18:59:46Z","RT @The_NFT_Hub: 🎁Drop your $ETH address below🎁",1165,0
1375885254536396803,"2021-03-27T18:59:42Z","Here is the best NFT you can ever buy  https://t.co/KyFUhcsz6M  #productiondesigner #baftaawards #nationalfilmandtelevisionschool #collectible #eth #artistsoninstagram #baftanominee #arte #rarible #meowornever #meoworneverfilm #artanddesign #fantasy",2,0
1375885245032108032,"2021-03-27T18:59:39Z","Is ETH at $100k realistic?  imo, yes  Ethereum's total fees need to be $1b per day for ETH to be worth $100k from fees alone (using a 3% discount rate). That's 50x today's fees, or 20x the best ever day's fees of $50M on Feb 23.  I think we'll hit 50x total fees within five years https://t.co/rKfzx62oOF",299,0
1375885243245203456,"2021-03-27T18:59:39Z","@binance 3XT TOKEN Airdrop ⭐️  Claim 1 3XT ($222) + 0.045 3XT ($10) for each referral you make  💠Steps Join channel and group Follow twitter, like and retweet pinned message  Submit eth wallet address (ERC-20)  Participate now  Airdrop link: https://t.co/qUQwyBbvZS",0,0
1375885243064979459,"2021-03-27T18:59:39Z","I’m happy to announce my new #NFT drop.     “RedSet” Collection 🧑🏽‍🚀   Bidding starts at 0.60 ETH on each   https://t.co/zpb79nxKkl  #NFT #NFTs #NFTart #cryptoart #nftcollectors https://t.co/fRQiSSndwB",213,0
1375885239101317123,"2021-03-27T18:59:38Z","SOLD OUT 🔥 42 Artist Collaboration 🧡 Guys, thank you all for this incredible experience!  All 42 copies of the canvas were purchased within 24 hours on @rariblecom for 8,4 ETH  #NFTart @NftBastards #Cryptoart https://t.co/opOCa37xyZ",79,0
1375885236005871616,"2021-03-27T18:59:37Z","RT @DonnieBigBags: When $KSM hits top 10 it will be $1400+  When $KSM flips $ETH it will be $23,000+",932,0
1375885235154530308,"2021-03-27T18:59:37Z","RT @AltcoinDailyio: $BTC and $ETH are just babies. We are early. 👶",2021,0
1375885231035539456,"2021-03-27T18:59:36Z","Welcome to massive Q DAO airdrop!   1. go now to telegram https://t.co/COyXgODY1z   2. Stay in telegram chat and wait announcement.  3. HOLD this gem until 10x   (soon - QDAO launch cross-chain for BSC, Polkadot and ETH)",4254,0
1375885227151785986,"2021-03-27T18:59:35Z","This month @dypfinance have announce their new features to help DeFi projects and looks like other DeFi project can Lock Liquidity using $DYP Tools. 👀  Also you will be able so see Whale Transactions in the DeFi Space with the Big Swap Explorer. 🔥  #DeFi #DYP #BSC #ETH #BNB https://t.co/NiIwaIvRhb",1563,0
1375885209489530885,"2021-03-27T18:59:31Z","GIVE-A-WAY....meow.   48 hours to get to 1000 followers on Twitter and I’ll give away 100 Billion of my personal $NCAT to 2 lucky winners that I’ll live stream.   Let’s rock.   -NCAT BRAT  $ETH $BNB $UNI https://t.co/p3z7oiUATC",129,0
1375885209086791680,"2021-03-27T18:59:31Z","The DEX @FinanceChainge is set to launch on the @FUSIONProtocol network with over a million users on the protocols waitlist. This decentralized exchange aims to innovate on traditional models through leveraging the Fusion Network.  #BSC #BTC #ETH #BNB  https://t.co/xx55YiGfm3",21658,0
1375885194557751296,"2021-03-27T18:59:27Z","🌋#ATD #Giveaway is on now! @a2dao_ 🌋  10 lucky users will receive $30 each in #ATD ✨  1️⃣Login &amp; Participate ☀️ https://t.co/wrbe0JlJuK   2️⃣Retweet and @ a friend  #DeFi #crypto #ALTSEASON #ETH #NFT https://t.co/oq0O5RbPbj",307,0
1375885185284202498,"2021-03-27T18:59:25Z","RT @wazapepe: WaZa is suited up and ready for:  $DDOS  $HAI $VET $HAPI $ETH https://t.co/9qXgifm4Jq",67,0
1375885174567792642,"2021-03-27T18:59:22Z","PAC Global involved with its charity partners @Flame_of_Peace @SummitBchain @GlobalBoost @LiberlandAid @EdibleForests  and many more in this Food Forest project. Update from @NetworksManager. $PAC In charity there is no competition. #btc #Blockchain #charity #storage #eth #LTC https://t.co/gg3kR5UU3t",47,0
1375885173502410758,"2021-03-27T18:59:22Z","Already bought the dip today. I got $LINK $DOT and $SPH.   I’ll buy again if the following happens.  $1450 $ETH $26 $DOT $22 $LINK $300 $AAVE $15 $ATOM $3.5 $XTZ $100 $EGLD $0.75 $REN $0.40 $UTK  #crypto",5,0
1375885168100175877,"2021-03-27T18:59:21Z","Have an extra 0.5 ETH to spare! Show me your new #NFT pieces that need a bid. Trying to add to my collection 👀🤝",265,25
1375885165977858048,"2021-03-27T18:59:20Z","🔥 WoW!!! $DYP getting listed on @kucoincom !  DYP/USDT &amp; DYP/ETH trading will start tomorrow, March 25th at 10AM UTC! Good job @dypfinance team!  #DeFi #uniswap #Ethereum https://t.co/Rw9qa5l5tA",2225,25
1375885155290640386,"2021-03-27T18:59:18Z","3XT TOKEN Airdrop ⭐️ Claim 1 3XT ($222) + 0.045 3XT ($10) for each referral you make  💠Steps Join channel and group Follow twitter, like and retweet pinned message  Submit eth wallet address (ERC-20) Participate now  Airdrop link: https://t.co/qUQwyBbvZS",0,0
1375885145757134857,"2021-03-27T18:59:16Z","If you love #NFTs RT this and I will RT your collection to spread awareness!✅  I have a personal budget of 1.1 #ETH for 4 unique #NFT  pieces today.🖼️  #nftcollector #NFTcollectibles #nftartists #eth #btc",136,0
1375885145396379657,"2021-03-27T18:59:16Z","U have to be aware of #BitcoinCash #Binance #dogecoin #ETH #Crypto #BTC so proud crypto. Crypto change the world. https://t.co/93IapYEmBy",2,0
1375885142711881730,"2021-03-27T18:59:15Z","🔥New Listing @a2dao_ 🔥  #ATD trading will be enabled on https://t.co/8kWqgEeplL 😎  👉Trade: https://t.co/ExhZLJsBuu 👉Details: https://t.co/wHKyoIXPWV  #DeFi #crypto #ALTSEASON #ETH #NFT https://t.co/UjKmwZhqea",256,0
1375885140958806018,"2021-03-27T18:59:14Z","Imagine being bearish on $ETH while you can see #DeFi and #NFTs (which are mostly on Ethereum) are growing rapidly.  Literally few understand this 😂",28,0
1375885132368736257,"2021-03-27T18:59:12Z","@Terracredit is amazing project in this year. great team and good idea is the main key in this project. No doubt this project have really good future. #TerraCredit #CREDIT #Blockchain #ETH #BTC",0,0
1375885119760838661,"2021-03-27T18:59:09Z","We're open for business for the discerning #nftcollector &amp; #NFTCommunity! 🤩 We sold our last piece for 1.2 ETH !!!!!!! 🥳Thank you #nftcollectors   Here are a couple new ones you might like!   https://t.co/lK8x37wQ4m https://t.co/6LjwFxJWHq https://t.co/CJ14H74t22",5,0
1375885117751762946,"2021-03-27T18:59:09Z","RT @SchwegerZarkow: @yellowdoodle1 Look to sell a Nft under 3 ETH 1. Follow 2. LIKE and retweet 3. Leave your offer or a bid.",3,0
1375885114606022660,"2021-03-27T18:59:08Z","We reached our hard cap of 350 ETH in under 30 seconds on @UNCX_token   $GLQ is now listed on @Uniswap Trade now: https://t.co/e6M5k5IWyO   #DeFi #uniswap #graphlinq $glq #blockchain #ethereum #crypto https://t.co/WJxFuZvgaF",136,0
1375885102505320450,"2021-03-27T18:59:05Z","@Coin98Analytics @cz_binance No doubt their will be ups and downs eth is winner🏆",0,0
1375885102102757380,"2021-03-27T18:59:05Z","UPDATE: told ya people $ANKR is just hard to beat✊😎💰💎💎👇  Volume is increasing  This is a $THETA like run : It will go to $0.5 and above in no time before you even notice it  $LUNA $ANC $AAVE $SNX $LINK $DOT $ATOM #BNB $BTC #ETH $SPARTA $LINA https://t.co/GcutRSETag https://t.co/OMN1jrUbHI",1,0
1375885096830578690,"2021-03-27T18:59:04Z","@jinkeez1 @trueblocks @MyCrypto Finding 1 address is hard but what if we simultaneously look for millions of address with 0.1 ETH?",0,0
1375885095911874566,"2021-03-27T18:59:04Z","@PennyMcStacks Hi! This is BBB Batman Bitcoin Blues #NFTs  Only 0.8 $ETH  Help an starving artist!!! Thank you 🙏🏽  https://t.co/Xe0fLQnTZ2",0,0
1375885088035115012,"2021-03-27T18:59:02Z","Is amazing to see how this project has been out since Dec 2020 and so far Liquidity Providers have earned about 6533.78 $ETH and that is the total value of $10.6 Million dollars. 💪  Also the APY doing 301.35% which is amazing.  #DeFi #UniSwap #BSC #SmartContract #Ethereum https://t.co/9a7rgyoMpE",2385,0
1375885073698979846,"2021-03-27T18:58:58Z","@intocryptoverse Selling everything that's not btc and eth",6,0
1375885067331977221,"2021-03-27T18:58:57Z","SOLD!! To @reidoNFT for 0.2201 ETH!  This piece really meant a lot to me and I'm so glad it does to you now. This is the first real step of many for the direction of my art in the future.  Feeling v blessed to have sold again... Celebrating tonight FOR SURE.🎉🎉🎉 https://t.co/QpTMug2baA",4,0
1375885064022581249,"2021-03-27T18:58:56Z","@MattKaneArtist @muratpak @dennnnnnnnny @wasthatawolf @zippi101 @dionysus64 @dete73 @matthall2000 @pents90 @artnome @kevinabosch @GusGrillasca @PowerDada @SuperRare @KnownOrigin_io @SerenaTabacchi @flakoubay @MOCDA_ @opensea @bnolan @hex6c @cryptograffiti @dankvr @conlan @AsyncArt @VK_Crypto @museumcryptoart @stellabelle @TokenAngels @mattgcondon @FilmBrief @blackboxdotart @josiebellini @niftytime @basileus_eth @YungGucciT @GiselFlorez @NorrieHarman @MattiaC @catsandcolors @unityofmulti @thesarahshow @NanuBerks @WGMeets @TroyFitzpatric @mlibty @JohnnyDollarArt @obxium @missalsimpson @MLOdotArt My first cryptoart endeavor was actually music about Silk Road and was just me trying to sell our music for bitcoin - I made a whole album called SILK ROAD that had a lotta bitcoin ideas in it in 2014 https://t.co/KuUdeXU9VQ",16,0
1375885058750476290,"2021-03-27T18:58:55Z","🚨@Markable_HEX 🇳🇱 has posted a new video on Youtube !   “How to overcome content creation blocks“ ⏱️(2 min) 📺: https://t.co/17PFmq9HA5 __________________________ #Crypto #Cryptocurrency #BTC #DeFi #ETH #HEX https://t.co/NVvsrvR2Jw",5,0
1375885056179380228,"2021-03-27T18:58:54Z","🔥 New #NFTs art available on @rariblecom 🔥  Diamond Hands  #Ethereum #ETH  #NFT   Discover it here 👇 https://t.co/Ur901dKF9k https://t.co/doGogXRdVq",69,0
1375885046683369474,"2021-03-27T18:58:52Z","I got ETH positions running deep in profit on 30 trading accounts as we speak.   Back to back $100k day??? Who knows. https://t.co/R0nPyGMnNA",2,0
1375885044754055178,"2021-03-27T18:58:52Z","Facialis Ossa   1 of 1 • On sale from 30th Mar, 5:00 pm  🔥 Genesis edition 🔥  https://t.co/HWU7qHLVwz  @KnownOrigin_io  #cryptoart #NFT #cryptoartist #ETH #sevensgrant https://t.co/7l0xsrMf4c",19,0
1375885041713078273,"2021-03-27T18:58:51Z","POLL RESULT:  31% of voters said $CHZ will be the top gainer this week.  $DENT in a very close 2nd place with 30% of votes  What coin should we poll next? 🚀   $DENT $HOT $ADA $REEF $KEY $DOGE $NPXS $OGN $DGB $XLM $BTC $MATIC $ETH $BNB $TEL $ONE $ENJ $CHZ $ENJ $CHR $XEM https://t.co/0kSG4nLw27",0,0
1375885039418929158,"2021-03-27T18:58:50Z","$ANKR 0.048, can you see that on the chart ?   Price then - 0.048 Price now - 0.177  +268% GAINS ✅ 15 days ⏰  Beating the crowd yet again 📊🤝  $BTC $ETH #NFT $PERL $ENJ $FLOW #BSC  $CHZ $ADA $LTC $XRP $DOGE $ATOM $LUNA $BNB $FET $DENT $DOT $LINK $SXP $MATIC $AMB $SXP $SC https://t.co/vaKB4ztTpL https://t.co/5Zc5MYutSk",15,2
1375885039284592643,"2021-03-27T18:58:50Z","@Utd_Eth @naznzdd Horny ass Virgin",0,0
1375885035925073922,"2021-03-27T18:58:49Z","Imagine being bearish on $ETH while you can see #DeFi and #NFTs (which are mostly on Ethereum) are growing rapidly.  Literally few understand this 😂",28,0
1375885032162795522,"2021-03-27T18:58:49Z","@mikefedz5 @BitcoinTre ETH all day 🥲",0,0
1375885029755211785,"2021-03-27T18:58:48Z","💧Poplink Oracles Airdrop 💧  🏆 Task:          ➕  50 POPO (~$50)  👨‍👩‍👧 Referral:  ➕  15 POPO (~$15)  🔛  Airdrop Link &amp; Information: https://t.co/DS6g34KhFp  #cryptocurrency #Crypto #Bitcoin  #BSC #BinanceSmartChain #Ethereum #ETH #Airdrop #bounty #POPO #Poplink",6788,0
1375885028333338626,"2021-03-27T18:58:48Z","I'll send $500 in #ETH or #BTC to one person who retweets this and follows @bud_crypto. Must complete these tasks:  1 - Like/RT his pinned tweet  2 - Must RETWEET &amp; LIKE 4 of his tweets  Ends in 72 hours!",1406,0
1375885027658043399,"2021-03-27T18:58:47Z","Quantneworks CEO bout creating the NEXT money:  Programmable &amp; Interoperable   Silicon Valley conference 2020  $QNT  $XRP $LINK $BTC $ETH https://t.co/SJWxGstJGX",56,0
1375885005516328961,"2021-03-27T18:58:42Z","It's time to discuss the pre-sales. It is expected that there will be two rounds of pre-sales in the next two months. Constructive suggestions from community members are welcome. 🚀🚀 #POPO #ETH $POPO #poplink https://t.co/6DYhpkufnK",179,0
1375885004459241480,"2021-03-27T18:58:42Z","RT @crypto_birb: $BTC 90k $ETH 5k coming soon https://t.co/kKro6dgdJL",2404,0
1375884991872311301,"2021-03-27T18:58:39Z","The #crosschain future is made by #Anyswap  powered by #FUSIONProtocol technology.  $ETH $FTM $HT $XDAI $LTC $BNB $FSN $MATIC $BTC $OKB done ✅  $ADA $SOL $DOT in progress  #FSN #DEFI #DCRM https://t.co/2YRraP2vzZ",23,0
1375884990840508419,"2021-03-27T18:58:39Z","RT @QuintenFrancois: My top 10 #crypto holdings:  1. $BTC 2. $LINK 3. $ETH 4. $VET 5. $ERN 6. $BNB 7. $BNT 8. $MATIC 9. $POLK 10. $ENJ   Wh…",2518,0
1375884990504857600,"2021-03-27T18:58:39Z","Show me your NFTs! 🤗  I'm ready to buy and add to my collection all day! 🌈  So show me yours with a short description below! 🚀  #NFT #nftcollectors #ETH #nftcollector",304,0
1375884986927218692,"2021-03-27T18:58:38Z","Recently  Gas fee were high and users were spending lot of ETH to transaction both $AME and $ETH to AME wallet  and also $ETH were used  as fee to stake. Many users have requested for better solution to increase staking in $AME wallet.",141,0
1375884965158735875,"2021-03-27T18:58:33Z","Been actively getting calls with people from the $sol ecosystem and i must say the quality bar is really high. A lot of talented devs/teams chosing $SOL over $eth or other chains. Really excited to see Solana unfolding.",288,0
1375884957982277632,"2021-03-27T18:58:31Z","@davidgokhshtein I'm sure half of 1 #ETH its just for paying gas fees. 🤪😅 the other half I'll turn it into $HEX at https://t.co/VeU33huMYO and stake it for 15 years.",2,1
1375884943138635784,"2021-03-27T18:58:27Z","Quantneworks CEO bout creating the NEXT money:  Programmable &amp; Interoperable   Silicon Valley conference 2020  $QNT  $XRP $LINK $BTC $ETH https://t.co/SJWxGstJGX",56,1
1375884930991935492,"2021-03-27T18:58:24Z","$ETH  If the daily candle closes above 2k, it will easily cross 2500$ mark. Keep an eye on it.  Checkout the link in bio for crypto signals  $UTK #bitcoin #cryptocurrency $HNT $SCRT $ORN 71166 https://t.co/sV4zH4kWKH",0,0
1375884927481303042,"2021-03-27T18:58:24Z","🔥 New #NFTs art available on @rariblecom 🔥  Diamond Hands  #Ethereum #ETH  #NFT   Discover it here 👇 https://t.co/Ur901dKF9k https://t.co/doGogXRdVq",69,0
1375884923257683969,"2021-03-27T18:58:23Z","WePiggy, a #DeFi Asset Lending Market Protocol, will be integrating with the @OasisProtocol   $ROSE  #CTBot Adrop Avg 0.0001 ETH 65 https://t.co/CHf5D7EW1B",68,0
1375884921139527681,"2021-03-27T18:58:22Z","Hello @Poolz__ community !  After @bepronet ,  Tomorow #tacoswap Dex open a new pool for poolz token owner.   You will have more rewards than uniswap !  See you tomorow ! Welcome !  #poolz #uniswap #DeFi #ETH #Crypto #bepronet #liberezcrypto4youOFF #tacoswap",1209,0
1375884910817345538,"2021-03-27T18:58:20Z","SOLD!! To @reidoNFT for 0.2201 ETH!  This piece really meant a lot to me and I'm so glad it does to you now. This is the first real step of many for the direction of my art in the future.  Feeling v blessed to have sold again... Celebrating tonight FOR SURE.🎉🎉🎉 https://t.co/QpTMug2baA",4,1
1375884896737009664,"2021-03-27T18:58:16Z","@gilian1989 @intocryptoverse You mean like users, apps, developers, network effect, etc? I agree. 😉  ADA is valued 100% based on speculation baked in, ETH is currently valued off it’s current state, not future deliverables. Big difference.   Once ADA has a product we can talk.",1,0
1375884887027224581,"2021-03-27T18:58:14Z","Hi @Exeedme @Poolz__ @bepronet   What do you think about we organise  a pool Crypto party all together on #tacoswap   Join us : https://t.co/3GeT48f0tm  #crypto #defi #dex #eth #tacoswaptothemoon #tacotoken🌶",1218,0
1375884865925644288,"2021-03-27T18:58:09Z","💧YetuBit Airdrop 2nd Round💧  🏆 Task:          ➕  25 YETU (~$20)  👨‍👩‍👧 Referral:   ➕  5 YETU (~$4)  🔛  Airdrop Link &amp; Information: https://t.co/ZoGw3AR71I  #cryptocurrency #Crypto #Bitcoin  #BSC #BinanceSmartChain #Ethereum #ETH #Airdrop #bounty #YetuBit #YetuSwap #YETU",4530,0
1375884857197404163,"2021-03-27T18:58:07Z","Welcome to massive Q DAO airdrop!   1. go now to telegram https://t.co/COyXgODY1z   2. Stay in telegram chat and wait announcement.  3. HOLD this gem until 10x   (soon - QDAO launch cross-chain for BSC, Polkadot and ETH)",4254,0
1375884850805272581,"2021-03-27T18:58:05Z","Welcome to massive Q DAO airdrop!   1. go now to telegram https://t.co/COyXgODY1z   2. Stay in telegram chat and wait announcement.  3. HOLD this gem until 10x   (soon - QDAO launch cross-chain for BSC, Polkadot and ETH)",4254,0
1375884836305526785,"2021-03-27T18:58:02Z","RT @AltcoinDailyio: $BTC and $ETH are just babies. We are early. 👶",2021,0
1375884833528897536,"2021-03-27T18:58:01Z","All Beheaded Punks #NFTs were sold! Next drop (#016, #017, #018, #019 and #020) today 6pm PST (0.03 $eth each)  https://t.co/FMUzdX0Jdw  #NFTdrop #unofficialpunks #NFTcollectibles https://t.co/o3xBHOz6Zu",3,0
1375884825647841280,"2021-03-27T18:57:59Z","As you heard before in this account,  Get used to see new ATHs for $HOT.  Why?  USD chart is meaningless. $ETH chart shows the true potential and we are far away from previous ATH.   #Holochain is a revolution. It will take over #blockchain. Think outside the blocks! https://t.co/LYNlhWZfCS",204,0
1375884823189852162,"2021-03-27T18:57:59Z","🔸 New Listing🔸   #BKEX will list #DRYCAKE @DryCakeSwap🚀 🚀  - Trading pair: DRYCAKE/USDT - Trading time: 20:00 on Mar 29 (UTC+8)  🔹 🔹 More details: https://t.co/kC2IIebfTT  #Bitcoin #ETH #BKK #Blockchain https://t.co/w8CHyKXaUD",2480,0
1375884822543880196,"2021-03-27T18:57:59Z","Wrapped Unified Stable Dollar (WUSD) WUSD is minted by collateralizing stablecoins that have been whitelisted by the Covenants DFO across Aggregator-whitelisted AMM pools at a 1:1 ratio https://t.co/H4rvFzNUnN https://t.co/4wX4hqHqO8",1,0
1375884821101125633,"2021-03-27T18:57:58Z","$shr is going to take a lot of people by surprise when it hits 1.5B mkt cap and makes it into the top page of CMC. Thing is a sleeping giant. $btc $eth $icx $ada $xrp $vet $link $uni $bnb $dot $xlm $luna $trx",36,10
1375884818576117760,"2021-03-27T18:57:58Z","🔶 BetFury Airdrop 🔶 🔸🚰 Claim Free $BTC $ETH $BNB every 20 min.🔸  🚦 Join: https://t.co/2VXxFsrJA8  🌐 Login your $TRX , $ETH &amp; $BSC Wallet! 🌐 Deposits/Withdrawals 🌐 Playing any games! 🌐 Mining $BFG ( $TRX &amp; $BTC ) 🌐 Staking payouts  #BFG @CTBott Adrop Avg 100 SPKL 50 https://t.co/h72Z1pl5cI",41,10
1375884817095659521,"2021-03-27T18:57:57Z","Looking to buy #NFTs under 300 ETH!   #NFTartist If you have any works for sale:  1. Follow me 2. Like and retweet 3. Leave your art in the comments!  #nft #defi #NFTs #NFTartist #nftart #cryptoart #nftcollectors #nftcollector #Ethereum #bitcoin #crypto https://t.co/3h0VJsicZV",101,10
1375884810476920832,"2021-03-27T18:57:56Z","@scot_munro @TheCryptoLif7 @ethbox_official @dao_duck FOOK I tried didn't have any Fiat or Eth",6,0
1375884808954478594,"2021-03-27T18:57:55Z","RT @The_NFT_Hub: 🎁Drop your $ETH address below🎁",1165,0
1375884804642705415,"2021-03-27T18:57:54Z","🚨@hodldogofficial 🇨🇭 has posted a new video on Youtube !  “HEX T-Share Preservation &amp; 1B Dollar Total Value Locked“ ⏱️(13 min) 📺: https://t.co/723O2Hnz8v __________________________ #Crypto #Cryptocurrency #BTC #DeFi #ETH #HEX https://t.co/pcw2FrxOEy",8,0
1375884802692411393,"2021-03-27T18:57:54Z","@HlGHDEMAND Would buy it rn if I could spare the 1.5eth but I’m doing a big trade with 6 ETH today 🥲",1,0
1375884800762933249,"2021-03-27T18:57:53Z","@verge_tokens @history_global_ Tnx for this opportunity.   ETH address : 0x1fF6f3f1873230d20EF3A9d9e85CA64F4421F7e0",0,0
1375884796820267010,"2021-03-27T18:57:52Z","Having the greatest minds working on the $NFY project is mind-blowing! For true visionaries nothing is impossible!   Total Supply- 100,000 Circulating Supply - 64,699  Website: https://t.co/wBVTxGXEYP Telegram: https://t.co/gqcnVnqgCP Purchase: https://t.co/yXhiAoNS4H  $NFT #ETH https://t.co/V0PZqajk16",15,0
1375884783004319747,"2021-03-27T18:57:49Z","I’m happy to announce my new #NFT drop.     “RedSet” Collection 🧑🏽‍🚀   Bidding starts at 0.60 ETH on each   https://t.co/zpb79nxKkl  #NFT #NFTs #NFTart #cryptoart #nftcollectors https://t.co/fRQiSSndwB",213,0
1375884770392076291,"2021-03-27T18:57:46Z","I have obtained all publicly available information that I can on Hinman. He made $15 million from his firm WHILE AT THE SEC.   While Hinman was at the SEC and after he gave his #BTC &amp; #ETH speech, his firm represented Canaan in its IPO. Cannan is the 2d largest Chinese Manuf. of https://t.co/ojXXCLIwqI",2297,0
1375884759872778240,"2021-03-27T18:57:44Z","Just sold some of BitClout to @BitCloutWhale. He gave me some ETH for it.  Random person DM me, no contracts signed, smooth transaction.   The world is f-ing crazy.",71,0
1375884741577179139,"2021-03-27T18:57:39Z","🔶 ViteX Exchange Dex 🔶 🔸 $VX Staking APR 75%🔸  🚦Join:  https://t.co/24PTq7iglh 🚦Code:  𝟵𝟲𝟭𝟰𝟲𝟭𝟰𝟬𝟰  🌐 Install App &amp; Buy Vite Token 🌐 Mining Staking Vite Token 🌐 Dividends VX Token or #BTC #ETH #USDT 🌐 Trading Income VX Token 🌐 Done  @CTBott Adrop Avg 100 SPKL 50 https://t.co/uNiLZjSr7N",37,0
1375884732597211144,"2021-03-27T18:57:37Z","Who else dropped some 💥 today? Drop your recently minted #NFT below I want to add to my collection!🚀  #NFTcollector #NFTCommunity #NFTartist #NFTdrop #cryptoart #cryptoartist #ETH",113,0
1375884731825410048,"2021-03-27T18:57:37Z","#Ethereum. The Genesis. Available on @rariblecom   The origin of mining, the legendary ETH. Decentralized, unchanging.   https://t.co/i5R4kdm4be  #nft #NFTCommunity #nftcollectors #Ether #rarible",2,0
1375884696924663820,"2021-03-27T18:57:29Z","🔶 BetFury Airdrop 🔶 🔸🚰 Claim Free $BTC $ETH $BNB every 20 min.🔸  🚦 Join: https://t.co/2VXxFsrJA8  🌐 Login your $TRX , $ETH &amp; $BSC Wallet! 🌐 Deposits/Withdrawals 🌐 Playing any games! 🌐 Mining $BFG ( $TRX &amp; $BTC ) 🌐 Staking payouts  #BFG @CTBott Adrop Avg 100 SPKL 50 https://t.co/h72Z1pl5cI",41,0
1375884692998750212,"2021-03-27T18:57:28Z","#BSC  volume is higher than #ETH x44🤣  Do you know where #BSC is going...🌙🌟?  Where are other chains in this chart...  @cz_binance  This is massive weekly update which shows massive adoption to #BSC https://t.co/heAuKC480k https://t.co/7vS1gxroit",575,0
1375884683272101888,"2021-03-27T18:57:25Z","#Earn $40 by Learning &amp; Earning about #Crypto. Don't miss it. Hurry Up...  1. Join Right Now: https://t.co/vJNFExvjVJ 2. Verify Email (must) 3. Start Earning by Learning about Crypto.  1. Retweet + Like #CTBot Adrop Ram 3 TRX 90 #btc #bnb #bsc #free #altcoins #Binance #eth #defi https://t.co/cPDVN1a0jk",95,0
1375884678100574211,"2021-03-27T18:57:24Z","@MattKaneArtist @muratpak @dennnnnnnnny @wasthatawolf @zippi101 @dionysus64 @ScrillaVentura @dete73 @matthall2000 @pents90 @artnome @kevinabosch @GusGrillasca @PowerDada @SuperRare @KnownOrigin_io @SerenaTabacchi @flakoubay @MOCDA_ @opensea @bnolan @hex6c @cryptograffiti @dankvr @conlan @AsyncArt @VK_Crypto @museumcryptoart @stellabelle @TokenAngels @mattgcondon @FilmBrief @blackboxdotart @josiebellini @niftytime @basileus_eth @YungGucciT @GiselFlorez @NorrieHarman @MattiaC @catsandcolors @unityofmulti @thesarahshow @NanuBerks @WGMeets @mlibty @JohnnyDollarArt @obxium @missalsimpson @ModeratsArt Crazy to think how far some of us have come :). When the world opens and the cryptoart shows begin will be awesome to grab 🍻 drinks. Spitball ideas making the next level. ♥️",11,1
1375884662632030210,"2021-03-27T18:57:20Z","@davidgokhshtein 40%------- $BTC, $ETH 25% ----- $Handy 15%------ $KEX 20%------ $FLETA",1,1
