"ID","created_at","text","like_count","rt_count"
1376829033049165831,"2021-03-30T09:29:56Z","Price analysis 3/29: #BTC, #ETH, #BNB, #ADA, #DOT, #XRP, #UNI, #THETA, #LTC, #LINK    Bitcoin’s renewed push above the descending channel trendline suggests bulls are preparing to push BTC and altcoins to new highs. https://t.co/cnkTzlGy4d",2,0
1376829021250523137,"2021-03-30T09:29:53Z","Who wants to be a millionaire?  Join the Crypto Venture Today! https://t.co/qeIRxi9LVo  #investing #entrepreneur #cryptonews #invest #business #eth #bitcointrading #forextrader #litecoin #bitcoincash #trader #bitcoinprice #investor #forextrading  #crypto #bitcoin #cryptocurrency https://t.co/crRM2ftOKQ",3,5
1376829010450264068,"2021-03-30T09:29:50Z","BTC, BCH, ETH, DOGE, USDC, GUSD, BUSD, PAX https://t.co/hVbB6gUD9p",1,0
1376829005907820548,"2021-03-30T09:29:49Z","Who wants to be a millionaire?  Join the Crypto Venture Today! https://t.co/qeIRxi9LVo  #investing #entrepreneur #cryptonews #invest #business #eth #bitcointrading #forextrader #litecoin #bitcoincash #trader #bitcoinprice #investor #forextrading  #crypto #bitcoin #cryptocurrency https://t.co/crRM2ftOKQ",3,5
1376829004754325504,"2021-03-30T09:29:49Z","*GET YOURSELF A US PAYPAL ACCOUNT*  You'll Buy &amp; Sell Crypto (BTC,Eth,Litecoin) With it.  *You will be able to send and receive payments from any part of the world*  Service cost: #5,000 Chioma * Assurance  *Click Now to get yours* 👇🏽👇🏽  https://t.co/VQ9jyQ8NN9 https://t.co/5gKQapYoTe",94,89
1376828997984776195,"2021-03-30T09:29:48Z","Join the @Holdefi community in HLD public sale!  #HLD #Holdefi #ETH #BSC #IDO #ICO 👇👇 https://t.co/dDRMZMRT3u",0,0
1376828997477228545,"2021-03-30T09:29:47Z","Who wants to be a millionaire?  Join the Crypto Venture Today! https://t.co/qeIRxi9LVo  #investing #entrepreneur #cryptonews #invest #business #eth #bitcointrading #forextrader #litecoin #bitcoincash #trader #bitcoinprice #investor #forextrading  #crypto #bitcoin #cryptocurrency https://t.co/crRM2ftOKQ",3,5
1376828976564428804,"2021-03-30T09:29:42Z","RT @TylerDurden: So @Visa are using the ETH blockchain to settle payments.  Looking forward to paying $3 for coffee + $900 gas fee and wait…",9324,1157
1376828963180318721,"2021-03-30T09:29:39Z","@bscexofficial $BSCX $ETH #swapX #launchzone   SwapX has very small price slippage and super low fee compared to other AMMs https://t.co/BnrZbKhXec",0,0
1376828942146011143,"2021-03-30T09:29:34Z","If you know about Ethereum's EIP 1559 you're front-running the world. Full stop.  EIP 1559 is a game changer for ETH.  It's a game changer for crypto.  If you invest in crypto...you owe it to yourself to listen to this ep.  @hasufl makes it easy.  Listen: https://t.co/tqJqusrIcn",567,119
1376828934956929026,"2021-03-30T09:29:32Z","$LTC $BTC $ETH $LINK $BCH   So many people expecting market topping EOY   My analysis of bitcoin logarithmic ascending channel from 2017 gives the same results as this fractal comparison of the Dow   Mid-May for bitcoin, early June for stocks/alts https://t.co/fHapXEzRly",0,0
1376828929395335170,"2021-03-30T09:29:31Z","30 day EVIX: 88.8037 ETH/USD vwap: $1,817.26 04/16 expiry volume: $975,846.56 04/30 expiry volume: $4,039,658.58 Current time: 09:29:05",0,0
1376828928774537218,"2021-03-30T09:29:31Z","@realbankso @dixon_eth @lanadenina @Aurorae20682724 @ivolazaroraw @velpokes Well, actually, I kinda sold one, but my wallet is still empty. I don't know, since it my genesis on FND, may be collector should approve the deal or something?",5,0
1376828927725817859,"2021-03-30T09:29:31Z","#TRX &gt; #ETH it ain't even close",1,0
1376828919190581249,"2021-03-30T09:29:29Z","Pair : GBPUSD  Order Type :Sell  Stop Loss at :1.38150 Take Profit at : 1.37050  #forextrading #forex #trading #forexsignals #XAUUSD #GBPUSD #EURUSD #EURJPY #GBPJPY #Bitcoin #Binance #ETH #cryptocurrency #silva #Aguero #Chioma",0,0
1376828914522337280,"2021-03-30T09:29:28Z","Gate - Biggest gains at the moment 🚀🚀🚀 $ELEC $OGN $HOT $JGN $STAKE  Gate is the best exchange to invest in low cap gems! 💎💎💎 Sign up now to explore hundreds of new cryptocurrency projects.  https://t.co/9y5jz47q6z  #BTC   #Binance   #BNB   #BinanceSmartChain     #CHZ #ETH",2,0
1376828912148361218,"2021-03-30T09:29:27Z","❗️#NFTGiveaway #CryptoCrawlerz ❗️  LIKE + RETWEET + FOLLOW @cryptocrawlerz TO ENTER 🐛🦋🐝💚  🐞(1) WINNER WILL RECEIVE (1) SERIES 02 / #003 / 'SCARLETT' 🐞  WINNER TBA 3/31 🔥  VIEW / PURCHASE ON @rariblecom 👇👇👇👇  https://t.co/skWtkNgWpu  #NFT $ETH #NFTCommunity #Cryptoart https://t.co/Ju1eycLJqY",225,153
1376828899418648579,"2021-03-30T09:29:24Z","RT @coinmamba: Up only $ETH",1082,61
1376828896033660929,"2021-03-30T09:29:23Z","Join our #Giveaway and win $100 in $ETH by retweeting this post which requires:  - Screenshot of your $ETH (BEP20) QR Code address - Hashtag $BSCX $ETH #swapX #launchzone   SwapX has very small price slippage and super low fee compared to other AMMs #BSC #giveaway https://t.co/xCZCiBX9Jq",815,647
1376828885686452224,"2021-03-30T09:29:21Z","RT @MacroCRG: Send the $ETH. https://t.co/Fs1sRggKWh",532,69
1376828884964892676,"2021-03-30T09:29:21Z","RT @ProBit_Exchange: #DFI will be listed on #ProBitExchange March 31 with an ETH market @defiqa3 #DeFi  https://t.co/2ZqO1n8Ezf https://t.c…",574,471
1376828882918240260,"2021-03-30T09:29:20Z","⚡️⚡️⚡️ Hey #NFTartist 👋 I am ready to support you today! 🔥 Retweeting your #NFT, share your lovely works! 🎉🎉🎉   #nftart #share #cryptoart #NFTcollector #NFTs #drop #cryptoartist #NFTArtists #NFTCommunity #ETH #NFTcollectors #cryptoartist",135,23
1376828881102110721,"2021-03-30T09:29:20Z","@RyanSAdams @sassal0x @hasufl eth bro's are funnier than btc bro's",0,0
1376828880913326085,"2021-03-30T09:29:20Z","You don't need: - A bridge network - On demand liquidity - Messaging layer - Software licenses - Mercenary partnerships - $10B treasury &amp; ongoing fundraising - A new token in each Tx - Bankers &amp; IMF - SEC lawsuit  You just need @ethereum.  Simple. Superior. 🌐🔐📡 $ETH $USDC $V https://t.co/acAp2b74ib",1231,196
1376828858952003585,"2021-03-30T09:29:14Z","@realbankso Do you suggest set prices or auction? Thing is, I’d love to put one of mine up on auction on Opensea just as trial and error, but minimum reserve is 1 ETH which is ridiculous lol although I cud accept any bids that would come in I believe, and have to keep gas into consideration",0,0
1376828855974047746,"2021-03-30T09:29:14Z","RT @CryptoCapo_: It's $ETH time",1603,133
1376828837648982019,"2021-03-30T09:29:09Z","$hot #holochain has really done well without any big marketing or big #influencers shilling.   This run is due to the hard work of the $hot team &amp; small guys who understood their vision.   I honestly believe #holochain $hot is just getting started.   $btc $eth $link $hot",120,33
1376828772532383749,"2021-03-30T09:28:54Z","@sassal0x @KingWolli THIS IS GOLD!!!   $ETH 💎",1,0
1376828767855804416,"2021-03-30T09:28:53Z","Jay Clayton, whose SEC declared #BTC and #ETH are not securities and removed all obstacles to trading them, now works for hedge fund that is betting on #BTC and #ETH.  (Coincidentally, he also sued @Ripple, crashed #XRP and forced its delisting.) https://t.co/W7boQD1zYq",2047,862
1376828761581223937,"2021-03-30T09:28:51Z","If you know about Ethereum's EIP 1559 you're front-running the world. Full stop.  EIP 1559 is a game changer for ETH.  It's a game changer for crypto.  If you invest in crypto...you owe it to yourself to listen to this ep.  @hasufl makes it easy.  Listen: https://t.co/tqJqusrIcn",567,119
1376828735396188162,"2021-03-30T09:28:45Z","Your Spring Getaway! 2 Hours from L.A.   Lake view house for California escapes, outdoor fun &amp; #RemoteWork  Sequoias, Kern River rafting, Lake Isabella  $tsla $gme $amc $doge #btc $cciv $tsla $nkla $hyln $nio $li $aapl #indiedev #pc $arkk #eth $eth $btc https://t.co/E4vtQM49nc",0,2
1376828730904084480,"2021-03-30T09:28:44Z","Did you take profit from $TCT 🥳🚀🚀 My target almost hit in just 3 days 🚀🚀 Crypto money is awesome 💥  $btc $eth $trx $iotx $xrp $dot $link $vet $nftx $bot $xlm $doge $audio $alpha $bao $inj $cream $matic $bnb $twt $vet $cvp $doge $bal $usdt $flr $unfi $mtl $hot $npxs $ooe https://t.co/JKXtW0vhgD",0,0
1376828711660572676,"2021-03-30T09:28:39Z","Those who were celebrating $XRP getting sued by SEC, see this as well. SEC is coming after most of the crypto projects who did sale of any kind in crypto space. Recently they've sued LBRY project as well. The entire crypto space needs $XRP to win this case  $BTC $ETH $XRP https://t.co/hbTsiFABdI",0,1
1376828709877870596,"2021-03-30T09:28:39Z","$DYP trading is now live on #KuCoin!  🚀 DYP/USDT: https://t.co/JRuHleEYrO 🚀 DYP/ETH: https://t.co/fOlQ3xkiGa  Find out more about @dypfinance in #KuCoinCryptoGem card https://t.co/oLT23dSfWq https://t.co/oSDLuCG1Jr",232,177
1376828707495677952,"2021-03-30T09:28:38Z","@CrossXaberS @Frozen_Flame420 @JustAnLED Bethesda are the king of Glitches and Buggy games. Last top of the line game they made was Fallout 3 lol. Everything else have been done again and again. I like Doom Eth, but nothing is original about it. Sony are innovative…",2,0
1376828703511023617,"2021-03-30T09:28:37Z","Last week, a close friend of mine asked me to join him on his youtube channel to explain #NFTs. In his video I quickly made an artwork in a couple of hours which we could sell on @rariblecom   https://t.co/JwYxYaUvcg  The current bid is 0.8 ETH. #NFT #crypto #NFTart #cryptoart https://t.co/QHmZlkqh4S",3,0
1376828701405540353,"2021-03-30T09:28:37Z","40 hours until Main Net 🚀  40 of the most popular tokens will be available across $ETH and BSC chains, including $BTC, $ETH, $LINK, $DOT, $ADA, $YFI, $UNI, $OMG, $GRT, $BNB, and $XRP.  Via complex swap, #OrionTerminal will have 1,500+ pairs via unique cross-pair functionality. https://t.co/QAOfl6Z1wn",743,235
1376828690789658629,"2021-03-30T09:28:34Z","@bscexofficial $BSCX $ETH #swapX #launchzone   SwapX has very small price slippage and super low fee compared to other AMMs https://t.co/eBQslZfXVr",0,0
1376828690399649798,"2021-03-30T09:28:34Z","Also came now what? #btc #bitcoin #usd #crypto #cryptocurrency #market #token #blockchain #tether #usdt #BTCUSDT #altcoins #xrp #eth #ltc #forex #trading #DXY #link #iota #Ethereum #litecoin let you know soon 😉 https://t.co/eMNctIqRkN",4,1
1376828688768114688,"2021-03-30T09:28:34Z","📈 10 Cryptocurrency Projects to Watch in 2021  FT: @avalancheavax, @ethereum, @PancakeSwap, @terra_money, @binance, @Dashpay, @opensea, @block_one_, @WrappedBTC   #AVAX #ETH #BSC #TERRA #LUNA #BNB #DASH #EOS #wBTC   https://t.co/O9m80NCJfG",35,12
1376828685446213632,"2021-03-30T09:28:33Z","@Abdulla0903320 did you pay transaction fee for recieving ETH in ethflow?",0,0
1376828667607781378,"2021-03-30T09:28:29Z","@tacoswapcrd @mickalamasse1 @bepronet @Poolz__ @xed @Uniswap @SushiSwap _/﹋\_   (҂`_´)   &lt;,︻╦╤─ ҉🌶🌶🌶(🍣🦄🍕🍔)  _/﹋\_ Pool’s hunter :  Bepro 🧛‍♂️  @bepronet 🌶🌶🌶 Pool z 🧛‍♂️  @Poolz__   🌶🌶🌶 XED    🧛‍♂️  @Xed          🌶🌶🌶 Who’s next in Avril 2021 🧛‍♂️ ?  Joins us and will see... https://t.co/5fJF8CwMSf 🌶🌶🌶🔥🔥🔥🧛‍♀️🚀🚀#coinmarket #eth #ada",3,4
1376828661047775232,"2021-03-30T09:28:27Z","@AlexSaundersAU @ethereum @circlepay @jerallaire @Visa $ETH is just an expensive toy, useless with no real liquidity and users. #BSC $BNB is the best choice for the people’s money, real liquidity, and huge adoption.",68,40
1376828652260794373,"2021-03-30T09:28:25Z","@Machin_Bidule_ ETH is an oscillator. It's a no-brainer to focus on the one that everything oscillates around, and that's Bitcoin.  Bitcoin is complex enough to be more than a full time job for a team of people.",86,2
1376828649865945088,"2021-03-30T09:28:25Z","RT @WylferV1: Today for 1 $ETH you can have 1000 $GRT   Remember this tweet   #Ethereum #GRT https://t.co/sMRozO3mV1",11,1
1376828647991078913,"2021-03-30T09:28:24Z","Arkitektur Modern by HoT  1/1, @KnownOrigin_io,  2.5 ETH  Close to the Prague Orloj around the Old Town Square..  https://t.co/rNYqnpvkr6  #nft #nfts #nftcollector #nftart #crypto #cryptoart #digitalart #photo #photography #city #prague #architecture #surreal #experimental",5,1
1376828635974406148,"2021-03-30T09:28:21Z","@ZssBecker MEOWTH THATS RIGHT...  &lt;ETH WALLET PLACEHOLDER&gt;",0,0
1376828630953652228,"2021-03-30T09:28:20Z","Join our #Giveaway and win $100 in $ETH by retweeting this post which requires:  - Screenshot of your $ETH (BEP20) QR Code address - Hashtag $BSCX $ETH #swapX #launchzone   SwapX has very small price slippage and super low fee compared to other AMMs #BSC #giveaway https://t.co/xCZCiBX9Jq",815,647
1376828625102721026,"2021-03-30T09:28:19Z","#Chainlink Bottomed Out and Ready For $100?!   Check the link here: https://t.co/ItNEAP2vdn  I think it has massive opportunities in itself and I'm explaining that for $ETH and $LINK in the video.  Don't forget to subscribe!",268,34
1376828623659753475,"2021-03-30T09:28:18Z","Is amazing to see how this project has been out since Dec 2020 and so far Liquidity Providers have earned about 6533.78 $ETH and that is the total value of $10.6 Million dollars. 💪  Also the APY doing 301.35% which is amazing.  #DeFi #UniSwap #BSC #SmartContract #Ethereum https://t.co/9a7rgyoMpE",2385,2476
1376828621399162880,"2021-03-30T09:28:18Z","@The_Half_Soul @OGems370 $ETH is old news and boring.   Sir, you know clearly know where the future is and I think we can all agree it’s not #Ethereum",2,1
1376828609487384577,"2021-03-30T09:28:15Z","OMG 😱  Day 1 on CMC   TacoToken🌶  is Top pair on #coinmarketcap    #tacoswaptothemoon #cryptocurrencies #tacoswaptomars #defi #eth #ADA #ethereum #crypto @bepronet @Poolz__ @Xed",1184,1072
1376828605854978049,"2021-03-30T09:28:14Z","RT @ProBit_Exchange: #DFI will be listed on #ProBitExchange March 31 with an ETH market @defiqa3 #DeFi  https://t.co/2ZqO1n8Ezf https://t.c…",574,471
1376828598640910336,"2021-03-30T09:28:12Z","❗️#NFTGiveaway #CryptoCrawlerz ❗️  LIKE + RETWEET + FOLLOW @cryptocrawlerz TO ENTER 🐛🦋🐝💚  🐞(1) WINNER WILL RECEIVE (1) SERIES 02 / #003 / 'SCARLETT' 🐞  WINNER TBA 3/31 🔥  VIEW / PURCHASE ON @rariblecom 👇👇👇👇  https://t.co/skWtkNgWpu  #NFT $ETH #NFTCommunity #Cryptoart https://t.co/Ju1eycLJqY",225,153
1376828585114136577,"2021-03-30T09:28:09Z","I'll send $300 in #ETH or #BTC to one person who retweets this and follows @bud_crypto. Must complete these tasks:  1 - Like/RT his pinned tweet  2 - Must RETWEET &amp; LIKE 4 of his tweets  Ends in 72 hours!",1210,1759
1376828577967190017,"2021-03-30T09:28:07Z","Less than 24h before the $DGCL platform is launching!  - Own fractions of high valued #NFT - One-Click-Deployment of #NFT marketplace - Loans against #NFT for $DGCL $USDT $ETH - COO launched Pokemon Go Japan - Multiple artist signed and @KittiesBalls  - No more private sale dumbs https://t.co/LKiCWSzjTf",65,27
1376828556420988932,"2021-03-30T09:28:02Z","🚀It’s Alive!🚀 SOLD for 2.7 ETH on OpenSea! Great buy but they would have been better waiting for the @jurassicasylum drop  Check out the transaction: https://t.co/2frDZQPqCT #JurassicAsylum #NFT #NFTartist #cryptoart #NFTCommunity https://t.co/HMmikhDUxb",1,0
1376828554327908353,"2021-03-30T09:28:02Z","So I moved a ton of my huge ETH holding to SPI...SPI is up 50%  What dumb luck. Gotta give some back.   Let's give away a mooncat (valued at $1000) AND $500 in SPI.  Post your eth wallet below with MEOWTH THATS RIGHT...  Tagging/rewteeting is appreciated https://t.co/VDXboLlmP0",1916,1134
1376828532668649472,"2021-03-30T09:27:57Z","If the Visa x Ethereum news made you bullish long term on $ETH, there are better options than just holding.   @SharedStake provides a liquid method to stake for ETH2, while earning additional yield in $SGT.   Oh yeah, and the airdrop next month.🤫",4,1
1376828517497724930,"2021-03-30T09:27:53Z","@launchzoneann @BinanceChain This is excellent news for the network of $ETH users. We'll have a liquid $ETH pair with an awesome percent APY once that's filled up on #Launchzone. The #Launchzone project is doing an outstanding job of accomplishing what they set out to do #BSCXHeroes $BSCX #Launchpoolx https://t.co/OYwx4cTZNV",147,76
1376828503912558594,"2021-03-30T09:27:50Z","15 MIN LEFT IN THE AUCTION and @Crypto888crypto LEADS THE BIDDING:  https://t.co/BZgEAxn1by  #NFT #nftart #nftartist #nft #nftcollector #NFTcommunity #cryptoart #crypto #eth #ETH #nonfungibletokens https://t.co/aKCwlhx22e",3,1
1376828490293551107,"2021-03-30T09:27:46Z","This should be sold for more than 15 ETH https://t.co/BVzMTsro5U",1,0
1376828490092265472,"2021-03-30T09:27:46Z","📢Congrats！First launch on Uniswap！ 🚀USDT-NFTs trading pair is live！ 🚀The contract address:  0x6599fc3e77cbfa6f6e9cac605a30b1e78827eba0  💰Hold more NFTs, be richer！  🌸Like、Retweet &amp; Tag 3 friends  🚀Select 10 addresses to airdrop 1,000,000 NFTs, leave wallet #ETH address https://t.co/Slor4FBQzP",2960,2442
1376828489937121282,"2021-03-30T09:27:46Z","RT @coinlistings: New CoinGecko Listing: $DREP  Twitter: @drep_foundation Contract: #ERC20 #ETH #bitcoin #crypto #coingecko https://t.co/Jn…",5,2
1376828487022080000,"2021-03-30T09:27:46Z","🔥 #ODDZ #Giveaway is Now On! @oddz_finance 🔥  10 lucky users will receive $30 each in #ODDZ 😗  1️⃣Login &amp; Participate   https://t.co/81bh5CpMnK  2️⃣Retweet and @ a friend  Share with your friends &amp; get more rewards 💌  #Ethereum #ETH #cryptogiveaway https://t.co/M7MxexMYji",267,619
1376828482706141186,"2021-03-30T09:27:45Z","So I moved a ton of my huge ETH holding to SPI...SPI is up 50%  What dumb luck. Gotta give some back.   Let's give away a mooncat (valued at $1000) AND $500 in SPI.  Post your eth wallet below with MEOWTH THATS RIGHT...  Tagging/rewteeting is appreciated https://t.co/VDXboLlmP0",1916,1134
1376828480990683136,"2021-03-30T09:27:44Z","🔴 Why ETH Remains Attractive Near $1750  ✳️ Ethereum extended its rally above the $1800 resistance against the US Dollar. ETH price is currently correcting lower from $1840, but it might find bids near $1750.  https://t.co/TsRwzJy1Pe",1,0
1376828447989858310,"2021-03-30T09:27:36Z","OMG 😱  Day 1 on CMC   TacoToken🌶  is Top pair on #coinmarketcap    #tacoswaptothemoon #cryptocurrencies #tacoswaptomars #defi #eth #ADA #ethereum #crypto @bepronet @Poolz__ @Xed",1184,1072
1376828445594902530,"2021-03-30T09:27:36Z","@michaelXDC2021 ETH is ugly !",0,0
1376828439131529219,"2021-03-30T09:27:34Z","Gas fees on #Uniswap last 24hs:  $4,439,947.71 (2,474.53 Eth)  Gas fees on #Tether last 24hs:  $1,690,979.49 (942.44 Eth)   Gas fees on #USDC last 24hs:  $495,200.85 (275.99 Eth)   Gas fees on #IOTA since its inception: $0",422,95
1376828432181497856,"2021-03-30T09:27:33Z","#ETH is a psyop to distract you from accumulating #btc fact.",0,0
1376828429526396929,"2021-03-30T09:27:32Z","Imagine thinking #IGGalaxy is and will only be a web-based #esports platform..in beta..providing small free entry daily tournaments to 100k+ registered users..for 10+ games..🙃  So much more to come 😈   Both expected and unexpected 👽  $IGG #IGG #PoweredbyPolygon #MATIC #ETH",169,80
1376828414343086080,"2021-03-30T09:27:28Z","@bscexofficial $BSCX $ETH #swapX #launchzone   SwapX has very small price slippage and super low fee compared to other AMMs https://t.co/Rr73HXYAOp",0,0
1376828409771270148,"2021-03-30T09:27:27Z","RT @EvenOyou: First 20 people who retweet their ETH FEG address and retweet will recieve 40 billion FEG token. 40,000,000,000.  @FEGtoken",118,80
1376828404322824194,"2021-03-30T09:27:26Z","Hello gamers! With the release of our latest game #NFTBrawl, we're happy to announce that we've officially crossed 5️⃣0️⃣0️⃣ #Scapes on #ETH, and 8️⃣,0️⃣0️⃣0️⃣ on #BSC!  🍃Thanks for minting with us!",78,15
1376828403794509826,"2021-03-30T09:27:26Z","03/29/21 UPDATE: Net Assets Under Management, Holdings per Share, and Market Price per Share for our Investment Products.  Total AUM: $44.1 billion  $BTC $BCH $ETH $ETC $ZEN $LTC $XLM $ZEC $BAT $LINK $MANA $FIL $LPT https://t.co/lbwj2fYHrz",678,144
1376828400522784769,"2021-03-30T09:27:25Z","$LDFI 🔥🔥🔥 ALPHA coming soon before 31st march. @lendefi_io  $btc $eth  #Bitcoin #DeFi #uniswap #uniswapgem",2,0
1376828392914395139,"2021-03-30T09:27:23Z","RT @spencernoon: Just in case it wasn't obvious. It's time to be irresponsibly long $ETH.",695,56
1376828388174888965,"2021-03-30T09:27:22Z","#LBRY $LBC being sued by @SEC_News but they’re describing what $ETH did yet they labeled ETH NOT a security... 🤡🤡🤡 https://t.co/Ax41h3bS2H",1,0
1376828386333589506,"2021-03-30T09:27:22Z","GET IN ON $PXP presale!!! Price automatically increases 50% in 3 days! Looking like the next $eRSDL/ $Aave #Crypto #cryptocurrency   Sign up here⬇️🚀🚀 https://t.co/J9V7TnKZwu  $LINK $BTC $ETH $QNT $DENT $eRSDL $ALBT $wCRES $LPL Pls use my referral code! $PXP will 100x !🚀🚀🚀",10,275
1376828380600008706,"2021-03-30T09:27:20Z","The DEX @FinanceChainge is set to launch on the @FUSIONProtocol network with over a million users on the protocols waitlist. This decentralized exchange aims to innovate on traditional models through leveraging the Fusion Network.  #BSC #BTC #ETH #BNB  https://t.co/xx55YiGfm3",21536,13667
1376828371666100224,"2021-03-30T09:27:18Z","Why bitcoin is best relegated to a footnote in history - South China Morning Post https://t.co/LchY2es8mk #Cryptocurrencynews #XRP #CryptoCurrency #BTC #BCH #BlockchainNews #CryptoNews #BitcoinNews #Ethereum #ETH #BLockchain #QASH",0,0
1376828369518669826,"2021-03-30T09:27:18Z","Axie #239861 was sold for 0.6 ETH ($1090.58). Buyer: 0xff1b29..., seller: 0xf8454a... 🔥 Congrats to the new owner! Tx: https://t.co/zzbwtipxk2 #AxieInfinity #NFT #Ethereum #Play2Earn https://t.co/uczsxV3jmX",8,1
1376828358969880577,"2021-03-30T09:27:15Z","❗️#NFTGiveaway #CryptoCrawlerz ❗️  LIKE + RETWEET + FOLLOW @cryptocrawlerz TO ENTER 🐛🦋🐝💚  🐞(1) WINNER WILL RECEIVE (1) SERIES 02 / #003 / 'SCARLETT' 🐞  WINNER TBA 3/31 🔥  VIEW / PURCHASE ON @rariblecom 👇👇👇👇  https://t.co/skWtkNgWpu  #NFT $ETH #NFTCommunity #Cryptoart https://t.co/Ju1eycLJqY",225,153
1376828353815011331,"2021-03-30T09:27:14Z","Give Away: 1 Free 001E - Ether Falls (Yellow) https://t.co/c681GD56qo To Enter: 1) Like  2) Comment w/ your Rarible Page or ETH address 3) Retweet  *Bots and anyone involved in a free giveaway network will be disqualified. #NFTCommunity #nfts #nft #nftartwork #nftart #nftgiveaway https://t.co/MfZbowrlt1",92,66
1376828351306989568,"2021-03-30T09:27:13Z","Finaly #YTWC / #BTC Trading Pair is already opend on https://t.co/qcaZdOnpEL  #buy The #dip  #crypto #bitcoin #waves #xrp #eth #etc #algo #dot #CryptocurrencyNews #cryptocurrency #asia #singapur #china #japan #korea #usa #Indonesia #turkey #covid #corona #brazil #chile #peru",0,0
1376828349364887557,"2021-03-30T09:27:13Z","Ethereum Classic's design makes a calculated tradeoff between performance and security. In other words, ETC is inefficient, but highly secure.  In fact, much more secure than your devices or online services.  What Is Ethereum Classic? by @CryptoEtherplan https://t.co/sh7dozsDiw",131,36
1376828344965140480,"2021-03-30T09:27:12Z","@jinkeez1 @vectorpark @niftygateway Yes, this has been discussed for weeks.  Eth2 is the lazy excuse that most Eth platform use to avoid taking action.  https://t.co/PgOVZqoCsm https://t.co/BEzsepkaJa",0,0
1376828339235741699,"2021-03-30T09:27:10Z","OMG! 😱  I finally did it.  1st drop on @rariblecom . Teddy bear №10 - Brother miner 10 copies for 0.07 eth.  I hope you enjoy it. Teddy bear collection in progress  https://t.co/5hjlJPswvU   #rarible #ethereum #nft #cryptoart #nftcollector #NFTartist #rarible #NFTCommunity https://t.co/ycfMQwUutv",85,37
1376828320571088896,"2021-03-30T09:27:06Z","QUANTNETWORK   collaborating with   MASTERCARD !!!!!!  $QNT  $xrp $link $btc $eth  https://t.co/LLVeACzv0n https://t.co/iIc6pWIYso",30,4
1376828313554018304,"2021-03-30T09:27:04Z","@XRP_Retweeter @simonhjalm We offer $BTC, $LTC and $BCH at the moment. We also plan to introduce $ETH and $XLM soon Check out our new site too :) https://t.co/qUoLAHQ87Z",10,5
1376828313092653057,"2021-03-30T09:27:04Z","GET IN ON $PXP presale!!! Price automatically increases 50% in 3 days! Looking like the next $eRSDL/ $Aave #Crypto #cryptocurrency   Sign up here⬇️🚀🚀 https://t.co/J9V7TnKZwu  $LINK $BTC $ETH $QNT $DENT $eRSDL $ALBT $wCRES $LPL Pls use my referral code! $PXP will 100x !🚀🚀🚀",10,275
1376828308638236673,"2021-03-30T09:27:03Z","@BitScores Thanks so much for the opportunity. ETH: 0xa68ef3207836f7c4d88b7a57d010e5b6a20489f6",0,0
1376828302955008004,"2021-03-30T09:27:02Z","RT @Atom1kOne: 🎁 25$ ETH Giveaway 🎁  - Follow me &amp; @DED_RIMMER  - Retweet  - 3 days  GL! 🔥 https://t.co/C7GPPwmaff",111,133
1376828289864626177,"2021-03-30T09:26:59Z","I'm not in the business of making predictions or giving advice, but as an OG $TEL holder dating back 3 years, I'm bullish beyond words that #Telcoin will have the single biggest month of its history in April. We may never forget what's about to happen.   #Telfam $BTC $ETH #Crypto https://t.co/C2VEYwkuc3",76,17
1376828286395936770,"2021-03-30T09:26:58Z","@D34D_eth @kendrick_tn @Johanvanderslam @JeffreyAWillia4 Do you know what percentage of hashpower is running Flashbots? Sorry for intro level questions 🙈",2,0
1376828277197733889,"2021-03-30T09:26:56Z","💧Roku Network Airdrop 💧  🏆 Task:          ➕  15 ROK (~$5)  👨‍👩‍👧 Referral:   ➕  3 ROK (~$1)  🔛  Airdrop Link &amp; Information: https://t.co/YhvsOcfEbH  #cryptocurrency #Crypto #Bitcoin  #BSC #BinanceSmartChain #Ethereum #ETH #Airdrop #bounty #ROK #RokuCoin #RokuNetwork",3738,4815
1376828275217981447,"2021-03-30T09:26:55Z","@CryptoMichNL Check $ANRX on @coingecko @CryptoMichNL 👌  💠 @AnRKeyX is so HYPE rn coz their First m$port Game #BattleWave2323 is going Live TOMORROW‼️   💠CEO @JDSalbego Will be on @Twitch for a Live AMA Tomorrow 1pm UTC! 👇 https://t.co/9ylEua4g0p   @beeple @elonmusk   $ANRX $ETH $LINK #BNB",1,0
1376828267404140545,"2021-03-30T09:26:53Z","Punk 3443 has a new bid of 2,500 ETH ($4,515,824.89 USD) placed by 0x78b58e. https://t.co/rOB9i3eYnA #cryptopunks #ethereum https://t.co/fapENshzL3",309,51
1376828265722114049,"2021-03-30T09:26:53Z","@HiRezTheRapper You have another early entry chance here with $PEECH 🍑 a completely new and newthinking coin doing great things for our planet, but also for its hodlers!! First giveaways are starting soon, dont sleep on this💎  $hoge $doge $froge $shib $feg $btc $eth $wern $tosa $pika $pipi https://t.co/58FfS2h2wi",8,4
