"ID","created_at","text","like_count","rt_count"
1375500278473093127,"2021-03-26T17:29:56Z","#TRX #FX #SUSHISWAP #CHZ #UNFI #SRM #SOL #BTC #WAN #ALPHA #XVS #DOT #UNI #USDT #BNB #VET #LINK #DOGE #LINA #KSM #EOS #IOTA #FNX #XMR #AVAX #MKR #THETA #LTC #ETH #YFI #CAKE #USDC #ADA #NPXS $TRX $FX $SUSHI $CHZ $UNFI $SRM $SOL $BTC $WAN $ALPHA $XVS $DOT $UNI $USDT $BNB $VET $LINK",9,25
1375500277302882308,"2021-03-26T17:29:56Z","@cz_binance @binance $feg is such an exciting project right now!   - Deflationary token - Governence token - Bridge between eth/bsc - Fegex launch incomming - Don't even get me started on whats in store for liquidity pools!   DYOR but this project is going to fly this year! 🍌🦍🚀🚀🚀🚀",0,0
1375500266976468996,"2021-03-26T17:29:53Z","@SalsaTekila wave2: ~~~~selling dragon boots 2 ETH~~~~",1,0
1375500266276057091,"2021-03-26T17:29:53Z","$JEDI Can you do a shout out to Jedi Token?? We’re 50 holders away from being able to list #coingecko and #Coinmarketcap $swan $link $eth $btc $pipi $tosa $pika $grug $hoge $doge @CryptoSlimer @lynseaOfCrypto @1goonrich",6,0
1375500254221586434,"2021-03-26T17:29:50Z","Not all whales are bad 🥺🐳 #Doge #Safemoon #BTC #Eth #crypto we should be sponsoring the good ones that don’t give us shit! Ans stay in the ocean.... each community should look after a whale named after their coin. https://t.co/tV7D0Ak1MD",625,0
1375500249834254336,"2021-03-26T17:29:49Z","Welcome to massive Q DAO airdrop!   1. go now to telegram https://t.co/COyXgODY1z   2. Stay in telegram chat and wait announcement.  3. HOLD this gem until 10x   (soon - QDAO launch cross-chain for BSC, Polkadot and ETH)",4254,0
1375500244545331202,"2021-03-26T17:29:48Z","@loopringorg We are tipping our favorite  crypto-youtuber @funontheride  paying 0.0001 ETH or 16 cents of commision thanks to @loopringorg @VitalikButerin https://t.co/yiW2go9zq1",22,2
1375500243958067205,"2021-03-26T17:29:48Z","🎉Earn $12 $BRG🚀  💸💸Legit Airdrop💰💰  Join: https://t.co/XFCmFJdWQ9   Complete All Steps Done. At final step, it'll ask to buy tokens. Don't buy, Just click bought/done  #Bitcoin #BTC #Doge #TRX #ETH _____  @rocketbotpro airdrop 0.5 merge 50  #CTBot Adrop Avg 100 TATM 90",45,2
1375500242221727751,"2021-03-26T17:29:47Z","I think that #KLV is a simple, secure p2p crypto wallet for blockchain with support for Bitcoin (BTC), TRON (TRX), Ethereum(ETH), and other top tokens, coins.  It's a much needed solution in the crypto space.",1,0
1375500240124473344,"2021-03-26T17:29:47Z","#Airdrop is live now Complete tasks to get an airdrop. #Airdrop worth 5000 #DEFI (~$50000 at current price)  🔹️Follow 🔹️Like, RT &amp; Tag 5 friends 🔹️Join https://t.co/cGXUyW3sNJ 🔹️Follow Like &amp; Share https://t.co/LX8VEkTyjY 🔹️Comment ETH address  #ETH #ICO #Ethereum #DeFi https://t.co/pwG9tSiJaO",959,0
1375500235678564353,"2021-03-26T17:29:46Z","Wow .. every day there is new partnership. The most undervalued coin is $MATIC by @0xPolygon   Available on major exchanges like Binance, Coinbase.  $ETH L2 solution.   Expect to see  $10-$15 soon as per utility. https://t.co/WD5WuzGiX5",4,0
1375500232188919812,"2021-03-26T17:29:45Z","Whole market looks 👍 so far today.  Just a small move to the upside on #BNB / $eth / #BTC and it should be a comfy day inside the LPs.  I bought a bnb/eth LP yesterday too so happy for that 😀",38,0
1375500231228452871,"2021-03-26T17:29:45Z","Fam, $ONE is ready to move to next target --&gt; 0.25c  $ada $npxs $dot $zil $btc $eth $bnb $theta $xrp $xlm https://t.co/n3fvsZ1hjp",33,5
1375500226874781704,"2021-03-26T17:29:44Z","@tradingview Shut up and give me the address to send ze ETH",0,0
1375500224844591107,"2021-03-26T17:29:43Z","Check out this AMA, to understand why I'm so bullish on @useteller from a leading venture capital in Defi @hiFramework.    Join discord: [https://t.co/x4qKNBa1OE] For more info.  Best AMA question will receive 1 Eth in prize. https://t.co/iMZyVUUI21",29,0
1375500221744963585,"2021-03-26T17:29:43Z","RT @SnTimeline: #BTC  support level 50k-51k   Target:- 53k-55k-57k  $ETH  1550 $LTC  170 $TRX  0.054  Just buy and hold",30,0
1375500221380169734,"2021-03-26T17:29:42Z","Welcome to massive Q DAO airdrop!   1. go now to telegram https://t.co/COyXgODY1z   2. Stay in telegram chat and wait announcement.  3. HOLD this gem until 10x   (soon - QDAO launch cross-chain for BSC, Polkadot and ETH)",4254,0
1375500216829313024,"2021-03-26T17:29:41Z","$XHV ready to go $LUNA mode 👀 👉 Join Channel: https://t.co/XgE3YonGtP  $BTC $ETH #NFT $PERL $ENJ $FLOW $THETA #BSC  $REEF $LUNA $SAND $AXS $TVK $HOGE $CHZ $STX $ROSE $TROY $ONE $CERL $IRIS $ANC $ADA $DIA $XRP $DOGE $ATOM $LUNA $ZCX $BNB $WABI $LTO $CVC https://t.co/3sytr1dtj9",4,1
1375500215675985923,"2021-03-26T17:29:41Z","It’s Friday so show me something 🔥🔥 Drop your #nfts and check out everyone else’s art!! #NFTCommunity  Like ❤️/ RT 🔁 / Grow  #nft #eth #btc  #ada #nftcollector        🎆🏞🌁🎇🌄🌅🎑🏙🌆🌌🌉🎆🌫🏞",107,1
1375500213377511433,"2021-03-26T17:29:41Z","@Rare_NFTs Walking towards the light  We go through our lives illusioned, thinking our paths are illuminated by light. Sometimes it isn't until the end when we discover our path tread in shadows all along..  @opensea  1/1 Edition Minimum bid 0.01 ETH https://t.co/lTWsocgCVe",5,0
1375500209443201030,"2021-03-26T17:29:40Z","Welcome to massive Q DAO airdrop!   1. go now to telegram https://t.co/COyXgODY1z   2. Stay in telegram chat and wait announcement.  3. HOLD this gem until 10x   (soon - QDAO launch cross-chain for BSC, Polkadot and ETH)",4254,0
1375500200626712581,"2021-03-26T17:29:38Z","I gave my early call yesterday about $ANKR and for today also to all my USA residents. Buy the $ANKR as much as you can, you will be on the top, if not then repent🔥🔥🔥🚀🚀🚀🚀 $BTC #BTC $ETH $LINK $XRP $XLM you guyz also explore",10,0
1375500179839676418,"2021-03-26T17:29:33Z","Ethereum: Top 5 Massive ETH Updates For April 🚀 https://t.co/6AytoOtuHj https://t.co/zIOZUvoZv6",0,0
1375500177222565888,"2021-03-26T17:29:32Z","RT @cryptunez: the slower $ETH pumps, the longer the bull market lasts.",1521,0
1375500170209726471,"2021-03-26T17:29:30Z","GIVEAWAY TIME! in one week I will choose one winner to get one copy of The Bleeding Heart is Disconnected To ENTER  LIKE-FOLLOW-RETWEET-COMMENT ETH ADDY! Good luck! MUST DO ALL TO BE ENTERED.  Art Below  #nft #nfts #nftart #nftcommunity #nfthype #nftcollector #nftcollectors https://t.co/rgJEeiuZHV",184,0
1375500168351657990,"2021-03-26T17:29:30Z","#YIELDapp I would like to swap YLD opposite to ETH or USDT and put on dashboard XYcharts with account balance etc. https://t.co/7bac4yuFGz",0,0
1375500163725283329,"2021-03-26T17:29:29Z","30 day EVIX: 87.5132 ETH/USD vwap: $1,662.04 04/16 expiry volume: $1,798,208.87 04/30 expiry volume: $5,043,768.61 Current time: 17:29:06",0,0
1375500158016741377,"2021-03-26T17:29:27Z","Would you let Rudolph the Camel join in your reindeer games? 🥺  Let him guide your sleigh tonight 🎄  Camel #80 | Rudolph  Minted via @opensea on the #ETH blockchain  Link: https://t.co/8q2YH5MgGX  #NFTs #Cryptoart #NFTcollectibles #NFTartists https://t.co/Y7HygdDFVp",0,1
1375500157463183362,"2021-03-26T17:29:27Z","I have obtained all publicly available information that I can on Hinman. He made $15 million from his firm WHILE AT THE SEC.   While Hinman was at the SEC and after he gave his #BTC &amp; #ETH speech, his firm represented Canaan in its IPO. Cannan is the 2d largest Chinese Manuf. of https://t.co/ojXXCLIwqI",2297,1
1375500157085749250,"2021-03-26T17:29:27Z","$JEDI Can you do a shout out to Jedi Token?? We’re 50 holders away from being able to list #coingecko and #Coinmarketcap $swan $link $eth $btc $pipi $tosa $pika $grug $hoge $doge @CryptoSlimer @lynseaOfCrypto @1goonrich",6,1
1375500156162998275,"2021-03-26T17:29:27Z","@nftsaid Walking towards the light  We go through our lives illusioned, thinking our paths are illuminated by light. Sometimes it isn't until the end when we discover our path tread in shadows all along..  @opensea  1/1 Edition Minimum bid 0.01 ETH https://t.co/rOcitkhhqi",5,2
1375500154506244096,"2021-03-26T17:29:27Z","We are pleased to inform you that RSD token information was updated on Etherscan!😁 Remember: you can buy $RSD in https://t.co/qrIpLjHKpf or by sending ETH/BNB directly to the address: 0x61ed1c66239d29cc93c8597c6167159e8f69a823",9,3
1375500153977597954,"2021-03-26T17:29:26Z","Thank you to @firstmintfund and @NarraGallery who gave Sevi and other #Filipino &amp; Southeast Asian artists the means to start out in this space. Those wish to support can still donate to firstmintfund.eth and artists can still apply at https//firstmintfund.com.",6,2
1375500147833012225,"2021-03-26T17:29:25Z","Welcome to massive Q DAO airdrop!   1. go now to telegram https://t.co/COyXgODY1z   2. Stay in telegram chat and wait announcement.  3. HOLD this gem until 10x   (soon - QDAO launch cross-chain for BSC, Polkadot and ETH)",4254,2
1375500139196936201,"2021-03-26T17:29:23Z","Get ready for #DEVE's mining &amp; Stacking rewards.  We will announce the next big exchange in april 2021.  #Bitcoin #ETH #Mining #stacking #totalsupply70000 #divertfinance #deve https://t.co/wuOs12LpkW",587,2
1375500137359900681,"2021-03-26T17:29:22Z","Sandro Tonali bought for 0.68 ETH (1133.46$) on the secondary market   Season: 2020-2021 Level: 0 Serial: 4/100 Price: 1133.46$  ⚽ Sorare: https://t.co/CihRpKTwNi  📊: https://t.co/9L0vCxHxrz  #Sorare #NFT #Ethereum #FantasyFootball",0,0
1375500131798196228,"2021-03-26T17:29:21Z","@QavyArt What are you most excited about on the roadmap of 2021?  My coffee discussion is for @VulcanForged, one of the largest Web3 game studios, Launchpads, and top-5 volume NFT marketplace is integrating with @maticnetwork! Now, token sale starting from 29 march!! #Blockchain $ETH #NFT",1,0
1375500131403919362,"2021-03-26T17:29:21Z","#DeFi #BKC #eth2 #BucksCake  ANNOUNCEMENT!  Dear BucksCake's community members!  The exact date of BKC listing on Uniswap set for 04/20/2021!  2 days before it, the exact opening time of the trading pair BKC/ETH on Uniswap...  More at https://t.co/RQPMhjazG2 https://t.co/VjtBbXBA1t",2855,0
1375500128677556227,"2021-03-26T17:29:20Z","I cant believe many people are sleeping on $ALGO. I believe on this project than other project i guess. This org. is already proving something yet people are still overlook this org. $ada $xrp $eth $btc $ltc $theta $tfuel $one $hot $tvk https://t.co/0XMD030549",3,0
1375500127771758592,"2021-03-26T17:29:20Z","@cz_binance @binance 🌶 #tacoswap is about to go viral March 26th 2021! The best DEX with the best REWARD  Deposit ETH &amp; CRD and earn TACO !  TACO 0.01cts ✅ TACO 0.10cts ✅ &gt; GO TO 10$ !!!  Go &gt; #UNISWAP Pair : TACO-ETH Token : #tacoToken  (#TACO) Contract: 0x41c028a4c1f461ebfc3af91619b240004ebad216",0,0
1375500123992690692,"2021-03-26T17:29:19Z","Get $KICK and join our army. $VET $BTC $ETH $DOGE $XRP $TRX $IOST $XLM $LINK $LTC $TEL $BNB $ADA $UNI $REN $DOT $SUSHI $NFT $ENJ $LUNA $DENT $ATOM $MATIC $NEO $DASH $KCS $ANKR $SNX $RVN $THETA #ALTSEASON #ALTCOIN https://t.co/pF6fwX22gf",19,0
1375500120733589507,"2021-03-26T17:29:18Z","The DEX @FinanceChainge is set to launch on the @FUSIONProtocol network with over a million users on the protocols waitlist. This decentralized exchange aims to innovate on traditional models through leveraging the Fusion Network.  #BSC #BTC #ETH #BNB  https://t.co/xx55YiGfm3",21660,0
1375500116858187777,"2021-03-26T17:29:18Z","Welcome to massive Q DAO airdrop!   1. go now to telegram https://t.co/COyXgODY1z   2. Stay in telegram chat and wait announcement.  3. HOLD this gem until 10x   (soon - QDAO launch cross-chain for BSC, Polkadot and ETH)",4254,0
1375500115176259588,"2021-03-26T17:29:17Z","Yutaka Yoshida bought for 0.182 ETH (303.37$) by Lambda on the primary market   Season: 2020-2021 Level: 0 Serial: 50/100 Price: 303.37$  ⚽ Sorare: https://t.co/BqH8cCNpod  📊: https://t.co/JJGOr1fCF4  #Sorare #NFT #Ethereum #FantasyFootball",0,0
1375500109102731264,"2021-03-26T17:29:16Z","Follow and share us with your friend(s) that love brain games! Head over to https://t.co/xqRQVNZ3Q3 to get yourself wrapped in the enigma. The game that pays to be clever!  #NFT #btc #eth #crypto #opensea #rarible #nftcollector #NFTCommuty #nftcollectors #nftgame #ripfortnite https://t.co/eKiXzLOKB8",3,0
1375500088525553670,"2021-03-26T17:29:11Z","@BitScores Thank you so much for this opportunity, you guys have touched a lot of lives with your contribution to the crypto community. Good luck to everyone. And still healthy.  my ETH address: 0x84b883C22aeDD5b5C029ba4A279069F41293e2f6",0,0
1375500059098427394,"2021-03-26T17:29:04Z","EVERYONE:  I WILL NEVER ASK ANYONE TO SEND ME  ANYTHING INCLUDING #BITCOIN #XRP #ETH OR ANY CRYPTO OR MONEY   ITS A SCAM.  THE SAME APPLIES TO @CryptoLawUS https://t.co/omOYWxmICg",342,0
1375500056069959681,"2021-03-26T17:29:03Z","@sebschepis @CryptoMessiah Son instead of buying ETH we should invest in what?",0,0
1375500055130599431,"2021-03-26T17:29:03Z","Oyez, Oyez, Oyez!  🚀UniSwamp🚀 SOLD for 22.0 ETH on OpenSea! FROM: 0xf8c862e1be3a100ebb1a7723df3304366b4b28ba TO: 0xf75d2ee29d722df5f7632deb56edd31a8b02439a Check out the transaction: https://t.co/KzPhTfIko9 #NFT #NFTartist #cryptoart https://t.co/bLlnoiSGcR",1,0
1375500050835468289,"2021-03-26T17:29:02Z","RT @ArtThreadkill: Spending 1 ETH on #NFTs today.  What are the can't miss pieces? #nftcollectors Shill me your art!",558,0
1375500043940204545,"2021-03-26T17:29:00Z","RT @QuintenFrancois: My top 10 #crypto holdings:  1. $BTC 2. $LINK 3. $ETH 4. $VET 5. $ERN 6. $BNB 7. $BNT 8. $MATIC 9. $POLK 10. $ENJ   Wh…",2518,0
1375500043126366208,"2021-03-26T17:29:00Z","EVERYONE:  I WILL NEVER ASK ANYONE TO SEND ME  ANYTHING INCLUDING #BITCOIN #XRP #ETH OR ANY CRYPTO OR MONEY   ITS A SCAM.  THE SAME APPLIES TO @CryptoLawUS https://t.co/omOYWxmICg",342,0
1375500039951245312,"2021-03-26T17:28:59Z","RT @hns_domain: gonna make handshake.eth 😌 https://t.co/hhsVgHbIBv",10,0
1375500024520585218,"2021-03-26T17:28:56Z","It’s Friday so show me something 🔥🔥 Drop your #nfts and check out everyone else’s art!! #NFTCommunity  Like ❤️/ RT 🔁 / Grow  #nft #eth #btc  #ada #nftcollector        🎆🏞🌁🎇🌄🌅🎑🏙🌆🌌🌉🎆🌫🏞",107,0
1375500023719333888,"2021-03-26T17:28:55Z","New Airdrop: Diamond Crystal (DCT) Reward: 100 DCT ($100) Rate: ⭐️⭐️⭐️⭐️ Focus: Distribution starts after airdrop ends   Bot Airdrop Link: https://t.co/9Qzk47HUKt  #Airdrop #giveaway #BTC #ETH",4033,0
1375500022737960968,"2021-03-26T17:28:55Z","Cyborg Cats   Made this Illustration of rescued cats Trixie and Dawn a few years ago. It's now up for sale on @withFND as an NFT, starting at 0.2 ETH.   50% of the net proceeds would go to @worldforall, an NGO for the welfare of stray animals in Mumbai.  🔗https://t.co/YRM4UoNkUb https://t.co/3x9qhy4OvB",159,0
1375500020804378624,"2021-03-26T17:28:55Z","😱 The legendary @TheBakaArts just came in with a 2 ETH bid on 'Sweet Dreams' 🌸  🔥 24 hour auction has started! 🔥 https://t.co/8F64IBaSeT  #nft #cryptoart #NFTCommunity https://t.co/lwp9Xu0qW9",210,0
1375500016895156236,"2021-03-26T17:28:54Z","RT @CashNCrypto: $150 to one person in 48hrs  Rt &amp; follow me + @domscrypto &amp; @boar_eth",2067,0
1375500016828219395,"2021-03-26T17:28:54Z","gonna make handshake.eth 😌 https://t.co/hhsVgHbIBv",10,1
1375500011660746753,"2021-03-26T17:28:52Z","No need to spend your own money to trade #cryptocurrency. Over 10K users won crypto rewards on @latokens last week. It's the best way to join the financial revolution. Start by earning a share of $100K in CLIQ airdrop: https://t.co/MAMwerSDSK #Bitcoin #ETH #Citi #AON #LATOKEN",0,0
1375500007965659137,"2021-03-26T17:28:52Z","Gotta love these guys dumping ETH to death ~  Time to INVOOST https://t.co/kMK0JEcHJl",0,0
1375499995860803586,"2021-03-26T17:28:49Z","Pair Created! Pairs → ETH-SVX  $ETH = 24.588 SVX ($1,665)  $SVX = 0.041 ETH ($67.70)  Total Liquidity $1,052,826  https://t.co/UvrMwABTTT",0,0
1375499995785228290,"2021-03-26T17:28:49Z","@poplink16 very good project #POPO #ETH #BTC  @Namitshsrma56  @farij_md  @devdn12",0,0
1375499988474736642,"2021-03-26T17:28:47Z","RT @DeFiFUDDestroy: @WanLend @wanswap 👀🐝 $WASP $WAN $USDT $BTC $ETH $USDC $FNX https://t.co/6z3z4bz1Gs https://t.co/iWPlCBOwIl",9,0
1375499976625713152,"2021-03-26T17:28:44Z","We already have more than 800 follomwers! To celebrate this I will launch another #Giveaway #NFT   I will give away 1 #CryptoCheems, the winner will receive a CryptoCheems that costs 0.1 ETH.  Terms:  1. Follow us 2. Retweet  Ends will take place on March 27 at 20:00 EST",69,0
1375499972129517568,"2021-03-26T17:28:43Z","Have fun staying poor  $ETH $AVAX $WAN $LINK $UNI https://t.co/N0S8KY7pxo",0,0
1375499968975409152,"2021-03-26T17:28:42Z","RT @Mathieu62725667: @LadyCryptoo I think #tacotoken 🌶 is a very good one . Check it out on https://t.co/f0qMjzM8Gy #tacoswap #ETH",2,0
1375499965158543368,"2021-03-26T17:28:41Z","The DEX @FinanceChainge is set to launch on the @FUSIONProtocol network with over a million users on the protocols waitlist. This decentralized exchange aims to innovate on traditional models through leveraging the Fusion Network.  #BSC #BTC #ETH #BNB  https://t.co/xx55YiGfm3",21660,0
1375499957382176768,"2021-03-26T17:28:40Z","We already have more than 800 follomwers! To celebrate this I will launch another #Giveaway #NFT   I will give away 1 #CryptoCheems, the winner will receive a CryptoCheems that costs 0.1 ETH.  Terms:  1. Follow us 2. Retweet  Ends will take place on March 27 at 20:00 EST",69,0
1375499950457565187,"2021-03-26T17:28:38Z","Need help? They are always here to help you!  @zapper_fi @zerion_io @DeBankDeFi @farmfolio_ @DefiBoxHQ  #Crypto #DEX #ETH #blockchain #BTCUSD #DeFi https://t.co/3XjByiFCB8",45,0
1375499938747060230,"2021-03-26T17:28:35Z","Very saddened to hear of the recent passing of @ArtanBorici, PhD graduate and former postdoc @ETH_en ~two decades ago, the creator of famous Borici-Creutz fermions, an incredible scientist and supporter of students. He will be dearly missed by our scientific community. https://t.co/h1Ke9gogYh",7,2
1375499925815881734,"2021-03-26T17:28:32Z","@OmerOzdemir10 The ability to purchase ETH is simply an integration with MetaMask. We do not deal with the actual conversion of fiat to ETH in any way. Please contact Transak for further assistance.",0,0
1375499904357830656,"2021-03-26T17:28:27Z","Welcome to massive Q DAO airdrop!   1. go now to telegram https://t.co/COyXgODY1z   2. Stay in telegram chat and wait announcement.  3. HOLD this gem until 10x   (soon - QDAO launch cross-chain for BSC, Polkadot and ETH)",4254,0
1375499898729078791,"2021-03-26T17:28:26Z","Follow @ericnode to get the latest information about https://t.co/CrLRhIHiEQ, https://t.co/Drcrp5pVyt  $BTC $ETH $ADA $BNB $DOT $XRP $LTC $LINK $BCH $XLM $UNI $XEM $DOGE $WBTC $AAVE $ATOM $XMR $THETA $CRO $SOL $TRX $MIOTA $LUNA $FFT $XTZ $VET $HT $NEO $SNX $DAI $ALGO $GRT $EGLD https://t.co/V41fDMlbAL",1,0
1375499894316695552,"2021-03-26T17:28:25Z","I have obtained all publicly available information that I can on Hinman. He made $15 million from his firm WHILE AT THE SEC.   While Hinman was at the SEC and after he gave his #BTC &amp; #ETH speech, his firm represented Canaan in its IPO. Cannan is the 2d largest Chinese Manuf. of https://t.co/ojXXCLIwqI",2297,0
1375499883117875205,"2021-03-26T17:28:22Z","Welcome to massive Q DAO airdrop!   1. go now to telegram https://t.co/COyXgODY1z   2. Stay in telegram chat and wait announcement.  3. HOLD this gem until 10x   (soon - QDAO launch cross-chain for BSC, Polkadot and ETH)",4254,0
1375499864583233538,"2021-03-26T17:28:17Z","Welcome to massive Q DAO airdrop!   1. go now to telegram https://t.co/COyXgODY1z   2. Stay in telegram chat and wait announcement.  3. HOLD this gem until 10x   (soon - QDAO launch cross-chain for BSC, Polkadot and ETH)",4254,0
1375499859982082050,"2021-03-26T17:28:16Z","🚀 Safe The Children  🔷 Token Symbol : STC  🔷 Contract: https://t.co/nk3qsF2PJV  🔷 Website: https://t.co/4y0g7dqswM  🔷 Whitepaper: https://t.co/PHPZI4dbyR  🔷 Presentation Video : https://t.co/Mycfov12IU  #Safe_Childrens #Bitcoin  #Binance #BinanceSmartChain #DEFI  #BTC #ETH",14722,0
1375499856400236546,"2021-03-26T17:28:15Z","RT @Benedic63268546: my first drop #NFT on @withFND! 🌐 #digitalart #cryptoart #NFTartist  price 0.419 ETH https://t.co/i6SZlcEQic https://t…",194,0
1375499856370925574,"2021-03-26T17:28:15Z","It’s Friday so show me something 🔥🔥 Drop your #nfts and check out everyone else’s art!! #NFTCommunity  Like ❤️/ RT 🔁 / Grow  #nft #eth #btc  #ada #nftcollector        🎆🏞🌁🎇🌄🌅🎑🏙🌆🌌🌉🎆🌫🏞",107,0
1375499855817273350,"2021-03-26T17:28:15Z","RT @ArtThreadkill: Spending 1 ETH on #NFTs today.  What are the can't miss pieces? #nftcollectors Shill me your art!",558,0
1375499835407691777,"2021-03-26T17:28:10Z","💧YetuBit Airdrop 2nd Round💧  🏆 Task:          ➕  25 YETU (~$20)  👨‍👩‍👧 Referral:   ➕  5 YETU (~$4)  🔛  Airdrop Link &amp; Information: https://t.co/ZoGw3AR71I  #cryptocurrency #Crypto #Bitcoin  #BSC #BinanceSmartChain #Ethereum #ETH #Airdrop #bounty #YetuBit #YetuSwap #YETU",4530,0
1375499834556211202,"2021-03-26T17:28:10Z","@NftShilling Fourth NFT on Foundation!  https://t.co/J7oEnmyddn   #cryptoart #cryptoartist #nftart #nftartist #NFT #crypto #eth #etherium #fomo #NFTCommunity #nftart #nftcollector #foundation #opensea #crypto #cryptocommunity #nftcollectors #3D #c4d #cinema4d #flow",4,0
1375499834212245504,"2021-03-26T17:28:10Z","The DEX @FinanceChainge is set to launch on the @FUSIONProtocol network with over a million users on the protocols waitlist. This decentralized exchange aims to innovate on traditional models through leveraging the Fusion Network.  #BSC #BTC #ETH #BNB  https://t.co/xx55YiGfm3",21660,0
1375499830437482496,"2021-03-26T17:28:09Z","@boxmining $mcrn 307% profit in just 7 days listing MacaronSwap ◽️$MCRN ◽️Supply: 1,000,000  ✅ Website: https://t.co/JDYrsd1YjD  ✅ https://t.co/nL9hkt3McE…  ⚫️ Social Links: ◾️TG Group: https://t.co/nzaXzDxe0u ◾️Twitter: https://t.co/8NXWN8ltj4 $btc $eth $ltc $bnb #bsc    $mcrn",16,0
1375499825928495106,"2021-03-26T17:28:08Z","🎉Earn $12 $BRG🚀  💸💸Legit Airdrop💰💰  Join: https://t.co/XFCmFJdWQ9   Complete All Steps Done. At final step, it'll ask to buy tokens. Don't buy, Just click bought/done  #Bitcoin #BTC #Doge #TRX #ETH _____  @rocketbotpro airdrop 0.5 merge 50  #CTBot Adrop Avg 100 TATM 90",45,0
1375499822258511873,"2021-03-26T17:28:07Z","RT @ANadamel: @SpiderMonkeyNFT with 0.15 ETH bid on THE OCEAN at @withFND   2 hours left to bid with @SpiderMonkeyNFT   https://t.co/2ErW…",2,0
1375499800087564296,"2021-03-26T17:28:02Z","And it's LIVE! $POODL now available for trading on WhiteBit! Here's what Tyrone has to say about it ;) #HOODLTHEPOODL   #SAFEMOON #HOGE $HOGE #crypto #cryptocurrencies #btc #eth #usdt #NFT https://t.co/Q3gLrA5hTz",334,0
1375499796895703040,"2021-03-26T17:28:01Z","@cryptomanran I bet you have 10x more ETH than ADA. If you really would believe it you would sell 80% of your ETH to ADA, but I bet you would never do it.",3,0
1375499795167653895,"2021-03-26T17:28:01Z","RT @banjo_bonjo: No jump yet but surely seconds/hours away for $MATIC, $eth, $grt and $link but which one first?",4,0
1375499781175353345,"2021-03-26T17:27:58Z","No need to spend your own money to trade #cryptocurrency. Over 10K users won crypto rewards on @latokens last week. It's the best way to join the financial revolution. Start by earning a share of $100K in CLIQ airdrop: https://t.co/sKjkBJ4CYb #Bitcoin #ETH #Citi #AON #LATOKEN",0,0
1375499775232122883,"2021-03-26T17:27:56Z","This is #PixelPenguins #54 straight outta Penguin prison  Drop your ETH address' below 👀😉  #NFT #NFTs #nftcollector #nftcollectors #NFTCommunity #NFTartists #NFTcollectibles #nftart #nftartist #nftdrop #pixelart   https://t.co/8Ukz8pIr2Y",65,0
1375499771478163459,"2021-03-26T17:27:55Z","RT @mady_yonas: I still don’t see why an Eth PL team needs a foreign coach and goal keeper.   Total waste of money",10,0
1375499757221777413,"2021-03-26T17:27:52Z","@nicksdjohnson @iamDCinvestor AFAIK you're agreeing with my original response to DC, as far as I can tell we both disagree with DC? I said in my original response that opportunity cost matters, meaning that the price of ETH matters when sending a transaction. I don't follow DCs logic that it may be cheaper.",0,0
1375499756022030340,"2021-03-26T17:27:52Z","@1goonrich $JEDI Can you do a shout out to Jedi Token?? We’re 50 holders away from being able to list in. We’re now community driven and you can become a big part of something big. Thank you.  #coingecko and #Coinmarketcap $swan $link $eth $btc $pipi $tosa $pika $grug $hoge $doge",3,0
1375499754331721734,"2021-03-26T17:27:51Z","🏆 Follow us &amp; Retweet this tweet, Specify the ETH address in the tweet comment to get 10 #BIT ($10 worth) or 50 #BIT ($50 worth) #BitScores Airdrop Tokens! 🎁 $250,000 Prize Pool Full rules: https://t.co/N53M5nRXr9  #giveaway #airdrops #bounty #giveaways #defi #eth #btc #airdrop https://t.co/m77hDtRsBv",3577,0
1375499751739785216,"2021-03-26T17:27:51Z","RT @TBeastmv: eth gone, now selling 1871 RMB for Zelle, hmu https://t.co/cVgMydOGZr",2,0
1375499746689748995,"2021-03-26T17:27:49Z","️Ⓜ️ #IMe #Messager #Airdrop  like TelegramⓂ️   💰#Wallet Create Get 30AIC 👨‍👦‍👦Refer Get 10AIC  ✅🌐 👉 https://t.co/b8UZRKhUTB  1. Retweet + Like #CTBot Adrop Ram 2 TRX 90 #btc  #eth #bsc  #Free #Crypto #DeFi #nft #socialmedia #news #altcoins https://t.co/KxL75fsdeR",58,0
1375499736166240259,"2021-03-26T17:27:47Z","$KICK is on the move.   $KICKEX $VET $BTC $ETH $DOGE $XRP $TRX $IOST $XLM $LINK $LTC $TEL $BNB $ADA $UNI $REN $DOT $SUSHI $NFT $ENJ $LUNA $DENT $ATOM $MATIC $NEO $DASH $KCS $ANKR $SNX $RVN $THETA #ALTSEASON #ALTCOIN https://t.co/ZBzUBfMRyw",7,3
1375499722870247427,"2021-03-26T17:27:44Z","RT @palmbeachhair: ”I have around 4k $matic I  will use for the swap.”   $RVP $ETH $LINK https://t.co/vrfZynK1Rp",14,3
