"ID","created_at","text","like_count","rt_count"
1377448110062981122,"2021-04-01T02:29:55Z","#ETH  almost 2k will be see soon 2500$ 🙉🙈",0,0
1377448109886873603,"2021-04-01T02:29:55Z","Check out the new SuperWorld clip w/ guest  @krista_kim  🌐https://t.co/kkBWWQ0UxY  🌎♥️ #superworld​ #superworldapp​ #virtualworld​ #blockchain #ethereum​ #ETH #NFTs​ #NFT​ #augmentedreality​ #AR​ #bitcoin​ #crypto #trending https://t.co/9vHLhWcp2M",6,2
1377448099887611906,"2021-04-01T02:29:53Z","No one is considering that sideways for months and still hitting $10k in 2021 is a completely reasonable trajectory for $ETH.",3,0
1377448093549989889,"2021-04-01T02:29:51Z","This will help out all your #Neblio #developers out there.  Anyone interested in #blockchain needs to come #dev on the easiest #platform to #develop on.  Especially useful if you have a #manufacturing #enterprise  #ethereum #btc #eth #ltc #crypto #cryptonews #business https://t.co/3vhOeBetDL",8,4
1377448091326967812,"2021-04-01T02:29:51Z","Crypto Market Commentary (4/1)  1) #Bitcoin &amp; #ETH are slightly up, but look unchanged after yesterday’s flash crash in the afternoon; now trading $59150 &amp; $1930. Movers are $BAND $CND +18%, $BRD +14%, $PNT +13%, $OMG +12%, $AKRO +11%, $HOT -13% in Pokket listed tokens.",3,1
1377448090580385797,"2021-04-01T02:29:51Z","We love @superbid_io don't you! To prove it we're sharing 1/2 of the 10 ETH prize with ONE lucky person if we win!   ENTER: https://t.co/BvihIDYyyo  #Superbid is the first social-action app built on #ETH. ~ https://t.co/JrS8Kt08KI  #airdrop #contest #ethairdrop #giveaway #uniswap https://t.co/ocJmUFbBdp",503,1314
1377448071345364993,"2021-04-01T02:29:46Z","This will help out all your #Neblio #developers out there.  Anyone interested in #blockchain needs to come #dev on the easiest #platform to #develop on.  Especially useful if you have a #manufacturing #enterprise  #ethereum #btc #eth #ltc #crypto #cryptonews #business https://t.co/3vhOeBetDL",8,4
1377448070724472841,"2021-04-01T02:29:46Z","@marc_tudisco Hi! This is BBB Batman Bitcoin Blues #NFTs  Only 0.8 $ETH  Help an starving artist!!! Thank you 🙏🏽  https://t.co/Xe0fLQnTZ2",1,0
1377448068812046336,"2021-04-01T02:29:46Z","RT @value_defi: What projects do you think we should work with for our #vFarms &amp; #vSafes? 👀  Mention them in reply! ⚡  #DeFi #YieldFarming…",101,20
1377448058527510531,"2021-04-01T02:29:43Z","@buzzcoins_ Awesome project. Done All These Task My ETH: 0xa1E5B0644e6F8A24214118E819f5cFd101154c98",0,0
1377448027149889541,"2021-04-01T02:29:36Z","Picture a day, if you can when the following cryptos are worth this much...  $BTC 1,000,000,000,000,000 $ETH 7,423,582,832.98 $BNB 2,847,993,321.37 $DOT 508,893,335.85 $ADA 17,378,090.44 #SAFEMOON 0.9283746 $POODL 0.19876343 $XRP 0  That day will never come, but look at XRP, lol.",7,2
1377448005092188163,"2021-04-01T02:29:30Z","Check out the new SuperWorld clip w/ guest  @krista_kim  🌐https://t.co/kkBWWQ0UxY  🌎♥️ #superworld​ #superworldapp​ #virtualworld​ #blockchain #ethereum​ #ETH #NFTs​ #NFT​ #augmentedreality​ #AR​ #bitcoin​ #crypto #trending https://t.co/9vHLhWcp2M",6,2
1377448004202991616,"2021-04-01T02:29:30Z","30 day EVIX: 94.0796 ETH/USD vwap: $1,929.09 04/30 expiry volume: $7,226,279.01 05/28 expiry volume: $6,577,028.98 Current time: 02:29:07",0,0
1377448000667185152,"2021-04-01T02:29:29Z","BE #FIRST ON #AUDIUS!  https://t.co/on9YVBiWux  $AUDIO $ETH $BTC $UOS $COOK $KONO $SUPER $SHOPX $PMON  #cryptodump #DUMP #badday #Ethereum #BTC #cryptocurrency  #blockchain #investing #finance #CRYPTO #music #Audius #artist https://t.co/Igdzjvri1d",2,1
1377447991045451781,"2021-04-01T02:29:27Z","🥳 $PMON tokens are now trading on @Uniswap!  Token Page: https://t.co/oYxxjSaPlD  $PMON / $ETH Pair: https://t.co/th8seVd4mE https://t.co/Hs7i1fiAm7",956,227
1377447984665858050,"2021-04-01T02:29:25Z","@riniifish @danesoto @drew_y_art @chilltulpa @withFND I hope you take this the best way possible:  0.2 ETH is HEAVILY underpriced. Easily could have a 0.7ETH reserve price",3,0
1377447942274097157,"2021-04-01T02:29:15Z","Me saying ETH is not dead or won't be killed does NOT mean that ADA BSC DOT won't succeed.   They will all play together nicely over time, with things requiring more security on ETH, and those requiring higher throughput on other chains.   This is the way.",912,46
1377447942215335936,"2021-04-01T02:29:15Z","What an amazing time to be alive and be an artist! #nft #NFTs #nftcollector #nftart #nftcollectors #NFTCommunity #NFTcollectibles #NFTcollectible #ETH #nftart #artcollector #artcollectors #NFTartists #investing #Collectibles #art #abstractartist #BriceDuncanart #ArtAcesFacebook",7,1
1377447939929468928,"2021-04-01T02:29:15Z","They destroy those coins and $ETH face rips! Artwork valuations go with that, too. Know why collectors are gobbling works up?...Start the tweet over. 🚀💥🦃🙌🏻🦅 ♠️💪🏻👀❤️🙏🏻",6,1
1377447933172359171,"2021-04-01T02:29:13Z","If you want send someone USDT ask him/her for TRC20 USDT address  If you want send someone BTC ask him/her for TRC20 BTC address  If you want send someone ETH ask him/her for TRC20 ETH address  By doing this you are not only saving gas fee also you are supporting tronnetwork.",111,27
1377447907809443841,"2021-04-01T02:29:07Z","HAWT. With my partnership with @illuviumio I can give away 100 HOLOGRAPHIC Scoot Scarabok NFTs.  Similar ones have gone for 5 eth to 50 eth.  How to get -Post your ETH address + BATTLE SCOOT! below -Retweet/tag a friend -Follow @illuviumio and join their discord in bio https://t.co/xcCVVW6KdR",2755,2661
1377447884530937857,"2021-04-01T02:29:02Z","Get some $OLy I got tipped good info!! 🕊 $woof $wenr $peech $Sqrt #panther #spacedoge $tosa $pika $grumpy $feg $kanye $poodl $bfrm $hoge $doge $eth #grumpee",9,4
1377447880529604610,"2021-04-01T02:29:01Z","The world’s first global #eSIM mobile data reseller platform is here 🌋 https://t.co/C6iBswXsEi With the #DENT #Gigastore 🏪 ANY 3rd party can resell mobile data everywhere! 📱Connectivity as a Service 🔥 #dentcoin #ethereum #esim #mobile #data #roaming #connectivity #btc #eth https://t.co/bb4KKvRVYs",1980,704
1377447878180884480,"2021-04-01T02:29:00Z","@ProtoTheDweeb @theblackbon1 @AgedContext @PoorlyAgedStuff Not all NFTs take significant energy to mint, only if they're built on the only major POW general use algorithm, ETH. An EOS NFT takes less energy to mint than the energy they used actually making the art",0,0
1377447870681374726,"2021-04-01T02:28:58Z","@KimKardashian  With our juicy $PEECH we're going to feed the hungry through monthly donations!!  We need some more V.I.PEECH along the way!!  $doge $hoge $btc $eth $poodl",8,2
1377447857070964736,"2021-04-01T02:28:55Z","Stanislav Iljutcenko bought for 0.561 ETH (1086.66$) by D4NS4N on the primary market   Season: 2021-2022 Level: 0 Serial: 2/100 Price: 1086.66$  ⚽ Sorare: https://t.co/3Wf3PJDv5c  📊: https://t.co/h6r7cK53wM  #Sorare #NFT #Ethereum #FantasyFootball",0,0
1377447839744200711,"2021-04-01T02:28:51Z","RT @intocryptoverse: Why does $ETH never do anything? Linear scale for exaggeration. https://t.co/LVkcC0FZ07",307,20
1377447839320580096,"2021-04-01T02:28:51Z","💧Fly Amanita Airdrop 💧  🏆 Task:          ➕ $5 worth of FLY  👨‍👩‍👧 Referral:   ➕ $0.5 worth of FLY  🔛Airdrop Link &amp; Information: https://t.co/Teh5tZDNPE  #cryptocurrency #Crypto #Bitcoin #Ethereum #ETH #Airdrop #bounty #FlyAmanita #FLY",1470,1810
1377447828646023173,"2021-04-01T02:28:48Z","💧Fly Amanita Airdrop 💧  🏆 Task:          ➕ $5 worth of FLY  👨‍👩‍👧 Referral:   ➕ $0.5 worth of FLY  🔛Airdrop Link &amp; Information: https://t.co/Teh5tZDNPE  #cryptocurrency #Crypto #Bitcoin #Ethereum #ETH #Airdrop #bounty #FlyAmanita #FLY",1470,1810
1377447827748446209,"2021-04-01T02:28:48Z","When $ONE hits $30 that is when people will take notice Lowest gas fee ever. But you continue to scream high gas fee on $ETH, am i mad to think like this ? https://t.co/QsMjJezRgw",46,12
1377447809935282176,"2021-04-01T02:28:44Z","RT @TeddyCleps: the $ETH blockchain is officially broken",1148,79
1377447801303498754,"2021-04-01T02:28:42Z","#TLDR My NFT holdings estimated value    $eth: 632$               $wax: 2.2k$ https://t.co/dlhJWKKFn9",0,0
1377447798182879232,"2021-04-01T02:28:41Z","Bitcoin to Be Worth Millions by 2023 https://t.co/RfuFYF6rUo",0,0
1377447786048679938,"2021-04-01T02:28:38Z","I just dropped Nosocomephobia (1/1) on @opensea  Spending days, months, precious time in a hospital leaves a mark. I set the auction reserve (.15 ETH) #opensea #nftcollector #NFTartist #NFTdrop #NFThypesquad #NFT #NFTCommunity  https://t.co/ARXFvCHzWZ",87,29
1377447785327304705,"2021-04-01T02:28:38Z","RT @intocryptoverse: $BTC $ETH $LINK $ADA and $DOT are too risky NOT to hold.",3237,336
1377447761478623232,"2021-04-01T02:28:32Z","We all know that $ETH gas fees are terrible...this is why we are partnering with @0xPolygon! Gala Games is committed to bridging the best EVM-compatible services and creating a decentralized network of player ownership! Join us and lets build better!   https://t.co/n51knlnztX",307,94
1377447753723211784,"2021-04-01T02:28:30Z","Tomorrow @AdidasUS will drop back to 2% crypto cashback, don't miss the opportunity to take advantage of the 15% cashback while you still can!  #crypto #cashback in #STMX #BTC #ETH #DAI #LTC or #YFI https://t.co/Sh6sIOjbIu",103,24
1377447752716615687,"2021-04-01T02:28:30Z","Got 5 Foundation invites to giveaway! 🔥@withFND  Follow me Retweet this Reply with your work down below. I'll announce winners tomorrow at 9 (GMT+2) Bonus points if u are a collector #nft #nftart #nftartist #eth #FoundationInvite  #cryptoart #cryptoartist  #crypto #nftcommunity https://t.co/Ct155VtRNb",86,66
1377447745712164864,"2021-04-01T02:28:28Z","🟢 Swapped $107K in #ETH for #RARI on #1inch 🐉  🐟 ($374K) #0x30876B https://t.co/pXwRtwx2kC",0,0
1377447732265283588,"2021-04-01T02:28:25Z","BNFY is a DeFi NFT staking protocol that makes yield farming more secure and flexible. The protocol allows users to stake their crypto assets inside of unique NFTs @BNFYFinance  #BinanceSmartChain #BSC #BTC #ETH #Ethereum #BNB https://t.co/LDk06PlQTG",44,10
1377447728934969344,"2021-04-01T02:28:24Z","RT @aWebAnalysis: Ethereum ETH Current Price: $1,940.51 1 Hour: 0.39% | 24 Hours: 4.42% | 7 Days: 22.52% #eth #ethereum",1,2
1377447727068409856,"2021-04-01T02:28:24Z","$xrge   https://t.co/FML6qQDOwE  Big marketing push coming in the beginning of April  $xrp $doge $gold $try $feg $bdog $xlm $ltc $eth $btc $pika $poodl $rfiii $link $hoge #safemoon #safemars #BSC $grumpy https://t.co/fZefaaakVt",3,1
1377447708441538561,"2021-04-01T02:28:20Z","@kevpettigrew @zed_run Oh.. okay. They won’t follow ETH or anything.",0,0
1377447656117657601,"2021-04-01T02:28:07Z","💰3,000 #ETH (5,758,314 USD) move from unknown wallet to unknown wallet   Date : 2021-04-01 02:27:03 (GMT 0) Blockchain : #ETHEREUM Symbol : #ETH   Detail: https://t.co/ddeiGDdq6K",0,0
1377447644512059394,"2021-04-01T02:28:04Z","@lockyer83 @CryptooKid @dahongfei @Neo_Blockchain neo essentially has to do a 3.5x just to get back to its original all time high from here, while eth and btc surpassed and other coins. thats embarassing for a coin that said they would be best blockchain 2021",0,0
1377447644151300098,"2021-04-01T02:28:04Z","Swipe Ignition is coming to #SwipeSwap next week on both #BSC AND #ETH chains.   50% off spot for a $4m allocation of our next IWO ⚡️  Purchased in $SXP only  🔥 Full sale goes towards $SXP burn.   Restrictions apply.  Void where prohibited  Details: April 5th Launch:  April 9th https://t.co/DhWKYCTN9v",1393,394
1377447634772746243,"2021-04-01T02:28:02Z","We love @superbid_io don't you! To prove it we're sharing 1/2 of the 10 ETH prize with ONE lucky person if we win!   ENTER: https://t.co/BvihIDYyyo  #Superbid is the first social-action app built on #ETH. ~ https://t.co/JrS8Kt08KI  #airdrop #contest #ethairdrop #giveaway #uniswap https://t.co/ocJmUFbBdp",503,1314
1377447619455152130,"2021-04-01T02:27:58Z","We love @superbid_io don't you! To prove it we're sharing 1/2 of the 10 ETH prize with ONE lucky person if we win!   ENTER: https://t.co/BvihIDYyyo  #Superbid is the first social-action app built on #ETH. ~ https://t.co/JrS8Kt08KI  #airdrop #contest #ethairdrop #giveaway #uniswap https://t.co/ocJmUFbBdp",503,1314
1377447591760236545,"2021-04-01T02:27:52Z","Altcoins like BTT, HOT, TRX are going up like crazy and everyone’s missing out. Those who hated have been proved wrong now, we already on the moon, now we heading for mars!(Not a financial advice) #BTT #TRX #STMX #ALTSEASON #altcoin #Bitcoin  #BNB #WIN #ETH #Binance #BTC",3,4
1377447586018304001,"2021-04-01T02:27:50Z","$stonk 300 $eth (333/1 eth) public sale sold out in 2 hrs today  Private sale on 5/23 also 300 eth (400/1 eth) 2 hrs  Low key stealth AF team is based &amp; doxxed   1 mil max sup.  Catch listing or have giga levels of $cope ready  Not meme token  $wtsla  $waapl  $wgme   Few  #dyor https://t.co/GTKYacjKct https://t.co/3cyvzEEUhK",10,2
1377447571489234953,"2021-04-01T02:27:47Z","Slow 140 | Normal 143 | Fast 170 | Instant 201 👈 current Ethereum gas prices in gwei. DM me a price and I will DM you as soon as gas drops below that price 👍 #Ethereum #GasPrice #ETHGasPrice #ETH",0,0
1377447552585322500,"2021-04-01T02:27:42Z","When people throw parties declaring you dead, it's often time to chad! $ETH  🔹Options flows are currently dominated by Put sellers!   🔹ETH Options OI $2B  and rising up after the march Expiry  🔹ETH Options volume 101K, $200m notional  🔹Highest strike, 25k in Dec21 Expiry",53,6
1377447548680609792,"2021-04-01T02:27:42Z","Wrapped Mooncat #8529 was purchased for 0.878 ETH   #mooncats #mooncatsrescue https://t.co/sU2oeOk0QI",3,0
1377447534805852161,"2021-04-01T02:27:38Z","🟢 Swapped $107K in #ETH for #RARI on #1inch 🐉  🐟 ($481K) #0x30876B https://t.co/2T5vPLZRTT",0,0
1377447526169772034,"2021-04-01T02:27:36Z","So how does VISA settling tokenized USD on ETH in any way help with  1. A globally accessible payment network 2. Censorship resistance 3. A sound monetary policy 4. Saving ANY merchants a single penny on middleman fees",21,4
1377447507672903687,"2021-04-01T02:27:32Z","We have passed the 25k followers!   Thanks guys, I will give one person 1 $ETH ( worth 1800 dollars)!   Only thing you have got to do is RT &amp; LIKE this tweet and make sure you follow me so I can DM you.   On to the 30K !   #giveaway",1492,1279
1377447502669053955,"2021-04-01T02:27:31Z","@YasirAl89784331 @IOHK_Charles My ADA way up over my BTC and ETH LOLOLOL! Where u been?",0,0
1377447496469856256,"2021-04-01T02:27:29Z","🎁🎁  AIRDROP  Starts Soon 🎁🎁   We are giving 10,000 users 10,000   YearnCasino -YRNC-    Join the IEO  and grab it while it's still cheap https://t.co/sigigs6qZE   To Join the Airdrop   ✅ Retweet  ✅ Retweet Pinned Tweet  ✅ Follow us ✅ common wallet address  #Airdrop #eth https://t.co/LE1TgGDmxp",137,942
1377447494800572420,"2021-04-01T02:27:29Z","💧Fly Amanita Airdrop 💧  🏆 Task:          ➕ $5 worth of FLY  👨‍👩‍👧 Referral:   ➕ $0.5 worth of FLY  🔛Airdrop Link &amp; Information: https://t.co/Teh5tZDNPE  #cryptocurrency #Crypto #Bitcoin #Ethereum #ETH #Airdrop #bounty #FlyAmanita #FLY",1470,1810
1377447490954227718,"2021-04-01T02:27:28Z","💧Fly Amanita Airdrop 💧  🏆 Task:          ➕ $5 worth of FLY  👨‍👩‍👧 Referral:   ➕ $0.5 worth of FLY  🔛Airdrop Link &amp; Information: https://t.co/Teh5tZDNPE  #cryptocurrency #Crypto #Bitcoin #Ethereum #ETH #Airdrop #bounty #FlyAmanita #FLY",1470,1810
1377447472327503872,"2021-04-01T02:27:23Z","We all know that $ETH gas fees are terrible...this is why we are partnering with @0xPolygon! Gala Games is committed to bridging the best EVM-compatible services and creating a decentralized network of player ownership! Join us and lets build better!   https://t.co/n51knlnztX",307,94
1377447470645579779,"2021-04-01T02:27:23Z","Eth controls the flow of my portfolio. When that shit move I move 😂",0,0
1377447453314719746,"2021-04-01T02:27:19Z","@SheldonEvans This is who got me for 0.4 ETH (fuck me). There are several versions of this around. Please be careful. A Patreon discount offered via DM is fake as shit, and it still got me after five years of no mistakes. It happens, don’t let it be you. https://t.co/do7QFkUfUc",1,0
1377447450370142211,"2021-04-01T02:27:18Z","@sassal0x Please tell us what ETH's culture is",0,0
1377447414827790338,"2021-04-01T02:27:10Z","Check out Cat’s beautiful piece as well! 🥰  #nft #nfts #nftart #nftartist #nftcollector #NFTCommunity #cryptoart #eth #withfnd https://t.co/gVHROWqEFg",5,0
1377447412378255360,"2021-04-01T02:27:09Z","🟢 Swapped $107K in #ETH for #RARI on #1inch 🐉  🐟 ($481K) #0x30876B https://t.co/frWDUyxgxb",0,0
1377447400730546178,"2021-04-01T02:27:06Z","Think you're a great cryptocurrency trader? You can find more information on Bybit's 7 day trading challenge, with 400k USD prize pool, here:  https://t.co/Sc41e28ZFB  #Bitcoin #Ethereum  $BTC $ETH $RUNE $ADA $HBAR $UNI $KIN $ZRX  @coinkit_ mon 0.2 175 $TRX https://t.co/N5lyheKa3G https://t.co/vNr2b1XFN6",36,144
1377447398977327109,"2021-04-01T02:27:06Z","If you want send someone USDT ask him/her for TRC20 USDT address  If you want send someone BTC ask him/her for TRC20 BTC address  If you want send someone ETH ask him/her for TRC20 ETH address  By doing this you are not only saving gas fee also you are supporting tronnetwork.",111,27
1377447373513785345,"2021-04-01T02:27:00Z","Register NOW &amp; GET $ 2500 Welcome Bonus ! EARN #BITCOIN hourly !  ➡️ https://t.co/Ehw1TntB1Z ⬅️  #btc #doge #dot #xrp #eth #xmr #lagos #mumbai #hanoi https://t.co/zOnGe6LSxO",2,1
1377447361992085506,"2021-04-01T02:26:57Z","sn-news: #ai #bigdata #ch EPFL and ETH Zurich to support data science and artificial intelligence for the common good https://t.co/HkXxSOAcoM",1,6
1377447344577241092,"2021-04-01T02:26:53Z","If you want send someone USDT ask him/her for TRC20 USDT address  If you want send someone BTC ask him/her for TRC20 BTC address  If you want send someone ETH ask him/her for TRC20 ETH address  By doing this you are not only saving gas fee also you are supporting tronnetwork.",111,27
1377447329654050823,"2021-04-01T02:26:49Z","Quality NFTs are leveraged $ETH",35,1
1377447324700446724,"2021-04-01T02:26:48Z","RT @21Titles: 🚨Update 🚨  COLLECTED &amp; SOLD to rudy for 18.15 ETH 💰($33,436)  👏🏾👏🏾 https://t.co/VW3SRs9uj1 https://t.co/DpLXuCAHRP",1,2
1377447305025101828,"2021-04-01T02:26:43Z","@BTC_JackSparrow Damn this looks too good to be true. But I believe it. Wait for summertime. $ETH 4K+ easy and $BTC will keep going up.  #ALTSEASON shit...balls deep!",2,0
1377447302915366912,"2021-04-01T02:26:43Z","HAWT. With my partnership with @illuviumio I can give away 100 HOLOGRAPHIC Scoot Scarabok NFTs.  Similar ones have gone for 5 eth to 50 eth.  How to get -Post your ETH address + BATTLE SCOOT! below -Retweet/tag a friend -Follow @illuviumio and join their discord in bio https://t.co/xcCVVW6KdR",2755,2661
1377447291791892480,"2021-04-01T02:26:40Z","💧Fly Amanita Airdrop 💧  🏆 Task:          ➕ $5 worth of FLY  👨‍👩‍👧 Referral:   ➕ $0.5 worth of FLY  🔛Airdrop Link &amp; Information: https://t.co/Teh5tZDNPE  #cryptocurrency #Crypto #Bitcoin #Ethereum #ETH #Airdrop #bounty #FlyAmanita #FLY",1470,1810
1377447289963249664,"2021-04-01T02:26:40Z","Thinking. 🧠  Have THOR.USD which is interest-bearing, say 20%.   Lock up $100k in THOR.USD, can withdraw $50k in freshly minted THOR.USD, but is swapped to ETH.USDT on way out.   The collateral (20% of $100k) can pay back the debt ($50k), no liquidation risk.   naise",162,16
1377447274050162692,"2021-04-01T02:26:36Z","@adam62950632 @bgarlinghouse Eth for the win",0,0
1377447269407002624,"2021-04-01T02:26:35Z","Park Jung-Bin bought for 0.208 ETH (402.90$) by Ryuya on the primary market   Season: 2021-2022 Level: 0 Serial: 1/10 Price: 402.90$  ⚽ Sorare: https://t.co/pyciIRdv88  📊: https://t.co/LuiYwZLix2  #Sorare #NFT #Ethereum #FantasyFootball",1,0
1377447267930636288,"2021-04-01T02:26:35Z","Top 10 Mentions Updated Every 5 Minutes   Reset Time: Wed Mar 31 2021 21:51:34 GMT+0300 (GMT+03:00)   (BETA STAGE)  1- $ETH==&gt;1664  2- $LINK==&gt;577  3- $XRP==&gt;513  4- $IDEX==&gt;431  5- $TRX==&gt;354  - $BTC #Bitcoin $Crypto #Crypto $Altcoins #Alts -",0,0
1377447264927502337,"2021-04-01T02:26:34Z","Full Send $ETH ‼️  #Ethereum #altcoins #Bitcoin",1,0
1377447210447745025,"2021-04-01T02:26:21Z","🎉🎉 Lighthouse produced its first #Eth1 &amp; #Eth2 merge transaction 🎉🎉  This is an ETH tx using *only* proof-of-stake validators. A step towards a 99.98% drop in Ethereum energy consumption 🌏🌲🌄  Credits to @gballet, @mkalinin2 &amp; @Teku_ConsenSys!  Important qualifications 👇 https://t.co/DW5GSk4JVo",919,271
1377447187295129605,"2021-04-01T02:26:15Z","We love @superbid_io don't you! To prove it we're sharing 1/2 of the 10 ETH prize with ONE lucky person if we win!   ENTER: https://t.co/BvihIDYyyo  #Superbid is the first social-action app built on #ETH. ~ https://t.co/JrS8Kt08KI  #airdrop #contest #ethairdrop #giveaway #uniswap https://t.co/ocJmUFbBdp",503,1314
1377447186041032708,"2021-04-01T02:26:15Z","I wish everyone could buy some #nftart so i do a giveaway (0,1 $ETH) 💵 to fund a new art buyer.  To participate: follow me, like &amp; retweet this post 💎  Lets go 🚀☘️",56,52
1377447180009672709,"2021-04-01T02:26:14Z","The next two weeks for #eth are going to post green candles. #ethonsalenow Getting $eth below $2000 is a bargain!!  #Ethereum #Crypto",1,0
1377447175093882882,"2021-04-01T02:26:12Z","💧Fly Amanita Airdrop 💧  🏆 Task:          ➕ $5 worth of FLY  👨‍👩‍👧 Referral:   ➕ $0.5 worth of FLY  🔛Airdrop Link &amp; Information: https://t.co/Teh5tZDNPE  #cryptocurrency #Crypto #Bitcoin #Ethereum #ETH #Airdrop #bounty #FlyAmanita #FLY",1470,1810
1377447151077310465,"2021-04-01T02:26:07Z","Think you're a great cryptocurrency trader? You can find more information on Bybit's 7 day trading challenge, with 400k USD prize pool, here:  https://t.co/Sc41e28ZFB  #Bitcoin #Ethereum  $BTC $ETH $RUNE $ADA $HBAR $UNI $KIN $ZRX  @coinkit_ mon 0.2 175 $TRX https://t.co/N5lyheKa3G https://t.co/vNr2b1XFN6",36,144
1377447149479342084,"2021-04-01T02:26:06Z","RT @ClubShitCoin: for only 007 $eth you can own this 1 of a kind $bond #nft  https://t.co/uosCaxHzmt",6,5
1377447149038927872,"2021-04-01T02:26:06Z","🌑 $MEGA= Moon🌑 👨‍👦‍👦Team= Doubled 👨‍👦‍👦 🧾 Rebrand= Incoming 🧾 🌎 World #NFT Upgrades= Imminent 🌎 Exciting times ahead for the project. Really looking forward to what lies ahead. @MegaCryptoPolis #BlockchainGaming #crypto #eth #defi https://t.co/wgyh8llEwC",17,2
1377447143305179142,"2021-04-01T02:26:05Z","💧Fly Amanita Airdrop 💧  🏆 Task:          ➕ $5 worth of FLY  👨‍👩‍👧 Referral:   ➕ $0.5 worth of FLY  🔛Airdrop Link &amp; Information: https://t.co/Teh5tZDNPE  #cryptocurrency #Crypto #Bitcoin #Ethereum #ETH #Airdrop #bounty #FlyAmanita #FLY",1470,1810
1377447123541712899,"2021-04-01T02:26:00Z","Ortwin De Wolf bought for 0.32 ETH (614.11$) on the secondary market   Season: 2019-2020 Level: 3 Serial: 60/100 Price: 614.11$  ⚽ Sorare: https://t.co/LOFpvW0BxS  📊: https://t.co/kqwdiLO5so  #Sorare #NFT #Ethereum #FantasyFootball",0,0
1377447120551124992,"2021-04-01T02:25:59Z","Are FrankenPunks a thing yet? If not, why not? Could sell those for 50 eth no problem.",0,0
1377447109339779074,"2021-04-01T02:25:57Z","I’ve gone from #BTC #ETH #LTC + some random  - #SUB 🤦🏻‍♀️#ZRX #LINK #DGB #ICX #ETC etc. since 2015. Happy that I’ve consolidated back to my first 3 loves. I hope I’ve chosen wisely. Let’s get this friends! https://t.co/cDCewBNsNf",55,4
1377447100867284996,"2021-04-01T02:25:55Z","RT @TylerSCrypto: #ETH LET’S GOO",674,88
1377447083574059011,"2021-04-01T02:25:51Z","Enough ETH has been raised in the first couple of hours of @feiprotocol's Genesis for the protocol to hit the scale target of 100M circulating $FEI 🌲🤟",301,28
1377447075483418625,"2021-04-01T02:25:49Z","@Crypto_Alita @simple_wolf_ So cool to see another girl into crypto but you’re so knowledgeable and I’m a novice. I pre-swapped tribe but I’m confused about how to retrieve it and sell it. Do I have to swap tribe to get fei in uniswap &amp; then fei to get Eth?",0,0
1377447061839302666,"2021-04-01T02:25:45Z","Hey there! I am deeply honoured now to present you the first and only Ethereum lamp. Yes, you read the right. Limited (42 pcs only) edition. Hand made. Check this out! https://t.co/Tr6fisL0hy https://t.co/tk6fRImG6p #eth #ethereum #crypto #VitalikButerin @rariblecom @opensea #BTC",417,145
1377447043086475266,"2021-04-01T02:25:41Z","@jdpiii3 @traderrocko Wouldn't change a lot. Maybe +60%. That's a low BTC target in a halving year, probably a low ETH target with their deflationary gas fix.",0,0
1377447038128914436,"2021-04-01T02:25:40Z","RT @CarpeNoctom: $ETH looks really good here, no cap",426,25
1377447037042446337,"2021-04-01T02:25:40Z","A lot can happen when Ni combines with In2O3. One is a catalytically active phase for the transformation of CO2 into methanol.  Read this interesting surface engineering by @catalysis_eth @TheorHetCatICIQ @ETH_DCHAB @NatureComms  https://t.co/1dLVbEd6m2 https://t.co/uc4WAW5DwQ",34,13
