"ID","created_at","text","like_count","rt_count"
1376791299139903495,"2021-03-30T06:59:59Z","RT @ben_gravis: $eth @ethereum is ready! Target is at least $6600! Starting an explosive #ALTSEASON ! 🚀 https://t.co/dedKmlNOZ9",29,4
1376791299047661574,"2021-03-30T06:59:59Z","I'll send $300 in #ETH or #BTC to one person who retweets this and follows @bud_crypto. Must complete these tasks:  1 - Like/RT his pinned tweet  2 - Must RETWEET &amp; LIKE 4 of his tweets  Ends in 72 hours!",1210,1759
1376791295830728705,"2021-03-30T06:59:59Z","RT @krugman25: $ETH $BTC https://t.co/FsM5WjRImh",1235,115
1376791295772008448,"2021-03-30T06:59:59Z","@barakaa10 @cielmot I do get the feel that if you’re not waving big eth around here, you can’t really exist... but that’s ok, rl is pretty cool too 😁😎 https://t.co/gbJkAhWWJ1",2,0
1376791295390318592,"2021-03-30T06:59:59Z","G999 will be launched on To-the-Moon as scheduled at 10:00 on Mar 3rd. G999 ultra low price:0.01 USDT （30% off discount-sale） Link:https://t.co/Bqy4TXKv0G  #blockchain #btc #eth #ToTheMoon https://t.co/8aR9mG8TXh",11,6
1376791292261269505,"2021-03-30T06:59:58Z","WARNING!   MASSIVE airdrop 🚀  $QDAO is a true Gem since 2019, by famous team, just 10 MILLION CAP  1. Go now to Twitter @QDefi or telegram https://t.co/x0vuSIVfV9   2. Get your free tokens  3. HODL this gem until 10x-20x 🔥🚀  soon - launch cross-chain tool for BSC, DOT and ETH",1006,1122
1376791282023071749,"2021-03-30T06:59:55Z","RT @TylerDurden: So @Visa are using the ETH blockchain to settle payments.  Looking forward to paying $3 for coffee + $900 gas fee and wait…",9324,1157
1376791275173638150,"2021-03-30T06:59:54Z","The Binance Smart Chains' De-Fi landscape continues its expansion with 4 new projects added to this weeks graphic. Take a look at our curated list of projects on this weeks DeFi landscape.  @bolt_dollar @SwampFinance @CubiexEsports @cybertime_eth  #BSC #BinanceSmartChain #DeFi https://t.co/xHrc0nvMLq",360,139
1376791271348506627,"2021-03-30T06:59:53Z","$SCRT is no secret, this is a game-changer 🔥 🔥 🔥   Secret Monero Bridge – Conceptual High-Level Description: https://t.co/UcwPexAP9L   $btc $eth $xmr $scrt https://t.co/AF0kmQETlX",24,5
1376791269993709568,"2021-03-30T06:59:52Z","$SOS guess what Ark Invest bought yesterday? $109 million worth of $BIDU and $8.6 million worth of ZhongAn Insurance. They bought the Chinese dip!  SOS deals not only with #BTC #ETH #mining but also Digital Assets Exchange (#DAX), insurance &amp; more.   #ARK #ARKINVEST #SOS #CRYPTO",3,1
1376791250129584133,"2021-03-30T06:59:48Z","Ok guys got some eth to spend, if it's within my price range post your art in the comments and I'll have a look. Retweet for exposure and I would very much appreciate a follow too 🙂 #nft #cryptoart #nftart #nfts #nftartist #cryptoartist #rarible #nftcollector #opensea #superrare https://t.co/Y1zAcHWlos",5,2
1376791241313054726,"2021-03-30T06:59:46Z","WARNING!   MASSIVE airdrop 🚀  $QDAO is a true Gem since 2019, by famous team, just 10 MILLION CAP  1. Go now to Twitter @QDefi or telegram https://t.co/x0vuSIVfV9   2. Get your free tokens  3. HODL this gem until 10x-20x 🔥🚀  soon - launch cross-chain tool for BSC, DOT and ETH",1006,1122
1376791238926553088,"2021-03-30T06:59:45Z","Join other investors !! 🌏 $ 5 million staked on #tacoswap 🌶 🚀🚀 Don't miss this adventure You want #TacoToken , too? Joins us !!!   #BSC #Bitcoin #BinanceSmartChain #Bepro #blockchain #CoinGecko #crypto #eth #poolz #ADA #Sushiswap #VeChain #Uniswap https://t.co/mxZnpt1QYw",108,82
1376791231812931586,"2021-03-30T06:59:43Z","WARNING!   MASSIVE airdrop 🚀  $QDAO is a true Gem since 2019, by famous team, just 10 MILLION CAP  1. Go now to Twitter @QDefi or telegram https://t.co/x0vuSIVfV9   2. Get your free tokens  3. HODL this gem until 10x-20x 🔥🚀  soon - launch cross-chain tool for BSC, DOT and ETH",1006,1122
1376791210195439616,"2021-03-30T06:59:38Z","The Museum of NFT is proud to introduce you to the following emerging NFT artist:  #nft #nftart #nfts #nftartist #nftcollector #nftcommunity #superrare #mintable #rarible #niftygateway #opensea #eth #ethereum #bitcoin #doge #decentraland #sandbox #cryptoart #crypto https://t.co/DzX4U40D1l",17,3
1376791209021108231,"2021-03-30T06:59:38Z","DeFi Yield Protocol Buying Competition: $25,000 in USDT to be won! ⬇️  Participate now https://t.co/UNSzLT7MqP  Bonus: 10 people that retweet this tweet and follow @dypfinance will win $250 each in #ETH ! https://t.co/7nB9EqrbHb",1876,2586
1376791208136077314,"2021-03-30T06:59:38Z","WARNING!   MASSIVE airdrop 🚀  $QDAO is a true Gem since 2019, by famous team, just 10 MILLION CAP  1. Go now to Twitter @QDefi or telegram https://t.co/x0vuSIVfV9   2. Get your free tokens  3. HODL this gem until 10x-20x 🔥🚀  soon - launch cross-chain tool for BSC, DOT and ETH",1006,1122
1376791204797370373,"2021-03-30T06:59:37Z","WARNING!   MASSIVE airdrop 🚀  $QDAO is a true Gem since 2019, by famous team, just 10 MILLION CAP  1. Go now to Twitter @QDefi or telegram https://t.co/x0vuSIVfV9   2. Get your free tokens  3. HODL this gem until 10x-20x 🔥🚀  soon - launch cross-chain tool for BSC, DOT and ETH",1006,1122
1376791203081904128,"2021-03-30T06:59:37Z","@krugman25 With layer 2 solutions and Eth 2.0 coming, why do you think the price of ETH will go up when people don't need to buy as much ETH to spend on gas fees? Is it only due to the burning mechanism of EIP-1559?",0,0
1376791200125042688,"2021-03-30T06:59:36Z","@jdotcastro @khauniverse Correct  You need a small amount of etherium to transfer your coins back to kucoin.  I moved a substantial amount yesterday.  Zero hassle.",2,1
1376791199357399040,"2021-03-30T06:59:36Z","WARNING!   MASSIVE airdrop 🚀  $QDAO is a true Gem since 2019, by famous team, just 10 MILLION CAP  1. Go now to Twitter @QDefi or telegram https://t.co/x0vuSIVfV9   2. Get your free tokens  3. HODL this gem until 10x-20x 🔥🚀  soon - launch cross-chain tool for BSC, DOT and ETH",1006,1122
1376791189236502528,"2021-03-30T06:59:33Z","No need to spend your own money to trade #cryptocurrency. Over 10K users won crypto rewards on @latokens last week. It's the best way to join the financial revolution. Start by earning a share of $100K in CLIQ airdrop: https://t.co/4n64Ed9pn7 #Bitcoin #ETH #Citi #AON #LATOKEN",0,0
1376791185050660865,"2021-03-30T06:59:32Z","🐙 RARE 🐙  1/1 Jellies x @NFTBearJail   Link: https://t.co/RDahdpvFA8  Minted via @opensea   #nft #nfts #nftart #crypto #nftcommunity #eth #cryptoart",22,7
1376791182613696514,"2021-03-30T06:59:32Z","$SCRT is no secret, this is a game-changer 🔥 🔥 🔥   Secret Monero Bridge – Conceptual High-Level Description: https://t.co/UcwPexAP9L   $btc $eth $xmr $scrt https://t.co/AF0kmQETlX",24,5
1376791178012545026,"2021-03-30T06:59:31Z","Ongoing #LGE is highly succesful with more than 1M$ already contributed in ecosystem.   Now @Royale_Finance &amp; @Sheeshafinance team up to provide staking feature for #Sheesha platform  Get LP token by contributing #ETH or #BSC coin that can be staked to earn $ROYA and other tokens https://t.co/1GOppi2mdl",29,9
1376791168139325444,"2021-03-30T06:59:28Z","Congratulations on your recent sale 🎉  Food Wars by mwstandsfor  Limited editions available for Ξ 0.05  https://t.co/yfKKBGxD6W  @KnownOrigin_io  Art by mwstandsfor  #cryptoart #NFT #cryptoartist #ETH",13,0
1376791167828824068,"2021-03-30T06:59:28Z","WARNING!   MASSIVE airdrop 🚀  $QDAO is a true Gem since 2019, by famous team, just 10 MILLION CAP  1. Go now to Twitter @QDefi or telegram https://t.co/x0vuSIVfV9   2. Get your free tokens  3. HODL this gem until 10x-20x 🔥🚀  soon - launch cross-chain tool for BSC, DOT and ETH",1006,1122
1376791160459436034,"2021-03-30T06:59:26Z","Top 10 #Crypto Coins Mentioned on #Twitter Last Week. #Klever @klever_io @mishalederman @SamTheCarpetMan   $BTC 2,039,139 $ETH 261,941 $CAKE 251,833 $DOGE 166,849 $ADA 119,458 $RARI 102,392 $KLV 82,619 $LINK 76,034 $BCH 75,261 $XRP 53,950",131,52
1376791150506487812,"2021-03-30T06:59:24Z","Tonight's #Raptoreum #Trivia starts at 11pm GMT.  #Play for REAL #RTM with the #FastestFingers on #Discord and #Telegram. https://t.co/7j9wNqkE5h https://t.co/2AyUCIMNd5  #TakePart #Win #Privacy #Blockchain #CompetitionTime #SmartContracts #SmartAssets #SpreadThoseWings #BTC #ETH https://t.co/tVOCXCdITQ",96,85
1376791142151319554,"2021-03-30T06:59:22Z","WARNING!   MASSIVE airdrop 🚀  $QDAO is a true Gem since 2019, by famous team, just 10 MILLION CAP  1. Go now to Twitter @QDefi or telegram https://t.co/x0vuSIVfV9   2. Get your free tokens  3. HODL this gem until 10x-20x 🔥🚀  soon - launch cross-chain tool for BSC, DOT and ETH",1006,1122
1376791133905358850,"2021-03-30T06:59:20Z","RT @krugman25: $ETH $BTC https://t.co/FsM5WjRImh",1235,115
1376791108999475209,"2021-03-30T06:59:14Z","#MXCExchange will list $TOWER and Launch the 43rd Session MX DeFi - Stake $USDT, $MX, $BTC, $ETH to Earn Yield $TOWER.  ▶️Follow @MXC_Exchange &amp; @TowerToken  ▶️Like, RT &amp; Tag 3 friends ▶️Comment  🏆10 ppl * 125 $TOWER  More info about the listing: https://t.co/VqsPboXOb5 https://t.co/6RZ4gmWYtY",992,770
1376791107925803008,"2021-03-30T06:59:14Z","@bitcoinfoodtru1 Good idea that would probably stop Eth heads trying to copy considering 99% can't grow facial hair",2,0
1376791106587869185,"2021-03-30T06:59:14Z","Hi @Exeedme @Poolz__ @bepronet   What do you think about we organise  a pool Crypto party all together on #tacoswap   Join us : https://t.co/3GeT48f0tm  #crypto #defi #dex #eth #tacoswaptothemoon #tacotoken🌶",1222,1084
1376791099822366725,"2021-03-30T06:59:12Z","WARNING!   MASSIVE airdrop 🚀  $QDAO is a true Gem since 2019, by famous team, just 10 MILLION CAP  1. Go now to Twitter @QDefi or telegram https://t.co/x0vuSIVfV9   2. Get your free tokens  3. HODL this gem until 10x-20x 🔥🚀  soon - launch cross-chain tool for BSC, DOT and ETH",1006,1122
1376791091517661185,"2021-03-30T06:59:10Z","WARNING!   MASSIVE airdrop 🚀  $QDAO is a true Gem since 2019, by famous team, just 10 MILLION CAP  1. Go now to Twitter @QDefi or telegram https://t.co/x0vuSIVfV9   2. Get your free tokens  3. HODL this gem until 10x-20x 🔥🚀  soon - launch cross-chain tool for BSC, DOT and ETH",1006,1122
1376791082374111234,"2021-03-30T06:59:08Z","March 30  #NFT #nftart #Cryptoart #ETH  https://t.co/k8LqGYB8kh",1,0
1376791079526223874,"2021-03-30T06:59:07Z","📊 Daily On-Chain Exchange Flow  #Bitcoin $BTC ➡️  $2.5B in ⬅️  $2.6B out 📉 Net flow: -$101.7M  #Ethereum $ETH ➡️  $692.7M in ⬅️  $695.0M out 📉 Net flow: -$2.3M  #Tether (ERC20) $USDT ➡️  $880.2M in ⬅️  $984.8M out 📉 Net flow: -$104.6M  https://t.co/dk2HbGwhVw",17,1
1376791077735174144,"2021-03-30T06:59:07Z","WARNING!   MASSIVE airdrop 🚀  $QDAO is a true Gem since 2019, by famous team, just 10 MILLION CAP  1. Go now to Twitter @QDefi or telegram https://t.co/x0vuSIVfV9   2. Get your free tokens  3. HODL this gem until 10x-20x 🔥🚀  soon - launch cross-chain tool for BSC, DOT and ETH",1006,1122
1376791075671658499,"2021-03-30T06:59:06Z","New Airdrop: Diamond Crystal (DCT) Reward: 100 DCT ($100) Rate: ⭐️⭐️⭐️⭐️ Focus: Distribution starts after airdrop ends   Bot Airdrop Link: https://t.co/9Qzk47HUKt  #Airdrop #giveaway #BTC #ETH",3980,4241
1376791066066608129,"2021-03-30T06:59:04Z","WARNING!   MASSIVE airdrop 🚀  $QDAO is a true Gem since 2019, by famous team, just 10 MILLION CAP  1. Go now to Twitter @QDefi or telegram https://t.co/x0vuSIVfV9   2. Get your free tokens  3. HODL this gem until 10x-20x 🔥🚀  soon - launch cross-chain tool for BSC, DOT and ETH",1006,1122
1376791059267690496,"2021-03-30T06:59:02Z","@SmartBSCNews @PeerExNetwork for upcoming IDOs on BSC. There will be a complete swap from ETH to BSC network, so better stay tuned on their medium channel for updates.",0,0
1376791056495222784,"2021-03-30T06:59:02Z","No need to spend your own money to trade #cryptocurrency. Over 10K users won crypto rewards on @latokens last week. It's the best way to join the financial revolution. Start by earning a share of $100K in CLIQ airdrop: https://t.co/snCtiWUwmQ #Bitcoin #ETH #Citi #AON #LATOKEN",0,0
1376791055740272640,"2021-03-30T06:59:01Z","The DEX @FinanceChainge is set to launch on the @FUSIONProtocol network with over a million users on the protocols waitlist. This decentralized exchange aims to innovate on traditional models through leveraging the Fusion Network.  #BSC #BTC #ETH #BNB  https://t.co/xx55YiGfm3",21536,13666
1376791050174402566,"2021-03-30T06:59:00Z","Welcome to massive Q DAO airdrop!   1. go now to telegram https://t.co/COyXgODY1z   2. Stay in telegram chat and wait announcement.  3. HOLD this gem until 10x   (soon - QDAO launch cross-chain for BSC, Polkadot and ETH)",4218,6165
1376791048257605637,"2021-03-30T06:59:00Z","We will be also giving away ETH Waifu #14287 to whoever follows @waifusion and retweets this! Giveaway closes 7PM EST tomorrow! https://t.co/melZVZljGL",79,116
1376791029064462340,"2021-03-30T06:58:55Z","still waiting on an opening bid for 'A Thousand Suns', the first minted collab piece from @digiyams and I. reserve is set to 1 eth  https://t.co/YiEQrEB2hE https://t.co/UUXbd9ZbS7",56,14
1376791010076921857,"2021-03-30T06:58:50Z","#DXY at major intersection 😶 #usd #stocks #wallstreetbets #wallstreet #crypto $btc $eth $bnb #fintech #digital https://t.co/OojiRGcS02",3,2
1376791004427132930,"2021-03-30T06:58:49Z","@SmartBSCNews @PeerExNetwork This migration will surely make more developments and progress for @PeerExNetwork community and holders. They see a long term vision migrating to bsc because of its low fees and several benefits over ETH network. The peerex holders will have a chance to invest in private round",0,0
1376791003403669504,"2021-03-30T06:58:49Z","@ILoveNFTs Feel free to take a look  https://t.co/6tft1t7GQ9  https://t.co/XxXX8kVtiq  https://t.co/3Se4HGWeMA  https://t.co/rRZ9uhAJXZ  https://t.co/aGylfMoCOw  https://t.co/MXVUuqniBb",0,1
1376790993098395654,"2021-03-30T06:58:46Z","@NintenKwonDo vaporwave spongebob gif for 25 eth",1,0
1376790992418918401,"2021-03-30T06:58:46Z","The DEX @FinanceChainge is set to launch on the @FUSIONProtocol network with over a million users on the protocols waitlist. This decentralized exchange aims to innovate on traditional models through leveraging the Fusion Network.  #BSC  #BTC  #ETH #BNB https://t.co/3YsGUYM3R7",0,0
1376790988669128706,"2021-03-30T06:58:45Z","All these transaction fees on $Eth is really turning me off. I've steered away from some tokens precisely because the transaction fee to move them is so expensive.",0,0
1376790988165951490,"2021-03-30T06:58:45Z","Ziggurat the price goes up https://t.co/Lvcn7sqIr0 $AMZN $ETSY $BABA $WMT $TGT $KR $JPM $FB $WFC $GOOG $SNAP $TWTR   $agn $aapl $brk $crm $cmg $dis $f $QQQ $GME $ibm $LABU $ENTA $TSLA #bitcoin #StableCoin https://t.co/ftpGO1mqu7",0,0
1376790984021839877,"2021-03-30T06:58:44Z","Latest mint! Self-Portrait from the https://t.co/xcqpCCqvkc series-- This t-shirt actually exists.  5 #NFTs available, asking 2Ξ  open to bids! 😉💕  View on Rarible: https://t.co/slDhqEfFeZ  #NFTCommunity #nftartist #ETH #Ethereum #StarWars  @coinkit_ mon 10 100 btc #AED https://t.co/UOZnla16NZ",57,40
1376790983539449858,"2021-03-30T06:58:44Z","@jksmith34 @ClimactSwiss @ETH @Empa_CH @UBS Fear v have entered a 1 way road #ClimateCrisis ; the subtle signs r big red flags for the unimaginable magnitude of nature's fury in pipeline 🌎 Economic dividends vs climate justice needs an urgent global understanding &amp; a moratorium on blind human activities #ClimateJustice",0,0
1376790956293255171,"2021-03-30T06:58:38Z","The DEX @FinanceChainge is set to launch on the @FUSIONProtocol network with over a million users on the protocols waitlist. This decentralized exchange aims to innovate on traditional models through leveraging the Fusion Network.  #BSC #BTC #ETH #BNB  https://t.co/xx55YiGfm3",21536,13666
1376790954418524160,"2021-03-30T06:58:37Z","RT @VetherSunrise: It's the dawn of a new #Vether day! 🌄 $ETH burned on previous day: 10.91 🔥 Implied value: $19.21 Number of participants:…",4,1
1376790954343079941,"2021-03-30T06:58:37Z","RT @CryptoCapo_: It's $ETH time",1603,133
1376790938874445824,"2021-03-30T06:58:34Z","OMG 😱  Day 1 on CMC   TacoToken🌶  is Top pair on #coinmarketcap    #tacoswaptothemoon #cryptocurrencies #tacoswaptomars #defi #eth #ADA #ethereum #crypto @bepronet @Poolz__ @Xed",1184,1072
1376790930829815808,"2021-03-30T06:58:32Z","Last offer was for 158.4 $ETH ($283,559.76).   @francis_ngannou is a bonafide @ufc superstar in the Metaverse...#NFTs https://t.co/9PauHSbO0I",2,0
1376790927818117120,"2021-03-30T06:58:31Z","$BTC has got through the resistance trend line but can it get through previous strong resistance @ $58,400 also? Lets see but dont get too excited just yet.  $ETH $ADA $RUNE $XLM $OCEAN $REN $KSM $UNI $DOT $LTC $AAVE $BNB $VET $BAT $XRP $XLM $XMR $SOL #ZEC $GRT $MANA $LRC $ONT https://t.co/2jK7kGizk1 https://t.co/8t7Siqnjzx",3,1
1376790916086824960,"2021-03-30T06:58:28Z","💡 Sold 91%. Hurry up...  BUY EXPER: https://t.co/zujmCvzFLZ  How to buy EXPER TOKEN? 1. Register and Login to https://t.co/uAOFvgdpPx 2. ICO Buy 3. Select ETH or BNB  #binance  #bitcoin  #bnb  #ethereum https://t.co/Ykcm5SvVVc",88,61
1376790911158476805,"2021-03-30T06:58:27Z","@chrisibreezy253 @PwcToken @eth_classic @Twitter @binance @TokenWrc @CasinoWhiterock @Facebook @instagram @cryptoblogio @Uniswap @Microsoft @SalviFlavio it was a great pleasure for all of us 📈",0,0
1376790909434531841,"2021-03-30T06:58:27Z","#MXCExchange will list $TOWER and Launch the 43rd Session MX DeFi - Stake $USDT, $MX, $BTC, $ETH to Earn Yield $TOWER.  ▶️Follow @MXC_Exchange &amp; @TowerToken  ▶️Like, RT &amp; Tag 3 friends ▶️Comment  🏆10 ppl * 125 $TOWER  More info about the listing: https://t.co/VqsPboXOb5 https://t.co/6RZ4gmWYtY",992,770
1376790899515138050,"2021-03-30T06:58:24Z","PancakeSwap was once an underdog in the Defi AMM corner. However, now they are dominating the entire AMM market. These are the features worthy of attention and commendations.  @PancakeSwap #BinanceSmartChain #BSC #BTC #ETH #BNB #Binance #DeFi #CryptoNews https://t.co/VZ571Ba0FQ",325,79
1376790894117019650,"2021-03-30T06:58:23Z","Hashmask #14402 - “Unnamed” was purchased by https://t.co/8QppVVeq0K from https://t.co/gGYKjmYqGF for 1.2190 $ETH ($2,202.18 USD) #thehashmasks #hashmasks  Character: Male Mask: Mexican Eye: Dark Skin: Gray Item: No Item https://t.co/Qvql7XBzcy",0,0
1376790889045970947,"2021-03-30T06:58:22Z","WARNING!   MASSIVE airdrop 🚀  $QDAO is a true Gem since 2019, by famous team, just 10 MILLION CAP  1. Go now to Twitter @QDefi or telegram https://t.co/x0vuSIVfV9   2. Get your free tokens  3. HODL this gem until 10x-20x 🔥🚀  soon - launch cross-chain tool for BSC, DOT and ETH",1006,1122
1376790877746515971,"2021-03-30T06:58:19Z","RT @GrandmaInvestor: Mega bullish on $Kin. Biggest alt coin holding outside of #ltc #eth for me",37,12
1376790869228072960,"2021-03-30T06:58:17Z","#altcoinseason2021 #altcoinseason #altcoin $eth $ada $dot $hot $feg $link $reef $SUPER https://t.co/Lpn1m1GZvx",0,0
1376790866967158785,"2021-03-30T06:58:16Z","I would like to solve the puzzle! $Theta is Godzilla. $tfuel $btc $eth $ada $xrp $ltc $dot $doge $link $xlm $bch $dgb $trx https://t.co/RRm2rdTlZU",210,21
1376790865516113922,"2021-03-30T06:58:16Z","SURPRISE PRIZE 🎉  Since we have been growing so fast, I wanted to add a bonus prize to the giveaway to say thank you to you all  BONUS PRIZE: - 1 CYBERPOWER GAMING COMPUTER ($1500 value) or $1k of $ETH  The winner will get to decide  Drawing all 29 giveaway winners at 6pm PST https://t.co/QdkURu6onz",4002,591
1376790861300703232,"2021-03-30T06:58:15Z","WARNING!   MASSIVE airdrop 🚀  $QDAO is a true Gem since 2019, by famous team, just 10 MILLION CAP  1. Go now to Twitter @QDefi or telegram https://t.co/x0vuSIVfV9   2. Get your free tokens  3. HODL this gem until 10x-20x 🔥🚀  soon - launch cross-chain tool for BSC, DOT and ETH",1006,1122
1376790855025971202,"2021-03-30T06:58:14Z","WARNING!   MASSIVE airdrop 🚀  $QDAO is a true Gem since 2019, by famous team, just 10 MILLION CAP  1. Go now to Twitter @QDefi or telegram https://t.co/x0vuSIVfV9   2. Get your free tokens  3. HODL this gem until 10x-20x 🔥🚀  soon - launch cross-chain tool for BSC, DOT and ETH",1006,1122
1376790850412290053,"2021-03-30T06:58:12Z","Join the @Holdefi community in HLD public sale!  #HLD #Holdefi #ETH #BSC #IDO #ICO 👇👇 https://t.co/3vhyuvLTMM",0,0
1376790832263655427,"2021-03-30T06:58:08Z","OMG 😱  Day 1 on CMC   TacoToken🌶  is Top pair on #coinmarketcap    #tacoswaptothemoon #cryptocurrencies #tacoswaptomars #defi #eth #ADA #ethereum #crypto @bepronet @Poolz__ @Xed",1184,1072
1376790804652568576,"2021-03-30T06:58:02Z","ALERT!!!🚨#ETHEREUM $3,500 IN APRIL!!!🚨 ⚠️  In Todays Video: -  #BITCOIN NEWS &amp; PRICE TARGET! -  TOP #ALTCOINS 2021!!! -  #CRYPTO NEWS -  #ETH #BTC &amp; #ALTCOINS PRICE ANALYSIS  💰 WATCH THIS VIDEO 💰  ⬇️ LINK BELOW ⬇️ https://t.co/ukUZgWlHLD https://t.co/JvM99ptDDh",103,18
1376790801552875523,"2021-03-30T06:58:01Z","Join the @Holdefi community in HLD public sale!  #HLD #Holdefi #ETH #BSC #IDO #ICO 👇👇 https://t.co/2mAHwD0qFD",0,0
1376790783760551936,"2021-03-30T06:57:57Z","WARNING!   MASSIVE airdrop 🚀  $QDAO is a true Gem since 2019, by famous team, just 10 MILLION CAP  1. Go now to Twitter @QDefi or telegram https://t.co/x0vuSIVfV9   2. Get your free tokens  3. HODL this gem until 10x-20x 🔥🚀  soon - launch cross-chain tool for BSC, DOT and ETH",1006,1122
1376790778282962945,"2021-03-30T06:57:55Z","My Crypto Strategy on ICONOMI just outperformed BTC. Check it out here: https://t.co/vTyapkEJZI #invest #bitcointrading #cryptocurrency #eth https://t.co/aBDnQcCRer",0,0
1376790776835883011,"2021-03-30T06:57:55Z","Zian Flemming bought for 0.174 ETH (313.77$) by Andy24682004 on the primary market   Season: 2020-2021 Level: 0 Serial: 52/100 Price: 313.77$  ⚽ Sorare: https://t.co/sn6IwDyGg6  📊: https://t.co/zrASEBOEMK  #Sorare #NFT #Ethereum #FantasyFootball",0,0
1376790775380520962,"2021-03-30T06:57:55Z","My Crypto Strategy on ICONOMI just outperformed BTC. Check it out here: https://t.co/cu73Jdomyj #trading #eth #blockchain #investment https://t.co/RvJCn9jVKb",0,0
1376790771454607361,"2021-03-30T06:57:54Z","My Crypto Strategy on ICONOMI just outperformed BTC. Check it out here: https://t.co/woPhWP8CS9 #money #eth #bitcointrading #bitcoin https://t.co/mjYC1uWVdV",0,0
1376790748712996864,"2021-03-30T06:57:48Z","WARNING!   MASSIVE airdrop 🚀  $QDAO is a true Gem since 2019, by famous team, just 10 MILLION CAP  1. Go now to Twitter @QDefi or telegram https://t.co/x0vuSIVfV9   2. Get your free tokens  3. HODL this gem until 10x-20x 🔥🚀  soon - launch cross-chain tool for BSC, DOT and ETH",1006,1122
1376790744502009857,"2021-03-30T06:57:47Z","PancakeSwap was once an underdog in the Defi AMM corner. However, now they are dominating the entire AMM market. These are the features worthy of attention and commendations.  @PancakeSwap #BinanceSmartChain #BSC #BTC #ETH #BNB #Binance #DeFi #CryptoNews https://t.co/VZ571Ba0FQ",325,79
1376790725438840836,"2021-03-30T06:57:43Z","$ETH  If the daily candle closes above 2k, it will easily cross 2500$ mark. Keep an eye on it.  Checkout the link in bio for crypto signals  $SAND #bitcoin $ETC $STORJ $SRM $KNC 40701 https://t.co/FFsL3EJgMv",2,2
1376790721492049921,"2021-03-30T06:57:42Z","$hot cannot reach 1$ . Look at the #token supply   Someone definitely said the same about   $btc cannot get to 10k $eth cannot get to 100$ $link cannot get to 1$  $btc has changed the game forever.    Also, this is #crypto anything can happen. #holochain https://t.co/RFX5t5jKus",47,16
1376790720200122368,"2021-03-30T06:57:41Z","WARNING!   MASSIVE airdrop 🚀  $QDAO is a true Gem since 2019, by famous team, just 10 MILLION CAP  1. Go now to Twitter @QDefi or telegram https://t.co/x0vuSIVfV9   2. Get your free tokens  3. HODL this gem until 10x-20x 🔥🚀  soon - launch cross-chain tool for BSC, DOT and ETH",1006,1122
1376790707281620995,"2021-03-30T06:57:38Z","Join our #Giveaway and win $100 in $ETH by retweeting this post which requires:  - Screenshot of your $ETH (BEP20) QR Code address - Hashtag $BSCX $ETH #swapX #launchzone   SwapX has very small price slippage and super low fee compared to other AMMs #BSC #giveaway https://t.co/xCZCiBX9Jq",815,647
1376790703771115523,"2021-03-30T06:57:37Z","*Giveaway Easter*  One lucky spirit will get this 1/1 Moon Lighter - 1.8 ETH ~$3200  1. Follow us 2. RT/share this post 3. Tag 2 friends  Winner selected Sunday 04/04  #NFT #Giveaway #nftart #cryptoart #NFTCommunity #NFTGiveaway #nftcollector #nfts   https://t.co/3hZH3GC6nh",88,81
1376790700205871107,"2021-03-30T06:57:37Z","The fact that $xvg's volume on Binance is about $50 000 000 but that #verge is only paired with $BTC and $ETH and not even listed on @BinanceUS really puzzles me.   Do you have any comments on that @binance? And thanks for the hard work @cz_binance!  #Vergecurrency #VergeFam",163,46
1376790698532380678,"2021-03-30T06:57:36Z","WARNING!   MASSIVE airdrop 🚀  $QDAO is a true Gem since 2019, by famous team, just 10 MILLION CAP  1. Go now to Twitter @QDefi or telegram https://t.co/x0vuSIVfV9   2. Get your free tokens  3. HODL this gem until 10x-20x 🔥🚀  soon - launch cross-chain tool for BSC, DOT and ETH",1006,1122
1376790695558660096,"2021-03-30T06:57:36Z","We will be also giving away ETH Waifu #14287 to whoever follows @waifusion and retweets this! Giveaway closes 7PM EST tomorrow! https://t.co/melZVZljGL",79,116
1376790686054371328,"2021-03-30T06:57:33Z","RT @ninafx_: $3000 coming 🔜 $ETH",872,61
1376790682749136896,"2021-03-30T06:57:32Z","WARNING!   MASSIVE airdrop 🚀  $QDAO is a true Gem since 2019, by famous team, just 10 MILLION CAP  1. Go now to Twitter @QDefi or telegram https://t.co/x0vuSIVfV9   2. Get your free tokens  3. HODL this gem until 10x-20x 🔥🚀  soon - launch cross-chain tool for BSC, DOT and ETH",1006,1122
1376790649945608192,"2021-03-30T06:57:25Z","Takanori Sugeno bought for 0.23 ETH (412.99$) on the secondary market   Season: 2020-2021 Level: 0 Serial: 65/100 Price: 412.99$  ⚽ Sorare: https://t.co/fh4jwkR7oh  📊: https://t.co/KUbE5xzFBg  #Sorare #NFT #Ethereum #FantasyFootball",0,0
1376790626864230403,"2021-03-30T06:57:19Z","WARNING!   MASSIVE airdrop 🚀  $QDAO is a true Gem since 2019, by famous team, just 10 MILLION CAP  1. Go now to Twitter @QDefi or telegram https://t.co/x0vuSIVfV9   2. Get your free tokens  3. HODL this gem until 10x-20x 🔥🚀  soon - launch cross-chain tool for BSC, DOT and ETH",1006,1122
1376790606668832769,"2021-03-30T06:57:14Z","No need to spend your own money to trade #cryptocurrency. Over 10K users won crypto rewards on @latokens last week. It's the best way to join the financial revolution. Start by earning a share of $100K in CLIQ airdrop: https://t.co/UYmMwgI6TS #Bitcoin #ETH #Citi #AON #LATOKEN",0,0
1376790599337054210,"2021-03-30T06:57:13Z","✨ The $ETH price has increased over 19% in the last 30 days. Is the price headed back up to $2,000 this week?   https://t.co/J531RCy19b https://t.co/D3EOvuO6pU",261,28
1376790594849136644,"2021-03-30T06:57:12Z","Join our #Giveaway and win $100 in $ETH by retweeting this post which requires:  - Screenshot of your $ETH (BEP20) QR Code address - Hashtag $BSCX $ETH #swapX #launchzone   SwapX has very small price slippage and super low fee compared to other AMMs #BSC #giveaway https://t.co/xCZCiBX9Jq",815,647
