"ID","created_at","text","like_count","rt_count"
1376927193360699392,"2021-03-30T15:59:59Z","My prediction for this Bull Run 🚀💸  #BTC $ 250.000 #ETH     $ 7.000 #ADA     $ 10  #TEL      $ 0,50 #UBX     $ 0,03 #BAX     $ 0,01  #XRP     $ 0,20  #DOGE  $ 0,0000000000001   #telcoin #telfam #Ubx #altcoin #altcoins #ALTSEASON #Altseason2021 #cryptocurrency #Crypto https://t.co/O5r3ixaLAE",41,9
1376927191607476225,"2021-03-30T15:59:59Z","HAWT. With my partnership with @illuviumio I can give away 100 HOLOGRAPHIC Scoot Scarabok NFTs.  Similar ones have gone for 5 eth to 50 eth.  How to get -Post your ETH address + BATTLE SCOOT! below -Retweet/tag a friend -Follow @illuviumio and join their discord in bio https://t.co/xcCVVW6KdR",2754,2661
1376927185018056708,"2021-03-30T15:59:57Z","#ALTCOIN #EASY NOW 25% AFTER 19$👍 30%+up🔥🔥😎.  $btc $eth $xrp $ada $tomo $eos $dot $xtz $ltc $easy https://t.co/BZxc9qHyHH",3,0
1376927181973069825,"2021-03-30T15:59:56Z","🔥 $MARSH Is Now Live On UniSwap!   MARSH/ETH UniSwap Pool: https://t.co/IZwP7mZjKP  $MARSH contract address: https://t.co/LOsmeZ8iUd  DEX Tools: https://t.co/UUY9bgAHG8 https://t.co/EeoRzLqzP5",124,34
1376927180156977159,"2021-03-30T15:59:56Z","@PNFTC Only .005 ETH Space DOGE collectible 1/10,000 https://t.co/w4VJKrUN8c…? #rarible #ethereum #nonfungible #digitalasset #nft #dogearmy #dogetothemoon #DogecoinRise #dogecointo1dollar #doge #dogecoin",0,0
1376927177766273039,"2021-03-30T15:59:55Z","@_DKleine @withFND This will not be solved until September at the earliest. There's a chance ETH is a permanent whale chain from here on out.",3,0
1376927171625762826,"2021-03-30T15:59:54Z","🚀🌕*The Harmonaut* #NFT #Art is now available on @opensea 🎨 1 copy in circulation, full high-resolution art bonus content unlocked with purchase.  @harmonyprotocol inspired fan-based art ⚠️Purchase made in $ETH or $ONE via DM #NFTS #DIGITALART #CRYPTOART https://t.co/lD4C28XN48",33,10
1376927169679564802,"2021-03-30T15:59:53Z","Legends Of Cryptonia 26 - Ultra UOS  Collection - 2nd Gen. Class - Swordsman Capacity - Scimitar  #NFT available on @rariblecom ⚔️🔥 10ex - 0.05 ETH https://t.co/8YQonW5DE0  Collection : https://t.co/uKfWCfEKtW  Website :  https://t.co/VJHXZiAvVs https://t.co/NAKEQypl54",12,3
1376927167016099843,"2021-03-30T15:59:53Z","Time for WitLink Token #Airdrop!  ✔️ Start the Airdrop bot: https://t.co/8HDV9cCJse  Complete the tasks to earn  Get 10 WAI ($2.5) + Get 4 WAI ($1) For Each Valid Refer   #ETH #BTC #WAI #LINK #Airdrops",1478,1424
1376927151719583746,"2021-03-30T15:59:49Z","HAWT. With my partnership with @illuviumio I can give away 100 HOLOGRAPHIC Scoot Scarabok NFTs.  Similar ones have gone for 5 eth to 50 eth.  How to get -Post your ETH address + BATTLE SCOOT! below -Retweet/tag a friend -Follow @illuviumio and join their discord in bio https://t.co/xcCVVW6KdR",2754,2661
1376927149916098562,"2021-03-30T15:59:49Z","RT @Pentosh1: Wow, from 1993 on NFT's   Link below  #Bitcoin   Is this a simulation haha?  $BTC $ETH  https://t.co/Ern7cxm55m",116,20
1376927141133180930,"2021-03-30T15:59:47Z","@robojoebot Only .005 ETH Space DOGE collectible 1/10,000 https://t.co/w4VJKrUN8c…? #rarible #ethereum #nonfungible #digitalasset #nft #dogearmy #dogetothemoon #DogecoinRise #dogecointo1dollar #doge #dogecoin",2,1
1376927123294720003,"2021-03-30T15:59:42Z","Friends, LITTLE KITTY On sale now @rariblecom  15 copies 0.08 eth. Hope for your support🚀  art by:@dashxxxcrash  #nft #nftart #cryptoart #NFTCommunity   https://t.co/bTtOHvnAib https://t.co/btgDeBCd2C",46,16
1376927123001118720,"2021-03-30T15:59:42Z","Since this the launch of @dypfinance back in Dec 2020 looks like Liquidity Providers have earned $11.4 Million dollars in $ETH just from Staking!  Also the project is paying out is $ETH as well and so far 6.2K $ETH have been rewarded.   #DeFi #Crypto #Cryptocurrency #BitcoinTalk https://t.co/zis10XPcL7",1798,1899
1376927119721267200,"2021-03-30T15:59:42Z","BTC, XRP, ETH, XLM, XEM, ATOM, LINK: Technical Analysis For March 30 https://t.co/dFFi1Oj5jl",0,0
1376927118764875780,"2021-03-30T15:59:41Z","@RookieXBT Ready for ETH to drop back to like $1400 again? 🤣🤣🤣 ETH moves like a 80 year old with arthritis and hip problems. Pffttt.",2,0
1376927115367579659,"2021-03-30T15:59:41Z","Layer2 is online now，a Milestone for YFX! BTC_USDT (USDT settlement), ETH_USD (USDC settlement) trading pairs open!#DeFi #Ethereum #Bitcoin #cryptocurrency #Blockchain https://t.co/aPyHmsoidO",93,89
1376927105599029252,"2021-03-30T15:59:38Z","🔴#GIVEAWAY ITEM NO.1:  💎 HighPotato #0006 💰Value : 0.03 #ETH  📣LAST CHANCE to be one of the five lucky winners of the HighPotato GIVEAWAY!🎁  ⏰ March 31, 4:20 PM-GMT🥔💨🚀  Criteria :👇🏻 Follow us, RT &amp; like any tweet!  https://t.co/6B3pFf2PJ2   #NFT #nftcollector #NFTartist",62,50
1376927098175160323,"2021-03-30T15:59:36Z","@thisisalex777 i have some questions about this: 1. who are their competitors? 2. isn't eth going to fix their turtle problem with eth 2.0? when will this happen? 3. will eth 2.0 make ftm irrelevant? 4. rumored partnerships?",0,0
1376927088742170627,"2021-03-30T15:59:34Z","HAWT. With my partnership with @illuviumio I can give away 100 HOLOGRAPHIC Scoot Scarabok NFTs.  Similar ones have gone for 5 eth to 50 eth.  How to get -Post your ETH address + BATTLE SCOOT! below -Retweet/tag a friend -Follow @illuviumio and join their discord in bio https://t.co/xcCVVW6KdR",2754,2661
1376927084367507460,"2021-03-30T15:59:33Z","@mavroses @withFND She's definitely going to move today with that .1 ETH reserve. https://t.co/zMknKdMddu",0,0
1376927079875309571,"2021-03-30T15:59:32Z","Double tap to game over.  #NFT #ETH #artwork #Cryptoart #Animation #drawing #Nftcollector #NFTs #digitalart #nftcollectors #illustration #2dart https://t.co/rD96eQQXCV",149,16
1376927079460040704,"2021-03-30T15:59:32Z","💧DogeSwap Airdrop💧  🏆 Task:          ➕   7 DOG  👨‍👩‍👧 Referral:     ➕   2 DOG  🔛  Airdrop Link &amp; Information: https://t.co/3rlt9kiu64  #cryptocurrency #Crypto #Bitcoin  #DogeSwap #Ethereum #ETH #Airdrop #bounty #Doge #AirdropStario",4123,5206
1376927078793109507,"2021-03-30T15:59:32Z","🔥 WoW!!! $DYP getting listed on @kucoincom !  DYP/USDT &amp; DYP/ETH trading will start tomorrow, March 25th at 10AM UTC! Good job @dypfinance team!  #DeFi #uniswap #Ethereum https://t.co/Rw9qa5l5tA",2228,2352
1376927076679262212,"2021-03-30T15:59:31Z","📢 Neeva DeFi Airdrop 📢 🎁 Reward 0.50 $NVA ($10) 📊 Already list in Latoken, and soon will list in Probit  ☑️ Mulai bot https://t.co/QwYhcN4H0L  ▪️ Selesaikan task ▪️ Task YouTube (optional)  ▪️ Submit data ▪️ Enter address ETH ☑️ Selesai  #CTBot Adrop Ram .16 DOGE 20 https://t.co/rHtdW2pRxJ",20,23
1376927068852789259,"2021-03-30T15:59:29Z","@Visa @Paypal believe ETH is money. Well, gee who would've thought?",0,0
1376927068273971210,"2021-03-30T15:59:29Z","I am here to test my favorite tcap give me some eth 0x9d17Df98261c8130a9b2332d06e72BEeCb27Da04",0,0
1376927052469702656,"2021-03-30T15:59:26Z","💧Roku Network Airdrop 💧  🏆 Task:          ➕  15 ROK (~$5)  👨‍👩‍👧 Referral:   ➕  3 ROK (~$1)  🔛  Airdrop Link &amp; Information: https://t.co/YhvsOcfEbH  #cryptocurrency #Crypto #Bitcoin  #BSC #BinanceSmartChain #Ethereum #ETH #Airdrop #bounty #ROK #RokuCoin #RokuNetwork",3738,4814
1376927048183189509,"2021-03-30T15:59:25Z","📢2021 #newlistings on https://t.co/0y5SOcsh0r  $REFI @Refi_Network will be listed on #HOTBIT  Deposit opens at: 2021-03-23  04:00 AM UTC Trading opens at: 2021-03-23  06:00 AM UTC         ---  REFI/USDT, REFI/BTC, REFI/ETH ---  We Sincerely Invite You to Trade on Hotbit！ https://t.co/09ksTY1j4f",119,58
1376927038108532740,"2021-03-30T15:59:22Z","New bid by @krybharat 1.125 eth. 🙏  21:00 CET the auction will end.  The highest bidder will get 2 drawings and a 1/34 digit poster.  @basileus_eth @TheGuild_NFT @AsyncArt @colbornbell @skymine #NFT #cryptoart @ClaytonBjerke https://t.co/BEf4nXsFkB",11,4
1376927036082511877,"2021-03-30T15:59:22Z","I my eth going to pop before my btc? Until next time, on dragon ball.",1,0
1376927035767971848,"2021-03-30T15:59:22Z","6,717 cards listed for sale  324 owners  196.22 ETH traded  in the first 24 hours... #curiocards #nft @opensea https://t.co/J1hHYYMMkv https://t.co/chxmE3LzsY",7,3
1376927024707698696,"2021-03-30T15:59:19Z","#DeGate unique initial Social Media token offering:📣  To honor contributors to Crypto Assets on social media, DeGate offers an early opportunity to buy DG tokens at a preferential rate. 10 m DG tokens at $0.005  Start ➡️ March 29  https://t.co/5gPWIBwZea  #ETH #BTC #DeFi https://t.co/2qpuVZGJKm",1751,1359
1376927004449107972,"2021-03-30T15:59:14Z","Dont forget $bnb $eth $btc",0,0
1376926984845025284,"2021-03-30T15:59:09Z","💰10,760 #ETH (19,555,224 USD) move from unknown wallet to unknown wallet   Date : 2021-03-30 15:58:20 (GMT 0) Blockchain : #ETHEREUM Symbol : #ETH   Detail: https://t.co/pMfS6uu1H0",0,0
1376926980336087041,"2021-03-30T15:59:08Z","We will randomly collect ETH wallet addresses every day and arrange to send the airdrops of 100,000 NFTs until the end of Q2. Those who haven't received NFTs don't need to worry, because it will always be your turn. https://t.co/3APkHz0uO3",888,664
1376926977886720002,"2021-03-30T15:59:08Z","RT @econoar: PayPal thinks ETH is money.",877,105
1376926974740946947,"2021-03-30T15:59:07Z","@ZssBecker @illuviumio @JOASAccessories @RobertShads   #BattleScoot ETH Address: 0xC84cF14EED43F3c397f40B9A8bFed5Dc9CA53baa",0,0
1376926954281070593,"2021-03-30T15:59:02Z","Is amazing to see how this project has been out since Dec 2020 and so far Liquidity Providers have earned about 6533.78 $ETH and that is the total value of $10.6 Million dollars. 💪  Also the APY doing 301.35% which is amazing.  #DeFi #UniSwap #BSC #SmartContract #Ethereum https://t.co/9a7rgyoMpE",2385,2476
1376926942029565954,"2021-03-30T15:58:59Z","HAWT. With my partnership with @illuviumio I can give away 100 HOLOGRAPHIC Scoot Scarabok NFTs.  Similar ones have gone for 5 eth to 50 eth.  How to get -Post your ETH address + BATTLE SCOOT! below -Retweet/tag a friend -Follow @illuviumio and join their discord in bio https://t.co/xcCVVW6KdR",2754,2661
1376926933137682435,"2021-03-30T15:58:57Z","Only .005 ETH Space DOGE collectible 1/10,000 https://t.co/We4d6xHO8G? #rarible #ethereum #nonfungible #digitalasset #nft #dogearmy #dogetothemoon #DogecoinRise #dogecointo1dollar #doge #dogecoin",1,0
1376926927043313665,"2021-03-30T15:58:56Z","🚀LITTLE PINKY🚀  Pinky is a chiller. He doesn’t think about anything. He just lives his life and enjoys every moment in the blockchain world.  ON SALE NOW @rariblecom  15 copies for 0.07 eth  art: @dashxxxcrash   https://t.co/gSqENCb4pb https://t.co/3QdpIOL0B0",82,21
1376926924446912518,"2021-03-30T15:58:55Z","The UN chief should know better how those two mad dog act. They lie deep to their gut. UN should act bc what they are doing is swiping the uniform and ID Eth. Then state we are out when in fact they are inside Tigray. UN, EU, USA should do in their capacity before it late https://t.co/cmdcFRs4p9",0,0
1376926924023468034,"2021-03-30T15:58:55Z","@osullivanmtl Sogang University is providing financial assistance to incoming … https://t.co/LPM4RESYHa #Scholarships #College #freestudy",1,1
1376926923025121281,"2021-03-30T15:58:55Z","Already one of my favorites, @hasufl came on @BanklessHQ this week  EIP-1559  That's it. That's the title.  Part 1: What is EIP1559? - UX improvement - Slack mechanism - Better security  Part 2: Impact on $ETH monetary policy  A canon episode  Listen!👂 https://t.co/BNMFhxYQpN",93,19
1376926921682980869,"2021-03-30T15:58:54Z","RT @WSBPump: What's your ETH address?  Don't ask why, just drop it below and RT 😉👽  #NFTCommunity #nftart #NFTcollectibles #NFTs",67,60
1376926921104187396,"2021-03-30T15:58:54Z","I think we've hit the point where #holochain is gaining true momentum. Currently ranking on #43 in market cap.  We will enter a phase of increased news coverage and more intense investigation about technical aspects of #holo.  Now HOLO can prove itself.  #btc #eth #dot #hot $hot",13,6
1376926913294434304,"2021-03-30T15:58:52Z","What an amazing week for adoption. Visa is settling USDC on $ETH and PayPal will enable US customers to checkout with #crypto. And its only Tuesday!   Let's Gooo 🎢 https://t.co/v2W5eVvzHu",734,67
1376926909334839304,"2021-03-30T15:58:51Z","Time for WitLink Token #Airdrop!  ✔️ Start the Airdrop bot: https://t.co/8HDV9cCJse  Complete the tasks to earn  Get 10 WAI ($2.5) + Get 4 WAI ($1) For Each Valid Refer   #ETH #BTC #WAI #LINK #Airdrops",1478,1424
1376926907984445445,"2021-03-30T15:58:51Z","HAWT. With my partnership with @illuviumio I can give away 100 HOLOGRAPHIC Scoot Scarabok NFTs.  Similar ones have gone for 5 eth to 50 eth.  How to get -Post your ETH address + BATTLE SCOOT! below -Retweet/tag a friend -Follow @illuviumio and join their discord in bio https://t.co/xcCVVW6KdR",2754,2661
1376926906918916101,"2021-03-30T15:58:51Z","The DEX @FinanceChainge is set to launch on the @FUSIONProtocol network with over a million users on the protocols waitlist. This decentralized exchange aims to innovate on traditional models through leveraging the Fusion Network.  #BSC #BTC #ETH #BNB  https://t.co/xx55YiGfm3",21535,13657
1376926904477962240,"2021-03-30T15:58:50Z","#Nessie #228 has emerged from the depths of Loch Ness and is now minted on the #ETH blockchain via @opensea  PRICE: Ξ0.085  https://t.co/nBKXm3aMOt  #Nessies #NFT #NFTs #NFTCommunity #Crypto #ETH #CryptoPunks #DigitalArt https://t.co/pIKPwfQREg",19,2
1376926903119011845,"2021-03-30T15:58:50Z","Imagine if #Bitcoin was the only #Crypto that existed ... Blockchain would be virtually useless as an actual payment solution and there would be nothing to talk about.  Yes, #BTC is King 👑 but Maximalism is silly. Blockchain has so much potential outside $BTC    #VISA $ETH $USDC",306,27
1376926901365833734,"2021-03-30T15:58:50Z","@chancetherapper Yeah, that’s why we’ve waited years for Eth 2.0. Still just a theory. Harmony $ONE, already does what ethereum theorizes. That’s why I’m all in on $ONE.   $ONE Love",15,7
1376926897695649796,"2021-03-30T15:58:49Z","@nftmotherbase Here are mine ❤️  all under 0.15 ETH  👾 Pixi Warrior: https://t.co/hzKX1ATW1J  🖥 8-bit.coin: https://t.co/DHkKNjd0UY  🔥 Crash &amp; Burn: https://t.co/nImSr3MhKI https://t.co/6T0O3LUZyJ",0,0
1376926895258865668,"2021-03-30T15:58:48Z","RT @QuintenFrancois: $ETH and $LINK are gearing up! Is it finally time? 👀",1022,66
1376926890859053056,"2021-03-30T15:58:47Z","@inkyall @redditavatars are still available and waiting for his collector to show off. 🚀🚀🚀  Edition 1/1 at 0.5 eth on @opensea 🥇   Go show some love ❤️❤️❤️  #nftcollector #NFTCommunity #NFTart    https://t.co/s4OfSHm4Og https://t.co/jhKClXgyo0",0,0
1376926885410697219,"2021-03-30T15:58:46Z","Video publishers are waiting impatiently for the completed beta of the use case on Esports Fight Club to license the modular products from Verasity for their own platforms. Partnership hints?! $vra #vra #Crypto #btc #eth https://t.co/xHdQmRLMbi",21,7
1376926885008015366,"2021-03-30T15:58:46Z","If the crypto community continues not to see this gap, OnX will have to consider credit delegation vaults to use the wBTC, xSushi and other tokens' credit line. Borrow ETH in Aave (e.g. using wBTC collateral) and lend the same ETH on OnX is just too attractive at the moment.",9,0
1376926875071692804,"2021-03-30T15:58:43Z","@davidgokhshtein Interesting one to keep an eye on in $MODEX  nice slick website with blue chip partners, Microsoft $MSFT Amazon Web Services. Just started the pump on a small pull back but holding well. 100x Gem very risky play not financial advice. $XGG $ISLA $PTF $DEXA $CELL $ETH $BTC",1,1
1376926872777318404,"2021-03-30T15:58:43Z","RT @BistrooIO: Everything #bistroo related in one place 📰  👉https://t.co/XINiDqQHs6  $BIST #UnleashTheBist #Token #ERC20 $ETH $BTC #cryptoc…",53,33
1376926863994482691,"2021-03-30T15:58:41Z","Credit where credit is due. @RyanSAdams dead on the Mark episode 6 of @BanklessHQ podcast with today’s VISA $ETH news.  SPEAK IT INTO EXISTENCE. @TrustlessState  @BanklessHQ 🐐🐐 https://t.co/5HAyAe846G",26,6
1376926849880748032,"2021-03-30T15:58:37Z","Why don't you own some ETH and get benefit from that pump?",0,0
1376926842603499522,"2021-03-30T15:58:35Z","RT @ProBit_Exchange: #DFI will be listed on #ProBitExchange March 31 with an ETH market @defiqa3 #DeFi  https://t.co/2ZqO1n8Ezf https://t.c…",574,471
1376926837314572289,"2021-03-30T15:58:34Z","@knikxknok If you like scifi, cyberpunk and guitars, check my trilogy of animated images! Only 3 images available! Working on the film that finishes the collection! Range 0.1-0.15 eth.  https://t.co/qIphZCUBqF https://t.co/HcTZzMpjby",0,0
1376926833556471813,"2021-03-30T15:58:33Z","#hodl #hodl this bull run is insane 😍😍😍😍   $btc $crv $dent $sxp $ada $btt $lsk $eos $grt $eth $reef $iost $utk $link $matic  $zil $vet $hot $npxs $aion",2,0
1376926829748092930,"2021-03-30T15:58:32Z","💧Roku Network Airdrop 💧  🏆 Task:          ➕  15 ROK (~$5)  👨‍👩‍👧 Referral:   ➕  3 ROK (~$1)  🔛  Airdrop Link &amp; Information: https://t.co/YhvsOcfEbH  #cryptocurrency #Crypto #Bitcoin  #BSC #BinanceSmartChain #Ethereum #ETH #Airdrop #bounty #ROK #RokuCoin #RokuNetwork",3738,4814
1376926829001461766,"2021-03-30T15:58:32Z","@kieranmlkelly ETH didnt move.",1,0
1376926822248628229,"2021-03-30T15:58:31Z","NEWS: @staked_us just launched the first-ever investment trust for ETH2 staking  The trust is the first traditional investment vehicle that offers the combination of ETH exposure and staking rewards.   Via @thesamreynolds  https://t.co/Ho6QuuWVwL",17,6
1376926807908302851,"2021-03-30T15:58:27Z","someone is going to get fired @Visa once the head honchos find out $ETH does 30 TPS and @DigiByteCoin does 10 times the current transaction capacity of the top 50 blockchains by market cap and cost than half cent. $DGB #DGB https://t.co/tZ4l7gOeSQ",90,33
1376926797321830407,"2021-03-30T15:58:25Z","The final card for the 1st edition of Ether Jam is none other than A for Air. This super rare card is limited to only 2 mints. #nft #nfts #nba #NBATopShot #nftsports #nftcollector #NFTCommunity @opensea @chicagobulls  @mcuban $btc $eth https://t.co/93F780bIX2 https://t.co/EpR30X6Azd",4,0
1376926794264154116,"2021-03-30T15:58:24Z","I'm really annoyed with #ETH gas fees right now. I wanna mint another collage #NFT on @withFND lol  Where'd the sub-70 gwei fees from Sunday go?  Frrrrrustrraaaated haha",36,2
1376926781844951041,"2021-03-30T15:58:21Z","So I moved a ton of my huge ETH holding to SPI...SPI is up 50%  What dumb luck. Gotta give some back.   Let's give away a mooncat (valued at $1000) AND $500 in SPI.  Post your eth wallet below with MEOWTH THATS RIGHT...  Tagging/rewteeting is appreciated https://t.co/VDXboLlmP0",1916,1134
1376926781282848770,"2021-03-30T15:58:21Z","Super hyped to introduce you to my brand new collab piece with the amazing @katecursed:  ŧħɇ 𝕮𝖚𝖗𝖘𝖊𝖉 sħȺmȺn  10/10 editions. Ξ 0.15 #ETH each.   ｎøｎɇ ｓħȺłł ᵽȺｓｓ  https://t.co/ci5nu1bbHQ  #raredigitalart #digitalart #NFT #NFTs #cryptoart #glitchart via @makersplaceco https://t.co/AvbvNm4LmE",87,31
1376926770151178243,"2021-03-30T15:58:18Z","ETH is gonna do %100 in some week in the next 4-5 weeks",0,0
1376926770012725254,"2021-03-30T15:58:18Z","Welcome to massive Q DAO airdrop!   1. go now to telegram https://t.co/COyXgODY1z   2. Stay in telegram chat and wait announcement.  3. HOLD this gem until 10x   (soon - QDAO launch cross-chain for BSC, Polkadot and ETH)",4218,6164
1376926763914301440,"2021-03-30T15:58:17Z","RT @zhusu: Next key lvls are 72k / 100k on $BTC  And 2.5k / 4k on $ETH",3569,435
1376926762152644613,"2021-03-30T15:58:16Z","Lots of $ETH news and hype... it’s still flat.... https://t.co/6bU5Yo8H9r",2,0
1376926761024299010,"2021-03-30T15:58:16Z","NFT GIVEAWAY 16  i pick 1 person, i pay gas $15  requirement 1 POST your rarible url 2 RETWEET&amp;LIKE 3 FOLLOW twitter 4 TAG friends  optional 5 FOLLOW insta https://t.co/YNn3gn37XL  sell the card for&gt;0.1 eth  #nftcollector   #NFTs  #Rarible #Opensea #SuperRare #nftart  @rariblecom https://t.co/4ITRcaPMFR",41,33
1376926758835003392,"2021-03-30T15:58:16Z","RT @CryptoCapo_: It's $ETH time",1603,133
1376926751780130818,"2021-03-30T15:58:14Z","RT @econoar: PayPal thinks ETH is money.",876,105
1376926720377376774,"2021-03-30T15:58:06Z","Imagine if #Bitcoin was the only #Crypto that existed ... Blockchain would be virtually useless as an actual payment solution and there would be nothing to talk about.  Yes, #BTC is King 👑 but Maximalism is silly. Blockchain has so much potential outside $BTC    #VISA $ETH $USDC",306,27
1376926717252624388,"2021-03-30T15:58:06Z","🍄VOTE to name the 1st #NFT Etherian #Crypto Prophet from gen.1   Comment+RT  1. Stump 2. Hollow Prince 3. Ancestree 4. Mighty Oak  #nftcollectors #gaming_news #blockchaingame #matic #blockchain #cryptocurrency #CT #Polygon  #NFTs #ETH #Ethereum   Sign up: https://t.co/EjmDEIe0jV https://t.co/IXgx85xgDu",273,229
1376926704384507906,"2021-03-30T15:58:03Z","🚀Intro #100000101🚀 SOLD for 2.7 ETH on OpenSea! Great buy but they would have been better waiting for the @jurassicasylum drop  Check out the transaction: https://t.co/3bGBJyia4C #JurassicAsylum #NFT #NFTartist #cryptoart #NFTCommunity https://t.co/teNXtYyItI",0,0
1376926698646683654,"2021-03-30T15:58:01Z","DCT TOKEN Airdrop Medium Star Claim 1 DCT ($ 100) + 0.045 DCT ($ 10) for each referral you make.   Steps  💎  Join channel and group  💎  Follow twitter, like and retweet pinned message   💎  Submit eth wallet address (ERC-20) Participate now Airdrop link: https://t.co/L24stp8tVI https://t.co/CVYQyLAWwU",8694,8870
1376926692321660928,"2021-03-30T15:58:00Z","🔥 #ODDZ #Giveaway is Now On! @oddz_finance 🔥  10 lucky users will receive $30 each in #ODDZ 😗  1️⃣Login &amp; Participate   https://t.co/81bh5CpMnK  2️⃣Retweet and @ a friend  Share with your friends &amp; get more rewards 💌  #Ethereum #ETH #cryptogiveaway https://t.co/M7MxexMYji",267,619
1376926687229775876,"2021-03-30T15:57:58Z","Layer2 is online now，a Milestone for YFX! BTC_USDT (USDT settlement), ETH_USD (USDC settlement) trading pairs open!#DeFi #Ethereum #Bitcoin #cryptocurrency #Blockchain https://t.co/aPyHmsoidO",93,89
1376926687078797320,"2021-03-30T15:57:58Z","🔴#GIVEAWAY ITEM NO.1:  💎 HighPotato #0006 💰Value : 0.03 #ETH  📣LAST CHANCE to be one of the five lucky winners of the HighPotato GIVEAWAY!🎁  ⏰ March 31, 4:20 PM-GMT🥔💨🚀  Criteria :👇🏻 Follow us, RT &amp; like any tweet!  https://t.co/6B3pFf2PJ2   #NFT #nftcollector #NFTartist",62,50
1376926674672095234,"2021-03-30T15:57:55Z","@JRNYcrypto @sparkpointio Oh wow. That is my first giveaway win ever 😂. I just started my investment journey in January. 1k$ in ETH is like one third of my current portfolio - it is insane!",487,10
1376926673006948353,"2021-03-30T15:57:55Z","iconFi future is brilliant and with that #icx future too🔥 already $70m asset under management and the numbers grow to fast🚀🚀 Congrats 👏 #icon #bitcoin #eth https://t.co/7HWV8xzvoD",30,1
1376926668242178053,"2021-03-30T15:57:54Z","HAWT. With my partnership with @illuviumio I can give away 100 HOLOGRAPHIC Scoot Scarabok NFTs.  Similar ones have gone for 5 eth to 50 eth.  How to get -Post your ETH address + BATTLE SCOOT! below -Retweet/tag a friend -Follow @illuviumio and join their discord in bio https://t.co/xcCVVW6KdR",2754,2661
1376926662890287104,"2021-03-30T15:57:53Z","The DEX @FinanceChainge is set to launch on the @FUSIONProtocol network with over a million users on the protocols waitlist. This decentralized exchange aims to innovate on traditional models through leveraging the Fusion Network.  #BSC #BTC #ETH #BNB  https://t.co/xx55YiGfm3",21535,13657
1376926662168809477,"2021-03-30T15:57:52Z","Just having fun with $ETH https://t.co/jTleWkTFrV",13,0
1376926657798410242,"2021-03-30T15:57:51Z","HAWT. With my partnership with @illuviumio I can give away 100 HOLOGRAPHIC Scoot Scarabok NFTs.  Similar ones have gone for 5 eth to 50 eth.  How to get -Post your ETH address + BATTLE SCOOT! below -Retweet/tag a friend -Follow @illuviumio and join their discord in bio https://t.co/xcCVVW6KdR",2754,2661
1376926653692133381,"2021-03-30T15:57:50Z","Fusion develops ecosystem DEFI🚀 1 500 000 million users  waiting list🚀 #fsn #fusion #btc #cryptocurrency #blockchain #eth #btc #defi #chainge  @FUSIONProtocol @FinanceChainge @CoinbasePro  @binance https://t.co/xaAtlwNvgO",20,3
1376926647413321730,"2021-03-30T15:57:49Z","@StaFi_Protocol ’s  #rToken Value Propositions🔌   We made an #infographic which could help our community better understand the #value propositions of StaFi #rToken solutions. StaFi aims to act as a #plug-and-play Staking Network for all #PoS Chains #ATOM #Polkadot #DOT #FIS #ETH https://t.co/7hEK5iKtDH",4,3
1376926644355661824,"2021-03-30T15:57:48Z","RT @econoar: PayPal thinks ETH is money. https://t.co/9E3OIfe4qi",876,105
1376926641998458883,"2021-03-30T15:57:48Z","Time for WitLink Token #Airdrop!  ✔️ Start the Airdrop bot: https://t.co/8HDV9cCJse  Complete the tasks to earn  Get 10 WAI ($2.5) + Get 4 WAI ($1) For Each Valid Refer   #ETH #BTC #WAI #LINK #Airdrops",1478,1424
1376926640945659911,"2021-03-30T15:57:47Z","So I moved a ton of my huge ETH holding to SPI...SPI is up 50%  What dumb luck. Gotta give some back.   Let's give away a mooncat (valued at $1000) AND $500 in SPI.  Post your eth wallet below with MEOWTH THATS RIGHT...  Tagging/rewteeting is appreciated https://t.co/VDXboLlmP0",1916,1134
1376926639234383879,"2021-03-30T15:57:47Z","@murphydoes @FeraSY1 you can hold ETH, while guaranting BTC on eth/btc pair... if it goes back to feb lvls, you will be making 40% more btc.",1,0
