"ID","created_at","text","like_count","rt_count"
1377153684270813187,"2021-03-31T06:59:59Z","New Airdrop: Diamond Crystal (DCT) Reward: 100 DCT ($100) Rate: ⭐️⭐️⭐️⭐️ Focus: Distribution starts after airdrop ends   Bot Airdrop Link: https://t.co/9Qzk47HUKt  #Airdrop #giveaway #BTC #ETH",3979,4240
1377153681066352645,"2021-03-31T06:59:58Z","$HIVE is the pump master! 🤣🚀 I'm feeling it again! Something is going to happen here!  After that pump $HIVE should maintain the level above $1. 🚀🎉🚀 #BTC #ETH #XRP #altcoins #crypto #trading #invest https://t.co/rJHVxSaAyZ",12,7
1377153672417660932,"2021-03-31T06:59:56Z","$GTO I hope you invested in this coin. Because it gives +120% profit after my call. Risks are yours. For more follow and join my telegram https://t.co/B6ClnBaxuR #btc #bitcoin #BNB #doge #eth #ALTSEASON #altcoin #Binance #btt #holo #dent #XTZ #xrp #xlm #trx #doge #mtl #gto https://t.co/JvXVE9ulDK",3,1
1377153661286064137,"2021-03-31T06:59:53Z","Winners will be revealed in 24h! Like, RT &amp; follow!  Stake $USDT, $MX, $BTC or $ETH to earn $TOWER on @MXC_Exchange “MX DeFi”!  #staking #yieldFarming #Bitcoin #Ethereum https://t.co/Jkn8MhYEE5",27,10
1377153639479795718,"2021-03-31T06:59:48Z","@stronghodl @Wades_ETH did you try it today?",0,0
1377153635222614019,"2021-03-31T06:59:47Z","@TenshisChico @tomshaps @maxx_tp They need to consume energy equal to that of a small country. Not only that, but if someone was to hack the Etherium servers and delete your note from it, there is nothing you can do, because all proof of your ownership is gone.",0,0
1377153634916425733,"2021-03-31T06:59:47Z","@digartcollector CyberRexes is a set of 10.000 unique 1/1 Rexes with different levels of rarity.   Price 0.01 ETH   Each Rex can be assigned a unique name by the buyer for additional scarcity.  Mint yours at our website: ( limit 20 per tx ) https://t.co/IOjL6r57Zi https://t.co/gu6IPQf8wz",1,0
1377153631271542800,"2021-03-31T06:59:46Z","@ARandomGayWolf 2/2 actually adopted (Etherium, XRP, Vethor, Bitcoin, Meme coins like doge) will be like a different countries currency in that they will all hover near each other and each one will check and balance the other branch.  My lists were just examples, its about what the people want",0,0
1377153627396038657,"2021-03-31T06:59:45Z","RT @WhaleAgents: $ETH will flip to 5k at 2021",166,137
1377153627127566337,"2021-03-31T06:59:45Z","@intocryptoverse If ETH was to hit 1900 today it would feel just like another Wednesday. No biggie.",1,0
1377153624556511235,"2021-03-31T06:59:45Z","Try to collect things you like, things you feel connected with. You might spend less ETH and whatever the investment outcome will be, you'll have a collection that says a lot about you. - Alotta M.  Amazing Q&amp;A with the🌟Artist: @money_alotta   Read at https://t.co/7yqqdwGG7q https://t.co/DZltO44SBT",28,6
1377153624158072835,"2021-03-31T06:59:44Z","RT @QuintenFrancois: $ETH to $2500 in April or I'm giving away 0.3 $ETH to someone who retweets this.",4150,6184
1377153622392270853,"2021-03-31T06:59:44Z","DCT TOKEN Airdrop Medium Star Claim 1 DCT ($ 100) + 0.045 DCT ($ 10) for each referral you make.   Steps  💎  Join channel and group  💎  Follow twitter, like and retweet pinned message   💎  Submit eth wallet address (ERC-20) Participate now Airdrop link: https://t.co/L24stp8tVI https://t.co/CVYQyLAWwU",8692,8870
1377153620559372290,"2021-03-31T06:59:44Z","eth way too sluggish",0,0
1377153616411123713,"2021-03-31T06:59:43Z","Bather is the last artwork available on @rariblecom The yellow in this piece represents #endometriosis as its #EndometriosisAwarenessMonth https://t.co/TEeogSvGwB $eth #art #nftart #NFT #NFTs #NFTCommunity #Crypto",93,21
1377153615064834051,"2021-03-31T06:59:42Z","Once again! 1 ETH to spend in #NFTs! Drop your art below, like &amp; retweet ! #NFTCommunity #nftart #NFTartist #NFTartists #nft #nftcollector #nftcollectors",217,59
1377153604432240652,"2021-03-31T06:59:40Z","GET IN ON $PXP presale!!! Price automatically increases 50% in 3 days! Looking like the next $eRSDL/ $Aave #Crypto #cryptocurrency   Sign up here⬇️🚀🚀 https://t.co/J9V7TnKZwu  $LINK $BTC $ETH $QNT $DENT $eRSDL $ALBT $wCRES $LPL Pls use my referral code! $PXP will 100x !🚀🚀🚀",10,275
1377153592151306249,"2021-03-31T06:59:37Z","What an amazing week for adoption. Visa is settling USDC on $ETH and PayPal will enable US customers to checkout with #crypto. And its only Tuesday!   Let's Gooo 🎢 https://t.co/v2W5eVvzHu",734,67
1377153585373270024,"2021-03-31T06:59:35Z","RT @QuintenFrancois: $ETH to $2500 in April or I'm giving away 0.3 $ETH to someone who retweets this.",4150,6184
1377153584127647745,"2021-03-31T06:59:35Z","@GenoTac @WolfsburgMK1 One kind of token is generated, but payment method for the token isn’t exclusive. You can use #BTC or #ETH, etc. The tokens don’t exist until they are purchased into existence. And just like txn fees now, the proceeds don’t go to anybody. They are burned.",6,1
1377153581766205445,"2021-03-31T06:59:34Z","RT @QuintenFrancois: $ETH to $2500 in April or I'm giving away 0.3 $ETH to someone who retweets this.",4150,6184
1377153571456610310,"2021-03-31T06:59:32Z","@sam_fyi @Kollector_token CyberRexes is a set of 10.000 unique 1/1 Rexes with different levels of rarity.   Price 0.01 ETH   Each Rex can be assigned a unique name by the buyer for additional scarcity.  Mint yours at our website: ( limit 20 per tx ) https://t.co/IOjL6r57Zi https://t.co/x7vn8tyLmv",1,0
1377153569644634112,"2021-03-31T06:59:31Z","Every 10 seconds a new $FREE coin blockchain wallet is created (most on #BSC, others on #ETH and #TronNetwork ) 🚀  This is a clear and objective indication of the accelerated adoption of the $FREE coin ❤️  @binance @BinanceResearch @BinanceChain @cz_binance @bepalliance https://t.co/zLRntXqfUQ",431,199
1377153563210575874,"2021-03-31T06:59:30Z","HAWT. With my partnership with @illuviumio I can give away 100 HOLOGRAPHIC Scoot Scarabok NFTs.  Similar ones have gone for 5 eth to 50 eth.  How to get -Post your ETH address + BATTLE SCOOT! below -Retweet/tag a friend -Follow @illuviumio and join their discord in bio https://t.co/xcCVVW6KdR",2754,2661
1377153558496178191,"2021-03-31T06:59:29Z","Every 10 seconds a new $FREE coin blockchain wallet is created (most on #BSC, others on #ETH and #TronNetwork ) 🚀  This is a clear and objective indication of the accelerated adoption of the $FREE coin ❤️  @binance @BinanceResearch @BinanceChain @cz_binance @bepalliance https://t.co/zLRntXqfUQ",431,199
1377153555191144455,"2021-03-31T06:59:28Z","Awesome @RealVision interview with @mnicoletos ...interesting that he is NOT long $ETH, because he says that there are better options...and mentions $HBAR @hedera specifically....  Maybe it's one of @RaoulGMI secret picks too?? https://t.co/uPJLJoMu9L",20,9
1377153536585134080,"2021-03-31T06:59:24Z","DCT TOKEN Airdrop Medium Star Claim 1 DCT ($ 100) + 0.045 DCT ($ 10) for each referral you make.   Steps  💎  Join channel and group  💎  Follow twitter, like and retweet pinned message   💎  Submit eth wallet address (ERC-20) Participate now Airdrop link: https://t.co/L24stp8tVI https://t.co/CVYQyLAWwU",8692,8870
1377153525721919491,"2021-03-31T06:59:21Z","RT @LisaNEdwards: $ETH #ETHEREUM attempting breakout here  🤞🤞🤞 https://t.co/wBeq6FBfJ1 https://t.co/SoKl6UkQpZ",85,7
1377153522009956363,"2021-03-31T06:59:20Z","Some of my friends were excited that $Tel jumped by 15%. I tell them that this is nothing.  Study the project. 10x again nothing. Be patient. Belief in the plan and potential #Tesla was certainly not built in a day. 🚀 don’t fly w/o perseverance. Ask @elonmusk   $eth $btc $doge https://t.co/JX58IaUzKI",17,11
1377153512971194379,"2021-03-31T06:59:18Z","RT @QuintenFrancois: $ETH to $2500 in April or I'm giving away 0.3 $ETH to someone who retweets this.",4150,6184
1377153494453428227,"2021-03-31T06:59:14Z","One important note is that you do not need to buy 1 full ETH. Ether is divisible down to 18 decimal places so you can buy fractions of it.   https://   #Defi   #MustHaveCrypto https://t.co/800HhajsZ7",0,0
1377153493656498177,"2021-03-31T06:59:13Z","I'll send $300 in #ETH or #BTC to one person who retweets this and follows @bud_crypto. Must complete these tasks:  1 - Like/RT his pinned tweet  2 - Must RETWEET &amp; LIKE 4 of his tweets  Ends in 72 hours!",1210,1759
1377153484533850115,"2021-03-31T06:59:11Z","DCT TOKEN Airdrop Medium Star Claim 1 DCT ($ 100) + 0.045 DCT ($ 10) for each referral you make.   Steps  💎  Join channel and group  💎  Follow twitter, like and retweet pinned message   💎  Submit eth wallet address (ERC-20) Participate now Airdrop link: https://t.co/L24stp8tVI https://t.co/CVYQyLAWwU",8692,8870
1377153484013723652,"2021-03-31T06:59:11Z","RT @QuintenFrancois: $ETH to $2500 in April or I'm giving away 0.3 $ETH to someone who retweets this.",4150,6184
1377153482654806019,"2021-03-31T06:59:11Z","DCT TOKEN Airdrop Medium Star Claim 1 DCT ($ 100) + 0.045 DCT ($ 10) for each referral you make.   Steps  💎  Join channel and group  💎  Follow twitter, like and retweet pinned message   💎  Submit eth wallet address (ERC-20) Participate now Airdrop link: https://t.co/L24stp8tVI https://t.co/CVYQyLAWwU",8692,8870
1377153479316185090,"2021-03-31T06:59:10Z","Remember the 1st #VoxelHotel Party?😎  ⚠️Well, you get till next Friday to get some new killing wearable!⚠️  PARTY² on The Rooftop,  @EclecticMethod LIVE video remix!   Like+Retweet to win a 🤖 Robot Head X1 wearable : https://t.co/XsNXwq2SOC  @basileus_eth  @cryptovoxels https://t.co/4hnbHb6QBN",224,115
1377153473192423431,"2021-03-31T06:59:08Z","RT @1goonrich: $OLY about to rocket from the bottom great buy great project $eth $btc $link $pmon $one $dot $Feg $pxp $bfrm $wenr $peech 🍻",7,6
1377153471233728515,"2021-03-31T06:59:08Z","EASTER GIVEAWAY RAFFLE  Who wants this cute easter bunny poop? How to enter:  1. Like, Follow, Retweet 2. Join the 💩 posting: https://t.co/faEyUsQd0y 3. Tag 1 fren and drop dat eth address  Winner announced easter sunday 4/4/21  Can't stop the plop!  #NFTCommunity #NFTCollectors https://t.co/6oBiJ5fo40",66,34
1377153467278495745,"2021-03-31T06:59:07Z","@nft_collections CyberRexes is a set of 10.000 unique 1/1 Rexes with different levels of rarity.   Price 0.01 ETH   Each Rex can be assigned a unique name by the buyer for additional scarcity.  Mint yours at our website: ( limit 20 per tx ) https://t.co/IOjL6r57Zi https://t.co/ERjQGeXBFm",1,0
1377153463285473284,"2021-03-31T06:59:06Z","https://t.co/dFtCZxCcmL   Premium #Domain #ForSale @Sedo    #Cryptopay #pay #VR #Analytics #AI #MachineLearning #BigData #5G #AR #Robotics #Python #ML #IoT #CloudComputing #futureofwork #crypto #100DaysOfCode #fintech #Blockchain #LIVE #Bitcoin #BTC #LTC #ETH #technology #LINK https://t.co/IJOXsFCCTk",16,26
1377153452422262784,"2021-03-31T06:59:03Z","If u checked it and still not invested to $hot, sorry u are loosing my friend $hot #Holochain #holo #hot #btc #blockchain #eth #tezos #altcoin https://t.co/jgw0ojqQKh",20,6
1377153437041717249,"2021-03-31T06:59:00Z","😱😱 Sold!! SimPunk #11  Congratulations to collector EarthwormJim 🎉🎉🎉  @opensea #nft #opensea #NFTCommunity #nftart #cryptopunks #Cryptoart #etherium   https://t.co/eNNgoT437c",9,1
1377153436559437826,"2021-03-31T06:59:00Z","0x8aca029f007b4a054e6af9aed5a985d841fefe5d Give testnet ETH!!",0,0
1377153431861829638,"2021-03-31T06:58:59Z","RT @QuintenFrancois: $ETH to $2500 in April or I'm giving away 0.3 $ETH to someone who retweets this.",4150,6184
1377153429374529537,"2021-03-31T06:58:58Z","@haydentiff @GenoTac @WolfsburgMK1 Well, if you get the token by destroying BTC or ETH, the proceeds aren't burned. They go to enriching BTC and ETH holders. Why should a new project enrich the entrenched interests of previous projects rather than those who contribute to the new project?",55,3
1377153426161770500,"2021-03-31T06:58:57Z","RT @CyberRexes: Drop your $ETH address below. Might have a surprise for you 💥👀  #nft #nftart #nftcollector #NFTCommunity",96,28
1377153420721676295,"2021-03-31T06:58:56Z","#MXCExchange will list $TOWER and Launch the 43rd Session MX DeFi - Stake $USDT, $MX, $BTC, $ETH to Earn Yield $TOWER.  ▶️Follow @MXC_Exchange &amp; @TowerToken  ▶️Like, RT &amp; Tag 3 friends ▶️Comment  🏆10 ppl * 125 $TOWER  More info about the listing: https://t.co/VqsPboXOb5 https://t.co/6RZ4gmWYtY",991,769
1377153420021272578,"2021-03-31T06:58:56Z","DCT TOKEN Airdrop Medium Star Claim 1 DCT ($ 100) + 0.045 DCT ($ 10) for each referral you make.   Steps  💎  Join channel and group  💎  Follow twitter, like and retweet pinned message   💎  Submit eth wallet address (ERC-20) Participate now Airdrop link: https://t.co/L24stp8tVI https://t.co/CVYQyLAWwU",8692,8870
1377153411800395787,"2021-03-31T06:58:54Z","RT @Zionbecky1: How to switch platforms in Farswap ETH and Farswap BSC network. @Farswap_defi #blockchain #crosschain #crypto https://t.co/…",10,5
1377153408973500421,"2021-03-31T06:58:53Z","https://t.co/0vVRkIJyco  WE’RE FUCKIN LIIIIIVE. All 100 unique 1/1 CryptoMeeps dropped! All pixel art by hand, easy entry of .01 ETH to help secondary trading so hop in! Like and retweet to enter for a free drop on 4/1! #nftart #nftcollector #nftcollectors #NFTcollectibles #NFT",632,55
1377153402338091014,"2021-03-31T06:58:52Z","DCT TOKEN Airdrop Medium Star Claim 1 DCT ($ 100) + 0.045 DCT ($ 10) for each referral you make.   Steps  💎  Join channel and group  💎  Follow twitter, like and retweet pinned message   💎  Submit eth wallet address (ERC-20) Participate now Airdrop link: https://t.co/L24stp8tVI https://t.co/CVYQyLAWwU",8692,8870
1377153402216443911,"2021-03-31T06:58:52Z","RT @QuintenFrancois: $ETH to $2500 in April or I'm giving away 0.3 $ETH to someone who retweets this.",4150,6184
1377153402031857667,"2021-03-31T06:58:51Z","🔴#GIVEAWAY ITEM NO.5:  💎 HighPotato #0080 💰Value : 0.03 #ETH  📣LAST CHANCE to be one of the five lucky winners of the HighPotato GIVEAWAY!🎁  ⏰ March 31, 4:20 PM-GMT🥔💨🚀  Criteria : Follow us, RT &amp; like any tweet!  https://t.co/VsLhTinOBW   #NFT #nftcollector #NFTartist",49,43
1377153401830580226,"2021-03-31T06:58:51Z","🌐UPDATE🌐  THE ROAD is now available for Ξ 0.22 ETH   #NFT #NFTCommunity #NFTcollector #NFTs #NFTCollectors #NFTartist   https://t.co/v2QfovfzcY https://t.co/Yh3hgVB33v",25,5
1377153399720828928,"2021-03-31T06:58:51Z","🔴#GIVEAWAY ITEM NO.5:  💎 HighPotato #0080 💰Value : 0.03 #ETH  📣LAST CHANCE to be one of the five lucky winners of the HighPotato GIVEAWAY!🎁  ⏰ March 31, 4:20 PM-GMT🥔💨🚀  Criteria : Follow us, RT &amp; like any tweet!  https://t.co/VsLhTinOBW   #NFT #nftcollector #NFTartist",49,43
1377153395895660544,"2021-03-31T06:58:50Z","RT @MoneyNostra: 🟩 Drop your $ETH wallet 👇",366,159
1377153393722986500,"2021-03-31T06:58:49Z","@PlanetsDaily CyberRexes is a set of 10.000 unique 1/1 Rexes with different levels of rarity.   Price 0.01 ETH   Each Rex can be assigned a unique name by the buyer for additional scarcity.  Mint yours at our website: ( limit 20 per tx ) https://t.co/IOjL6r57Zi https://t.co/uO92zVqiEi",0,0
1377153364291555332,"2021-03-31T06:58:42Z","@stoolpresidente you’ll understand this crypto breakdown...  $BTC = AOL $ETH = Yahoo $HBAR = Google   You can buy $HBAR now on @BinanceUS before it is listed on @coinbase   Thank me later boss.",40,8
1377153354200018951,"2021-03-31T06:58:40Z","RT @QuintenFrancois: $ETH to $2500 in April or I'm giving away 0.3 $ETH to someone who retweets this.",4150,6184
1377153342003060742,"2021-03-31T06:58:37Z","HAWT. With my partnership with @illuviumio I can give away 100 HOLOGRAPHIC Scoot Scarabok NFTs.  Similar ones have gone for 5 eth to 50 eth.  How to get -Post your ETH address + BATTLE SCOOT! below -Retweet/tag a friend -Follow @illuviumio and join their discord in bio https://t.co/xcCVVW6KdR",2754,2661
1377153335287947272,"2021-03-31T06:58:36Z","🌃9112 collectible and fillable Blocks, only 504 blocks left until next tier.  Which #NFFT block will be assigned to you?  Claim your blocks at 0.3 ETH 👉 https://t.co/CkVrpWbIQC  #NFTs #NFTshill #nftcollector #nftsale #Ethereum https://t.co/5XB47vyXCY",11,8
1377153333627002893,"2021-03-31T06:58:35Z","RT @Thecryptomist: Good morning future millionaires.   Eth and Btc look like its about to take off once more 😊🚀",180,10
1377153332922347524,"2021-03-31T06:58:35Z","#DeFi #BKC #eth2 #BucksCake  ANNOUNCEMENT!  Dear BucksCake's community members!  The exact date of BKC listing on Uniswap set for 04/20/2021!  2 days before it, the exact opening time of the trading pair BKC/ETH on Uniswap...  More at https://t.co/RQPMhjazG2 https://t.co/VjtBbXBA1t",2829,2636
1377153332758728707,"2021-03-31T06:58:35Z","@_DigitexFutures @ctoLarsson Two way asset convertor needed on the platform to make use of #DGTX gains. Ability to transfer ETH, BTC &amp; USDC from DFE platform to other external wallets. Hope to see these fundamental services soon.",4,1
1377153322918891522,"2021-03-31T06:58:33Z","Who wants a collectible 🔥fire-breathing 🐉dragon?  Who wants one for ONLY 🤑0.0001 Eth?  Adopt yours now: https://t.co/ItlJCISK3n  #NFT #NFTs #nftart #nftcollectors #nftcollector #NFTartist #nftdragon #nftdragons #opensea #pixelart #cryptoart #pixelartist #dragons #Collectibles https://t.co/YeFrseOXsn",2,1
1377153307089666052,"2021-03-31T06:58:29Z","RT @QuintenFrancois: $ETH to $2500 in April or I'm giving away 0.3 $ETH to someone who retweets this.",4150,6184
1377153302547161095,"2021-03-31T06:58:28Z","📈Market Overview  $BTC price trades below $60K.  Top 10 are traded in the green zone: $BNB +11.6%, $LTC +3.1% and $ETH +1.4%  Market cap:   $1.91T (+1.68%)  $BTC dominance:  57.70% (+0.35%) Fear &amp; Greed Index: 76 (Extreme Greed)  Full Report👉 https://t.co/kEv2SpkHdE https://t.co/MBHY19AmC0",30,9
1377153301146259460,"2021-03-31T06:58:27Z","➡️💰 Deposited 1.61 ETH ($2,985.69) https://t.co/MlMYoL9fHq",0,0
1377153300831764489,"2021-03-31T06:58:27Z","Slow 137 | Normal 142 | Fast 147 | Instant 152 👈 current Ethereum gas prices in gwei. DM me a price and I will DM you as soon as gas drops below that price 👍 #Ethereum #GasPrice #ETHGasPrice #ETH",0,0
1377153288206835713,"2021-03-31T06:58:24Z","Genuinely curious if Art Twitter is going to boycott Paypal now..??? This is exponentially more environmentally damaging than NFTs because not only is Ethereum supported, but so is Bitcoin, which has 4x the emissions of ETH. What alternative platforms can independent artists use? https://t.co/zek7xyXwqL",1602,473
1377153282544562183,"2021-03-31T06:58:23Z","🌟 Announcing @GenShards &amp; @polkastarter First Ever Dual IDO  🌟 Polkastarter will integrate to BSC to increase the accessibility of IDOs and to promote cross-chain interoperability  🌟 GenShards ecosystem redefining NFTs as DeFi options  🗞️ INFO https://t.co/0JYXj8aK1P #SBN #BSC",149,145
1377153280476737538,"2021-03-31T06:58:22Z","🔴#GIVEAWAY ITEM NO.5:  💎 HighPotato #0080 💰Value : 0.03 #ETH  📣LAST CHANCE to be one of the five lucky winners of the HighPotato GIVEAWAY!🎁  ⏰ March 31, 4:20 PM-GMT🥔💨🚀  Criteria : Follow us, RT &amp; like any tweet!  https://t.co/VsLhTinOBW   #NFT #nftcollector #NFTartist",49,43
1377153266534940685,"2021-03-31T06:58:19Z","Young demon for sale on @withFND   Reserve Price 0.5 eth  https://t.co/IdALweBfJS  #nftt  #cryptoart #NFTArtists #digitalart  #NFTcollector #NFTCommunity #NFTs https://t.co/a1vxa4SqN0",32,24
1377153256300834819,"2021-03-31T06:58:17Z","$BTC, #ADA, and #ETH Are Gearing up for a Bullish Run, Says Analyst  https://t.co/sy7zO11mLa",0,0
1377153248172204035,"2021-03-31T06:58:15Z","Top 5 Mentions Updated Every 5 Minutes   Start Time: Wed Mar 31 2021 09:33:14 GMT+0300 (GMT+03:00)   (BETA STAGE)  1- $ETH==&gt;79  2- $HBAR==&gt;76  3- $BNB==&gt;47  4- $AMB==&gt;31  5- $TRX==&gt;29  - $Bitcoin #Bitcoin $Crypto #Crypto $Altcoin #Altcoin -",0,0
1377153235044102149,"2021-03-31T06:58:12Z","BTC, ADA, and ETH Are Gearing up for a Bullish Run, Says Analyst  https://t.co/gEAeKtxjUz",0,0
1377153226328350723,"2021-03-31T06:58:10Z","RT @MoneyNostra: Heres some free $ETH anon. Spend it wise, maybe buy some $BASE?  ANYONE ELSE???💵💵💵 https://t.co/XfWA0u9X2h",95,26
1377153226068217857,"2021-03-31T06:58:10Z","@happy_trader1 $RUNE $KYL $RAZE $ETH $BNB $BTC etc",6,1
1377153208418627586,"2021-03-31T06:58:05Z","DCT TOKEN Airdrop Medium Star Claim 1 DCT ($ 100) + 0.045 DCT ($ 10) for each referral you make.   Steps  💎  Join channel and group  💎  Follow twitter, like and retweet pinned message   💎  Submit eth wallet address (ERC-20) Participate now Airdrop link: https://t.co/L24stp8tVI https://t.co/CVYQyLAWwU",8692,8870
1377153207219056641,"2021-03-31T06:58:05Z","Do you like Coffee? I love it! Take a look to $FIRO and $MANA. Looks good! Bring patience and let us see! It's obvious what will happen here. I will check further coins today. Stay tuned! #BTC #ETH #XRP #altcoins #crypto #trading #invest https://t.co/3dkhscnCuD",12,3
1377153205289644038,"2021-03-31T06:58:05Z","$ETH  If the daily candle closes above 2k, it will easily cross 2500$ mark. Keep an eye on it.  Checkout the link in bio for crypto signals  $AGI $RDN $EDO #bitcoin $BLZ #CRYPTO 70970 https://t.co/1Ld0KbQGqo",0,0
1377153202009726976,"2021-03-31T06:58:04Z","RT @Thecryptomist: Good morning future millionaires.   Eth and Btc look like its about to take off once more 😊🚀",180,10
1377153201019883523,"2021-03-31T06:58:04Z","Wow I posted this 3 years ago and am now working my last couple of weeks before I have that FREEDOM of time and finish work for good!   Time for a new challenge  Time for a new me  But most importantly more time to spend with family.  Dreams do come through just #hodl #BTC #ETH https://t.co/BuxUa8Qp0Z",10,1
1377153188055293955,"2021-03-31T06:58:00Z","@Coin98Analytics @JulSwap @launchzoneann @burger_swap @BreederDodo @dego_finance @UniLend_Finance @ForTubeFi @autofarmnetwork @value_defi @ZeroSwapLabs I own $BONDLY in an $ETH wallet.  Please tell me where it is in the #BSC chain.  I want to mobe it to #BSC.",0,0
1377153185198923777,"2021-03-31T06:58:00Z","Great Tasks #CHNGgo @FinanceChainge @binance @HuobiGlobal @coinbase @okex #BSC #BTC #ETH #BNB #DeFi #DecentralizedFinance #blockchain https://t.co/v1N6IyHBP7",0,0
1377153176332247044,"2021-03-31T06:57:58Z","The idea of the oort NFT is interesting, but it looks complex to a large number of users. Is there any way that using your platform is as simple as using Opensea? With the upgrade to layer 2, what would be the maximum percentage that eth's gas rates could decrease https://t.co/9h4q4yOFuK",0,0
1377153172309901312,"2021-03-31T06:57:57Z","New Airdrop: Diamond Crystal (DCT) Reward: 100 DCT ($100) Rate: ⭐️⭐️⭐️⭐️ Focus: Distribution starts after airdrop ends   Bot Airdrop Link: https://t.co/9Qzk47HUKt  #Airdrop #giveaway #BTC #ETH",3979,4240
1377153171747835915,"2021-03-31T06:57:57Z","I like btc ETH，dot bch ltc and other defi coin such as save uni sushi cake xVS yFI",0,0
1377153170049179650,"2021-03-31T06:57:56Z","HAWT. With my partnership with @illuviumio I can give away 100 HOLOGRAPHIC Scoot Scarabok NFTs.  Similar ones have gone for 5 eth to 50 eth.  How to get -Post your ETH address + BATTLE SCOOT! below -Retweet/tag a friend -Follow @illuviumio and join their discord in bio https://t.co/xcCVVW6KdR",2754,2661
1377153141137833991,"2021-03-31T06:57:49Z","@googleafrica 🔥🔥Read to the end👇👇🔥🔥 Are you looking for reliable broker. Check this out! To trade volatility indices VIX https://t.co/4efpOCeq3O 👇 1. Click the link☝️, supply your email. Confirm email in your inbox #BestOfBTSMTV #AgainstMyanmarMilitaryCoup #Ethereum #ETH #zonaba #Btc",1,1
1377153127049175040,"2021-03-31T06:57:46Z","Is amazing to see how this project has been out since Dec 2020 and so far Liquidity Providers have earned about 6533.78 $ETH and that is the total value of $10.6 Million dollars. 💪  Also the APY doing 301.35% which is amazing.  #DeFi #UniSwap #BSC #SmartContract #Ethereum https://t.co/9a7rgyoMpE",2385,2476
1377153124222164997,"2021-03-31T06:57:45Z","🔒 MakerDAO Vault #21788 closed: 🤝 2,008.88 DAI paid back 💰 5.20 ETH withdrawn https://t.co/9Emlzzb9sw",0,0
1377153112834596874,"2021-03-31T06:57:43Z","New Airdrop: Diamond Crystal (DCT) Reward: 100 DCT ($100) Rate: ⭐️⭐️⭐️⭐️ Focus: Distribution starts after airdrop ends   Bot Airdrop Link: https://t.co/9Qzk47HUKt  #Airdrop #giveaway #BTC #ETH",3979,4240
1377153110506831878,"2021-03-31T06:57:42Z","#DeGate unique initial Social Media token offering:📣  To honor contributors to Crypto Assets on social media, DeGate offers an early opportunity to buy DG tokens at a preferential rate. 10 m DG tokens at $0.005  Start ➡️ March 29  https://t.co/5gPWIBwZea  #ETH #BTC #DeFi https://t.co/2qpuVZGJKm",1751,1359
1377153106723569670,"2021-03-31T06:57:41Z","DCT TOKEN Airdrop Medium Star Claim 1 DCT ($ 100) + 0.045 DCT ($ 10) for each referral you make.   Steps  💎  Join channel and group  💎  Follow twitter, like and retweet pinned message   💎  Submit eth wallet address (ERC-20) Participate now Airdrop link: https://t.co/L24stp8tVI https://t.co/CVYQyLAWwU",8692,8870
1377153103175159809,"2021-03-31T06:57:40Z","💧DogeSwap Airdrop💧  🏆 Task:          ➕   7 DOG  👨‍👩‍👧 Referral:     ➕   2 DOG  🔛  Airdrop Link &amp; Information: https://t.co/3rlt9kiu64  #cryptocurrency #Crypto #Bitcoin  #DogeSwap #Ethereum #ETH #Airdrop #bounty #Doge #AirdropStario",4123,5206
1377153098666307586,"2021-03-31T06:57:39Z","RT @QuintenFrancois: $ETH to $2500 in April or I'm giving away 0.3 $ETH to someone who retweets this.",4150,6184
1377153091582062600,"2021-03-31T06:57:37Z","@DeGateDex Have you posted about #BTC, #ETH, #DeFi #NFTs and #crypto related topics on Twitter in the past?   If so, participate in DeGate Social Network Offering!   The list of #crypto keywords has been expanded, more info:  https://t.co/9mzxMECXc5 Replying to @DeGateDex",0,0
1377153087832387584,"2021-03-31T06:57:37Z","💧Roku Network Airdrop 💧  🏆 Task:          ➕  15 ROK (~$5)  👨‍👩‍👧 Referral:   ➕  3 ROK (~$1)  🔛  Airdrop Link &amp; Information: https://t.co/YhvsOcfEbH  #cryptocurrency #Crypto #Bitcoin  #BSC #BinanceSmartChain #Ethereum #ETH #Airdrop #bounty #ROK #RokuCoin #RokuNetwork",3737,4813
1377153085496172546,"2021-03-31T06:57:36Z","#BURGER#BURGERSWAP#CAKE#BTC#BSC#ETH#COİN#KRİPTO https://t.co/cGyHwVVz7e",0,0
