"ID","created_at","text","like_count","rt_count"
1377984155787624454,"2021-04-02T13:59:59Z","How and where do I buy the dip in a strongly trending market?  In the past months, I have been studying moving averages and I've honestly been surprised by how accurate these can be.  This thread will go over my setup and how I use it to trade $BTC, $ETH and $ALTS. https://t.co/q4vtJFY0gr",184,39
1377984128499453956,"2021-04-02T13:59:52Z","1,000 dollars only gets you .5 $eth   Wild",0,0
1377984118613401604,"2021-04-02T13:59:50Z","Lol it’s funny to see  People keep paying funding fee to binance @binance  Binance the smart chap keeps price stable and charge them for couple of days 6times   Then push the price down and they close their position in fear  Use #Spot avoid #Futures  #bitcoin #eth #BNB",9,1
1377984116960944138,"2021-04-02T13:59:49Z","$DYP liquidity providers earned 6,922.93 #Ethereum worth $13,830,639 since launch!  If you want to start earning #ETH you just need to join one of our liquidity pools https://t.co/zxyI0V2tnr  You can also earn #DYP rewards by joining the farming pools https://t.co/z9yHmBCWyI https://t.co/scZzmd6Erw",516,432
1377984113685106695,"2021-04-02T13:59:49Z","If you are a $CELL $ID $ALBT or an $eXRD holder, follow and retweet and I'll pick one person at the end of today (Apr 1st) and send you 1 $eth from the negative gains I made this year.   $BTC $DOGE $LINK $ADA $XRP $EOS",33,24
1377984111399292932,"2021-04-02T13:59:48Z","RT @nexhodler: $AVAX $NEX  Soon 1M fiat transactions from Nash fiat getaways. $BTC $ETH $NEO $NOIA $USDC",26,3
1377984111273385984,"2021-04-02T13:59:48Z","@draecomino Since when ETH is stable coin?",3,0
1377984106491957251,"2021-04-02T13:59:47Z","Today is a Pinnacle day for all #Ethereum holders.  Today we reached new heights..📈  Comment Below Your Price Prediction for #ETH By The End Of 2021 🪙 @coinkit_ mon 10 100 BTC https://t.co/appEdWy8hN",169,125
1377984104608772104,"2021-04-02T13:59:46Z","$DYP staking dApp with it's unique mechanism is coming to #BinanceSmartChain!   They will have 3 different pools: DYP-WBNB, DYP-ETH, and DYP-BUSD  AND 3 different types of rewards: WBNB/ETH/DYP, the users will be able to choose!   @BinanceChain @PancakeSwap #BSC $DYP https://t.co/gZzESsBBlT",2050,2055
1377984103522263042,"2021-04-02T13:59:46Z","@GermanCoin_GCX You know this is my favourite type of coin and post 🤍 would be a wish to win from you have been looking to get $GCX in my portfolio 🙏  Really grateful thanks @SchenolS again   ♥️ #StaySafe! 🤍 #Crypto #Blockchain #BTC  #Space #BNB   #Mars #TWT #Airdrop #GCX #ETH #Easter https://t.co/CoT9jGgygc",0,3
1377984100401831941,"2021-04-02T13:59:45Z","$AAVE $ADA $ALGO $ATOM $BCH $BNB $BSV $BTC $CAKE $COMP $DOGE $DOT $ELGD $ETH $GRT $IOTA $KSM $LINK $LTC $LUNA $MATIC $SUSHI $THETA $UMA $UNI $VET $ZIL  Korean local shitcoin $ICX community absolutely can't see the shitcoin going down.. shitcoin needs to be kicked out of top 100.. https://t.co/oK3C8Iu58J",0,0
1377984099990827012,"2021-04-02T13:59:45Z","So I turned 40 today...do I win a prize? What happens now? Can someone let me in on the secrets please?  If you’re in a giving mood:  Bitcoin 1BjG9FLAwZWpP1owvCcyTzijvZvuAahDEQ  Eth 0x60d5241554Ee7D1f15129880bF87Acd67fA24993  https://t.co/Qms9DyPm1G  https://t.co/ye6M05gUDe https://t.co/OooPVQSErZ",164,7
1377984099709673472,"2021-04-02T13:59:45Z","⚡🔥 EASY $90 $CUE or Litecoin Giveaway!  To win: ✔ Tag a friend ✔ Retweet ✔ Follow us &amp; @cueprotocol Thats it! Good luck! 💖  Rolling in 24 hours!  #goodvibes #goodluck #giveaway #bitcoin #Giveaways  #cryptocurrency #eth #btc #BSC #TRON",504,1089
1377984096589250561,"2021-04-02T13:59:44Z","BULL RUN PF UPDATED TARGETS *New $CELL - $80-100* $ID - $5-10* $INFI - $10* $ORAI - $500+ $HTR - $100  $eRSDL - $10  $LINK - $150+ $AR - $50-100 $ADA - $20 $eGLD - $500-1k $ETH - $5-10k $KSM - NO CAP..riding this. $DOT - $250+ $XOR - $2k+ $VRA - $0.30 (+10c) $BTC - $80-100k https://t.co/KJlG1scbVh",412,72
1377984096463298566,"2021-04-02T13:59:44Z","⚡🔥 EASY $90 $CUE or Litecoin Giveaway!  To win: ✔ Tag a friend ✔ Retweet ✔ Follow us &amp; @cueprotocol Thats it! Good luck! 💖  Rolling in 24 hours!  #goodvibes #goodluck #giveaway #bitcoin #Giveaways  #cryptocurrency #eth #btc #BSC #TRON",504,1089
1377984095985135620,"2021-04-02T13:59:44Z","Happy to see $YFDAI😃  TOP #DeFi Projects by social activity again 🤙  1 April 2021.  One of the best projects I've ever seen.  Day by day they are proving why they are the best❤  Buy #YFDAI and Hold for long-term✊  @YfdaiF #ETH #DeFi https://t.co/Pnc4KfOKEg",164,168
1377984095242878977,"2021-04-02T13:59:44Z","If #BTC breaks $69,420 in APRIL 2021 I’ll give a random person my R8  Super SIMPLE: Like ✔️ RT ✔️ Follow ✔️ @JBTheCryptoKing  Drop eth addy ✔️ https://t.co/0ZTkU9CUuI",7876,3935
1377984082085343235,"2021-04-02T13:59:41Z","RT @NFTsShoutout: I have 1 ETH to giveaway to enter just RT this and follow me. I’ll pick one of you tomorrow.",614,749
1377984077912027136,"2021-04-02T13:59:40Z","We've reached 300 likes, 100 uploads and have been verified!! Time for a giveaway!! Ends Friday April 2nd at 10pm Eastern Time.  ✅Follow @Crypto_reapers ✅Like This Post ✅Retweet This Post ✅Tag a friend in the comments!  Win #CryptoReaper #104 #nftcollector #NFT #ETH https://t.co/4KexR4E0oA",103,76
1377984072581013507,"2021-04-02T13:59:39Z","I'll send $300 in #ETH or #BTC to one person who retweets this and follows @bud_crypto. Must complete these tasks:  1 - Like/RT his pinned tweet  2 - Must RETWEET &amp; LIKE 4 of his tweets  Ends in 72 hours!",1128,1614
1377984072543309827,"2021-04-02T13:59:39Z","Over 800 followers on @rariblecom! Thank you, i'm humbled to have so many who are interested in my work 🙏💚  All 0.1 - 0.5 Eth https://t.co/ubM7ARDhgv   #NFT #nftart #cryptoartist #raredigitalart #cryptoartbuyer #cryptoart #nftcollector #NFTs https://t.co/T8wZao2yq3",13,2
1377984071477813249,"2021-04-02T13:59:39Z","🔥 Happy to announce that $SKL has been listed on @FTX_Official   Don't forget DYOR on @MessariCrypto https://t.co/e6WBMM1WmL &amp; @StakingRewards https://t.co/ScXn6q2XPT More info: https://t.co/miC23FwmtY  #crypto #blockchain #ethereum #eth #defi #dapps https://t.co/DkAHMhZvKp",143,42
1377984070928322571,"2021-04-02T13:59:38Z","⚡🔥 EASY $90 $CUE or Litecoin Giveaway!  To win: ✔ Tag a friend ✔ Retweet ✔ Follow us &amp; @cueprotocol Thats it! Good luck! 💖  Rolling in 24 hours!  #goodvibes #goodluck #giveaway #bitcoin #Giveaways  #cryptocurrency #eth #btc #BSC #TRON",504,1089
1377984064091721737,"2021-04-02T13:59:37Z","#SmartCash's #shop is back online!  https://t.co/HbEjHGbAwi   FLW, LIKE, and RT  @coinkit_ give 100 10 $smart #crypto   #DeFi #altcoins  #altcoin #ETH #BNB #BCH #BTC #BSC #bitcoin #btc #ADA #Binance #NFT #NFTs #nftart #NFTCommunity #NFTartist #BinanceSmartChain #ALTSEASON",135,204
1377984063005413376,"2021-04-02T13:59:36Z","It is definitely a #Hot Friday! #Hot #Holo #Holochain 🚀    #CryptoNews #Crypto  #BTC #ETH #VET #VeThor #doge #STMX #NPXS #LINK #STORJ #Theta #USDT #win #TEL #BTT #ONE #ADA #ZIL #ONT #EOS #Qtum #Pac #SHA #RARI #GRT #luna #DIA #WTC #XEM #REEF #DENT #PNT #XRP #OMI #PUNDIX #WINk",147,28
1377984054121877508,"2021-04-02T13:59:34Z","Hi #Cryptonians,  we #giveaway for the  #holidays 300$ in $GCX to two of you each! 🕊️🕊️🕊️ Just do this: - Followus - Retweet and like - Tag friends much as possible  ⏲️Ends in 48 hours⏲️ ♥️ #StaySafe! ♥️ #Crypto #Blockchain #BTC #Space #BNB  #Mars #TWT #Airdrop #GCX #ETH #Easter",318,299
1377984046144294912,"2021-04-02T13:59:32Z","$ANKR #ANKR weak hands will panic sell their ANKR and lose money when whales buy their coins cheaper and than pump the price even higher 🚀#BTC #ADA #SFP #ETH #OXT",8,1
1377984043589857281,"2021-04-02T13:59:32Z","⚡🔥 EASY $90 $CUE or Litecoin Giveaway!  To win: ✔ Tag a friend ✔ Retweet ✔ Follow us &amp; @cueprotocol Thats it! Good luck! 💖  Rolling in 24 hours!  #goodvibes #goodluck #giveaway #bitcoin #Giveaways  #cryptocurrency #eth #btc #BSC #TRON",504,1089
1377984042591612929,"2021-04-02T13:59:32Z","Is amazing to see how this project has been out since Dec 2020 and so far Liquidity Providers have earned about 6533.78 $ETH and that is the total value of $10.6 Million dollars. 💪  Also the APY doing 301.35% which is amazing.  #DeFi #UniSwap #BSC #SmartContract #Ethereum https://t.co/9a7rgyoMpE",2385,2476
1377984041232736267,"2021-04-02T13:59:31Z","Compound (APR)  noteworthy rate Δ  🔹 $ETH  - B 2.69% S 0.14%  🔹 $USDC - B 10.75% S 8.43%  🔹 $REP  - B 11.99% S 0.00%  🔹 $BAT  - B 6.59% S 0.72%  🔹 $ZRX  - B 6.99% S 0.82% 🔹 $WBTC  - B 2.56% S 0.04% 🔹 $DAI  - B 9.36% S 6.64% 🔹 $USDT  - B 19.22% S 16.22%",0,0
1377984040708538368,"2021-04-02T13:59:31Z","RT @KIKKODO443: 🎁Free ETH  ⚙️Very easy only click / 30 min #freeETH #freeCoin  https://t.co/UQO9wRNiNK  #CTBot Adrop Ram 1 TRX 50",43,47
1377984036057067523,"2021-04-02T13:59:30Z","We've got not one, but two awesome news for you today! First - it's finally Friday!🥳 Second - the market is all green today!💚  Don't miss out, get $BTC, $ETH, and other top altcoins on  https://t.co/A6PlGulhej right now.",0,0
1377984021150466051,"2021-04-02T13:59:27Z","BUYING ETH NOW! EXCLUSIVE GUESTS FOR ALTCOIN BANTER! https://t.co/efXGuO0dcA via @YouTube",1,0
1377984011906162693,"2021-04-02T13:59:24Z","🔸 New Listing🔸   #BKEX will list #DRYCAKE @DryCakeSwap🚀 🚀  - Trading pair: DRYCAKE/USDT - Trading time: 20:00 on Mar 29 (UTC+8)  🔹 🔹 More details: https://t.co/kC2IIebfTT  #Bitcoin #ETH #BKK #Blockchain https://t.co/w8CHyKXaUD",2449,3532
1377984002213183492,"2021-04-02T13:59:22Z","Lets review just how much money I made dumping ALL my ETH...  (it's enough to buy a couch...or even 1000 couches)  Comment anything below, two random people will get $100 in ADA. Tags/Retweets appreciated.  https://t.co/394Z8f1KA1",890,406
1377983987444944899,"2021-04-02T13:59:18Z","Meet Batman Tumbler! Hurry to buy!  https://t.co/93zStPO8w9  One of the ships can be yours for free in 24 hours!  🙌follow me ❤️like  🖖retweet  ✌️2 friends+ comment with your ETH wallet address.  I wish everyone good luck! #NFTs #NFT #NFTartist #nftart #nft_ru #NFTcollectibles https://t.co/hhxOGyiuWq",197,140
1377983986178293767,"2021-04-02T13:59:18Z","⚡🔥 EASY $90 $CUE or Litecoin Giveaway!  To win: ✔ Tag a friend ✔ Retweet ✔ Follow us &amp; @cueprotocol Thats it! Good luck! 💖  Rolling in 24 hours!  #goodvibes #goodluck #giveaway #bitcoin #Giveaways  #cryptocurrency #eth #btc #BSC #TRON",504,1089
1377983984483860488,"2021-04-02T13:59:18Z","RT @flurtft: 💜 $200 in $ETH to someone who retweets this 💜 #Ethereum #ETH #giveaway",3114,6140
1377983972098125824,"2021-04-02T13:59:15Z","RT @twicrates: Eth heads be like “on fees bro?”",45,6
1377983968893677580,"2021-04-02T13:59:14Z","Hopefully you are smart enough to buy $STBU now while it is still few millions mcap.  @stoboxcompany a true gem  https://t.co/laXoNj4PYQ $XTZ #bitcoin $ETH $NEAR $YFI $STORJ $ALPHA $FTM $AUDIO $INJ $SRM $NAS",0,0
1377983965051559938,"2021-04-02T13:59:13Z","$cvc The force is strong with this one. $algo $nu $mana $ren $eth $ankr $skale. https://t.co/j1QLJQrJzX",1,0
1377983964766302214,"2021-04-02T13:59:13Z","$DYP staking dApp with it's unique mechanism is coming to #BinanceSmartChain!   They will have 3 different pools: DYP-WBNB, DYP-ETH, and DYP-BUSD  AND 3 different types of rewards: WBNB/ETH/DYP, the users will be able to choose!   @BinanceChain @PancakeSwap #BSC $DYP https://t.co/gZzESsBBlT",2050,2055
1377983949553688577,"2021-04-02T13:59:09Z","Just about right #BTC #ETH #ZIL #LINK #ADA #ENJ #XRP #ICX #UNI #OMG #EGLD #XLM #ALGO #XTZ #ONT #ZEC #MANA #ONE #VET #MATIC https://t.co/PYuzRal2ar",2,0
1377983949549535234,"2021-04-02T13:59:09Z","The party started a little early for some of these Pythons....drops happening now, ZERO ETH!!!  Enjoy responsibly!  #NFTs #NFT #NFTGiveaway  #Pythons4thePeople  https://t.co/K7vxEEkg4J",1,0
1377983938002444291,"2021-04-02T13:59:07Z","💧Poplink Oracles Airdrop 💧  🏆 Task:          ➕  50 POPO (~$50)  👨‍👩‍👧 Referral:  ➕  15 POPO (~$15)  🔛  Airdrop Link &amp; Information: https://t.co/DS6g34KhFp  #cryptocurrency #Crypto #Bitcoin  #BSC #BinanceSmartChain #Ethereum #ETH #Airdrop #bounty #POPO #Poplink",6694,8521
1377983937780273159,"2021-04-02T13:59:07Z","Win #NFT NiftyMask limited edition worth 1.5 ETH!  To WIN #Giveaway You MUST:   📌Retweet this tweet 📌Follow @NiftyMasks 📌Tag 3 friends  ⚡️Win randomly when get 900 followers!  ❤️Wish luck! #NFT #NFTs #Giveaway #Giveaways #nftcollector #nftcommunity #nftart #NFTGiveaway https://t.co/LnB3cVQofY",302,268
1377983934961684484,"2021-04-02T13:59:06Z","RT @intocryptoverse: Can't wait to see the major influencers begin to back-peddle on their $ETH FUD",1285,77
1377983932076023809,"2021-04-02T13:59:05Z","@rowlow_yup Don't forget our buddies at $SQRT!!!!  $SHIB $FEG $SCAT $FROGE $DOGE $HOGE $BTC $ETH $ADA $BAT $JEDI $WENR",3,0
1377983924140449795,"2021-04-02T13:59:03Z","ETH up over 2,000...is altseason about to start any minute?",1,0
1377983920357130241,"2021-04-02T13:59:02Z","🚨 Picasso Punk #0591 sold for 1.69 ETH ($3,375.83 USD) 🚨    #PicassoPunks #NFT #cryptoart   https://t.co/rVEHXROiaZ",0,0
1377983917475594240,"2021-04-02T13:59:02Z","I'll send $300 in #ETH or #BTC to one person who retweets this and follows @bud_crypto. Must complete these tasks:  1 - Like/RT his pinned tweet  2 - Must RETWEET &amp; LIKE 4 of his tweets  Ends in 72 hours!",1128,1614
1377983916603273219,"2021-04-02T13:59:02Z","@digartcollector 0xE75a9505Da4b61541313C4fB3619C2b3c04E5750 #NFTs on mintable seller: adeasha,all art under 0.11 #ETH. https://t.co/JbVKRPH6KM",0,0
1377983915588268032,"2021-04-02T13:59:01Z","#Bitcoin and #Ethereum #3D #Holographic Cards are already minted at my @mintable_app profile, which other #cryptocurrency would you like to see? https://t.co/RNlXQU38ew  #NFT #NFTs #nftart #NFTartist #crypto #cryptoart #nftcollectors #NFTCommunity #BTC #ETH #cryptoartist https://t.co/cSbRFzxuhB",5,2
1377983911976914944,"2021-04-02T13:59:00Z","$ETH            vs         $2,000     ( •_•)                          (•_• )     ( ง )ง                          ୧( ୧ )    /︶\                              /︶\",1,0
1377983906352406532,"2021-04-02T13:58:59Z","RT @intocryptoverse: 1 year ago, $ETH was &lt;$200. Now we are flirting with $2k.  I cannot wait until $ETH starts to do something",1456,87
1377983903194095619,"2021-04-02T13:58:58Z","Lets review just how much money I made dumping ALL my ETH...  (it's enough to buy a couch...or even 1000 couches)  Comment anything below, two random people will get $100 in ADA. Tags/Retweets appreciated.  https://t.co/394Z8f1KA1",890,406
1377983900530606082,"2021-04-02T13:58:58Z","RT @flurtft: 💜 $200 in $ETH to someone who retweets this 💜 #Ethereum #ETH #giveaway",3114,6140
1377983898743762945,"2021-04-02T13:58:57Z","RT @flurtft: 💜 $200 in $ETH to someone who retweets this 💜 #Ethereum #ETH #giveaway",3114,6140
1377983892678844421,"2021-04-02T13:58:56Z","I think with #dogecoin can not be rich like with #bitcoin or #etherium but it can be more fun and happy all the day...go..go #dogecoin to the moon",1,2
1377983892561539072,"2021-04-02T13:58:56Z","If #BTC breaks $69,420 in APRIL 2021 I’ll give a random person my R8  Super SIMPLE: Like ✔️ RT ✔️ Follow ✔️ @JBTheCryptoKing  Drop eth addy ✔️ https://t.co/0ZTkU9CUuI",7876,3935
1377983890321666058,"2021-04-02T13:58:55Z","I'll send $300 in #ETH or #BTC to one person who retweets this and follows @bud_crypto. Must complete these tasks:  1 - Like/RT his pinned tweet  2 - Must RETWEET &amp; LIKE 4 of his tweets  Ends in 72 hours!",1128,1614
1377983889625513984,"2021-04-02T13:58:55Z","RT @ThVerin: $BULBA moon mission 2.0 winding up....  $SQRT $PIKA $POODL $SHIB $FEG $SCAT $ETH $ADA $BAT $FROGE https://t.co/9GxuCxMihw",22,10
1377983889508073472,"2021-04-02T13:58:55Z","If #BTC breaks $69,420 in APRIL 2021 I’ll give a random person my R8  Super SIMPLE: Like ✔️ RT ✔️ Follow ✔️ @JBTheCryptoKing  Drop eth addy ✔️ https://t.co/0ZTkU9CUuI",7876,3935
1377983887977103363,"2021-04-02T13:58:55Z","Q2 is here and @OverledgerNet (community) can launch any day now🔥  ✅ Staking ✅ Gateways ✅ Lockups  ✅ Treasury buys ✅ Dashboard  ✅ Passive income  Time to get in $QNT  $BTC $ETH $ALBT $XRP $LINK https://t.co/gzdCLS0lhB",98,31
1377983877415772162,"2021-04-02T13:58:52Z","@cburniske Are you that same dude that recently posted about a liquid coin using etherium but it turned out it wasn't and it was meant to replace the token built on etherium because eth is broken? Then you deleted it? Are you that same guy? LOLOLOLOLOLL",0,0
1377983870356713475,"2021-04-02T13:58:51Z","Hi #Cryptonians,  we #giveaway for the  #holidays 300$ in $GCX to two of you each! 🕊️🕊️🕊️ Just do this: - Followus - Retweet and like - Tag friends much as possible  ⏲️Ends in 48 hours⏲️ ♥️ #StaySafe! ♥️ #Crypto #Blockchain #BTC #Space #BNB  #Mars #TWT #Airdrop #GCX #ETH #Easter",318,299
1377983856846995458,"2021-04-02T13:58:47Z","BTC price changes last 4 hours - sorted by mkt cap chg   🚀 $BNB   +0.00014660 $DOGE  +0.00000005 $MED   +0.00000178  🌧️ $ETH   -0.00015630 $FIL   -0.00013311 $DOT   -0.00000397  #altcoins #cryptocurrency #crypto",0,1
1377983853218910215,"2021-04-02T13:58:46Z","I'll add the 4° piece of the 'Iconic Movies' scenes' collection on Sunday on @opensea 🏷Prices 0.9 -1 ETH 🖌️Artistic and emotional paint stokes 🛍 Who will take some art home? 🔄 support with RT https://t.co/mwCUfv3HbZ #NFT #NFTCommunity #NFTart #cryptoart #NFTartist",2,0
1377983848840101888,"2021-04-02T13:58:45Z","Bought so many shitcoins (nicely termed #Altcoins), which one gives the best APR for staking/holding?   From my personal knowledge: (APY%)  $ZIL: 50+% (including $GZIL) $One: 8-12% $Eth: 3-7.5%  $Theta: 1% $Ada: 6% $Dot:  12% $Port: 10% per week $BTC: 1-3%  $VET: 1.6+%",52,11
1377983842829561859,"2021-04-02T13:58:44Z","If you consider yourself anything above Ape level investor you owe it to yourself to look into $QNT  https://t.co/GWwZU0ufPi  By no exaggeration, it's the biggest secret in crypto  #cryptocurrency #stocks #bitcoin $BTC $ETH $ADA $LINK $DOT $LTC https://t.co/l01IBg3OV3",134,43
1377983841831297026,"2021-04-02T13:58:44Z","⚡🔥 EASY $90 $CUE or Litecoin Giveaway!  To win: ✔ Tag a friend ✔ Retweet ✔ Follow us &amp; @cueprotocol Thats it! Good luck! 💖  Rolling in 24 hours!  #goodvibes #goodluck #giveaway #bitcoin #Giveaways  #cryptocurrency #eth #btc #BSC #TRON",504,1089
1377983834906624000,"2021-04-02T13:58:42Z","RT @TheCryptoData: $NRV blasting off! 🚀 Notified this one at 0.50 in the discord group 😃 @NerveFinance  $BTC $ETH $BNB https://t.co/fiWVIEv…",6,1
1377983833342115843,"2021-04-02T13:58:42Z","$BULBA just named its first charitable project! LFG to the moon and save the Amazon at the same. damn. time.  BulbaFinance Fundraiser for the Amazon https://t.co/TKOcB2jnEG  $PIKA $SQTL $SHIB $HOGE $DOGE $ETH $POODL $GRUMPY $KONG $FEG $ADA $BAT $SCAT $FROGE",9,5
1377983823510704131,"2021-04-02T13:58:39Z","|￣￣￣￣￣￣￣￣￣￣￣￣￣|    $ETH is back over $2,000 |＿＿＿＿＿＿＿＿＿＿＿＿＿|                      (\__/)  ||                      (•ㅅ•) ||                      / 　 づ",1556,185
1377983822009094145,"2021-04-02T13:58:39Z","11th most mentioned ticker $ETH (24h)  1. @scottmelker 2 2. @RedDogT3 2 3. @StockLizardKing 2 4. @SharanTrades 2 5. @Manpree31938145 1  https://t.co/Md00kMZXYK",1,0
1377983820583014404,"2021-04-02T13:58:39Z","Another huge Milestone attained by @seascapenetwork, as they record over   10K $pCWS / $CWS spent in minting #Scapes. 💰  #BSC #DeFi #Gaming #ETH #NFT #CTBot Adrop RAM 0.5 trx 50 https://t.co/bN7wzw48F4",27,31
1377983819643518977,"2021-04-02T13:58:38Z","RT @sassal0x: $ETH is now 20% of the way to $10,000.",1477,132
1377983811984748546,"2021-04-02T13:58:37Z","Once upon a time in the world of crypto. #Bitcoin #ETH #XRP #BNB #LINK https://t.co/rNiUoupzVH",1,1
1377983811393306628,"2021-04-02T13:58:36Z","BUYING ETH NOW! EXCLUSIVE GUESTS FOR ALTCOIN BANTER! https://t.co/f3gi3n92SD via @YouTube",0,0
1377983810013253635,"2021-04-02T13:58:36Z","If #BTC breaks $69,420 in APRIL 2021 I’ll give a random person my R8  Super SIMPLE: Like ✔️ RT ✔️ Follow ✔️ @JBTheCryptoKing  Drop eth addy ✔️ https://t.co/0ZTkU9CUuI",7876,3935
1377983807517773826,"2021-04-02T13:58:36Z","$Eth   Has broken out of its sym triangle on the daily timeframe  Resistance has cleared   $3k is inevitable and will happen quickly in my opinion https://t.co/3docjxwQ98",110,10
1377983799464615936,"2021-04-02T13:58:34Z","$DYP staking dApp with it's unique mechanism is coming to #BinanceSmartChain!   They will have 3 different pools: DYP-WBNB, DYP-ETH, and DYP-BUSD  AND 3 different types of rewards: WBNB/ETH/DYP, the users will be able to choose!   @BinanceChain @PancakeSwap #BSC $DYP https://t.co/gZzESsBBlT",2050,2055
1377983798290350087,"2021-04-02T13:58:33Z","RT @intocryptoverse: 1 year ago, $ETH was &lt;$200. Now we are flirting with $2k.  I cannot wait until $ETH starts to do something",1456,87
1377983797581344774,"2021-04-02T13:58:33Z","DCT TOKEN Airdrop Medium Star Claim 1 DCT ($ 100) + 0.045 DCT ($ 10) for each referral you make.   Steps  💎  Join channel and group  💎  Follow twitter, like and retweet pinned message   💎  Submit eth wallet address (ERC-20) Participate now Airdrop link: https://t.co/L24stp8tVI https://t.co/CVYQyLAWwU",8620,8868
1377983797367468036,"2021-04-02T13:58:33Z","❗️Buying some #SXP here  👉 Join Channel: https:https://t.co/hxXhZMG9vm  $BTC $ETH #NFT $PERL $ENJ $FLOW $THETA #BSC  $REEF $LUNA $SAND $AXS $TVK $HOGE $CHZ $STX $ROSE $TROY $ONE $CERL $IRIS $ANC $ADA $DIA $XRP $DOGE $ATOM $LUNA $ZCX $BNB $WABI $LTO $CVC https://t.co/E0tFUpV1Eb",0,2
1377983796721680387,"2021-04-02T13:58:33Z","RT @StackingUSD: Ethereum  3k $ETH this month. It is simply inevitable...  👉https://t.co/ixc4gvFgMf https://t.co/cGu8EZrh3X",101,16
1377983793974312963,"2021-04-02T13:58:32Z","Happy to see $YFDAI😃  TOP #DeFi Projects by social activity again 🤙  1 April 2021.  One of the best projects I've ever seen.  Day by day they are proving why they are the best❤  Buy #YFDAI and Hold for long-term✊  @YfdaiF #ETH #DeFi https://t.co/Pnc4KfOKEg",164,168
1377983789373255683,"2021-04-02T13:58:31Z","Seriously looking for digital art brokers. Take on the job in the #NFT space today. Minimum 15% commission on sales of works 1 ETH or better.",2,0
1377983787188027405,"2021-04-02T13:58:31Z","$ANKR #ANKR weak hands will panic sell their ANKR and lose money when whales buy their coins cheaper and than pump the price even higher 🚀#BTC #ADA #SFP #ETH #OXT",8,1
1377983782519767042,"2021-04-02T13:58:30Z","@FEGtoken @AltcoinDailyio My Dear $FEG its a no brainer and now we have FegEx where you can buy $BNB or $ETH and wrap it into $FBNB or $FETH and earn more $FBNB= $BNB or $FETH= $ETH by just holding since you get a % of each transaction and that's not all!....There is even more!♥️",35,4
1377983777926955008,"2021-04-02T13:58:29Z","The Kok is dropping hints. $EWT moving to make $ETH green?   @energywebx have built EWZero to offset the environmental impact of mining/PoW using clean energy.  Solve this problem and we'll get more insitutional fomo, who are currently on the sidelines due to ESG requirements. https://t.co/BAfJGBQsyK",183,36
1377983772759625730,"2021-04-02T13:58:27Z","@FEGtoken @AltcoinDailyio $Feg in both bsc and eth chains @FEGtoken with upcoming full functional Fegex multi chain Dex, $feg has lot of potential. FegEx Dex will have almost half the gas prices as Uniswap and pancakeswap.",37,6
1377983771220213765,"2021-04-02T13:58:27Z","I'll send $300 in #ETH or #BTC to one person who retweets this and follows @bud_crypto. Must complete these tasks:  1 - Like/RT his pinned tweet  2 - Must RETWEET &amp; LIKE 4 of his tweets  Ends in 72 hours!",1128,1614
1377983769756459012,"2021-04-02T13:58:27Z","will ETH broke 2k or going to sleep ?",0,0
1377983769290940417,"2021-04-02T13:58:26Z","If #BTC breaks $69,420 in APRIL 2021 I’ll give a random person my R8  Super SIMPLE: Like ✔️ RT ✔️ Follow ✔️ @JBTheCryptoKing  Drop eth addy ✔️ https://t.co/0ZTkU9CUuI",7876,3935
1377983766124105734,"2021-04-02T13:58:26Z","RT @TeddyCleps: if $ETH breaks this range - dinner on me. https://t.co/neQeV5qUB1",590,27
1377983764404441089,"2021-04-02T13:58:25Z","Who doesn't love earning $ETH and $BTC?  Stake your $BLZD and start earning before these pools go away!   ❄️ 3 DAY LEFT ❄️ https://t.co/WESwybSV04",67,15
1377983762739388425,"2021-04-02T13:58:25Z","RT @katieeeeebell: feeling cute, might post an $ETH top signal later https://t.co/mgEMYjjjpE",8380,311
1377983759362965504,"2021-04-02T13:58:24Z","@_NFTs 0xE75a9505Da4b61541313C4fB3619C2b3c04E5750 #NFTs on mintable seller: adeasha,all art under 0.11 #ETH. https://t.co/yzpfFrg7Zw",1,0
1377983758628884480,"2021-04-02T13:58:24Z","Version 1.0 LP pools re-open for 24hrs 🔥  We're re-opening version 1 LP pools for deposits for 24 hrs starting today, April 2 at 2:00pm UTC  $CTF $NFTL https://t.co/rHrtPuvsya",14,5
