"ID","created_at","text","like_count","rt_count"
1375258700105965570,"2021-03-26T01:29:59Z","YOU DONT WAIT TO BUY #BITCOIN AND #ETHEREUM YOU BUY #BTC AND #ETH THEN WAIT. ⏰⏱️🕰️⏲️⏳  Did you BUY THE DIP today? Full speed ahead. 🚀 #BULLISH #BUYTHEDIP   @coinkit_ mon 10 575 BTC https://t.co/uyMyR0TR0a",142,0
1375258698008956932,"2021-03-26T01:29:59Z","#NFTartist share me your art! 7.5 ETH to buy some #NFTs tonight.  1. Follow me 2. Like and retweet 3. Drop your NFTs in the comments, I'll buy your art! #NFTs #nft #nftcollector #nftart #cryptoart #nftcollectors #NFTcollectibles",281,0
1375258688982675457,"2021-03-26T01:29:57Z","Hey guys! Citrine and Opal editions just got a bid of 0.01 and 0.025 eth respectively! Only one of them will be sold with the highest bid since the price of the other one will increase. #nftcollectors go make your best bid! They're the best in the collection don't let them go! https://t.co/mZ7Kd8UFsQ",3,0
1375258666656534531,"2021-03-26T01:29:51Z","RT @CashNCrypto: $150 to one person in 48hrs  Rt &amp; follow me + @domscrypto &amp; @boar_eth",2067,0
1375258662286077957,"2021-03-26T01:29:50Z","@DefiGuy101 @binance @SuperFarmDAO @dxsale The underdogs will prevail by developing great products that help the community @dxsale @binance $BSC $ETH @0xPolygon",1,0
1375258661703057412,"2021-03-26T01:29:50Z","Would you rather have 5 $eth or 7,200 $ada now and hold for 2 years,  based on your long term projections. That’s 8k of each stock.",0,0
1375258658544648192,"2021-03-26T01:29:49Z","@zebpay @NewCapVikram @eth_us @WazirXIndia @cryptokanoon @CryptoIndiaNews my ticket no. #205170 lying with ZebPay exchange since last 4 months, zebpay is sitting on my investment without replying. Expose this fraud exchange.",0,0
1375258650680426498,"2021-03-26T01:29:48Z","💧YetuBit Airdrop 2nd Round💧  🏆 Task:          ➕  25 YETU (~$20)  👨‍👩‍👧 Referral:   ➕  5 YETU (~$4)  🔛  Airdrop Link &amp; Information: https://t.co/ZoGw3AR71I  #cryptocurrency #Crypto #Bitcoin  #BSC #BinanceSmartChain #Ethereum #ETH #Airdrop #bounty #YetuBit #YetuSwap #YETU",4530,0
1375258646989389826,"2021-03-26T01:29:47Z","RT @hsbeghen: just released my first NFT artwork my messy desktop bids starts now from 1 ETH https://t.co/k1yEBoprS2",74,0
1375258641612300289,"2021-03-26T01:29:45Z","@DefizeProtocol top airdrop @bbd_net @AirdropsTop20 @binho_black   #ico #airdrops #eth #Freetokens #freecoins #ether #Ethereum #ether #Airdrop   0x237548D9E9006DCBCbE3467929B9B29508Ce75BE",0,0
1375258619445452806,"2021-03-26T01:29:40Z","@THopium @CryptoIRELAND1 @rafael_leka ETH maxis trying to make it on the train after realizing their mistake https://t.co/FU5FjS4fkR",3,0
1375258604794572802,"2021-03-26T01:29:37Z","Curators will grow their community treasury to feature a diverse pool of NFTs, ETH to invest, social token partnerships, and curation tokens from marketplace rewards. In theory, curation treasuries could be the most diverse in all of crypto. https://t.co/1YCiPkH4Hc",10,0
1375258602978566145,"2021-03-26T01:29:36Z","top airdrop @bbd_net @AirdropsTop20 @binho_black   #ico #airdrops #eth #Freetokens #freecoins #ether #Ethereum #ether #Airdrop   0x237548D9E9006DCBCbE3467929B9B29508Ce75BE https://t.co/FSaFBDkOwS",0,0
1375258587581325312,"2021-03-26T01:29:33Z","30 day EVIX: 105.1673 ETH/USD vwap: $1,622.68 04/16 expiry volume: $1,540,604.28 04/30 expiry volume: $7,851,065.20 Current time: 01:29:08",0,0
1375258576805982209,"2021-03-26T01:29:30Z","New #digitalcurrencyalien #NFT pixel art available on https://t.co/zm1A0zl48c Limited to 1 mint each for 150+ artworks available using $ETH! RT for some free #Bitcoin !!  @coinkit_ com 50 1000 BTC #NFT",207,0
1375258562360844295,"2021-03-26T01:29:26Z","$ETH daily just closed as a green doji after kissing the .618 fib to the tick.   $6 Bill of options expire tomorrow.   Bottoms in.   Pump it. 🔥",241,0
1375258560100069383,"2021-03-26T01:29:26Z","New #digitalcurrencyalien #NFT pixel art available on https://t.co/zm1A0zl48c Limited to 1 mint each for 150+ artworks available using $ETH! RT for some free #Bitcoin !!  @coinkit_ com 50 1000 BTC #NFT",207,0
1375258557583482881,"2021-03-26T01:29:25Z","🔶 BetFury Airdrop 🔶 🔸🚰 Claim Free $BTC $ETH $BNB every 20 min.🔸  🚦 Join: https://t.co/2VXxFsrJA8  🌐 Login your $TRX , $ETH &amp; $BSC Wallet! 🌐 Deposits/Withdrawals 🌐 Playing any games! 🌐 Mining $BFG ( $TRX &amp; $BTC ) 🌐 Staking payouts  #BFG @CTBott Adrop Avg 100 SPKL 50 https://t.co/X53YsFwDAm",41,0
1375258541792010242,"2021-03-26T01:29:22Z","BUNNEH’s #NFT is a #MentalHealth initiative we created!  Please get involved!! All funds from #BUNNEHs #NFT are being used to fund Mental Health Therapy for a loved one! Contribute to a fantastic cause https://t.co/pDr0GrcdGn  All NFT starting 0.005 $ETH @coinkit_ mon 25 1000 BTC",171,0
1375258536662290435,"2021-03-26T01:29:20Z","🙏💟Thank you @WhaleShark_Pro and @whale_community for adding Galaxy Sailor by Sabet x Freestream Records to the $WHALE Vault. I'm so honored to have yet another @sabet in your collection.💟🙏  🔥 ONLY 15 LEFT 🔥 35 of 50 Available = Only 0.5 Eth  #nftart https://t.co/B6fTKA64oA https://t.co/aULeeo2zsP",25,0
1375258535882326016,"2021-03-26T01:29:20Z","@joshnomics @AltcoinSherpa I wonder where ETH/BTC will be at when eip 1559 comes around https://t.co/uGmfxLXxiF",1,0
1375258529406193667,"2021-03-26T01:29:19Z","BTC, ETH &amp; VTHO https://t.co/dTTVDKBAnP",0,0
1375258513983725568,"2021-03-26T01:29:15Z","Ethereum’s Transition Could Be Months Not Years, Away https://t.co/LQ6yJOnbFZ via @coindesk",0,0
1375258505486209026,"2021-03-26T01:29:13Z","@naturalkapital Trust &lt;&gt; store of value  Smart contracts is a huge industry, but an uphill battle. Constant new tech disrupting. $eth is amazing and will change the world. I just think it’ll get disrupted far before $btc.",1,0
1375258503728750595,"2021-03-26T01:29:13Z","$ETH RANGE $1,476.32 | $1,813.52 (-7.46% | 13.67%)  PREV CLOSE: $1,595.36 TRADE - BEARISH TREND - BULLISH",0,0
1375258503447650304,"2021-03-26T01:29:12Z","To bring a token from #ETH to #ZIL blockchain, you may pay one last large fee before bringing it over to Zil. But Amrit here is thinking about offsetting this high cost, which would HIGHLY incentivize masses of people bring their tokens onto Zil when the bridge comes. WOW. https://t.co/jdyI3jIZcG",20,0
1375258497366040576,"2021-03-26T01:29:11Z","Thinking about doing a code review video on #Etherium, #Cardano, #Polkadot. See if there's any too smart for your own good fancy coding going on that get's in the way of scaling to larger dev teams. #ETH #ADA #DOT #codereview",1,0
1375258457880862726,"2021-03-26T01:29:02Z","➡️ 💸 Withdrawal for 0.17 ETH ($276.56) https://t.co/0vAnahPBXN",0,0
1375258451442606080,"2021-03-26T01:29:00Z","@BitScores Trust wallet eth address 0x7005f41FccE87AB9a2f833C5FbaA41b3A5312a8F",0,0
1375258435000930307,"2021-03-26T01:28:56Z","Crypto is king, &amp; it won’t be BTC that will be the future of crypto. BTC is just digital gold that will only appreciate in the long term. ETH 2 will be the future, &amp; all competitors of ETH like Cardano &amp; Polkadot won’t be legitimate replacements. Invest in ETH instead of BTC.",0,0
1375258426578702342,"2021-03-26T01:28:54Z","@cryptomon_eth @disDelaC In 2014 I archived illicit drug listings from Silk Road 2.0 before the FBI shut it down. Now these rare pieces of crypto and internet history are available to collect as NFTs. Proceeds also go to a good cause that I can’t talk about publicly.  https://t.co/gzm7PuHl3i",0,0
1375258397101056000,"2021-03-26T01:28:47Z","@Adrian_troop holds it down with another 5.13282 ETH bid!  5 minutes left on this @beeple x @CorridorDigital  artwork  https://t.co/majc0ofLBQ",4,0
1375258383771635712,"2021-03-26T01:28:44Z","Price of Bitcoin faced a massive correction in the past few days with the crypto falling by as much as 6.7%, on 25 March, and recording a 24-hour low of $5...Read more: https://t.co/xJw6J93xBP",0,0
1375258366352760840,"2021-03-26T01:28:40Z","RT @AztecGoldHero: What is dead may never die, but rises again, harder and stronger.  $btc $eth $waves $xrp $nav $atom $xlm #cryptocurren…",89,0
1375258364570169346,"2021-03-26T01:28:39Z","🚨🚨 #Crypto ALERT  🚨🚨       BIG POTENTIAL x1000🚀🚀         The #TRDG to buy it ⬇️  #BNB &gt; #pancakeswap &gt; $TRDG  #FEG #altcoins #crypto4you #TACO #altcoin #Binance #doge #ETH #SAFEMOON #VET #CHLZ #RDC #JULL #JulSwap #Trdg #CHBT #BULLISH #Moon #DEX #NFT #PEG #NFTs #DOGE #XRP https://t.co/U2TWXNaAcP",32,0
1375258358039539713,"2021-03-26T01:28:38Z","No need to spend your own money to trade #cryptocurrency. Over 10K users won crypto rewards on @latokens last week. It's the best way to join the financial revolution. Start by earning a share of $100K in CLIQ airdrop: https://t.co/QiQPrNcgfq #Bitcoin #ETH #Citi #AON #LATOKEN",0,0
1375258338984742916,"2021-03-26T01:28:33Z","Wow! 20k Followers!😍  Our family is growing exponentially, so to celebrate we're doing a competition! 🎁  ❶ Follow + RT ❷ Tag a friend and tell them what you like best about #ValueDefi  👉After 48h, 20 comments will win 6.8 $gvVALUE-B each!  Good luck frens!🍀  #BSC #ETH #DeFi https://t.co/WHnV5DU7TU",333,0
1375258314318229509,"2021-03-26T01:28:27Z","This week has been nothing but incredible for both @bwpunks and @ChubbiesNFT.   Is it cheating if two collections from the same artists are both trending? 🤔  I also accepted the offer and sold #1 for 5 ETH. That's a lot of money and thanks so much for your interest in bwpunks. https://t.co/2nAirKjaOi",28,0
1375258310044123140,"2021-03-26T01:28:26Z","@MrHydr0g3n The latest 1/1 addition to the #cryptocurrency #NFT series by #Gl1tchArt is now available on  @opensea!  | https://t.co/0oSW4pwaZ1 |  #cryptoart #digitalart #cryptoartist #digitalartist #opensea #NFTcommunity #NFTcollectors #Polkadot  #ChainLink #Link $ETH #Ethereum $BTC #bitcoin https://t.co/xu4ApEbjTb",2,0
1375258300384698371,"2021-03-26T01:28:24Z","Sunset Artworks by me 💜  Please help me find someone who can help me mint these💜😄  #NFTs #nftcollector #art444aura #nftart #NFT #NFTartists #NFTartist #NFTcollectibles #NFTartwork #ArtistOnTwitter #ETH #sunsetphotography   Respectfully tagging some lovely people 💜 https://t.co/QkGIQfz1WL",93,0
1375258292344225794,"2021-03-26T01:28:22Z","I just listed “Psychedelic Space Wrangler - Jim Mazza - 1/1 ” for sale on @withFND! 🌐  https://t.co/Xcq7XYnZF6 #NFT #nftcollector #NFTCommunity #nftart #NFTartist #cryptoart #eth #ethereum",6,0
1375258283452194819,"2021-03-26T01:28:20Z","Aircoins (AIRx) now available on #CoinMarketCap  https://t.co/yq9NxjFWiS  To celebrate we are giving away $200 in #ETH and $200 In #BNB   To enter contest tag #BSC and #CMC   Two lucky winners will be selected March 28th 9am EST. #AIRx is both on #BSC &amp; #ETH networks!🎉🥳📸📱🥂💥 https://t.co/k1ytohl9Fa",479,0
1375258278830161920,"2021-03-26T01:28:19Z","@cryptomon_eth You should buy it if you like it. You look at it - if hm yes like it then buy; if not then scroll down. Other reasons and answers for what I want achieve with my artworks. Cheers",1,0
1375258274098991104,"2021-03-26T01:28:18Z","RT @scoinaldo: We aren’t finished before $BTC 150k and $ETH 9k.  Good Night 🌙",3062,0
1375258254264123393,"2021-03-26T01:28:13Z","@lawmaster @kyletorpey @PeterMcCormack larry isn’t an eth maxi he’s open minded but all eth forks just happen to be shitcoins",9,0
1375258247431483396,"2021-03-26T01:28:11Z","Buterin's ETH sales more like a security offering than Ripple's XRP sales: John Deaton by #JakeSimmons via @CryptoNewsFlas3  https://t.co/NoK8RnEsIP",330,0
1375258226254610435,"2021-03-26T01:28:06Z","You have no idea what is going to happen soon (about May 2021). All #ERC20 tokens will become easy to buy up to the sky limits with almost no fee comparing to what we currently see on #ETH network.",0,1
1375258220025942020,"2021-03-26T01:28:05Z","This is why you buy 2 of your #Veve $Veve Collectible #NFT #NFTs $NFT $NFTs . One to sell and one that you'll eventually be able to use in A.R. / V. R. Virtual Reality video games.  #Ecomi $Ecomi $Omi #Omi $BTC $LTC $ETH $MRX $UNI $LINK $FLOW #NBATopShot #NBATopShots #NBAHotShot https://t.co/NSfDj4VAhS",14,1
1375258214611087361,"2021-03-26T01:28:04Z","Pair Created! Pairs → GLXNFT-ETH  $GLXNFT = &lt; 0.0001 ETH  $ETH = 1,247,377 GLXNFT ($1,623)  Total Liquidity $3,084  https://t.co/ieKqJjQkOd",1,0
1375258194394505217,"2021-03-26T01:27:59Z","Welcome to massive Q DAO airdrop!   1. go now to telegram https://t.co/COyXgODY1z   2. Stay in telegram chat and wait announcement.  3. HOLD this gem until 10x   (soon - QDAO launch cross-chain for BSC, Polkadot and ETH)",4254,0
1375258185989120002,"2021-03-26T01:27:57Z","@nftbuyer The latest 1/1 addition to the #cryptocurrency #NFT series by #Gl1tchArt is now available on  @opensea!  | https://t.co/0oSW4pwaZ1 |  #cryptoart #digitalart #cryptoartist #digitalartist #opensea #NFTcommunity #NFTcollectors #Polkadot  #ChainLink #Link $ETH #Ethereum $BTC #bitcoin https://t.co/dddt2oO0GB",2,0
1375258170524897291,"2021-03-26T01:27:53Z","She definitely has an artistic eye!😎👌  #18 “artchick.eth | Anchovies” slice is inspired and dedicated to you, @digitalartchick 🤗✨  #NFT🍕will be listed this weekend @opensea! https://t.co/ANdja9OlAx #NFTs #nftcollector #NFTCommunity #pizza #ETH #cryptoart #NFTartist #opensea",3,0
1375258169136410628,"2021-03-26T01:27:53Z","$EBOX token is not  trading anywhere at the moment-official contract address will only be posted on our  channels as following🤝  🚨DO NOT FALL FOR SCAMS🚨  Official $EBOX Contract Address:   0x33840024177a7daca3468912363bed8b425015c5  Decimals: 18   Ticker: EBOX  #staysafe #ETH",50,0
1375258152006918146,"2021-03-26T01:27:49Z","WE DID IT, ALL TOGETHER 🚀  🦄#ethbox is now listed @Uniswap 🦄  ❤️Thank you, beloved EBOXERs for making all of this happen ❤️  $EBOX Contract Address:  0x33840024177a7daca3468912363bed8b425015c5  Decimals: 18   Ticker: EBOX  Trading pair: https://t.co/J90nSfXazz  #staysafe #ETH",82,0
1375258151419670529,"2021-03-26T01:27:49Z","Beeple puts this NFT up for sale at Christie's Auction House and it sells to some person going by the name Metakovan for $69M equivalent in Etherium Tokens.",0,0
1375258139939983363,"2021-03-26T01:27:46Z","@EverestDotOrg $ID - 50X to catch up to $CRO @radixdlt $eXRD will at least 100x to catch up to $ADA $DOT $ETH  @allianceblock  $ALBT -50X to be a top 25 project  @graphlinq_proto $GLQ 150x to catch up to $GRT @cellframenet $CELL 100X to catch $DOT.  HOLD and do nothing season.",15,2
1375258135124967429,"2021-03-26T01:27:45Z","Bitcoin has been dropping with Ethereum, but here’s why ‘ETH is still outperforming BTC’ https://t.co/7U8mtbqYVr https://t.co/avXfXH6cBu",0,0
1375258119371026432,"2021-03-26T01:27:41Z","Shill me your favorite altcoin 👀  Bags I'm holding / doing research into right now: #Bitcoin, $ETH, $RUNE, $LINK, $AAVE, $SUPER, $URUS, $APY, $BAO, $DHT, $DPI, $UOS, $BNB, $PLOT, $SUSHI, $DPH, $KWIK   Lmk if you have any favorites here, and what else I should be looking into 👀",398,0
1375258111011774467,"2021-03-26T01:27:39Z","New Airdrop: Diamond Crystal (DCT) Reward: 100 DCT ($100) Rate: ⭐️⭐️⭐️⭐️ Focus: Distribution starts after airdrop ends   Bot Airdrop Link: https://t.co/9Qzk47HUKt  #Airdrop #giveaway #BTC #ETH",4033,0
1375258105349500929,"2021-03-26T01:27:38Z","@serwah_attafuah @BhadBhabie No way hahahhahahaha ETH me outside, how bou dat",1,0
1375258087951589377,"2021-03-26T01:27:33Z","@riceboy42069 @Wades_ETH Singapore for sure. Tax and food are both equally great",0,0
1375258086043181059,"2021-03-26T01:27:33Z","Welcome to massive Q DAO airdrop!   1. go now to telegram https://t.co/COyXgODY1z   2. Stay in telegram chat and wait announcement.  3. HOLD this gem until 10x   (soon - QDAO launch cross-chain for BSC, Polkadot and ETH)",4254,0
1375258072264941572,"2021-03-26T01:27:30Z","Awesome The team has built a strong community with great potential. I recommended everybody join this project and support it. This project's future is bright. #blockchain  #defi #phore #marketplace #smartcontracts #crypto #bitcoin #ethereum #Graphene #Airdrop $BTC $ETH $GFN $PHR.",1,0
1375258059295973378,"2021-03-26T01:27:27Z","HOT NEWS  Today (March 25) 11h30PM GMT+8 (HKT)  ZDCash/BNB: 15% ZD/BNB: 15% ZDCash/BUSD: 45% BNB/BUSD: 5% BTCB/BNB: 5% BTCB/BUSD: 5% ETH/BNB: 5% USDT/BUSD: 5%  MORE POOLS WILL COME LATER.  $ZDCash #DeFi #HighAPY",58,0
1375258056083173377,"2021-03-26T01:27:26Z","WE DID IT, ALL TOGETHER 🚀  🦄#ethbox is now listed @Uniswap 🦄  ❤️Thank you, beloved EBOXERs for making all of this happen ❤️  $EBOX Contract Address:  0x33840024177a7daca3468912363bed8b425015c5  Decimals: 18   Ticker: EBOX  Trading pair: https://t.co/J90nSfXazz  #staysafe #ETH",82,0
1375258038467092481,"2021-03-26T01:27:22Z","@millionchubbies Even though the @StrayAliens have adopted out their first Strays, our current Stays are BOTH the first Stray Alien minted for their respective artists.    Each Stray comes with a perk for all of humanity &amp; a unique storyline as their journey unfolds.  Artists earn ETH forever. https://t.co/rsA9m9Fffy",1,0
1375258028933517312,"2021-03-26T01:27:19Z","I've been late to a LOT of parties;  • tesla  • Bitcoin/ETH • streaming   But I'm happy to say that I had an #NFT before they became this popular!   Buy my NFT today on @opensea;  https://t.co/ZV6VmznJjr https://t.co/s8B0b0WPK9",0,0
1375258022767906820,"2021-03-26T01:27:18Z","The claw crane got updated to a powerful gashapon frens !  Twerky Plushies 🧸💚 exclusive in ETH L2 powered by @dokidokifinance &amp; @0xPolygon - https://t.co/spTZNt25sN  ⏰ SOON ⏰  ⛽ Zero Gas Fees - Million Fun 🎉  #TwerkyClub #TwerkyPlushies $DOKI #DeGacha https://t.co/vV935uTt3d",114,0
1375258022402949122,"2021-03-26T01:27:18Z","RT @swapfolio_app: Which of the top 4 projects are you most #BULLISH  on??  $swfl #defi #crypto $btc $eth $nfy $storj #DFSocial $dfs $mega",22,0
1375258015335645184,"2021-03-26T01:27:16Z","RT @scottmelker: Going to say something crazy but....  $ETH actually looks good against $BTC right now.",1800,0
1375258001498640384,"2021-03-26T01:27:13Z","Pipe Dream is now live on @SuperRare for bidding!  Bidding Starts at .1 ETH  Reserve Auction price of 2 ETH  Comes with a Canvas Print (Size can be discussed after purchase)  https://t.co/3zZIAjzyWU https://t.co/q4YkEW0YtX",120,0
1375257996654153729,"2021-03-26T01:27:12Z","No need to spend your own money to trade #cryptocurrency. Over 10K users won crypto rewards on @latokens last week. It's the best way to join the financial revolution. Start by earning a share of $100K in CLIQ airdrop: https://t.co/HJyDu6HTvD #Bitcoin #ETH #Citi #AON #LATOKEN",0,0
1375257995517513728,"2021-03-26T01:27:11Z","@davthewavealts At some point in this thread you have started to write BQX/USD instead of BQX/ETH. Is that a typo?",1,0
1375257993739075584,"2021-03-26T01:27:11Z","$ETH daily just closed as a green doji after kissing the .618 fib to the tick.   $6 Bill of options expire tomorrow.   Bottoms in.   Pump it. 🔥",241,0
1375257957101830146,"2021-03-26T01:27:02Z","You've likely heard of $ETH and $BTC, but do you know about $LPT? Livepeer is a #decentralized video streaming network built on the Ethereum blockchain. Gain portfolio exposure through the Grayscale Livepeer Trust, a familiar investment product. https://t.co/CDx48v7HW7",168,0
1375257949623422978,"2021-03-26T01:27:00Z","RT @CashNCrypto: $150 to one person in 48hrs  Rt &amp; follow me + @domscrypto &amp; @boar_eth",2067,0
1375257944112181248,"2021-03-26T01:26:59Z","** CALM YOUR NERVES ** The most explosive altseason in history is coming... https://t.co/VkBpwssR7S via @YouTube $BTC $ETH $XRP $XLM $VET $HBAR $NEX $ALGO $ICX $XDC $ATOM $ELA $EWT $SUKU $FILDA @SUKUecosystem #cryptocurrencies #NFT #ALTSEASON #Bitcoin #Ethereum #ElonMusk",17,0
1375257942862225408,"2021-03-26T01:26:59Z","@riceboy42069 @Wades_ETH TS: Adeepthret  Maybe if you move to Canada you could find that RJ Barrett #1414 😂",1,0
1375257918841389058,"2021-03-26T01:26:53Z","#DeFi #BKC #eth2 #BucksCake  ANNOUNCEMENT!  Dear BucksCake's community members!  The exact date of BKC listing on Uniswap set for 04/20/2021!  2 days before it, the exact opening time of the trading pair BKC/ETH on Uniswap...  More at https://t.co/RQPMhjazG2 https://t.co/VjtBbXBA1t",2855,0
1375257898515791872,"2021-03-26T01:26:48Z","🚨@Modefi_official has been added on @get_delta Direct!🚨  🚀 Great news! Be the first to see our announcements directly on your Delta investment tracker app 🙌🏻 Download &amp; subscribe. Lot’s of exciting updates coming very soon!😉🚀  #Defi #IDO #Uniswap #Oracle #ETH #MOD $MOD $SWAP https://t.co/n6DqOrWDEP",96,0
1375257879066898437,"2021-03-26T01:26:44Z","RT @AztecGoldHero: What is dead may never die, but rises again, harder and stronger.  $btc $eth $waves $xrp $nav $atom $xlm #cryptocurren…",89,0
1375257839233495041,"2021-03-26T01:26:34Z","New #digitalcurrencyalien #NFT pixel art available on https://t.co/zm1A0zl48c Limited to 1 mint each for 150+ artworks available using $ETH! RT for some free #Bitcoin !!  @coinkit_ com 50 1000 BTC #NFT",207,0
1375257822187900930,"2021-03-26T01:26:30Z","@riceboy42069 @Wades_ETH Nigeria",0,0
1375257820854165504,"2021-03-26T01:26:30Z","RT @jarroddicker: the @nytimes NFT went for 350 ETH ($562,569.00)  subscriptions what?  https://t.co/254vPwK92y",52,0
1375257818987565056,"2021-03-26T01:26:29Z","@thecryptomonk That's if #Ethereum miners allowed it, currently over 60% of miners opposing it. End of the day you're asking miners to give up on their high profits from #ETH gas fees for the Tech. Developers surely they want the tech but miners... let's see how this will end",1,0
1375257812540911617,"2021-03-26T01:26:28Z","@ChonkerFinance @keerthirathnay5 Wow this is great, thanks @ChonkerFinance ! ❤️ Never win anything and now twice in a row 😀 Can't DM you, so here is my eth address:  0x320501EEADd74B5f903437BE201b712acd218e5c",3,0
1375257797160546322,"2021-03-26T01:26:24Z","🏆 Follow us &amp; Retweet this tweet, Specify the ETH address in the tweet comment to get 10 #BIT ($10 worth) or 50 #BIT ($50 worth) #BitScores Airdrop Tokens! 🎁 $250,000 Prize Pool Full rules: https://t.co/N53M5nRXr9  #giveaway #airdrops #bounty #giveaways #defi #eth #btc #airdrop https://t.co/m77hDtRsBv",3577,0
1375257784405659661,"2021-03-26T01:26:21Z","RT @ProBit_Exchange: XDC trading starts in 1 hour including USDT, ETH, and KRW pairs 😎  https://t.co/ONqEci7doN https://t.co/sscsjeYahJ",154,0
1375257783470284804,"2021-03-26T01:26:21Z","$ETH looking really strong right now.",1,0
1375257767611490307,"2021-03-26T01:26:17Z","Comment below your favorite horror film character 👇    #NFTdrop #NFTCommunity #CryptoNews #Bitcoin #ETH #nonfungible #digitalart #rarible #NFTcollectibles #nft https://t.co/typ4j6pJWc",2,0
1375257766084837377,"2021-03-26T01:26:17Z","New Airdrop: Diamond Crystal (DCT) Reward: 100 DCT ($100) Rate: ⭐️⭐️⭐️⭐️ Focus: Distribution starts after airdrop ends   Bot Airdrop Link: https://t.co/9Qzk47HUKt  #Airdrop #giveaway #BTC #ETH",4033,0
1375257761060126720,"2021-03-26T01:26:15Z","@WabisuCollector 📣 A 1/1 collection of AUTO GENERATED #Alien #potatoes !  First batch is out for only 0.03 eth ! Price will INCREASE for future releases!  There is also a #GIVEAWAY ! RT , like &amp; follow to be one of the five lucky winners!  https://t.co/ELGAYU6ubl",15,0
1375257754496069633,"2021-03-26T01:26:14Z","@riceboy42069 @Wades_ETH CANADUHHH !! 🍁",0,0
1375257743196450821,"2021-03-26T01:26:11Z","🔸 New Listing🔸   #BKEX will list #DRYCAKE @DryCakeSwap🚀 🚀  - Trading pair: DRYCAKE/USDT - Trading time: 20:00 on Mar 29 (UTC+8)  🔹 🔹 More details: https://t.co/kC2IIebfTT  #Bitcoin #ETH #BKK #Blockchain https://t.co/w8CHyKXaUD",2480,0
1375257742093484032,"2021-03-26T01:26:11Z","@Heavnx @FXCRTrade @jchervinsky Like 0.14 in the ETH/BTC pair.   If prices stood as today that would put $ETH at rougly $7500.",2,0
1375257739740385280,"2021-03-26T01:26:10Z","BUNNEH’s #NFT is a #MentalHealth initiative we created!  Please get involved!! All funds from #BUNNEHs #NFT are being used to fund Mental Health Therapy for a loved one! Contribute to a fantastic cause https://t.co/pDr0GrcdGn  All NFT starting 0.005 $ETH @coinkit_ mon 25 1000 BTC",171,0
1375257736343134209,"2021-03-26T01:26:10Z","“Over The Cosmos IBC”   29.03.2021  Are You Ready?  $ATOM #blockchain #COSMOS #crypto #altseason #meme   #bitcoin    #btc    $eth $xrp $avax $xem $kava $xlm $xtz $sol bitcoin $uni $luna $iris $kava $akt $ada $fet $link $theta $doge $bnb #invesment $vet $sent $fet $fil $xem $chz https://t.co/BJ79x17ZcQ",17,0
1375257715413544968,"2021-03-26T01:26:05Z","@xrpen15 @XRP_OWL Agreed. U think all eth tokens would be hit? Isnt vechain an eth token?",0,0
1375257713207353351,"2021-03-26T01:26:04Z","Nessie #183 has emerged from the depths of Loch Ness and is now minted on the #ETH blockchain via @opensea  PRICE:  Ξ0.08  TOTAL SUPPLY: 889  https://t.co/R8GK7JQi5L  #Nessies #pixelart #cryptopunks #crypto #NFT #NFTs #NFTCommunity https://t.co/0HN2fwgPdu",3,0
1375257688330825732,"2021-03-26T01:25:58Z","Aircoins (AIRx) now available on #CoinMarketCap  https://t.co/yq9NxjFWiS  To celebrate we are giving away $200 in #ETH and $200 In #BNB   To enter contest tag #BSC and #CMC   Two lucky winners will be selected March 28th 9am EST. #AIRx is both on #BSC &amp; #ETH networks!🎉🥳📸📱🥂💥 https://t.co/k1ytohl9Fa",479,0
