"ID","created_at","text","like_count","rt_count"
1377878460882894851,"2021-04-02T06:59:59Z","If #BTC breaks $69,420 in APRIL 2021 I’ll give a random person my R8  Super SIMPLE: Like ✔️ RT ✔️ Follow ✔️ @JBTheCryptoKing  Drop eth addy ✔️ https://t.co/0ZTkU9CUuI",7875,3934
1377878458966159360,"2021-04-02T06:59:59Z","First DPI, now $DRC!  $FARM has been listed in @DRCToken's s3 Vault, alongside $MPH and $ETH.  $DRC, like $FARM and $MPH, is a completely fair launched token, driven by community and the sole key to their project's DeFi ecosystem.   https://t.co/trKjY3z9CL  🚜 🛹 🧬 https://t.co/Bg2PUIhAca",69,35
1377878457590427652,"2021-04-02T06:59:58Z","400k $ETH flowed out from Coinbase a few days ago.   Speculative guess, institutions are now buying $ETH.  https://t.co/ix1AV5IFOm https://t.co/cYaaHkBgFf",2952,547
1377878455732334593,"2021-04-02T06:59:58Z","RT @Mrbankstips: #ETH also hit $2000! April is going to be a wonderful month for Crypto 💥",212,44
1377878454041899010,"2021-04-02T06:59:57Z","RT @flurtft: 💜 $200 in $ETH to someone who retweets this 💜 #Ethereum #ETH #giveaway",3114,6140
1377878450166398983,"2021-04-02T06:59:56Z","RT @flurtft: 💜 $200 in $ETH to someone who retweets this 💜 #Ethereum #ETH #giveaway",3114,6140
1377878449931476993,"2021-04-02T06:59:56Z","RT @flurtft: 💜 $200 in $ETH to someone who retweets this 💜 #Ethereum #ETH #giveaway",3114,6140
1377878445942657024,"2021-04-02T06:59:55Z","Don't be a fool this April 1st Get in on our...  🚀Pre-sale in April #giveaways! 🌟20 x (100 #POPO) (worth$100)random winners   ✅RT and like this Tweet ✅TAG 3 Friends ✅Comment with Link and #ETH Wallet address #POPO #Poplink 🚀🚀🚀 https://t.co/PZv72o1Mxx",1028,810
1377878441811267586,"2021-04-02T06:59:54Z","YFII!! Full send!! Again a Beautiful call🚀🚀🤑🤑  👉 Join Channel: https:https://t.co/Gk8w4YXyrX  $BTC $ETH #NFT $PERL $ENJ $FLOW $THETA #BSC  $REEF $LUNA $SAND $AXS $TVK $HOGE $CHZ $STX $ROSE $TROY $ONE $CERL $IRIS $ANC $ADA $DIA $XRP $DOGE $ATOM $LUNA $ZCX $BNB $WABI $LTO $CVC https://t.co/n1pavE7sXl",3,0
1377878440318238720,"2021-04-02T06:59:54Z","@RyanSAdams What's the supply of ETH?",2,0
1377878439416500226,"2021-04-02T06:59:54Z","📈Market Overview  $BTC price trades below $60K.  Top 10 are traded in the green zone: $BNB +15%, $LTC +4.5% and $ETH +4.1%  Market cap:  $1.98T (+2.2%) $BTC dominance:  56.54% (-0.8%) Fear &amp; Greed Index: 74 (Greed)  Full Report👉https://t.co/kEv2Sp36m6 https://t.co/ypOMp9i9rh",34,8
1377878437440929794,"2021-04-02T06:59:53Z","Current #SwipeSwap Liquidity Provider APY rates:  On #BSC: 104% $SXP-#BUSD  65% $SXP-#BNB  91% $SXP-#BTC  21% $USDT-#BUSD  95% $BTC-#BNB  87% $XVS-#BNB 74% $BNB-#BUSD 116% $BNB-#VAI 77% $ETH-#BNB 161% $DOT-#BNB 91% $ADA-#BNB 187% $TWT-#BNB  Get started 👉 https://t.co/i2uw3BGQZQ",645,117
1377878437382168577,"2021-04-02T06:59:53Z","RT @flurtft: 💜 $200 in $ETH to someone who retweets this 💜 #Ethereum #ETH #giveaway",3114,6140
1377878434722947077,"2021-04-02T06:59:53Z","Don't be a fool this April 1st Get in on our...  🚀Pre-sale in April #giveaways! 🌟20 x (100 #POPO) (worth$100)random winners   ✅RT and like this Tweet ✅TAG 3 Friends ✅Comment with Link and #ETH Wallet address #POPO #Poplink 🚀🚀🚀 https://t.co/PZv72o1Mxx",1028,810
1377878432206319618,"2021-04-02T06:59:52Z","RT @flurtft: 💜 $200 in $ETH to someone who retweets this 💜 #Ethereum #ETH #giveaway",3114,6140
1377878432168636416,"2021-04-02T06:59:52Z","RT @flurtft: 💜 $200 in $ETH to someone who retweets this 💜 #Ethereum #ETH #giveaway",3114,6140
1377878428943331329,"2021-04-02T06:59:51Z","RT @Mrbankstips: #ETH also hit $2000! April is going to be a wonderful month for Crypto 💥",212,44
1377878428515409923,"2021-04-02T06:59:51Z","RT @flurtft: 💜 $200 in $ETH to someone who retweets this 💜 #Ethereum #ETH #giveaway",3114,6140
1377878428205072386,"2021-04-02T06:59:51Z","RT @JRNYcrypto: $60k #Bitcoin and $2k $ETH 👀",1935,149
1377878427462606850,"2021-04-02T06:59:51Z","RT @flurtft: 💜 $200 in $ETH to someone who retweets this 💜 #Ethereum #ETH #giveaway",3114,6140
1377878420596604930,"2021-04-02T06:59:49Z","RT @Mrbankstips: #ETH also hit $2000! April is going to be a wonderful month for Crypto 💥",212,44
1377878415211044864,"2021-04-02T06:59:48Z","💧Twinci Airdrop 💧  🏆 Task:          ➕ $15 worth of  TRX                              ➕ $50 worth of TWIN  🔛 Airdrop Link &amp; Information: https://t.co/aV7t49dRDX  #cryptocurrency #Crypto #Bitcoin #Ethereum #ETH #Twinci #TWIN",1336,1777
1377878407808094208,"2021-04-02T06:59:46Z","RT @flurtft: 💜 $200 in $ETH to someone who retweets this 💜 #Ethereum #ETH #giveaway",3114,6140
1377878406239563778,"2021-04-02T06:59:46Z","If #BTC breaks $69,420 in APRIL 2021 I’ll give a random person my R8  Super SIMPLE: Like ✔️ RT ✔️ Follow ✔️ @JBTheCryptoKing  Drop eth addy ✔️ https://t.co/0ZTkU9CUuI",7875,3934
1377878403123191809,"2021-04-02T06:59:45Z","RT @MessariCrypto: ETH miners are seeing a 50% increase in revenue when compared to the height of 2017 https://t.co/qESZOueslC",123,24
1377878394998681602,"2021-04-02T06:59:43Z","RT @flurtft: 💜 $200 in $ETH to someone who retweets this 💜 #Ethereum #ETH #giveaway",3114,6140
1377878392347918342,"2021-04-02T06:59:43Z","RT @flurtft: 💜 $200 in $ETH to someone who retweets this 💜 #Ethereum #ETH #giveaway",3114,6140
1377878391806775297,"2021-04-02T06:59:43Z","RT @flurtft: 💜 $200 in $ETH to someone who retweets this 💜 #Ethereum #ETH #giveaway",3114,6140
1377878391802712073,"2021-04-02T06:59:43Z","I can’t see $ETH stopping here. Straight to $2500",1,0
1377878388808019969,"2021-04-02T06:59:42Z","If #BTC breaks $69,420 in APRIL 2021 I’ll give a random person my R8  Super SIMPLE: Like ✔️ RT ✔️ Follow ✔️ @JBTheCryptoKing  Drop eth addy ✔️ https://t.co/0ZTkU9CUuI",7875,3934
1377878388795305985,"2021-04-02T06:59:42Z","RT @flurtft: 💜 $200 in $ETH to someone who retweets this 💜 #Ethereum #ETH #giveaway",3114,6140
1377878387251838978,"2021-04-02T06:59:41Z","RT @flurtft: 💜 $200 in $ETH to someone who retweets this 💜 #Ethereum #ETH #giveaway",3114,6140
1377878386715021312,"2021-04-02T06:59:41Z","RT @Mrbankstips: #ETH also hit $2000! April is going to be a wonderful month for Crypto 💥",212,44
1377878386186444800,"2021-04-02T06:59:41Z","RT @flurtft: 💜 $200 in $ETH to someone who retweets this 💜 #Ethereum #ETH #giveaway",3114,6140
1377878385754398721,"2021-04-02T06:59:41Z","RT @flurtft: 💜 $200 in $ETH to someone who retweets this 💜 #Ethereum #ETH #giveaway",3114,6140
1377878384076713986,"2021-04-02T06:59:41Z","RT @flurtft: 💜 $200 in $ETH to someone who retweets this 💜 #Ethereum #ETH #giveaway",3114,6140
1377878381774180354,"2021-04-02T06:59:40Z","When $BTC is scarce and $ETH relatively cheap. This is what happens. https://t.co/v3T05NYNgP",12,0
1377878379966291968,"2021-04-02T06:59:40Z","RT @flurtft: 💜 $200 in $ETH to someone who retweets this 💜 #Ethereum #ETH #giveaway",3114,6140
1377878377801998341,"2021-04-02T06:59:39Z","#NFTs on #Rewardiqa coming soon ! 🔥🚀🚀🚀👨‍🎨 #NFTCommunity  #nftcollector #NFTdrop #NFTGiveaway #REW #DeFi #BSCPAD #eth #btc #opensea #marketplace #bullrun #BinanceSmartChain https://t.co/Bo1M9Pox2L",820,756
1377878375478538241,"2021-04-02T06:59:39Z","RT @Mrbankstips: #ETH also hit $2000! April is going to be a wonderful month for Crypto 💥",212,44
1377878369732194306,"2021-04-02T06:59:37Z","RT @flurtft: 💜 $200 in $ETH to someone who retweets this 💜 #Ethereum #ETH #giveaway",3114,6140
1377878365646905344,"2021-04-02T06:59:36Z","RT @flurtft: 💜 $200 in $ETH to someone who retweets this 💜 #Ethereum #ETH #giveaway",3114,6140
1377878361880547329,"2021-04-02T06:59:35Z","RT @flurtft: 💜 $200 in $ETH to someone who retweets this 💜 #Ethereum #ETH #giveaway",3114,6140
1377878359095451649,"2021-04-02T06:59:35Z","RT @flurtft: 💜 $200 in $ETH to someone who retweets this 💜 #Ethereum #ETH #giveaway",3114,6140
1377878353839988740,"2021-04-02T06:59:33Z","RT @flurtft: 💜 $200 in $ETH to someone who retweets this 💜 #Ethereum #ETH #giveaway",3114,6140
1377878353630400513,"2021-04-02T06:59:33Z","RT @flurtft: 💜 $200 in $ETH to someone who retweets this 💜 #Ethereum #ETH #giveaway",3114,6140
1377878352699265028,"2021-04-02T06:59:33Z","$ADA $ALGO $ATOM $BNB $BTC $DOT $ETH $LINK $THETA $UNI $VET $ZIL  And here goes the shitcoin $ICX expert... he believes he knows everything and the rest are morons.. Shitty $ICX community does not surprise me anymore..  seems lots of morons like this, pretending to be pundit.... https://t.co/gEpd4E3bV5",0,0
1377878345845780487,"2021-04-02T06:59:32Z","#ETH $2000   Here we go!!! https://t.co/BeprfMmslW",1,0
1377878345417846787,"2021-04-02T06:59:31Z","RT @flurtft: 💜 $200 in $ETH to someone who retweets this 💜 #Ethereum #ETH #giveaway",3114,6140
1377878344658681857,"2021-04-02T06:59:31Z","RT @flurtft: 💜 $200 in $ETH to someone who retweets this 💜 #Ethereum #ETH #giveaway",3114,6140
1377878343048044548,"2021-04-02T06:59:31Z","RT @flurtft: 💜 $200 in $ETH to someone who retweets this 💜 #Ethereum #ETH #giveaway",3114,6140
1377878337607979008,"2021-04-02T06:59:30Z","RT @flurtft: 💜 $200 in $ETH to someone who retweets this 💜 #Ethereum #ETH #giveaway",3114,6140
1377878335527784448,"2021-04-02T06:59:29Z","#ETH also hit $2000! April is going to be a wonderful month for Crypto 💥",212,44
1377878333216579585,"2021-04-02T06:59:29Z","Imagine institutions buying $ADA before $ETH.  Just imagine.",160,1
1377878332889473030,"2021-04-02T06:59:28Z","RT @flurtft: 💜 $200 in $ETH to someone who retweets this 💜 #Ethereum #ETH #giveaway",3114,6140
1377878332864274435,"2021-04-02T06:59:28Z","RT @flurtft: 💜 $200 in $ETH to someone who retweets this 💜 #Ethereum #ETH #giveaway",3114,6140
1377878327189405706,"2021-04-02T06:59:27Z","RT @flurtft: 💜 $200 in $ETH to someone who retweets this 💜 #Ethereum #ETH #giveaway",3114,6140
1377878327097237509,"2021-04-02T06:59:27Z","500,000,000 SAFE BLUE MOON #AirDrop   First 500 people  🌕FLOW @safebluemoon  🌕RETWEET  🌕TAG 3 Friends 🌕Join us https://t.co/a7nRTdwNlS 🌕 Fill The Form https://t.co/sCVvLPP7Ih  #Airdrop #airdropalert #Airdrops #SAFEMOON #bsc #btc #bnb #eth #dot #cryptocurrencies #ToTheMoon https://t.co/DLTpF75hky",327,280
1377878325947813891,"2021-04-02T06:59:27Z","RT @flurtft: 💜 $200 in $ETH to someone who retweets this 💜 #Ethereum #ETH #giveaway",3114,6140
1377878322483404800,"2021-04-02T06:59:26Z","RT @flurtft: 💜 $200 in $ETH to someone who retweets this 💜 #Ethereum #ETH #giveaway",3114,6140
1377878320193314819,"2021-04-02T06:59:25Z","RT @flurtft: 💜 $200 in $ETH to someone who retweets this 💜 #Ethereum #ETH #giveaway",3114,6140
1377878315780870144,"2021-04-02T06:59:24Z","RT @flurtft: 💜 $200 in $ETH to someone who retweets this 💜 #Ethereum #ETH #giveaway",3114,6140
1377878312169713666,"2021-04-02T06:59:24Z","$ETH            vs         $2,000     ( •_•)                            ( ง )=o                      (x_x )     /︶\                                _/￣|__",5098,613
1377878307723649027,"2021-04-02T06:59:22Z","RT @flurtft: 💜 $200 in $ETH to someone who retweets this 💜 #Ethereum #ETH #giveaway",3114,6140
1377878303990706177,"2021-04-02T06:59:22Z","RT @flurtft: 💜 $200 in $ETH to someone who retweets this 💜 #Ethereum #ETH #giveaway",3114,6140
1377878303747440646,"2021-04-02T06:59:22Z","RT @flurtft: 💜 $200 in $ETH to someone who retweets this 💜 #Ethereum #ETH #giveaway",3114,6140
1377878303743356928,"2021-04-02T06:59:22Z","$ETH            vs         $2,000     ( •_•)                          (•_• )     ( ง )ง                          ୧( ୧ )    /︶\                              /︶\",12645,1704
1377878302203944960,"2021-04-02T06:59:21Z","$ETH USD Update price close to 2200 already  This trade set - up was really handed to you on a silver platter   But there were no congratulations for it  Wrong calls with  Bitcoin on the other hand i get a lot of bashing for it  CryptoTWitter is Such A toxic Environment https://t.co/gIHNycobxG",12,0
1377878300761133056,"2021-04-02T06:59:21Z","Don't be a fool this April 1st Get in on our...  🚀Pre-sale in April #giveaways! 🌟20 x (100 #POPO) (worth$100)random winners   ✅RT and like this Tweet ✅TAG 3 Friends ✅Comment with Link and #ETH Wallet address #POPO #Poplink 🚀🚀🚀 https://t.co/PZv72o1Mxx",1028,810
1377878300404682752,"2021-04-02T06:59:21Z","Don't be a fool this April 1st Get in on our...  🚀Pre-sale in April #giveaways! 🌟20 x (100 #POPO) (worth$100)random winners   ✅RT and like this Tweet ✅TAG 3 Friends ✅Comment with Link and #ETH Wallet address #POPO #Poplink 🚀🚀🚀 https://t.co/PZv72o1Mxx",1028,810
1377878297489604611,"2021-04-02T06:59:20Z","@realmubaris @sassal0x @deversifi nah .... save it for ETH 2.0 https://t.co/G7mgW804dq",0,0
1377878295862157313,"2021-04-02T06:59:20Z","RT @flurtft: 💜 $200 in $ETH to someone who retweets this 💜 #Ethereum #ETH #giveaway",3114,6140
1377878295774064641,"2021-04-02T06:59:20Z","RT @flurtft: 💜 $200 in $ETH to someone who retweets this 💜 #Ethereum #ETH #giveaway",3114,6140
1377878292074622982,"2021-04-02T06:59:19Z","Don't be a fool this April 1st Get in on our...  🚀Pre-sale in April #giveaways! 🌟20 x (100 #POPO) (worth$100)random winners   ✅RT and like this Tweet ✅TAG 3 Friends ✅Comment with Link and #ETH Wallet address #POPO #Poplink 🚀🚀🚀 https://t.co/PZv72o1Mxx",1028,810
1377878291810451458,"2021-04-02T06:59:19Z","🔥 #ODDZ #Giveaway is Now On! @oddz_finance 🔥  10 lucky users will receive $30 each in #ODDZ 😗  1️⃣Login &amp; Participate   https://t.co/81bh5CpMnK  2️⃣Retweet and @ a friend  Share with your friends &amp; get more rewards 💌  #Ethereum #ETH #cryptogiveaway https://t.co/M7MxexMYji",267,619
1377878290652786689,"2021-04-02T06:59:18Z","RT @flurtft: 💜 $200 in $ETH to someone who retweets this 💜 #Ethereum #ETH #giveaway",3114,6140
1377878289583247364,"2021-04-02T06:59:18Z","RT @flurtft: 💜 $200 in $ETH to someone who retweets this 💜 #Ethereum #ETH #giveaway",3114,6140
1377878288207540225,"2021-04-02T06:59:18Z","🥳200$ #giveaway paid in $BNB 🎁4 winners ( 50$ each )  ✅RT, Like and Tag 3 friends ✅Join discord: https://t.co/aS6Ro8ib2G ✅Verify at Telegram, post proof here  ⏳Ends in 7 days!  #bitcoin #safebtc $BTC $ETH $DOT $ADA $SPI $GSPI @SafeBTCOfficial https://t.co/s8CS9eYMnz",73,56
1377878287763046402,"2021-04-02T06:59:18Z","@krzychu91pl We are top 1000 today and top 500 next month. We won't be stopped! #cns #altcoin $cns #cryptocurrency $ada $btc $btt $omi $doge $vra $one $maps $luna $matic $eth $cro $btmx",5,1
1377878287267983364,"2021-04-02T06:59:18Z","RT @flurtft: 💜 $200 in $ETH to someone who retweets this 💜 #Ethereum #ETH #giveaway",3114,6140
1377878286512975872,"2021-04-02T06:59:17Z","RT @flurtft: 💜 $200 in $ETH to someone who retweets this 💜 #Ethereum #ETH #giveaway",3114,6140
1377878284004777985,"2021-04-02T06:59:17Z","RT @flurtft: 💜 $200 in $ETH to someone who retweets this 💜 #Ethereum #ETH #giveaway",3114,6140
1377878281588928515,"2021-04-02T06:59:16Z","With price of ETH way up, dropped the reserve to .2 ETH on the series. Would rather see these with a collector than have them sit uncollected for much longer. Might bump them up later but feels right for now. #NFTs #nftcollectors #NFTCommunity @withFND #withFND https://t.co/POOuAPx5Qy",13,1
1377878280628359172,"2021-04-02T06:59:16Z","RT @flurtft: 💜 $200 in $ETH to someone who retweets this 💜 #Ethereum #ETH #giveaway",3114,6140
1377878279613526018,"2021-04-02T06:59:16Z","RT @flurtft: 💜 $200 in $ETH to someone who retweets this 💜 #Ethereum #ETH #giveaway",3114,6140
1377878277495357442,"2021-04-02T06:59:15Z","ETH/USDT Update: Reached our target perfectly. What now? - #ETHUSDT TradingView https://t.co/nIum532JlS",1,0
1377878275641339909,"2021-04-02T06:59:15Z","RT @flurtft: 💜 $200 in $ETH to someone who retweets this 💜 #Ethereum #ETH #giveaway",3114,6140
1377878275557498882,"2021-04-02T06:59:15Z","RT @flurtft: 💜 $200 in $ETH to someone who retweets this 💜 #Ethereum #ETH #giveaway",3114,6140
1377878273795952640,"2021-04-02T06:59:14Z","Don't be a fool this April 1st Get in on our...  🚀Pre-sale in April #giveaways! 🌟20 x (100 #POPO) (worth$100)random winners   ✅RT and like this Tweet ✅TAG 3 Friends ✅Comment with Link and #ETH Wallet address #POPO #Poplink 🚀🚀🚀 https://t.co/PZv72o1Mxx",1028,810
1377878270985695232,"2021-04-02T06:59:14Z","RT @flurtft: 💜 $200 in $ETH to someone who retweets this 💜 #Ethereum #ETH #giveaway",3114,6140
1377878270054703114,"2021-04-02T06:59:13Z","Up My new drop is now open for bids only on @SuperRare  👇👇👇 https://t.co/nzoyy9p9Uu  #ETH #Ethereum #digitalart #superrare #loop #seamless #cryptoart #motionGraphics #animation #NFT #nftart https://t.co/jdwevSRApE",129,17
1377878269031145476,"2021-04-02T06:59:13Z","RT @flurtft: 💜 $200 in $ETH to someone who retweets this 💜 #Ethereum #ETH #giveaway",3114,6140
1377878268259393536,"2021-04-02T06:59:13Z","@flurtft Good luck 💜 #Ethereum #ETH #giveaway",0,0
1377878266120339457,"2021-04-02T06:59:13Z","Don't be a fool this April 1st Get in on our...  🚀Pre-sale in April #giveaways! 🌟20 x (100 #POPO) (worth$100)random winners   ✅RT and like this Tweet ✅TAG 3 Friends ✅Comment with Link and #ETH Wallet address #POPO #Poplink 🚀🚀🚀 https://t.co/PZv72o1Mxx",1028,810
1377878263033331717,"2021-04-02T06:59:12Z","RT @LilMoonLambo: BREAKING: Coinbase is expected to go public on April 14th   Are you guys ready for $BTC and $ETH all time highs? https://…",2748,503
1377878262685257728,"2021-04-02T06:59:12Z","The numbers of listed G.O.A.T NFT's is increasing daily on opensea as we continue working to build our own NFT marketplace. See here - https://t.co/lvxLlpTESp  Buy the $GOAT token today - https://t.co/lPhgV7Ovk9  $BTC $ETH $XRP #CRYPTOCURRENCY #BLOCKCHAIN",28,23
1377878262441865221,"2021-04-02T06:59:12Z","RT @flurtft: 💜 $200 in $ETH to someone who retweets this 💜 #Ethereum #ETH #giveaway",3114,6140
1377878261116530688,"2021-04-02T06:59:11Z","RT @flurtft: 💜 $200 in $ETH to someone who retweets this 💜 #Ethereum #ETH #giveaway",3114,6140
1377878259652825088,"2021-04-02T06:59:11Z","RT @flurtft: 💜 $200 in $ETH to someone who retweets this 💜 #Ethereum #ETH #giveaway",3114,6140
1377878253646454784,"2021-04-02T06:59:10Z","The official auction is being held publicly📑 The current price is 0.6615 ETH👍  Please participate in it as much as you can! https://t.co/MqLuiGlE5P",8,1
