"ID","created_at","text","like_count","rt_count"
1377274473729101846,"2021-03-31T14:59:57Z","1NNHTew1 #BTC #ETH #BNB  #cryptocurrencies  @elonmusk  #binance 5 BTC Casascius Coin for sale ! Description: 1NNHTew1 1.125 inches diameter 0.24 ounces. Nickel plated brass. Status:Active Type:5 BTC Version: 1 Created: 2012-01-14 05:51:17  send PM",1,0
1377274473225850882,"2021-03-31T14:59:57Z","RT @BoudinarYacine: @mickalamasse1 To the moon #projetXcrypto   #eth #projetx #defi #dex #tacoswap #tacotoken🌶 #vampireattack #frenchdex #e…",9,8
1377274470897885197,"2021-03-31T14:59:57Z","The DEX @FinanceChainge is set to launch on the @FUSIONProtocol network with over a million users on the protocols waitlist. This decentralized exchange aims to innovate on traditional models through leveraging the Fusion Network.  #BSC #BTC #ETH #BNB  https://t.co/xx55YiGfm3",21535,13657
1377274455177588745,"2021-03-31T14:59:53Z","$EYE is going to make you money and https://t.co/ugS4SkEopl will save you money. It's a win win.  More info https://t.co/Le0yWdXtpo  Join us https://t.co/dmpA3WmiKX  $CAKE #ETH #ADA #LINK #BTC #TRX $BTC $ETH $XRP $BCH $BSV $LTC $SWAP $BNB $XLM $ADA $UNI $SUSHI $LINK $DOT https://t.co/qyBqsKHIlN",24,20
1377274446797447170,"2021-03-31T14:59:51Z","since it's #TDOV #TransDayOfVisibility donate to my top surgery fund &lt;3 i'm a disabled jewish transmasc who had quit work recently due to a serious nervous breakdown https://t.co/CSNHkIPo71",17,43
1377274446189301761,"2021-03-31T14:59:51Z","$LYXE - Will regret not joining this party!!!!!!!!!!!!!!!!!!!!!!!!!!!!!! $eth $etc $uni $link $btc $ada $bnb https://t.co/aANqZ9MwH1 https://t.co/NWfGiAWI1v",2,0
1377274445207760898,"2021-03-31T14:59:50Z","I'm happy to share that I have listed my first NFT “Master Grade ” on @withFND!  Imagine this... a Gundam action figure morphed into an architectural project? That's Master Grade!💙  Now available for 0.15 ETH!   https://t.co/nNUiitl0Zd  #NFTCommunity #nftcollector #Cryptoart https://t.co/F7nn4YD4C7",27,10
1377274444914262020,"2021-03-31T14:59:50Z","RT @LeoLemarie1: @mickalamasse1 Projet x #projetXcrypto   #eth #projetx #defi #dex #tacoswap #tacotoken🌶 #vampireattack #frenchdex #ethereum",55,41
1377274442812846086,"2021-03-31T14:59:50Z","🌿 The STRAINZ #Giveaway | Rules 🌿 =   - Step 1: Like &amp; Retweet + tag 3-5 People! - Step 2: Follow @StrainZ_NFT  - Step 3: Join: https://t.co/MRZdJREL0N - Step 4: Like &amp; RT quoted tweet! - Step 5: Send Proof!   Prize = 100$ in #BTC or #ETH  Winner announced at 01/04 🎁 https://t.co/I0m7gDDbg7",1437,1679
1377274438622793734,"2021-03-31T14:59:49Z","You can now see charts of Delta and Delta rLP APY on corecharts. Currently sitting at 3,352% for LSW rLP and 559% for DELTA/ETH acquired today. https://t.co/ioFSFTqF1G https://t.co/knU9kgwRue",119,36
1377274430347476999,"2021-03-31T14:59:47Z","#defi #eth Wondering, who are the best groups to give LiftDAO an audit and review what we are building?",5,0
1377274428694929408,"2021-03-31T14:59:46Z","@CryptoJelleNL After Eth",1,0
1377274421912731648,"2021-03-31T14:59:45Z","RT @colonel___3: @mickalamasse1 Projet X @Uniswap @SushiSwap @bepronet @Poolz__ @Exeedme #DeFi #ETH",61,50
1377274410227359746,"2021-03-31T14:59:42Z","$SQRT is waiting for coingecko and coinmarketcap listing. That's just the beginning, big potential here! 🐢  $FEG $PIKA $PEECH $ONE $DOT $RFI $ETH $POODL $HOGE #WhiteBit #gateio #cryptocom #coinbase #savetheocean",4,1
1377274409677770757,"2021-03-31T14:59:42Z","$eth  How strong is this resistance?  When it breaks its gonna jump i think. https://t.co/In04H0gKw6",1,0
1377274403252277248,"2021-03-31T14:59:40Z","since it's #TDOV #TransDayOfVisibility donate to my top surgery fund &lt;3 i'm a disabled jewish transmasc who had quit work recently due to a serious nervous breakdown https://t.co/CSNHkIPo71",17,43
1377274401939333129,"2021-03-31T14:59:40Z","If you don't own any $BUND then I highly recommened you at least pick some up before this project explodes.   Finally the big partnership is revealed!  Next steps - providing liquidity on RSK - opening HIGH &amp; LOW Risk Pools on RSK - Rewards for LP providers!  @BundlesFinance #ETH https://t.co/fRplz7pMrI",43,40
1377274401163517961,"2021-03-31T14:59:40Z","Don't do it. Don't click and read. Don't waste your time. Don't do the deep dive. Don't sell your $ADA or $EGLD. Don't get a piece of 20 Central Banks. Don't buy the coin that connects $XRP x $ETH x $BTC  $QNT 🤝@SIA_pressoffice 🤝#ESMIG 🤝 #TARGET2 🤝 €1.7 Trillion Daily Volume https://t.co/srNZ8ZbVEy https://t.co/vXOPU0Bulk",64,23
1377274389058756612,"2021-03-31T14:59:37Z","RT @QuintenFrancois: $ETH to $2500 in April or I'm giving away 0.3 $ETH to someone who retweets this.",4150,6184
1377274386298847232,"2021-03-31T14:59:36Z","🚨Hey guys, I'll have an announcement.  I spent 2.1 Eth today.Once again! 1 ETH to spend in #NFTs! Drop your art below, follow &amp; like &amp; retweet❗🛸🛸🛸 #nft #nfts #nftart #nftartist  #nftcommunity #nftcollector #nftcollectors #shill #shilling #cryptopunks #Crypto https://t.co/u96J5jItl0",255,78
1377274384545644544,"2021-03-31T14:59:36Z","RT @waikikiqi: Maybe you should simply skip $ETH and go straight to #bsc",15,4
1377274377956438016,"2021-03-31T14:59:34Z","RT @crnovision: 🚀BEYOND THE EDGE🚀  We got the first bid of 0.7 ETH by @toddsmithonline and this honestly made my day. Thank you!💙   https:/…",43,13
1377274362563334146,"2021-03-31T14:59:31Z","$UBX is on sale grab your bag or regret forever 🤷🏽‍♀️🤷🏽‍♀️   $GRUMPY $POODL $TEL $DENT $NPXS $KIN $UBX $VRA $DAG $DEXA  $ONE $FET $CHZ $OCEAN $KCS $BTC  $ETH $XRP $DOT $RSR $SOL $LTC $ANKR #ALTSEASON2021",5,2
1377274359950278666,"2021-03-31T14:59:30Z","RT @CryptoLimbo_: I had a Dream 🌕 $BTC to 100K  $ETH to 5k $BNB to 500$ $KSM to 2000$ $RSR to $1 $LUNA to $100 $HTR to $10 $UTK to $10",1003,110
1377274358108930048,"2021-03-31T14:59:30Z","@SBF_Alameda It’s literally the SOL training ground. BSC deserves way more credit than it has been given for training users to demand low fees, fast settlement, and actual hands on experimenting with farming, defi, etc., if they hadn’t on Eth. It’s a crappy clone, but necessary evil.",52,1
1377274357916053506,"2021-03-31T14:59:30Z","RT @QuintenFrancois: $ETH to $2500 in April or I'm giving away 0.3 $ETH to someone who retweets this.",4150,6184
1377274352597495820,"2021-03-31T14:59:28Z","RT @QuintenFrancois: $ETH to $2500 in April or I'm giving away 0.3 $ETH to someone who retweets this.",4150,6184
1377274351553241091,"2021-03-31T14:59:28Z","@intocryptoverse @intocryptoverse any insights as to why $LINK has been underperforming BTC and ETH so much lately?",0,0
1377274335769980928,"2021-03-31T14:59:24Z","@NFTFusion My eth adress:- 0x6Bec4B3025Ef83a47d92Ae20e3B9823DF8Cd1A5A https://t.co/nCV7Nf3cFP",0,0
1377274334574751746,"2021-03-31T14:59:24Z","$DAG Just getting warmed up!!!!   $DAG , THE MILLIONAIRE MAKER!!  $LTX $DAG $DOT $UNI $XRP $BTC $ETH $DOGE $EOS $IOTA $ADA $REEF $ZEC $TRX $LINK $COTI $OCEAN $BNB $ZCX $DASH $XLM $TEL $RUNE $OCTO $QNT $MTV $BAX $NAX $LYM $CAKE $TRTL $SUSHI $hbar $lcx $rsr $HOT $HOLO $zil $dent https://t.co/slbJ2IHCTy https://t.co/PRacyapzU0",10,2
1377274316472078338,"2021-03-31T14:59:20Z","The world’s first global #eSIM mobile data reseller platform is here 🌋 https://t.co/C6iBswXsEi With the #DENT #Gigastore 🏪 ANY 3rd party can resell mobile data everywhere! 📱Connectivity as a Service 🔥 #dentcoin #ethereum #esim #mobile #data #roaming #connectivity #btc #eth https://t.co/bb4KKvRVYs",1980,704
1377274312596594688,"2021-03-31T14:59:19Z","since it's #TDOV #TransDayOfVisibility donate to my top surgery fund &lt;3 i'm a disabled jewish transmasc who had quit work recently due to a serious nervous breakdown https://t.co/CSNHkIPo71",17,43
1377274299199918081,"2021-03-31T14:59:16Z","Broken Beauty № 2 - Indecision by KidEight 1 of 1 • Now Available for Ξ 4.0  By KidEight @_KidEight   Support artists and #NFTart #NFTs #NFT #NFTCommunity   Follow + Like + Retweet = ♥️  https://t.co/6QJtnpNBlf @KnownOrigin_io #cryptoart #NFT #cryptoartist #ETH",7,2
1377274298327560195,"2021-03-31T14:59:15Z","@mickalamasse1 taco4life      🌶️=========&gt;🚀 Objectif: #projetXcrypto   #eth #projetx #defi #dex #tacoswap #tacotoken🌶 #vampireattack #frenchdex #ethereum",32,25
1377274296473620483,"2021-03-31T14:59:15Z","Lee Han-Beom bought for 0.185 ETH (338.39$) by Tika-ta on the primary market   Season: 2021-2022 Level: 0 Serial: 1/100 Price: 338.39$  ⚽ Sorare: https://t.co/sLIXRy50oI  📊: https://t.co/ozO1o5deOy  #Sorare #NFT #Ethereum #FantasyFootball",0,0
1377274291679559682,"2021-03-31T14:59:14Z","RT @QuintenFrancois: $ETH to $2500 in April or I'm giving away 0.3 $ETH to someone who retweets this.",4150,6184
1377274289586593792,"2021-03-31T14:59:13Z","RT @QuintenFrancois: $ETH to $2500 in April or I'm giving away 0.3 $ETH to someone who retweets this.",4150,6184
1377274280602337287,"2021-03-31T14:59:11Z","@3xtokenexchange I hope this project can make me rich😍 3XT the next ETH  3XT To The Moon 🚀🚀🚀 #3XT #Ethereum   0xe337f398C714A93266FBEb679b495c5F309A5483  @ghofarxyz @Misbahu75360240 @CryptoHunterzzz @zakcrypto62 @akunlegit1 @Muhrefi1 @jjmal10 @Alexis06p7s @septo_res @zanoval9",1,1
1377274279604195335,"2021-03-31T14:59:11Z","RT @LeoLemarie1: @mickalamasse1 To the moon #projetXcrypto   #eth #projetx #defi #dex #tacoswap #tacotoken🌶 #vampireattack #frenchdex #ethe…",58,43
1377274264815026179,"2021-03-31T14:59:07Z","SPECIAL OFFER FOR MY NTF....... For a short time the price was lowered to 0.30 eth instead of 0.40 eth Take advantage of the offer!  I need support to continue with my creations. Thanks a lot ❤️ #ntf #NTFcollectors #ntfart #Foundation @withFND  https://t.co/AOUuJUBmT2",6,6
1377274261505765384,"2021-03-31T14:59:07Z","Hands up!🙌🔫🐢  👇Drop your ETH address below, NOW! ✅Follow and Retweet  Why? You might get a drop from us soon...😏  #NFTurtles #nft #nftcollector #opensea #NFTCommunity #nftart #NFTcollectibles #Ethereum",134,93
1377274247278702598,"2021-03-31T14:59:03Z","I don’t know anyone selling their entire portfolio for fiat. They’re either staking for passive income or flipping into #Bitcoin and $ETH to store value knowing they will always bounce back.  Thinking like an investor mindset is to have passive income. #RichDadPoorDad https://t.co/qvhxQTyylP",27,3
1377274246305619968,"2021-03-31T14:59:03Z","New Artists:  You will FOMO hard. You will see fellow artists eclipse you. You will see $ / ETH everywhere. You will have big lows, and big highs. You will feel the imposture syndrome.   But, if you are about the art and community, this will help drive you to innovate and grow.",785,155
1377274236113457165,"2021-03-31T14:59:01Z","@C52867822 @StaciTraids @AwakeSpace7 The risky and uncertain bit, is that they're locks for a year (you can draw out early but forfeit some %)  So we are basically betting on delta still being a thing in 22. The eth rewards just drop into your wallet though. At current rate 10 rlp is about 5 eth/ year income",3,0
1377274229536645122,"2021-03-31T14:58:59Z","@itsluncht1me @CryptoKaleo @wkxsports Everyone does, thats the point, I use $TRX $XRP all these shit ass coins to transfer instead of USDT over ETH..",1,0
1377274222800728068,"2021-03-31T14:58:57Z","@mickalamasse1 Let’s go to the #PoolParty !! #tacoswap #tacoswaptothemoon #tacotoken🌶 #defi #dex #binance #eth #crd #ToTheMoon @sushiswap @Uniswap @mickalamasse1 🌶🌶🌶🌶🚀🚀🚀🚀",27,24
1377274221001199619,"2021-03-31T14:58:57Z","My precious!   #nahmii #Layer2scaling $NII #NII #HBT $HBT #ETH #Ethereum #nahmiimes #uniswap #consensys #crypto #moon #cryptocurrency #DeFi #blockchain #cryptoart #cryptoartist #nahmiiknights #knightsofnii https://t.co/qSVazZVbla",13,2
1377274217633308674,"2021-03-31T14:58:56Z","@art_rapture King $ETH's CryptDeck is prepared for its master  Vitalik. Just minted 10/10. Completely handcrafted to defeat any false challengers!   https://t.co/toWteGgkDu https://t.co/MSyphtwIQe",1,0
1377274203460792321,"2021-03-31T14:58:53Z","@TheBullMoonGang @cokooness @EscobarCrypto_ Is it possible to buy it with USDT? Or just it will be sold in pair of ETH?",0,0
1377274197840289798,"2021-03-31T14:58:51Z","I'll send $300 in #ETH or #BTC to one person who retweets this and follows @bud_crypto. Must complete these tasks:  1 - Like/RT his pinned tweet  2 - Must RETWEET &amp; LIKE 4 of his tweets  Ends in 72 hours!",1210,1759
1377274194392588289,"2021-03-31T14:58:51Z","SilverDAO Airdrop  1,000,000 iDAO = 2 USD For Joining - Get 1,000,000 iDAO For each referral - Get 500,000 iDAO  link: https://t.co/rHYrIugMzX  #cryptocurrency #Crypto #Bitcoin #Ethereum #ETH #Airdrop #bounty",1,1
1377274191485960195,"2021-03-31T14:58:50Z","RT @benaliA94: What cryptocurrency has the lowest fees? 😉🧐 @Tronfoundation @BinanceChain @qtum @ethereum $trx $eth $bnb $qtum",30,20
1377274189325950979,"2021-03-31T14:58:49Z","Quantnetwork hit $ 40 for the first time almost two months ago   Since then it stayed across the $ 40 mark for almost 40 days   Around 160 MILL $ worth of QNT changed owners at these level  Thats around 30 % of the total cap   $QNT  $xrp $btc $eth $link",52,6
1377274189099503621,"2021-03-31T14:58:49Z","RT @Cheqrim: @mickalamasse1 #PoolParty !  Objectif: #projetXcrypto   #eth #projetx #defi #dex #tacoswap #tacotoken🌶 #vampireattack #frenchd…",5,3
1377274188906569737,"2021-03-31T14:58:49Z","@mickalamasse1 To the moon !! 🌶🌶🚀  #PoolParty   #projetXcrypto  #eth #projetx #defi #dex #tacoswap #tacotoken🌶 #vampireattack #frenchdex #ethereum",25,23
1377274186448711691,"2021-03-31T14:58:49Z","cross ref'd @Stanford's 1972 marshmallow experiment with 2021 @cz_binance data.  tldr; the boomers didn't change.   @jamiem_eth pls mint our submission for @ThisIsAito &amp; @marshmello 🎸🤘⚡️🚀[x‿x] https://t.co/HqORXPq0vS",15,2
1377274186180173827,"2021-03-31T14:58:49Z","@bactonretro “As above So below , As within So without  Edition of 1 ,reserved price (0.2 ETH) https://t.co/vlaB5SNABU",1,0
1377274179695808517,"2021-03-31T14:58:47Z","The world’s first global #eSIM mobile data reseller platform is here 🌋 https://t.co/C6iBswXsEi With the #DENT #Gigastore 🏪 ANY 3rd party can resell mobile data everywhere! 📱Connectivity as a Service 🔥 #dentcoin #ethereum #esim #mobile #data #roaming #connectivity #btc #eth https://t.co/bb4KKvRVYs",1980,704
1377274176550080516,"2021-03-31T14:58:46Z","@Trezor @tropicsquare Answer: Hardware wallets will need to withdrawal $ETH from Eth2 third-party staking providers (EIP2333). Without this feature, users will have to manage an additional set of seed phrases in addition to their existing hardware wallet seed.   https://t.co/ddcs1KAQEq",0,0
1377274174620639233,"2021-03-31T14:58:46Z","$BNB &amp; $ETH Holders: I am waiting for price pumping.  Cronald: Why don't you add BNB/ETH liquidity then farm on PoolX on #LaunchZone ?  From now on, they really happy because then could get profit everyday while hodling BNB &amp; ETH.  #BSCXHeroes https://t.co/5L5Eg5h8mQ",160,92
1377274170212544512,"2021-03-31T14:58:45Z","RT @FlorianOvaere: @mickalamasse1 Go pour le #projetXcrypto 🔥🔥🔥  #eth #projetx #defi #dex #tacoswap #tacotoken🌶 #vampireattack #frenchdex #…",9,9
1377274169847545857,"2021-03-31T14:58:45Z","I hold some $eth, but ethereum is just a ashole at the moment with this gas fees. $dag",0,0
1377274168358539267,"2021-03-31T14:58:44Z","RT @FintechJero: Filecoin $FIL fully diluted marketcap is 1,75X bigger then Ethereums $ETH   350B compared to 200B... wow",19,1
1377274167595270146,"2021-03-31T14:58:44Z","@mickalamasse1 Pool party 🌶🌶🌶 #projetXcrypto #eth #projetx #defi #dex #tacoswap #tacotoken🌶 #vampireattack #frenchdex #ethereum https://t.co/NNnZter0cz",18,16
1377274164147585025,"2021-03-31T14:58:43Z","HOT!!! Where do the doors in your mind open? https://t.co/DSxOZ09hSu  #NFT #NFTs #NFTart #crypto #cryptoart #ethereum #Rareible #opensea #collectible #digitalart #nftartist #nfthesearch #nftg #nftcollectors #nfta #nfte #nftc #nftgram #NFTartwork #ETH  #nftcollector #Metaverse https://t.co/oBXyvtUEYe",4,2
1377274156316831746,"2021-03-31T14:58:42Z","I'm happy to share that I have listed my first NFT “Master Grade ” on @withFND!  Imagine this... a Gundam action figure morphed into an architectural project? That's Master Grade!💙  Now available for 0.15 ETH!   https://t.co/nNUiitl0Zd  #NFTCommunity #nftcollector #Cryptoart https://t.co/F7nn4YD4C7",27,10
1377274153296924672,"2021-03-31T14:58:41Z","The world’s first global #eSIM mobile data reseller platform is here 🌋 https://t.co/C6iBswXsEi With the #DENT #Gigastore 🏪 ANY 3rd party can resell mobile data everywhere! 📱Connectivity as a Service 🔥 #dentcoin #ethereum #esim #mobile #data #roaming #connectivity #btc #eth https://t.co/bb4KKvRVYs",1980,704
1377274152227368960,"2021-03-31T14:58:41Z","Got 5 Foundation invites to giveaway! 🔥@withFND  Follow me Retweet this Reply with your work down below. I'll announce winners tomorrow at 9 (GMT+2) Bonus points if u are a collector #nft #nftart #nftartist #eth #FoundationInvite  #cryptoart #cryptoartist  #crypto #nftcommunity https://t.co/Ct155VtRNb",86,66
1377274150587359237,"2021-03-31T14:58:40Z","Layer2 is online now，a Milestone for YFX! BTC_USDT (USDT settlement), ETH_USD (USDC settlement) trading pairs open!#DeFi #Ethereum #Bitcoin #cryptocurrency #Blockchain https://t.co/aPyHmsoidO",93,89
1377274126688215044,"2021-03-31T14:58:34Z","Lets impress the NFT Collectors now!   Show us your unsold NFT (under 1 ETH) below ⬇️🔥  #nftcollectors are active now and want to see something 🚀  #nfts will become big - lets do it together 🙌🏼  Drop it - we will rt our favourites!   #nft #nftcollector #NFTCommunity #NFTshill",280,53
1377274126612631553,"2021-03-31T14:58:34Z","Time for WitLink Token #Airdrop!  ✔️ Start the Airdrop bot: https://t.co/8HDV9cCJse  Complete the tasks to earn  Get 10 WAI ($2.5) + Get 4 WAI ($1) For Each Valid Refer   #ETH #BTC #WAI #LINK #Airdrops",1478,1424
1377274118937010178,"2021-03-31T14:58:33Z","I tweeted about it. Might the luckiest of us come out on top! By the way, I'm looking forward to seeing your upcoming projects, such as $LZP, go live. it is hoped that it will be successful. All hail the #BSCX #BSCXHeroes! Keep up the outstanding job $BSCX $ETH #swapX #launchzone https://t.co/XREmRE5l12",0,0
1377274113106976770,"2021-03-31T14:58:31Z","RT @crypto_birb: $ETH will easily do 10k until 2021 ends imo",2045,176
1377274111097892869,"2021-03-31T14:58:31Z","@CryptoStache THANK YOU! Finally a shill tweet not about ETH NFTs. Here are my 2 latest drops on hicetnunc (Tezos NFT), what do you think? https://t.co/nuGabSiu1w https://t.co/wF8amXV7XR https://t.co/py7BgVNyC0",6,0
1377274099924398081,"2021-03-31T14:58:28Z","@XRPDINAR Take a look at $FCL. 👀  🍪@fractalprtcl is an open source zero-margin protocol that defines a basic standard to exchange user information in a fair and open way ensuring a high-quality version of the free internet.  🔒🔒🔒  #DeFi $BTC $ETH https://t.co/p1RKNQemHM",2,2
1377274099056082951,"2021-03-31T14:58:28Z","$BNB &amp; $ETH Holders: I am waiting for price pumping.  Cronald: Why don't you add BNB/ETH liquidity then farm on PoolX on #LaunchZone ?  From now on, they really happy because then could get profit everyday while hodling BNB &amp; ETH.  #BSCXHeroes https://t.co/5L5Eg5h8mQ",160,92
1377274098435362823,"2021-03-31T14:58:28Z","⚡️⚡️ Our #Unicrypt Sale starts 26th of March! ⚡️⚡️  Only runs a few days, be sure you don't miss it.  Price: 55 SVX / ETH  👉 Launchpad: https://t.co/13j6I8GzDq  #savix #ilo #presale #ico #defi @UNCX_token https://t.co/5DItii0vWL",115,32
1377274098028576775,"2021-03-31T14:58:28Z","BUY $vra @verasitytech NOW OR CRY LATER  $easy $pond $matic $luna $razor #BNB $om #VeChain #ada $vet $vtho #cryptocurrency #crypto #doge #COTI #uniswap  #altcoins #altseason #bitcoin #galaxyfarm $eth $igg $xrp $om $rose $one $ramp $cel $btc $xlm $hot",4,0
1377274095490981892,"2021-03-31T14:58:27Z","Don't do it. Don't click and read. Don't waste your time. Don't do the deep dive. Don't sell your $ADA or $EGLD. Don't get a piece of 20 Central Banks. Don't buy the coin that connects $XRP x $ETH x $BTC  $QNT 🤝@SIA_pressoffice 🤝#ESMIG 🤝 #TARGET2 🤝 €1.7 Trillion Daily Volume https://t.co/srNZ8ZbVEy https://t.co/vXOPU0Bulk",64,23
1377274088582881281,"2021-03-31T14:58:25Z","@bscexofficial I tweeted about it. Might the luckiest of us come out on top! By the way, I'm looking forward to seeing your upcoming projects, such as $LZP, go live. it is hoped that it will be successful. All hail the #BSCX #BSCXHeroes! Keep up the outstanding job $BSCX $ETH #swapX #launchzone https://t.co/HpByd6LS7b",0,0
1377274078789177351,"2021-03-31T14:58:23Z","We have passed the 25k followers!   Thanks guys, I will give one person 1 $ETH ( worth 1800 dollars)!   Only thing you have got to do is RT &amp; LIKE this tweet and make sure you follow me so I can DM you.   On to the 30K !   #giveaway",1492,1279
1377274063610122240,"2021-03-31T14:58:19Z","Stay diligent my friends.  Go report @LeaksBlockchian, they're impersonating @LeaksBlockchain and trying to run a double your $ETH scam. https://t.co/TevU1tcibV",25,8
1377274061693218820,"2021-03-31T14:58:19Z","Goldman Sachs looks to offer #bitcoin investment vehicles in the second quarter  https://t.co/5Cvg3O8F8f  #BTC #Ethereum #ETH #Litecoin #LTC #blockchain #HODL #PlanB #crypto #cryptocurrency #cryptocurrencies",2,0
1377274058845298700,"2021-03-31T14:58:18Z","@AlexSaundersAU ETH better hurry up or be a Kodak, Blockbuster, Netscape etc. Many other projects doing it better, faster and cheaper. First mover advantage and maxi's can't keep ETH alive forever",0,0
1377274056131612673,"2021-03-31T14:58:18Z","Shorting $ETH https://t.co/uaytVOYWGW",2,0
1377274049471127556,"2021-03-31T14:58:16Z","RT @FlorianOvaere: @mickalamasse1 Go pour le #projetXcrypto 🔥🔥🔥  #eth #projetx #defi #dex #tacoswap #tacotoken🌶 #vampireattack #frenchdex #…",9,9
1377274045108867077,"2021-03-31T14:58:15Z","LaunchZone aims to become the project offering all of Binance Exchange Off-chain services to its users. Users will save on transaction costs while reaping benefits of decentralization.  @launchzoneann #BinanceSmartChain #BSC #BTC #ETH #Ethereum #BNB #DeFi  https://t.co/H60lroDNNI",374,192
1377274044462944257,"2021-03-31T14:58:15Z","Top 5 Mentions Updated Every 5 Minutes   Start Time: Wed Mar 31 2021 09:33:14 GMT+0300 (GMT+03:00)   (BETA STAGE)  1- $ETH==&gt;1879  2- $BNB==&gt;918  3- $XRP==&gt;564  4- $ADA==&gt;435  5- $DOT==&gt;400  - $Bitcoin #Bitcoin $Crypto #Crypto $Altcoin #Altcoin -",0,0
1377274034577104902,"2021-03-31T14:58:13Z","@NFtsGrab a cactus flower that blooms when the rain season come to brazilian desert inland. brings hope and joy :) Mandacaru flower power. 30c. unique color each  only 0.2 $eth #nftart #woodcut #nftcollection #xilo #nicolau #ethereum #nftcollector #opensea  https://t.co/4jpb2pbZwo https://t.co/Lyj1VJX47c",0,0
1377274026054332420,"2021-03-31T14:58:10Z","RT @PatrickXDai: NFT on Qtum will be less cost  than ETH.  Qtum NFT on the way too.",363,61
1377274025068613636,"2021-03-31T14:58:10Z","RT @OliCS_: Quick 150$ ETH giveaway -💜  Just rt   Giving 20~ minutes gl :)",320,480
1377274012036907013,"2021-03-31T14:58:07Z","Genuinely curious if Art Twitter is going to boycott Paypal now..??? This is exponentially more environmentally damaging than NFTs because not only is Ethereum supported, but so is Bitcoin, which has 4x the emissions of ETH. What alternative platforms can independent artists use? https://t.co/zek7xyXwqL",1602,473
1377274011000827908,"2021-03-31T14:58:07Z","RT @OliCS_: Quick 150$ ETH giveaway -💜  Just rt   Giving 20~ minutes gl :)",320,480
1377274006403964936,"2021-03-31T14:58:06Z","@mickalamasse1 you have to taste the tacotoken tacoswap to understand 🌶️🌶️🌶️  #eth #projetx #defi #dex #tacoswap #tacotoken #vampireattack #frenchdex #ethereum https://t.co/AXSdICA4Sm",30,22
1377274002310377478,"2021-03-31T14:58:05Z","@cryptogems555 We're going to the moon, specially those who hold $FCL.  🔒 @fractalprtcl  is an open-source zero-margin protocol to safely exchange user information - it aims to replace the ad cookie.🍪  $BTC $ETH #DeFi https://t.co/ehJ0w3XT1J",2,2
1377274000569733120,"2021-03-31T14:58:04Z","@KyleMacLeanX Looking forward to some healthy(key word) competition. I like when projects try to attract new people instead of converting ETH maxis(ain’t gonna happen lol)",3,0
1377273996320911365,"2021-03-31T14:58:03Z","HAWT. With my partnership with @illuviumio I can give away 100 HOLOGRAPHIC Scoot Scarabok NFTs.  Similar ones have gone for 5 eth to 50 eth.  How to get -Post your ETH address + BATTLE SCOOT! below -Retweet/tag a friend -Follow @illuviumio and join their discord in bio https://t.co/xcCVVW6KdR",2755,2661
1377273995188396034,"2021-03-31T14:58:03Z","Tick....Tock....Tick....Tock...  No, seriously! Another TikTok! Check it out! We think our community is purrrrrfect. https://t.co/kSd4ANszfx  $ncat $ada $om $eth $btc $doge",40,12
1377273984174161930,"2021-03-31T14:58:00Z","RT @MoneyNostra: 🟩 Drop your $ETH wallet 👇",366,159
1377273983041605636,"2021-03-31T14:58:00Z","@buchara97 It is. Today I buy some ETH",0,0
