"ID","created_at","text","like_count","rt_count"
1375145437695512580,"2021-03-25T17:59:55Z","Gyrano Kerk bought for 0.2 ETH (318.68$) by Dissi76 on the primary market   Season: 2020-2021 Level: 0 Serial: 38/100 Price: 318.68$  ⚽ Sorare: https://t.co/2zU2PNuLon  📊: https://t.co/jeVl1OCVnQ  #Sorare #NFT #Ethereum #FantasyFootball",0,0
1375145435971522560,"2021-03-25T17:59:55Z","Seems the OG Crypto Artist hype has hit @nftboxes   Someone has just scooped the @Coldie genesis work floor!  Up at 0.95 ETH floor 😁  To think, we were told in our discord a few days ago having only OG crypto artists headlining is a bad thing?!  https://t.co/CCx9SBgbB2",29,0
1375145413087539205,"2021-03-25T17:59:50Z","@JMEightDigits @jephjacques @reactionfaye BTC itself? Not yet, which is one reason China is already cracking down on BTC mining. But there's nothing preventing BTC eventually doing what ETH does, and moving over to proof-of-stake or a similar system. But, I think BTC is the AOL-like dinosaur of the crypto space, tbh.",0,0
1375145412600999938,"2021-03-25T17:59:49Z","Hello @Poolz__ community !  After @bepronet ,  Tomorow #tacoswap Dex open a new pool for poolz token owner.   You will have more rewards than uniswap !  See you tomorow ! Welcome !  #poolz #uniswap #DeFi #ETH #Crypto #bepronet #liberezcrypto4youOFF #tacoswap",1210,0
1375145405541912576,"2021-03-25T17:59:48Z","Théo Defourny bought for 0.246 ETH (391.98$) on the secondary market   Season: 2020-2021 Level: 0 Serial: 62/100 Price: 391.98$  ⚽ Sorare: https://t.co/gCaf1NETM3  📊: https://t.co/i9IxhOSRfN  #Sorare #NFT #Ethereum #FantasyFootball",0,0
1375145401599266827,"2021-03-25T17:59:47Z","@charliegough19 @MartiniGuyYT $ETH is not going anywhere!",0,0
1375145392216674308,"2021-03-25T17:59:45Z","How to build resilience to future pandemics by learning from COVID-19 ? It needs preventive, reactive as well as recovery resiliences ! Learn more by reading the last policy brief launched today by the @genevaspi @unige_en @LERUnews @IHEID @EPFL_en @ETH_en @uni_zh https://t.co/UHOugYkwZA https://t.co/1Hq1eHsIGh",9,0
1375145391860150274,"2021-03-25T17:59:45Z","@Linkslurper Hey fren, you can connect your wallet on https://t.co/0OVecZ74Ev you need to make sure you have enough eth for gas",0,0
1375145387334500356,"2021-03-25T17:59:43Z","Trade all your BITCOIN and All Valid Gift Cards  @GreysExchange and get paid fast 🔥  • BTC || ETH || USDT || XRP || LTC || BCH  ALL GIFT CARDS ✅  iTunes  Steam Google play Amazon  Walmart Grendot  Venmo  Slide into our dm @GreysExchange for Smooth Transactions",24,0
1375145382104203265,"2021-03-25T17:59:42Z","Light at the end of ETH’s tunnel  Going to wait a bit but finally seeing something that could actually turn bullish over BTC  Feels like forever",1122,0
1375145377356263431,"2021-03-25T17:59:41Z","Order successful!  LAND Coordinates: [7, 17] Price: 4.0000 $ETH ($7,165.72 USD = 4.0000 $ETH)  Purchased by https://t.co/TjZXP15fDX from https://t.co/VzSrUwDTzB  https://t.co/QyovVAV7sf #decentraland #land #parcel #estate #mana https://t.co/JBMUSpe1L8",2,0
1375145364886458369,"2021-03-25T17:59:38Z","if you think, the market is totally bad in this situation. but I say, this is a great opportunity to buy more.  $BTC $DOT $ETH $ADA $ATOM $NEM $COTI $BTT $DENT $BNB $REN $NANO $HOT $NPXS $LTC",13,0
1375145360860020742,"2021-03-25T17:59:37Z","Tezos is the only smart contract platform that hasn’t boomed yet, with $Eth and $dot getting all of this hype, just seems like $XTZ has the most % to gain, but idk...",84,18
1375145357982765059,"2021-03-25T17:59:36Z","🚓 #CryptoDogs #116 💎 RARE 💎 Rarity Score 15/20   🐶 0.2 $ETH on @rariblecom   https://t.co/h4rSBf5EnA  #NFT #NFTs #NFTart #NFTCommunity #cryptoart #ethereum #rarible #collectibles #nonfungible #erc721",5,18
1375145356351115273,"2021-03-25T17:59:36Z","RT @AleyArtist: A month has passed since I was in #nft ... and I have already earned around 8 ETH...don't stop believing in yourself...✨ I’…",457,18
1375145355654930437,"2021-03-25T17:59:36Z","RT @CashNCrypto: $150 to one person in 48hrs  Rt &amp; follow me + @domscrypto &amp; @boar_eth",2067,18
1375145353121566722,"2021-03-25T17:59:35Z","New Airdrop: Diamond Crystal (DCT) Reward: 100 DCT ($100) Rate: ⭐️⭐️⭐️⭐️ Focus: Distribution starts after airdrop ends   Bot Airdrop Link: https://t.co/9Qzk47HUKt  #Airdrop #giveaway #BTC #ETH",4033,18
1375145345936728071,"2021-03-25T17:59:34Z","Hello @Poolz__ community !  After @bepronet ,  Tomorow #tacoswap Dex open a new pool for poolz token owner.   You will have more rewards than uniswap !  See you tomorow ! Welcome !  #poolz #uniswap #DeFi #ETH #Crypto #bepronet #liberezcrypto4youOFF #tacoswap",1210,18
1375145338626048003,"2021-03-25T17:59:32Z","@charliegough19 @MartiniGuyYT I belive people who are bear on $ETH is either people that miss the bus when $ETH was bellow $500 or is people that can't afford to buy even 30% dips appears !This is why all you guys  go to the $1 coin,ETH market cap is the second 4 to 5 times more than the 3 largest market cap",7,0
1375145334490476549,"2021-03-25T17:59:31Z","Hello @Poolz__ community !  After @bepronet ,  Tomorow #tacoswap Dex open a new pool for poolz token owner.   You will have more rewards than uniswap !  See you tomorow ! Welcome !  #poolz #uniswap #DeFi #ETH #Crypto #bepronet #liberezcrypto4youOFF #tacoswap",1210,0
1375145328282890253,"2021-03-25T17:59:29Z","STC one of the respective thought is for Unprivileged Children in the world. STC 20% of total profit goes to STC special fund for Safe the Children forum. #STC $STC #ETH #DEFI #DONATION",2307,0
1375145319730704385,"2021-03-25T17:59:27Z","💎 T H I N K 💎  ✨ Artwork by @XCOPYART 💰 Sold to @Crypto888crypto for 99.0 ETH ($156,538.80)  https://t.co/kvjHmPIiip  #cryptoart #NFT https://t.co/nu5QsKEdGl",76,0
1375145318120095750,"2021-03-25T17:59:27Z","https://t.co/Ywomnycnn8 might be the best opportunity of your life. HEX is designed to go up over 10,000x in only 2.5 years. HEX is FREE for Bitcoin holders! #Ethereum can be transformed into HEX. Imagine you could buy #Bitcoin for $1 in 2011. Don't miss that chance again! #ETH",4574,0
1375145315188232194,"2021-03-25T17:59:26Z","Hello @Poolz__ community !  After @bepronet ,  Tomorow #tacoswap Dex open a new pool for poolz token owner.   You will have more rewards than uniswap !  See you tomorow ! Welcome !  #poolz #uniswap #DeFi #ETH #Crypto #bepronet #liberezcrypto4youOFF #tacoswap",1210,0
1375145308435345411,"2021-03-25T17:59:25Z","Eth 2.0 once held promises for scalability, new functionality and efficiency. Where's that all gone?  https://t.co/WL6EAW0tfH",2,0
1375145306090790918,"2021-03-25T17:59:24Z","RT @PreshXace: Someone tell our Erica to buy #btc or #ETH  or even #BNB ....she has to maintain queen standards",8,0
1375145303964196865,"2021-03-25T17:59:24Z","Know how you can use our ZUZ NFT Minter step by step here: https://t.co/IbaKGfpgem   $ZUZ $ZUT $uni $matic $eth #ZUZProtocol #ZeroUtility #nft #nftmarket",42,13
1375145299065282561,"2021-03-25T17:59:22Z","🚀 Safe The Children  🔷 Token Symbol : STC  🔷 Contract: https://t.co/nk3qsF2PJV  🔷 Website: https://t.co/4y0g7dqswM  🔷 Whitepaper: https://t.co/PHPZI4dbyR  🔷 Presentation Video : https://t.co/Mycfov12IU  #Safe_Childrens #Bitcoin  #Binance #BinanceSmartChain #DEFI  #BTC #ETH",14723,13
1375145283244466183,"2021-03-25T17:59:19Z","Hello @Poolz__ community !  After @bepronet ,  Tomorow #tacoswap Dex open a new pool for poolz token owner.   You will have more rewards than uniswap !  See you tomorow ! Welcome !  #poolz #uniswap #DeFi #ETH #Crypto #bepronet #liberezcrypto4youOFF #tacoswap",1210,13
1375145283021987840,"2021-03-25T17:59:19Z","🔥We have started random global airdrop of 100,000 NFTs to single wallet ETH address 🚀 USDT-NFTs is listed on Uniswap  🚀 The contract address: 0x6599fc3e77cbfa6f6e9cac605a30b1e78827eba0  💰 Holding more NFTs makes you richer  🚀Like、Retweet &amp; Tag 3 friends  #NFTs #NFT #AIRDROP https://t.co/CMUC0Q0TXd",854,13
1375145278307774471,"2021-03-25T17:59:17Z","@adams_twin $SENT is going from being on Ethereum ( $ETH ), to its own Cosmos ( $ATOM )-based mainnet.  Therefore there will be a different token. No longer ERC-20, instead, Sentinel’s own sovereign chain token.  If you hold $SENT you need to swap. You can then stake for passive income! 🔥 https://t.co/GFea1MYe8l",9,13
1375145273530445827,"2021-03-25T17:59:16Z","🚓 #CryptoDogs #116 💎 RARE 💎 Rarity Score 15/20   🐶 0.2 $ETH on @rariblecom   https://t.co/h4rSBf5EnA  #NFT #NFTs #NFTart #NFTCommunity #cryptoart #ethereum #rarible #collectibles #nonfungible #erc721",5,1
1375145262667157504,"2021-03-25T17:59:14Z","@adams_twin $SENT is going from being on Ethereum ( $ETH ), to its own Cosmos ( $ATOM )-based mainnet.  Therefore there will be a different token. No longer ERC-20, instead, Sentinel’s own sovereign chain token.  If you hold $SENT you need to swap. You can then stake for passive income! 🔥 https://t.co/GFea1MYe8l",9,1
1375145243914465280,"2021-03-25T17:59:09Z","@adams_twin $SENT is going from being on Ethereum ( $ETH ), to its own Cosmos ( $ATOM )-based mainnet.  Therefore there will be a different token. No longer ERC-20, instead, Sentinel’s own sovereign chain token.  If you hold $SENT you need to swap. You can then stake for passive income! 🔥 https://t.co/GFea1MYe8l",9,1
1375145241871708164,"2021-03-25T17:59:09Z","🏆 Follow us &amp; Retweet this tweet, Specify the ETH address in the tweet comment to get 10 #BIT ($10 worth) or 50 #BIT ($50 worth) #BitScores Airdrop Tokens! 🎁 $250,000 Prize Pool Full rules: https://t.co/N53M5nRXr9  #giveaway #airdrops #bounty #giveaways #defi #eth #btc #airdrop https://t.co/m77hDtRsBv",3577,1
1375145233269264385,"2021-03-25T17:59:07Z","@Thiag990 @mickalamasse1 @Poolz__ @bepronet Hello  @Poolz__  community !  After  @bepronet  ,  Tomorow #tacoswap Dex open a new pool for poolz token owner.   You will have more rewards than uniswap !  See you tomorow ! Welcome !  #poolz #uniswap #DeFi #ETH #Crypto #bepronet #liberezcrypto4youOFF #tacoswap",63,1
1375145230777921542,"2021-03-25T17:59:06Z","Hot #nft $vidt giveaway   $ont $chz $theta $lto  $ada $akro $gvt $req $xtz $matic $egld $uni $coti $doge $sxp $aave $theta $eth $vidt $btc $reef $xem $rvn $xlm $xrp $zec $sushi $lit #holo $trx $bnb $link $iota $dot $atom $iost $vet $mkr $sxp $xvs $utk $celr #BSC #ada $hot $zil",9,1
1375145225497239560,"2021-03-25T17:59:05Z","@adams_twin $SENT is going from being on Ethereum ( $ETH ), to its own Cosmos ( $ATOM )-based mainnet.  Therefore there will be a different token. No longer ERC-20, instead, Sentinel’s own sovereign chain token.  If you hold $SENT you need to swap. You can then stake for passive income! 🔥 https://t.co/GFea1MYe8l",9,1
1375145214944350217,"2021-03-25T17:59:02Z","Yo #NFT Fam, leave your best/recent piece below. Want to support some more of you with a bit of ETH I’ve got ✌🏻  Feel free to RT so others can see this too",141,1
1375145203116478468,"2021-03-25T17:59:00Z","@adams_twin $SENT is going from being on Ethereum ( $ETH ), to its own Cosmos ( $ATOM )-based mainnet.  Therefore there will be a different token. No longer ERC-20, instead, Sentinel’s own sovereign chain token.  If you hold $SENT you need to swap. You can then stake for passive income! 🔥 https://t.co/GFea1MYe8l",9,1
1375145198162960388,"2021-03-25T17:58:58Z","Huge moves in just over a minute! #btc #eth",0,0
1375145196434903047,"2021-03-25T17:58:58Z","@moonshilla kind of a bummer  i really expected eth to be around 3k by now  😵",0,0
1375145187081601026,"2021-03-25T17:58:56Z","#ChillBill #NFT Giveaway at 💯 retweets.  Comment RANCH to Enter! #ETH #Bitcoin #nftcollector #NFTCommunity #cryptoartist https://t.co/4xBmdSNPZM",26,20
1375145181922664459,"2021-03-25T17:58:54Z","@adams_twin $SENT is going from being on Ethereum ( $ETH ), to its own Cosmos ( $ATOM )-based mainnet.  Therefore there will be a different token. No longer ERC-20, instead, Sentinel’s own sovereign chain token.  If you hold $SENT you need to swap. You can then stake for passive income! 🔥 https://t.co/GFea1MYe8l",9,20
1375145173760548871,"2021-03-25T17:58:53Z","S/R Breakout and Super Trend detected for $ETH 🧐  Join to recieve TA detections for $ETH  👉 https://t.co/AAcZjVb7HZ  👀 #crypto #cryptocurrencies https://t.co/Gv71BrOFzl",73,20
1375145171751428096,"2021-03-25T17:58:52Z","@azETHERin Palace Pigeon (12s loop/reserve price 0.2 ETH)  https://t.co/JNUcH6dvG3",0,0
1375145168999960576,"2021-03-25T17:58:51Z","RT @RealSaidov: I sold all my #ETH... this project has too many loose screws.",287,0
1375145163211821058,"2021-03-25T17:58:50Z","@dantappersound I like it, I feel it offers some things that ETH can't at the moment. It cost only .08 tez to mint a work. It is a little bare bones but I think that can be an advantage. A lot of people are using it to experiment and implement code directly into the work.",1,0
1375145160674316289,"2021-03-25T17:58:49Z","RT @trixmv2: @mickalamasse1 @Poolz__ @bepronet #tacoswap #cryptoforyou @Poolz__ @bepronet #DeFi #ETH #Crypto COME TO TACOSWAP 🌶🌶🌶🌶🌶🌶",53,0
1375145152591712256,"2021-03-25T17:58:47Z","@Cokedupoptions Be like White Wolf... @MRPHSupplyChain, they are selected by Gulftainer and OneValley as one of 10 finalists from more than 2000 startups, https://t.co/IlG1ki3SAH.  The road to $1B MC in progress !  #Crypto #cryptocurrency #blockchain #Bitcoin #Ethereum $MRPH $BTC $ETH",3,0
1375145151325212680,"2021-03-25T17:58:47Z","@adams_twin $SENT is going from being on Ethereum ( $ETH ), to its own Cosmos ( $ATOM )-based mainnet.  Therefore there will be a different token. No longer ERC-20, instead, Sentinel’s own sovereign chain token.  If you hold $SENT you need to swap. You can then stake for passive income! 🔥 https://t.co/GFea1MYe8l",9,9
1375145147139248129,"2021-03-25T17:58:46Z","RT @EquityAsset: $LABS -   7 cents incoming.  #crypto  $xrp $eth https://t.co/uwKGi7AzQB",2,9
1375145143695777797,"2021-03-25T17:58:45Z","Creating a puzzle from one of my works 1/3 #NFT #NFTCommunity #cryptoart #nftcollector $eth #cryptoart #digitalart #Bitcoin #rarible https://t.co/ccikMzRpp3",7,0
1375145133671342083,"2021-03-25T17:58:43Z","Hello @Poolz__ community !  After @bepronet ,  Tomorow #tacoswap Dex open a new pool for poolz token owner.   You will have more rewards than uniswap !  See you tomorow ! Welcome !  #poolz #uniswap #DeFi #ETH #Crypto #bepronet #liberezcrypto4youOFF #tacoswap",1210,0
1375145128415928331,"2021-03-25T17:58:42Z","We are happy to announce #GSX will be listing on @BitMartExchange  Debut pairing: GSX/USDT  Deposits open: 4/18/2021 10:00 AM (EDT) Trading opens: 4/19/2021 10:00 AM (EDT)  #BTC and #ETH pairings coming soon. 🤝  Register now at https://t.co/PahzS1PRWG  https://t.co/chEnFBEFL4 https://t.co/va7dcELivO",134,0
1375145119926657030,"2021-03-25T17:58:40Z","RT @BluesCrypto: $ETH showing a bit of strength for the first time since 1939",1842,0
1375145119515615240,"2021-03-25T17:58:40Z","@Vumpkin1 @withFND king eth or game over",1,0
1375145115946266626,"2021-03-25T17:58:39Z","RT @iamDCinvestor: ready to watch everyone rotate from $BTC to $ETH again  soon™",589,0
1375145113370902529,"2021-03-25T17:58:38Z","AIRDROP -  Win 10,000,000 $SOLAR. To participate RT, Like, Join our Telegram and fill out this form  https://t.co/3eYqlLYgZg  Telegram: https://t.co/cwwylgrqqq  #BSC  #PancakeSwap #BSCGems #BNB #ETH #BTC #Crypto 9:46 PM · Mar 24, 2021·Twitter Web Ap",106,0
1375145108165779460,"2021-03-25T17:58:37Z","@eth__ms Prune !!!",0,0
1375145105862975494,"2021-03-25T17:58:36Z","The DEX @FinanceChainge is set to launch on the @FUSIONProtocol network with over a million users on the protocols waitlist. This decentralized exchange aims to innovate on traditional models through leveraging the Fusion Network.  #BSC #BTC #ETH #BNB  https://t.co/xx55YiGfm3",21660,0
1375145105330429952,"2021-03-25T17:58:36Z","#cryptoartists - What are you minting today?? Show me something new that you are particularly proud of!!    #eth is cheap at the moment, so it's a good time to buy!   #NFT #NFTs #nftcollector #etherium  #cryptoart",4,0
1375145096396513280,"2021-03-25T17:58:34Z","DAY 6 of our 8 DAY OF PICKLZ #GIVEAWAY!  You will win one of our 4,269 randomly generated picklz in preparation for our 3/28 sale  6th Drawing: TODAY @ 10pm UTC  Rules to Enter: Join us on discord: https://t.co/sMWjygwvxX  Follow us on twitter RT this tweet! #NFTs #free #NFT #ETH https://t.co/GUmKGJn32K",7,0
1375145093536043012,"2021-03-25T17:58:33Z","RT @StefD46369249: I checked they have huge reward It’s a New dex. Personally I will move 10 eth. https://t.co/RmlrFVidA1",12,0
1375145091547815938,"2021-03-25T17:58:33Z","RT @Safe_Childrens: Thankyou For support us. $STC #STC #DEFI $BNB $BSC $BTC $ETH https://t.co/XcNikDySFH",83,0
1375145087945089025,"2021-03-25T17:58:32Z","@mickalamasse1 @Poolz__ @bepronet @Poolz__  Soon we'll go to the moon! But to carry out the #tacoswap project, we need you!!! It's now! #tacoswaptothemoon #ToTheMoon #Tacotoken🌶 #defi #dex #crypto @elonmusk #ETH #Crd #Sushiswap 🚀🚀🚀🌶🌶🌶🌶❤️❤️❤️❤️",62,0
1375145085894021122,"2021-03-25T17:58:32Z","🔸 New Listing🔸   #BKEX will list #UNCX @UNCX_token 🚀 🚀  - Trading pair: UNCX/USDT - Trading time: 18:00 on Mar 24 (UTC+8)  🔹 🔹 More details: https://t.co/Ohc0uK5rsT  #Bitcoin #ETH #BKK #Blockchain https://t.co/a2IOLaAB4H",10,0
1375145082249089024,"2021-03-25T17:58:31Z","@jorgeriosmolina this is my last remaining piece on KO!   1of1  4800 x 6000  https://t.co/8Dlm9jymqk  #nft #cryptoart #cryptoartist #eth",1,0
1375145072761610240,"2021-03-25T17:58:28Z","New Airdrop: Diamond Crystal (DCT) Reward: 100 DCT ($100) Rate: ⭐️⭐️⭐️⭐️ Focus: Distribution starts after airdrop ends   Bot Airdrop Link: https://t.co/9Qzk47HUKt  #Airdrop #giveaway #BTC #ETH",4033,0
1375145071952154640,"2021-03-25T17:58:28Z","Yo #NFT Fam, leave your best/recent piece below. Want to support some more of you with a bit of ETH I’ve got ✌🏻  Feel free to RT so others can see this too",141,0
1375145069418663937,"2021-03-25T17:58:28Z","💧Roku Network Airdrop 💧  🏆 Task:          ➕  15 ROK (~$5)  👨‍👩‍👧 Referral:   ➕  3 ROK (~$1)  🔛  Airdrop Link &amp; Information: https://t.co/YhvsOcfEbH  #cryptocurrency #Crypto #Bitcoin  #BSC #BinanceSmartChain #Ethereum #ETH #Airdrop #bounty #ROK #RokuCoin #RokuNetwork",3813,0
1375145064612126723,"2021-03-25T17:58:27Z","NFT Celebration gibeaway #nft 💎250$ VIDT GIVEAWAY 💎 Follow @VIDT_Datalink Follow @thomask_cole Like and RT  Write your idea for a new VIDT usecase in https://t.co/EOGzPCL8Wn . 5x50 $VIDT will be given out.  Contest goes from 08.03 - 08.04 $btc $chz $eth https://t.co/k8WHIsT94y https://t.co/zeN7yoSaGh",16,4
1375145055812468737,"2021-03-25T17:58:24Z","@mickalamasse1 @Poolz__ @bepronet 🥳Hello @Poolz__  community !  🌶TacoSwap by CRD and we have a higher remuneration than UniSwap!  #ETH #tacoswaptothemoon #blockchain #Ethereum #DeFi #ADA #uniswap #Sushiswap #Crypto #NFT #BTC #Bitcoin #Binance #kraken",18,4
1375145053291749378,"2021-03-25T17:58:24Z","We have a winner! The NFT version of this column has sold for 350 ETH, or about $560,000, with proceeds going to the NYT's Neediest Cases Fund. https://t.co/gzbcw6Ymw7",343,4
1375145050984734726,"2021-03-25T17:58:23Z","🚀 Safe The Children  🔷 Token Symbol : STC  🔷 Contract: https://t.co/nk3qsF2PJV  🔷 Website: https://t.co/4y0g7dqswM  🔷 Whitepaper: https://t.co/PHPZI4dbyR  🔷 Presentation Video : https://t.co/Mycfov12IU  #Safe_Childrens #Bitcoin  #Binance #BinanceSmartChain #DEFI  #BTC #ETH",14723,4
1375145046656319498,"2021-03-25T17:58:22Z","@RaydiumProtocol Is there something where you can track farming yields and impernament loss? Like yieldwatch for eth/bsc.",1,0
1375145045737672705,"2021-03-25T17:58:22Z","💧DogeSwap Airdrop💧  🏆 Task:          ➕   7 DOG  👨‍👩‍👧 Referral:     ➕   2 DOG  🔛  Airdrop Link &amp; Information: https://t.co/3rlt9kiu64  #cryptocurrency #Crypto #Bitcoin  #DogeSwap #Ethereum #ETH #Airdrop #bounty #Doge #AirdropStario",4197,0
1375145038469079045,"2021-03-25T17:58:20Z","RT @Diditaihuttu: Does this mean people are selling #bitcoin to buy #etherium 🤔 https://t.co/uIpBc3HzYX",39,0
1375145029128310788,"2021-03-25T17:58:18Z","I just dropped this Felicette drawing as #NFT at @rariblecom   4/4 available at 0.015 ETH  https://t.co/tDPZz0mK56  #NFTs #NFTCommunity #nftcollectors #nftcollector #cryptoart #rarible #nftdrop https://t.co/GursPxVTZG",5,1
1375145005262762000,"2021-03-25T17:58:12Z","Don’t bet against $FET @Fetch_ai. First hint of NUKES coming 🚀 just dropped in @oddgems ama today! WOW 😳   $chz $atom $iota $comp $agi $btc $eth $link $rsr $bnb $algo $uni $theta $orai $enj $hbar $qnt $ada $dot #api3 $albt $crypto https://t.co/m7Y4Ti3zEP",153,1
1375145000577736706,"2021-03-25T17:58:11Z","The DEX @FinanceChainge is set to launch on the @FUSIONProtocol network with over a million users on the protocols waitlist. This decentralized exchange aims to innovate on traditional models through leveraging the Fusion Network.  #BSC #BTC #ETH #BNB  https://t.co/xx55YiGfm3",21660,1
1375144999579422722,"2021-03-25T17:58:11Z","We gave this to you with 30 people in the telegram, it just raised 380 eth in seconds Well done @meliorafinance green cucumbers all around https://t.co/PGhxM1QUJY",24,1
1375144993619329027,"2021-03-25T17:58:10Z","@TheCryptoLif7 @Poolz__ Hello @Poolz__ community !  After @bepronet ,  Tomorow #tacoswap Dex open a new pool for poolz token owner.   You will have more rewards than uniswap !  See you tomorow ! Welcome !  #poolz #uniswap #DeFi #ETH #Crypto #bepronet #liberezcrypto4youOFF #tacoswap",1,0
1375144993241829382,"2021-03-25T17:58:10Z","And it's LIVE! $POODL now available for trading on WhiteBit! Here's what Tyrone has to say about it ;) #HOODLTHEPOODL   #SAFEMOON #HOGE $HOGE #crypto #cryptocurrencies #btc #eth #usdt #NFT https://t.co/Q3gLrA5hTz",334,0
1375144984039591942,"2021-03-25T17:58:07Z","$10M Crypto Portfolio of @Bitboy_Crypto Revealed! 😱💵  - $BTC - $ETH - $ADA - $DOT - $AAVE - $ERN - $GRT - $NIM  #cryptocurrencies #Crypto #Bitcoin #Ethereum #CardanoADA   https://t.co/yNxwZ8SInY",3,0
1375144966448689152,"2021-03-25T17:58:03Z","@Sentinel_co @LinkSentinel Should node operators running eth dVPNs switch to running Tendermint dVPNs?",0,0
1375144965706293254,"2021-03-25T17:58:03Z","🔔Poll Finance Token Sale - Softcap is now live! Get +20% more tokens as an early participation bonus!  Get your tokens immediately upon sending ETH to the contract.  🔹Send ETH to : 0x67ad111e81408fc444b6a15bd4ffa40c6e919b65  Etherscan : https://t.co/s9GOTZ4E96  $POLL $DEFI https://t.co/H86T6dLHgj",1471,0
1375144959276417025,"2021-03-25T17:58:01Z","Welcome to massive Q DAO airdrop!   1. go now to telegram https://t.co/COyXgODY1z   2. Stay in telegram chat and wait announcement.  3. HOLD this gem until 10x   (soon - QDAO launch cross-chain for BSC, Polkadot and ETH)",4254,0
1375144952426950657,"2021-03-25T17:58:00Z","23 Takeaways on ETH 2.0: The Next Evolution of the Cryptoeconomy https://t.co/wccOqBzg42",0,0
1375144934408261634,"2021-03-25T17:57:55Z","Protect your liberty. Those that want to disarm you want to do bad things to you.  #2A #guns #maga #TUSC #crypto #btc #ETH #bitcoin #rkba https://t.co/amNhGXiPCB",18,0
1375144932869087234,"2021-03-25T17:57:55Z","Spot long $ETH as well https://t.co/4G9hc8g6hX",1,0
1375144921624150019,"2021-03-25T17:57:52Z","@cypherchk https://t.co/5IfyNcT3VD  TOTEM: A natural object or animal that is believed by a particular society to have spiritual significance and that is adopted by it as an emblem.  - TOTEM XII of XIII - 0.3 ETH  6x10K render 🔥",2,1
1375144918855864330,"2021-03-25T17:57:52Z","@elonmusk You can now buy a Tesla with $BTC, $ETH, $EOS (and soon $XRP) using #Wanchain's cross-chain technology and 😲🔥💪🚀 @wanswap  $iota $comp $agi $btc $eth $link $xrp $ksm $rsr $bnb $crv $algo $uni $theta $orai $enj $chr $hbar $qnt $yfte $yfi $ada $dot $albt $wasp #DeFi https://t.co/WwTDQJXv1k",24,1
1375144917362741254,"2021-03-25T17:57:51Z","@goatonNFTacid TRON on ETH is locked up for X days, where you can’t withdraw it, and earn interest in some shitcoin, yes. Same principle as Bitconnect",0,0
1375144912748953613,"2021-03-25T17:57:50Z","S/R Breakout and Super Trend detected for $ETH 🧐  Join to recieve TA detections for $ETH  👉 https://t.co/AAcZjVb7HZ  👀 #crypto #cryptocurrencies https://t.co/Gv71BrOFzl",73,0
1375144888753397761,"2021-03-25T17:57:45Z","@orianna_orii I sowwy What's your fav snack then  I shall'eth try",1,0
1375144888023588877,"2021-03-25T17:57:44Z","The $ETH Ultra Sound Money Thesis 🔊🦇  This 3 word meme is the result of 12 years of applied crypto-economic research in both cryptography *and* economics  I wrote a 6,000 word thesis in @BanklessHQ:  https://t.co/bnQtYlZfg9  But here's the Ultra Sound Money thesis, in a thread:",218,0
1375144886425518084,"2021-03-25T17:57:44Z","Verge is proud to announce our listing on Mandala Exchange - Powered by Binance Cloud! You can now trade #XVG, #BTC, &amp; #ETH on Mandala with full Binance liquidity! - Trade Hundreds of Pairs (990+) - Lock MDX for .05% trading fees - Refer and earn $ https://t.co/gfrIZ2HUSA https://t.co/2o5QeK0Q8o",460,0
1375144882247979009,"2021-03-25T17:57:43Z","Current Gas Fee Per Transaction  $GO  $0.001💎 vs $ETH $100.00💩  #GoChain can handle 100X the Volume of #Ethereum you won’t have to raise the Gas price very often (if ever). So most days, GoChain Gas fees will only be a fraction of a penny. Switch to GO   https://t.co/LLrjT46zyL",85,0
1375144880805011458,"2021-03-25T17:57:43Z","The $XTZ/BTC bottom is in.  👉 Join Channel: https://t.co/Cg2lD5ExP8  $BTC $ETH #NFT $PERL $ENJ $FLOW $THETA #BSC $REEF $LUNA $SAND $AXS $TVK $HOGE $CHZ $STX $ROSE $TROY $ONE $CERL $IRIS $ANC $ADA $DIA $XRP $DOGE $ATOM $LUNA $ZCX $BNB $WABI $LTO $CVC https://t.co/EUWuzxFX03",3,0
