"ID","created_at","text","like_count","rt_count"
1377818065057017860,"2021-04-02T02:59:59Z","ETH HODLERS IN CRISIS MODE AS CRYPTO CURRENCY REFUSES TO BUST THRU $2,000 *",46,5
1377818030999101443,"2021-04-02T02:59:51Z","RT @Cointelegraph: The season of all-time highs isn't over!  ETH breaks $2,000 https://t.co/inelNFX9wk",477,100
1377818023847813126,"2021-04-02T02:59:50Z","Read this. Then read it ten more times. $TEL will soon say goodbye to sub-pennies and trade in the pennies. 10 cents will be here faster than we can imagine.   #Telcoin #Telfam $BTC $ETH #Kucoin #Bitcoin https://t.co/gFxdBSXemv",53,10
1377818021507571712,"2021-04-02T02:59:49Z","#Bitcoin and #Ethereum are breaking out! 2k for eth and 60 k for btc.... Paaamp",1,0
1377818019531923456,"2021-04-02T02:59:49Z","If #BTC breaks $69,420 in APRIL 2021 I’ll give a random person my R8  Super SIMPLE: Like ✔️ RT ✔️ Follow ✔️ @JBTheCryptoKing  Drop eth addy ✔️ https://t.co/0ZTkU9CUuI",7875,3934
1377818016705052673,"2021-04-02T02:59:48Z","Crypto art is a bubble. Art existing as an NFT does not make it so valuable that people are suddenly willing to drop thousands on one piece of art. It’s more that people bought a bunch of ETH 6 years ago when it was only a few dollars, and finally have the opportunity to spend it",272,25
1377818014511472644,"2021-04-02T02:59:47Z","MEME COMPETITION   YOU MUST:  - CREATE A MEME ⚡️ for https://t.co/snxgpRAvQm  - FOLLOW TWITTER  https://t.co/omMWPnBOMW  - JOIN TELEGRAM  https://t.co/lXSR63OSgD  The WINNER will receive 0.25 in ETH 🤑 on 3/04/21  Post CREATIONS in the comments  #CryptoNews  @PhysalisFinance",55,43
1377818004268924928,"2021-04-02T02:59:45Z","$ETH            vs         $2,000     ( •_•)                          (•_• )     ( ง )ง                          ୧( ୧ )    /︶\                              /︶\",12645,1704
1377817999831302148,"2021-04-02T02:59:44Z","Ethereum is knocking on the door of $2000. I was a crypto disbeliever but threw in the towel months ago. Why? Global central bank liquidity injections are off the charts and here to stay. The new normal. #Crypto #fed #Eth #cryptocurrency #markets",0,0
1377817996526112771,"2021-04-02T02:59:43Z","📣 #BCN1 Daily Digest 04/01/2021  📌 @TenseT_io developed Second-generation ETF  📌 @astronauttoken implemented KYC  📌 @Moma_Finance introduced Lending Pool  📌 @YIELDapp launced YLD_ETH SushiSwap Onsen Pool  📌 @saffronfinance_ Weekly Update https://t.co/rwhAuJNgyC",142,135
1377817996123590659,"2021-04-02T02:59:43Z","RT @JRNYcrypto: $60k #Bitcoin and $2k $ETH 👀",1935,149
1377817993162469377,"2021-04-02T02:59:42Z","Bitcoin at $60k and Ethereum at $2k 🔥 🔥   $btc $eth  #crypto #hodl",1,0
1377817993149734915,"2021-04-02T02:59:42Z","$ETH            vs         $2,000     ( •_•)                          (•_• )     ( ง )ง                          ୧( ୧ )    /︶\                              /︶\",12645,1704
1377817991413391361,"2021-04-02T02:59:42Z","RT @girlgone_crypto: 60k #bitcoin and 2k $ETH 🔥",2175,221
1377817991203725315,"2021-04-02T02:59:42Z","RT @iamoliverneil: 🚨 WE HAVE BROKE #60k 🚨  #BULLISH   #Bitcoin #BTC #ETH #CryptoNews  @coinkit_ mon 10 100 BTC https://t.co/L9JVZvdvtx",35,99
1377817987596619779,"2021-04-02T02:59:41Z","RT @Crypt0mer: NEW FRESH money organically flowing into $ETH and $BTC https://t.co/eplDzWLg5g",4,1
1377817978671034369,"2021-04-02T02:59:39Z","🎁 Dropping some $ETH 🎈💵  Like &amp; RT. It will show up in your CCtip wallet.  ✅Join $BASE 💎 Telegram👇 https://t.co/tg0tLCDYyM   ___________________________ @cctip_com airdrop 0.01 ETH 99999 #Ethereum",264,222
1377817977316237314,"2021-04-02T02:59:39Z","Eth breaking 2k... this could b the pump we all been waitin for",1,0
1377817974862536710,"2021-04-02T02:59:38Z","RT @davidgokhshtein: #Bitcoin : $60,000  $ETH : $2,000   LETS SEND THIS SH*T! 🔥",303,35
1377817965119201281,"2021-04-02T02:59:36Z","Holding my alts during this bitcoin and eth pumps. https://t.co/CnroXt7SYx",0,0
1377817962556497920,"2021-04-02T02:59:35Z","RT @girlgone_crypto: 60k #bitcoin and 2k $ETH 🔥",2175,221
1377817962288058378,"2021-04-02T02:59:35Z","💧Twinci Airdrop 💧  🏆 Task:          ➕ $15 worth of  TRX                              ➕ $50 worth of TWIN  🔛 Airdrop Link &amp; Information: https://t.co/aV7t49dRDX  #cryptocurrency #Crypto #Bitcoin #Ethereum #ETH #Twinci #TWIN",1336,1777
1377817954717478920,"2021-04-02T02:59:33Z","Watching #BTC and #ETH battle toward their ATHs 👀 https://t.co/GvlMOZQyc8",1,0
1377817945951195140,"2021-04-02T02:59:31Z","Today is a Pinnacle day for all #Ethereum holders.  Today we reached new heights..📈  Comment Below Your Price Prediction for #ETH By The End Of 2021 🪙 @coinkit_ mon 10 100 BTC https://t.co/appEdWy8hN",169,125
1377817941790445571,"2021-04-02T02:59:30Z","RT @davidgokhshtein: #Bitcoin : $60,000  $ETH : $2,000   LETS SEND THIS SH*T! 🔥",303,35
1377817931766243330,"2021-04-02T02:59:28Z","Cliq DAO Airdrop Officially Launched Fill this Form https://t.co/AFdBErdRVn to Get 500 CLQ Tokens Worth $50 USD  Don't Miss this chance  Token Distribution April 2021 Month End. #BSC $BNB $ETH $BTC  #Bitcoin #BinanceSmartChain #BNB #cryptocurrency #crypto #NFTs #Airdrops #Airdrop https://t.co/8whsgLzhEl",530,426
1377817930776203266,"2021-04-02T02:59:27Z","|￣￣￣￣￣￣￣￣￣￣￣￣￣|    $ETH is back over $2,000 |＿＿＿＿＿＿＿＿＿＿＿＿＿|                      (\__/)  ||                      (•ㅅ•) ||                      / 　 づ",1556,185
1377817929010532352,"2021-04-02T02:59:27Z","Some more fiesty activity going on -- gotta love it!   0xfBaB took us to 7.40 ETH before 0x3E09 made a power move and pulled bidding up to 7.77 ETH!   Into the last 2 minutes now!",1,0
1377817928771457025,"2021-04-02T02:59:27Z","@TheEpicGameHub @geraldlondon12 @intocryptoverse Thank you for your perspective. Just wanted to confirm because I have most of that and more... valid points. I’ve milked Eth for a solid gallon. But the other Alts are going to rage. Either way, best of luck to ya",0,0
1377817927995568129,"2021-04-02T02:59:27Z","@digartcollector Want to diversify your #NFT portfolio? Consider adding some #nftmusic!   Listen to this track by yours truly 🙂  https://t.co/cVE1ltTObq  If you like the music, the NFT is available for 0.25 ETH. Only 10 copies in existence.",1,1
1377817920890232832,"2021-04-02T02:59:25Z","This is the time when you stop paying attention to the so-called CT Pro types who have been talking about trading profits on the way up for the past week and really missing out on big chunks of this rally.  $ETH to ~$3k within a week is a possibility. That's all I'll say.",5,0
1377817920177328130,"2021-04-02T02:59:25Z","@beincrypto $DVG  I'm all hyped for this wonderful project.   This one is going to take the #defi space by storm  @VenturesDao brings a easy to use automated asset manager and robo advisor🔥  #crypto #alts $ETH $BTC $LINK $DOT $OCEAN https://t.co/rUqMTId0z9",3,3
1377817917585203201,"2021-04-02T02:59:24Z","BULL RUN PF UPDATED TARGETS *New $CELL - $80-100* $ID - $5-10* $INFI - $10* $ORAI - $500+ $HTR - $100  $eRSDL - $10  $LINK - $150+ $AR - $50-100 $ADA - $20 $eGLD - $500-1k $ETH - $5-10k $KSM - NO CAP..riding this. $DOT - $250+ $XOR - $2k+ $VRA - $0.30 (+10c) $BTC - $80-100k https://t.co/KJlG1scbVh",412,72
1377817917136453632,"2021-04-02T02:59:24Z","RT @JRNYcrypto: $60k #Bitcoin and $2k $ETH 👀",1935,149
1377817913332092933,"2021-04-02T02:59:23Z","RT @_SMFX_: IF YOU SHORT $ETH HERE YOU HATE MONEY https://t.co/N2wWn3l4B2",42,5
1377817913218977792,"2021-04-02T02:59:23Z","@Zenon_Network  $ZNN $QSR $BNB $BTC $ETH $LTC 👽👀👀🛰️🌏 https://t.co/QmHgSO0dDA",5,0
1377817905304248329,"2021-04-02T02:59:21Z","$ETH            vs         $2,000     ( •_•)                            ( ง )=o                      (x_x )     /︶\                                _/￣|__",5098,613
1377817900963143685,"2021-04-02T02:59:20Z","@KirstinRunolfs2 For lovers of instant film photographs. Two new collections on @opensea from me.   https://t.co/v3taJhJ9oz   https://t.co/F1NAXvGp2f   #nft #nftphotography #nftcollector #eth #nftart #NFTCommunity #NFTartist #Cryptoart #fuji",0,0
1377817878376800258,"2021-04-02T02:59:15Z","If #BTC breaks $69,420 in APRIL 2021 I’ll give a random person my R8  Super SIMPLE: Like ✔️ RT ✔️ Follow ✔️ @JBTheCryptoKing  Drop eth addy ✔️ https://t.co/0ZTkU9CUuI",7875,3934
1377817872676847617,"2021-04-02T02:59:14Z","RT @JRNYcrypto: $60k #Bitcoin and $2k $ETH 👀",1935,149
1377817872395689989,"2021-04-02T02:59:14Z","#Ethereum inching towards price discovery again.  😲 All time high   Volume increasing 👀👀👀👀🚨🚨🚨🚨👀👀👀👀👀 Berlin update coming #eth $eth $ethe   @CredibleCrypto @MoonLamboio https://t.co/oM0RWPGMhk",10,3
1377817860257505282,"2021-04-02T02:59:11Z","$ETH            vs         $2,000     ( •_•)                            ( ง )=o                      (x_x )     /︶\                                _/￣|__",5098,613
1377817855303950341,"2021-04-02T02:59:09Z","@tanya_4d For lovers of instant film photographs. Two new collections on @opensea from me.   https://t.co/v3taJhJ9oz   https://t.co/F1NAXvGp2f   #nft #nftphotography #nftcollector #eth #nftart #NFTCommunity #NFTartist #Cryptoart #fuji",0,0
1377817854972600323,"2021-04-02T02:59:09Z","Diamond Crystal  1 DCT = 1 USD For Completing the tasks - Get 100 DCT ($100) For Each Valid Refer - Get 10 DCT ($10) for each referral  link: https://t.co/PMhEBLqGXD  #cryptocurrency #Crypto #Bitcoin #Ethereum #ETH #Airdrop #bounty",0,1
1377817853227716608,"2021-04-02T02:59:09Z","RT @girlgone_crypto: 60k #bitcoin and 2k $ETH 🔥",2175,221
1377817846932144128,"2021-04-02T02:59:07Z","I am a #BTC #ETH #LINK #UNI #Sushi  #BNT Maxi   Rising tide lifts all boats",47,1
1377817844226789376,"2021-04-02T02:59:07Z","ETH take yo ass over the 2k mark Damn it!",0,0
1377817840439357440,"2021-04-02T02:59:06Z","Today is a Pinnacle day for all #Ethereum holders.  Today we reached new heights..📈  Comment Below Your Price Prediction for #ETH By The End Of 2021 🪙 @coinkit_ mon 10 100 BTC https://t.co/appEdWy8hN",169,125
1377817837398462468,"2021-04-02T02:59:05Z","🚨 And the winner of the @RealVision poll is... 🚨  🥁 🥁 🥁  VECHAIN! 🥳  #VeChain $VET #VeFam $BTC $ETH $ADA $XRP $DOGE $XRP $XLM $DOT $UNI $LTC $FIL $LINK https://t.co/t21RBJpPYr",186,33
1377817834370211842,"2021-04-02T02:59:04Z","Punk 3443 has a new bid of 3,000 ETH ($5,915,879.88 USD) placed by 0x78b58e. https://t.co/rOB9i3eYnA #cryptopunks #ethereum https://t.co/IYACs4scVg",531,62
1377817829454487552,"2021-04-02T02:59:03Z","@paulraymondz @LegalNonAlien My only vested interest is that I own some. I invested because I thought the risk-reward was compelling. But I always considered it an odd technology and really more of a collectible than a digital currency. I think ETH has a better use-case as a software application.",0,0
1377817828192047108,"2021-04-02T02:59:03Z","@redsadbuddha 2k = 1 Eth",1,1
1377817822622015489,"2021-04-02T02:59:02Z","RT @thiccpokemon: 1 THICC RAICHU JUST SOLD FOR 3.375 ETH (6700$)  🍑🚀",30,9
1377817814795358208,"2021-04-02T02:59:00Z","Live in the moment🐯  #RT My new Horangi NFT on opensea🌈  Horangi is collection of 100NFTs that is inspired by 19th century funky Korean tiger paintings and folk arts.   #nft #nftart #nfts #nftartist #nftcollector #nftcommunity  #opensea #eth #ethereum #cryptoartist #cryptoart https://t.co/AXq9OvOiVp",64,23
1377817812715061250,"2021-04-02T02:58:59Z","Who should I follow on #bitclout? https://t.co/5cEb6AKyPl                   #bitclout#nft#crypto#btc#eth#gme#amc#wsb#nbatopshot#bitcoin#nft’s https://t.co/cjssVS52gf",0,0
1377817811335012353,"2021-04-02T02:58:59Z","RT @cassiecurses: I’m trying to buy some ETH and the transaction fails every single time 🙄 wtf is going on",79,2
1377817804364083200,"2021-04-02T02:58:57Z","$ETH            vs         $2,000     ( •_•)                            ( ง )=o                      (x_x )     /︶\                                _/￣|__",5098,613
1377817803672018944,"2021-04-02T02:58:57Z","RT @AlphaLemonade: &gt;50% APY to long ETH 1.5x in the $FLI LP pool 👀 https://t.co/Vba98roLJ7",57,4
1377817801201700864,"2021-04-02T02:58:57Z","Can't have a $2k $ETH without house TA",0,0
1377817799083532299,"2021-04-02T02:58:56Z","ALPHA - BNB LINK - BNB USDC - BUSD BUNNY - BNB UST - BUSD SUSHI - ETH COMP - ETH  =&gt; the above pools have been added to https://t.co/aHNJef50HT  HIGH YIELD! Do it now!   #DeFi #BSC $BSCX https://t.co/DfIFCYAncU",525,311
1377817797628149760,"2021-04-02T02:58:56Z","Today is a Pinnacle day for all #Ethereum holders.  Today we reached new heights..📈  Comment Below Your Price Prediction for #ETH By The End Of 2021 🪙 @coinkit_ mon 10 100 BTC https://t.co/appEdWy8hN",169,125
1377817794830495747,"2021-04-02T02:58:55Z","My god, 60k #BTC and 2k #ETH at the same timeee?",2,0
1377817794113327108,"2021-04-02T02:58:55Z","Na Sang-Ho bought for 0.215 ETH (428.38$) by Kinra on the primary market   Season: 2021-2022 Level: 0 Serial: 5/100 Price: 428.38$  ⚽ Sorare: https://t.co/Tjo6Lu16mQ  📊: https://t.co/kSNUL9TGAL  #Sorare #NFT #Ethereum #FantasyFootball",1,0
1377817792326471682,"2021-04-02T02:58:54Z","RT @HODL_DeFi: Worried you don't have enough $ETH exposure?   You don't have to be..   Get ready to $FLI - ETH2X-FLI https://t.co/02bHMIfUzS",68,6
1377817790489354243,"2021-04-02T02:58:54Z","RT @JRNYcrypto: $60k #Bitcoin and $2k $ETH 👀",1935,149
1377817787259875329,"2021-04-02T02:58:53Z","$ETH            vs         $2,000     ( •_•)                          (•_• )     ( ง )ง                          ୧( ୧ )    /︶\                              /︶\",12645,1704
1377817777596157952,"2021-04-02T02:58:51Z","#ETH up 2000$ , start #altseason $RVN = $ONE = $MATIC = $AKRO = 1$  $LTO =  Cap 2 bil = 5$ -7$ $WIN = .01xxx $  $REEF = 0.3$  $DAPPT = 0.5$ $STMX = 0.5$  this April 🚀🚀🚀 pump all https://t.co/JCgTytCCxV",51,14
1377817774433701888,"2021-04-02T02:58:50Z","$ETH            vs         $2,000     ( •_•)                            ( ง )=o                      (x_x )     /︶\                                _/￣|__",5098,613
1377817770578964480,"2021-04-02T02:58:49Z","@HEXChamp Definitely middle of the weekend for lower gas fees. Frickin' eth has made things very difficult for small stakes.",1,0
1377817770176446465,"2021-04-02T02:58:49Z","Today is a Pinnacle day for all #Ethereum holders.  Today we reached new heights..📈  Comment Below Your Price Prediction for #ETH By The End Of 2021 🪙 @coinkit_ mon 10 100 BTC https://t.co/appEdWy8hN",169,125
1377817770075717633,"2021-04-02T02:58:49Z","RT @girlgone_crypto: 60k #bitcoin and 2k $ETH 🔥",2175,221
1377817766724534274,"2021-04-02T02:58:48Z","RT @davidgokhshtein: #Bitcoin : $60,000  $ETH : $2,000   LETS SEND THIS SH*T! 🔥",303,35
1377817761166979073,"2021-04-02T02:58:47Z","If #BTC breaks $69,420 in APRIL 2021 I’ll give a random person my R8  Super SIMPLE: Like ✔️ RT ✔️ Follow ✔️ @JBTheCryptoKing  Drop eth addy ✔️ https://t.co/0ZTkU9CUuI",7875,3934
1377817760412135426,"2021-04-02T02:58:47Z","3DTV was created for 100 $MANA ($101.00 USD = 0.0503 $ETH) by https://t.co/sAjPsfgkVn https://t.co/jRpCJh7vfw #decentraland #names #avatar https://t.co/7tN8jiIFtl",0,0
1377817759527153664,"2021-04-02T02:58:47Z","$ETH            vs         $2,000     ( •_•)                            ( ง )=o                      (x_x )     /︶\                                _/￣|__",5098,613
1377817755320205312,"2021-04-02T02:58:46Z","ElonFuckingMusk was created for 100 $MANA ($101.00 USD = 0.0503 $ETH) by https://t.co/G1AWy7dDYV https://t.co/A1zj6z8PGx #decentraland #names #avatar https://t.co/ThJZ7jFLhR",3,2
1377817750853279745,"2021-04-02T02:58:45Z","RT @JRNYcrypto: $60k #Bitcoin and $2k $ETH 👀",1935,149
1377817746625372162,"2021-04-02T02:58:44Z","Cliq DAO Airdrop Officially Launched Fill this Form https://t.co/AFdBErdRVn to Get 500 CLQ Tokens Worth $50 USD  Don't Miss this chance  Token Distribution April 2021 Month End. #BSC $BNB $ETH $BTC  #Bitcoin #BinanceSmartChain #BNB #cryptocurrency #crypto #NFTs #Airdrops #Airdrop https://t.co/8whsgLzhEl",530,426
1377817746021347330,"2021-04-02T02:58:43Z","$ETH            vs         $2,000     ( •_•)                            ( ง )=o                      (x_x )     /︶\                                _/￣|__",5098,613
1377817744452767748,"2021-04-02T02:58:43Z","RT @iamoliverneil: 🚨 WE HAVE BROKE #60k 🚨  #BULLISH   #Bitcoin #BTC #ETH #CryptoNews  @coinkit_ mon 10 100 BTC https://t.co/L9JVZvdvtx",35,99
1377817740971364354,"2021-04-02T02:58:42Z","📈💳$797,600 $ETH LONGED @$1,994.0 [02/04/21 02:57:51] 🏣Binance | $ETHUSDT  🗣️Bubbles are impossible in this new paradigm. So are corrections and everything else - Mcaffee",3,2
1377817731425308678,"2021-04-02T02:58:40Z","@cliff_eth @gspoosi @SethVanderLaan @ChainLinkGod @FUTURE_FUND_ @haydenzadams Yeah sorry bro, I hope you truly believe in decentralization and a free market, but I am siding with the $core ; $delta devs for now and basically, blocking the project was shady",3,0
1377817727369408519,"2021-04-02T02:58:39Z","🛡 MakerDAO Vault #20866 Repaid  🧑‍🚒 49.57k DAI paid back 🧯🧯 📉 24.94 ETH sold 💸  https://t.co/Qmjjm6rZ5u",0,0
1377817727105003525,"2021-04-02T02:58:39Z","$ETH Feeling more up side movement RSI Break above 60 with break of trend line https://t.co/uaGwsVSgwp",1,1
1377817721379807234,"2021-04-02T02:58:38Z","O3 Swap cross-chain pool built based on the PolyNetwork protocol @PolyNetwork2 realizes the free exchange of assets across chains, which includes Ethereum, Binance Smart Chain, Neo, Huobi ECO Chain, and Layer 2 projects. #Neo #ETH #BSC #HecoChain #Layer2  https://t.co/cHOESs8zY9",28,11
1377817711997153284,"2021-04-02T02:58:35Z","If #BTC breaks $69,420 in APRIL 2021 I’ll give a random person my R8  Super SIMPLE: Like ✔️ RT ✔️ Follow ✔️ @JBTheCryptoKing  Drop eth addy ✔️ https://t.co/0ZTkU9CUuI",7875,3934
1377817703017148417,"2021-04-02T02:58:33Z","🎉The circulation of #ETH on #TRON(#ETHTRON) reached 60,000.  💁‍♂️#ETHTRON is a #TRC20 token based on TRON which injects #Ethereum’s value to the TRON network. Its advantages lie in reliability&amp; efficiency. Easy conversion of Ethereum into TRC20 assets with guaranteed acceptance. https://t.co/Ba8NZboKJa",3337,1524
1377817701637218307,"2021-04-02T02:58:33Z","@JRNYcrypto Upset that I've sold half of my eth just before this! Hopefuly it will dip a bit again",1,0
1377817701477978112,"2021-04-02T02:58:33Z","RT @girlgone_crypto: 60k #bitcoin and 2k $ETH 🔥",2175,221
1377817699481313284,"2021-04-02T02:58:32Z","Might have found a new favorite under the radar project $orbi @CryptoOrbicular  -quietly being developed  -a prediction market for everything on $Eth...... EVERYTHING! -not a copy pasta -solid dev who is regularly in his telegram to answer question and give updates 1m mcap",1,1
1377817697149464579,"2021-04-02T02:58:32Z","RT @NFTignition: $2,000 $ETH BABY!!",49,6
1377817689826205696,"2021-04-02T02:58:30Z","$ETH            vs         $2,000     ( •_•)                            ( ง )=o                      (x_x )     /︶\                                _/￣|__",5098,613
1377817685837418496,"2021-04-02T02:58:29Z","$ETH            vs         $2,000     ( •_•)                            ( ง )=o                      (x_x )     /︶\                                _/￣|__",5098,613
1377817685229207554,"2021-04-02T02:58:29Z","RT @iamoliverneil: 🚨 WE HAVE BROKE #60k 🚨  #BULLISH   #Bitcoin #BTC #ETH #CryptoNews  @coinkit_ mon 10 100 BTC https://t.co/L9JVZvdvtx",35,99
1377817681441660928,"2021-04-02T02:58:28Z","$ETH            vs         $2,000     ( •_•)                            ( ง )=o                      (x_x )     /︶\                                _/￣|__",5098,613
1377817677004210185,"2021-04-02T02:58:27Z","$ETH            vs         $2,000     ( •_•)                          (•_• )     ( ง )ง                          ୧( ୧ )    /︶\                              /︶\",12645,1704
1377817671996215297,"2021-04-02T02:58:26Z","$ETH is primed and ready to go! $BTC 2.O! 🚀🔥🚀🔥🚀 https://t.co/MeIyslGEzN",0,0
1377817668787568648,"2021-04-02T02:58:25Z","$ETH            vs         $2,000     ( •_•)                            ( ง )=o                      (x_x )     /︶\                                _/￣|__",5098,613
1377817668330299393,"2021-04-02T02:58:25Z","@ElonTrades Daily looks really good. New ATH for $ETH coming this week 💯",1,0
1377817668217053187,"2021-04-02T02:58:25Z","@Cipher_eth @jamie247 👆🔥🔥gonna check this out. 👇I used a similar graphic design for a one of a kind t-shirt that I made for Vitalik in 2017. https://t.co/8FgFznuJKc",4,2
