"ID","created_at","text","like_count","rt_count"
1375960823651307524,"2021-03-27T23:59:59Z","An entire community of talented supporters! How can you contribute🧐 #SHIB #ShibaSwap #SHIBArmy #hodlSHIB $SHIB #PowerToThePeople #SHIBNavy #BTC #LTC $ETH #ResistanceIsFutile @ElonMusk #Bitcoin #DogsOfTwitter   Telegram: https://t.co/tolXXYembS Reddit: https://t.co/WIJeKqP29z https://t.co/oT9StPz8nL",12,0
1375960818014109700,"2021-03-27T23:59:57Z","Turtle #089 has appeared on the OpenSea beach and is now minted on the #ETH blockchain via  @opensea   PRICE: Ξ0.015  https://t.co/b3iRozUlka  #Turtles #NFT #NFTs #NFTcommunity #pixelart #crypto  #cryptopunks",3,1
1375960807566086144,"2021-03-27T23:59:55Z","2000 Followers! Time to Pick a winner!  @GirthyNFTs DM your eth address so I can send you an  LSD Gummy Bear Printer Go Brrr #nft https://t.co/2xh3AXMIj5",23,1
1375960798066049025,"2021-03-27T23:59:53Z","RT @The_NFT_Hub: 🎁Drop your $ETH address below🎁",1165,1
1375960789740322823,"2021-03-27T23:59:51Z","@justMcCallie @Ramon_N90 @withFND ETH consumes 30 TWh per year, a bit more than Ireland. China consumes 6833 TWh per year, 235 times more than Ireland. And NFT doesn't consume nearly as much as ETH. It makes no sense to be angry at NFT and not see what causes real environmental issues in our world",1,0
1375960787139760131,"2021-03-27T23:59:50Z","No need to spend your own money to trade #cryptocurrency. Over 10K users won crypto rewards on @latokens last week. It's the best way to join the financial revolution. Start by earning a share of $100K in CLIQ airdrop: https://t.co/iU3sqML2wj #Bitcoin #ETH #Citi #AON #LATOKEN",0,0
1375960783876546568,"2021-03-27T23:59:49Z","🔸 New Listing🔸   #BKEX will list #DRYCAKE @DryCakeSwap🚀 🚀  - Trading pair: DRYCAKE/USDT - Trading time: 20:00 on Mar 29 (UTC+8)  🔹 🔹 More details: https://t.co/kC2IIebfTT  #Bitcoin #ETH #BKK #Blockchain https://t.co/w8CHyKXaUD",2480,0
1375960782907707396,"2021-03-27T23:59:49Z","Hey @Hien25886891 @Clayboyn @DidierRA1 @TurjanStarstone have you thought about trying out @ghostmarketio to mint some #NFT's. We have amazing art being sold there and no Eth fees as it's on @PhantasmaChain. $1-2 to mint an #NFT. If you'd like to test it for free just DM me. $SOUL https://t.co/xUYBGPPJNS",27,0
1375960776695943171,"2021-03-27T23:59:47Z","A new batch of 100 Proctons have just been listed! https://t.co/yxTKAbuyfp  Don't miss out this time as Proctons are still in the 0.02 ETH tier, see if you can spot the rare gold and silver crowns too! 👑  #NFT #NFTart #NFTcollectors #PROCTONS #NFTcollectibles https://t.co/NcGT81TTuS",45,0
1375960762322141186,"2021-03-27T23:59:44Z","CRYPTO NEWS - SELLING ETH, Buying Hidden Gems https://t.co/2yYtBwTtkp via @YouTube",0,0
1375960759113551872,"2021-03-27T23:59:43Z","@anarhysts @OnyxAker The first piece of my new ALPHABET collection @opensea  !  D is a 1/1 Edition Min bid 0.05 ETH 3 days left  👀  Link in bio https://t.co/3RHycJMexX",7,0
1375960753396707330,"2021-03-27T23:59:42Z","RT @BitAliens: What's your ETH address?  Don't ask why, just drop it below and RT 😉👽  #NFTCommunity #nftart #NFTcollectibles #NFTs",110,0
1375960732739674115,"2021-03-27T23:59:37Z","2 days, 2 incredible updates at @DEXToolsApp, with our version 1.9.1:  -Chart candles normalization.📈 -Pair explorer improvements (stable/eth, volume, chart display, etc).  🛠️ -New Backend Upgrade. 💻 -General fixes.  Now $DEXT is faster than ever. Are you ready for V2?   🔥🔥 https://t.co/IlnpXH9Hut",115,0
1375960728746782724,"2021-03-27T23:59:36Z","HOLOCHAIN (HOT) Hits New All Time High! JUNTO Decentralized Social Media.https://t.co/Rh9UMQB6ED @YouTube #DogeSlimJim #DogeDonWinners #dogeusdt #dogecointo1dollar #dogebank #BitcoinCash #BitcoinAsset #bitcoinprice #bitcoinorigins #EthernityChain #eth #ADA #CRO #cryptocoin #Money",2,1
1375960725731090433,"2021-03-27T23:59:35Z","To mint #nftart on #eth, the engineers need to know solidity. To mint #NFTs on @dragonchaingang, engineers can use any coding language they want. Oh, and it won't cost gas fees to mint or trade on DragonNet, just a couple of pennies. #drgn #btc #blockchain #unleashthedragon",34,1
1375960725374431236,"2021-03-27T23:59:35Z","Donate eth here so I can start minting! 0xF629BE577a811Dc9357860B4555F98a8eb318A2D",0,0
1375960711986315273,"2021-03-27T23:59:32Z","Do you think Bitcoin will go up forever? #btc #bitcoin #cryptocurrency #crypto #blockchain #ethereum #bitcoinmining #eth #forex #trading #money #bitcoinnews #bitcoins #cryptocurrencies #investment #litecoin #bitcointrading #cryptotrading",0,0
1375960696513568771,"2021-03-27T23:59:28Z","More good news from $XGG high staking rewards which can further push the price upwards,should take care of any liquidity issues. 100x Gem  $XGG $PTF $ISLA $COM $ETH https://t.co/Dc8OE6H8mb",5,0
1375960695397834754,"2021-03-27T23:59:28Z","Cryptocurrencies $ETH $LTC $DASH $XMR $ZCASH https://t.co/Vn54eOgqG9 https://t.co/jvdjXCr3Dy",1,2
1375960688166805508,"2021-03-27T23:59:26Z","#bsc TVL/volume going through the roof, $cake in price discovery again. But yeah lets keep using uniswap, v420 will be revolutionary.  Do you want to be right or do you want to make money $eth maxi's? Being stubborn in a bull market can cost you millions.",352,2
1375960667899879426,"2021-03-27T23:59:21Z","6/ To understand the crypto index fund aspect of RUNE, consider the collection of RUNE LPs that will be available over time. Each LP is one-half non-RUNE (BTC, ETH, BNB, LTC, BCH to start, with new ones added over time), and the other half is RUNE.",13,2
1375960666016604160,"2021-03-27T23:59:21Z","Welcome to massive Q DAO airdrop!   1. go now to telegram https://t.co/COyXgODY1z   2. Stay in telegram chat and wait announcement.  3. HOLD this gem until 10x   (soon - QDAO launch cross-chain for BSC, Polkadot and ETH)",4254,2
1375960659922456576,"2021-03-27T23:59:20Z","New interesting #Token #Gem found on #ETH #DeFi #AltSeason #BlockChain Ape Island - Season 2 $APE2  contract: 0x5033973ea65c66a8745acdb4f8ecb326365de2be Swap it on @UniSwap https://t.co/KtyVjckHie Telegram: https://t.co/j6bvs7btIu",4,2
1375960659096129544,"2021-03-27T23:59:19Z","@TrustlessState Which ETH? The centralized one that rolled back the DAO hack, or the centralized on that kept it? Or the new centralized POS one?",5,0
1375960650581598208,"2021-03-27T23:59:17Z","📢Congrats！First launch on Uniswap！ 🚀USDT-NFTs trading pair is live！ 🚀The contract address:  0x6599fc3e77cbfa6f6e9cac605a30b1e78827eba0  💰Hold more NFTs, be richer！  🌸Like、Retweet &amp; Tag 3 friends  🚀Select 10 addresses to airdrop 1,000,000 NFTs, leave wallet #ETH address https://t.co/Slor4FBQzP",2942,0
1375960644978143234,"2021-03-27T23:59:16Z","Turtle #101 has appeared on the OpenSea beach and is now minted on the #ETH blockchain via  @opensea   PRICE: Ξ0.015  https://t.co/Lazm9nXpLt  #Turtles #NFT #NFTs #NFTcommunity #pixelart #crypto  #cryptopunks",1,0
1375960624677588997,"2021-03-27T23:59:11Z","@SPACEO18 Trace No.007 Graphic collage art made from photographs taken on Euljiro3ga Street Streets are transformed, destroyed, and rebuilt by time, physical events. This scene leads to a new experiment. https://t.co/p8lCA0bUB7  #nft #nfts #nftart #nftarts #nftcollector #opensea #etherium",1,0
1375960620932075520,"2021-03-27T23:59:10Z","🚨NEW DROP🚨  🌸SENSEI MELLOWZ OUT NOW!!🌸  Similar to the winding oak tree, time gives us strength and wisdom.   8/8 Minted - 0.03 ETH EACH https://t.co/x36MSZhvDY  #NFTs #NFTCollectors #NFTCollectables #CryptoArt #Mellowz #NFT #opensea #NFTcollectibles https://t.co/OGIQNbQ4Nx",73,0
1375960608269606914,"2021-03-27T23:59:07Z","$ETH  If the daily candle closes above 2k, it will easily cross 2500$ mark. Keep an eye on it.  Checkout the link in bio for crypto signals  #bitcoin $VIA $KICK #CRYPTO $TEL $SNM 43082 https://t.co/vIvhUgd3lK",2,0
1375960600224800769,"2021-03-27T23:59:05Z","🎉 3D MASKS GIVEAWAY 🎉  Value: 0.8+ ETH  Complete the following steps for the chance to win a 1/1 #3dmasks   ✅ Follow @3DMasks_  ✅ Like &amp; Retweet ✅ Comment + tag 3 NFT buddies  The winner will be announced 10AM EST April 6th  #NFTCommunity #nftart #nftgiveaway #nftcollectors https://t.co/NdyOwjzD5Q",331,0
1375960599264378880,"2021-03-27T23:59:05Z","Happy Sunday Everyone!!🙌  I have deposited 5.5 ETH to buy some #NFTs tonight.   1. Follow me 2. Like and retweet 3. Drop your NFTs in the comments, I'll buy your art! #NFTs #nft #nftcollector #nftart #cryptoart #nftcollectors #NFTcollectibles #NFTartist",214,0
1375960587713212422,"2021-03-27T23:59:02Z","Happy Sunday Everyone!!🙌  I have deposited 5.5 ETH to buy some #NFTs tonight.   1. Follow me 2. Like and retweet 3. Drop your NFTs in the comments, I'll buy your art! #NFTs #nft #nftcollector #nftart #cryptoart #nftcollectors #NFTcollectibles #NFTartist",214,0
1375960579643428864,"2021-03-27T23:59:00Z","@intocryptoverse If you believe in $ETH then you should hold some $MATIC",10,0
1375960578707968002,"2021-03-27T23:59:00Z","@opensea WYD ETH sales are up! Now going for 80x the original price. Shoutout to the resale GOAT @JonasBl55756978  https://t.co/1kXgJ3dVHY https://t.co/mES5YAT1c7",1,0
1375960565214900227,"2021-03-27T23:58:57Z","RT @CryptoXinc: I just want to sell my mooncats at 20 eth a piece is that so much to ask?",25,0
1375960553504526349,"2021-03-27T23:58:54Z","🚨@NagaBeau has posted a new video on Youtube !   “HEX UP! HATERS WAKE YO ASS UP!“ ⏱️(10 min) 📺: https://t.co/KwjXqQjVX1 __________________________ #Crypto #Cryptocurrency #BTC #DeFi #ETH #HEX https://t.co/TvugtX5241",16,0
1375960547389227009,"2021-03-27T23:58:53Z","This is to announce that our Initial Token Offering-ITO(Pre-sale) is now live!  Token information: Ticker: YEY  Total supply: 500,000 YEY  Total allocated to Presale: 105,000 YEY   Hard cap: 500 ETH Soft cap: 200 ETH  Focus: 95% of Presale funds will fund uniswap liquidity pool. https://t.co/zm3gtFBXNj",6496,0
1375960532797259776,"2021-03-27T23:58:49Z","RT @marssel92: @NakoBaev Limited 1:1 Eth inspired piece 🔷️ https://t.co/LeSBNb2Qtp",2,0
1375960524995887110,"2021-03-27T23:58:47Z","Earn up to 100000 ETH Satoshis Every 5 Min Join Now : https://t.co/LIStaxPbR7",0,0
1375960522466672648,"2021-03-27T23:58:47Z","I'm long on $chz because I think its huge undervalued despite its great spike under relative short time. Huge potential to bring blockchain adoption to average sporting Joe. #btc #eth #DeFi #NTF",1,0
1375960512828162051,"2021-03-27T23:58:45Z","@0xSisyphus @mgnr_io @dcfgod Also, app store takes a huge cut on protocol revenue. ETH does not, only use case for ETH the asset is oil for usage and if fees gets cut so does protocol revenue all else being equal.",0,0
1375960511917998082,"2021-03-27T23:58:44Z","New high bid on Master of 10 ETH ($17K+) 🔥  ⏰Auction ends today, TIME EXTENDED⏰  15 min extension announced by the artist for each new bid that comes in. https://t.co/8Iq3KWrn7G",12,0
1375960508801503234,"2021-03-27T23:58:44Z","New high bid on Master of 10 ETH ($17K+) 🔥  ⏰Auction ends today, TIME EXTENDED⏰  15 min extension announced by the artist for each new bid that comes in. https://t.co/8Iq3KWrn7G",12,1
1375960504510914563,"2021-03-27T23:58:43Z","The DEX @FinanceChainge is set to launch on the @FUSIONProtocol network with over a million users on the protocols waitlist. This decentralized exchange aims to innovate on traditional models through leveraging the Fusion Network.  #BSC #BTC #ETH #BNB  https://t.co/xx55YiGfm3",21658,1
1375960484894019585,"2021-03-27T23:58:38Z","I'll be much more likely to look and purchase your work if you have sent me something.  My ETH address: 0x1eF7bcC3976056d3F0238b6f8653287D4d2Ea24E",6,0
1375960480586563585,"2021-03-27T23:58:37Z","RT @victor_numsei: @NakoBaev Current bid - 0,1 ETH - https://t.co/P6Oz9YqkZe",2,0
1375960473615486977,"2021-03-27T23:58:35Z","🚀 Pluto Coin  Airdrop 🚀 Rate: ⭐⭐⭐⭐ ⭐ 🎁 Reward:  8822 PLUT ($1500) 👫 Referral: 40.5 PLUT  ($7)  🤖Start Bot here   https://t.co/x5JZchojO8  ⛂ Join Telegram group and channel. ⛂ Follow twitter &amp; retweet  ⛂ Submit ETH address and details.",6005,0
1375960470742523909,"2021-03-27T23:58:34Z","Bidding on @JShulmanArtist's genesis drop for @makersplaceco currently:  Friday the 13th - 2.65 ETH Midsommar - 1 ETH Under the Skin - 1 ETH  https://t.co/07wTMK24fj https://t.co/1NLMfAN7lr",1,0
1375960452203741186,"2021-03-27T23:58:30Z","Stake $VX to get daily dividends in BTC, ETH and USDT. Currently VX Staking APR：31 % You can purchase $VX at ViteX exchange or Mining $Vx: -Staking $vite  -trading as mining -MM -referring as mining  -listing as Mining (operators) Dashboard at https://t.co/kokPyZTn15 https://t.co/xiI62KDgQk",63,0
1375960450291036161,"2021-03-27T23:58:30Z","@glapacha Trace No.007 Graphic collage art made from photographs taken on Euljiro3ga Street Streets are transformed, destroyed, and rebuilt by time, physical events. This scene leads to a new experiment. https://t.co/p8lCA0bUB7  #nft #nfts #nftart #nftarts #nftcollector #opensea #etherium",2,0
1375960440094617601,"2021-03-27T23:58:27Z","RT @The_NFT_Hub: 🎁Drop your $ETH address below🎁",1165,0
1375960431706128391,"2021-03-27T23:58:25Z","RT @forsbergio: @HodlerPoodl @TheCryptoCandy Wouldnt sleep on $poodl now #HOODLTHEPOODL 🐩🚀  $hoge $doge $froge $shib $feg $btc $eth $pika #…",10,0
1375960422671474689,"2021-03-27T23:58:23Z","NFT market top signal? Fake Banksy nets over $1 million in ETH from NFT sales https://t.co/7Y8ojPKiYv via @cointelegraph #wow #opensea #rarible #fakeart",3,0
1375960409652527108,"2021-03-27T23:58:20Z","https://t.co/SRJO02jvfy  Follow me my ETH just dropped ✨✨✨✨🤞🏼",0,0
1375960383350042630,"2021-03-27T23:58:14Z","RT @forsbergio: @HodlerPoodl @TheCryptoCandy Wouldnt sleep on $poodl now #HOODLTHEPOODL 🐩🚀  $hoge $doge $froge $shib $feg $btc $eth $pika #…",10,0
1375960383329042432,"2021-03-27T23:58:14Z","Farming is the latest Covenants release. Anyone can create, host or stake Covenants, Buidl or Items in Free and Locked setups. Tokens can be redeemed at any time – see https://t.co/2b7IkGX06c for more information #covenants #dfocommunity #ethereansos #dfo #buidl #tokensfarming https://t.co/Pjx8bf68LF",3,0
1375960372058935299,"2021-03-27T23:58:11Z","New high bid on Master of 3.5 ETH ($6K)!  ⏰Auction ends today, TIME EXTENDED⏰  15 min extension announced by the artist for each new bid that comes in. https://t.co/8Iq3KWrn7G",5,0
1375960360579121153,"2021-03-27T23:58:08Z","Happy Sunday Everyone!!🙌  I have deposited 5.5 ETH to buy some #NFTs tonight.   1. Follow me 2. Like and retweet 3. Drop your NFTs in the comments, I'll buy your art! #NFTs #nft #nftcollector #nftart #cryptoart #nftcollectors #NFTcollectibles #NFTartist",214,0
1375960348482805761,"2021-03-27T23:58:05Z","@KMehrabi @Jonathanmangin3 @DexterExchange @QuipuSwap @USDtz @ETH_Tez Kevin. Keep these feeds coming when you see a deal. Thanks I’m advance",1,0
1375960339490037762,"2021-03-27T23:58:03Z","Still trading your funcoins, CT?  Few see $OCEAN, while all they had to do was read this one screenshot.   Or follow @TheCryptoNarwal or @anthoriosanto or @CryptoWizardd or @TheTradingTramp or @LeaksBlockchain.  CC: $BTC $ETH $XRP $XLM $CEL $LUNA $HOT $EOS $NANO $ATOM $BNB $ADA https://t.co/uL5pfl2gQ9",70,0
1375960336604536835,"2021-03-27T23:58:03Z","Borrowed DOLA on your ETH and want to park it?  Deposit on Curve Swaps &amp; earn swap fees  In a few days, you’ll be able to earn:  💸 Interest on your ETH collateral 💸 INV reward for supplying ETH 💸 Curve swap fees 💸 More INV reward for staking DOLA-3CRV  https://t.co/kor5B26hoY",71,0
1375960323136630787,"2021-03-27T23:57:59Z","RT @baran_sarper: Eth-God has collected for 1.8 ETH on @makersplaceco #NFTs https://t.co/az43pTzrwR",54,0
1375960305868546048,"2021-03-27T23:57:55Z","RT @adrianknight10x: I'm holding strong AF and one day IMO $dot will flip eth and $ksm will hit $2k",12,0
1375960299778478083,"2021-03-27T23:57:54Z","Lebanon was created for 100 $MANA ($92.41 USD = 0.0539 $ETH) by https://t.co/O8zWF5IJz4 https://t.co/8p5p0PDaRS #decentraland #names #avatar https://t.co/wMWioWcE3b",4,2
1375960274310553602,"2021-03-27T23:57:48Z","$mitx undervalued  active team and developers, they recently intergrated #mlseeds what opens a bigg array of oppurtunities  👀  Some big tech companies involved @Huawei is one.  Also some big names are optimistic about $MITX 👇  Exciting times.  #Bitcoin $eth https://t.co/g34fSndcLY",445,2
1375960274201640962,"2021-03-27T23:57:48Z","Collectors who ask “Tell me why i should buy your art”  Don’t even reply to that. It’s not a contest, not a competition. It’s art. It either resonates with the collector, or it doesn’t. Move along.",352,2
1375960269352955907,"2021-03-27T23:57:46Z","Happy Sunday Everyone!!🙌  I have deposited 5.5 ETH to buy some #NFTs tonight.   1. Follow me 2. Like and retweet 3. Drop your NFTs in the comments, I'll buy your art! #NFTs #nft #nftcollector #nftart #cryptoart #nftcollectors #NFTcollectibles #NFTartist",214,2
1375960251967541251,"2021-03-27T23:57:42Z","$Rly now pumps road to x100, crypto gem of vitualbacon not listed on binance 🤣  Create probit account  https://t.co/BhEE5mWobX  Create Mxc account  https://t.co/bXeDBJ7lxE  $eth $ltc $rsr $xem $xym $chz $ankr $yfii $link $uni $axs $btc #btc $xrp $eth $xmr $trx $ada $doge https://t.co/tvyUUvGQGf",2,0
1375960248289263616,"2021-03-27T23:57:41Z","Anyone here playing the poker\russian roulette game of buying big YouTubers calls instantly and holding till the dump? PnDs which have a lot in common with poker/russian roulette, super risky and dumb, but also fun #ETH",0,0
1375960242601725954,"2021-03-27T23:57:40Z","🚨#NFTGiveaway🚨 I will giveaway 1 #NFT Lux Impression 1/1  Via @ghostmarketio  #ghostmarket   Follow-retweet-tag2 it will end in 36 hours👀❤️  https://t.co/gdoFrxXv2F #NFTart #artgiveaway #ETH https://t.co/GdrIP8nui9",135,110
1375960233185579011,"2021-03-27T23:57:38Z","@Safemartians Y chose ETH blockchain ? Gas fee too high",0,0
1375960233067995139,"2021-03-27T23:57:38Z","💧Poplink Oracles Airdrop 💧  🏆 Task:          ➕  50 POPO (~$50)  👨‍👩‍👧 Referral:  ➕  15 POPO (~$15)  🔛  Airdrop Link &amp; Information: https://t.co/DS6g34KhFp  #cryptocurrency #Crypto #Bitcoin  #BSC #BinanceSmartChain #Ethereum #ETH #Airdrop #bounty #POPO #Poplink",6788,0
1375960230463422467,"2021-03-27T23:57:37Z","🚨Rebalance Alert🚨  The ETH 26 EMA Crossover Yield II Set has kicked off its 37th rebalance into WETH for $864,998.39 🚀.  Participate in the auction here: https://t.co/ylZek9thm9",3,0
1375960214420119552,"2021-03-27T23:57:33Z","#1MT update: Old resistance turning into support?   🔥If we can keep above 0.40$ we are moving and the Targets are:  1- 0.88$ ( +100%) 2- 1.17$ 3- 1.63$  Supply: 1M Mcap: 400k  Uniswap: https://t.co/DL0Y06WSjY  Telegram: https://t.co/TfDa01Xjda  $BTC $ETH $SPI $GSPI @300Token https://t.co/pwCHN2ot0z",8,0
1375960202768314371,"2021-03-27T23:57:31Z","RT @majorbean_: 100 Gecs NFT Hyperpop Playlist Minted on ETH Blockchain Audius Coin Snare Crypto Stonks to the Moon Spotify Pyramid Scheme",148,0
1375960198976708611,"2021-03-27T23:57:30Z","The ETH earned will be reinvested into Art! ❤️ This is the way.",2,0
1375960187681579010,"2021-03-27T23:57:27Z","$ATM break out 🚀🚀 Buy now Our team is making PUMPs on the $ATM at Binance Exchange consecutively!  Buy NOW🚀 👉 Join Channel :https://t.co/4HlmmQfQwo  $BTC $ETH #NFT $PERL $ENJ $CTSI #BSC   $REEF $ANC $SAND $AXS $TVK $YLD $CHZ $STX $ROSE $UBU $BLZ $BZRX $SCRT $LUNA $ADA $LTC",8,0
1375960184661622792,"2021-03-27T23:57:26Z","I just joined this $25k Crypto giveaway by @JRNYcrypto and @sparkpointio  Get daily entries to increase your chances of winning! 25 random winners of $1k each!  #Bitcoin #Crypto $BTC $ETH $SRK",0,0
1375960181801107456,"2021-03-27T23:57:26Z","Turtle #011 has appeared on the OpenSea beach and is now minted on the #ETH blockchain via  @opensea   PRICE: Ξ0.015  https://t.co/AIEnd78yyw  #Turtles #NFT #NFTs #NFTcommunity #pixelart #crypto  #cryptopunks",3,0
1375960180437839873,"2021-03-27T23:57:25Z","@HyperDekadente 'Castle On The Hill' Reserve Price: 0.7 ETH https://t.co/CkGZvYxn8K  'The Forest Of Ether'  Reserve Price: 0.5 ETH https://t.co/J0RSE6JNve https://t.co/09jJAu2CI1",0,0
1375960179385065475,"2021-03-27T23:57:25Z","RT @davidgokhshtein: I send you 1 $ETH - what are you buying this weekend on the market?  Comment below.",1058,0
1375960168987557897,"2021-03-27T23:57:23Z","My Crypto Strategy on ICONOMI just outperformed BTC. Check it out here: https://t.co/zVIvQlF2zi #eth #bitcoins #blockchain #money https://t.co/ZApJuWHEsI",0,0
1375960160334712835,"2021-03-27T23:57:20Z","Please Retweet if you find value in my content!  12000% Profit #Altcoin Picks! Next #altcoins to pump extreme! Explosive #altcoin season soon! Opportunity of a lifetime coming soon! $ETH $FET $WTC $BTT  https://t.co/ze4nUxbk47",156,0
1375960154114551811,"2021-03-27T23:57:19Z","I've still got this @davidgokhshtein as John Wick piece on KnownOrigin waiting for the right home...  Everything's got a price by DKleine  1 of 1 • Now Available for Ξ 1.0  https://t.co/qsDTi24Xas  @KnownOrigin_io  Art by @_DKleine  #cryptoart #NFT #cryptoartist #ETH",40,0
1375960153581817856,"2021-03-27T23:57:19Z","Borrowed DOLA on your ETH and want to park it?  Deposit on Curve Swaps &amp; earn swap fees  In a few days, you’ll be able to earn:  💸 Interest on your ETH collateral 💸 INV reward for supplying ETH 💸 Curve swap fees 💸 More INV reward for staking DOLA-3CRV  https://t.co/kor5B26hoY",71,0
1375960150507393025,"2021-03-27T23:57:18Z","Punk 6704 has a new bid of 200 ETH ($344,289.99 USD) placed by 0x99b57c. https://t.co/CaYRXWQHC0 #cryptopunks #ethereum https://t.co/lNqcgrZBuy",48,0
1375960149853151235,"2021-03-27T23:57:18Z","Ok boys and girl. It’s Saturday. I bought 4 NFT from last weeks shill thread. Shill me your NFTs. 13 ETH ready to go. #nftcollectors #NFTartists #NFT #NFTs",255,0
1375960145172127744,"2021-03-27T23:57:17Z","Happy Sunday Everyone!!🙌  I have deposited 5.5 ETH to buy some #NFTs tonight.   1. Follow me 2. Like and retweet 3. Drop your NFTs in the comments, I'll buy your art! #NFTs #nft #nftcollector #nftart #cryptoart #nftcollectors #NFTcollectibles #NFTartist",214,0
1375960129326129153,"2021-03-27T23:57:13Z","$Ankr it's 10x for us Candy always rocks 🍻🍻🍻💪💪💪  $OCEAN $RSR $VET $ZIL $COTI $HBAR $ALGO $ENJ $REN $CHZ $BAT $MATIC $eth",15,1
1375960112632840196,"2021-03-27T23:57:09Z","@SPACEO18 The first piece of my new ALPHABET collection @opensea  !  D is a 1/1 Edition Min bid 0.05 ETH 3 days left  👀  Link in bio https://t.co/n3fxz0f52u",0,0
1375960111760429061,"2021-03-27T23:57:09Z","🔄 Prices update in $USD (1 hour):  $BTC - 55810.0 $  (-1.08 %) $ETH - 1712.56 $  (-0.72 %) $DOT - 32.59 $    (-1.44 %) $ADA - 1.18 $     (-1.33 %)  #BTC #ETH #DOT #ADA #Crypto #Bitcoin",0,0
1375960090155474945,"2021-03-27T23:57:04Z","@rinikay_ They're essentially your assets made into digital tokens that can be  traded, in turn netting you royalty for each subsequent trade/auction. There is a ETH fee to simply upload and validate your piece, however, due to blockchain technology, it creates a one of a kind seal for it.",2,0
1375960065870544896,"2021-03-27T23:56:58Z","RT @YYYcrypto: $MBX   Get ready for this!💥🚀🚀🚀  #Bitcoin $Eth $Xlm $Link $Ada #Crypto #Alts $Uni $Orn $Dot https://t.co/AoGscxBLVC",19,0
1375960051869839363,"2021-03-27T23:56:55Z","🎉 3D MASKS GIVEAWAY 🎉  Value: 0.8+ ETH  Complete the following steps for the chance to win a 1/1 #3dmasks   ✅ Follow @3DMasks_  ✅ Like &amp; Retweet ✅ Comment + tag 3 NFT buddies  The winner will be announced 10AM EST April 6th  #NFTCommunity #nftart #nftgiveaway #nftcollectors https://t.co/NdyOwjzD5Q",331,0
1375960048275501063,"2021-03-27T23:56:54Z","$ANKR +306% GAINS ✅ 15 days ⏰  Price then - 0.048 Price now - 0.195  Check my tweet 🔽  $btc $eth #nft $doge $flow $bsc $bnb $luna $fet $sxp $matic $dent $dot $link $chz $ada $ltc $go $amb $cbt $nav $link $wing $nxt $nav $wabi $vtc $nas $srn $Ast $nebl $sky $vite https://t.co/vaKB4ztTpL https://t.co/szmHsWiodP",12,0
1375960046329290753,"2021-03-27T23:56:53Z","@0xSisyphus @mgnr_io @dcfgod We are discussing value accrual to ETH the asset, i'm not denying ETH the network.   That being said, its hard to imagine a future where all peer to peer activity will occur on ETH L1 only and if innovation will happen in bridges and middleware why should it?",0,0
1375960043208724480,"2021-03-27T23:56:53Z","🎉 3D MASKS GIVEAWAY 🎉  Value: 0.8+ ETH  Complete the following steps for the chance to win a 1/1 #3dmasks   ✅ Follow @3DMasks_  ✅ Like &amp; Retweet ✅ Comment + tag 3 NFT buddies  The winner will be announced 10AM EST April 6th  #NFTCommunity #nftart #nftgiveaway #nftcollectors https://t.co/NdyOwjzD5Q",331,0
1375960028331577346,"2021-03-27T23:56:49Z","@NakoBaev Please check out our new generative #NFT collection at https://t.co/2nimGLSMsw 👑  #CryptoKings are available in our #NFTsale from as little as 0.05 ETH!  Thanks! 🙌 https://t.co/5NsG4XnoNz",1,0
1375960004964933633,"2021-03-27T23:56:43Z","$ETH keeping my portfolio from mooning everyday since 2020",1,0
1375959998824648705,"2021-03-27T23:56:42Z","@TracyBehr The first piece of my new ALPHABET collection @opensea  !  D is a 1/1 Edition Min bid 0.05 ETH 3 days left  👀  Link in bio https://t.co/oouOF01O3e",0,0
