"ID","created_at","text","like_count","rt_count"
1376874342710005761,"2021-03-30T12:29:59Z","RT @TheCryptoCactus: $ETH will be $2000 before daily close",1529,109
1376874330014023681,"2021-03-30T12:29:56Z","Excited to share a summerchool initiated and organised by EPFL @EPFL_CHEM_Tweet and ETHZ  @ETH_DCHAB chemistry PhD students in the framework of @NCCR_Catalysis. Registration will open on April 12. https://t.co/luxQVvn6yy",96,30
1376874321990270977,"2021-03-30T12:29:54Z","Time for WitLink Token #Airdrop!  ✔️ Start the Airdrop bot: https://t.co/8HDV9cCJse  Complete the tasks to earn  Get 10 WAI ($2.5) + Get 4 WAI ($1) For Each Valid Refer   #ETH #BTC #WAI #LINK #Airdrops",1478,1424
1376874311231827969,"2021-03-30T12:29:51Z","#DeGate unique initial Social Media token offering:📣  To honor contributors to Crypto Assets on social media, DeGate offers an early opportunity to buy DG tokens at a preferential rate. 10 m DG tokens at $0.005  Start ➡️ March 29  https://t.co/5gPWIBwZea  #ETH #BTC #DeFi https://t.co/2qpuVZGJKm",1751,1359
1376874309591896067,"2021-03-30T12:29:51Z","@NickyPapersNFT @SaintHenri2 @McAlpineMiller @rariblecom CyberRexes is a set of 10.000 unique 1/1 Rexes with different levels of rarity.   Price 0.01 ETH   Each Rex can be assigned a unique name by the buyer for additional scarcity.  Mint yours at our website: ( limit 20 per tx )  Website: https://t.co/TpFjqF1ccc https://t.co/qTo3Suo9od",0,0
1376874304135180290,"2021-03-30T12:29:49Z","RT @taudalpoi: Coming Home still available on @withFND ✨  Reserve: 0.5 eth  https://t.co/4Nfrz2zrEa  #NFT #NFTartist #NFTs #nftcollector…",46,9
1376874298468614144,"2021-03-30T12:29:48Z","@TheMoonCarl ETH to $6k in 3 minutes",1,0
1376874297126313985,"2021-03-30T12:29:48Z","Welcome to massive Q DAO airdrop!   1. go now to telegram https://t.co/COyXgODY1z   2. Stay in telegram chat and wait announcement.  3. HOLD this gem until 10x   (soon - QDAO launch cross-chain for BSC, Polkadot and ETH)",4218,6165
1376874293498277890,"2021-03-30T12:29:47Z","RT @LilMoonLambo: Good morning to everyone bullish on $BTC and $ETH only",400,23
1376874290939838465,"2021-03-30T12:29:46Z","@_imit0R_ we’re talking 2 eth",0,0
1376874259012747267,"2021-03-30T12:29:39Z","Great Explanation #USDC #VISA #ETH https://t.co/hB0JyL1XfI",0,0
1376874236598497287,"2021-03-30T12:29:33Z","30 day EVIX: 90.3902 ETH/USD vwap: $1,839.96 04/16 expiry volume: $1,597,445.75 04/30 expiry volume: $5,095,408.85 Current time: 12:29:07",0,0
1376874234539040768,"2021-03-30T12:29:33Z","@SkrillCrypto ETH was my first ZRX is my favorite",0,0
1376874228444766208,"2021-03-30T12:29:31Z","#ethereum #eth #ripple #xrp #cardano #ada #litecoin  #ltc #eos #xlm #trx #dash #xmr #BTC #BITCOIN $IOTA $MIOTA $ADA $XRP $TRX $BTC $BCH $BNB $LTC $XTZ  Bitpanda will fully support the #IOTA Chrysalis update  https://t.co/kMElMe9z1z",14,3
1376874225986834434,"2021-03-30T12:29:31Z","Hello everyone!🧊  We can finally share with all of you our $ICE contract address!⛓️  The address is: 0xf16e81dce15b08f326220742020379b855b87df9  It is the same for FTM, BSC and ETH.  Add $ICE to your Metamask and be ready, airdrops are coming soon!🪂",479,111
1376874214985244673,"2021-03-30T12:29:28Z","Algorand is positioning itself as: 1. leader of DeFi 2. leader of meaningful NFT's. (give intrinsically worthless kitties and hoop clips to other tokes. $Algo NFT's MEAN something.) 3. leader of GREEN blockchain. In operation and ecosystem. Forget $eth and definitely forget  $ada",56,16
1376874211470348290,"2021-03-30T12:29:27Z","The largest exchange premiums &amp; discounts seen by @CrossCoinCo at 12:28 UTC: #ETH vs KRW on Bithumb is trading at a 4.5% premium to USD markets; #BTC vs ISK on Isx is trading at a 2.9% discount to USD markets. Visit: https://t.co/xEpwOSyFhm",0,0
1376874210069413891,"2021-03-30T12:29:27Z","Less than 24h before the $DGCL platform is launching!  - Own fractions of high valued #NFT - One-Click-Deployment of #NFT marketplace - Loans against #NFT for $DGCL $USDT $ETH - COO launched Pokemon Go Japan - Multiple artist signed and @KittiesBalls  - No more private sale dumbs https://t.co/LKiCWSzjTf",65,27
1376874203098546186,"2021-03-30T12:29:25Z","Cheers if you smashed green buy button last year on hilariously undervalued 3-fig $ETH  Butt  If you doubt $ETH will chad to 5 figz this year  gtfo my timeline thx  Meow",1,0
1376874194508652545,"2021-03-30T12:29:23Z","@RealWillyBot @middlemoustache @UPS997 @INArteCarloDoss Compound is the most used protocol on ETH lol, before starting a  fake twitter account about stable coin and crypto, you should really educate yourself",2,0
1376874192881156105,"2021-03-30T12:29:23Z","Welcome to massive Q DAO airdrop!   1. go now to telegram https://t.co/COyXgODY1z   2. Stay in telegram chat and wait announcement.  3. HOLD this gem until 10x   (soon - QDAO launch cross-chain for BSC, Polkadot and ETH)",4218,6165
1376874187151773703,"2021-03-30T12:29:21Z","HUGE coin burn coming out of $XEP. This paired with it's tech, #ElectraPay, and the confirmed T1 exchange listing seems like investing is a no brainier. #btc #eth #ltc #BSC https://t.co/uMj8KXjHXt",30,12
1376874182621937669,"2021-03-30T12:29:20Z","🔥 #ODDZ #Giveaway is Now On! @oddz_finance 🔥  10 lucky users will receive $30 each in #ODDZ 😗  1️⃣Login &amp; Participate   https://t.co/81bh5CpMnK  2️⃣Retweet and @ a friend  Share with your friends &amp; get more rewards 💌  #Ethereum #ETH #cryptogiveaway https://t.co/M7MxexMYji",267,619
1376874172387897351,"2021-03-30T12:29:18Z","@Youvoi4 @WiseCapital3 @coinbureau same as #eth maybe? applications != blockchain token",0,0
1376874168281661440,"2021-03-30T12:29:17Z","🟥 OKEX ETH-USD-SWAP Long Liquidation: 1,047 contracts at $1,831.99 - 2021-03-30 12:29:03",0,0
1376874167929294857,"2021-03-30T12:29:17Z","💰💸Click Here to Purchase Tokens: https://t.co/oTkgLUUmGd    ETH Smart Contract: 0xB64288A2668631D8b0c7D40E5B4CA4b72c23D6D6  Starting price:  $0.03 🔥🔥LIMITED TIME OFFER. HURRY UP! 🔥🔥   🛑Disclaimer: Please buy BBND token only by sale address from https://t.co/oTkgLUUmGd",4675,3469
1376874162220843013,"2021-03-30T12:29:16Z","The Visa $ETH $USDC news is bullish AF for all of us in the crypto space 🔥  I wonder tho.. won't the $ETH network clog give issues? $USDC payments on visa gonna be expensive and slow, or am I missing something?  Time for $AVAX to fill the gap @el33th4xor ? 👀",47,7
1376874156113817604,"2021-03-30T12:29:14Z","DeFi Yield Protocol Buying Competition: $25,000 in USDT to be won! ⬇️  Participate now https://t.co/UNSzLT7MqP  Bonus: 10 people that retweet this tweet and follow @dypfinance will win $250 each in #ETH ! https://t.co/7nB9EqrbHb",1876,2586
1376874153421107203,"2021-03-30T12:29:13Z","The DEX @FinanceChainge is set to launch on the @FUSIONProtocol network with over a million users on the protocols waitlist. This decentralized exchange aims to innovate on traditional models through leveraging the Fusion Network.  #BSC #BTC #ETH #BNB  https://t.co/xx55YiGfm3",21536,13658
1376874150321602561,"2021-03-30T12:29:13Z","RT @bigg_matthew: @crypto_gamble @nebraskangooner No, BTC is not driving the market these days, ETH and Defi environment is.",2,1
1376874147851038724,"2021-03-30T12:29:12Z","@father_algo hath spoken, coin #27 has been minted in his name and likeness🙏  $algo coin lighting it up on @opensea ⚡️  peep it here for better quality (not that twitter isn't lovely)  https://t.co/0779uVwcxf  #nft #nftart #pixelart #crypto #cryptoart #btc #eth @algorand https://t.co/dNjznxEBkZ",1,0
1376874142583160833,"2021-03-30T12:29:11Z","Gate Exchange @gate_io has completed $DREP upgrade and started the trading of UPGRADED $DREP / $USDT and $DREP / $ETH today!  👉 https://t.co/PkFPPn1b62 https://t.co/Edq5QVilZa",138,54
1376874131786973185,"2021-03-30T12:29:08Z","It seems that Binance bought of some tier 2 crypto influencers to shill BCS and FUD ETH. Low move, only effective in the short term. In along term ETH will put BCS and Binance out of business.  @cz_binance   @binance",0,0
1376874128049905667,"2021-03-30T12:29:07Z","@VitoWelch2 @QMcstacks CyberRexes is a set of 10.000 unique 1/1 Rexes with different levels of rarity.   Price 0.01 ETH   Each Rex can be assigned a unique name by the buyer for additional scarcity.  Mint yours at our website: ( limit 20 per tx )  Website: https://t.co/TpFjqF1ccc https://t.co/4tFK0RACtO",1,0
1376874121217314818,"2021-03-30T12:29:06Z","$RSR is up for something very very big and it’s not a circus 🎪... $BTC $ETH $ALTS https://t.co/A8Gbfjng3M",59,3
1376874112627396608,"2021-03-30T12:29:04Z","✅ Let your plans be dark &amp; impenetrable as night, and when you move, fall like a thunderbolt  $HTR has all the ability in the world to challenge the top #crypto projects in the space  When all is revealed &amp; in the hands of users.. they'll realize why that is..  $BTC $ETH $DOT https://t.co/gsHbvIgCtr",182,55
1376874100048674818,"2021-03-30T12:29:01Z","@NFTs_Group Done. Am also managing NFTs telegram group, your donation will be appreciated, for BNB, Eth, ERC token or USDT reward  send here   0x18BB9ac9ffc6F7C0F8Bef1EbE3D1CC01369fc5aE  https://t.co/xIUgkhjqZ9",1,0
1376874098828185603,"2021-03-30T12:29:00Z","$RSR Ranger Force continues to grow on daily basis 🔥🔥🔥  We welcome new members anytime 👍👊✊  You’ve joined at the perfect time before we’ve massively taken off 💯💯💯  New levels imminent 🌕🚀🚀  Be sure to DYOR!  $RSR $RSV @reserveprotocol  $VRA $DOT $ETH $BTC $KSM $LINK",37,5
1376874096361832455,"2021-03-30T12:29:00Z","$1,000,000,000,000 To Flow Into Crypto Starting in April.   ⁦@UpholdInc⁩ could this be the “Herd”? #crypto #xrp #RelistXRP #XRPArmy #XRPcommunity #XRPthestandard #btc #eth #FOMO #InstitutionalFOMO https://t.co/rslVRuKzPr",0,0
1376874095921479683,"2021-03-30T12:29:00Z","The account is sponsored by #Maanky 🐵 #BTC #Bitcoin #ETH #FOREX House prices and consumer confidence top the US economic calendar https://t.co/NdSY1CXwDj",0,0
1376874081245663232,"2021-03-30T12:28:56Z","#Ethereum looking to push on to 2K? $ETH is looking strong with green money waves. #Django #Python #bootstrap4 #100DaysOfCode #crypto #defi #coffee #economy #investing #Alts $Vet $ZIL $DOT $VET $ADA $CELR $CKB $CEL $UNI #Marketing #Trading #SEOKJIN #SEO #NFTs https://t.co/bguG0Dqhd9",1,3
1376874080830418944,"2021-03-30T12:28:56Z","RT @CryptozSignals: $ETH looks very promising here , Send it 🚀to 2000$ https://t.co/GVeUieSNBB",7,3
1376874078330482691,"2021-03-30T12:28:56Z","Welcome to massive Q DAO airdrop!   1. go now to telegram https://t.co/COyXgODY1z   2. Stay in telegram chat and wait announcement.  3. HOLD this gem until 10x   (soon - QDAO launch cross-chain for BSC, Polkadot and ETH)",4218,6165
1376874073809117185,"2021-03-30T12:28:54Z","SURPRISE PRIZE 🎉  Since we have been growing so fast, I wanted to add a bonus prize to the giveaway to say thank you to you all  BONUS PRIZE: - 1 CYBERPOWER GAMING COMPUTER ($1500 value) or $1k of $ETH  The winner will get to decide  Drawing all 29 giveaway winners at 6pm PST https://t.co/QdkURu6onz",4002,591
1376874067408547847,"2021-03-30T12:28:53Z","The DEX @FinanceChainge is set to launch on the @FUSIONProtocol network with over a million users on the protocols waitlist. This decentralized exchange aims to innovate on traditional models through leveraging the Fusion Network.  #BSC #BTC #ETH #BNB  https://t.co/9rkPAdeAJd https://t.co/KY8lMCEyuL",0,0
1376874064749285376,"2021-03-30T12:28:52Z","Proposal created to add $COMP to the DAO👀  → https://t.co/oH74dVQ1pm  Use your #ropsten account to check out why Pollen is a game changer   #defi #dao #erc20 $eth $cdai @compoundfinance https://t.co/HDXLgfLcCp",7,2
1376874057384124417,"2021-03-30T12:28:51Z","If $ETH breaks out this descending wedge on the 4hr chart, expect fireworks ... I’m talking like 40% gains in one week.  #bullish #ethereum #trading",0,0
1376874048123236359,"2021-03-30T12:28:48Z","@RyanSAdams I'm a bit surprised that they chose ETH. Tbf, I'm still pretty new to the crypto space, but isn't ETH the same network that is hosting a bunch of alleged scam tokens right now?",0,0
1376874042896998405,"2021-03-30T12:28:47Z","Is amazing to see how this project has been out since Dec 2020 and so far Liquidity Providers have earned about 6533.78 $ETH and that is the total value of $10.6 Million dollars. 💪  Also the APY doing 301.35% which is amazing.  #DeFi #UniSwap #BSC #SmartContract #Ethereum https://t.co/9a7rgyoMpE",2385,2476
1376874039667535876,"2021-03-30T12:28:46Z","RT @nebraskangooner: If #ETH pumps alts pump.",629,39
1376874038497263620,"2021-03-30T12:28:46Z","@Mounia_NL @binance @PancakeSwap @fezbox It seems that Binance bought of some tier 2 crypto influencers to shill BCS and FUD ETH. Low move, only effective in the short term. In along term ETH will put BCS and Binance out of business. @cz_binance @binance",0,0
1376874038056865792,"2021-03-30T12:28:46Z","I bought a small bag of #AVA at 5.5$.  Targeting 6$ level  $AVA @travalacom DYOR #cryptocurrency #Bitcoin #altcoins #BTC #ETH #BinanceSmartChain #Binance #YieldFarming #BSC #DeFi",3,0
1376874031530569732,"2021-03-30T12:28:44Z","RT @AymericDeplante: @mickalamasse1 Let’s Gooooo #tacoswap #tacoTokentothemoon #tacotoken🌶#dex #defi #crypto #binance #crd #ETH @SushiSwap…",48,49
1376874031182413825,"2021-03-30T12:28:44Z","RT @AymericDeplante: @mickalamasse1 Let’s Gooooo #tacoswap #tacoTokentothemoon #tacotoken🌶#dex #defi #crypto #binance #crd #ETH @SushiSwap…",48,49
1376874026707120130,"2021-03-30T12:28:43Z","Amazing! The NFTs in the Atari Capsule Collection will be issued on the #ETH and @harmonyprotocol $ONE blockchains! More @ https://t.co/YpcPv3kmPO  #ONE4ALL #DeFi #NFT #crosschain #BeTheOne https://t.co/A0dFOqIjig",51,20
1376874023972438018,"2021-03-30T12:28:43Z","@NFTCollector11 CyberRexes is a set of 10.000 unique 1/1 Rexes with different levels of rarity.   Price 0.01 ETH   Each Rex can be assigned a unique name by the buyer for additional scarcity.  Mint yours at our website: ( limit 20 per tx )  Website: https://t.co/TpFjqF1ccc https://t.co/uAsZpNpplL",0,0
1376874020008697856,"2021-03-30T12:28:42Z","Time for WitLink Token #Airdrop!  ✔️ Start the Airdrop bot: https://t.co/8HDV9cCJse  Complete the tasks to earn  Get 10 WAI ($2.5) + Get 4 WAI ($1) For Each Valid Refer   #ETH #BTC #WAI #LINK #Airdrops",1478,1424
1376874018788139015,"2021-03-30T12:28:41Z","vouchers with a 1: 1 privacy swap on the decentralized ETH blockchain.  @Falcon SBS has a lot to offer Usecase wise #Privacy #Defi # DEWI Fortuna DE Message I remember again the ecosystem is very focused on #privacy &amp; #security users, #DeFi, utilizing https://t.co/gVWrvaxArm",2,1
1376873994578657285,"2021-03-30T12:28:36Z","The DEX @FinanceChainge is set to launch on the @FUSIONProtocol network with over a million users on the protocols waitlist. This decentralized exchange aims to innovate on traditional models through leveraging the Fusion Network.  #BSC #BTC #ETH #BNB  https://t.co/xx55YiGfm3",21536,13658
1376873986190147585,"2021-03-30T12:28:34Z","See a lot of the cryptos spike at 4:20AM?🤪  #BTC #eth #ltc #dogecoin #dogearmy",1,0
1376873981358247938,"2021-03-30T12:28:32Z","@badtradesonly 10 eth offer",1,0
1376873980393615360,"2021-03-30T12:28:32Z","OMG 😱  Day 1 on CMC   TacoToken🌶  is Top pair on #coinmarketcap    #tacoswaptothemoon #cryptocurrencies #tacoswaptomars #defi #eth #ADA #ethereum #crypto @bepronet @Poolz__ @Xed",1184,1072
1376873979038687234,"2021-03-30T12:28:32Z","Welcome to massive Q DAO airdrop!   1. go now to telegram https://t.co/COyXgODY1z   2. Stay in telegram chat and wait announcement.  3. HOLD this gem until 10x   (soon - QDAO launch cross-chain for BSC, Polkadot and ETH)",4218,6165
1376873970239086592,"2021-03-30T12:28:30Z","Time for WitLink Token #Airdrop!  ✔️ Start the Airdrop bot: https://t.co/8HDV9cCJse  Complete the tasks to earn  Get 10 WAI ($2.5) + Get 4 WAI ($1) For Each Valid Refer   #ETH #BTC #WAI #LINK #Airdrops",1478,1424
1376873944846852101,"2021-03-30T12:28:24Z","Guys 🧑‍🚀your attention . $Holo show you how strong it is. Don't betray it. Hold your $Hot until 1$ at least!   #Holochain #Holo #Hot #holonaut #crypto #eth #Bitcoin",18,3
1376873943144009729,"2021-03-30T12:28:23Z","Well this is a nice morning, isn't it? 😃  $BTC $ETH",279,3
1376873943080964100,"2021-03-30T12:28:23Z","@FeraSY1 ETH leveraged, but feels safer than putting money in altcoins.",0,0
1376873942850371589,"2021-03-30T12:28:23Z","@EuroVideoMaping https://t.co/3YLeIryaj0 here's my first drop, it marks the beginning of series exploring minimalism, shadow, light and mortality. And if the buyer wishes it comes with a print! Currently at 0.5 ETH. Can't wait till this gets sold so I can mint more!",2,1
1376873936097583108,"2021-03-30T12:28:22Z","RT @CryptoBusy: LIKE THIS TWEET TO PUMP ETHEREUM $ETH AND BITCOIN $BTC 🚀",314,13
1376873933794906116,"2021-03-30T12:28:21Z","Shill me your #nftprojects and #nftarts 1. Like 2. Follow  3. Retweet  And I'll buy  your work or #giveaway 100 dollar worth of #eth when I have 300 followers from the those  who follow these 3 steps. #nft #nftartist  #NFTshill #nftcollector #NFTcollection #NFTCommunity",36,18
1376873932876316680,"2021-03-30T12:28:21Z","The DEX @FinanceChainge is set to launch on the @FUSIONProtocol network with over a million users on the protocols waitlist. This decentralized exchange aims to innovate on traditional models through leveraging the Fusion Network.  #BSC #BTC #ETH #BNB  https://t.co/xx55YiGfm3",21536,13658
1376873928082132998,"2021-03-30T12:28:20Z","The DEX @FinanceChainge is set to launch on the @FUSIONProtocol network with over a million users on the protocols waitlist. This decentralized exchange aims to innovate on traditional models through leveraging the Fusion Network.  #BSC #BTC #ETH #BNB  https://t.co/xx55YiGfm3",21536,13658
1376873922839384064,"2021-03-30T12:28:18Z","Proposal created to add $COMP to the DAO👀  → https://t.co/oH74dVQ1pm  Use your #ropsten account to check out why Pollen is a game changer   #defi #dao #erc20 $eth $cdai @compoundfinance https://t.co/HDXLgfLcCp",7,2
1376873922461888520,"2021-03-30T12:28:18Z","📈Everything is turning green; let's collectively will it further up! #Bitcoin #Ethereum #CHSB Allez hop, let's go! 📢Retweet, use hashtags and make noise. 🥁🎉Tell us, where's the best place to trade #BTC and #ETH? Of course, we think it's here: https://t.co/CEfkyOx61K",476,177
1376873917202100228,"2021-03-30T12:28:17Z","Time for WitLink Token #Airdrop!  ✔️ Start the Airdrop bot: https://t.co/8HDV9cCJse  Complete the tasks to earn  Get 10 WAI ($2.5) + Get 4 WAI ($1) For Each Valid Refer   #ETH #BTC #WAI #LINK #Airdrops",1478,1424
1376873904971603968,"2021-03-30T12:28:14Z","nOtHiNg HaTcHeD. @Polkamonorg  #NFT #ethereum #eth $eth #crypto #nfts #cryptocurrency #defi #cryptonews #cryptotwitter #bitcoin #btc $btc #altcoin #altseason #cryptoart #cryptoartist #cryptotrading #cryptoartists #nftcommunity #nftcollectors #nftart #nftgiveaway",2,0
1376873891814010883,"2021-03-30T12:28:11Z","I'll send $300 in #ETH or #BTC to one person who retweets this and follows @bud_crypto. Must complete these tasks:  1 - Like/RT his pinned tweet  2 - Must RETWEET &amp; LIKE 4 of his tweets  Ends in 72 hours!",1210,1759
1376873891214282756,"2021-03-30T12:28:11Z","Realistic price targets for EOY 2021  $BTC $135k $ETH $8000 $RSR $1.25 $ZIL $2.50 $ANKR $3 $ONE $2 $DENT .50 $BAND $75 $UTK $10 $ADA $15 $NU $10 $LINK $100 $SXP $30 $BAT $9 $XRP $0",2349,373
1376873889205260290,"2021-03-30T12:28:10Z","@lucclop @miguelgarest @seedphrase @alessiodevecchi Yeah it is unreasonable expectation to start minting your work and then make 10 eth and upwards with every other piece. It is not shameful to begin sellin for less and build up.Much better to sell even for 1 eth , than do commision for 80-100$(a lot of stories like this)",1,0
1376873882741784576,"2021-03-30T12:28:09Z","@DiamondNft CyberRexes is a set of 10.000 unique 1/1 Rexes with different levels of rarity.   Price 0.01 ETH   Each Rex can be assigned a unique name by the buyer for additional scarcity.  Mint yours at our website: ( limit 20 per tx )  Website: https://t.co/TpFjqF1ccc https://t.co/ofgjlux8V8",1,0
1376873881131188230,"2021-03-30T12:28:08Z","RT @jims_eth: sold out piece by @lucclop  A giant flying squid invasion could not distract him. Screen Time is HIS time…. https://t.co/i4NE…",1,1
1376873879516241922,"2021-03-30T12:28:08Z","Welcome to massive Q DAO airdrop!   1. go now to telegram https://t.co/COyXgODY1z   2. Stay in telegram chat and wait announcement.  3. HOLD this gem until 10x   (soon - QDAO launch cross-chain for BSC, Polkadot and ETH)",4218,6165
1376873876966105098,"2021-03-30T12:28:08Z","RT @iamdemimark: @WeLikeTheNFT My genesis 1/1💚 Artwork + Music 🧡 Headphones required🎧 0,5 ETH 💎 https://t.co/FVnPTyaIof",1,2
1376873876416774147,"2021-03-30T12:28:07Z","The official Press Release from @PayPal for the announcement of cryptocurrency alongside other payment methods in the PayPal wallet #Bitcoin #Ethereum #Litecoin   https://t.co/XlTb3vmx6n  $btc $eth $ltc https://t.co/LQn4VeNmH0",1,0
1376873871853375493,"2021-03-30T12:28:06Z","New #NFT collection on #sale.  #opensea #nftmarketplace #eth #art #nftart #nfts #nftartist  https://t.co/kC1JxE8WM8  @opensea   @The_NFT_Gallery   @NFTool",4,0
1376873859010326532,"2021-03-30T12:28:03Z","The DEX @FinanceChainge is set to launch on the @FUSIONProtocol network with over a million users on the protocols waitlist. This decentralized exchange aims to innovate on traditional models through leveraging the Fusion Network.  #BSC #BTC #ETH #BNB  https://t.co/xx55YiGfm3",21536,13658
1376873850173067264,"2021-03-30T12:28:01Z","Join the 3 day summer school on big data, automatization, and applications of artificial intelligence in chemistry! Registration opens April 12. @ETH_DCHAB @NCCR_Catalysis @EPFL_CHEM_Tweet   https://t.co/pq2v83UiEX https://t.co/iXZjkavYKL",39,13
1376873842157707265,"2021-03-30T12:27:59Z","#FEGEx launching any day now with so many insane features it will blow your minds!! $FEG is here to disrupt the #DeFi space for ever!! Look out $UNI there's a new ape in town 👀  $FEG $ETH $BNB $DOGE $BSC  @FEGtoken @elonmusk @LoganPaul @jakepaul @KSI @CorinnaKopf @DyrtyBlonde",0,0
1376873834607955972,"2021-03-30T12:27:57Z","Gas fees on #Uniswap last 24hs:  $4,439,947.71 (2,474.53 Eth)  Gas fees on #Tether last 24hs:  $1,690,979.49 (942.44 Eth)   Gas fees on #USDC last 24hs:  $495,200.85 (275.99 Eth)   Gas fees on #IOTA since its inception: $0",422,95
1376873832569565184,"2021-03-30T12:27:57Z","RT @AymericDeplante: @mickalamasse1 Let’s Gooooo #tacoswap #tacoTokentothemoon #tacotoken🌶#dex #defi #crypto #binance #crd #ETH @SushiSwap…",48,49
1376873831667748868,"2021-03-30T12:27:57Z","“Save your ETH by paying gas in stablecoins with @biconomy  Forward! Try testnet for https://t.co/tcWkZzxK4q now.”    0x95eDDc2b5fE25b99ca298fc6A9ED3f02173BFa3F https://t.co/bvAFeSXEeq",1,0
1376873829172142082,"2021-03-30T12:27:56Z","Two more weeks to enter our hackathon! Anyone want to create a team? @OasisProtocol https://t.co/sYqCSv4nQL",0,0
1376873825502162944,"2021-03-30T12:27:55Z","Every 10 seconds a new $FREE coin blockchain wallet is created (most on #BSC, others on #ETH and #TronNetwork ) 🚀  This is a clear and objective indication of the accelerated adoption of the $FREE coin ❤️  @binance @BinanceResearch @BinanceChain @cz_binance @bepalliance https://t.co/zLRntXqfUQ",431,199
1376873820485640192,"2021-03-30T12:27:54Z","@the_YCB @SkyMavisHQ hahahah. we should keep those accounts banned until 1 AXS = 1 ETH",4,0
1376873815754608642,"2021-03-30T12:27:53Z","OMG 😱  Day 1 on CMC   TacoToken🌶  is Top pair on #coinmarketcap    #tacoswaptothemoon #cryptocurrencies #tacoswaptomars #defi #eth #ADA #ethereum #crypto @bepronet @Poolz__ @Xed",1184,1072
1376873812290076673,"2021-03-30T12:27:52Z","RT @linkchainlink: Visa is now an $ETH sidechain powered by $LINK.  Think about that for a min.",584,77
1376873805440720900,"2021-03-30T12:27:50Z","💧Poplink Oracles Airdrop 💧  🏆 Task:          ➕  50 POPO (~$50)  👨‍👩‍👧 Referral:  ➕  15 POPO (~$15)  🔛  Airdrop Link &amp; Information: https://t.co/DS6g34KhFp  #cryptocurrency #Crypto #Bitcoin  #BSC #BinanceSmartChain #Ethereum #ETH #Airdrop #bounty #POPO #Poplink",6695,8526
1376873802051772420,"2021-03-30T12:27:50Z","Last days to vote for our fluoroscopy series photo as the best Swiss science photo🙂 https://t.co/Nblru32MY2  @ETH_en @ETH @lmbethz @snf_ch @ISBiomechanics @IntWomxnBiomech https://t.co/dIwtfVfSrk",11,8
1376873795441414145,"2021-03-30T12:27:48Z","My portfolio now. Super green: $ETH $VRA $TRTL $TEL 🎉🎉🎉. Super red: $KLV $PAC #hodl because lit fundamentals 💪 💪 💪😍😍😍",7,0
1376873793281433603,"2021-03-30T12:27:48Z","$ETH looks very promising here , Send it 🚀to 2000$ https://t.co/GVeUieSNBB",7,3
