"ID","created_at","text","like_count","rt_count"
1376225065956741121,"2021-03-28T17:29:59Z","@CryptoRubic Trading custom tokens (instant swaps) on BSC and ETH mainnet! Implementation of token address in URL, so I can share direct link to my friends.",10,0
1376225063092027404,"2021-03-28T17:29:58Z","Competitive crypto mining game! Play games &amp; climb the ranks to build up your mining room! Paid cashouts for #BTC, #ETH &amp; #Doge!  Try it out! Invite link: https://t.co/R5PKFxTLxr https://t.co/J8eVY8sM5a",3,0
1376225053520449536,"2021-03-28T17:29:56Z","Tired of your exchange going down?  Trade #Crypto &amp; stocks anywhere in the world on FTX The easiest deposit methods available &amp; near instant KYC!  Trade here with a 5% lifetime fee discount: https://t.co/SzgbT2Ypee  $BTC $ETH $BNB $CAKE $CRV $ADA $FTT  @coinkit_ mon 0.2 200 $TRX",55,0
1376225037435428872,"2021-03-28T17:29:52Z","I Had Lost My Mind - unique dynamic version by FRENEMY  1 of 1 • Current offer of Ξ 0.6  https://t.co/ekkuvLLhCh  @KnownOrigin_io  Art by @frenemylife  #cryptoart #NFT #cryptoartist #ETH",16,1
1376225037133447170,"2021-03-28T17:29:52Z","Before anyone rages this is just a fun joke  Dotsama will actually help $ETH out with scaling/interoperability.   Everything bridged.   But it will be very easy to copy/paste over your eth smart contracts onto one of the EVM compatible parachains (mbeam/plm etc) and migrate.",152,1
1376225032045662208,"2021-03-28T17:29:51Z","New Airdrop: Diamond Crystal (DCT) Reward: 100 DCT ($100) Rate: ⭐️⭐️⭐️⭐️ Focus: Distribution starts after airdrop ends   Bot Airdrop Link: https://t.co/9Qzk47HUKt  #Airdrop #giveaway #BTC #ETH",4033,1
1376225023036383235,"2021-03-28T17:29:49Z","RT @DonnieBigBags: $DOT wont kill $ETH  $KSM will.",747,1
1376225009354555401,"2021-03-28T17:29:45Z","🔶 BitBay Exchange 🔶 🔸Buy &amp; Shell your crypto🔸  🚦 Join:  https://t.co/ECOp3GbkBl   🌐 In the #BitBay application you will 🌐 find a dedicated trading keyboard 🌐 Download and check it yourself  #BTC #ETH #BITBAY #crypto #USD @CTBott Adrop Avg 100 SPKL 50",37,1
1376225006074667009,"2021-03-28T17:29:45Z","@Pack2Digital AND NOW.. #014 already SOLD..   #012 #013 is available at #opensea with low prices https://t.co/5cwNZpADYk  #NFTCollectors #NFTs #crypto #cryptoart #nftart #nftdrop #nftcommunity #eth #pixelart #NFTartist #NFT   https://t.co/eEXN5YGTSE",0,0
1376224999271452672,"2021-03-28T17:29:43Z","What is #V3? When is it coming? Why does it matter?  This is what you need to know about #Telcoin's imminent release and the next evolutionary step forward for $TEL.  #SendMoneySmarter #Telfam #crypto $BTC $ETH https://t.co/19th932fX9",147,0
1376224994993303554,"2021-03-28T17:29:42Z",". Domain For Sale  https://t.co/1HPI7qWxVR  #Zumo #ZumoApp #bitcoin #btc #crypto #Apple #cryptocurrency #blockchain #100DaysOfCode #javascript #python #vr #Microsoft #Linux #eth #cryptowallet #fintech #money #cash #Media #News #entrepreneur #Business #startups #startup #Domain https://t.co/ZIw6UTzbk2",35,0
1376224991025451010,"2021-03-28T17:29:41Z","@KennethBosak AND NOW.. #014 already SOLD..   #012 #013 is available at #opensea with low prices https://t.co/5cwNZpADYk  #NFTCollectors #NFTs #crypto #cryptoart #nftart #nftdrop #nftcommunity #eth #pixelart #NFTartist #NFT   https://t.co/eEXN5YGTSE",0,0
1376224986751328258,"2021-03-28T17:29:40Z","This is likely the NFT top, but this actually bodes really well for ETH as a whole.  It’s an entire financial bubble occurring within the realm of Ethereum and the whole world is participating. Some people don’t even realize they’re using Ethereum.  This is so fucking bullish🚀 https://t.co/y4EwIt3Xgv",1,0
1376224977071042565,"2021-03-28T17:29:38Z","@intocryptoverse the thing is, Cardano can dethrone ETH When? not in 1 week, but long term....oh boy  Just look what BSC did in a focking month...insane - noone saw that coming, lets be real  If Cardano comes up with Smart contracts before ETH scaling...they have MASSIVE advantage  Popcorns rdy..",0,0
1376224974843830276,"2021-03-28T17:29:37Z","@NFTool AND NOW.. #014 already SOLD..   #012 #013 is available at #opensea with low prices https://t.co/5cwNZpADYk  #NFTCollectors #NFTs #crypto #cryptoart #nftart #nftdrop #nftcommunity #eth #pixelart #NFTartist #NFT   https://t.co/eEXN5YGTSE",0,0
1376224974617206792,"2021-03-28T17:29:37Z","🔥NEW LISTING🔥  PipiCoin #PIPI is listed on https://t.co/3RNRR039gv 🎰  Play hundreds of slots and table games with your favorite cryptocurrencies!!  Check our full list of accepted coins/tokens.  @coin_pipi $DOGE $BTC $ETH $HOGE $BNB $XRP $ADA $BUNNY $POODL $SLOW $GRUMPY $HHOG https://t.co/PD8B5H7sXT",33,0
1376224972910256129,"2021-03-28T17:29:37Z","Slow 152 | Normal 181 | Fast 204 | Instant 206 👈 current Ethereum gas prices in gwei. DM me a price and I will DM you as soon as gas drops below that price 👍 #Ethereum #GasPrice #ETHGasPrice #ETH",1,0
1376224971941322755,"2021-03-28T17:29:36Z",". Domain For Sale  https://t.co/1HPI7qWxVR  #Zumo #ZumoApp #bitcoin #btc #crypto #Apple #cryptocurrency #blockchain #100DaysOfCode #javascript #python #vr #Microsoft #Linux #eth #cryptowallet #fintech #money #cash #Media #News #entrepreneur #Business #startups #startup #Domain https://t.co/ZIw6UTzbk2",35,0
1376224967860322304,"2021-03-28T17:29:36Z","🔥 #ODDZ #Giveaway is Now On! @oddz_finance 🔥  10 lucky users will receive $30 each in #ODDZ 😗  1️⃣Login &amp; Participate   https://t.co/81bh5CpMnK  2️⃣Retweet and @ a friend  Share with your friends &amp; get more rewards 💌  #Ethereum #ETH #cryptogiveaway https://t.co/M7MxexMYji",265,0
1376224958725160960,"2021-03-28T17:29:33Z","RT @cryptunez: the $ETH pump is inevitable.",952,0
1376224956925755393,"2021-03-28T17:29:33Z","@BitAliens AND NOW.. #014 already SOLD..   #012 #013 is available at #opensea with low prices https://t.co/5cwNZpADYk  #NFTCollectors #NFTs #crypto #cryptoart #nftart #nftdrop #nftcommunity #eth #pixelart #NFTartist #NFT   https://t.co/eEXN5YGTSE",1,0
1376224956028088321,"2021-03-28T17:29:33Z","reality, art, dream, and space [ reanimated / reedit ]  1 of 1 / original by gonekrit Available now on @withFND   https://t.co/kKAkhpZCUD  Listing now for 0.25 ETH Hope you love it!  #NFT #NFTs #nftart #nftcollectors #nftcollector #NFTartist #NFTartists #cryptoartist https://t.co/rabNEwPu84",35,0
1376224955055083522,"2021-03-28T17:29:32Z","@velas_token @CinthyaGz5 Fabulous. Thank you very much for the opportunity! 0xE114F98Ab35F291A6A42b0d53Bd7c86245991568 #ico #eth #bounty #ksm #dot",2,0
1376224949329870850,"2021-03-28T17:29:31Z","FaceTiming my brother and best mate this evening together (I got them into crypto a few months back) they choose to buy bigger bags of $ETH with smaller holdings in $ALGO and $LINK.. Going to do my best to get them to convert those holdings all into $ALGO ..I think I'll succeed.",26,3
1376224939854954500,"2021-03-28T17:29:29Z","If we build a music island🎵🏝in @cryptovoxels with several attached parcels (20-50) in one area, each owned and controlled by you - musician, how much ETH would you be ready to spend on your parcel if we get it going? Please comment with answers, questions or ideas #musicisland https://t.co/FULCVsPjFV",42,3
1376224939322265607,"2021-03-28T17:29:29Z","30 day EVIX: 83.5701 ETH/USD vwap: $1,702.99 04/16 expiry volume: $1,615,170.96 04/30 expiry volume: $7,359,618.18 Current time: 17:29:05",0,0
1376224925107810309,"2021-03-28T17:29:25Z","🔥#GiveawayAlert🔥 Prize: 1/1 @BrutalKongz 💎 #nft worth 🔥0.4 $eth 🔥 To enter: ➡Like❤ ➡️RT ➡Follow @BrutalKongz + @Crypt0xNinja ➡Tag 2+ friends who love #NFTs Ends1st April - I will send a DM to the winner - Good luck #NFTCommunity #nftcollector #nftart #Giveaway #NFTs",106,0
1376224920728973317,"2021-03-28T17:29:24Z","Punk 8689 bought for 22 ETH ($37,611.42 USD) by 0x4db1dd from 0xca8fe4. https://t.co/fA0KmxBBEr #cryptopunks #ethereum https://t.co/pa7inpPBUN",12,1
1376224909341429764,"2021-03-28T17:29:22Z","Twitter accounts saying I have 5 ETH to spend, show me your art is the modern equivalent of saying dance monkey, dance + attaching a monetary value like this looks shady af.  Artists deserve respectful engagement, not endless shills to boost one individual's follower count",260,1
1376224903398055943,"2021-03-28T17:29:20Z","Good bye old friends, $BTC $ETH $REN $WAN $LINK $AAVE $ALGO $UTK https://t.co/l34s8t810x",2,0
1376224902403948545,"2021-03-28T17:29:20Z","@BastardGhosts My work revolves around abstract expressionism. It is heavily inspired by dreams and illusions.  Bloom: 0.05 ETH Sakura: 0.1 ETH Muse: 0.15 ETH  https://t.co/yPKd7PO1KB  Thank you for this opportunity! https://t.co/24HVNSznyI",2,1
1376224894090833920,"2021-03-28T17:29:18Z","At Assure we are intent on making a difference.   Investors in the #DeFi space are losing money everyday to scams/rug pulls.   It has to stop.  Assure wants to help.   Our industry first GDPR-compliant KYC platform will help bring legitimacy and trust to the #Crypto space.  $eth",18,1
1376224889787518982,"2021-03-28T17:29:17Z","@TheCryptoLif7 @ethbox_official Awesome!! Big Thanks @TheCryptoLif7 #bullrun #blockchain #BHB #cryptocurrency #thecryptolifestyle  #BTC #ETH #IDO #cryptonews  @_CoinHunter_ @tomaskristl6 @rekktguy",8,0
1376224870548168708,"2021-03-28T17:29:12Z","🏆 Follow us &amp; Retweet this tweet, Specify the ETH address in the tweet comment to get 10 #BIT ($10 worth) or 50 #BIT ($50 worth) #BitScores Airdrop Tokens! 🎁 $250,000 Prize Pool Full rules: https://t.co/N53M5nRXr9  #giveaway #airdrops #bounty #giveaways #defi #eth #btc #airdrop https://t.co/m77hDtRsBv",3577,0
1376224867196887042,"2021-03-28T17:29:12Z","To celebrate a great launch we do have a present for all of you EBOXers, especially our early adopters ❤️ YOLO!  🔥50.000 $EBOX EARLY ADOPTER GIVE-AWAY🔥 Invite your friends &amp; join us on https://t.co/GrzTPZlyJi for future community actions 🤝 $EBOX #EBOXERS $ETH #ERC20 #BSC #ETH https://t.co/KCJlXEdI4e",183,0
1376224856979738629,"2021-03-28T17:29:09Z","Benjamin Franklin on Blockchain - new #artwork on @withFND 🔴 Reserve Price 1.50 ETH 🔥 #NFT #NFTart #blockchain #cryptoart https://t.co/fd21jO5EMn https://t.co/DYSaINSlnI",18,0
1376224852969840640,"2021-03-28T17:29:08Z","The DEX @FinanceChainge is set to launch on the @FUSIONProtocol network with over a million users on the protocols waitlist. This decentralized exchange aims to innovate on traditional models through leveraging the Fusion Network.  #BSC #BTC #ETH #BNB  https://t.co/xx55YiGfm3",21660,0
1376224848725221382,"2021-03-28T17:29:07Z","🔸 New Listing🔸   #BKEX will list #DRYCAKE @DryCakeSwap🚀 🚀  - Trading pair: DRYCAKE/USDT - Trading time: 20:00 on Mar 29 (UTC+8)  🔹 🔹 More details: https://t.co/kC2IIebfTT  #Bitcoin #ETH #BKK #Blockchain https://t.co/w8CHyKXaUD",2480,0
1376224840705773575,"2021-03-28T17:29:05Z","All Eyes👀on  $Wan 🔥 #wanchain 🗣️U don't want to miss this!⏬⏬More coming soon! King Awakes👑!  $eos $chz $atom $iota $comp $agi $btc $eth $link $xrp $ksm $rsr $bnb $algo $uni $theta $orai $enj $hbar $qnt $ada $dot #api3  $aave $wasp #DeFi #altcoin  https://t.co/qpXc5W2vnX https://t.co/FTIg4xPbhR",67,0
1376224827460182020,"2021-03-28T17:29:02Z","🚀3DPunks #060🚀 SOLD for 6.25 ETH on OpenSea! Great buy but they would have been better waiting for the @jurassicasylum drop  Check out the transaction: https://t.co/FMZ5p6aTSm #JurassicAsylum #NFT #NFTartist #cryptoart #NFTCommunity https://t.co/fZHDssKKve",0,0
1376224822670336005,"2021-03-28T17:29:01Z","🚨50$ Giveaway = 2 Winner * 25$ Each 🚨 Rules:   (1) Follow @Team_Professor &amp;  @altnomic  (2) Follow Our Telegram Group!👇  One Of The Best Channel For Crypto🔥🔥  https://t.co/WWmMOJaVKZ  (3) RT + Like + Tag Two Of Your Friends  Result Will Be Announced On 5th April!  $BTC $ETH",44,0
1376224816357896192,"2021-03-28T17:28:59Z","What is K-Chain  Competently backed by the revolutionary Blockchain technology, King-Store aims to infuse the immutability of its signature, ERC-20-based K-Chain Token (KCT) cryptocurrency to  Details:  https://t.co/5DFpOhQxNF  Tags: #Bitcoin #Btc #Ethereum #Eth #Altcoin #Airdrop https://t.co/3l7PU8Y4x5",0,0
1376224811848900610,"2021-03-28T17:28:58Z","sETH Pool deposit 500 ETH  (~$852,090) | LP &amp; veCRV Holder Fee: $170.42 | Hash https://t.co/saQmHVkICU | 🦙🦙🦙🦙🦙🦙🦙🦙🦙🦙🦙🦙🦙🦙🦙🦙🦙🦙🦙🦙🦙🦙🦙🦙",0,0
1376224810120966158,"2021-03-28T17:28:58Z","🔥 Rewardiqa Airdrop 🎁 Reward: 15 REW 232$ ✅ Market: Finexbox  🕹️ Join Airdrop Bot👉  https://t.co/hDsR7KQu7t  ‼️ Task... 🔹 Join Telegram 🔹 Follow Twitter  🔹 Submit ERC-20 ETH Address https://t.co/7S3EYfXqH5",17,0
1376224806283083776,"2021-03-28T17:28:57Z","@AntonSinting @NBATopShotEast @CryptoStache @KennethBosak @riceboy42069 @grantpat @Topshotbabe @Wades_ETH Make sure to DM me for a ticket",0,0
1376224783008927746,"2021-03-28T17:28:51Z","@DiamondNft New age fever is the first of many illustrations/animations, inspired by the japanese folklore and the daily routines.  Now Available for bidding. 0.20 ETH Don't miss it!!! https://t.co/Y2wp2SKQWA @withFND",0,0
1376224780165263367,"2021-03-28T17:28:51Z","RT @MartinHinrichs8: Some insider: $ZIL - $ETH Bridge live on #PolyNetwork 31 Mar 2021.  #Zilliqa #Ethereum",131,0
1376224774100197378,"2021-03-28T17:28:49Z","BeepleGallery was created for 100 $MANA ($100.00 USD = 0.0586 $ETH) by https://t.co/KU9XQm7Qda https://t.co/U0EIimE2fW #decentraland #names #avatar https://t.co/Om3sAo9qyJ",6,0
1376224773366280196,"2021-03-28T17:28:49Z","⭐️2K FOLLOWER GIVEAWAY⭐️  👉Enter to WIN a CryptoKaren worth 0.1 ETH!  TO ENTER:  1.Follow Us (+1 pt) 2.Retweet (+1 pt) 3.Tag 3 Friends (+3 pts)  Contest enters TMRW 3/29 at 10am EST! 💖💋💁‍♀️  #nftart #nftcollector #nftcommunity #nfts #pixelart #cryptoart #digitalassets #eth https://t.co/Hx83ppBfn2",165,0
1376224766768656385,"2021-03-28T17:28:48Z","🔥🔥🔥🔥🔥  New ID Announcement   https://t.co/ryFL9chElR  🔥🔥🔥🔥🔥  #infinitedivs #bsc #bitcoin #ETH $BTC $ETH $cake $BNB  #cryptocurrencies #Crypto $Uni #DeFi #BNB $ID https://t.co/GhJVf67fC8",14,0
1376224763501158403,"2021-03-28T17:28:47Z","#BTC Price: $55812 #ETH Price: $1702 #LTC Price: $184  Next update in 10 minutes Last updated: 13:28:46.09",0,0
1376224763442561028,"2021-03-28T17:28:47Z","The Gangland Skulls collection is now rated #37 out of ALL new projects on @opensea and that just completely shatters my mind!!  https://t.co/hEOeOE7TP4  #nft #nftart #nfts #nftartist #nftcollector #nftcommunity #superrare #mintable #rarible #niftygateway #opensea #eth #ethereum https://t.co/O5Hd2IbpfL",30,0
1376224763182465026,"2021-03-28T17:28:47Z","SOLD OUT - Jägerbomb  #nftcollector #NFTcollectibles #nftartists #eth #NFTs  https://t.co/Fg5b7mA2L0",5,1
1376224761106161664,"2021-03-28T17:28:46Z","@PennyMcStacks My work revolves around abstract expressionism. It is heavily inspired by dreams and illusions.  Bloom: 0.05 ETH Sakura: 0.1 ETH Muse: 0.15 ETH  https://t.co/yPKd7PO1KB  Thank you for this opportunity! https://t.co/y4Ye7piJl5",0,0
1376224745885028356,"2021-03-28T17:28:43Z","The DEX @FinanceChainge is set to launch on the @FUSIONProtocol network with over a million users on the protocols waitlist. This decentralized exchange aims to innovate on traditional models through leveraging the Fusion Network.  #BSC #BTC #ETH #BNB  https://t.co/xx55YiGfm3",21660,0
1376224734883483648,"2021-03-28T17:28:40Z","🚨🚨 MEGA 4/20 MOMENT GIVEAWAY 🚨🚨  Details in the image below. Follow @TheeHustleHouse as he will be dropping the free NFT tickets on his twitter.   RT This And Follow: @KennethBosak @CryptoStache @riceboy42069 @grantpat @Topshotbabe @Wades_ETH @TheeHustleHouse @NBATopShotEast https://t.co/gKUgFyMGLD",96,0
1376224734027784192,"2021-03-28T17:28:40Z","ErnestCline was created for 100 $MANA ($97.47 USD = 0.0569 $ETH) by https://t.co/6NqpaDalTT https://t.co/XcCZMiQ8Ph #decentraland #names #avatar https://t.co/QeyX2HiAkM",2,0
1376224727119798272,"2021-03-28T17:28:38Z","RT @QuintenFrancois: #Ethereum is the best thing that happened to the world since the invention of the internet.  $ETH",1652,0
1376224724397682690,"2021-03-28T17:28:37Z","RT @crypto_birb: $BTC 90k $ETH 5k coming soon https://t.co/kKro6dgdJL",2404,0
1376224717128994821,"2021-03-28T17:28:36Z","Or just a smoother way to swap #eth #usdt, etc for #Safemoon been trying pancake all day multiple wallets no dice.",2,0
1376224712917925894,"2021-03-28T17:28:35Z","🚀 Pluto Coin  Airdrop 🚀 Rate: ⭐⭐⭐⭐ ⭐ 🎁 Reward:  8822 PLUT ($1500) 👫 Referral: 40.5 PLUT  ($7)  🤖Start Bot here   https://t.co/x5JZchojO8  ⛂ Join Telegram group and channel. ⛂ Follow twitter &amp; retweet  ⛂ Submit ETH address and details.",6005,0
1376224678075904001,"2021-03-28T17:28:26Z","@The_NFT_Hub Kevinzuber.eth or 0x0a1f2e1a4585bbf5E54a894FffA74133654BfaDC",0,0
1376224672824573962,"2021-03-28T17:28:25Z","@tokenames New age fever is the first of many illustrations/animations, inspired by the japanese folklore and the daily routines.  Now Available for bidding. 0.20 ETH Don't miss it!!! https://t.co/Y2wp2SKQWA  #nftcollectors #nftcollector #nft #NFTartist #NFTartists  #NFTCommunity",6,0
1376224666331840518,"2021-03-28T17:28:24Z","Shill me your NFTs and collections! 🤩  Last nights UFC knockouts have me pumped to spend some ETH. 🔥  Will be collecting all day! 💸  #NFT #NFTCollector #NFTCollectibles #Ethereum",234,0
1376224660312952832,"2021-03-28T17:28:22Z","WORST Case Scenario for ETH (Should You Sell Your Ethereum for Cardano?) https://t.co/umu4P8fY7b via @YouTube @investvoyager #ADA #VGX",0,0
1376224656336674817,"2021-03-28T17:28:21Z","@JensNft @NBATopShotEast @KennethBosak @CryptoStache @riceboy42069 @grantpat @Topshotbabe @Wades_ETH Make sure to DM me",0,0
1376224648992415747,"2021-03-28T17:28:19Z","@BitScores My eth address :0xC9900a8403De03fe23C2360013240FDA49545C48",0,0
1376224620714549252,"2021-03-28T17:28:13Z","RT @chainlinkace: 🏆Drop your $ETH address here🏆",937,0
1376224619208839179,"2021-03-28T17:28:12Z","@TabarnakDan @guydbennett @TrustlessState How did I get into an Eth maxi vs BTC maxi mud fight on twitter? Cant we go back to a world where we all shit on the traditional financial system and $XRP?",1,0
1376224594030366725,"2021-03-28T17:28:06Z","New Airdrop: Diamond Crystal (DCT) Reward: 100 DCT ($100) Rate: ⭐️⭐️⭐️⭐️ Focus: Distribution starts after airdrop ends   Bot Airdrop Link: https://t.co/9Qzk47HUKt  #Airdrop #giveaway #BTC #ETH",4033,0
1376224589638930433,"2021-03-28T17:28:05Z","7 coins to glory #7coinstoglory   1) $ETH: $ 7,500 - $ 15,000 USD  2) $LUNA: $ 30 - $ 50 USD  3) $1INCH: $ 10 - $ 20 USD   4) $OCEAN: $ 10 - $ 25 USD  5) $LINA: $ 1 - $ 7 USD  6) $SXP: $ 10 - $ 15 USD  7) $UTK: $ 4 - $ 6 USD   Not a financial advise 🙏🏻 time to send it 🔥🚀",224,0
1376224589563318274,"2021-03-28T17:28:05Z","I know I haven’t mentioned it but $vra 🌚🚀 one of my bigger holdings... let’s go!!!   Get us to 2 cents!   $BTC $ADA $REN $ETH $SRK $LTC $UNI $DOGE $BNB $DOT $KCS $vet $fil $enj $bch $aave $cro $ela $nft https://t.co/0CTs1gioNM",20,1
1376224588242116608,"2021-03-28T17:28:05Z","🔸 New Listing🔸   #BKEX will list #DRYCAKE @DryCakeSwap🚀 🚀  - Trading pair: DRYCAKE/USDT - Trading time: 20:00 on Mar 29 (UTC+8)  🔹 🔹 More details: https://t.co/kC2IIebfTT  #Bitcoin #ETH #BKK #Blockchain https://t.co/w8CHyKXaUD",2480,1
1376224566033461252,"2021-03-28T17:28:00Z","@Grayscale increased their holdings in $MANA #Decentraland by 47% ($9.9m to $14.6m) week ending 26th March #CryptoCurrency #BTC #ETH #ADA https://t.co/NBbzOK7Nu1",12,1
1376224552951279620,"2021-03-28T17:27:57Z","WoW, these statistics 🤩🤩🤩  Over $3M Liquidity, more than $1M Volume in less than 24 hours 🥳  There is still a chance for everyone to buy HLD at $0.625 in Public Sale. Whitelist is open until March 30 👇🏼  🌐 https://t.co/ip07iXLcTh\  #HLD #uniswap #Holdefi #ETH https://t.co/tKJ943nw1n",42,1
1376224529698058247,"2021-03-28T17:27:51Z","@NFTmix My work revolves around abstract expressionism. It is heavily inspired by dreams and illusions.  Bloom: 0.05 ETH Sakura: 0.1 ETH Muse: 0.15 ETH  https://t.co/yPKd7PO1KB  Thank you for this opportunity! https://t.co/3il4211uyG",0,0
1376224528506920961,"2021-03-28T17:27:51Z","🌋#ATD #Giveaway is on now! @a2dao_ 🌋  10 lucky users will receive $30 each in #ATD ✨  1️⃣Login &amp; Participate ☀️ https://t.co/wrbe0JlJuK   2️⃣Retweet and @ a friend  #DeFi #crypto #ALTSEASON #ETH #NFT https://t.co/oq0O5RbPbj",307,0
1376224522085408769,"2021-03-28T17:27:49Z","Ripple XRP - Get Your Popcorn Ready! It's ShowTime! XRP Pumping up 13%!   SEC Is In Big Trouble! We want to see the documents! 40k search results hits on BTC and ETH!  https://t.co/RMORdMnd2V https://t.co/swlrUkNMUu",174,0
1376224513952653315,"2021-03-28T17:27:47Z","High $BZN distribution starts now! Mine or Die!  Warm-up: 1 - 2 PM EDT  HD : 2 - 5 PM EDT  Free vehicle for all new players! Like and retweet!  Download the game: https://t.co/32SylDbBgA  Pick up bundles: https://t.co/UaOQxLJG6p  #NFT #blockchaingame #erc721 #ethereum $ETH https://t.co/6AWTWPKE8K",24,0
1376224513789202437,"2021-03-28T17:27:47Z","As you see the price rise, remember that in a few months or weeks you'll look back on this period in $FEG's history and barely remember these tiny pumps.  As you click Collect Staking Rewards and withdraw your $ETH or $BNB to lay down the deposit on your new car, or house...",701,0
1376224505056481281,"2021-03-28T17:27:45Z","Staked &amp; claimed $DELTA rLP, claimed ref $ETH, launches on uniswap in 1 hour, trigger finger ready. Biggest green dildo of your life imminent. @Delta_Token https://t.co/UNHIyzsqdV",40,0
1376224501776650241,"2021-03-28T17:27:44Z","Hi @IvanOnTech https://t.co/Xm4TcbBGxu already implemented multi chain(eth,avax, bsc). Soon they are going to integrate with polkadot and solana. @GramCustodian",36,0
1376224499272720398,"2021-03-28T17:27:44Z","Lowest cap $KSM $DOT ecosystem project getting a #parachain is $XRT. The chart is ready and the team at @AIRA_Robonomics are always ready. I'm looking for triple digits within the next couple of months. 🚀 #IoT #Robotics #SmartCity #relaychain #BSC $ETH",129,0
1376224491152478208,"2021-03-28T17:27:42Z","I'm sharing my exact plan for $BTC, $ETH, $VET, $ADA, etc., in today's newsletter.   It'll be out later today.  Get access here:   https://t.co/dwkv0vxBU6",5770,0
1376224482596024323,"2021-03-28T17:27:40Z","@IslandHunting That's because those btc maximalists and Hoskinson's cult followers were successful at spreading a false narrative that ETH would never scale making top defi dapps to migrate to other chains.",1,0
1376224482411487233,"2021-03-28T17:27:40Z","Twitter accounts saying I have 5 ETH to spend, show me your art is the modern equivalent of saying dance monkey, dance + attaching a monetary value like this looks shady af.  Artists deserve respectful engagement, not endless shills to boost one individual's follower count",260,0
1376224481287487494,"2021-03-28T17:27:40Z","RT @tokenstate: ETH at $10,000 really does look conservative when you consider the tsunamis coming this year. 👀 https://t.co/EWISGzNNqK",573,0
1376224481199288323,"2021-03-28T17:27:39Z","🤗 #XYM Lock &amp; Earn has launched at https://t.co/8kWqgEeplL @NEMofficial 🤗  💎Token: #XYM 💎Term: 7 days 💎Zero handling fee &amp; estimated annualized yield of 100%  👉Earn now: https://t.co/yAwwBIBTkA 👉Details: https://t.co/d1rkGcbUBU  #ALTSEASON #Altseason2021 #BTC #ETH https://t.co/OqLaEsRKWT",564,0
1376224480918441986,"2021-03-28T17:27:39Z","I'm giving away 100 $sxp in 3 days to a random person.   To qualify: like, retweet &amp; follow me.  $btc $eth $dot $matic $ada $link $sxp $trx $rsr $vet $reef $tvk $bnb $cake",335,0
1376224477994909704,"2021-03-28T17:27:39Z","🔥New Listing @a2dao_ 🔥  #ATD trading will be enabled on https://t.co/8kWqgEeplL 😎  👉Trade: https://t.co/ExhZLJsBuu 👉Details: https://t.co/wHKyoIXPWV  #DeFi #crypto #ALTSEASON #ETH #NFT https://t.co/UjKmwZhqea",256,0
1376224468964610054,"2021-03-28T17:27:37Z","Save the date 💎🦋💎  🟢 Chrysalis network migration - April 21st 2021  🟡 Chrysalis network upgrade - April 28th, 2021  🔴 The crypto killer comes to life &amp; unfolds its full power!  $iota #iota $miota #miota #ada #btc #eth #Chainlink #oracles #DeFi #NTFs  https://t.co/2cdj0wVaZE",129,0
1376224467249201156,"2021-03-28T17:27:36Z","1 HOUR LEFT TO GO!  Current bid is 0.15 ETH from @PHILOUFTAB   Go check “APOLO” on @withFND https://t.co/sJbLn9ecHf #nft #Nftdrop #nftcolletor #foundationapp #nftart",13,0
1376224465563086849,"2021-03-28T17:27:36Z","The DEX @FinanceChainge is set to launch on the @FUSIONProtocol network with over a million users on the protocols waitlist. This decentralized exchange aims to innovate on traditional models through leveraging the Fusion Network.  #BSC #BTC #ETH #BNB  https://t.co/xx55YiGfm3",21660,0
1376224432817983491,"2021-03-28T17:27:28Z","🔥 Rewardiqa Airdrop 🎁 Reward: 15 REW 232$ ✅ Market: Finexbox  🕹️ Join Airdrop Bot👉  https://t.co/hDsR7KQu7t  ‼️ Task... 🔹 Join Telegram 🔹 Follow Twitter  🔹 Submit ERC-20 ETH Address https://t.co/7S3EYfXqH5",17,0
1376224428665663491,"2021-03-28T17:27:27Z","This is insane. The growth of https://t.co/sajb64xBzN has gone much wow!  TVL $4 millions with break down: 88% on ETH bridge and 12% on #BSC bridge.  You recreational traders never pay a visit to see these numbers, don't you Anons?  $ONE $VIPER $MOCHI $BNB $REEF $DSLA https://t.co/I7b9cjLmHR",40,0
1376224419006214149,"2021-03-28T17:27:25Z","If you put $1000 today in $ARA picked by $MARKO BOT U would have made $2700   $POODL $HOGE $DEXT $GRUMPY $BUNNY $FROGE @elonmusk $BTC $ETH $DOGE https://t.co/LTra4EJgll",14,5
1376224418490421257,"2021-03-28T17:27:25Z","RT @TheeHustleHouse: @jwavepicks @NBATopShotEast @Wades_ETH @KennethBosak @CryptoStache @riceboy42069 @grantpat @Topshotbabe Make sure to D…",1,5
1376224407249514498,"2021-03-28T17:27:22Z","Join &amp; get prizes for you  https://t.co/QXlsUHbplj  #freemoney #airdrop #crypto #cryptocurrency #blockchain #btc #bitcoin #ico #privacy #decentralization #altcoin #eth #airdrops #mining #cryptonews #cryptonight #cryptolife #cryptotrading #cryptoworld #exchange #altcoins #trading",1,0
1376224402786881536,"2021-03-28T17:27:21Z","Would you like marginswap to support overcollateralized borrowing of supported assets (take loans with the funds on trading account) just like on @dydxprotocol  @CreamdotFinance  or @compoundfinance?  This will probably increase TVL and fees generated on the protocol. $ETH #DeFi",15,0
1376224398902956037,"2021-03-28T17:27:20Z","Is amazing to see how this project has been out since Dec 2020 and so far Liquidity Providers have earned about 6533.78 $ETH and that is the total value of $10.6 Million dollars. 💪  Also the APY doing 301.35% which is amazing.  #DeFi #UniSwap #BSC #SmartContract #Ethereum https://t.co/9a7rgyoMpE",2385,0
