"ID","created_at","text","like_count","rt_count"
1374586772407996417,"2021-03-24T04:59:59Z","@NFTs_Group wow NFTs is good project @kajahatuin @kalsmara @maradai3   my eth adress:  0x31Ad6e11d02AC75B8bc34aFB01ca0c80583Bc66E  thanks",1,0
1374586769283239946,"2021-03-24T04:59:59Z","💧Roku Network Airdrop 💧  🏆 Task:          ➕  15 ROK (~$5)  👨‍👩‍👧 Referral:   ➕  3 ROK (~$1)  🔛  Airdrop Link &amp; Information: https://t.co/YhvsOcfEbH  #cryptocurrency #Crypto #Bitcoin  #BSC #BinanceSmartChain #Ethereum #ETH #Airdrop #bounty #ROK #RokuCoin #RokuNetwork",3593,4682
1374586768629002242,"2021-03-24T04:59:58Z","No need to spend your own money to trade #cryptocurrency. Over 10K users won crypto rewards on @latokens last week. It's the best way to join the financial revolution. Start by earning a share of $100K in CLIQ airdrop: https://t.co/iiPzeodtB0 #Bitcoin #ETH #Citi #AON #LATOKEN",0,0
1374586738975281161,"2021-03-24T04:59:51Z","@ngonart Astro Chill - Available on @withFND  👨🏻‍🚀  Use headphone for the best experience!!  Artwork: Astro Chill Reserve Price: 0.5 ETH  Check out - https://t.co/6Nkl8HojMJ",1,0
1374586732901990402,"2021-03-24T04:59:50Z","Among all coins in existence, only two (2) support smart contracts and are decentralized to more than 100 block producers; namely, $ETH and $AVAX. https://t.co/dzyro6FZWY",836,169
1374586721631936515,"2021-03-24T04:59:47Z","In a nutshell, AbiyAhmed tell the expired Eth. parliament that #Eritrea &amp; #Amhara forces are in #Tigray &amp; they will stay there; don’t surprised that women &amp; girls were raped by soldiers, because ‘our’ soldiers were attacked with knives. @mbachelet @hrw @amnestypresse @Reuters",100,156
1374586718876180481,"2021-03-24T04:59:47Z","📌 The TokenKennel #Giveaway | Rules 📌 =   - Step 1: Like &amp; Retweet + tag 3-5 People! - Step 2: Follow @KennelToken &amp; @__Bullish__ - Step 3: Join https://t.co/1wcwTits9h - Step 4: Send Proof!   Prize = 100$ in #BTC or #ETH  06/04, we will announce the winner! 🎁",1814,2129
1374586714925137923,"2021-03-24T04:59:46Z","I dont know who to bet on anymore so i just dropped $1000 in $ETH and another in $ADA",2,0
1374586714115674114,"2021-03-24T04:59:45Z","💰What’s your #ETH wallet address?  🚀Don’t ask why, just drop it below👇  🚀Like、Retweet &amp; Tag ALL U CAN  🚀 USDT-NFTs has been listed on Uniswap！  🚀 The contract address: 0x6599fc3e77cbfa6f6e9cac605a30b1e78827eba0  #NFTs #NFT #AIRDROP #UNISWAP https://t.co/H29ZBOR0aL",1380,1178
1374586710764441612,"2021-03-24T04:59:45Z","Check out these #NFTs! They are the Crypto Creatures and they only consume #ETH (maybe #ADA one day)https://t.co/jp11rOiWbL https://t.co/PCgqtaDxHS https://t.co/vljiAZ4YGI",2,1
1374586676056588288,"2021-03-24T04:59:36Z","BECOME A #LINK MILLIONAIRE! Use @binance sign up code https://t.co/kHTka411s4 to get half off your trading fees!$BTC $ETH $EOS $TRX $XRP $BCH $ETC $LTC $DASH $BTG $XLM $XMR $ZEC $ADA $NEO $OMG $XEM $LSK $DGB $ZRX $XVG $GRS $NANO $ZCL $ICX $STORM $VEN $WTC $ONT $BNB $LINK $BINAN…",1,0
1374586672575225857,"2021-03-24T04:59:35Z","💰What’s your #ETH wallet address?  🚀Don’t ask why, just drop it below👇  🚀Like、Retweet &amp; Tag ALL U CAN  🚀 USDT-NFTs has been listed on Uniswap！  🚀 The contract address: 0x6599fc3e77cbfa6f6e9cac605a30b1e78827eba0  #NFTs #NFT #AIRDROP #UNISWAP https://t.co/H29ZBOR0aL",1380,1178
1374586662588575745,"2021-03-24T04:59:33Z","📌 The TokenKennel #Giveaway | Rules 📌 =   - Step 1: Like &amp; Retweet + tag 3-5 People! - Step 2: Follow @KennelToken &amp; @__Bullish__ - Step 3: Join https://t.co/1wcwTits9h - Step 4: Send Proof!   Prize = 100$ in #BTC or #ETH  06/04, we will announce the winner! 🎁",1814,2129
1374586659015028738,"2021-03-24T04:59:32Z","💰What’s your #ETH wallet address?  🚀Don’t ask why, just drop it below👇  🚀Like、Retweet &amp; Tag ALL U CAN  🚀 USDT-NFTs has been listed on Uniswap！  🚀 The contract address: 0x6599fc3e77cbfa6f6e9cac605a30b1e78827eba0  #NFTs #NFT #AIRDROP #UNISWAP https://t.co/H29ZBOR0aL",1380,1178
1374586654598529024,"2021-03-24T04:59:31Z","Giving away 0.1 ETH  U have to retweet this and like and also follow me After 24 hours i will randomly pick the winner and the winner will be announced per comment under this tweet !!! 🎁🎉🎊 $RWN $WAR $TFT $MOCHI #giveaway #crypto #btc  #altcoin #altcoins #Altseason2021",72,65
1374586649112285187,"2021-03-24T04:59:30Z","📌 The TokenKennel #Giveaway | Rules 📌 =   - Step 1: Like &amp; Retweet + tag 3-5 People! - Step 2: Follow @KennelToken &amp; @__Bullish__ - Step 3: Join https://t.co/1wcwTits9h - Step 4: Send Proof!   Prize = 100$ in #BTC or #ETH  06/04, we will announce the winner! 🎁",1814,2129
1374586632398012419,"2021-03-24T04:59:26Z","Prediction of money for the Future of Bitcoin, ETH, XRP, and LTC. Trade with  https://t.co/Astkwvl0G5    to know the progress of Cryprone and do fast movements for maximum results https://t.co/M2bvUZlBpC",0,0
1374586619957760000,"2021-03-24T04:59:23Z","#Airdrop is live now Complete tasks to get an airdrop. #Airdrop worth 5000 #DEFI (~$50000 at current price)  🔹️Follow 🔹️Like, RT &amp; Tag 5 friends 🔹️Join https://t.co/cGXUyW3sNJ 🔹️Follow Like &amp; Share https://t.co/LX8VEkTyjY 🔹️Comment ETH address  #ETH #ICO #Ethereum #DeFi https://t.co/pwG9tSiJaO",926,677
1374586602580631553,"2021-03-24T04:59:19Z","In a nutshell, AbiyAhmed tell the expired Eth. parliament that #Eritrea &amp; #Amhara forces are in #Tigray &amp; they will stay there; don’t surprised that women &amp; girls were raped by soldiers, because ‘our’ soldiers were attacked with knives. @mbachelet @hrw @amnestypresse @Reuters",100,156
1374586596650057728,"2021-03-24T04:59:17Z","In a nutshell, AbiyAhmed tell the expired Eth. parliament that #Eritrea &amp; #Amhara forces are in #Tigray &amp; they will stay there; don’t surprised that women &amp; girls were raped by soldiers, because ‘our’ soldiers were attacked with knives. @mbachelet @hrw @amnestypresse @Reuters",100,156
1374586590224388101,"2021-03-24T04:59:16Z","Digital Reserve Currency $DRC  - An indivisible token - A store of value - Most transparent decentralized token so far - A future gold to hold now.  - A very good investment  - You need at least 1 DRC  https://t.co/iXKd0WrSXq #drctoken #eth #DRCtoken https://t.co/JXo3NjJp68",31,12
1374586590081728513,"2021-03-24T04:59:16Z","The European Union investigating #Holochain for it's DLT's. Link to 20 min vid below. If you want a link to the website hmu in comments. @elonmusk #blockchain #invest #investing #tech #technology #BTT #Bitcoin #eth #xrp #crypto #cryptocurrency #EOS  https://t.co/nimic4hpMk",56,18
1374586587154059268,"2021-03-24T04:59:15Z","@nftfreaks Still waiting on a bid for my 2nd drop starting at 0.35 ETH. Feel free to check it out and pass it on to anyone who may be interested. Support is much appreciated :) https://t.co/sVRNf1aTM8",2,0
1374586582603292674,"2021-03-24T04:59:14Z","@BigCheds Sold it way too early, even though I knew it was going to pump to the heavens. Probably it's going to do another 15x and flip ETH now.",0,0
1374586564471353346,"2021-03-24T04:59:10Z","USC was created for 100 $MANA ($92.96 USD = 0.0554 $ETH) by https://t.co/O8zWF5IJz4 https://t.co/CdvjCLLwSe #decentraland #names #avatar https://t.co/IOee7wfJ9A",1,1
1374586546763018241,"2021-03-24T04:59:05Z","@KimKardashian @skims Please use: 🚀🚀🚀🔥🔥🔥 https://t.co/aXiWT57Vr2   #binance #bsc $bnb $uni $btc $eth #eth $eth $defi $nft #crypto #ALTSEASON #Crypto #bitcoin",0,0
1374586534104498176,"2021-03-24T04:59:02Z","💧Roku Network Airdrop 💧  🏆 Task:          ➕  15 ROK (~$5)  👨‍👩‍👧 Referral:   ➕  3 ROK (~$1)  🔛  Airdrop Link &amp; Information: https://t.co/YhvsOcfEbH  #cryptocurrency #Crypto #Bitcoin  #BSC #BinanceSmartChain #Ethereum #ETH #Airdrop #bounty #ROK #RokuCoin #RokuNetwork",3593,4682
1374586531134984196,"2021-03-24T04:59:02Z","@TheCryptoLark Not hating the $ETH but other projects are getting it done now... I’ll come back soon I promise 💋",0,0
1374586528102375429,"2021-03-24T04:59:01Z","🔥We have started random global airdrop of 100,000 NFTs to single wallet ETH address 🚀 USDT-NFTs is listed on Uniswap  🚀 The contract address: 0x6599fc3e77cbfa6f6e9cac605a30b1e78827eba0  💰 Holding more NFTs makes you richer  🚀Like、Retweet &amp; Tag 3 friends  #NFTs #NFT #AIRDROP https://t.co/1tf4LcEX3C",1086,943
1374586527439798272,"2021-03-24T04:59:01Z","@adamscrabble did you buy any #ETH?",0,0
1374586521244860418,"2021-03-24T04:58:59Z","$lemon is more important than $btc for us. Dump #Bitcoin where ever you want. We have lemon not #BTC, you can have it. Come to live session at 22.00 to #DLive tonight and i explain.  $eth $xrp $bnb $dao https://t.co/AZbHhD0Pds",185,165
1374586508678664192,"2021-03-24T04:58:56Z","🔥We have started random global airdrop of 100,000 NFTs to single wallet ETH address 🚀 USDT-NFTs is listed on Uniswap  🚀 The contract address: 0x6599fc3e77cbfa6f6e9cac605a30b1e78827eba0  💰 Holding more NFTs makes you richer  🚀Like、Retweet &amp; Tag 3 friends  #NFTs #NFT #AIRDROP https://t.co/1tf4LcEX3C",1086,943
1374586502286544896,"2021-03-24T04:58:55Z","In a nutshell, AbiyAhmed tell the expired Eth. parliament that #Eritrea &amp; #Amhara forces are in #Tigray &amp; they will stay there; don’t surprised that women &amp; girls were raped by soldiers, because ‘our’ soldiers were attacked with knives. @mbachelet @hrw @amnestypresse @Reuters",100,156
1374586496091443202,"2021-03-24T04:58:53Z","@news_of_bsc @BinanceChain @cz_binance #BSC has made #ETH look like an old and neglected blockchain. Is the Ethirium still a thing? Lol $BNB $BSCX https://t.co/AHqZsbNLHb",126,76
1374586494921363459,"2021-03-24T04:58:53Z","Hi! #NFTCommunity tonight is a cool night to spend ETH! We just listed “武士 Tokyo Ryu” in collaboration with @bulvarov  for sale on @withFND  https://t.co/KVFlVtWv6g https://t.co/hgxcCKZnK5",102,24
1374586476508311554,"2021-03-24T04:58:49Z","🔥We have started random global airdrop of 100,000 NFTs to single wallet ETH address 🚀 USDT-NFTs is listed on Uniswap  🚀 The contract address: 0x6599fc3e77cbfa6f6e9cac605a30b1e78827eba0  💰 Holding more NFTs makes you richer  🚀Like、Retweet &amp; Tag 3 friends  #NFTs #NFT #AIRDROP https://t.co/1tf4LcEX3C",1086,943
1374586470648803329,"2021-03-24T04:58:47Z","💰What’s your #ETH wallet address?  🚀Don’t ask why, just drop it below👇  🚀Like、Retweet &amp; Tag ALL U CAN  🚀 USDT-NFTs has been listed on Uniswap！  🚀 The contract address: 0x6599fc3e77cbfa6f6e9cac605a30b1e78827eba0  #NFTs #NFT #AIRDROP #UNISWAP https://t.co/H29ZBOR0aL",1380,1178
1374586460809129985,"2021-03-24T04:58:45Z","@NFTs_Group @idrissaberkane @alex_dreyfus @PowerHasheur   Nfts will be the greater in the world of the nft  Eth : 0xf18E072B4B62A2202c58AfCB9Afe1C537CBc6A96",0,0
1374586448347758592,"2021-03-24T04:58:42Z","📌 The TokenKennel #Giveaway | Rules 📌 =   - Step 1: Like &amp; Retweet + tag 3-5 People! - Step 2: Follow @KennelToken &amp; @__Bullish__ - Step 3: Join https://t.co/1wcwTits9h - Step 4: Send Proof!   Prize = 100$ in #BTC or #ETH  06/04, we will announce the winner! 🎁",1814,2129
1374586443146825729,"2021-03-24T04:58:41Z","$FET has been held down for too long and its primed for a breakout $5 is not a dream anymore its coming true!  $btc $eth $link $ankr $ast $mir $luna $trac $tone $idex $uni $xiot $wabi $vra $chz $theta https://t.co/MJSSIK4kr2",3,1
1374586433273479168,"2021-03-24T04:58:38Z","The project develops very quickly and reaches investors from all over the world #STC #ETH #DEFI #Airdrops https://t.co/pyvJjwoVnd",0,0
1374586432501735426,"2021-03-24T04:58:38Z","In the FeltZine #NFT Database: ⚡️ What If We Kissed → 1.5 ETH (Sold) ⚡️ Sexy Coneman → 2.5 ETH ⚡️ Instant Gratification → 3.0 ETH ⚡️ Head Suit Sunset → 2.5 $ETH (Sold) ⚡️ Felt Zine Logo → 0.3 ETH (Sold)  ↳ https://t.co/RWmaQVUB0C  #Ethereum #NFTs #Crypto https://t.co/TWoEYforl5",122,20
1374586432145125377,"2021-03-24T04:58:38Z","No need to spend your own money to trade #cryptocurrency. Over 10K users won crypto rewards on @latokens last week. It's the best way to join the financial revolution. Start by earning a share of $100K in CLIQ airdrop: https://t.co/LLDwQ4uEF5 #Bitcoin #ETH #Citi #AON #LATOKEN",0,0
1374586426319368193,"2021-03-24T04:58:37Z","📈💶$1,001,190 $ETH LONGED @$1679.7 [24/03/21 04:58:36] 🏪FTX | ETH-PERP  🗣️You should have bought a pizza instead - BitcoinDurp",2,0
1374586421109911557,"2021-03-24T04:58:36Z","💧Roku Network Airdrop 💧  🏆 Task:          ➕  15 ROK (~$5)  👨‍👩‍👧 Referral:   ➕  3 ROK (~$1)  🔛  Airdrop Link &amp; Information: https://t.co/YhvsOcfEbH  #cryptocurrency #Crypto #Bitcoin  #BSC #BinanceSmartChain #Ethereum #ETH #Airdrop #bounty #ROK #RokuCoin #RokuNetwork",3593,4682
1374586406727729160,"2021-03-24T04:58:32Z","📈💶$1,000,296 $ETH LONGED @$1679.2 [24/03/21 04:58:32] 🏪FTX | ETH-PERP  🗣️btc gives you wings - ymbustillos",2,0
1374586406681649155,"2021-03-24T04:58:32Z","Buy this Diamond hands #chubby for 89 ETH while you can $ETH #chubbies #nft @garyvee @elonmusk #cryptoart @opensea @rariblecom https://t.co/onGEg43kuq",190,84
1374586397672243201,"2021-03-24T04:58:30Z","@girlgone_crypto I am accumulating Eth In every dip it will burst with in few months",0,0
1374586386116964352,"2021-03-24T04:58:27Z","RT @Coin98Analytics: Which blockchain do you like most now? Tell us the reasons  $SOL $ATOM $DOT $AVAX $BNB $ETH https://t.co/iAxxRr7LSQ",739,145
1374586384875356166,"2021-03-24T04:58:27Z","💰What’s your #ETH wallet address?  🚀Don’t ask why, just drop it below👇  🚀Like、Retweet &amp; Tag ALL U CAN  🚀 USDT-NFTs has been listed on Uniswap！  🚀 The contract address: 0x6599fc3e77cbfa6f6e9cac605a30b1e78827eba0  #NFTs #NFT #AIRDROP #UNISWAP https://t.co/H29ZBOR0aL",1380,1178
1374586362121363456,"2021-03-24T04:58:21Z","Giving away 0.1 ETH  U have to retweet this and like and also follow me After 24 hours i will randomly pick the winner and the winner will be announced per comment under this tweet !!! 🎁🎉🎊 $RWN $WAR $TFT $MOCHI #giveaway #crypto #btc  #altcoin #altcoins #Altseason2021",72,65
1374586359168389124,"2021-03-24T04:58:21Z","💰What’s your #ETH wallet address?  🚀Don’t ask why, just drop it below👇  🚀Like、Retweet &amp; Tag ALL U CAN  🚀 USDT-NFTs has been listed on Uniswap！  🚀 The contract address: 0x6599fc3e77cbfa6f6e9cac605a30b1e78827eba0  #NFTs #NFT #AIRDROP #UNISWAP https://t.co/H29ZBOR0aL",1380,1178
1374586354621845508,"2021-03-24T04:58:20Z","RT @volmexfinance: What’s your ETH address?  Don’t ask why, just drop it below 👇",4854,1656
1374586353044787204,"2021-03-24T04:58:19Z","📌 The TokenKennel #Giveaway | Rules 📌 =   - Step 1: Like &amp; Retweet + tag 3-5 People! - Step 2: Follow @KennelToken &amp; @__Bullish__ - Step 3: Join https://t.co/1wcwTits9h - Step 4: Send Proof!   Prize = 100$ in #BTC or #ETH  06/04, we will announce the winner! 🎁",1814,2129
1374586343204945921,"2021-03-24T04:58:17Z","🔥We have started random global airdrop of 100,000 NFTs to single wallet ETH address 🚀 USDT-NFTs is listed on Uniswap  🚀 The contract address: 0x6599fc3e77cbfa6f6e9cac605a30b1e78827eba0  💰 Holding more NFTs makes you richer  🚀Like、Retweet &amp; Tag 3 friends  #NFTs #NFT #AIRDROP https://t.co/1tf4LcEX3C",1086,943
1374586341070155779,"2021-03-24T04:58:16Z","SIGN UP FOR #PUBLISH0X !!  - #EARN DAILY #ETH, #AMPL &amp; #FARM ! - Write articles to earn more #CRYPTO !  https://t.co/xFiz2GZWhd  #WIN #ico #cryptocurrency #cryptogiveaway #GiveAWAY #Ethereum #blockchain #ETH #cryptonews #bitcoin #BTC #Binance #altcoin #news #passiveincome #money",3,3
1374586336787656708,"2021-03-24T04:58:15Z","💧Roku Network Airdrop 💧  🏆 Task:          ➕  15 ROK (~$5)  👨‍👩‍👧 Referral:   ➕  3 ROK (~$1)  🔛  Airdrop Link &amp; Information: https://t.co/YhvsOcfEbH  #cryptocurrency #Crypto #Bitcoin  #BSC #BinanceSmartChain #Ethereum #ETH #Airdrop #bounty #ROK #RokuCoin #RokuNetwork",3593,4682
1374586335844052995,"2021-03-24T04:58:15Z","Buy this Diamond hands #chubby for 89 ETH while you can $ETH #chubbies #nft @garyvee @elonmusk #cryptoart @opensea @rariblecom https://t.co/onGEg43kuq",190,84
1374586328902340618,"2021-03-24T04:58:14Z","Beeple Immediately Converted His $53 Million NFT Earnings From ETH to USD https://t.co/cSMI92oiyk https://t.co/cSMI92oiyk",0,0
1374586326951981060,"2021-03-24T04:58:13Z","No need to spend your own money to trade #cryptocurrency. Over 10K users won crypto rewards on @latokens last week. It's the best way to join the financial revolution. Start by earning a share of $100K in CLIQ airdrop: https://t.co/IH6dhXIO03 #Bitcoin #ETH #Citi #AON #LATOKEN",0,0
1374586324334878721,"2021-03-24T04:58:12Z","@nycmoney123 Sure! In order of most confident in low risk / high return to least confident or higher risk for unknown return are: $BTC, $LTC, $ETH, $LINK.  Thread here:  https://t.co/t1mj3r90SO",0,0
1374586321449013252,"2021-03-24T04:58:12Z","@Chaosxsilencer I want 25$ ETH HEHEHE",0,0
1374586320295620615,"2021-03-24T04:58:11Z","💰What’s your #ETH wallet address?  🚀Don’t ask why, just drop it below👇  🚀Like、Retweet &amp; Tag ALL U CAN  🚀 USDT-NFTs has been listed on Uniswap！  🚀 The contract address: 0x6599fc3e77cbfa6f6e9cac605a30b1e78827eba0  #NFTs #NFT #AIRDROP #UNISWAP https://t.co/H29ZBOR0aL",1380,1178
1374586304558628867,"2021-03-24T04:58:08Z","@barneytheboi Been using $VET and $TOMO the past 2 years. Had to make an $ETH transaction the other week...I wanted to kill myself. Literally took like 4+ hours. Never.again.",1,0
1374586301039661056,"2021-03-24T04:58:07Z","No need to spend your own money to trade #cryptocurrency. Over 10K users won crypto rewards on @latokens last week. It's the best way to join the financial revolution. Start by earning a share of $100K in CLIQ airdrop: https://t.co/GQwszvKjpV #Bitcoin #ETH #Citi #AON #LATOKEN",0,0
1374586299160559617,"2021-03-24T04:58:06Z","Phore cryptocurrency has come in market to make big boom in crypto. has the confident enough to survive in the market. #blockchain #cryptocurrency #defi #phore #ecommerce #marketplace #sharding #crypto #bitcoin #ethereum #Graphene #Airdrop $BTC $ETH $GFN $PHR",1,0
1374586298497863681,"2021-03-24T04:58:06Z","@Uniswap let’s go Uniswap v3.0 with LGBTQ/ETH Pair ❤️❤️❤️",0,0
1374586286070202371,"2021-03-24T04:58:03Z","🐧🐧Wow woke up &amp; nearly 100 followers to celebrate the 8 ProblemPenguins that are left are going for 0.001 eth each thats $1 each For 1 Day !! 🐧🐧  #nftcollector #NFT #NFTs #nftart #NFTCommunity #NFTartist #NFTcollectibles #cryptoartist #pixelartist   https://t.co/scvqdqREc0 https://t.co/AVNhHzJFGR",7,2
1374586269121011714,"2021-03-24T04:57:59Z","RT @t_johnatan: PROVOCATEUR ; bought @ 1.1 ETH by @lovelylasereyes https://t.co/zD0lkdj8Ma",82,9
1374586267929702404,"2021-03-24T04:57:59Z","RT @0peNFT: Lead dev wants less ETH and more ONFT for payment. Bullish.🚀📈",118,19
1374586263584567297,"2021-03-24T04:57:58Z","$ICX is breaking out on both the $ETH pair as the $BTC pair. if we manage the close the daily candle this way, then we will see a nice moon shot... 🚀 https://t.co/yY7ziMukOi",88,17
1374586262711984132,"2021-03-24T04:57:58Z","💰What’s your #ETH wallet address?  🚀Don’t ask why, just drop it below👇  🚀Like、Retweet &amp; Tag ALL U CAN  🚀 USDT-NFTs has been listed on Uniswap！  🚀 The contract address: 0x6599fc3e77cbfa6f6e9cac605a30b1e78827eba0  #NFTs #NFT #AIRDROP #UNISWAP https://t.co/H29ZBOR0aL",1380,1178
1374586249290285057,"2021-03-24T04:57:55Z","@realbankso @NFTgirl @dixon_eth @elti_uk @tetonotsorry Fucking honoured to be a part of this list 🔥 https://t.co/Ds6XbXwOhN",1,0
1374586240159207425,"2021-03-24T04:57:52Z","💧Roku Network Airdrop 💧  🏆 Task:          ➕  15 ROK (~$5)  👨‍👩‍👧 Referral:   ➕  3 ROK (~$1)  🔛  Airdrop Link &amp; Information: https://t.co/YhvsOcfEbH  #cryptocurrency #Crypto #Bitcoin  #BSC #BinanceSmartChain #Ethereum #ETH #Airdrop #bounty #ROK #RokuCoin #RokuNetwork",3593,4682
1374586224837423104,"2021-03-24T04:57:49Z","@tezos @hicetnunc2000 Still waiting on a bid for my 2nd drop starting at 0.35 ETH. Feel free to check it out and pass it on to anyone who may be interested. Support is much appreciated :) https://t.co/sVRNf1aTM8",1,0
1374586223545704448,"2021-03-24T04:57:48Z","In the recent market dump, ETH has shed almost $41 billion from its all time high to the current price of $1,682.  $EDDA has only shed around $6 million from its all time high to the current price of $4,455.  Which do you think will recover and hit an ATH faster?   Hint: $EDDA 🥷",241,218
1374586194353295361,"2021-03-24T04:57:41Z","RT @volmexfinance: What’s your ETH address?  Don’t ask why, just drop it below 👇",4854,1656
1374586192092569600,"2021-03-24T04:57:41Z","@FirstNFTHuman This is just for .48 ETH will you buy? I don't think so 🤗 https://t.co/6QzuCbjLSe",0,0
1374586187411718144,"2021-03-24T04:57:40Z","Bitcoin Confidential invites everyone to participate in the Meme Tournament, which starts today!  https://t.co/J4I9ir4lTE  @coinkit_ give 1000 1 $SMART  @btconfidential $BC #memes #crypto #cryptocurrency #blockchain #bitcoin #BTC #eth #ada #binance #altcoin #blogger #bullrun",98,154
1374586173352517632,"2021-03-24T04:57:36Z","💧Roku Network Airdrop 💧  🏆 Task:          ➕  15 ROK (~$5)  👨‍👩‍👧 Referral:   ➕  3 ROK (~$1)  🔛  Airdrop Link &amp; Information: https://t.co/YhvsOcfEbH  #cryptocurrency #Crypto #Bitcoin  #BSC #BinanceSmartChain #Ethereum #ETH #Airdrop #bounty #ROK #RokuCoin #RokuNetwork",3593,4682
1374586170001268737,"2021-03-24T04:57:36Z","Elisabeth Monad.   On rarible!  ✴️  https://t.co/9iTOAV2zP2  #monalisa #NFTCommunity #ETH #token #rareart #cryptoart #nftart #rariblecom #rarible #nftcollector #NFTartist #nft #mona",96,25
1374586159809003520,"2021-03-24T04:57:33Z","Astro Chill - Available on @withFND  👨🏻‍🚀  Use headphone for the best experience!!  Artwork: Astro Chill Reserve Price: 0.5 ETH  @tpvinpan @ARTOGxz @Zuse73 @_swartx_ @balan_arts @pureevilgallery @subink_design   Check out - https://t.co/6Nkl8HojMJ",10,6
1374586154570424320,"2021-03-24T04:57:32Z","💧YetuBit Airdrop 2nd Round💧  🏆 Task:          ➕  25 YETU (~$20)  👨‍👩‍👧 Referral:   ➕  5 YETU (~$4)  🔛  Airdrop Link &amp; Information: https://t.co/ZoGw3AR71I  #cryptocurrency #Crypto #Bitcoin  #BSC #BinanceSmartChain #Ethereum #ETH #Airdrop #bounty #YetuBit #YetuSwap #YETU",4310,5496
1374586150489317377,"2021-03-24T04:57:31Z","🔥We have started random global airdrop of 100,000 NFTs to single wallet ETH address 🚀 USDT-NFTs is listed on Uniswap  🚀 The contract address: 0x6599fc3e77cbfa6f6e9cac605a30b1e78827eba0  💰 Holding more NFTs makes you richer  🚀Like、Retweet &amp; Tag 3 friends  #NFTs #NFT #AIRDROP https://t.co/1tf4LcEX3C",1086,943
1374586137600163842,"2021-03-24T04:57:28Z","📌 The TokenKennel #Giveaway | Rules 📌 =   - Step 1: Like &amp; Retweet + tag 3-5 People! - Step 2: Follow @KennelToken &amp; @__Bullish__ - Step 3: Join https://t.co/1wcwTits9h - Step 4: Send Proof!   Prize = 100$ in #BTC or #ETH  06/04, we will announce the winner! 🎁",1814,2129
1374586122731319300,"2021-03-24T04:57:24Z","💧Roku Network Airdrop 💧  🏆 Task:          ➕  15 ROK (~$5)  👨‍👩‍👧 Referral:   ➕  3 ROK (~$1)  🔛  Airdrop Link &amp; Information: https://t.co/YhvsOcfEbH  #cryptocurrency #Crypto #Bitcoin  #BSC #BinanceSmartChain #Ethereum #ETH #Airdrop #bounty #ROK #RokuCoin #RokuNetwork",3593,4682
1374586108659568640,"2021-03-24T04:57:21Z","💰What’s your #ETH wallet address?  🚀Don’t ask why, just drop it below👇  🚀Like、Retweet &amp; Tag ALL U CAN  🚀 USDT-NFTs has been listed on Uniswap！  🚀 The contract address: 0x6599fc3e77cbfa6f6e9cac605a30b1e78827eba0  #NFTs #NFT #AIRDROP #UNISWAP https://t.co/H29ZBOR0aL",1380,1178
1374586104515497984,"2021-03-24T04:57:20Z","@cloudspin_ @TheCryptoDog Damn, what's that + 12 eth",0,0
1374586037486321668,"2021-03-24T04:57:04Z","Not sure what's worse- my fiscal responsibility, for bidding 1+ eth on a @b_dechambeau #NFT  Or  My mental health, for being so angry that I still don't own, it despite meeting the reserve. A mess all around. @opensea",0,0
1374586037037584389,"2021-03-24T04:57:04Z","💎 Coco 💎  ✨ Artwork by @KalistoSenna 💰 Sold to defteq for 1.0 ETH ($1,709.15)  https://t.co/sh1A7lY0R7  #cryptoart #NFT https://t.co/NmIGT2hlNI",11,38
1374586035976380424,"2021-03-24T04:57:04Z","@ZunaKiri @msfufusan Astro Chill - Available on @withFND  👨🏻‍🚀  Use headphone for the best experience!!  Artwork: Astro Chill Reserve Price: 0.5 ETH  Check out - https://t.co/6Nkl8HojMJ",2,1
1374586021199765509,"2021-03-24T04:57:00Z","#ProBit Exchange will open up $XDC wallets in 40 minutes, trading kicks off on the 26th with USDT, ETH, and KRW pairs 🎉 @XinFin_Official   https://t.co/ihzoNW8Q6U https://t.co/K4Kw3IsVwz",466,170
1374586013998325760,"2021-03-24T04:56:58Z","RT @0peNFT: Lead dev wants less ETH and more ONFT for payment. Bullish.🚀📈",118,19
1374586007299964930,"2021-03-24T04:56:57Z","Dropped to 0.25 Eth on @withFND https://t.co/3mZRCfGIiG . #NFTs #NFT #nftcollectors #NFTCommunity #nftcollector #cryptoart #NFTartist #nftart #NFTDROPS #NFTcollectibles https://t.co/lBflinTolL",15,2
1374585998114439170,"2021-03-24T04:56:55Z","This is a awesome project ! I believe in the future of this company #STC #ETH #DEFI #Airdrops https://t.co/rcobGfd1E2",0,0
1374585992640749568,"2021-03-24T04:56:53Z","👁️ The NFT Idols #Giveaway | Rules 👁️ =   - Step 1: Like &amp; Retweet + tag 3-5 People! - Step 2: Follow @NftIdols  - Step 3: Like &amp; RT quoted tweet! - Step 4: Send Proof!   Prize = 100$ in #BTC or #ETH  Winner will be announced at 04/04 🎁 https://t.co/uuh7DKVXac",1782,2067
1374585977558110208,"2021-03-24T04:56:50Z","@NFTs_Group Hope for the best ..great opportunity thanks  @GauravK38809171  @GauravPatilGR  @GauravPrince15   @Rishabh74731586 @Vihar711 @Mandymandeepop @pankajyadav5779 @gauravramola07   #NFTs @NFTs_Group  #ETH address - 0x14BFAe5606D4c65b4707ffED93EB0B81763Af2F0",1,0
1374585964115468290,"2021-03-24T04:56:47Z","💰What’s your #ETH wallet address?  🚀Don’t ask why, just drop it below👇  🚀Like、Retweet &amp; Tag ALL U CAN  🚀 USDT-NFTs has been listed on Uniswap！  🚀 The contract address: 0x6599fc3e77cbfa6f6e9cac605a30b1e78827eba0  #NFTs #NFT #AIRDROP #UNISWAP https://t.co/H29ZBOR0aL",1380,1178
1374585951738077186,"2021-03-24T04:56:44Z","📈💳$656,023 $ETH LONGED @$1,669.78 [24/03/21 04:56:43] 🏣Binance | $ETHUSDT  🗣️Here we go again! Another rollercoaster. - dreambigtye",1,0
1374585947841384449,"2021-03-24T04:56:43Z","💧Roku Network Airdrop 💧  🏆 Task:          ➕  15 ROK (~$5)  👨‍👩‍👧 Referral:   ➕  3 ROK (~$1)  🔛  Airdrop Link &amp; Information: https://t.co/YhvsOcfEbH  #cryptocurrency #Crypto #Bitcoin  #BSC #BinanceSmartChain #Ethereum #ETH #Airdrop #bounty #ROK #RokuCoin #RokuNetwork",3593,4682
