"ID","created_at","text","like_count","rt_count"
1377999257945440256,"2021-04-02T14:59:59Z","RT @GroundHodl: @matt_odell eth to the moon really means eth to the bottomless pit inside hollow earth  #Bitcoin",7,1
1377999255894421513,"2021-04-02T14:59:59Z","Etherium $ETH new ATH! 🚀 https://t.co/3eNLUe5gax",0,0
1377999255244132361,"2021-04-02T14:59:59Z","April Bullish! #Ethereum  All Time High #ETH #ATH #ether #AllTimeHigh   https://t.co/jithxTvDn7",1,0
1377999253784690693,"2021-04-02T14:59:58Z","Short $eth",1,0
1377999253700759557,"2021-04-02T14:59:58Z","RT @sassal0x: New all time high for $ETH 🚀",1810,142
1377999251272241154,"2021-04-02T14:59:58Z","// secrets, secrets // animated loop with music by @pheel518 //  This is both of our @withFND Genesis #NFT!! Drops today 11AM MT! reserve .22 ETH https://t.co/OfEbwdeO90",29,11
1377999250768945154,"2021-04-02T14:59:58Z","@TylerSCrypto Happy #ETH ster everyone! Especially to those who kept the faith dispite the haters pouring scorn on it!",3,1
1377999250357817348,"2021-04-02T14:59:57Z","eth jumping bc the stock market is closed lol",0,0
1377999250206904320,"2021-04-02T14:59:57Z","🔥 Ethereum is on fire! 🔥  We just hit a new all time high of $2,041, what price are we going to see by the end of April and why?  Keep an eye on the $ETH price here - https://t.co/n0Tsmj3zOq  #Crypto #Cryptocurrency #ETH #Altcoin #Blockchain #Ethereum https://t.co/OxPDgrlqO3",254,34
1377999250039005189,"2021-04-02T14:59:57Z","$VIB is bullish as fuck. Waiting for a massive   👉 Join Channel: https:https://t.co/vZYD2Znbg5  $BTC $ETH #NFT $PERL $ENJ $FLOW $THETA #BSC  $REEF $LUNA $SAND $AXS $TVK $HOGE $CHZ $STX $ROSE $TROY $ONE $CERL $IRIS $ANC $ADA $DIA $XRP $DOGE $ATOM $LUNA $ZCX $BNB $WABI $LTO $CVC https://t.co/NDhU2fFkss",0,0
1377999248881545217,"2021-04-02T14:59:57Z","#ETH already +13% since this important signal below from Mar-29. If both price AND momentum of price accelerate / break out it is very powerful. #Bitcoin next? https://t.co/4mg4p1nktv https://t.co/tdMowbnyiM",7,2
1377999243688939520,"2021-04-02T14:59:56Z","Rudy Camacho bought for 0.191 ETH (383.02$) on the secondary market   Season: 2020-2021 Level: 0 Serial: 58/100 Price: 383.02$  ⚽ Sorare: https://t.co/0HNfh9tIDE  📊: https://t.co/xyOFIm9MMH  #Sorare #NFT #Ethereum #FantasyFootball",0,0
1377999242589958148,"2021-04-02T14:59:56Z","@QTRResearch Dude you have a financial podcast how do you not get it at this point. Just buy bitcoin, anything centralized like ETH will be shut down, gold price controlled because it centralized.",0,0
1377999240165797891,"2021-04-02T14:59:55Z","RT @binance: #ETH has reached a new all-time high 🚀 https://t.co/qft7btq1h2",7541,1430
1377999238123126786,"2021-04-02T14:59:55Z","@CryptoUtopian We're watching the price live at the Lodge it's fun:  https://t.co/y4PvREW1Rt  #ETH Season",1,0
1377999236613087235,"2021-04-02T14:59:54Z","$KAI looking ready !  My dear Kardians we are almost there. DEX update will push it to the Mars.    $BTC $ETH $ADA $DOGE $LINK $OM $STORJ https://t.co/1zoYVoNmja",11,0
1377999236491542532,"2021-04-02T14:59:54Z","$SUSHI well, well, well.  so many alt charts look like this...i don't like the fact that the 20D SMA is about to cross under the 50D SMA but levels &gt; MAs imo.  $BTC $ETH https://t.co/3KhvlxF8wS",0,0
1377999231693299713,"2021-04-02T14:59:53Z","@PepeXBT Eth long kinda making up for btc top long? Lfg",0,0
1377999230975975427,"2021-04-02T14:59:53Z","RT @CryptoCobain: Eth pumping to all time highs on the news Udi is bald",453,14
1377999228576919552,"2021-04-02T14:59:52Z","I exited an ETH position I stayed in since 1 March 2021 at $2K. 😂",0,0
1377999227813392387,"2021-04-02T14:59:52Z","RT @econoar: ETH only being 5, 6, 7x chains that literally no one uses is hilarious.   This repricing will be epic.",592,48
1377999227003936769,"2021-04-02T14:59:52Z","Wow these is how we nail each tip missing it your loss !!! Hit that follow button now ! $bnb $eth $qtum $trx $xlm $xrp $ada $dot $flm $drep $btc $chz $rsr $grt $celr #bnb #Binance #Altcoins #alts #Altseason2021 #bsc  Still the coin have potential and easy 400 by April end. https://t.co/6SXsII1DJV",0,0
1377999226853015566,"2021-04-02T14:59:52Z","RT @coingecko: #ETH hits a new All-Time High! 🚀 #Ethereum  To the moon: https://t.co/kGsA7BQSDr https://t.co/oRFzRPyYip",382,67
1377999225078734848,"2021-04-02T14:59:51Z","Choose your path for $CUR today 😉🚀🚀🚀  Big announcements soon !!!  #DeFi #ETH #BTC #CUR #Binance #cryptocurrencies #cryptocurrency #ALTSEASON #altcoin #uniswap #uniswapgem #Altseason2021 #Huobi #OKEx #KuCoin #polkadot #kusama $LINK #Chainlink #Parachain #xdai #NFT #supercars https://t.co/Sj66191ONK",12,9
1377999224202223620,"2021-04-02T14:59:51Z","$eth looked at a dip and said not today",2,0
1377999222927200260,"2021-04-02T14:59:51Z","RT @LilMoonLambo: BREAKING: Coinbase is expected to go public on April 14th   Are you guys ready for $BTC and $ETH all time highs? https://…",2748,503
1377999222499201028,"2021-04-02T14:59:51Z","Anyone know why ETH is taking off today?? 🚀 👀",0,0
1377999220230082562,"2021-04-02T14:59:50Z","RT @binance: #ETH has reached a new all-time high 🚀 https://t.co/qft7btq1h2",7541,1430
1377999219689189379,"2021-04-02T14:59:50Z","🚀We are proud to announce our new cooperation with @polkalokr following the #smartcontract code review and #security analysis performed by our experts for this project.   👉For more details: https://t.co/1RLARmjLxZ  #solidity $ETH #Blockchain https://t.co/Y8IecQ2Q9W",173,61
1377999219114569731,"2021-04-02T14:59:50Z","@howlinwolfco so what i'm gathering is that there are a few factors that go into play when determining the mint price:   Volume of pieces trying to be minted (worldwide) at the time - can cause it to skyrocket   Price of ETH, which hasn't grown enough in the past day to reflect these spikes",0,0
1377999218179104769,"2021-04-02T14:59:50Z","$ETH WTFWT",2,0
1377999216522506240,"2021-04-02T14:59:49Z","RT @Bloqport: New $ETH ATH",495,44
1377999214035103748,"2021-04-02T14:59:49Z","RT @binance: #ETH has reached a new all-time high 🚀 https://t.co/qft7btq1h2",7541,1430
1377999213338877953,"2021-04-02T14:59:49Z","Ethereum new ATH on Binance, so critical that we succesfully flip resistance into support. Looking for $ETH to build $2050 as new support. This is an additional bullish sign for all the alts you’re holding (their Bitcoin pairs in particular), let’s see what happens!!",6,3
1377999209174069250,"2021-04-02T14:59:48Z","RT @RyanWatkins_: Forgot about $ETH? Up. https://t.co/1JXPcrHR7P",1309,377
1377999208167264259,"2021-04-02T14:59:47Z","RT @wmd4x: Me and the boys every time ETH makes a new high https://t.co/rken5K0tsH",5184,1042
1377999205223043074,"2021-04-02T14:59:47Z","Had my entire portfolio in $ETH for months...finally the time has come",2,1
1377999203981520897,"2021-04-02T14:59:46Z","RT @RyanWatkins_: Forgot about $ETH? Up. https://t.co/1JXPcrHR7P",1309,377
1377999203411058691,"2021-04-02T14:59:46Z","RT @coingecko: #ETH hits a new All-Time High! 🚀 #Ethereum  To the moon: https://t.co/kGsA7BQSDr https://t.co/oRFzRPyYip",382,67
1377999203163590659,"2021-04-02T14:59:46Z","Ask yourself why so many partners are looking to join a relatively unknown $KAI ?  The Industry recognizes greatness.   “If You can beat Kai, Join Kai”  Billionaire Coin Club Inc. ARE YOU IN?  $TEL $ETH $BTC $WAN $ATOM $AION $DOT $THETA $LINK $DGCL $LABS $ICX $OCEAN $BNB $BSCPAD https://t.co/FTBH6tisDj",46,18
1377999201783717893,"2021-04-02T14:59:46Z","RT @DoopieCash: $ETH new ATH   Let's GOOOooooo!!!  #ethereum #ETH https://t.co/k2lccbLhLw",102,9
1377999200349270026,"2021-04-02T14:59:46Z","RT @coingecko: #ETH hits a new All-Time High! 🚀 #Ethereum  To the moon: https://t.co/kGsA7BQSDr https://t.co/oRFzRPyYip",382,67
1377999197610328067,"2021-04-02T14:59:45Z","RT @binance: #ETH has reached a new all-time high 🚀 https://t.co/qft7btq1h2",7541,1430
1377999193323737090,"2021-04-02T14:59:44Z","#ETH $ETH wow what a move.  I guess with the stock market closed today everyone's gotta put their money somewhere!  Lots of room to run for Ethereum! $TSLA https://t.co/VjoQ0OHkUF",0,0
1377999191692181504,"2021-04-02T14:59:43Z","RT @binance: #ETH has reached a new all-time high 🚀 https://t.co/qft7btq1h2",7541,1430
1377999187099353090,"2021-04-02T14:59:42Z","RT @coingecko: #ETH hits a new All-Time High! 🚀 #Ethereum  To the moon: https://t.co/kGsA7BQSDr https://t.co/oRFzRPyYip",382,67
1377999186168193028,"2021-04-02T14:59:42Z","RT @TheCryptoCactus: $ETH is above $2000 comfortably, and it’s here to stay...  Thinking we see $2600 in this month!",959,79
1377999185887309824,"2021-04-02T14:59:42Z","While $BTC is struggling near 60K resistance, $ETH just broke ATH. This is very bullish for altcoins as also charted in the tweet below.   Expecting some $ETH resistance around the $2200 mark, retest of the $2000 and up we go again. https://t.co/5q4mSRtG1O",0,0
1377999185090207745,"2021-04-02T14:59:42Z","Its just beginning.. $ETH",2,0
1377999183437697025,"2021-04-02T14:59:41Z","RT @JpouchP: ETH has surpassed its 52 week high. $HMBL humbl",10,1
1377999183156682754,"2021-04-02T14:59:41Z","@binance Hire more support for binance us pls with those many eth in your own vault thanks.",0,0
1377999180308832262,"2021-04-02T14:59:41Z","$ETH to the 🚀 🌙",0,0
1377999178840805376,"2021-04-02T14:59:40Z","💧Roku Network Airdrop 💧  🏆 Task:          ➕  15 ROK (~$5)  👨‍👩‍👧 Referral:   ➕  3 ROK (~$1)  🔛  Airdrop Link &amp; Information: https://t.co/YhvsOcfEbH  #cryptocurrency #Crypto #Bitcoin  #BSC #BinanceSmartChain #Ethereum #ETH #Airdrop #bounty #ROK #RokuCoin #RokuNetwork",3734,4808
1377999178157207558,"2021-04-02T14:59:40Z","$ETH did I not tell you? 2500$ very soon! ATH #Ethereum https://t.co/1br8TUMO4b https://t.co/eGlANhtpLi",0,0
1377999177532194816,"2021-04-02T14:59:40Z","RT @CryptoGodJohn: $ETH $4-$5k by June / July.",604,43
1377999173631479810,"2021-04-02T14:59:39Z","RT @JustinBennettFX: $ETH new all-time high! 🚀",584,42
1377999167746936835,"2021-04-02T14:59:38Z","RT @PowerHasheur: ATH $ETH ! 2055$, let's go https://t.co/4A6DSHvkYH",1250,134
1377999167411400715,"2021-04-02T14:59:38Z","#BTC is competing for balance sheet against fiat, bonds, stocks, real estate, gold, art, jewelry, yachts, and farmland.  ETH is competing to be “world computer” against DOT, TRX, KSM, XTZ, DFN, ADA, and AMZN.  These are two completely different markets with distinct fundamentals.",1714,246
1377999164890562562,"2021-04-02T14:59:37Z","Please Retweet if you are ready for the biggest altcoin season since 2017!  13000% Profit #Altcoin Picks! Soon: Biggest #altcoin season since 2017! #Altcoin picks ready to EXPLODE! The EASIEST money you can make in #crypto!  $ETH $ZIL $DASH $ADA $ZEC $GRT  https://t.co/FxQcf2qtEV",154,76
1377999163871346691,"2021-04-02T14:59:37Z","NEW $ETH ATH  This is HUGE for #ALTS   Hope you're strapped in, April will be 💥💥🚀🚀",3,0
1377999162776621058,"2021-04-02T14:59:37Z","RT @TheCryptoCactus: $ETH is above $2000 comfortably, and it’s here to stay...  Thinking we see $2600 in this month!",959,79
1377999161950302213,"2021-04-02T14:59:36Z","RT @flurtft: 💜 $200 in $ETH to someone who retweets this 💜 #Ethereum #ETH #giveaway",3113,6140
1377999159974711298,"2021-04-02T14:59:36Z","RT @CryptoYog: $2.5K next for $ETH",2,1
1377999158905278471,"2021-04-02T14:59:36Z","Meet the Quarks, a sub-atomic particle that serves as the building blocks for the Atoms you've seen before. check them out on @rariblecom   &lt;void&gt; is 2/2 priced at 0.2 ETH all others are 5/5 and priced at 0.1 ETH!  https://t.co/KOXa48rh9C https://t.co/kSJCYeXhi0",29,16
1377999158854967296,"2021-04-02T14:59:36Z","RT @RyanWatkins_: Forgot about $ETH? Up. https://t.co/1JXPcrHR7P",1309,377
1377999157605056512,"2021-04-02T14:59:35Z","Change my mind 💁‍♂️  #ETH💩 is unlicensed illegal security scam who’s only use case is to produce more unlicensed illegal security scams (Shitcoins) https://t.co/gryefE8Y2T",116,17
1377999155960946689,"2021-04-02T14:59:35Z","RT @JustinBennettFX: $ETH new all-time high! 🚀",584,42
1377999150952890373,"2021-04-02T14:59:34Z","RT @LilMoonLambo: nobody:  $ETH bears: https://t.co/frXB2H5KJd",187,37
1377999150931972097,"2021-04-02T14:59:34Z","@androolloyd @0x1952msk @ibz @zndtoshi @RyanSAdams i mean its money, shouldnt the purchasing power of it matter? are you saying Zimbabwe dollars are just as good? Is this how Eth economics works?",0,0
1377999150579658754,"2021-04-02T14:59:34Z","@brucefenton @nic__carter I think there’s merit in recognising: you joined a joke chat -&gt; you became the joke (hence “caught offside”). It’s not like you were invited in against your will. But yes, fine line between meme (Eth convo) and toxic (Nic’s point).",0,0
1377999150575460352,"2021-04-02T14:59:34Z","Hi #Cryptonians,  we #giveaway for the  #holidays 300$ in $GCX to two of you each! 🕊️🕊️🕊️ Just do this: - Followus - Retweet and like - Tag friends much as possible  ⏲️Ends in 48 hours⏲️ ♥️ #StaySafe! ♥️ #Crypto #Blockchain #BTC #Space #BNB  #Mars #TWT #Airdrop #GCX #ETH #Easter",318,299
1377999149224796167,"2021-04-02T14:59:33Z","#ETH hits a new All-Time High! 🚀 #Ethereum  To the moon: https://t.co/kGsA7BQSDr https://t.co/oRFzRPyYip",382,67
1377999147916218374,"2021-04-02T14:59:33Z","After 5 years, investors are starting to wake up  $ETH",0,0
1377999143323377667,"2021-04-02T14:59:32Z","Ethereum season? ETH options traders are placing big bets for June https://t.co/VcdXGiW8yn",0,0
1377999143206064131,"2021-04-02T14:59:32Z","RT @flurtft: 💜 $200 in $ETH to someone who retweets this 💜 #Ethereum #ETH #giveaway",3113,6140
1377999142039982083,"2021-04-02T14:59:32Z","RT @JRNYcrypto: $60k #Bitcoin and $2k $ETH 👀",1934,149
1377999141654065153,"2021-04-02T14:59:32Z","RT @binance: #ETH has reached a new all-time high 🚀 https://t.co/qft7btq1h2",7541,1430
1377999141532528645,"2021-04-02T14:59:31Z","#ETH taking off right now... 🚀🚀🚀  #Ethereum #crypto #cryptocurrency #cryptotrading #business #blockchain #finance #success #investment #follow #btc https://t.co/XCvyiGRgnN",1,1
1377999140077047808,"2021-04-02T14:59:31Z","#Wanchain True #defi is #interoperable because real #freedom should be #unstoppable! 👀  $wasp $wan $atom $iota $comp $agi $btc $eth $link $xrp $ksm $rsr $bnb $crv $algo $uni $theta $orai $enj $chr $hbar $qnt $yfte $yfi $ada $dot #api3 $albt $aave $snx $inj $crypto $alts #bitcoin https://t.co/TxDM3yS8Ht",56,22
1377999136969134080,"2021-04-02T14:59:30Z","@marcfriedrich7 Eth all time high???    Eth = exit scam https://t.co/YUkYhfoPEI",0,0
1377999133382950917,"2021-04-02T14:59:30Z","@BitcoinTre Hi @BitcoinTre $ETH new ATH, $BTC will hit new ATH soon but #litecoin????",0,0
1377999133290553345,"2021-04-02T14:59:30Z","Never ignore my guppy indicator, that was the bottom. $ETH new ATH and it has just started. Prepare for #Altseason again. https://t.co/z93C02WVf2",18,1
1377999133286395904,"2021-04-02T14:59:30Z","ETH all time high might be the bullish thing ever this bull run",3,0
1377999132607053824,"2021-04-02T14:59:29Z","Lets review just how much money I made dumping ALL my ETH...  (it's enough to buy a couch...or even 1000 couches)  Comment anything below, two random people will get $100 in ADA. Tags/Retweets appreciated.  https://t.co/394Z8f1KA1",890,406
1377999132355395591,"2021-04-02T14:59:29Z","@cloudatio Thinking about this sensible I suspect it’s just sell pressure from people selling BTC to ape into ETH.",1,0
1377999131042517004,"2021-04-02T14:59:29Z","RT @ColdBloodShill: The $ETH meme became a reality and my Calls/Spot buys are loving it. https://t.co/Mwf5vZ3DnK",50,4
1377999130249805836,"2021-04-02T14:59:29Z","@Edward_teach94 @SalsaTekila We're watching the price live at the Lodge it's fun:  https://t.co/y4PvREW1Rt  #ETH Season",0,0
1377999129234829313,"2021-04-02T14:59:29Z","RT @SafeEarthETH: #SafeEarth is now listed on #Coinmarketcap   https://t.co/4blLjrcjpy  Give us a like to boost our mission 🌍  #eth #charit…",214,72
1377999126172958725,"2021-04-02T14:59:28Z","RT @binance: #ETH has reached a new all-time high 🚀 https://t.co/qft7btq1h2",7541,1430
1377999125984075779,"2021-04-02T14:59:28Z","@MMCrypto Help! My eth is gonna flip my btc. Anyone wanna help me add on to my btc bag? 😂",0,0
1377999125271175171,"2021-04-02T14:59:28Z","Why is Ethereum a game-changer for @MCuban?  Smart contracts and the decentralized governance model appear to be what sold Cuban on ETH. https://t.co/cm1CiCVUKm",227,40
1377999122163204100,"2021-04-02T14:59:27Z","@enchiridion47 Eth is breaking out I think",0,0
1377999120640655360,"2021-04-02T14:59:27Z","RT @binance: #ETH has reached a new all-time high 🚀 https://t.co/qft7btq1h2",7541,1430
1377999117746634756,"2021-04-02T14:59:26Z","RT @VolumeAnalyzer: #Binance DUMP ALERT: $QLC / $ETH volume has increased by 21.69% in the past minute. Price is down -1.62%.",0,1
1377999117343805440,"2021-04-02T14:59:26Z","April is going to be a unbelievable month for crypto market. This is especially for $MRPH on 5th April when we will be launching our next generation platform. These are indeed exciting time for https://t.co/xV4PyoO42v. #SupplyChains $ETH $BTC #DeFi https://t.co/4td3N2vtfR",14,3
1377999113908813832,"2021-04-02T14:59:25Z","@scott_lew_is So let’s trade my 2 ETH for your 1 BTC. Today I feel generous 😃",0,0
1377999113267068929,"2021-04-02T14:59:25Z","8888 $ARMOR 🛡️ GIVEAWAY 💰  ✔️ Like  ✔️ RT ✔️ Follow @ArmorFI ✔️ Comment ETH address  ❓ Win 8888 $ARMOR ⁉️  Meme by #ArmorKnight pad @123456 for @ArmorFi https://t.co/LMueKXzPJo",638,508
1377999112549842945,"2021-04-02T14:59:25Z","RT @RyanWatkins_: Forgot about $ETH? Up. https://t.co/1JXPcrHR7P",1309,377
1377999112247898112,"2021-04-02T14:59:25Z","RT @binance: #ETH has reached a new all-time high 🚀 https://t.co/qft7btq1h2",7541,1430
1377999111039897601,"2021-04-02T14:59:24Z","@sassal0x Happy New #ETH ATH ⭐👏🏻😁🚀🎉 https://t.co/8gDADsTl3X",1,0
