"ID","created_at","text","like_count","rt_count"
1376383609167224836,"2021-03-29T03:59:59Z","After nearly six days of being lodged aground, the Ever Given ship is now afloat.   Send $ETH swiftly https://t.co/oVS5m32Kpk",4,1
1376383607359602691,"2021-03-29T03:59:58Z","Free Ethereum - Earn $65 free eth in 5 minutes https://t.co/YPqFUrmrRd #ethereum #freeeth #geteth",0,0
1376383594675924992,"2021-03-29T03:59:55Z","⚡🔥 EASY $10(Litecoin) Giveaway!  To win: ✔ Tag a friend ✔ Retweet ✔ Follow us Thats it! Good luck! 💖  Rolling in 36 hours!  #goodvibes #goodluck #giveaway #bitcoin #Giveaways  #cryptocurrency #eth #btc #BSC #TRON",332,0
1376383591286927362,"2021-03-29T03:59:54Z","Our surrealist artist @priyankap_patel keeps dishing out her interpretation of dreams and its role how remember things. Do you, do we truly remember the colours in our dream?  available now at https://t.co/m9W0E0sBwg for a reserved price 0.5 ETH each. https://t.co/nXISZhAjpt",20,0
1376383582218772485,"2021-03-29T03:59:52Z","The explorer artist @PiteshMistry  minted his first piece in @rariblecom .  Do only humans experience isolation? or does nature experience it well?   available for bidding at   https://t.co/3h39Ml4cLD for 5 ETH. https://t.co/JXhBld6MFi",9,0
1376383513885204480,"2021-03-29T03:59:36Z","I'll send $300 in #ETH or #BTC to one person who retweets this and follows @bud_crypto. Must complete these tasks:  1 - Like/RT his pinned tweet  2 - Must RETWEET &amp; LIKE 4 of his tweets  Ends in 72 hours!",1206,0
1376383503772753928,"2021-03-29T03:59:33Z","Join the @Holdefi community in HLD public sale!  #HLD #Holdefi #ETH #BSC #IDO #ICO 👇👇 https://t.co/D0SpXBOhN6",0,0
1376383502590087171,"2021-03-29T03:59:33Z","⚡🔥 EASY $10(Litecoin) Giveaway!  To win: ✔ Tag a friend ✔ Retweet ✔ Follow us Thats it! Good luck! 💖  Rolling in 36 hours!  #goodvibes #goodluck #giveaway #bitcoin #Giveaways  #cryptocurrency #eth #btc #BSC #TRON",332,0
1376383498160807936,"2021-03-29T03:59:32Z","Is amazing to see how this project has been out since Dec 2020 and so far Liquidity Providers have earned about 6533.78 $ETH and that is the total value of $10.6 Million dollars. 💪  Also the APY doing 301.35% which is amazing.  #DeFi #UniSwap #BSC #SmartContract #Ethereum https://t.co/9a7rgyoMpE",2385,0
1376383481966698500,"2021-03-29T03:59:28Z","#BTC Price: $55345 #ETH Price: $1693 #LTC Price: $191  Next update in 10 minutes Last updated: 23:59:28.03",0,0
1376383481874366464,"2021-03-29T03:59:28Z","@drummerjks i have seen 3 sh*eth shippers in the past 24 hours and it fills me with rage",1,0
1376383480519528448,"2021-03-29T03:59:28Z","@akuuart 0.25 ETH Bid on Halcyon at @withFND   11 Hours remaining!!   https://t.co/1NQJuxclew",0,0
1376383479978467328,"2021-03-29T03:59:28Z","The good thing about @dypfinance Anti-Manipulation system is that it prevents the Liquidity providers to Sell $DYP instead they are earning $ETH as staking rewards 🧠  #DYP #ETH #Ethereum #SmartContract #DeFi https://t.co/yt6C9Vehln",1905,0
1376383475419291651,"2021-03-29T03:59:27Z","Get $POODL now!                              $POODL $HOGE $DOGE $GRUMPY #bitcoin #btc #cryptocurrency #price #blockchain #crypto #money #news #coinbase #usd #buying #eth #ada",26,0
1376383474718842886,"2021-03-29T03:59:26Z","Join the @Holdefi community in HLD public sale!  #HLD #Holdefi #ETH #BSC #IDO #ICO 👇👇 https://t.co/Aua0NkhU23",0,0
1376383454179381248,"2021-03-29T03:59:22Z","Why You Need Blockchain Education in 2021    #Cardano $ADA #ETH #BTC #BITCOIN  EVEREST SUMMIT POOL  TICKER:ESP https://t.co/s9YSW705by",4,2
1376383437553102856,"2021-03-29T03:59:18Z","RT @hexeosis: thanks auracle.eth for your opening bid 👀🙌🤩 👀🙌",61,2
1376383430355730435,"2021-03-29T03:59:16Z","The first #NFTart from CryptoAnimeNFT series is now minted and available on #Rarible: ETH GIRL 01 https://t.co/QvOOfL6Tbp? #rarible #ethereum #nonfungible #digitalasset #nft via @rariblecom",54,2
1376383424374657027,"2021-03-29T03:59:14Z","Ryuji Izumi bought for 1.799 ETH (3049.07$) on the secondary market   Season: 2020-2021 Level: 5 Serial: 1/1 Price: 3049.07$  ⚽ Sorare: https://t.co/Wb8rQJn5tY  📊: https://t.co/NAWQuHiuNo  #Sorare #NFT #Ethereum #FantasyFootball",0,0
1376383412286668801,"2021-03-29T03:59:12Z","The first #NFTart from CryptoAnimeNFT series is now minted and available on #Rarible: ETH GIRL 01 https://t.co/QvOOfL6Tbp? #rarible #ethereum #nonfungible #digitalasset #nft via @rariblecom https://t.co/1EpO5DeiLY",69,0
1376383402203566080,"2021-03-29T03:59:09Z","There’s a 300 INV reward for supplying ETH (including as collateral to borrow DOLA) and an additional 300 INV for borrowing ETH  Which means lending and borrowing ETH have different APYs depending on total borrowed and supplied  Both APYs will be added to the interface soon",83,0
1376383401452728321,"2021-03-29T03:59:09Z","Since this the launch of @dypfinance back in Dec 2020 looks like Liquidity Providers have earned $11.4 Million dollars in $ETH just from Staking!  Also the project is paying out is $ETH as well and so far 6.2K $ETH have been rewarded.   #DeFi #Crypto #Cryptocurrency #BitcoinTalk https://t.co/zis10XPcL7",1802,0
1376383394335047683,"2021-03-29T03:59:07Z","🔥 Burned 2.980 #renBTC (165,146.31 USD) on #ETH. Darknodes fee: 0.0030 #BTC (165.15 USD) https://t.co/NJnvtdPEYK",1,0
1376383385539641345,"2021-03-29T03:59:05Z","@CryptoMichNL Don't miss $SYS Announcing their block height for their  @SYSCOIN  Lux release THIS WEEK. #NFT support like no other. Notary, opt-in compliance, eth bridge and more. Smart Contracts, Scalability into the millions and computation on the horizon. SYS will be like no other in 2022.",10,0
1376383383060774912,"2021-03-29T03:59:05Z","CryptoAnime #NFT #giveaway!  To be eligible to participate in this #NFTgiveaway you must:  1) Follow us, like our last 3 tweets and retweet them. 2) Tag 3 friends in the comments of this tweet 3) Post your $ETH #Ethereum address in comments  We'll pick a lucky winner on 15 April! https://t.co/OixVzImfrn",143,0
1376383378644033539,"2021-03-29T03:59:04Z","Because CHUBBIE #0 is currently over 30ETH, we will giveaway CHUBBIES #5537 and #1963 (Both Shinies ~$1,500 each)   -to ONE person that retweets this tweet and follows!  Current bid: 69.69 ETH  CHUBBIE #0: https://t.co/NfK8fP1uZP https://t.co/DsIqf9abnz",613,0
1376383362177265671,"2021-03-29T03:59:00Z","Join the @Holdefi community in HLD public sale!  #HLD #Holdefi #ETH #BSC #IDO #ICO 👇👇 https://t.co/RB7ZHWXvGj",0,0
1376383333769302019,"2021-03-29T03:58:53Z","🐈‍⬛ April is gonna be massive for both $DAG &amp; $LTX  🏴THe tandem Pump will be biblical  🏴 $DAG = $ETH on steroids  🏴 $LTX = $RUNE + $POLS on steroids  🐈‍⬛ Do you mean what that means Anon? Infinite gains :O  $zero $erowan $noia $ocean $ftm $frm $vra  $lcx $matic $uni $tvk $rsr https://t.co/znUzrfsU5T",60,0
1376383319642935298,"2021-03-29T03:58:50Z","@Orenar4 @beaniemaxi @JackMallers And why don't you go research on the large amount of ETH that was premined, no wonder they want PoS now. All I'm going to say is forget the Biitcoin comparison and focus on your real competition.",0,0
1376383298587348992,"2021-03-29T03:58:45Z","A BIG thank you to @ProBit_Exchange - all the $XDC traders love the super low withdrawal fee &amp; the new trading pairs XDC/ETH, XDC/KRW, XDC/USDT! #XinFin https://t.co/kUQ6qcWS3M",126,0
1376383297912242179,"2021-03-29T03:58:44Z","RT @ANadamel: @NFTMansa 0.25 ETH Bid on Halcyon at @withFND   11 Hours remaining!!   https://t.co/1NQJuxclew",8,0
1376383291448643587,"2021-03-29T03:58:43Z","🔥 WoW!!! $DYP getting listed on @kucoincom !  DYP/USDT &amp; DYP/ETH trading will start tomorrow, March 25th at 10AM UTC! Good job @dypfinance team!  #DeFi #uniswap #Ethereum https://t.co/Rw9qa5l5tA",2226,0
1376383290546982912,"2021-03-29T03:58:43Z","💰 Minted 1.994 #renBTC (110,503.63 USD) on #ETH. Darknodes fee: 0.0050 #BTC (276.26 USD) https://t.co/OiLzi0fWT9",1,0
1376383275678191624,"2021-03-29T03:58:39Z","@CryptoWizardd Don't miss $SYS Announcing their block height for their @SYSCOIN Lux release THIS WEEK. #NFT support like no other. Notary, opt-in compliance, eth bridge and more. Smart Contracts, Scalability into the millions and computation on the horizon. SYS will be like no other in 2022.",9,0
1376383273786601475,"2021-03-29T03:58:39Z","@diadonacs @iamDCinvestor @RyanSAdams So owning ADA which would have made you able to buy more ETH which you prefer (which is fine) because of better returns make no sense? It would have been a smart move simple as that.",0,0
1376383257810362369,"2021-03-29T03:58:35Z","💧Poplink Oracles Airdrop 💧  🏆 Task:          ➕  50 POPO (~$50)  👨‍👩‍👧 Referral:  ➕  15 POPO (~$15)  🔛  Airdrop Link &amp; Information: https://t.co/DS6g34KhFp  #cryptocurrency #Crypto #Bitcoin  #BSC #BinanceSmartChain #Ethereum #ETH #Airdrop #bounty #POPO #Poplink",6788,0
1376383255167963139,"2021-03-29T03:58:34Z","@NFTMansa 0.25 ETH Bid on Halcyon at @withFND   11 Hours remaining!!   https://t.co/1NQJuxclew",8,1
1376383249509834756,"2021-03-29T03:58:33Z","🚀 Pluto Coin  Airdrop 🚀 Rate: ⭐⭐⭐⭐ ⭐ 🎁 Reward:  8822 PLUT ($1500) 👫 Referral: 40.5 PLUT  ($7)  🤖Start Bot here   https://t.co/x5JZchojO8  ⛂ Join Telegram group and channel. ⛂ Follow twitter &amp; retweet  ⛂ Submit ETH address and details.",6005,1
1376383245114204163,"2021-03-29T03:58:32Z","Because CHUBBIE #0 is currently over 30ETH, we will giveaway CHUBBIES #5537 and #1963 (Both Shinies ~$1,500 each)   -to ONE person that retweets this tweet and follows!  Current bid: 69.69 ETH  CHUBBIE #0: https://t.co/NfK8fP1uZP https://t.co/DsIqf9abnz",613,1
1376383235685548032,"2021-03-29T03:58:30Z","@HoopyHines @LuaSwap Or FTX, or Luaswap (works just like Uniswap) by swapping for ETH",1,0
1376383232472670214,"2021-03-29T03:58:29Z","There’s a 300 INV reward for supplying ETH (including as collateral to borrow DOLA) and an additional 300 INV for borrowing ETH  Which means lending and borrowing ETH have different APYs depending on total borrowed and supplied  Both APYs will be added to the interface soon",83,0
1376383222913753089,"2021-03-29T03:58:26Z","@NFTFix 0.25 ETH Bid on Halcyon at @withFND   11 Hours remaining!!   https://t.co/1NQJuxclew",0,0
1376383207952642051,"2021-03-29T03:58:23Z","Limit orders on uphold?   Massive #xrp #hbar #ada #eth #btc https://t.co/IezYVwDn7i",8,1
1376383199127859204,"2021-03-29T03:58:21Z","@bignftcollector 0.25 ETH Bid on Halcyon at @withFND   11 Hours remaining!!   https://t.co/1NQJuxclew",0,0
1376383189384581120,"2021-03-29T03:58:18Z","Yeah, with Guilds and Hedgefunds spending ETH like this, I’m never selling my $AXS. I’ll be a tadpole in a metaverse full of whales. No one loses when the value pays for itself. https://t.co/M5tRjgAswb",9,0
1376383180651909129,"2021-03-29T03:58:16Z","Meet DeLorean!🏎️🎸🌩️ Hurry to buy!  https://t.co/lrs4DmdpIL  One of the cars can be yours for free in 24 hours!  🙌follow me 👍like  🖖retweet  🤝🤝2 friends+ comment with your ETH wallet address.  I wish everyone good luck! #NFTs #NFT #NFTartist #nftart #nft_ru #NFTcollectibles https://t.co/3TgmokUlYK",186,0
1376383171575508992,"2021-03-29T03:58:14Z","@baqeich 0.25 ETH Bid on Halcyon at @withFND   11 Hours remaining!!   https://t.co/1NQJuxclew",1,0
1376383165657280513,"2021-03-29T03:58:13Z","If you ever feel FOMO this cycle - just remember, $ETH pulled ~50x the first half of 2017,  After that ? Plenty smaller coins went on to 30, 50, 100x+ just in the last few months that bull run.  You. are. still. early.",595,0
1376383165535645702,"2021-03-29T03:58:13Z","Is amazing to see how this project has been out since Dec 2020 and so far Liquidity Providers have earned about 6533.78 $ETH and that is the total value of $10.6 Million dollars. 💪  Also the APY doing 301.35% which is amazing.  #DeFi #UniSwap #BSC #SmartContract #Ethereum https://t.co/9a7rgyoMpE",2385,0
1376383164751339523,"2021-03-29T03:58:13Z","🚀 #NFT GIVEAWAY 🚀  PRIZE: ONE 3D BASTARD PUNK (0.5 ETH) + $150 ETH  HOW TO ENTER: 💎 LIKE AND RETWEET THIS POST 💎 FOLLOW  @3DBastardPunks 💎 TAG 3 CRYPTO FRIENDS  🏆 WINNER ANNOUNCED ON: APRIL 1ST  2021 🏆  JOIN OUR DISCORD ➡️ https://t.co/sxvENo2kFT https://t.co/uqXTkHnds7",399,0
1376383156815728641,"2021-03-29T03:58:11Z","RT @AltcoinDailyio: These are the 'good old days'. I’m telling you. $BTC $ETH",1358,0
1376383111525638148,"2021-03-29T03:58:00Z","So I still have 5/10 of this piece at 0.2 ETH looking to be someone’s new addition, who’s going to pick one up? #NFTCommunity #nftart #NFTartist #nftcollector #nftcollectors #Cryptoart  https://t.co/GssNhEDTJE https://t.co/Gugx7tx700",6,3
1376383109403353091,"2021-03-29T03:57:59Z","🚀 Pluto Coin  Airdrop 🚀 Rate: ⭐⭐⭐⭐ ⭐ 🎁 Reward:  8822 PLUT ($1500) 👫 Referral: 40.5 PLUT  ($7)  🤖Start Bot here   https://t.co/x5JZchojO8  ⛂ Join Telegram group and channel. ⛂ Follow twitter &amp; retweet  ⛂ Submit ETH address and details.",6005,3
1376383106161147912,"2021-03-29T03:57:59Z","The DEX @FinanceChainge is set to launch on the @FUSIONProtocol network with over a million users on the protocols waitlist. This decentralized exchange aims to innovate on traditional models through leveraging the Fusion Network.  #BSC #BTC #ETH #BNB  https://t.co/xx55YiGfm3",21659,3
1376383102969241601,"2021-03-29T03:57:58Z","Ethereum had a super clean head &amp; shoulders that pretty much hit the target to the dot. $1550 &lt;&gt; $10k  $eth https://t.co/yg3p1MzsuB",3,1
1376383096912764932,"2021-03-29T03:57:56Z","⚡🔥 EASY $10(Litecoin) Giveaway!  To win: ✔ Tag a friend ✔ Retweet ✔ Follow us Thats it! Good luck! 💖  Rolling in 36 hours!  #goodvibes #goodluck #giveaway #bitcoin #Giveaways  #cryptocurrency #eth #btc #BSC #TRON",332,1
1376383087605469188,"2021-03-29T03:57:54Z","Join the @Holdefi community in HLD public sale!  #HLD #Holdefi #ETH #BSC #IDO #ICO 👇👇 https://t.co/zFrELTK3LM",0,0
1376383067082866688,"2021-03-29T03:57:49Z","RT @joshpor21324993: $ONE $BTC $ETH Harmony One Headed for a 40 billion dollar market cap just like $ADA",71,0
1376383065870712840,"2021-03-29T03:57:49Z","$DYP liquidity providers earned 6,533.78 #Ethereum worth $10,616,674 since launch!  Earn up to 301.35% APY 💰  If you want to start earning #ETH you just need to join one of our liquidity pools: DYP-ETH, DYP-WBTC, DYP-USDC, and DYP-USDT https://t.co/zxyI0V2tnr  #DeFi #Uniswap https://t.co/acaV7p6h3G",406,0
1376383065686114307,"2021-03-29T03:57:49Z","I'll send $300 in #ETH or #BTC to one person who retweets this and follows @bud_crypto. Must complete these tasks:  1 - Like/RT his pinned tweet  2 - Must RETWEET &amp; LIKE 4 of his tweets  Ends in 72 hours!",1206,0
1376383063446331394,"2021-03-29T03:57:48Z","DeFi Yield Protocol Buying Competition: $25,000 in USDT to be won! ⬇️  Participate now https://t.co/UNSzLT7MqP  Bonus: 10 people that retweet this tweet and follow @dypfinance will win $250 each in #ETH ! https://t.co/7nB9EqrbHb",1876,0
1376383059596034054,"2021-03-29T03:57:48Z","@FireblocksHQ @MicroStrategy @Blockworks_ @michael_saylor Fireblocks when stable coins on none Eth chains will be supported? 🤓.",0,0
1376383059583508480,"2021-03-29T03:57:48Z","There’s a 300 INV reward for supplying ETH (including as collateral to borrow DOLA) and an additional 300 INV for borrowing ETH  Which means lending and borrowing ETH have different APYs depending on total borrowed and supplied  Both APYs will be added to the interface soon",83,0
1376383039853326337,"2021-03-29T03:57:43Z","Is amazing to see how this project has been out since Dec 2020 and so far Liquidity Providers have earned about 6533.78 $ETH and that is the total value of $10.6 Million dollars. 💪  Also the APY doing 301.35% which is amazing.  #DeFi #UniSwap #BSC #SmartContract #Ethereum https://t.co/9a7rgyoMpE",2385,0
1376383034052632576,"2021-03-29T03:57:41Z","@ShirKhan1981 @JohnEDeaton1 @SEC_News Nor do btc or ETH holders (or for that matter any crypto holder) sell at loss or for free, Strange sec don't have objections with them?",1,0
1376383029757677568,"2021-03-29T03:57:40Z","I'll send $300 in #ETH or #BTC to one person who retweets this and follows @bud_crypto. Must complete these tasks:  1 - Like/RT his pinned tweet  2 - Must RETWEET &amp; LIKE 4 of his tweets  Ends in 72 hours!",1206,0
1376383015073513472,"2021-03-29T03:57:37Z","#Stellar daily, 2H, and 15min charts!  All indicate that a successful close of a complete 1D candle above $0.422, will set it above all the major resistances, and will confirm that we are in WAVE V Cycle!    Notes on the charts!   #XLM $XLM #Stellar #Lumens #BTC #ETH #VET https://t.co/UpZcBKEHxG https://t.co/olT4IODXlK",8,0
1376383006500397061,"2021-03-29T03:57:35Z","🔶 BlockFi Offers Interest-Earning 🔶 🔸Get up to $250 in #Bitcoin on your first deposit!🔸  🚦 Join: https://t.co/EMFDGJh10K  🌐 Open Link 🌐 Register website - Must lite KYC  🌐 Deposit one crypto 25$ 🌐 Done you get 250$  $BTC $ETH $BNB @CTBott Adrop Avg 100 SPKL 50",42,0
1376382944030257152,"2021-03-29T03:57:20Z","The DEX @FinanceChainge is set to launch on the @FUSIONProtocol network with over a million users on the protocols waitlist. This decentralized exchange aims to innovate on traditional models through leveraging the Fusion Network.  #BSC #BTC #ETH #BNB  https://t.co/xx55YiGfm3",21659,0
1376382922249342978,"2021-03-29T03:57:15Z","Going live at 11pm CST, Monday is going to booooooooommmmmm!!!! rtmp://a.rtmp.youtube.com/live2 #bitcoin #btc #trading #eth #youtubelive https://t.co/L2oZgcEN0n",0,0
1376382921624363009,"2021-03-29T03:57:15Z","RT @BigBirdsNFT: A few commons are up for sale!  Price: .015 ETH  link: https://t.co/ykAEUHa69l  #nft #nftart #nfts #crypto",9,0
1376382913030197254,"2021-03-29T03:57:13Z","RT @Atom1kOne: 🎁 25$ ETH Giveaway 🎁  - Follow me &amp; @DED_RIMMER  - Retweet  - 3 days  GL! 🔥 https://t.co/C7GPPwmaff",111,0
1376382909196591109,"2021-03-29T03:57:12Z","Because CHUBBIE #0 is currently over 30ETH, we will giveaway CHUBBIES #5537 and #1963 (Both Shinies ~$1,500 each)   -to ONE person that retweets this tweet and follows!  Current bid: 69.69 ETH  CHUBBIE #0: https://t.co/NfK8fP1uZP https://t.co/DsIqf9abnz",613,0
1376382903018487811,"2021-03-29T03:57:10Z","RT @Atom1kOne: 🎁 25$ ETH Giveaway 🎁  - Follow me &amp; @DED_RIMMER  - Retweet  - 3 days  GL! 🔥 https://t.co/C7GPPwmaff",111,0
1376382890334941185,"2021-03-29T03:57:07Z","🟢 Swapped $102K in #ETH for #BDP on #Uniswap 🦄  🐟 ($0) #0xf436E8 https://t.co/fsFvbNF7NM",0,0
1376382885704437762,"2021-03-29T03:57:06Z","$HOT Holding stong at 1 cent not far away from 3 cent!  #HOT #Holochain #Holofuel 🔥🔥🔥🚀💰  Follow for more analysis. 🥳  #cryptocurrency #CryptoNews #ICX #STORJ #ANKR #CELR #XVS #SAND #ETH #BTC #bitcoin #altcoin #trading https://t.co/m8US4yRYdf",57,0
1376382861314514945,"2021-03-29T03:57:00Z","#OKEx Earn up to $500 1. Buy crypto 2. Deposit 3. Complete trading milestones  🐰 Join OKEx with link  👉 https://t.co/BlAozkfRa6 to Earn #BTC from easy tasks!  #CTBot Adrop Ram 250 WIN 100 #JoinOKEx #OKEx #OKB #Bitcoin #ETH #DeFi https://t.co/8xgk3Lh3lc",56,0
1376382857057239041,"2021-03-29T03:56:59Z","The DEX @FinanceChainge is set to launch on the @FUSIONProtocol network with over a million users on the protocols waitlist. This decentralized exchange aims to innovate on traditional models through leveraging the Fusion Network.  #BSC #BTC #ETH #BNB  https://t.co/xx55YiGfm3",21659,0
1376382854662250503,"2021-03-29T03:56:59Z","The DEX @FinanceChainge is set to launch on the @FUSIONProtocol network with over a million users on the protocols waitlist. This decentralized exchange aims to innovate on traditional models through leveraging the Fusion Network.  #BSC #BTC #ETH #BNB  https://t.co/xx55YiGfm3",21659,0
1376382824744247303,"2021-03-29T03:56:52Z","YGG will spend 20-30 ETH on breeding @AxieInfinity this week.  - Breeding fees go to community treasury, and ultimately $AXS holders - Breeding burns SLP, offsetting sell pressure from scholars - Axies go to our scholarship program so more players can play without upfront cost",197,0
1376382818725416961,"2021-03-29T03:56:50Z","🔸 New Listing🔸   #BKEX will list #DRYCAKE @DryCakeSwap🚀 🚀  - Trading pair: DRYCAKE/USDT - Trading time: 20:00 on Mar 29 (UTC+8)  🔹 🔹 More details: https://t.co/kC2IIebfTT  #Bitcoin #ETH #BKK #Blockchain https://t.co/w8CHyKXaUD",2480,0
1376382812148862976,"2021-03-29T03:56:49Z","@gratefulRiver I've given ETH addresses before to a similar tweet. They are probably conducting market research because I haven't got any airdrops.",1,0
1376382799901556743,"2021-03-29T03:56:46Z","@exodus_io hi, are you going to support Ethereum ETH staking? Do you have any future plans on it?",0,0
1376382785758314499,"2021-03-29T03:56:42Z","Try to explain to a non crypto person: Stake $swth - $bnb = earn $cake Stake cake to earn $swth Stake swth on @demexchange in pool, or in Tradehub to earn tradingfees income in $swth, $nNeo, $eth, $wbtc, $bnb, and many other coins, and repeat.  Just say I make magic money! https://t.co/pMSlAYq8Bb",99,0
1376382775649964040,"2021-03-29T03:56:40Z","I just listed “Unbroken” for sale on @withFND! 🌐  https://t.co/otr9ySqxsA  #nft #nfts #nftcollectors #foundationapp   If you love it, RETWEET!",183,0
1376382773255143424,"2021-03-29T03:56:39Z","RT @IvanOnTech: ETH 1400 CMON!!!!!!",1690,0
1376382742376554498,"2021-03-29T03:56:32Z","@ChainlinkNFThub @rariblecom This is great opportunity for us  Love this project Done  Eth address.  0x0Af6d8176C82810E9DCD662B25FEedE63a60457e",0,0
1376382742015832068,"2021-03-29T03:56:32Z","😂😂😂😂😂😂 $one $eth #NFTs https://t.co/c2JFFEGfLe",0,0
1376382740870930434,"2021-03-29T03:56:32Z","Going live at 11pm CST, Monday is going to booooooooommmmmm!!!! rtmp://a.rtmp.youtube.com/live2 #bitcoin #btc #trading #eth #youtubelive https://t.co/L2oZgcEN0n",0,1
1376382720968781826,"2021-03-29T03:56:27Z","#DeFi #BKC #eth2 #BucksCake  ANNOUNCEMENT!  Dear BucksCake's community members!  The exact date of BKC listing on Uniswap set for 04/20/2021!  2 days before it, the exact opening time of the trading pair BKC/ETH on Uniswap...  More at https://t.co/RQPMhjazG2 https://t.co/VjtBbXBA1t",2856,1
1376382715902054401,"2021-03-29T03:56:26Z","As you see the price rise, remember that in a few months or weeks you'll look back on this period in $FEG's history and barely remember these tiny pumps.  As you click Collect Staking Rewards and withdraw your $ETH or $BNB to lay down the deposit on your new car, or house...",701,1
1376382692028190721,"2021-03-29T03:56:20Z","Because CHUBBIE #0 is currently over 30ETH, we will giveaway CHUBBIES #5537 and #1963 (Both Shinies ~$1,500 each)   -to ONE person that retweets this tweet and follows!  Current bid: 69.69 ETH  CHUBBIE #0: https://t.co/NfK8fP1uZP https://t.co/DsIqf9abnz",613,1
1376382690807705600,"2021-03-29T03:56:20Z","RT @joshpor21324993: $ONE $BTC $ETH Harmony One Headed for a 40 billion dollar market cap just like $ADA",71,1
1376382677951991812,"2021-03-29T03:56:17Z","🚀 #NFT GIVEAWAY 🚀  PRIZE: ONE 3D BASTARD PUNK (0.5 ETH) + $150 ETH  HOW TO ENTER: 💎 LIKE AND RETWEET THIS POST 💎 FOLLOW  @3DBastardPunks 💎 TAG 3 CRYPTO FRIENDS  🏆 WINNER ANNOUNCED ON: APRIL 1ST  2021 🏆  JOIN OUR DISCORD ➡️ https://t.co/sxvENo2kFT https://t.co/uqXTkHnds7",399,1
1376382674135216129,"2021-03-29T03:56:16Z","Because CHUBBIE #0 is currently over 30ETH, we will giveaway CHUBBIES #5537 and #1963 (Both Shinies ~$1,500 each)   -to ONE person that retweets this tweet and follows!  Current bid: 69.69 ETH  CHUBBIE #0: https://t.co/NfK8fP1uZP https://t.co/DsIqf9abnz",613,1
1376382660138786818,"2021-03-29T03:56:12Z","Join the @Holdefi community in HLD public sale!  #HLD #Holdefi #ETH #BSC #IDO #ICO 👇👇 https://t.co/SQRcqxjOak",0,0
1376382658045878274,"2021-03-29T03:56:12Z","$KLV is now Top 3 coin by Social Engagements, with over 75 million engagements, and only $BTC &amp; $ETH ahead of #KLV!  Thank you for sharing the #klever vision of financial independence for all 🙏🏽 https://t.co/8M4aEksIHQ",664,0
1376382630338256899,"2021-03-29T03:56:05Z","Big leg up and then consolidation.  Nice.  $KIN #KIN #Bitcoin #BTC #Ethereum #ETH #Solana #SOL #XRP #NFT #DeFi #Altcoin #alt #usd #fintech #blockchain #crypto #buythedip #gold #silver #SEC https://t.co/AZIGtzcI9f",14,0
1376382621651992576,"2021-03-29T03:56:03Z","THE SANDBOX CHALLENGE!🙌  🥳EVERYONE IS A WINNER! HOW:  1⃣ Sign up + Create your Avatar here: https://t.co/CXrZe6tZvy  2⃣ TWEET AVATAR PIC &amp; Include: @TheSandboxGame @metalympics  #TheSandbox $SAND + ETH ADDRESS  Special @KamiSawZe NFT! Ends TUE 2/2 3pm ET https://t.co/4x89y4v8BF https://t.co/ysc1ORCHQU",104,0
1376382612000841732,"2021-03-29T03:56:01Z","#Liquidity #BSC #DeFi   🧑‍🌾Pools Update: ETH/rETH-ETH/RICE-rETH, 3 pools will open.  🍳Let's cook more $RICE together! https://t.co/TgUNvj2bQ9",19,0
