"ID","created_at","text","like_count","rt_count"
1375273771926384641,"2021-03-26T02:29:53Z","New Airdrop: Diamond Crystal (DCT) Reward: 100 DCT ($100) Rate: ⭐️⭐️⭐️⭐️ Focus: Distribution starts after airdrop ends   Bot Airdrop Link: https://t.co/9Qzk47HUKt  #Airdrop #giveaway #BTC #ETH",4033,2
1375273757153976321,"2021-03-26T02:29:49Z","RT @CashNCrypto: $150 to one person in 48hrs  Rt &amp; follow me + @domscrypto &amp; @boar_eth",2067,2
1375273754343968772,"2021-03-26T02:29:49Z","Do you really like #NFTs ? Are you willing to work for them? #megacity #artist #blockchain #crypto #BTC #ETH https://t.co/kfbNhH8qMK",4,1
1375273749881221120,"2021-03-26T02:29:47Z","$OCEAN update  Blue box is holding well for now. TBH, I think this is the bottom before we go to 2$.  $ETH is taking over. $BTC.D is dropping agin.  We could have another BTC shakeout because of option expiration today but I think this weekend will shine.  🤟 https://t.co/BpfNd24F17",33,1
1375273741110808578,"2021-03-26T02:29:45Z","New #digitalcurrencyalien #NFT pixel art available on https://t.co/zm1A0zl48c Limited to 1 mint each for 150+ artworks available using $ETH! RT for some free #Bitcoin !!  @coinkit_ com 50 1000 BTC #NFT",207,1
1375273720084717568,"2021-03-26T02:29:40Z","New Drop🚀 on @withFND    “The Beholder”  Reserve Price ETH = 0,89 🤍  Waiting for your bets, ladies and gentlemen’s! 🤞🏻  I am very proud of this illustration, This is the level Up of my art and creativity ✨  Made with @Procreate App + Apple Pencil 🤍 #NFTs #cryptoart https://t.co/4bFfImrME3",229,1
1375273715727020039,"2021-03-26T02:29:39Z","🚀 Pluto Coin  Airdrop 🚀 Rate: ⭐⭐⭐⭐ ⭐ 🎁 Reward:  8822 PLUT ($1500) 👫 Referral: 40.5 PLUT  ($7)  🤖Start Bot here   https://t.co/x5JZchojO8  ⛂ Join Telegram group and channel. ⛂ Follow twitter &amp; retweet  ⛂ Submit ETH address and details.",6005,1
1375273708860833803,"2021-03-26T02:29:38Z","$bdog listed on Probit   Check this out  💎💎💎  $grumpy $pika $kong $hoge $doge $btc $eth $orai $utu $wolfy $htr $jup  https://t.co/MWZIwVNrVO",5,1
1375273700866527239,"2021-03-26T02:29:36Z","@volmexfinance I always see these, can someone educate me.. is it a bad idea to give your ETH address? What will be sent / how much? What does the user gain in giving ETH away do they keep data or addresses? Someone please EDUCATE ME",27,1
1375273698006011906,"2021-03-26T02:29:35Z","You asked we answered!  1/Why cross-chain staking?  We believe that the future of DeFi is cross-chain and we have been staking ETH for quite some time and it is only natural we progress to cross-chain staking. https://t.co/lqZ2sRImr0",214,1
1375273686542905347,"2021-03-26T02:29:32Z","🚀 Safe The Children  🔷 Token Symbol : STC  🔷 Contract: https://t.co/nk3qsF2PJV  🔷 Website: https://t.co/4y0g7dqswM  🔷 Whitepaper: https://t.co/PHPZI4dbyR  🔷 Presentation Video : https://t.co/Mycfov12IU  #Safe_Childrens #Bitcoin  #Binance #BinanceSmartChain #DEFI  #BTC #ETH",14722,1
1375273685003698180,"2021-03-26T02:29:32Z","30 day EVIX: 105.5436 ETH/USD vwap: $1,619.08 04/16 expiry volume: $1,575,530.55 04/30 expiry volume: $7,243,458.66 Current time: 02:29:07",0,0
1375273684533923842,"2021-03-26T02:29:32Z","$250 to a lucky person who has a penguin in their Twitter name   Will draw on April 1st.  Must like + rt and obviously be following🐧   Birds that flock together profit together  $btc $eth https://t.co/k4BqtwU8in",365,0
1375273675188969480,"2021-03-26T02:29:30Z","Meen Hexicans buying up all of Panda's HEX! Panda is watching yoooooo😝  Buy me a Water Malone, and I forgibb yoo hmmp!😏👉🍉  #HEX $HEX #Hexican $BTC $ETH https://t.co/QWnE5RTZHT",19,0
1375273668436234240,"2021-03-26T02:29:28Z","Don't forget about this one! Still 4 left for 0.04 ETH, piece 2/8 comes out sunday #nftcollector #NFTCommunity #NFTartist https://t.co/y58H7AxHdi",3,0
1375273668163461122,"2021-03-26T02:29:28Z","New #digitalcurrencyalien #NFT pixel art available on https://t.co/zm1A0zl48c Limited to 1 mint each for 150+ artworks available using $ETH! RT for some free #Bitcoin !!  @coinkit_ com 50 1000 BTC #NFT",207,0
1375273641332596737,"2021-03-26T02:29:22Z","RT @volmexfinance: What’s your ETH address?  Don’t ask why, just drop it below 👇",4852,0
1375273632713252867,"2021-03-26T02:29:20Z","You knew it was going to happen! New llamas dropping tonight. Which 🦙 will you get?  Link: https://t.co/yGLEoXIK2W  #NFT #NFts #crypto #cryptoart #NFTartist   #NFTdrop #NFTCommunity #ETH #pixelart #cryptopunks",3,0
1375273625591427074,"2021-03-26T02:29:18Z","$ETH  If the daily candle closes above 2k, it will easily cross 2500$ mark. Keep an eye on it.  Checkout the link in bio for crypto signals  $IOTA $ADA #CRYPTO $BCH $XMR #bitcoin 83441 https://t.co/JqVPR6UU4p",0,0
1375273615826948096,"2021-03-26T02:29:16Z","@DigitalPolar I’ll give you .002 ETH rn 🤝",0,0
1375273594859614208,"2021-03-26T02:29:11Z","@DeribitExchange Strategy for ETH on Deribit You can do this with 2 ETH Buy 4 Qty of 9th April 1600 Call at 0.08 Sell 8 Qty of 30th April 2240 Call at 0.0315 Sell 1500 Dollars ETH Perpetual Future Sell 1 Qty of 30th April 1600 Put at 0.1",1,0
1375273579156242434,"2021-03-26T02:29:07Z",".@Ripple wins this battle: date for a telephonic discovery conference regarding #SEC documents on #Bitcoin and #Ether is announced. #XRP @TheCrypticWolf1 @val5linx #XRPcommunity @WillyWonkaXRP #XRPnews @XRPcryptowolf @MackAttackXRP @LeoHadjiloizou  https://t.co/lfd4nPtFOd",247,0
1375273573363843079,"2021-03-26T02:29:05Z","@MichaelClaytonJ @trump_democrat @ShaggyCristian @_davvd @MKBHD It gets worse, as NFTs don't protect or guarantee ownership. Instead they're a *certificate.* The actual file itself is stored separately, and can be infinitely duplicated while ignoring the ETH blockchain and the entire NFT market.",1,0
1375273563226320898,"2021-03-26T02:29:03Z","Bitcoin is the technical solution which makes blind trust in information from a completely unknown third party possible. It makes the agent—the trustworthy middleman—redundant. #cryptocurrency #blockchain #bitcoin #ethereum #mining #crypto #btc #eth https://t.co/oCrky6xjlv https://t.co/sWQOMDz1U7",1,0
1375273560000720906,"2021-03-26T02:29:02Z","Ripple Scores Goal: Court Assigns Telephonic Conference on #SEC Documents Regarding #BTC and #ETH  Here comes the 🔥   HODL #XRP!! 📈📈📈 https://t.co/3HjYFhN28R",555,0
1375273551750553605,"2021-03-26T02:29:00Z","What’s new?? Let me 👀 something new!!! Drop your #nfts and check out everyone else’s art!! #NFTCommunity  Like ❤️/ RT 🔁 / Grow  #nft #eth #btc #ada #nftcollector        🎆🏞🌁🎇🌄🌅🎑🏙🌆🌌🌉🎆🌫🏞",188,0
1375273538723086340,"2021-03-26T02:28:57Z","Yooo !! $DYP trading is now live on #KuCoin!🚀  ☆ DYP/USDT: https://t.co/3R7KC2Vfy6 ◇ DYP/ETH: https://t.co/AkCQ30DqAq  You can find out more about @dypfinance in #KuCoinCryptoGem card  Join @dypfinance telegram growing community for latest updates  https://t.co/B5yzhwGqg8 https://t.co/vuTbQ7D1gn",217,0
1375273532267978754,"2021-03-26T02:28:56Z","@Crypto_Chadz @TheCryptoDog $ATOM did pull 240% Feb 1st-15th It is also currently up 300% since January 1st which is better than $BTC $ETH or $LINK",7,0
1375273515318865920,"2021-03-26T02:28:52Z","BUNNEH’s #NFT is a #MentalHealth initiative we created!  Please get involved!! All funds from #BUNNEHs #NFT are being used to fund Mental Health Therapy for a loved one! Contribute to a fantastic cause https://t.co/pDr0GrcdGn  All NFT starting 0.005 $ETH @coinkit_ mon 25 1000 BTC",171,0
1375273507773317127,"2021-03-26T02:28:50Z","RT @CashNCrypto: $150 to one person in 48hrs  Rt &amp; follow me + @domscrypto &amp; @boar_eth",2067,0
1375273490950066183,"2021-03-26T02:28:46Z","$ETH  In a few months, people will be looking back at this moment on the $ETH chart as a premier buy opportunity.   #Ethereum broke ATH resistance, retested, then bullish consolidated above prior resistance/now support.   Buy $ETH @ $1500. First sells @ $3000. https://t.co/ZfZFmIfYhR",6,1
1375273472562229248,"2021-03-26T02:28:41Z","I'll send $500 in #ETH or #BTC to one person who retweets this and follows @bud_crypto. Must complete these tasks:  1 - Like/RT his pinned tweet  2 - Must RETWEET &amp; LIKE 4 of his tweets  Ends in 72 hours!",1406,1
1375273461220745219,"2021-03-26T02:28:39Z","@TheCryptoLark Time to be aggressive. Being aggressive, that means you are ready to attack. What it does mean, you going to get after it. You are going to move fast. You are going to think fast. You are going to outthink and outmaneuver the enemy. Long the fucking $eth",1,0
1375273459115233284,"2021-03-26T02:28:38Z","RT @alee: @MikeAbundo Eth price vs eth adoption is a bullish divergence ↘️↗️",5,0
1375273455747092481,"2021-03-26T02:28:37Z","🔥 I create in love and I know my collectors collect in love. For this, I’m grateful🔥  🔥3 of 10 SOLD🔥  🚀Speed Racer 2021 Sabet🚀  ♥️4 of 10 Available Now = 1 Eth  🏓RETWEET PLEASE🏓  @WhaleShark_Pro @JonnyB_NFT @jims_eth #nftcollector #nftart #NFT   https://t.co/EwryKObwDH",37,0
1375273445760589824,"2021-03-26T02:28:35Z","Lewis Morgan bought for 0.462 ETH (752.13$) by ziotips on the primary market   Season: 2020-2021 Level: 0 Serial: 67/100 Price: 752.13$  ⚽ Sorare: https://t.co/K3IsSMGc2Z  📊: https://t.co/mqjMcWctd7  #Sorare #NFT #Ethereum #FantasyFootball",0,0
1375273445462843392,"2021-03-26T02:28:35Z","RT @CynicalCTB: $BDOG Probit listing in 7 hours? Massive news. The team are smashing it!    $ANKR $ETH $HRT $HOGE https://t.co/a7qNnDm4fS",13,0
1375273434293358594,"2021-03-26T02:28:32Z","Top  3 Trending Cryptos On reddit/CryptoMarkets :   #BTC, Score of 41  - Change   -40.58 %  #ETH, Score of 29  - Change   -27.5 %  #APY, Score of 17  - Change   +21.43 %    Access The Full List https://t.co/VaWgphgbDg",0,0
1375273433290903565,"2021-03-26T02:28:32Z","Top  3 Trending Cryptos On reddit/CryptoCurrencies :   #BTC, Score of 40  - Change   0.0 %  #ETH, Score of 24  - Change   +33.33 %  #FIL, Score of 12  - Change   0.0 %    Access The Full List https://t.co/VaWgphgbDg",0,0
1375273403993624577,"2021-03-26T02:28:25Z","RT @Cronald81: Did you start to farm #ZDcash ? I started with ZDcash/ETH Thanks #LaunchZone https://t.co/Io4Yup0H4b",130,0
1375273391687671809,"2021-03-26T02:28:22Z","Dropped (4/4) Destination Moon on Opensea (3/24/2021).  https://t.co/i9os43B7sr  #cryptoart #opensea #NFTs #nftart #ETH #NFT",0,0
1375273382212726784,"2021-03-26T02:28:20Z","@JBTheCryptoKing If so, benefit from on these 2...😉  Token:  GLYPH token $GLY (soon on #uniswap), join at Discord via the following invite and get familiar with us   https://t.co/4IGwgL2uPR  Coin:  @ElectraProtocol $XEP  #logistics #SupplyChain #erc20 #transport #eth #XEP #shipping",1,0
1375273349023199237,"2021-03-26T02:28:12Z","You've likely heard of $ETH and $BTC, but do you know about $LPT? Livepeer is a #decentralized video streaming network built on the Ethereum blockchain. Gain portfolio exposure through the Grayscale Livepeer Trust, a familiar investment product. https://t.co/CDx48v7HW7",168,0
1375273343805493257,"2021-03-26T02:28:11Z","“Over The Cosmos IBC”   29.03.2021  Are You Ready?  $ATOM #blockchain #COSMOS #crypto #altseason #meme   #bitcoin    #btc    $eth $xrp $avax $xem $kava $xlm $xtz $sol bitcoin $uni $luna $iris $kava $akt $ada $fet $link $theta $doge $bnb #invesment $vet $sent $fet $fil $xem $chz https://t.co/BJ79x17ZcQ",17,0
1375273338931585030,"2021-03-26T02:28:10Z","@CashNCrypto @domscrypto @boar_eth Good Luck",0,0
1375273329066614784,"2021-03-26T02:28:07Z","@BluesCrypto ETH PRICE MAR 26 2020 - $138.37 ETH PRICE MAR 26 2021 - $1,620.26 PEOPLE WHO BOUGHT IN FEB 2021 - ETH is a shitcoin https://t.co/O6dIftTEGu",4,0
1375273314848018436,"2021-03-26T02:28:04Z","💰4,000 #ETH (6,346,311 USD) move from unknown wallet to unknown wallet   Date : 2021-03-26 02:27:12 (GMT 0) Blockchain : #ETHEREUM Symbol : #ETH   Detail: https://t.co/UwKFeiPcZj",0,0
1375273308954890241,"2021-03-26T02:28:02Z","I'll send $500 in #ETH or #BTC to one person who retweets this and follows @bud_crypto. Must complete these tasks:  1 - Like/RT his pinned tweet  2 - Must RETWEET &amp; LIKE 4 of his tweets  Ends in 72 hours!",1406,0
1375273300566405125,"2021-03-26T02:28:00Z","Beeple Immediately Converted His $53 Million NFT Earnings From ETH to USD https://t.co/RRwrwTUk52 https://t.co/RRwrwTUk52",0,0
1375273296703287297,"2021-03-26T02:27:59Z","RT @CashNCrypto: $150 to one person in 48hrs  Rt &amp; follow me + @domscrypto &amp; @boar_eth",2067,0
1375273293733789701,"2021-03-26T02:27:59Z","BUNNEH’s #NFT is a #MentalHealth initiative we created!  Please get involved!! All funds from #BUNNEHs #NFT are being used to fund Mental Health Therapy for a loved one! Contribute to a fantastic cause https://t.co/pDr0GrcdGn  All NFT starting 0.005 $ETH @coinkit_ mon 25 1000 BTC",171,0
1375273293276573699,"2021-03-26T02:27:59Z","New #digitalcurrencyalien #NFT pixel art available on https://t.co/zm1A0zl48c Limited to 1 mint each for 150+ artworks available using $ETH! RT for some free #Bitcoin !!  @coinkit_ com 50 1000 BTC #NFT",207,0
1375273290781057024,"2021-03-26T02:27:58Z","Steve Mandanda bought for 0.259 ETH (421.65$) on the secondary market   Season: 2020-2021 Level: 0 Serial: 84/100 Price: 421.65$  ⚽ Sorare: https://t.co/3CeAKCheJA  📊: https://t.co/O5STlI9hMj  #Sorare #NFT #Ethereum #FantasyFootball",0,0
1375273278319828992,"2021-03-26T02:27:55Z","Connecting customers 4.0 @PwC  - Connected Supply Chain Unlocks Value Accross The Digital Landscape    ty &amp; mt @enricomolinari cc @HeinzVHoenen @ETH @tessalau @jblefevre60 @MasterofIoT   #ArtificialIntelligence #AI #ML #DL #NLP #4IR #fintech #IoT #CloudComputing #AR #3D https://t.co/ucPeOHtVL8",26,0
1375273271629905926,"2021-03-26T02:27:53Z","@cryptofrog202 Still not convinced it's going to move this bull run. We have other options now. Dot is hot. Bsc is hot. We don't have to use eth. If a chain doesn't make it's move this bullrun on eth. Then u r right about 2025",0,0
1375273265984200705,"2021-03-26T02:27:52Z","Strategy for ETH on Deribit You can do this with 2 ETH Buy 4 Qty of 9th April 1600 Call at 0.08 Sell 8 Qty of 30th April 2240 Call at 0.0315 Sell 1500 Dollars ETH Perpetual Future at around 1625 Price Sell 1 Qty of 30th April 1600 Put at 0.1",7,0
1375273254277931011,"2021-03-26T02:27:49Z","Thou cometh, I take...ETH?",0,0
1375273250125611009,"2021-03-26T02:27:48Z","@TOPO_Pool @Adabrains @Leo_Delegator @LoverPlaid Lol how is me pointing out Ethereum struggling defending it? Get your narrative straight, I'm not an eth maxi  Total deflection from Cardano being a flaming dumpster fire",0,0
1375273249840455680,"2021-03-26T02:27:48Z","BUNNEH’s #NFT is a #MentalHealth initiative we created!  Please get involved!! All funds from #BUNNEHs #NFT are being used to fund Mental Health Therapy for a loved one! Contribute to a fantastic cause https://t.co/pDr0GrcdGn  All NFT starting 0.005 $ETH @coinkit_ mon 25 1000 BTC",171,0
1375273249139920899,"2021-03-26T02:27:48Z","RT @PaperHandsGreen: My top picks personally: $RVN and $ETH  Both HUGE potential upside this Alt-season 🔥",8,0
1375273247336357888,"2021-03-26T02:27:48Z","Lil Llama #009 has arrived! Newly minted on @opensea   Link: https://t.co/UujAfnbeHs  #NFT #NFts #crypto #cryptoart #NFTartist #NFTCommunity #ETH #pixelart #cryptopunks https://t.co/jb7xfSt3FY",3,0
1375273243276365831,"2021-03-26T02:27:47Z","@Bitboy_Crypto Get your btc and Eth folks",0,0
1375273211210895363,"2021-03-26T02:27:39Z","Everyone remember that you can place limit orders for HEX at https://t.co/angIz1gFz2  or https://t.co/bcblZAmgZJ (convert you ETH to WETH first.) This system also works market orders spreading across different liquidity pools.",184,0
1375273209864417282,"2021-03-26T02:27:39Z","RT @DailyDogeUpdate: 🚀 $1000 to anyone who Like, Follow and Retweet 🚀  #Dogecoin #LTC $ETH",1846,0
1375273209789042688,"2021-03-26T02:27:39Z","03/25/21 UPDATE: Net Assets Under Management, Holdings per Share, and Market Price per Share for our Investment Products.  Total AUM: $40.3 billion  $BTC $BCH $ETH $ETC $ZEN $LTC $XLM $ZEC $BAT $LINK $MANA $FIL $LPT https://t.co/aENPbf1Up3",323,0
1375273206651744256,"2021-03-26T02:27:38Z","RT @ProBit_Exchange: XDC trading starts in 1 hour including USDT, ETH, and KRW pairs 😎  https://t.co/ONqEci7doN https://t.co/sscsjeYahJ",154,0
1375273200091852801,"2021-03-26T02:27:36Z","Wrapped Mooncat #1899 was purchased for 0.4 ETH   #mooncats #mooncatsrescue https://t.co/nwRePlOJho",0,0
1375273198598688771,"2021-03-26T02:27:36Z","This is cool inside look in the design and approach for the $Uni v3 trailer. 🦄 lot of thought on each part to incorporate the $eth #defi ecosystem. Amazing work @pplpleasr1 🔥 https://t.co/KlCEOzU0bn",14,0
1375273188637122562,"2021-03-26T02:27:34Z","🔔Less than 24 hours to go until the giveaway ends!🎁  $1000 $USDT up for grabs, don't miss it! 💵  $btc $eth $ltc $neo $link $kava $ftm $mft $chr $coti $one $jst $omg $aave $algo $ankr $arpa $atom $band $zil $chz $enj $eos $gto $icx $rlc $dot $xrp $ada $hbar $xlm $reef $crv $dia https://t.co/QUH5bL2J2B",22,0
1375273166302511104,"2021-03-26T02:27:28Z","RT @x_eightynine: Just got a 1000 $eth from a recent #nft resale.  Spending it all on #cryptoartists   Just post your work and retweet.  /s",354,0
1375273164951805952,"2021-03-26T02:27:28Z",".2 ETH ON THE AUCTION! WOO &lt;3",2,0
1375273145221873666,"2021-03-26T02:27:23Z","$RVN looks ready for another leg up, perfect entry  right now if you're not already in 💵  Expecting this coin to do a 2-3 easily in the near future 🔥🚀  ---  #crypto $btc $eth $ltc $neo $link $kava $ftm $mft $chr $coti $one $jst $omg $aave $algo $ankr $arpa $atom $zil $chz $enj https://t.co/30JGSr3sIF",48,0
1375273130239918080,"2021-03-26T02:27:20Z","Buterin's ETH sales more like a security offering than Ripple's XRP sales: John Deaton by #JakeSimmons via @CryptoNewsFlas3  https://t.co/NoK8RnEsIP",330,0
1375273130088824833,"2021-03-26T02:27:20Z","RT @CashNCrypto: $150 to one person in 48hrs  Rt &amp; follow me + @domscrypto &amp; @boar_eth",2067,0
1375273122463502339,"2021-03-26T02:27:18Z","With $BTC cooling down, I can say with certainty:  Welcome to the start of yet another #Altseason ladies and gentlemen 💵💵  Get ready for some 🔥🔥 picks, if you don't walk away from this 2021 bull run a millionaire, that's on you.  🚀🌕  #crypto #defi #nfts $eth $doge $rvn $sxp",18,0
1375273117535326210,"2021-03-26T02:27:17Z","ETH continues to be underrated as an asset and not well understood by the general mainstream. EIP1559 will be the slam dunk 🏀 ETH is ultra sound money",171,0
1375273101273919499,"2021-03-26T02:27:13Z","New #digitalcurrencyalien #NFT pixel art available on https://t.co/zm1A0zl48c Limited to 1 mint each for 150+ artworks available using $ETH! RT for some free #Bitcoin !!  @coinkit_ com 50 1000 BTC #NFT",207,0
1375273087214571522,"2021-03-26T02:27:09Z","@AirdropDet Replying to  @AirdropDet hopefully this project is a success, sir, and then it becomes one of the best cryptos, I am enthusiastic about participating in this and also supporting it,Good luck sir.  #STC #ETH #DEFI #Airdrops",0,0
1375273070630424576,"2021-03-26T02:27:06Z","At what price will the roller coaster start to go up again? Happy to see two of my gems @vechainofficial and @ElectraProtocol are staying strong through the dip, and ready to pop when #btc turns around! #altseason🚀 #vet⛓️ #xep⚡ #eth🔷 #oxt🌸 #uni🦄 #link🔗 https://t.co/Cd6lAi4Hml",11,0
1375273047112957952,"2021-03-26T02:27:00Z","People are saying $eth will hit 10k this year. That is a 6.25x from todays price.  If Harmony $one did a 6.25x from todays price 0.18c that would put $one at $1.12c  And we all know $one will outperform $eth by a lot.  $one = $5 USD by EOY 2021 will be easy.",65,0
1375273026741231617,"2021-03-26T02:26:55Z","I'll send $500 in #ETH or #BTC to one person who retweets this and follows @bud_crypto. Must complete these tasks:  1 - Like/RT his pinned tweet  2 - Must RETWEET &amp; LIKE 4 of his tweets  Ends in 72 hours!",1406,0
1375273018704883712,"2021-03-26T02:26:53Z","🔸 New Listing🔸   #BKEX will list #DRYCAKE @DryCakeSwap🚀 🚀  - Trading pair: DRYCAKE/USDT - Trading time: 20:00 on Mar 29 (UTC+8)  🔹 🔹 More details: https://t.co/kC2IIebfTT  #Bitcoin #ETH #BKK #Blockchain https://t.co/w8CHyKXaUD",2480,0
1375273018386173956,"2021-03-26T02:26:53Z","@ryan17709825 u can grab more eth later",0,0
1375273015693352964,"2021-03-26T02:26:52Z","Today (March 25) 11h30PM GMT+8 (HKT)  ZDCash/BNB: 15% ZD/BNB: 15% ZDCash/BUSD: 45% BNB/BUSD: 5% BTCB/BNB: 5% BTCB/BUSD: 5% ETH/BNB: 5% USDT/BUSD: 5%  MORE POOLS WILL COME LATER.  $ZDCash #DeFi #HighAPY https://t.co/Wd4uzr749L",287,0
1375273011222171651,"2021-03-26T02:26:51Z","Since @dypfinance staking dApp was released, Liquidity Providers have been earning #Ethereum Rewards and so far everyone has earned $10.9 Million dollars in total.  That is 5,781.41 #ETH and paying every 24hrs.  #DeFi #Uniswap #DeFiYieldProtocol https://t.co/F2wumBJM21",1772,0
1375273004922380289,"2021-03-26T02:26:50Z","The good thing about @dypfinance Anti-Manipulation system is that it prevents the Liquidity providers to Sell $DYP instead they are earning $ETH as staking rewards 🧠  #DYP #ETH #Ethereum #SmartContract #DeFi https://t.co/yt6C9Vehln",1905,0
1375273004570042372,"2021-03-26T02:26:50Z","#DeFi #BKC #eth2 #BucksCake  ANNOUNCEMENT!  Dear BucksCake's community members!  The exact date of BKC listing on Uniswap set for 04/20/2021!  2 days before it, the exact opening time of the trading pair BKC/ETH on Uniswap...  More at https://t.co/RQPMhjazG2 https://t.co/VjtBbXBA1t",2855,0
1375272997817262088,"2021-03-26T02:26:48Z","#NFTartist share me your art! 7.5 ETH to buy some #NFTs tonight.  1. Follow me 2. Like and retweet 3. Drop your NFTs in the comments, I'll buy your art! #NFTs #nft #nftcollector #nftart #cryptoart #nftcollectors #NFTcollectibles",281,0
1375272994709204993,"2021-03-26T02:26:47Z","$DYP liquidity providers earned 5,970.84 #ethereum worth $10,700,060 since launch!  Join one of their liquidity pools and earn up to 295.02% APY 💰  #defi #uniswap #eth https://t.co/lKbf20w2sm",1795,0
1375272982285668354,"2021-03-26T02:26:44Z","I'll send $500 in #ETH or #BTC to one person who retweets this and follows @bud_crypto. Must complete these tasks:  1 - Like/RT his pinned tweet  2 - Must RETWEET &amp; LIKE 4 of his tweets  Ends in 72 hours!",1406,0
1375272979194544129,"2021-03-26T02:26:44Z","@rbaetz2000 @katinstarot @ether_cards This 'we are better and gonna bury you' narrative has run its course.  Look at the support that #DOT &amp; #ETH have given one another.  All #blockchains have pros &amp; cons - best we come together &amp; let the benefits of all together shine for the #crypto win over the legacy systems ;0",3,0
1375272977604874241,"2021-03-26T02:26:43Z","I will be giving away $1000 $USDT 🎁 to 5 (x200) people who: 1. Follow me 2. Retweet this 3. Like the post  To get double ($400) if you win, tag 2 friends in the comments!  Contest ends on the 25th of March. GL!  ---  #crypto #defi #nfts $btc $eth $doge $cake $uni $ada $dot $luna https://t.co/oT3KA0auWp",651,0
1375272971565080576,"2021-03-26T02:26:42Z","BNB SMACK ETH - WHY EVERYONE WAS WRONG  6 months ago @cz_binance tweeted my last video.  Since then, $BNB @binance 10x-ed.  Fast forward to today. Was I right or wrong? Time for Episode 2!  Full video 9 min: https://t.co/JeNcXRhNcs https://t.co/eZh0dn8lMO",930,0
1375272967010086913,"2021-03-26T02:26:41Z","Weekend giveaway time again 😁  I'll send 5 $busd of your favorite #BinanceSmartChain token  to 3 people in 48 hours 🤑  👉 Follow my account 👉 Comment your favorite @ #bsc token below 👉 Tag 3 friends  Its that easy!!  $bnb $btc #giveaway #free $eth $tron #tron $rune $cake #pcs",21,23
1375272964531253248,"2021-03-26T02:26:40Z","BUNNEH’s #NFT is a #MentalHealth initiative we created!  Please get involved!! All funds from #BUNNEHs #NFT are being used to fund Mental Health Therapy for a loved one! Contribute to a fantastic cause https://t.co/pDr0GrcdGn  All NFT starting 0.005 $ETH @coinkit_ mon 25 1000 BTC",171,23
1375272962551468034,"2021-03-26T02:26:40Z","@apes_crypto @opensea @cloudwhiteNFT Good project   Eth address : 0x20326EB316Afd6FAf15b07793adf6F1f5e46571B  @mdmontasir674 @Kanto824 @Sujit830",0,0
1375272955161104390,"2021-03-26T02:26:38Z","$DYP liquidity providers earned 5,970.84 #ethereum worth $10,700,060 since launch!  Join one of their liquidity pools and earn up to 295.02% APY 💰  #defi #uniswap #eth https://t.co/lKbf20w2sm",1795,0
1375272934357393410,"2021-03-26T02:26:33Z","The good thing about @dypfinance Anti-Manipulation system is that it prevents the Liquidity providers to Sell $DYP instead they are earning $ETH as staking rewards 🧠  #DYP #ETH #Ethereum #SmartContract #DeFi https://t.co/yt6C9Vehln",1905,0
1375272926514061315,"2021-03-26T02:26:31Z","@andzsy @pokkst Remember when BTSE, of gym friend fame, had to wrap their Liquid token in an ETH ERC-20 because, in their own words, nobody uses Liquid? I remember. They even wrote a blog post about it, but later took it down (probably because Blockstream threw a fit).",2,0
1375272915919200257,"2021-03-26T02:26:29Z","Since this the launch of @dypfinance back in Dec 2020 looks like Liquidity Providers have earned $11.4 Million dollars in $ETH just from Staking!  Also the project is paying out is $ETH as well and so far 6.2K $ETH have been rewarded.   #DeFi #Crypto #Cryptocurrency #BitcoinTalk https://t.co/zis10XPcL7",1802,0
