"ID","created_at","text","like_count","rt_count"
1376428910779396098,"2021-03-29T06:59:59Z","@daniel_eth reminds me of https://t.co/DeTYQEeAT5",2,0
1376428887433879553,"2021-03-29T06:59:54Z","I just joined this $25k Crypto giveaway by @JRNYcrypto and @sparkpointio  Get daily entries to increase your chances of winning! 25 random winners of $1k each!  #Bitcoin #Crypto $BTC $ETH $SRK https://t.co/IzlWW7anDi",0,0
1376428884535615491,"2021-03-29T06:59:53Z","💵$ 3500 USD in YFRISE Giveaway to 10 User ($ 350 Each)  📢To Enter: 👉Follow @YearnFinancRise 👉Retweet This Tweet &amp; Tag 5 Friend 👉Join YFRISE Telegram https://t.co/z4Swpbd24S &amp; https://t.co/3GXodARFgd  Draw Date: 17th April  #DeFi #eth #BSC   @cctip_io draw 350 USDT 400 #BTC https://t.co/VyNRt7YbTn",56,0
1376428877707411463,"2021-03-29T06:59:51Z","🎁Huge Giveaway!🎁  1x @PlasmaAIO beta key 1x @MooseAlertsCA Monthly 1x @TrinityProxies 1GB Resi 1x @SneakerPings Monthly 1x @studiobreit $100 ETH cash prize  🚨Rules🚨 -Follow all accounts✅ -Retweet🔁 -Tag a friend👥  Ends in 48 hours, good luck!🍀 https://t.co/RsyBvTzUU0",391,0
1376428875048230915,"2021-03-29T06:59:51Z","@realistcharts @zerohedge A new digital decentralized economy is being born!  Time to embrace crypto as central banks around the work devalue there own currencies!! People getting poorer by the minute!!! You still have an option. We are in the dot com era of crypto. $BTC $ETH $GRT will get it done🚀🚀🚀 https://t.co/mLk3IAOL8X",1,0
1376428873328496641,"2021-03-29T06:59:50Z","#DeFi #BKC #eth2 #BucksCake  ANNOUNCEMENT!  Dear BucksCake's community members!  The exact date of BKC listing on Uniswap set for 04/20/2021!  2 days before it, the exact opening time of the trading pair BKC/ETH on Uniswap...  More at https://t.co/RQPMhjazG2 https://t.co/VjtBbXBA1t",2856,0
1376428864423923716,"2021-03-29T06:59:48Z","While Eth 2.0 is prioritizing its Proof-of-Stake chain merge, Polkadot is moving to become a sharded multi-chain ecosystem. https://t.co/cDokdKg2TY",243,0
1376428852310728704,"2021-03-29T06:59:45Z","@ADAFORLIFE1 Lol, eth maxi, funny bro",1,1
1376428843112747008,"2021-03-29T06:59:43Z","#MXCExchange will list $TOWER and Launch the 43rd Session MX DeFi - Stake $USDT, $MX, $BTC, $ETH to Earn Yield $TOWER.  ▶️Follow @MXC_Exchange &amp; @TowerToken  ▶️Like, RT &amp; Tag 3 friends ▶️Comment  🏆10 ppl * 125 $TOWER  More info about the listing: https://t.co/VqsPboXOb5 https://t.co/6RZ4gmWYtY",998,1
1376428838586998784,"2021-03-29T06:59:42Z","@NiftyWhaleNFT Ok how do I get people interested in my brand? I been looking at the advice out there and I’ve made something unique-rare; not seen anywhere on Eth network. ‘World’s first #Punjabi x EDM mix song.’ Thoughts? https://t.co/ByKbxhUywz https://t.co/ddUojecyxj",1,0
1376428830982819842,"2021-03-29T06:59:40Z","#BTC Price: $55310 #ETH Price: $1698 #LTC Price: $193  Next update in 10 minutes Last updated: 2:59:40.03",0,0
1376428821642022915,"2021-03-29T06:59:38Z","The DEX @FinanceChainge is set to launch on the @FUSIONProtocol network with over a million users on the protocols waitlist. This decentralized exchange aims to innovate on traditional models through leveraging the Fusion Network.  #BSC #BTC #ETH #BNB  https://t.co/xx55YiGfm3",21659,0
1376428812767014912,"2021-03-29T06:59:36Z","@kodavista01 @tezos @hicetnunc2000 @georgemsavva @HedonisticFutur @jakegumbleton @antiquefuture @alina_loseva @mariuswatz @wblut @pitaru @Ruben_Fro @AEliassen @msurguy Why are people hesitant about tezos do you think? It has so much more potential than ETH. And look that art ! 😍",5,0
1376428802490916864,"2021-03-29T06:59:33Z","🎁Huge Giveaway!🎁  1x @PlasmaAIO beta key 1x @MooseAlertsCA Monthly 1x @TrinityProxies 1GB Resi 1x @SneakerPings Monthly 1x @studiobreit $100 ETH cash prize  🚨Rules🚨 -Follow all accounts✅ -Retweet🔁 -Tag a friend👥  Ends in 48 hours, good luck!🍀 https://t.co/RsyBvTzUU0",391,0
1376428801085763591,"2021-03-29T06:59:33Z","@N4V1111 @JeffKirdeikis @boxmining @M10Hafsa #1UP #ETH #UPTRENND  @ellaorubiagmai1  @ISAAHMAE  @yllodecarg   Support Navi 💚",0,0
1376428797239648258,"2021-03-29T06:59:32Z","CRITICAL!!!🚨 BUY #ETHEREUM NOW!! 🚨 ⚠️  In Todays Video: -  #ETH TO BREAK $2,000 IMMINENT!!  -  UNDERVALUED #ALTCOINS!!! -  #CRYPTO NEWS -  #ETH #BTC &amp; #ALTCOINS PRICE ANALYSIS  💰 WATCH THIS VIDEO 💰  ⬇️ LINK BELOW ⬇️ https://t.co/dVtrw2ZCjQ https://t.co/ZAKDEc5W4N",202,0
1376428792948883456,"2021-03-29T06:59:31Z","RT @intocryptoverse: $ETH under $2k will be only a distant dream in a few years",2303,0
1376428783524225025,"2021-03-29T06:59:29Z","#MXCExchange will list $TOWER and Launch the 43rd Session MX DeFi - Stake $USDT, $MX, $BTC, $ETH to Earn Yield $TOWER.  ▶️Follow @MXC_Exchange &amp; @TowerToken  ▶️Like, RT &amp; Tag 3 friends ▶️Comment  🏆10 ppl * 125 $TOWER  More info about the listing: https://t.co/VqsPboXOb5 https://t.co/6RZ4gmWYtY",998,0
1376428777291411456,"2021-03-29T06:59:27Z","You will have to supply both ETH and PLOT to the Uniswap liquidity pool.  Once you recieve Uniswap LP tokens, you can stake those on PlotX Liquidity Mining and earn APY upto 254%.🙌🙌 @TryPlotX $PLOT https://t.co/YButBq5DDf",40,0
1376428758014418949,"2021-03-29T06:59:23Z","@N4V1111 @JeffKirdeikis @boxmining @M10Hafsa #1UP #ETH #UPTRENND  Wow😍  Amazed &amp; happy to see it.....Go to the moon. ....eagerly waiting for that😍🤗  @JeffKirdeikis  @Luis_Alfonso28  @katyperry",0,0
1376428723365367808,"2021-03-29T06:59:15Z","@cryptorecruitr Anything can happen. $40Bil market cap for a product that isn't yet released is ridiculous and delusional. Comparing to over valued Etherium is plain stupid. #ADA #ETH #Cardano",0,0
1376428720316149761,"2021-03-29T06:59:14Z","Buy ETH  In order to interact with the Ethereum network, you will need to own Ether (ETH). The easiest way to acquire ETH is to buy it on an exchange.   https://   #Defi   #MustHaveCrypto https://t.co/VdeVRJBR6Q",0,0
1376428718642450434,"2021-03-29T06:59:13Z","Dont miss $CELR! They will launch @layer2finance Soon! 🔥🔥🔥  -  $BTC $ETH $UNFI $UTK $COTI $THETA $LINK $DOT $ENJ $YFI $ANKR $LUNA $ATOM $IRIS $MANA $SAND $JST $TRX $CHZ $BNB $ADA $XRP $FTM https://t.co/dhMCFN9jZx",7,0
1376428717723975681,"2021-03-29T06:59:13Z","-N-🏋️‍♂️-F-🏋️‍♂️-T-  SLPT-TRNG-2005  0.03 ETH / 9 ed.  #nft #nftart #nftcollector #digitalart #opensea #NFTCommunity #NFTs #NFTartist #Cryptoart #cryptoartist #bitcoin #eth #Ethereum #nftcollectors #rawrawproject https://t.co/9QzrHao2se",4,0
1376428707338977280,"2021-03-29T06:59:11Z","@SqueezeMetrics @DimitriStonks @tomi A new digital decentralized economy is being born!  Time to embrace crypto as central banks around the work devalue there own currencies!! People getting poorer by the minute!!! You still have an option. We are in the dot com era of crypto. $BTC $ETH $GRT will get it done🚀🚀🚀 https://t.co/EyWXc7UzpV",0,0
1376428700414181378,"2021-03-29T06:59:09Z","@melvinmaya @cypherchk @opensea NEW DROPS ALERT🚨  #014 already SOLD..   #012 #013 is available at #opensea with low prices https://t.co/5cwNZpADYk  #NFTCollectors #NFTs #crypto #cryptoart #nftart #nftdrop #nftcommunity #eth #pixelart #NFTartist #NFT  https://t.co/eEXN5YGTSE",4,0
1376428679593558016,"2021-03-29T06:59:04Z","RT @chainlinkace: 🏆Drop your $ETH address here🏆",937,0
1376428676238217216,"2021-03-29T06:59:03Z","@stedas Hey CRO,  Receive 1000 #PROPY Real Estate tokens for free just by creating an account with https://t.co/A7llZ8pDfL @Propy  https://t.co/Gq2ANP8O2y  #xrp #flr #propy #ada #vet #xdc #qnt #tel #pac #bitcoin #btc #eth #doge #ltc #bnb #dot #zap #hot #xrpcommunity #xrpamy https://t.co/Iq9KgzEKdb",1,0
1376428659775434754,"2021-03-29T06:58:59Z","Join My Channel &amp; Earn 200$+ Monthly.  #Airdrop #BTC #ETH #TRX #EOS  Contact:https://t.co/yuG4ETCzZo  Channel @freecrypto1ps  Twitter Link https://t.co/J7Bzd1GWw3",0,0
1376428656151552006,"2021-03-29T06:58:59Z","#MXCExchange will list $TOWER and Launch the 43rd Session MX DeFi - Stake $USDT, $MX, $BTC, $ETH to Earn Yield $TOWER.  ▶️Follow @MXC_Exchange &amp; @TowerToken  ▶️Like, RT &amp; Tag 3 friends ▶️Comment  🏆10 ppl * 125 $TOWER  More info about the listing: https://t.co/VqsPboXOb5 https://t.co/6RZ4gmWYtY",998,0
1376428653425266689,"2021-03-29T06:58:58Z","This is really a wonderful and incredible project in ever. I have believe in this project. #blockchain #cryptocurrency #defi #phore #ecommerce #marketplace #sharding #smartcontracts #crypto #bitcoin #ethereum #Graphene #Airdrop $BTC $ETH $GFN $PHR.",0,0
1376428638183292931,"2021-03-29T06:58:54Z","Meet/Eat Radiant Trip Gummy Bear  (Click link for higher res MP4) https://t.co/vfcWXIwUdE  10 QTY at 0.05 ETH on @rariblecom   #nftdrop #nftcollector #nftart #NFTs #nft #cryptoart #lsdgummybears https://t.co/AW8R2PXkI8",32,0
1376428635255570432,"2021-03-29T06:58:54Z","The DEX @FinanceChainge is set to launch on the @FUSIONProtocol network with over a million users on the protocols waitlist. This decentralized exchange aims to innovate on traditional models through leveraging the Fusion Network.  #BSC #BTC #ETH #BNB  https://t.co/xx55YiGfm3",21659,0
1376428632621600769,"2021-03-29T06:58:53Z","just don't be this guy never $drep on fire this week 1$ before the swap is possible coinbase listing + new partnership 💵💵💵 $drep $btc $eth #coinbase https://t.co/7Hy8g1jJl8",5,0
1376428619921297411,"2021-03-29T06:58:50Z","@PaintedPunks NEW DROPS ALERT🚨  #014 already SOLD..   #012 #013 is available at #opensea with low prices https://t.co/5cwNZpADYk  #NFTCollectors #NFTs #crypto #cryptoart #nftart #nftdrop #nftcommunity #eth #pixelart #NFTartist #NFT  https://t.co/eEXN5YGTSE",0,0
1376428619808006146,"2021-03-29T06:58:50Z","The account is sponsored by #Maanky 🐵 #BTC #Bitcoin #ETH #FOREX France's Le Maire: No plans to change restrictions on shops, businesses at this stage https://t.co/2W32CYGVeK",0,0
1376428619619127303,"2021-03-29T06:58:50Z","@MXC_Exchange @TowerToken Thanks for the opportunity. I hope this will give huge profit to everyone and company touch new heights   @Akash0888  @jayeshjha9  @13_navjot  @for2hodl   #MXCExchange #Tower #Crypto #USDT #MX #ETH #BTC #BSC",0,0
1376428617912131589,"2021-03-29T06:58:49Z","Sold for 2 Eth!!!! Thank you all so much 🙏 There are still some special editions available at the link in my bio.   @DrakeBell  #nftart #nftartist #nft #nfts #nftcommunity #nftcollector #nftcollectors #cryptoart #raredigitalart #collector #nftdrop #raredigitalart https://t.co/255f5i4Je3",316,0
1376428609951334406,"2021-03-29T06:58:48Z","Phore holders get Graphene tokens for free!🚀  💸Get 10 $GFN for every 1 $PHR you hold*💸  ➡️➡️➡️ https://t.co/BnYkuvMvjq ⬅️⬅️⬅️   Don't have #Phore? Don't miss out!🤗  👇Watch the video below to find out how👇  #Bitcoin #Ethereum $BTC $ETH #Graphene $GFN #airdrop #cryptocurrency https://t.co/CXUBMdaIeI",78,0
1376428609494192128,"2021-03-29T06:58:47Z","@crYptOy__ Look into these Dutch 💎 - $LTO hybrid blockchain used by #UnitedNations &amp; enterprises @TheLTONetwork - $DUSK pioneer in zkProofs #STO @DuskFoundation - $BUX @buxcrypto the next Euro @investvoyager - $GET @GetProtocol  #ticketmaster with #NFTs #Dutch know #Crypto! #btc #eth #DeFi",2,0
1376428607195742209,"2021-03-29T06:58:47Z","@chrisdbarnett @wsbreddit $BCP is MEGAmix #dreampie   33% ETH 🤗 33% BTC ⭐️ 33% DEFI 🤯  https://t.co/EQAjivESlh https://t.co/scE8MawJnH",1,0
1376428572764672001,"2021-03-29T06:58:39Z","🎁Huge Giveaway!🎁  1x @PlasmaAIO beta key 1x @MooseAlertsCA Monthly 1x @TrinityProxies 1GB Resi 1x @SneakerPings Monthly 1x @studiobreit $100 ETH cash prize  🚨Rules🚨 -Follow all accounts✅ -Retweet🔁 -Tag a friend👥  Ends in 48 hours, good luck!🍀 https://t.co/RsyBvTzUU0",391,0
1376428567559430144,"2021-03-29T06:58:37Z","IMPORTANT NOTICE:   When you send $ETH or $USDT to buy $PRIVA on Pre-sale, please also send your Transaction ID (TxID) by using your account at https://t.co/OqxJNfnUuE. You can find your TxID at your withdrawal history on your exchange or wallet. https://t.co/CrlODtEFtv",236,0
1376428565026107394,"2021-03-29T06:58:37Z","Welcome to massive Q DAO airdrop!   1. go now to telegram https://t.co/COyXgODY1z   2. Stay in telegram chat and wait announcement.  3. HOLD this gem until 10x   (soon - QDAO launch cross-chain for BSC, Polkadot and ETH)",4254,0
1376428533925445632,"2021-03-29T06:58:29Z","@daniburgz A new digital decentralized economy is being born!  Time to embrace crypto as central banks around the work devalue there own currencies!! People getting poorer by the minute!!! You still have an option. We are in the dot com era of crypto. $BTC $ETH $GRT will get it done🚀🚀🚀 https://t.co/PUJ3BPnZAE",0,0
1376428524152754184,"2021-03-29T06:58:27Z","Hey everyone! Thanks so much for the support! This community is the best. I just listed “Street Music” for sale on @withFND! Get these pieces before they are 1 trillion ETH! &lt;3🌐  https://t.co/ZKCENjg01b",35,0
1376428520193339393,"2021-03-29T06:58:26Z","🎁Huge Giveaway!🎁  1x @PlasmaAIO beta key 1x @MooseAlertsCA Monthly 1x @TrinityProxies 1GB Resi 1x @SneakerPings Monthly 1x @studiobreit $100 ETH cash prize  🚨Rules🚨 -Follow all accounts✅ -Retweet🔁 -Tag a friend👥  Ends in 48 hours, good luck!🍀 https://t.co/RsyBvTzUU0",391,0
1376428512035278852,"2021-03-29T06:58:24Z","RT @chainlinkace: 🏆Drop your $ETH address here🏆",937,0
1376428511775354881,"2021-03-29T06:58:24Z","TA: Ethereum Lacks Momentum Above $1,700, Why Dips Likely To Be Limited https://t.co/sq0CT0XfVm",0,0
1376428500538683393,"2021-03-29T06:58:21Z","The good thing about @dypfinance Anti-Manipulation system is that it prevents the Liquidity providers to Sell $DYP instead they are earning $ETH as staking rewards 🧠  #DYP #ETH #Ethereum #SmartContract #DeFi https://t.co/yt6C9Vehln",1905,0
1376428497174953985,"2021-03-29T06:58:21Z","💰 Minted 25.076 #renBTC (1,389,344.23 USD) on #ETH. Darknodes fee: 0.0627 #BTC (3,473.36 USD) https://t.co/jvDezq01YC",1,0
1376428495874662403,"2021-03-29T06:58:20Z","🔸 New Listing🔸   #BKEX will list #DRYCAKE @DryCakeSwap🚀 🚀  - Trading pair: DRYCAKE/USDT - Trading time: 20:00 on Mar 29 (UTC+8)  🔹 🔹 More details: https://t.co/kC2IIebfTT  #Bitcoin #ETH #BKK #Blockchain https://t.co/w8CHyKXaUD",2480,0
1376428494465294343,"2021-03-29T06:58:20Z","You create experiences! “Echoes” for sale on  @withFND  https://t.co/w5WPBrW7Ny  #NFT #NFTs #NFTart #NFTcommunity #NFTcollectibles #NFTartists #ETH #Ethereum #artcollection #artistsoftwitter #art #artcollector #nftcollector #nftcollections #cryptoart #cryptocurrency #crypto https://t.co/pvdu0iLrqs",75,0
1376428488140283960,"2021-03-29T06:58:19Z","#MXCExchange will list $TOWER and Launch the 43rd Session MX DeFi - Stake $USDT, $MX, $BTC, $ETH to Earn Yield $TOWER.  ▶️Follow @MXC_Exchange &amp; @TowerToken  ▶️Like, RT &amp; Tag 3 friends ▶️Comment  🏆10 ppl * 125 $TOWER  More info about the listing: https://t.co/VqsPboXOb5 https://t.co/6RZ4gmWYtY",998,0
1376428482398404610,"2021-03-29T06:58:17Z","🎁Huge Giveaway!🎁  1x @PlasmaAIO beta key 1x @MooseAlertsCA Monthly 1x @TrinityProxies 1GB Resi 1x @SneakerPings Monthly 1x @studiobreit $100 ETH cash prize  🚨Rules🚨 -Follow all accounts✅ -Retweet🔁 -Tag a friend👥  Ends in 48 hours, good luck!🍀 https://t.co/RsyBvTzUU0",391,0
1376428481811075079,"2021-03-29T06:58:17Z","RT @intocryptoverse: $ETH under $2k will be only a distant dream in a few years",2303,0
1376428462995513346,"2021-03-29T06:58:13Z","⚡🔥 EASY $10(Litecoin) Giveaway!  To win: ✔ Tag a friend ✔ Retweet ✔ Follow us Thats it! Good luck! 💖  Rolling in 36 hours!  #goodvibes #goodluck #giveaway #bitcoin #Giveaways  #cryptocurrency #eth #btc #BSC #TRON",332,0
1376428450785980417,"2021-03-29T06:58:10Z","8/x This star-studded raise included Three Arrows Capital and DeFiance Capital who initially were bullish ETH DeFi from the early days and their track record speaks for themselves. $SWTH $ATOM https://t.co/VNebvc7t99",75,2
1376428447321444354,"2021-03-29T06:58:09Z","#MXCExchange will list $TOWER and Launch the 43rd Session MX DeFi - Stake $USDT, $MX, $BTC, $ETH to Earn Yield $TOWER.  ▶️Follow @MXC_Exchange &amp; @TowerToken  ▶️Like, RT &amp; Tag 3 friends ▶️Comment  🏆10 ppl * 125 $TOWER  More info about the listing: https://t.co/VqsPboXOb5 https://t.co/6RZ4gmWYtY",998,2
1376428443701772298,"2021-03-29T06:58:08Z","4/x The dev community behind $ATOM reminds me a lot of $ETH and the feeling it had in it's early days. The amount of young, bright and hungry developers is innumerable and one thing you can't bet against, is legitimate talent.",2,0
1376428438492418048,"2021-03-29T06:58:07Z","1/x The Sleeping Giant  You've seen ETH, BSC but now it's $ATOM's turn to show you what it's made of.  https://t.co/I7W04WRiTx",9,2
1376428429675876363,"2021-03-29T06:58:05Z","⭐️2K FOLLOWER GIVEAWAY⭐️  👉Enter to WIN a CryptoKaren worth 0.1 ETH!  TO ENTER:  1.Follow Us (+1 pt) 2.Retweet (+1 pt) 3.Tag 3 Friends (+3 pts)  Contest enters TMRW 3/29 at 10am EST! 💖💋💁‍♀️  #nftart #nftcollector #nftcommunity #nfts #pixelart #cryptoart #digitalassets #eth https://t.co/Hx83ppBfn2",165,2
1376428416023592962,"2021-03-29T06:58:01Z","💥The initial $20K @AlunaSocial staking limit has now been lifted!  Steps: 1. Add Liquidity to #Uniswap $ALN / $ETH: https://t.co/wOdVPoO4ke  2. Stake your LP tokens on https://t.co/ht1Ju13l4y  💥Current APY: 224%  Details👉🏼https://t.co/mujqa823qa  https://t.co/acoggOsEAi  #DeFi https://t.co/frPqP99wfP",11,2
1376428409191030788,"2021-03-29T06:58:00Z","@melvinmaya @cypherchk @opensea NEW DROPS ALERT🚨  #014 already SOLD..   #012 #013 is available at #opensea with low prices https://t.co/5cwNZpADYk  #NFTCollectors #NFTs #crypto #cryptoart #nftart #nftdrop #nftcommunity #eth #pixelart #NFTartist #NFT  https://t.co/eEXN5YGTSE",4,1
1376428400097771521,"2021-03-29T06:57:58Z","You create experiences! “Echoes” for sale on  @withFND  https://t.co/w5WPBrW7Ny  #NFT #NFTs #NFTart #NFTcommunity #NFTcollectibles #NFTartists #ETH #Ethereum #artcollection #artistsoftwitter #art #artcollector #nftcollector #nftcollections #cryptoart #cryptocurrency #crypto https://t.co/pvdu0iLrqs",75,1
1376428399887970304,"2021-03-29T06:57:57Z","Eth scaling via Matic:  - Deploy on Matic - Users seed an account there with funds (initial and only barrier) - Ignore chain connection in your dapp, instead ask for signatures only. Those work cross-chain, carry no fees, and can be used to auth calls over on matic, relay calls",179,1
1376428366807461897,"2021-03-29T06:57:50Z","Welcome to massive Q DAO airdrop!   1. go now to telegram https://t.co/COyXgODY1z   2. Stay in telegram chat and wait announcement.  3. HOLD this gem until 10x   (soon - QDAO launch cross-chain for BSC, Polkadot and ETH)",4254,1
1376428364945182720,"2021-03-29T06:57:49Z","$sc will be listed on coinbase  in 3 weeks... our target 75-80, 115-125, 350,800  $btc $usdt $ada $xlm $xrp $link $power $btg $ltc $sc $trx $eth $doge",4,0
1376428362533593088,"2021-03-29T06:57:49Z","🎁Huge Giveaway!🎁  1x @PlasmaAIO beta key 1x @MooseAlertsCA Monthly 1x @TrinityProxies 1GB Resi 1x @SneakerPings Monthly 1x @studiobreit $100 ETH cash prize  🚨Rules🚨 -Follow all accounts✅ -Retweet🔁 -Tag a friend👥  Ends in 48 hours, good luck!🍀 https://t.co/RsyBvTzUU0",391,0
1376428362458001408,"2021-03-29T06:57:49Z","The DEX @FinanceChainge is set to launch on the @FUSIONProtocol network with over a million users on the protocols waitlist. This decentralized exchange aims to innovate on traditional models through leveraging the Fusion Network.  #BSC #BTC #ETH #BNB  https://t.co/xx55YiGfm3",21659,0
1376428361594114049,"2021-03-29T06:57:48Z","Join the @Holdefi community in HLD public sale!  #HLD #Holdefi #ETH #BSC #IDO #ICO 👇👇 https://t.co/riPRLflvwl",0,0
1376428357336887298,"2021-03-29T06:57:47Z","🎁Huge Giveaway!🎁  1x @PlasmaAIO beta key 1x @MooseAlertsCA Monthly 1x @TrinityProxies 1GB Resi 1x @SneakerPings Monthly 1x @studiobreit $100 ETH cash prize  🚨Rules🚨 -Follow all accounts✅ -Retweet🔁 -Tag a friend👥  Ends in 48 hours, good luck!🍀 https://t.co/RsyBvTzUU0",391,0
1376428356762181635,"2021-03-29T06:57:47Z","@N4V1111 @JeffKirdeikis @boxmining @M10Hafsa #1UP #ETH #UPTRENND  Wow😍 Happy to see it. .... go to the moon..... eagerly waiting for that 😍  @JeffKirdeikis  @M10Hafsa  @katyperry",1,0
1376428353830453248,"2021-03-29T06:57:47Z","🚨#NFTGiveaway🚨 I will giveaway 1 #NFT Lux Impression 1/1  Via @ghostmarketio  #ghostmarket   Follow-retweet-tag2 it will end in 36 hours👀❤️  https://t.co/gdoFrxXv2F #NFTart #artgiveaway #ETH https://t.co/GdrIP8nui9",135,0
1376428353318756352,"2021-03-29T06:57:46Z","Post your work here! Giving away Eth to the top 5 most liked and retweeted. Must follow, like, and RT.  #nft #nftart #nftartist #opensea #mintable #superrare #niftygateway #eth #ethereum #cryptoart #cryptoartist #nfts #nftcommunity #nftcollector #nftartists",111,0
1376428352995688450,"2021-03-29T06:57:46Z","💧Roku Network Airdrop 💧  🏆 Task:          ➕  15 ROK (~$5)  👨‍👩‍👧 Referral:   ➕  3 ROK (~$1)  🔛  Airdrop Link &amp; Information: https://t.co/YhvsOcfEbH  #cryptocurrency #Crypto #Bitcoin  #BSC #BinanceSmartChain #Ethereum #ETH #Airdrop #bounty #ROK #RokuCoin #RokuNetwork",3811,0
1376428351926063106,"2021-03-29T06:57:46Z","@ArjidB ith eth game aan",1,0
1376428343545896961,"2021-03-29T06:57:44Z","#MXCExchange will list $TOWER and Launch the 43rd Session MX DeFi - Stake $USDT, $MX, $BTC, $ETH to Earn Yield $TOWER.  ▶️Follow @MXC_Exchange &amp; @TowerToken  ▶️Like, RT &amp; Tag 3 friends ▶️Comment  🏆10 ppl * 125 $TOWER  More info about the listing: https://t.co/VqsPboXOb5 https://t.co/6RZ4gmWYtY",998,0
1376428331562770432,"2021-03-29T06:57:41Z","#MXCExchange will list $TOWER and Launch the 43rd Session MX DeFi - Stake $USDT, $MX, $BTC, $ETH to Earn Yield $TOWER.  ▶️Follow @MXC_Exchange &amp; @TowerToken  ▶️Like, RT &amp; Tag 3 friends ▶️Comment  🏆10 ppl * 125 $TOWER  More info about the listing: https://t.co/VqsPboXOb5 https://t.co/6RZ4gmWYtY",998,0
1376428306703118345,"2021-03-29T06:57:35Z","I'll send $300 in #ETH or #BTC to one person who retweets this and follows @bud_crypto. Must complete these tasks:  1 - Like/RT his pinned tweet  2 - Must RETWEET &amp; LIKE 4 of his tweets  Ends in 72 hours!",1206,0
1376428296536158211,"2021-03-29T06:57:33Z","RT @chainlinkace: 🏆Drop your $ETH address here🏆",937,0
1376428289720512513,"2021-03-29T06:57:31Z","@MackAttackXRP @attorneyjeremy Hey Mack,  Receive 1000 #PROPY Real Estate tokens for free just by creating an account with https://t.co/A7llZ8pDfL @Propy  https://t.co/Gq2ANP8O2y  #xrp #flr #propy #ada #vet #xdc #qnt #tel #pac #bitcoin #btc #eth #doge #ltc #bnb #dot #zap #hot #xrpcommunity #xrpamy https://t.co/PiPZ2XrePA",0,0
1376428268522455040,"2021-03-29T06:57:26Z","@StasSvetlov1 Then we need to start with a low price. What you think about 0,1 or 0,13 eth?  https://t.co/rVwbWc6z3n https://t.co/1dVaFA3v08",2,0
1376428261845184512,"2021-03-29T06:57:25Z","2 billion RougeCoin are officially locked for a year #teamlock #altcoin #lock #eth #xrge $XRGE #rougecoin #BTC #DeFi #uniswap #unicorn #microcaps @UNCX_token @Uniswap @TrustSwap",7,3
1376428254702227456,"2021-03-29T06:57:23Z","I just joined this $25k Crypto giveaway by @JRNYcrypto and @sparkpointio  Get daily entries to increase your chances of winning! 25 random winners of $1k each!  #Bitcoin #Crypto $BTC $ETH $SRK",0,3
1376428253859115009,"2021-03-29T06:57:23Z","#DeFi #BKC #eth2 #BucksCake  ANNOUNCEMENT!  Dear BucksCake's community members!  The exact date of BKC listing on Uniswap set for 04/20/2021!  2 days before it, the exact opening time of the trading pair BKC/ETH on Uniswap...  More at https://t.co/RQPMhjazG2 https://t.co/VjtBbXBA1t",2856,3
1376428245806149632,"2021-03-29T06:57:21Z","Phore holders get Graphene tokens for free!🚀  💸Get 10 $GFN for every 1 $PHR you hold*💸  ➡️➡️➡️ https://t.co/BnYkuvMvjq ⬅️⬅️⬅️   Don't have #Phore? Don't miss out!🤗  👇Watch the video below to find out how👇  #Bitcoin #Ethereum $BTC $ETH #Graphene $GFN #airdrop #cryptocurrency https://t.co/CXUBMdaIeI",78,3
1376428232690569219,"2021-03-29T06:57:18Z","Because CHUBBIE #0 is currently over 30ETH, we will giveaway CHUBBIES #5537 and #1963 (Both Shinies ~$1,500 each)   -to ONE person that retweets this tweet and follows!  Current bid: 69.69 ETH  CHUBBIE #0: https://t.co/NfK8fP1uZP https://t.co/DsIqf9abnz",613,3
1376428232661037061,"2021-03-29T06:57:18Z","Hello, Binance team its been almost 6 months our 104 ETH Got Stucked on Binance. we raised a ticket &amp; its still not solved. Resolve this issue asap Binance we are not hoping this act from such big exchange ticket number #4911702 @cz_binance @binance @BinanceHelpDesk @newsbtc",31,3
1376428225463611395,"2021-03-29T06:57:16Z","$BTC currently playing pump and dump.  Easy to see the pattern. 1.LONG at anything below $55.5k. 2.Take your profit at $55.5k.  Repeat the steps above.  $ETH $DOT $DOGE $ADA $XRP $ATOM $BNB $SUSHI $UNI #Bitcoin  #cryptocurrency",2,3
1376428205620404225,"2021-03-29T06:57:11Z","$BTC currently playing  Pump and Dump.  It is obvious to see the current pattern. 1.LONG at anything below $55.5k. 2.Take your profit at $55.5k.  Repeat the steps above.  $ETH $DOT $DOGE $ADA $XRP $ATOM $BNB $SUSHI $UNI #Bitcoin  #cryptocurrency",2,3
1376428179951341570,"2021-03-29T06:57:05Z","🚀 Pluto Coin  Airdrop 🚀 Rate: ⭐⭐⭐⭐ ⭐ 🎁 Reward:  8822 PLUT ($1500) 👫 Referral: 40.5 PLUT  ($7)  🤖Start Bot here   https://t.co/x5JZchojO8  ⛂ Join Telegram group and channel. ⛂ Follow twitter &amp; retweet  ⛂ Submit ETH address and details.",6005,3
1376428161093656577,"2021-03-29T06:57:01Z","🎁Huge Giveaway!🎁  1x @PlasmaAIO beta key 1x @MooseAlertsCA Monthly 1x @TrinityProxies 1GB Resi 1x @SneakerPings Monthly 1x @studiobreit $100 ETH cash prize  🚨Rules🚨 -Follow all accounts✅ -Retweet🔁 -Tag a friend👥  Ends in 48 hours, good luck!🍀 https://t.co/RsyBvTzUU0",391,3
1376428157461532672,"2021-03-29T06:57:00Z","@bignftcollector NEW DROPS ALERT🚨  #014 already SOLD..   #012 #013 is available at #opensea with low prices https://t.co/5cwNZpADYk  #NFTCollectors #NFTs #crypto #cryptoart #nftart #nftdrop #nftcommunity #eth #pixelart #NFTartist #NFT  https://t.co/eEXN5YGTSE",1,0
1376428153749536770,"2021-03-29T06:56:59Z","🎁Huge Giveaway!🎁  1x @PlasmaAIO beta key 1x @MooseAlertsCA Monthly 1x @TrinityProxies 1GB Resi 1x @SneakerPings Monthly 1x @studiobreit $100 ETH cash prize  🚨Rules🚨 -Follow all accounts✅ -Retweet🔁 -Tag a friend👥  Ends in 48 hours, good luck!🍀 https://t.co/RsyBvTzUU0",391,0
1376428148695445505,"2021-03-29T06:56:58Z","#MXCExchange will list $TOWER and Launch the 43rd Session MX DeFi - Stake $USDT, $MX, $BTC, $ETH to Earn Yield $TOWER.  ▶️Follow @MXC_Exchange &amp; @TowerToken  ▶️Like, RT &amp; Tag 3 friends ▶️Comment  🏆10 ppl * 125 $TOWER  More info about the listing: https://t.co/VqsPboXOb5 https://t.co/6RZ4gmWYtY",998,0
1376428145104986113,"2021-03-29T06:56:57Z","@elonmusk @tim_cook @Apple can I buy an iPhone with Bitcoin?  Thinking about to change my Samsung Galaxy to iPhone.  Please accept Bitcoin $BTC as a payment.   RT if you all agree this!  #iphone #Apple #Samsung  #cryptocurrencies $ETH",3,0
1376428143523717121,"2021-03-29T06:56:56Z","#MXCExchange will list $TOWER and Launch the 43rd Session MX DeFi - Stake $USDT, $MX, $BTC, $ETH to Earn Yield $TOWER.  ▶️Follow @MXC_Exchange &amp; @TowerToken  ▶️Like, RT &amp; Tag 3 friends ▶️Comment  🏆10 ppl * 125 $TOWER  More info about the listing: https://t.co/VqsPboXOb5 https://t.co/6RZ4gmWYtY",998,0
1376428134950596608,"2021-03-29T06:56:54Z","@nrherzog thx for the article! crypto and nft art don’t increase carbon emissions but unfortunately the money currency exchange does :/ (ETH and bitcoin) but i heard some systems are coming out so i hope this won’t b an environmental problem for long",0,0
1376428134577238023,"2021-03-29T06:56:54Z","Join the @Holdefi community in HLD public sale!  #HLD #Holdefi #ETH #BSC #IDO #ICO 👇👇 https://t.co/UM6KXPhell",0,0
