"ID","created_at","text","like_count","rt_count"
1376202407303086083,"2021-03-28T15:59:57Z","ETH Starts Recovery, Forms Strong Support Base Above $1580 CRYPTO CRYPTO NEWS - https://t.co/wQNveRdBpT https://t.co/uqizXc0jkn",0,0
1376202400051077121,"2021-03-28T15:59:55Z","I'm sharing my exact plan for $BTC, $ETH, $VET, $ADA, etc., in today's newsletter.   It'll be out later today.  Get access here:   https://t.co/dwkv0vxBU6",5770,0
1376202376500011011,"2021-03-28T15:59:49Z","I think these are going to bring some awesomeness in the coming weeks. By bag size:  $CELL $JUP $CUR $ROCKS $EBOX ... and some $ETH dust for transactions.   I also have my eye on $XCUR. App releasing in a few days. Just look at $SPI over past 10 days! 'nuffsaid! #lambosoon #CT",8,0
1376202374180524035,"2021-03-28T15:59:49Z","@PlungeFather @BitClout The true eth killer",1,0
1376202371601199104,"2021-03-28T15:59:48Z","🔄 Prices update in $USD (1 hour):  $BTC - 56374.5 $ (+1.02 %) $ETH - 1709.68 $ (+0.58 %) $DOT - 32.44 $   (+0.5 %) $ADA - 1.19 $    (+0.46 %)  #BTC #ETH #DOT #ADA #Crypto #Bitcoin",1,0
1376202359622225921,"2021-03-28T15:59:45Z","6) 📣 Version 3.1 is now LIVE  https://t.co/Ws3KaZF0dA is an all-in-one dapp serving up access to a broad range of #DeFi and #NFT marketplaces.  🔥 $Octo just keeps getting better:  - Nice NFT collection - Swap $ETH 👉 $BTC - Aggregator price updates - Plus loads more sources 💦 https://t.co/WkJFErREH8",43,0
1376202342899576835,"2021-03-28T15:59:41Z","Collected an edition of @prguitarman's Lucky Nyan Cat (Edition of 130) for 1.18 ETH (=$2024)!  Originally released to Eulerbeats Genesis LP 10 and 17 holders by @iamDCinvestor (great gift!) https://t.co/Jl2pOO8bKz",56,0
1376202329616093185,"2021-03-28T15:59:38Z","📢 NEW ART ALERT 📢  Minted my FIRST animated + multi edition on @rariblecom, only for 0.077 ETH.  7/7 EDITIONS.  👇🏼 https://t.co/rAZRxTRTdz https://t.co/pCjbs5XaOF",28,0
1376202308082675716,"2021-03-28T15:59:33Z","🆕Impossible Block #54 @opensea by @DrStizzlWizzl  📜Quantity: 1 of 1  #nft #nftart #NFTs #NFTCommunity #nftcollectors #nftcollector #NFTartist #NFTartists #Ethereum #NFTshare #cryptoart #cryptoartist #NFTdrop #opensea #NFTcollect #NFTinvestor $eth  https://t.co/3sr5GXBYBA",5,0
1376202269478240264,"2021-03-28T15:59:24Z","One of my first #NFT 2020 Survival guide resold on the secondary market for 1 eth!!! . I sold them for 0.007 eth!!! wow just wow!!! https://t.co/Naa22bLnO7",97,0
1376202266546421762,"2021-03-28T15:59:23Z","The mysterious pizza reaper is here again! Beware!  https://t.co/OhLdJtScvM  #NFT  #nftart #nftcollector #NFTartists #NFTCommunity #nftcollectors #NFTcollectibles #cryptoart #Cryptoartists #cryptoart #digitalart #ethereum #blockchain #cryptocurrency #crypto #nft #artwork #eth https://t.co/FzR6Trnf5Z",0,0
1376202243687342081,"2021-03-28T15:59:18Z","What cryptocurrency exchanges and wallets do you use and recommend? 🧐  Let us know below👇   $IGG #IGG #MATIC #ETH #BNB #BSC #altcoins #esports #gaming #cryptocurrencies #DeFi #NFTs",100,35
1376202241405751307,"2021-03-28T15:59:17Z","RT @MaffazO: I want to swap 22 BUSD to ETH  fee == 62 Eur  Wow!!  #Harmony $ONE https://t.co/PLFG6yEccF",22,35
1376202230441914376,"2021-03-28T15:59:14Z","In case you're wondering, this is the part in the cycle where $eth outperforms $btc.",2,0
1376202225521942530,"2021-03-28T15:59:13Z","@matterhorn_eth @AlbertoMelero @TimBeiko @ethereum He is just copying what other Cardano maxis are tweeting. He has no knowledge of the tech whatsoever 🤣🤣🤣. FOMO guy joining the bandwagon",2,0
1376202225471619078,"2021-03-28T15:59:13Z","🚨Hey guys, I'll have an announcement.  SEND YOUR #NFT I spend 2 Eth if i have 500 followers! I want to add pieces of talents to my collection.Could you please share your works? FOLLOW And RETWEET! #NFTcollectors #NFTs #NFTcommunity #nftart #DeFi #cryptoart #rarible #opensea #ETH",69,0
1376202216533590018,"2021-03-28T15:59:11Z","@dentcoin #DENT - The world’s first digital and global mobile operator. This video gives a quick overview and supports our growing partner activities around the world: https://t.co/JW6XcxM9RC #dentcoin #esim #worldwide #traveling #mobile #data #blockchain #eth #btc  #apple #iphone #android https://t.co/1BacAttsWk",3,2
1376202212775391234,"2021-03-28T15:59:10Z","@realmubaris eth 2.0 pos on Haskell 🔥",0,0
1376202207251607558,"2021-03-28T15:59:09Z","Turn on, Tune in, Drop out A Psychic Snail has been spotted slithering through @ergoplatformorg auction house 🐌🪐  👉https://t.co/1DuBcnBM4o No, it's not edible.  $ERG $ADA #nftart #NFTCommunity #nftcollectors #NFTs #NFTartists #NFTcollection #Cardano $ETH https://t.co/BRSO6U0kcp",10,0
1376202207234822145,"2021-03-28T15:59:09Z","I will say this as a contrarian:  not liking how consensus is April will be bullish and that $ETH is dead/dying/will continue to underperform.  Don’t get me wrong, I’m in both camps...and that’s the problem innit? $BTC $ETH",3,0
1376202203690598404,"2021-03-28T15:59:08Z","A lot of negative news yet $ETH isn’t moving.  Would love to see it go back into the 1500 range but as long as we don’t break 2000 before May I’ll be happy so I can buy before the pump",0,0
1376202203468328962,"2021-03-28T15:59:08Z","RT @ccfxstudios: Story time. #hex #btc #eth https://t.co/0lNVGz2zDj",65,0
1376202191921311747,"2021-03-28T15:59:05Z","✳️ @OBORTECHhub is a fully digital ecosystem for supply chain  ✳️ Early investors can purchase #OBOT token on @ProBit_Exchange  with a guaranteed 12% bonus for #PROB and 10% for #BTC, #ETH, #USDT, and #XRP token holders  📰 INFO https://t.co/mB2xmfKkmk #SCN1 https://t.co/l2mKBbnMgH",130,0
1376202187949240320,"2021-03-28T15:59:04Z","Don't miss out!!! Space PEECHES are the juiciest!!  $PEECH $POODL $DOGE $GRUMPY $HOGE $BTC $ETH  @cousincrypt0  @elonmusk https://t.co/F8o5gk74nF",15,0
1376202186863083520,"2021-03-28T15:59:04Z","@JohnnyfField I tend to use kraken and do a sepa transfer which costs €0.09 but there's obvs a fee to get into euros in the first place. Depends on the amount. I think trade fee from eth to eur would be about 0.25%",1,0
1376202179120402441,"2021-03-28T15:59:02Z","Sea Corgi is looking for a good home! He can be yours today for .03 ETH! https://t.co/0CqovGtgWR #NFTBlocklist #NFTcollectibles #nftart #NFTs #pixelart #NFTcommunity #CorgiNFT https://t.co/P9o4ssr3CS",3,0
1376202174666006534,"2021-03-28T15:59:01Z","$KICK - Invest $100 now will make you at least $500,000 dollars.   $VET $BTC $ETH $DOGE $XRP $TRX $IOST $XLM $LINK $LTC $TEL $BNB $ADA $UNI $REN $DOT $SUSHI $NFT $ENJ $LUNA $DENT $ATOM $MATIC $NEO $DASH $KCS $ANKR $SNX $RVN $THETA #ALTSEASON #ALTCOIN https://t.co/KzfqWi0s01",16,0
1376202172971458565,"2021-03-28T15:59:01Z","#Airdrop is live now Complete tasks to get an airdrop. #Airdrop worth 5000 #DEFI (~$50000 at current price)  🔹️Follow 🔹️Like, RT &amp; Tag 5 friends 🔹️Join https://t.co/cGXUyW3sNJ 🔹️Follow Like &amp; Share https://t.co/LX8VEkTyjY 🔹️Comment ETH address  #ETH #ICO #Ethereum #DeFi https://t.co/pwG9tSiJaO",959,0
1376202170681290755,"2021-03-28T15:59:00Z","🚀 Pluto Coin  Airdrop 🚀 Rate: ⭐⭐⭐⭐ ⭐ 🎁 Reward:  8822 PLUT ($1500) 👫 Referral: 40.5 PLUT  ($7)  🤖Start Bot here   https://t.co/x5JZchojO8  ⛂ Join Telegram group and channel. ⛂ Follow twitter &amp; retweet  ⛂ Submit ETH address and details.",6005,0
1376202164301873158,"2021-03-28T15:58:59Z","PRICE DROP  #NFTBlocklist #NFTcollectibles #opensea #rarible #mintable #NftShilling #NftShowroom #Nftshowcase #nftcollector #NFTart #NFTdrop #eth #NFTshill #authoritydata #nftelements #NFTCommunity #2020Metaverse #nftcollectors #NFTartist #NFT   https://t.co/HcwEuYLwy7",1,0
1376202163911811072,"2021-03-28T15:58:59Z","Top 10 coins by Social Engagement as of 9:02AM UTC Sun, Mar 28 on @LunarCRUSH:  $btc #bitcoin $eth #ethereum $klv #klever $doge #dogecoin $cake #pancakeswap $ada #cardano $rari #rarible $link #chainlink $ankr #ankr $chz #chiliz   https://t.co/RHfki49yBt https://t.co/XNfD8iGKGN",371,0
1376202161172910090,"2021-03-28T15:58:58Z","Okay crypto fam I'm considering splitting all my #ETH between #Polkadot and #ADA. Bad move or wise move?",0,0
1376202160145317890,"2021-03-28T15:58:58Z","Join the @Holdefi community in HLD public sale!  #HLD #Holdefi #ETH #BSC #IDO #ICO 👇👇 https://t.co/uZsF0Zm8IU",0,0
1376202157288996869,"2021-03-28T15:58:57Z","@matic_3d We just sold our first platypus and looking to share them with the #NFTCommunity! Would you like one? From .005 eth and supply capped at 324!  https://t.co/3ixQJImwAt",0,0
1376202145603670017,"2021-03-28T15:58:54Z","Is amazing to see how this project has been out since Dec 2020 and so far Liquidity Providers have earned about 6533.78 $ETH and that is the total value of $10.6 Million dollars. 💪  Also the APY doing 301.35% which is amazing.  #DeFi #UniSwap #BSC #SmartContract #Ethereum https://t.co/9a7rgyoMpE",2385,0
1376202141250027521,"2021-03-28T15:58:53Z","Just a lone Corgi, his bike and the comforting embrace of the night air...(slow outrun music plays in the background)...Take home Midnight Rider Corgi for just .05 ETH! https://t.co/eqPE0XkKVu #CorgiNFT #NFTArt #PixelArt #CryptoArt",3,0
1376202132832067588,"2021-03-28T15:58:51Z","I love eating: Junk food And love trading: $ETH $BTC $UNI $BNB $EMDC https://t.co/yZxECKspHo #LatokenApp #WeekendWithLATOKEN #Bitcoin #Cryptocurrency",1,0
1376202132723007496,"2021-03-28T15:58:51Z","When people collect a NFT from me, the feeling having the CryptoArt in someones wallet is much better then having the ETH from them in my wallet.  💜Do you also feel the same?💜  #NFTs",141,0
1376202124766322691,"2021-03-28T15:58:49Z","🏆 Follow us &amp; Retweet this tweet, Specify the ETH address in the tweet comment to get 10 #BIT ($10 worth) or 50 #BIT ($50 worth) #BitScores Airdrop Tokens! 🎁 $250,000 Prize Pool Full rules: https://t.co/N53M5nRXr9  #giveaway #airdrops #bounty #giveaways #defi #eth #btc #airdrop https://t.co/m77hDtRsBv",3577,0
1376202122606354432,"2021-03-28T15:58:49Z","Slow 99 | Normal 106 | Fast 113 | Instant 115 👈 current Ethereum gas prices in gwei. DM me a price and I will DM you as soon as gas drops below that price 👍 #Ethereum #GasPrice #ETHGasPrice #ETH",0,0
1376202118361542660,"2021-03-28T15:58:48Z","Excellent episode of from the @BanklessHQ team with @drakefjustin  about $ETH ultra sound money. I knew this one would be a good one so I waited for the weekend to watch it with some popcorn 🍿 Highly recommend  https://t.co/VJJAcECcxZ",29,0
1376202111151669254,"2021-03-28T15:58:46Z","New GIVEAWAY ! #Okcash $ok $BTC #ETH  “20” WINNERS 5 OK EACH. Valid until the next giveaway.  RULES:  1. Like and Retweet 2. Follow 3. Tag 3 friends 4. Post your Okcash address in answer to this tweet #Bitcoin  #Giveaway #cryptocurrency #Crypto #Sharing #EXCHANGE https://t.co/bpl7Ouy4oC",37,0
1376202103631314948,"2021-03-28T15:58:44Z","I want to swap 22 BUSD to ETH  fee == 62 Eur  Wow!!  #Harmony $ONE https://t.co/PLFG6yEccF",22,6
1376202102247202823,"2021-03-28T15:58:44Z","🎉 3D MASKS GIVEAWAY 🎉  Value: 0.8+ ETH  Complete the following steps for the chance to win a 1/1 #3dmasks   ✅ Follow @3DMasks_  ✅ Like &amp; Retweet ✅ Comment + tag 3 NFT buddies  The winner will be announced 10AM EST April 6th  #NFTCommunity #nftart #nftgiveaway #nftcollectors https://t.co/NdyOwjzD5Q",331,6
1376202100539973643,"2021-03-28T15:58:44Z","Win 1 NFT Hub Membership 🎁  Owners will be featured across our social media channels!   Price: 0.025 $ETH Quantity: 20  🌍 Share your $ETH address here 🌍 Follow us on #Rarible 🌍 RT &amp; ❤️   https://t.co/ZAyGMy84MA  #NFTgiveawat #NFTart #NFTCommunity #NFTs",431,6
1376202098769940488,"2021-03-28T15:58:43Z","I'll send $300 in #ETH or #BTC to one person who retweets this and follows @bud_crypto. Must complete these tasks:  1 - Like/RT his pinned tweet  2 - Must RETWEET &amp; LIKE 4 of his tweets  Ends in 72 hours!",1206,6
1376202096190480388,"2021-03-28T15:58:42Z","The DEX @FinanceChainge is set to launch on the @FUSIONProtocol network with over a million users on the protocols waitlist. This decentralized exchange aims to innovate on traditional models through leveraging the Fusion Network.  #BSC #BTC #ETH #BNB  https://t.co/xx55YiGfm3",21660,6
1376202089777532934,"2021-03-28T15:58:41Z","#BTC Price: $56067 #ETH Price: $1706 #LTC Price: $184  Next update in 10 minutes Last updated: 11:58:41.00",0,0
1376202086749106181,"2021-03-28T15:58:40Z","Lol #hex birthing millionaires. Do you wanna be a millionaire? #5555 #buyhex #bitcoin #eth #crypto #cryptocurrencies #wealth #finance #money #success https://t.co/aeS7pFvL20",11,0
1376202086270955521,"2021-03-28T15:58:40Z","RT IF YOU ARE HOLDING $FEG 🔥  LET'S SEE HOW MANY APES WE ARE 🦍  #FEG #FegEx #FEGarmy #Crypto #CryptoNews #bsc #ETH #Binance #PancakeSwap @FEGtoken https://t.co/EXwy2mWJar",503,0
1376202085545385988,"2021-03-28T15:58:40Z","Why is this project exciting? Today, all of crypto loans run on overcollateralization: you deposit 100 ETH in AAVE and borrow less than that. That's not how TradFi world of lending works: borrowers often take out loans for $0 collateral. They",0,0
1376202084320649220,"2021-03-28T15:58:40Z","New Airdrop: Diamond Crystal (DCT) Reward: 100 DCT ($100) Rate: ⭐️⭐️⭐️⭐️ Focus: Distribution starts after airdrop ends   Bot Airdrop Link: https://t.co/9Qzk47HUKt  #Airdrop #giveaway #BTC #ETH",4033,0
1376202082726768643,"2021-03-28T15:58:39Z","💧Roku Network Airdrop 💧  🏆 Task:          ➕  15 ROK (~$5)  👨‍👩‍👧 Referral:   ➕  3 ROK (~$1)  🔛  Airdrop Link &amp; Information: https://t.co/YhvsOcfEbH  #cryptocurrency #Crypto #Bitcoin  #BSC #BinanceSmartChain #Ethereum #ETH #Airdrop #bounty #ROK #RokuCoin #RokuNetwork",3813,0
1376202070651379719,"2021-03-28T15:58:36Z","I'll send $300 in #ETH or #BTC to one person who retweets this and follows @bud_crypto. Must complete these tasks:  1 - Like/RT his pinned tweet  2 - Must RETWEET &amp; LIKE 4 of his tweets  Ends in 72 hours!",1206,0
1376202054809616386,"2021-03-28T15:58:33Z","sold this today for .15 eth, only took 2 weeks on the secondary market. https://t.co/QOnJxtB4CV   while i liked it, the creator's erratic handling of price/editions isn't the type i want to collect from. to each their own, just offering my perspective.   #nftcollectors",4,0
1376202054561976321,"2021-03-28T15:58:33Z","Going up signal on a 1 hour chart! Price: \186383.0 (2021/03/29 00:56) #ETH #ethereum",0,0
1376202037461803011,"2021-03-28T15:58:28Z","As you see the price rise, remember that in a few months or weeks you'll look back on this period in $FEG's history and barely remember these tiny pumps.  As you click Collect Staking Rewards and withdraw your $ETH or $BNB to lay down the deposit on your new car, or house...",701,0
1376202034534248451,"2021-03-28T15:58:28Z","RT @chainlinkace: 🏆Drop your $ETH address here🏆",937,0
1376202032730800133,"2021-03-28T15:58:27Z","$KLV is now Top 3 coin by Social Engagements, with over 75 million engagements, and only $BTC &amp; $ETH ahead of #KLV!  Thank you for sharing the #klever vision of financial independence for all 🙏🏽 https://t.co/8M4aEksIHQ",664,0
1376202029866086401,"2021-03-28T15:58:27Z","@MartianCrypto Live image of me expecting ETH to continue pumping. https://t.co/TzKljQtePa",3,1
1376202029777969158,"2021-03-28T15:58:27Z","RT @CorgiNFT: Take home King Corgi today for only .03 ETH! https://t.co/1AkiZFSCul #CorgiNFT #NFTArt #PixelArt #CryptoArt",14,1
1376202024769875968,"2021-03-28T15:58:25Z","@binance Over 194%+ Profits from #Ethereum  signal within 3 hour's. you can check the time of signal entry post when it was shared and where the price reached after To verify yourself. telegram link: https://t.co/RCq20YN2Wz #ETH #Crypto #BTC #Bitcoin #cryptocurrency $BTC #Binance https://t.co/fFvuV3b2QU",0,0
1376202019849953282,"2021-03-28T15:58:24Z","$DYP liquidity providers earned 5,970.84 #ethereum worth $10,700,060 since launch!  Join one of their liquidity pools and earn up to 295.02% APY 💰  #defi #uniswap #eth https://t.co/lKbf20w2sm",1795,0
1376201994155737101,"2021-03-28T15:58:18Z","6) 📣 Version 3.1 is now LIVE  https://t.co/Ws3KaZF0dA is an all-in-one dapp serving up access to a broad range of #DeFi and #NFT marketplaces.  🔥 $Octo just keeps getting better:  - Nice NFT collection - Swap $ETH 👉 $BTC - Aggregator price updates - Plus loads more sources 💦 https://t.co/WkJFErREH8",43,0
1376201992398233606,"2021-03-28T15:58:18Z","#DeFi #BKC #eth2 #BucksCake  ANNOUNCEMENT!  Dear BucksCake's community members!  The exact date of BKC listing on Uniswap set for 04/20/2021!  2 days before it, the exact opening time of the trading pair BKC/ETH on Uniswap...  More at https://t.co/RQPMhjazG2 https://t.co/VjtBbXBA1t",2856,0
1376201987281154052,"2021-03-28T15:58:17Z","🤗 #XYM Lock &amp; Earn has launched at https://t.co/8kWqgEeplL @NEMofficial 🤗  💎Token: #XYM 💎Term: 7 days 💎Zero handling fee &amp; estimated annualized yield of 100%  👉Earn now: https://t.co/yAwwBIBTkA 👉Details: https://t.co/d1rkGcbUBU  #ALTSEASON #Altseason2021 #BTC #ETH https://t.co/OqLaEsRKWT",564,0
1376201971888054272,"2021-03-28T15:58:13Z","The good thing about @dypfinance Anti-Manipulation system is that it prevents the Liquidity providers to Sell $DYP instead they are earning $ETH as staking rewards 🧠  #DYP #ETH #Ethereum #SmartContract #DeFi https://t.co/yt6C9Vehln",1905,0
1376201969669316612,"2021-03-28T15:58:12Z","Morning frens♥️  Loaded up on some the following with $ETH recovering and alts still being on a low  $GNY at $1.27 $DEOR at 30c $JUP at 7c  They will be my new buying ranges if the market continues to move upwards / sideways  All of them showing over sold on RSI, and good entries https://t.co/VAfs8LwZsL",54,0
1376201968163508230,"2021-03-28T15:58:12Z","@CryptoDiffer @solana @HeyEdgeware @PhantasmaChain @ultra_io @oddz_finance @SwitcheoNetwork @StaterFinance @shyftnetwork @ankr @CelerNetwork Over 194%+ Profits from #Ethereum  signal within 3 hour's. you can check the time of signal entry post when it was shared and where the price reached after To verify yourself. telegram link: https://t.co/RCq20YN2Wz #ETH #Crypto #BTC #Bitcoin #cryptocurrency $BTC #Binance https://t.co/F13c3arJ1h",0,0
1376201964841697283,"2021-03-28T15:58:11Z","Join the @Holdefi community in HLD public sale!  #HLD #Holdefi #ETH #BSC #IDO #ICO 👇👇 https://t.co/WSwuO6xPWt",0,0
1376201958206345219,"2021-03-28T15:58:10Z","RT @CorgiNFT: Take home King Corgi today for only .03 ETH! https://t.co/1AkiZFSCul #CorgiNFT #NFTArt #PixelArt #CryptoArt",14,0
1376201955152850948,"2021-03-28T15:58:09Z","I'm giving away 100 $sxp in 3 days to a random person.   To qualify: like, retweet &amp; follow me.  $btc $eth $dot $matic $ada $link $sxp $trx $rsr $vet $reef $tvk $bnb $cake",335,0
1376201950526533636,"2021-03-28T15:58:08Z","Is amazing to see how this project has been out since Dec 2020 and so far Liquidity Providers have earned about 6533.78 $ETH and that is the total value of $10.6 Million dollars. 💪  Also the APY doing 301.35% which is amazing.  #DeFi #UniSwap #BSC #SmartContract #Ethereum https://t.co/9a7rgyoMpE",2385,0
1376201949209448451,"2021-03-28T15:58:07Z","🆕 NEW ATH FOR $FEG ‼️  🔹Join the community: @FEGtoken  #Crypto #CryptoNews #Cryptocurrency #DeFi #FEG #FEGarmy #FegEx #bsc #eth #Binance #Bitcoin https://t.co/tsvb5sw3ux",162,0
1376201947946999814,"2021-03-28T15:58:07Z","ive seen these 100 times so im tired of them, but if you haven't heard, or don't understand   Eth is money  eth is a triple point asset  or   Eth has the best community   you should follow @BanklessHQ , @ryansadams and @TrustlessState to get it - it's a pillar of DeFi https://t.co/Ng5ugl2Dv0",49,0
1376201944100921346,"2021-03-28T15:58:06Z","Still looking possible for $sol to touch $20 before eth hits 2K again..",0,0
1376201939298480129,"2021-03-28T15:58:05Z","RT @QuintenFrancois: This is why $ETH is here to stay... https://t.co/USHKA6o26A",2745,0
1376201926245818374,"2021-03-28T15:58:02Z","@Blockenomic @rBryer23 Where DeFi world can survive other than BSC? Can you please explain? You can only keep feeding the chain itself if you'd like to conduct those projects on ETH or other chains.",1,0
1376201915101409287,"2021-03-28T15:57:59Z","I'll send $300 in #ETH or #BTC to one person who retweets this and follows @bud_crypto. Must complete these tasks:  1 - Like/RT his pinned tweet  2 - Must RETWEET &amp; LIKE 4 of his tweets  Ends in 72 hours!",1206,0
1376201912370917377,"2021-03-28T15:57:59Z","Only few hours left until the « today we push » Binance +1000% Push!  Join the push: https://t.co/rdPOu1GwPJ https://t.co/vJ4VBqSokO  #Bitcoin #BTC #Crypto $Bitcoin #Bitcoin $ETH #ETH $Ethereum #Ethereum $BTC #BNB $BNB #Binance",1,0
1376201911565705216,"2021-03-28T15:57:58Z","Reserve for Breeze has been met by dodo on @makersplaceco!   https://t.co/Q3Wzbvm06a  24hr countdown is active and this piece has a Buy Now price of 2 ETH if you wanna snag it with no competition. Thanks for the support and good luck to all bidders! #nftart #NFTs #cryptoart https://t.co/l0ho5XzMJX",7,0
1376201901105061889,"2021-03-28T15:57:56Z","I'll send $300 in #ETH or #BTC to one person who retweets this and follows @bud_crypto. Must complete these tasks:  1 - Like/RT his pinned tweet  2 - Must RETWEET &amp; LIKE 4 of his tweets  Ends in 72 hours!",1206,0
1376201898328432641,"2021-03-28T15:57:55Z","@poplink16 Wow alwesome 😍 @MasterCard56  @nittalastri  @BitSincan   #POPO #ETH #BTC",0,0
1376201896504008707,"2021-03-28T15:57:55Z","Mohamed Ihattaren bought for 0.385 ETH (652.68$) by Nickodemus on the primary market   Season: 2020-2021 Level: 0 Serial: 42/100 Price: 652.68$  ⚽ Sorare: https://t.co/gt2p7nV0ON  📊: https://t.co/OA6MkSLLxM  #Sorare #NFT #Ethereum #FantasyFootball",0,0
1376201887196794883,"2021-03-28T15:57:53Z","@Ebunayo08 @ensdomains How much does it cost to get a .eth domain name.",0,0
1376201885741367300,"2021-03-28T15:57:52Z","Are you technology enthusiasts? Name a technology you think would change how things work.  Me: $Hive revolutionizing #socialmedia  #bitcoin #ETH #BSC",10,0
1376201882968981506,"2021-03-28T15:57:52Z","Claimable for 0 ETH !   #NFTCommunity #NFT #nftart   https://t.co/TOnxZtQKCt",0,0
1376201867353411584,"2021-03-28T15:57:48Z","Maybe you had noticed a little section on our NEW #ROADMAP hinting at a SURPRISE 🙊🙊  Well Fam, stay tuned and keep a VERY close eye on our socials over the next few days 🙊  AND.. Prepare for lift off! 🚀  $RFI #thefutureofFinance #DeFi #cryptocurrencies #ALTSEASON $ELE $ETH https://t.co/G2IXxxeIVp",53,0
1376201864799264772,"2021-03-28T15:57:47Z","ive seen these 100 times so im tired of them, but if you haven't heard, or don't understand   Eth is money  eth is a triple point asset  or   Eth has the best community   you should follow @BanklessHQ , @ryansadams and @TrustlessState to get it - it's a pillar of DeFi https://t.co/Ng5ugl2Dv0",49,0
1376201861217325060,"2021-03-28T15:57:46Z","I'll send $300 in #ETH or #BTC to one person who retweets this and follows @bud_crypto. Must complete these tasks:  1 - Like/RT his pinned tweet  2 - Must RETWEET &amp; LIKE 4 of his tweets  Ends in 72 hours!",1206,0
1376201857459122177,"2021-03-28T15:57:46Z","The good thing about @dypfinance Anti-Manipulation system is that it prevents the Liquidity providers to Sell $DYP instead they are earning $ETH as staking rewards 🧠  #DYP #ETH #Ethereum #SmartContract #DeFi https://t.co/yt6C9Vehln",1905,0
1376201856179859463,"2021-03-28T15:57:45Z","The offer came at the last second. And successfully sold at a price of 0.9185 ETH on @withFND ✨✨  This colector does not have a name or a Twitter account in his wallet. Whoever he is, thank you for collecting my work. see you in my next pencil drawing masterpiece 🙏 https://t.co/NUzNeCDPv9",10,2
1376201855164837890,"2021-03-28T15:57:45Z","RT @intocryptoverse: What would make a portfolio of $BTC $ETH $LINK $ADA and $DOT even better?",2195,2
1376201853629779975,"2021-03-28T15:57:45Z","Welcome to massive Q DAO airdrop!   1. go now to telegram https://t.co/COyXgODY1z   2. Stay in telegram chat and wait announcement.  3. HOLD this gem until 10x   (soon - QDAO launch cross-chain for BSC, Polkadot and ETH)",4254,2
1376201848906948618,"2021-03-28T15:57:44Z","The DEX @FinanceChainge is set to launch on the @FUSIONProtocol network with over a million users on the protocols waitlist. This decentralized exchange aims to innovate on traditional models through leveraging the Fusion Network.  #BSC #BTC #ETH #BNB  https://t.co/xx55YiGfm3",21660,2
1376201846474174465,"2021-03-28T15:57:43Z","I'll send $300 in #ETH or #BTC to one person who retweets this and follows @bud_crypto. Must complete these tasks:  1 - Like/RT his pinned tweet  2 - Must RETWEET &amp; LIKE 4 of his tweets  Ends in 72 hours!",1206,2
1376201845673132033,"2021-03-28T15:57:43Z","@AssetConductor I'm here shilling all my top performing #alts and #bitcoin !  #Bitcoin #crypto #DeFi #HODL #XRP #LINK $VGX $VET #XTZ #CEL #DOT #ETH #ADA #ARGO #STMX #ATOM #LUNA",1,0
1376201843865346049,"2021-03-28T15:57:42Z","RT @tokenstate: ETH at $10,000 really does look conservative when you consider the tsunamis coming this year. 👀 https://t.co/EWISGzNNqK",573,0
1376201832461082625,"2021-03-28T15:57:40Z","Blocking  Filter rule- scr add 200.0/24- out inter eth 1-content linux.org-drop Ip-web proxy- anonym - change webmaster-access- dst port 80- path *.mp3* - deny Nat- dstnat- 6tcp- port 80-redirect-to port 8080",0,0
1376201831395815428,"2021-03-28T15:57:39Z","I made a separate account, and a separate domain for my art related activity, so if you are interested in all the weird and disturbing stuff that comes out of my mind, i reccomend following @vozyako over here :)   #nfts #nftart #cryptoart #eth #ToTheMoon #c4d https://t.co/kTU3qWzdlc",5,0
