"ID","created_at","text","like_count","rt_count"
1375613536521555970,"2021-03-27T00:59:59Z","Perspective.  Global wealth is approx $400 trillion.  US wealth $140tr.  Crypto wealth is $1.5-2 tr.   so like 35-50bps.     This will grow to 1-2 percent in a year or two.  That’s 3-4 times.   Just musing.  $BTC $ETH $LUNA $GLXY.",1557,3
1375613529156280325,"2021-03-27T00:59:57Z","Rain on me  @opensea! #nft #opensea #NFT #NFTartist #NFTs #NFTcollection #nftart #nftcollectors #nftcollector #cryptoartist #cryptoart #NFTcollectibles #NFTartists #nftbuyers #NFTCommunity #ETH #ArtistOnTwitter #artwork https://t.co/2b1wopBhtb",1,0
1375613517009674240,"2021-03-27T00:59:54Z","For every bear that sells today/tonight, I will do a random #giveaway of one of my .03 ETH Bears remaining until their supply is depleted.  Winners will be selected from the Quote Re-tweeters in the #nft #giveaway thread below  https://t.co/mullzYvHVq  #cryptoart #nftgiveaway https://t.co/54QPKNdxZk",32,0
1375613513884868613,"2021-03-27T00:59:54Z","🏆 Follow us &amp; Retweet this tweet, Specify the ETH address in the tweet comment to get 10 #BIT ($10 worth) or 50 #BIT ($50 worth) #BitScores Airdrop Tokens! 🎁 $250,000 Prize Pool Full rules: https://t.co/N53M5nRXr9  #giveaway #airdrops #bounty #giveaways #defi #eth #btc #airdrop https://t.co/m77hDtRsBv",3577,0
1375613487762788358,"2021-03-27T00:59:47Z","@shitcoinsonly We are on our way to a new galaxy of financial freedom. Join us for the ride, it’s still early!!! https://t.co/MNiDGmDjX7  #safegalaxy #safemars #safestar #safemoon #doge #hoge #hogecoin  #btc   #LTC #HODL #ALTSEASON #ETH #CryptoNews #Binance   #BNB   #altcoins #crypto #DeFi DeFi",0,0
1375613487423053827,"2021-03-27T00:59:47Z","RT @MoonOverlord: Everyone crying about btc and eth  Meanwhile my #bsc coins on a mission to Jupiter",437,0
1375613467932123143,"2021-03-27T00:59:43Z","2/ 🎁 EXCLUSIVE GIVEAWAY!  @moonwolf_io are giving away FIVE RARE WOLF NFTs Genesis to five winners! 🔥  To win these NFTs: ✅ Drop your Eth addresses as a reply to this tweet ✅ Follow @moonwolf_io  Winners will be announced on @moonwolf_io’s account! Stay tuned!",327,0
1375613456800378881,"2021-03-27T00:59:40Z","@NFTs_Group I really want to get an airdrop too. @artoftheinfinte @BingSwap @JRodger1  ETH Wallet👇👇👇  0x6cbf246cbD54942bB9c08E0ae8e373F109919826",0,0
1375613441189183490,"2021-03-27T00:59:36Z","Welcome to massive Q DAO airdrop!   1. go now to telegram https://t.co/COyXgODY1z   2. Stay in telegram chat and wait announcement.  3. HOLD this gem until 10x   (soon - QDAO launch cross-chain for BSC, Polkadot and ETH)",4254,0
1375613432007950336,"2021-03-27T00:59:34Z","@TheUSASingers We are on our way to a new galaxy of financial freedom. Join us for the ride, it’s still early!!! https://t.co/MNiDGmDjX7  #safegalaxy #safemars #safestar #safemoon #doge #hoge #hogecoin  #btc   #LTC #HODL #ALTSEASON #ETH #CryptoNews #Binance   #BNB   #altcoins #crypto #DeFi DeFi",0,0
1375613413842378761,"2021-03-27T00:59:30Z","Fluttering fireflies @opensea! #nft #opensea #NFT #NFTartist #NFTs #NFTcollection #nftart #nftcollectors #nftcollector #cryptoartist #cryptoart #NFTcollectibles #NFTartists #nftbuyers #NFTCommunity #ETH #ArtistOnTwitter #artwork https://t.co/7hpbpgwb86",4,0
1375613410252103684,"2021-03-27T00:59:29Z","@NFT_Whisperer heyy!! my genesis is still available on zora for 0,5 eth  (sound on) https://t.co/QBukjdvojw",1,0
1375613386084483086,"2021-03-27T00:59:23Z","Are there any alternatives/ETH Networks other than Metamask?",0,0
1375613368938196992,"2021-03-27T00:59:19Z","#DeFi Earn now live on   https://t.co/vCNztABJoG   DeFi Wallet  📈  Earn interest without losing control of your crypto   💰 #COMP #DAI #ETH #USDC #USDT #BAT #UNI #WBTC &amp; #ZRX supported  ✅  No Minimum Term or Lock-Up 🚀  Receive The Best Return On Your DeFi Assets Now!",877,0
1375613367897980932,"2021-03-27T00:59:19Z","https://t.co/4sBcZN6q90 Chain is Now Live! $CRO   Check how this will impact you depending on where you are holding your ERC20 CRO and access our Token Migration Web Tool. #ETH #ERC20",4,0
1375613360130170881,"2021-03-27T00:59:17Z","@HodlBee $BTC $ETH $ADA $BNB $DOT $KSM $UNI $KAI $OXT $BTA $DMT $NBR $FOAM $ORBS $ERN $CONV $CAKE $OMI $LABS $EGLD $ORN ME : IDk ME at the same time wearing my favorite armor : I think is ZNN  https://t.co/ZDyH9mBbqd https://t.co/5ApCiqCkCd",2,0
1375613356061642756,"2021-03-27T00:59:16Z","@madmax239 @SEC_News @SenBooker @BillPascrell @SenatorMenendez @SEC_Enforcement @NewYork_SEC @TuckerCarlson @USAttorneys @FoxNews @BBCNorthAmerica @BBCWorld @POTUS @WhiteHouse @SenSherrodBrown When he declared ETH was not a security at the SEC in 2018, William Hinman was receiving a $1.6M/yr pension from Simpson Thatcher, a member of Ethereum Alliance.  A former SEC ethics lawyer called it a little unsettling. SEC is corrupt and should be stopped by White House.",3,0
1375613347639402501,"2021-03-27T00:59:14Z","The DEX @FinanceChainge is set to launch on the @FUSIONProtocol network with over a million users on the protocols waitlist. This decentralized exchange aims to innovate on traditional models through leveraging the Fusion Network.  #BSC #BTC #ETH #BNB  https://t.co/xx55YiGfm3",21660,0
1375613341423443968,"2021-03-27T00:59:12Z","$DYP liquidity providers earned 6,533.78 #Ethereum worth $10,616,674 since launch!  Earn up to 301.35% APY 💰  If you want to start earning #ETH you just need to join one of our liquidity pools: DYP-ETH, DYP-WBTC, DYP-USDC, and DYP-USDT https://t.co/zxyI0V2tnr  #DeFi #Uniswap https://t.co/acaV7p6h3G",406,0
1375613336759504900,"2021-03-27T00:59:11Z","https://t.co/4sBcZN6q90 Chain is Now Live! $CRO   Check how this will impact you depending on where you are holding your ERC20 CRO and access our Token Migration Web Tool. #ETH #ERC20",4,0
1375613329058770945,"2021-03-27T00:59:09Z","RT @intocryptoverse: $BTC and $ETH are cooking",2181,0
1375613314043047937,"2021-03-27T00:59:06Z","$FET sellers you stupid!  $FET = $10!  $btc $eth $link $ankr $ast $mir $luna $trac $tone $idex $uni $xiot $wabi $storj $chz $theta https://t.co/xdSWhLuEeW",8,0
1375613310666608642,"2021-03-27T00:59:05Z","@KennethBosak I really want to get an airdrop too. @artoftheinfinte @BingSwap @JRodger1  ETH Wallet👇👇👇  0x6cbf246cbD54942bB9c08E0ae8e373F109919826",1,0
1375613296494006277,"2021-03-27T00:59:02Z","Is amazing to see how this project has been out since Dec 2020 and so far Liquidity Providers have earned about 6533.78 $ETH and that is the total value of $10.6 Million dollars. 💪  Also the APY doing 301.35% which is amazing.  #DeFi #UniSwap #BSC #SmartContract #Ethereum https://t.co/9a7rgyoMpE",2385,0
1375613273471655936,"2021-03-27T00:58:56Z","Hi, how's your trade going?   I've had enough of these damn bot Twitter accounts with spam emails.   I'm doing great sitting on many different stacks btw.   #BTC #ETH $Link $RARI $NFY   $NFTs are #Defi",41,0
1375613270426447876,"2021-03-27T00:58:55Z","I'll send $500 in #ETH or #BTC to one person who retweets this and follows @bud_crypto. Must complete these tasks:  1 - Like/RT his pinned tweet  2 - Must RETWEET &amp; LIKE 4 of his tweets  Ends in 72 hours!",1406,0
1375613252902641665,"2021-03-27T00:58:51Z","@CryptoNymph I did Eth to Dai first - then dai to OHM",1,0
1375613251094974467,"2021-03-27T00:58:51Z","My most traded crypto on @latokens is: ETH https://t.co/G1KFpoAf1w #LatokenApp #LATOKEN",0,0
1375613244610609152,"2021-03-27T00:58:49Z","📡 🤑 Signal for $BAT/ETH on #Binance Buy volume: +70.65 ETH Price: +0.73% (0.00062500 ETH) Last 1h: bought 76.24 ETH, sold 5.75 ETH Last 24h: bought 125.67 ETH, sold 148.97 ETH Last 7d: bought 1.1K ETH, sold 1.3K ETH https://t.co/4hdvpn58ga",0,0
1375613241162747905,"2021-03-27T00:58:49Z","dropped the reserve down for “an exercise in finding myself again”. both of these beauties are going for 0.25 ETH now.  if any collector out there is into retro brainfuckery, be sure to check these out! https://t.co/AzJdOpvohu",5,0
1375613235064406019,"2021-03-27T00:58:47Z","Welcome to massive Q DAO airdrop!   1. go now to telegram https://t.co/COyXgODY1z   2. Stay in telegram chat and wait announcement.  3. HOLD this gem until 10x   (soon - QDAO launch cross-chain for BSC, Polkadot and ETH)",4254,0
1375613214520659969,"2021-03-27T00:58:42Z","$ETH at downtrend line now   Would like to see it close above $1650 on the daily to move into 17xx   For tomorrow's lows 1640's https://t.co/OHEHceitvv",116,0
1375613204190089216,"2021-03-27T00:58:40Z","@NonagonP Done ETH ADDRESS 0x20f682b16E037F4FED28FDDADE9f40c7b1c0fE33",0,0
1375613200297775109,"2021-03-27T00:58:39Z","@ThusiastNf @No_Name_NFT Fishie #074 has been Minted on the #ETH #Blockchain &amp; released into the @OpenSea  Price:  Ξ0.061  Total Supply: 788  https://t.co/g7bB3KNwYN  #nftcollector #NFT #NFTs #crypto #pixelart #NFTcommunity #NFTart #NFTartist   Let's go Fishin' for #Fishies! 🐠🐟      🎉    🚀💯 https://t.co/XMTHLT6xV9",5,0
1375613180257374210,"2021-03-27T00:58:34Z","$50 GIVEAWAY 💸  I'll give $50 to one person. Must retweet this tweet and retweet &amp; like the quoted tweet below 👇 (no need to post proof here or there!)  Ends in 24 hours! #giveaways #cryptocurrencies #btc #eth #defi https://t.co/ZBvNkhsVqr",32,0
1375613153778794500,"2021-03-27T00:58:28Z","Thank you so much for this opportunity, you guys have touch alot of lives with your contribution to the crypto community. Good luck to everyone. And still healthy. ETH地址：0xcD53b493E6dB34c8578B942E00096a766bD36b2D https://t.co/ctkwmLNg2Y",0,0
1375613151056703501,"2021-03-27T00:58:27Z","@madmax239 @SEC_News @SenBooker @BillPascrell @SenatorMenendez @NewYork_SEC @TuckerCarlson @USAttorneys @FoxNews @BBCNorthAmerica @BBCWorld @SenSherrodBrown When he declared ETH was not a security at the SEC in 2018, William Hinman was receiving a $1.6M/yr pension from Simpson Thatcher, a member of Ethereum Alliance.  A former SEC ethics lawyer called the payments a little unsettling. SEC is corrupt!",4,0
1375613149135704068,"2021-03-27T00:58:27Z","@nftbuyer Check the (Crypto)Platypus! All under 0.3 ETH! Also got some ETH-everywhere casual hand drawings.  https://t.co/gfMOwZg2XN",0,0
1375613131116974086,"2021-03-27T00:58:22Z","@comradesquirrel @PoorlyAgedStuff one transaction of etherium uses as much energy as the american house uses in 2.15 days and makes as much CO2 as watching youtube for 5000 hours  Since etherium is the backbone of NFTs, this is an issue",373,0
1375613120702337028,"2021-03-27T00:58:20Z","RT @rektcapital: Can you believe $ETH was at $89 a year ago?  #Ethereum",2719,0
1375613118517276677,"2021-03-27T00:58:19Z","Decided to drop M̗̽i̪̝̥̹͂̔̐̚l̳̟̘̦̻͋̂͌͝͠k̜̻̤̠̇͐͒͋͑͟ ̤͙͕̖͂̿̑͡Witc̣͙̘̒̒̓̌͜ḧ̙̥́̌ on @withFND   .mobƨiw niɒϱ oɟ ɘmuƨnoƆ .noivilbo otni deruoved eb ot emusnoC  0.666 ETH for the Old Ones  Summon Here  https://t.co/pbEgwSaF83 https://t.co/5kBuIwH2Sb",83,0
1375613115463786498,"2021-03-27T00:58:19Z","@TrustWalletApp Buying $1k btc $800 eth $200 klv $200 Free $600 ltc $200 bnb",0,0
1375613113177755651,"2021-03-27T00:58:18Z","$DYP liquidity providers earned 6,533.78 #Ethereum worth $10,616,674 since launch!  Earn up to 301.35% APY 💰  If you want to start earning #ETH you just need to join one of our liquidity pools: DYP-ETH, DYP-WBTC, DYP-USDC, and DYP-USDT https://t.co/zxyI0V2tnr  #DeFi #Uniswap https://t.co/acaV7p6h3G",406,0
1375613111588229122,"2021-03-27T00:58:18Z","I still think it's funny this is crypto portfolio since I'm a #Bitcoin maxi. BUT I do own a small amount of ETH. I'm only holding in case I want a dope NFT. This portfolio was down 7.08% this week. https://t.co/xLN1K2ULs8",0,0
1375613094009860100,"2021-03-27T00:58:13Z","One of my Ai HODL Bitcoin NFT artworks, Mosaic version, has just been closed for auction. One person bought it at 2 ETH. Big kiss for him! Other Love version and Splash version have been bid at 4 ETH and 2 ETH, respectively. These auctions will end soon. Bid now!",379,0
1375613085881278465,"2021-03-27T00:58:11Z","@NFTs_Group I really want to get an airdrop too. @artoftheinfinte @BingSwap @JRodger1  ETH Wallet👇👇👇  0x6cbf246cbD54942bB9c08E0ae8e373F109919826",0,0
1375613058400333824,"2021-03-27T00:58:05Z","ETH IS SOUND MONEY  LIKE IF YOU AGREE",7,0
1375613057095766016,"2021-03-27T00:58:05Z","@mathMakesArt So nice man thanks ! That’s what make #tezos $XTZ different . We are all about fun &amp; sharing !! We are not the elites in $ETH we are the people just having passion ! Keep it up !!!#CleanNFT #nftcollector",10,0
1375613055141285889,"2021-03-27T00:58:04Z","The $CELL / @cellframenet team quickly demonstrating that they're serious about building a robust ecosystem.  A $10 Million Cellframe Ecosystem Fund will be used to acquire the work of other teams on $ETH, $DOT, $FTM, $SOL, &amp; $ATOM.  Don't sell early again anon, not this time. https://t.co/fZIg7RYs7s https://t.co/V6bNDnLrol",128,0
1375613051244662784,"2021-03-27T00:58:03Z","🐬Dabbing Dolphin🐬Report  This week 3/27/21: +302,383 HEX interest💰($4,656 USD)💰  Total: 56,015,533 HEX  $HEX #HEX  DYOR at https://t.co/b2kDW5zwTH, stake your own💰💰  HEX will soon fork from $ETH. Get some HEX before the fork!  $BTC #Bitcoin #Ethereum $ADA $DOT $BNB $XRP https://t.co/AnS9JrPzwR",25,0
1375613049919447040,"2021-03-27T00:58:03Z","@madmax239 @SEC_News @Ripple @SenBooker @BillPascrell @SenatorMenendez @USAttorneys @SenSherrodBrown When he declared ETH was not a security at the SEC in 2018, William Hinman was receiving a $1.6M/yr pension from Simpson Thatcher, a member of Ethereum Alliance.  A former SEC ethics lawyer called the payments a little unsettling.Make statement that XRP is not security, simple.",0,0
1375613045326643207,"2021-03-27T00:58:02Z","BTC has done an impressive 56.7B worth of volume in the last 24 hours, bringing BTC's market cap to $1.031 Billion dollars. Keep watch of the charts to see where this rally will bring us!  Make sure to check the BTC giveaway in our feed! #Cryptocracy #BTC #crypto #giveaway #ETH https://t.co/MUtZEqu5ou",2,0
1375613030570979330,"2021-03-27T00:57:58Z","This is the way...to good times! Catch me @opensea #themandolorian #starwars #starwarsfan #8bit #nft #nftart #nfts #nftartist #nftcollector #nftcommunity #crypto #cryptocurrency #cryptopunks #cryptoart #cryptonews $btc $eth $doge https://t.co/ARrfwdmNba",4,0
1375613026099994635,"2021-03-27T00:57:57Z","RT @PennyMcStacks: Show me your NFT art or collections! 🌈  Woke up late, but I'm ready to buy a bunch for my collection! 🚀  #NFTs #NFT #NFT…",292,0
1375613023692410883,"2021-03-27T00:57:57Z","CryptoWorm #0069 is now minted on the ETH blockchain via #opensea 💛💚  PRICE:  Ξ0.01  TOTAL SUPPLY: 1000  #cryptopunks #CryptoPunk #NFT   https://t.co/U0KdZoFxpG",3,0
1375613014917926913,"2021-03-27T00:57:55Z","SELL $ETH  SELL $BTC   ITS OVEEEER 🏂🏂🏂🏂",0,0
1375613011772182528,"2021-03-27T00:57:54Z","Anatomical Blues   up on my Opensea   @opensea   #opensea #cryptoart  #nft #nftart #NFTCommunity #nftcollectors #NFTartist #ETH #cryptoartist   https://t.co/hSZGvOG4dA https://t.co/XAXstGJSLa",128,0
1375613002829987840,"2021-03-27T00:57:52Z","$BTC under $60k is a steal  $ETH under $2k is a steal  $DOT under $40 is a steal  $LINK under $30 is a steal  $VET under $0.10 is a steal  $MATIC under $0.40 is a steal  -&gt; in a few years, we'll look back at current prices and be happy we were invested below those prices.",1798,0
1375612992168022016,"2021-03-27T00:57:49Z","@McJuggerNuggets $Hoge to the Moon Build Long Term Wealth Not Get Rich Quick Schemes  $BTC 12 yrs old  $LTC 10 yrs old $DOGE 8 yrs old $LINK 8 yrs old $ETH 6 yrs old $HOGE 2 months old  $HOGE is NOW for YOUR FUTURE. It's like DOGE but DeFi! https://t.co/jOtSRcS1fx &lt;-- How to buy",46,17
1375612983053705217,"2021-03-27T00:57:47Z","Great announcement the other day regarding @morpheuslabs_io &amp; @0Chain new partnership. Together will form a high-performance decentralized storage network designed to prevent censorship, privacy liability and data breach. #BULLISH on $Mitx 🔥  #BTC #eth #Defi #crypto #blockchain https://t.co/eyiz8GmA9w",50,17
1375612976758067202,"2021-03-27T00:57:45Z","$BTC: $9,272.84 (772.74%) $ETH: $11,862.76 (988.56%) $ADA: $42,041.86 (3,503.49%) $BNB: $19,332.61 (1,611.05%) $DOGE: $33,396.62 (2,783.05%) $LINK: $10,414.08 (867.84%) $TRX: $6,284.17 (523.68%) $XRP: $3,582.33 (298.53%)  #bitcoin #doge #cardano #ethereum #bnb",0,17
1375612975072043012,"2021-03-27T00:57:45Z","@Maikkel1R We are on our way to a new galaxy of financial freedom. Join us for the ride, it’s still early!!! https://t.co/MNiDGmDjX7  #safegalaxy #safemars #safestar #safemoon #doge #hoge #hogecoin  #btc   #LTC #HODL #ALTSEASON #ETH #CryptoNews #Binance   #BNB   #altcoins #crypto #DeFi DeFi",0,0
1375612974262591490,"2021-03-27T00:57:45Z","MACD Trends:  Upward Trends: #XRP #TRX  Downward Trends: #BTC #ADA #LTC #NEO #XLM #ETH #HBAR #ALGO #DASH #LINK  00:57:44 • 03-27-2021 UTC #cryptoldeaMACD",0,0
1375612962799460352,"2021-03-27T00:57:42Z","Welcome to massive Q DAO airdrop!   1. go now to telegram https://t.co/COyXgODY1z   2. Stay in telegram chat and wait announcement.  3. HOLD this gem until 10x   (soon - QDAO launch cross-chain for BSC, Polkadot and ETH)",4254,0
1375612961901977605,"2021-03-27T00:57:42Z","🔥 $LUNA mcap triples in one month  🔥 $UST mcap exceeds $1b &amp; rising  🔥 $MIR surpasses $1b in TVL  🔥 $ANC launches with Fixed 20% APR  🔥 $LUNA community pool burned  🔥 $100m+ deposits in $ANC  🔥 Pay With Terra API payments gateway created  That's just March ✅  $BTC $ETH https://t.co/SoFjdJ7CKM",313,76
1375612949868523526,"2021-03-27T00:57:39Z","BUY REAL ART https://t.co/p5OBuT7fqj  #NFT #BITCOIN #ETH",0,0
1375612943006597121,"2021-03-27T00:57:37Z","@DefizeProtocol Done ETH ADDRESS 0x20f682b16E037F4FED28FDDADE9f40c7b1c0fE33",0,0
1375612937033805826,"2021-03-27T00:57:36Z","@11Cart_com literally go look and see what they are doing in the real world. they are already doing what everyone else thinks they might be able to do someday. hbar will grow when it wants. It will grow despite the crypto market, not because of it.4x as many daily transactions as Eth already",0,0
1375612935666499587,"2021-03-27T00:57:36Z","Welcome to massive Q DAO airdrop!   1. go now to telegram https://t.co/COyXgODY1z   2. Stay in telegram chat and wait announcement.  3. HOLD this gem until 10x   (soon - QDAO launch cross-chain for BSC, Polkadot and ETH)",4254,0
1375612934873874434,"2021-03-27T00:57:35Z","#BTC Price: $54833 #ETH Price: $1701 #LTC Price: $182  Next update in 10 minutes Last updated: 20:57:35.07",0,0
1375612924039819267,"2021-03-27T00:57:33Z","@NFTs_Group @CryptoNwiz  @Khriskycrypto_  @smailhehe  My eth address: 0x0a54fD74AA72ae93F785fD8D5F67F269f75C4AEc thank you very much，thank you NFTs Group",0,0
1375612907275354113,"2021-03-27T00:57:29Z","Oakland A's Will Accept Bitcoin for Tickets - Bloomberg https://t.co/oekeRo2HS2 #BlockchainNews #ETH #BTC #XRP #CryptoNews #CryptoCurrency #QASH #Ethereum #BLockchain #BitcoinNews #Cryptocurrencynews #BCH",0,0
1375612904527908864,"2021-03-27T00:57:28Z","RT @beautyofhelin: 2017 HODLers ➰ New Investors 😬😂  It's been a wild ride 🎢  #Bitcoin $Btc $Eth #Crypto #Defi #HODL https://t.co/vaHzpVqFsO",5198,0
1375612897137545218,"2021-03-27T00:57:26Z","RT @intocryptoverse: $BTC and $ETH are cooking",2181,0
1375612886861635590,"2021-03-27T00:57:24Z","@NFTs_Group @CryptoNwiz  @Khriskycrypto_  @smailhehe  My eth address: 0x0a54fD74AA72ae93F785fD8D5F67F269f75C4AEc thank you very much，thank you NFTs Group！",0,0
1375612877755719680,"2021-03-27T00:57:22Z","$BNB: 200EMA (4h) tapped on the BTC pair, I'm still bullish on this one. As long as ETH gas prices are still high, this and all the BNB swaps should do well in the future. Consolidating now and waiting. #Binance #BNB https://t.co/sRK5eqo2xp",31,0
1375612872684888070,"2021-03-27T00:57:21Z","We eat, so you should eat too!   💲50 usd of ETH to one person in 15mins  To enter Retweet this and tag a friend who knows the power of #NFT!   Must be following us to win  #Crypto  #Giveaway starts now ⚔️",12,0
1375612867773259777,"2021-03-27T00:57:19Z","The DEX @FinanceChainge is set to launch on the @FUSIONProtocol network with over a million users on the protocols waitlist. This decentralized exchange aims to innovate on traditional models through leveraging the Fusion Network.  #BSC #BTC #ETH #BNB  https://t.co/xx55YiGfm3",21660,0
1375612865239937024,"2021-03-27T00:57:19Z","@PancakeSwap @SwitcheoNetwork I bought into swth after comparing them with snx and Uma. The 2 are only supporting btc/Eth but swth is side chain supporting Neo/swth/bsc/Eth/btc/zil(next) and the pioneer in polynetwork. Plus all trading fee go to staker and lp. Snx = 2b, swth = 100m. You think about it, gem !",22,8
1375612861574225928,"2021-03-27T00:57:18Z","$ETH  If the daily candle closes above 2k, it will easily cross 2500$ mark. Keep an eye on it.  Checkout the link in bio for crypto signals  #cryptocurrency $LSK $NPXS #bitcoin $OCN $HT 91946 https://t.co/Rc8bAfbHJW",0,8
1375612837201076227,"2021-03-27T00:57:12Z","This is why I always try and buy the dip. Red days are the only days I buy, Don’t chase green candles. #btc #ada #bnb #eth #xlm #dogecoin #ltc https://t.co/dGeoEsV1MT",30,2
1375612829181562886,"2021-03-27T00:57:10Z","My Crypto Strategy on ICONOMI just outperformed BTC. Check it out here: https://t.co/ddRICrX6ml #cryptonews #cryptocurrency #money #eth https://t.co/0g0kOAlmgs",0,0
1375612824802652163,"2021-03-27T00:57:09Z","🏆 Follow us &amp; Retweet this tweet, Specify the ETH address in the tweet comment to get 10 #BIT ($10 worth) or 50 #BIT ($50 worth) #BitScores Airdrop Tokens! 🎁 $250,000 Prize Pool Full rules: https://t.co/N53M5nRXr9  #giveaway #airdrops #bounty #giveaways #defi #eth #btc #airdrop https://t.co/m77hDtRsBv",3577,0
1375612807425691651,"2021-03-27T00:57:05Z","@HeinousNfts @NakoBaev I have nothing with u personally, i actually think ur work is nice! I just had enough of all this lies circulating around.. with people spending their ETH on Artists, when they had no buy, or some not even sell..",0,0
1375612799599054848,"2021-03-27T00:57:03Z","Fluttering fireflies @opensea! #nft #opensea #NFT #NFTartist #NFTs #NFTcollection #nftart #nftcollectors #nftcollector #cryptoartist #cryptoart #NFTcollectibles #NFTartists #nftbuyers #NFTCommunity #ETH #ArtistOnTwitter #artwork https://t.co/7hpbpgwb86",4,1
1375612797195841538,"2021-03-27T00:57:03Z","🚀23 Danaë🚀 SOLD for 2.3625 ETH on OpenSea! Great buy but they would have been better waiting for the @jurassicasylum drop  Check out the transaction: https://t.co/YNrAJGSV7o #JurassicAsylum #NFT #NFTartist #cryptoart #NFTCommunity https://t.co/5vdEOikMoW",0,0
1375612789755105282,"2021-03-27T00:57:01Z","🔥 New #NFTs art available on @rariblecom 🔥  Diamond Hands  #Ethereum #ETH  #NFT   Discover it here 👇 https://t.co/Ur901dKF9k https://t.co/doGogXRdVq",69,0
1375612787532177414,"2021-03-27T00:57:00Z","@NFTs_Group @CryptoNwiz  @Khriskycrypto_  @smailhehe  My eth address: 0x0a54fD74AA72ae93F785fD8D5F67F269f75C4AEc thank you very much，thank you NFTs Group！",0,0
1375612780146012163,"2021-03-27T00:56:59Z","Order successful!  LAND Coordinates: [-63, -108] Price: 6,300 $MANA ($5,605.7 USD = 3.3460 $ETH)  Purchased by https://t.co/mM4BnGjYxX from https://t.co/q6wvxgmE7T  https://t.co/D23kSAAjLW #decentraland #land #parcel #estate #mana https://t.co/VI7ACoE1fI",1,0
1375612778195525634,"2021-03-27T00:56:58Z","@dixon_eth Weed is good for the soul. Thank you for remaining me to get high",0,0
1375612773011492865,"2021-03-27T00:56:57Z","💫New Drop💫 Time Is Fluid *01 by Dario De Siena  1/4 Available for 0.8 ETH  Now on @opensea   @GabrielJWeis @nft_papi @saintjohncrypto @eddiegangland @aylaelmoussa @JackieZhangNM @Guido_Corleone @Stretta_4U @cpike992 @beats_wtf  #nfts #nft #nftcolector   https://t.co/RLw81WW8CM",77,0
1375612735422140417,"2021-03-27T00:56:48Z","#altcoins Cryptocurrencies Dont buy until btc goes sub 2k  #ETH - 0x3BC690c604d170BB53c155cb66074B4DE1172C36",0,0
1375612732251152386,"2021-03-27T00:56:47Z","@ThusiastNf @No_Name_NFT Fishie #074 has been Minted on the #ETH #Blockchain &amp; released into the @OpenSea  Price:  Ξ0.061  Total Supply: 788  https://t.co/g7bB3KNwYN  #nftcollector #NFT #NFTs #crypto #pixelart #NFTcommunity #NFTart #NFTartist   Let's go Fishin' for #Fishies! 🐠🐟      🎉    🚀💯 https://t.co/XMTHLT6xV9",5,0
1375612731949154306,"2021-03-27T00:56:47Z","RT @cryptunez: the slower $ETH pumps, the longer the bull market lasts.",1521,0
1375612686369746945,"2021-03-27T00:56:36Z","The DEX @FinanceChainge is set to launch on the @FUSIONProtocol network with over a million users on the protocols waitlist. This decentralized exchange aims to innovate on traditional models through leveraging the Fusion Network.  #BSC #BTC #ETH #BNB  https://t.co/xx55YiGfm3",21660,0
1375612683995729922,"2021-03-27T00:56:36Z","Punk 3421 bought for 18.2 ETH ($31,195.16 USD) by 0x899241 from 0x553721. https://t.co/h142IopK5E #cryptopunks #ethereum https://t.co/KVeqlWom8w",2,0
1375612681961496583,"2021-03-27T00:56:35Z","$ETH  If the daily candle closes above 2k, it will easily cross 2500$ mark. Keep an eye on it.  Checkout the link in bio for crypto signals  #cryptocurrency $LSK $NPXS #bitcoin $OCN $HT 91946 https://t.co/Rc8bAfbHJW",0,1
1375612675447607296,"2021-03-27T00:56:34Z","Aircoins (AIRx) now available on #CoinMarketCap  https://t.co/yq9NxjFWiS  To celebrate we are giving away $200 in #ETH and $200 In #BNB   To enter contest tag #BSC and #CMC   Two lucky winners will be selected March 28th 9am EST. #AIRx is both on #BSC &amp; #ETH networks!🎉🥳📸📱🥂💥 https://t.co/k1ytohl9Fa",479,1
1375612672570494979,"2021-03-27T00:56:33Z","Perspective.  Global wealth is approx $400 trillion.  US wealth $140tr.  Crypto wealth is $1.5-2 tr.   so like 35-50bps.     This will grow to 1-2 percent in a year or two.  That’s 3-4 times.   Just musing.  $BTC $ETH $LUNA $GLXY.",1557,1
1375612666211893248,"2021-03-27T00:56:31Z","$CHR $OXT $VTHO $LTC $DOGE $BTC $ETH https://t.co/4AZxwsZ47b",1,0
