"ID","created_at","text","like_count","rt_count"
1377870911244627969,"2021-04-02T06:29:59Z","Cliq DAO Airdrop Officially Launched Fill this Form https://t.co/AFdBErdRVn to Get 500 CLQ Tokens Worth $50 USD  Don't Miss this chance  Token Distribution April 2021 Month End. #BSC $BNB $ETH $BTC  #Bitcoin #BinanceSmartChain #BNB #cryptocurrency #crypto #NFTs #Airdrops #Airdrop https://t.co/8whsgLzhEl",530,426
1377870903468560386,"2021-04-02T06:29:57Z","The unfortunate conflict in Tigray is the making of #TerroristTplf. It attacked the #Divisions of N. Command of Ethiopia. It attacked #Eritrea to externalize the war in #HOA. It killed Eritreans. No benefit #EU sanctioning #Eritrea @StateDept @POTUS @SecBlinken #UnityForEthiopia",15,14
1377870896413601792,"2021-04-02T06:29:55Z","🔸 New Listing🔸   #BKEX will list #DRYCAKE @DryCakeSwap🚀 🚀  - Trading pair: DRYCAKE/USDT - Trading time: 20:00 on Mar 29 (UTC+8)  🔹 🔹 More details: https://t.co/kC2IIebfTT  #Bitcoin #ETH #BKK #Blockchain https://t.co/w8CHyKXaUD",2450,3534
1377870890495528965,"2021-04-02T06:29:54Z","What do $SWTH holders do everyday?   They claim FREE  $BTC $ETH $USDC $BUSD $CEL $NEO $NEX and many other coins  Simply by staking $SWTH on #Demex previously #switcheonetwork  And earn huge APY% on Liquidity Pools 🤑🤑😍🤑🤑 https://t.co/o5i0VXRl1p",87,10
1377870886502592512,"2021-04-02T06:29:53Z","To those who think warmer temperatures and more CO2 is good for plants:  Climate change slowed global agricultural productivity growth by ~21% since 1961. That is equivalent of losing about seven years of farm productivity.  https://t.co/RlLAQZ9ci9",220,111
1377870880588525574,"2021-04-02T06:29:52Z","RT @NFTsShoutout: I have 1 ETH to giveaway to enter just RT this and follow me. I’ll pick one of you tomorrow.",614,749
1377870854789459969,"2021-04-02T06:29:46Z","#EU and #US must help with the elections in Ethiopia. They must stop the hate speech by #TPLF and #OLF terrorists. Then everybody benefits with prosperous and stable #Ethiopia. @POTUS @KamalaHarris @SecBlinken @ChrisCoonsCMUNC @SenToddYoung @ChrisVanHolen #UnityForEthiopia",11,10
1377870853338112001,"2021-04-02T06:29:45Z","If #BTC breaks $69,420 in APRIL 2021 I’ll give a random person my R8  Super SIMPLE: Like ✔️ RT ✔️ Follow ✔️ @JBTheCryptoKing  Drop eth addy ✔️ https://t.co/0ZTkU9CUuI",7875,3934
1377870848304947201,"2021-04-02T06:29:44Z","(Crypto Tech Special)  Bitcoin (BTC), Litecoin (LTC), Ethereum (ETH) Outlook: Resistance in Focus after Bounces  #Bitcoin #Litecoin #Ethereum $BTCUSD $LTCUSD $ETHUSD   https://t.co/2f3fTMqIOA https://t.co/WY4e6w4nyz",13,7
1377870847365500930,"2021-04-02T06:29:44Z","$ETH            vs         $2,000     ( •_•)                            ( ง )=o                      (x_x )     /︶\                                _/￣|__",5098,613
1377870845134172162,"2021-04-02T06:29:43Z","$ETH            vs         $2,000     ( •_•)                          (•_• )     ( ง )ง                          ୧( ୧ )    /︶\                              /︶\",12645,1704
1377870829057363970,"2021-04-02T06:29:39Z","RT @tomuky: 🎯 $ETH to $5,000 within 50 days https://t.co/4aUmHx1OZS",1742,225
1377870822132510723,"2021-04-02T06:29:38Z","RT @JustinBennettFX: $ETH highest ever close yesterday. Now back to $2,000. 👀  $2,500+ in April.",395,28
1377870821125931009,"2021-04-02T06:29:38Z","@kero1998 $KDA has huge potential: Kadenas Chainweb design for its scalable Proof-of-Work blockchain is unique. Offering low fees, easy to deploy smart contracts with human readable smart contract language PACT, enabling interoperability to $luna, $atom or $dot &amp; bridging to $eth https://t.co/6cvcUScKzU",2,0
1377870817434890240,"2021-04-02T06:29:37Z","@launchzoneann @CryptoChelsxxc @bsc_daily @binance @Xpoolofficial @binancian $ZDCash connects the world #Crypto. At #LaunchZone, there are more options for mining liquidity. Even if you only have $BTC, $ETH, $BNB, or stablecoins, you can easily profit from #LaunchPoolX. #launchzoneann #BSCXHeroes #LaunchZonePooIX $BNB $BSCX $ZSEED $ZD $TOOLS $ZDcash $ZLP",0,0
1377870814935195654,"2021-04-02T06:29:36Z","#EU and #US must support the Africa solution for GERD. @POTUS @KamalaHarris @SecBlinken @ChrisCoonsCMUNC @SenToddYoung @RonWyden @ChrisVanHolen @Timkaine @SenMarkey @CoryBooker @SenatorLeahy @BernieSanders @RepSaraJacobs @RepCicilline #UnityForEthiopia",11,10
1377870814352007177,"2021-04-02T06:29:36Z","RT @econoar: Front page of CNBC right now. @mcuban knows ETH is money. https://t.co/FMrBKDuExc",2088,348
1377870810573107210,"2021-04-02T06:29:35Z","RT @JRNYcrypto: $60k #Bitcoin and $2k $ETH 👀",1935,149
1377870809499308036,"2021-04-02T06:29:35Z","$TRX what a beautiful chart❤  it is the wrong time to be a #BTC, #ETH, #ADA, #Link or #BNB maxi  #TRON #TronNetwork #Tronfoundation   $BTT $SUN $KLV $JUST $STEEM $WIN https://t.co/kj1VFtSLzA",170,35
1377870797243568135,"2021-04-02T06:29:32Z","DCT TOKEN Airdrop Medium Star Claim 1 DCT ($ 100) + 0.045 DCT ($ 10) for each referral you make.   Steps  💎  Join channel and group  💎  Follow twitter, like and retweet pinned message   💎  Submit eth wallet address (ERC-20) Participate now Airdrop link: https://t.co/L24stp8tVI https://t.co/CVYQyLAWwU",8623,8871
1377870793942650881,"2021-04-02T06:29:31Z","@OlusesanPeter I buy and sell all sort of cryptos, bitcoin, etherium and all gifts cards such as Walmart, iTunes, amazon and any other type you can think of. I'm just a DM away very fast payment available.",0,0
1377870774694912001,"2021-04-02T06:29:26Z","There is a key bullish trend line forming with support near $1,945 on the hourly chart of #ETH/USD.  A successful close above the $2,000 level could open the doors for a massive increase in the coming sessions. Ether price could easily rise towards the $2,080 and $2,100 levels. https://t.co/IGhhKQaZYf",11,6
1377870771511525377,"2021-04-02T06:29:26Z","#Humanitarian agencies are more in the news and rumor mills than helping in the humanitarian assistance. 70% of the humanitarian aid is done by #Ethiopia even when #TPLF is cutting telephone cables in Tigray. @POTUS @KamalaHarris @SecBlinken @ChrisCoonsCMUNC #UnityForEthiopia",12,12
1377870769615691776,"2021-04-02T06:29:25Z","RT @NFTsShoutout: I have 1 ETH to giveaway to enter just RT this and follow me. I’ll pick one of you tomorrow.",614,749
1377870734123540481,"2021-04-02T06:29:17Z","Don't forget vote $DJV at https://t.co/MX7nj3ffqD.. Thanks for participate... Best regard @NANDODEJAVE  @Crex_24 See our project https://t.co/mU4uOxbJyl https://t.co/lSqqcgasEs  #DJV #VEX #CREX #LISTING #BTC #ETH #TRX #doge #CryptoNews #Crypto #NFT #cryptocurrencies #Airdrop https://t.co/GpKk1Lg4pB",9,7
1377870727446061057,"2021-04-02T06:29:15Z","500,000,000 SAFE BLUE MOON #AirDrop   First 500 people  🌕FLOW @safebluemoon  🌕RETWEET  🌕TAG 3 Friends 🌕Join us https://t.co/a7nRTdwNlS 🌕 Fill The Form https://t.co/sCVvLPP7Ih  #Airdrop #airdropalert #Airdrops #SAFEMOON #bsc #btc #bnb #eth #dot #cryptocurrencies #ToTheMoon https://t.co/DLTpF75hky",327,280
1377870713177190402,"2021-04-02T06:29:12Z","If #BTC breaks $69,420 in APRIL 2021 I’ll give a random person my R8  Super SIMPLE: Like ✔️ RT ✔️ Follow ✔️ @JBTheCryptoKing  Drop eth addy ✔️ https://t.co/0ZTkU9CUuI",7875,3934
1377870706554339328,"2021-04-02T06:29:10Z","Have fun staying poor  $ETH $AVAX $WAN $LINK $UNI https://t.co/HJbS0DPYDU",1,0
1377870702741708802,"2021-04-02T06:29:09Z","#Sentivate will melt faces with their 700+% faster #UniversalWeb. No #Web3 bullshit.  $sntvt $btc $eth $ada $link $egld $bnb $avax $doge $xrp $hbar $uni $aave $yfi #BTC #BinanceSmartChain #Binance #NFTs #DeFi #cryptocurrencies #BSC #dApps #GamingNews   https://t.co/rvf6TjZBa0",2,0
1377870691220000770,"2021-04-02T06:29:07Z","Eth at $2000 and counting 😉",3,1
1377870690951565312,"2021-04-02T06:29:06Z","$Kin just bought a few mil more.  Loading up for the run up.  Might be this week   #DeFi #btc  #bitcoin #solana #bch #usd #xrp #eth #price #crypto #ltc #fintech #blockchain #buythedip",19,6
1377870684047691778,"2021-04-02T06:29:05Z","RT @LilMoonLambo: BREAKING: Coinbase is expected to go public on April 14th   Are you guys ready for $BTC and $ETH all time highs? https://…",2748,503
1377870682894241792,"2021-04-02T06:29:05Z","$KIN is up 8,074% in the last 12 months! And is still at a $500 million market cap. Roughly a third from ATH, and far from where it should be given @Kin_Ecosystem's growth potential. I dare say $15 billion before the end of 2021. #cryptocurrency #blockchain @solana  $BTC $ETH https://t.co/IP5ojvdxuH",56,15
1377870680239259650,"2021-04-02T06:29:04Z","ETH hits 2k and Coinbase goes down. Coincidence? I think not",0,0
1377870671838056451,"2021-04-02T06:29:02Z","Amb. Linda Thomas- Greenfield, speak the truth worthy of the US chair. Disguised #TPLF terrorists were shooting at ENDF, the #humanitarian drivers were encouraging this madness. @USAmbUN @POTUS @KamalaHarris @SecBlinken @ChrisCoonsCMUNC @StateDept #UnityForEthiopia",11,12
1377870665869488128,"2021-04-02T06:29:00Z","New dev developing a phase2 of $kimchi DAO New website ✅ New twitter ✅ New discord ✅ @dao_kimchi @kimchi_finance $feg $shib $BTC $ETH $BNB $EOS $ONT $PPT $WTC $DLT $LRC $BNT $MDA $YOYO $TNB $NULS $ELF $ZRX $feg $umb $husky $eld  $BN $EOS $EVX $GXS $GTO $QSP https://t.co/evqfntzCbN",5,0
1377870660643352580,"2021-04-02T06:28:59Z","There is a key bullish trend line forming with support near $1,945 on the hourly chart of #ETH/USD.  A successful close above the $2,000 level could open the doors for a massive increase in the coming sessions. Ether price could easily rise towards the $2,080 and $2,100 levels. https://t.co/IGhhKQaZYf",11,6
1377870638493265928,"2021-04-02T06:28:54Z","🔔Poll Finance Token Sale - Softcap is now live! Get +20% more tokens as an early participation bonus!  Get your tokens immediately upon sending ETH to the contract.  🔹Send ETH to : 0x67ad111e81408fc444b6a15bd4ffa40c6e919b65  Etherscan : https://t.co/s9GOTZ4E96  $POLL $DEFI https://t.co/H86T6dLHgj",1452,1205
1377870607996514309,"2021-04-02T06:28:47Z","RT @PeterLBrandt: There is no better day of the year to announce that I am going 10X my entire net worth into $ETH https://t.co/E3SSVQxDvE",1519,115
1377870607728181253,"2021-04-02T06:28:47Z","🎉The circulation of #ETH on #TRON(#ETHTRON) reached 60,000.  💁‍♂️#ETHTRON is a #TRC20 token based on TRON which injects #Ethereum’s value to the TRON network. Its advantages lie in reliability&amp; efficiency. Easy conversion of Ethereum into TRC20 assets with guaranteed acceptance. https://t.co/Ba8NZboKJa",3337,1524
1377870606981419015,"2021-04-02T06:28:46Z","💧Twinci Airdrop 💧  🏆 Task:          ➕ $15 worth of  TRX                              ➕ $50 worth of TWIN  🔛 Airdrop Link &amp; Information: https://t.co/aV7t49dRDX  #cryptocurrency #Crypto #Bitcoin #Ethereum #ETH #Twinci #TWIN",1336,1777
1377870605517742084,"2021-04-02T06:28:46Z","Do you want to know how to create PERSONAL VERIFIED US PayPal account from Nigeria, receive funds globally with Instant withdrawal through Crypto (BTC, ETH...)?   Click the link https://t.co/kKCeDsb4Bi to know how #GoodFriday #cryptocurrency #BinanceSmartChain #Gtbank",0,0
1377870603785543682,"2021-04-02T06:28:46Z","|￣￣￣￣￣￣￣￣￣￣￣￣￣|    $ETH is almost $2000 again |＿＿＿＿＿＿＿＿＿＿＿＿＿|                      (\__/)  ||                      (•ㅅ•) ||                      / 　 づ",6,0
1377870601478672384,"2021-04-02T06:28:45Z","$10,000 $ETH is not my blow off top scenario number, that is my healthy, not overly exuberant number.  At $10k, $ETH is still worth less than Apple or Microsoft.  Call me crazy but I think a blow off top puts $ETH at a much higher market cap than a single stock. Maybe 20-30k.",609,61
1377870601466097665,"2021-04-02T06:28:45Z","Amb. Linda Thomas-Greenfield, the #TPLF mercenaries were also cutting cables &amp; looting medicines agitated by Alula Solomon in DC. Know thy fact. Take a refresher in diplomacy. @USAmbUN @POTUS @KamalaHarris @SecBlinken @ChrisCoonsCMUNC @StateDept #UnityForEthiopia",14,15
1377870593207508993,"2021-04-02T06:28:43Z","@100trillionUSD @maison_d_ami I buy and sell all sort of cryptos, bitcoin, etherium and all gifts cards such as Walmart, iTunes, amazon and any other type you can think of. I'm just a DM away very fast payment available.",0,0
1377870577189421056,"2021-04-02T06:28:39Z","If #BTC breaks $69,420 in APRIL 2021 I’ll give a random person my R8  Super SIMPLE: Like ✔️ RT ✔️ Follow ✔️ @JBTheCryptoKing  Drop eth addy ✔️ https://t.co/0ZTkU9CUuI",7875,3934
1377870565336317953,"2021-04-02T06:28:37Z","@SquawkCNBC Former SEC chief Joseph Grundfest at one point believed #BTC was a security. But Notice how Clayton volunteered that #Bitcoin  was decided not to be a security “before my time at the SEC”.  Sounds like Clayton is being a bit defensive. What about #ETH?",268,44
1377870560340762631,"2021-04-02T06:28:35Z","💧Twinci Airdrop 💧  🏆 Task:          ➕ $15 worth of  TRX                              ➕ $50 worth of TWIN  🔛 Airdrop Link &amp; Information: https://t.co/aV7t49dRDX  #cryptocurrency #Crypto #Bitcoin #Ethereum #ETH #Twinci #TWIN",1336,1777
1377870556280721411,"2021-04-02T06:28:34Z","Former US SEC Chairman Jay Clayton said that Bitcoin has for a long time not been a security  His comments come as #Ripple urges the SEC to examine $BTC and #ETH in its defense of #XRP https://t.co/2hldukPD7t",58,8
1377870555483869187,"2021-04-02T06:28:34Z","Humanitarian agencies on the ground are using aid as a weapon. Purposely help TPLF fugitives! America should know better the fact that humanitarian agencies are infiltrated by #terrorist TPLF. #UnityForEthiopia @Refugees @UNSCouncil @MSF @StateDept",12,13
1377870539944038402,"2021-04-02T06:28:30Z","To those who think warmer temperatures and more CO2 is good for plants:  Climate change slowed global agricultural productivity growth by ~21% since 1961. That is equivalent of losing about seven years of farm productivity.  https://t.co/RlLAQZ9ci9",220,111
1377870536785588224,"2021-04-02T06:28:30Z","If #BTC breaks $69,420 in APRIL 2021 I’ll give a random person my R8  Super SIMPLE: Like ✔️ RT ✔️ Follow ✔️ @JBTheCryptoKing  Drop eth addy ✔️ https://t.co/0ZTkU9CUuI",7875,3934
1377870528770285570,"2021-04-02T06:28:28Z","RT @whale_alert: 5,000 #ETH (9,963,438 USD) transferred from unknown wallet to #RenrenBit  https://t.co/hYXuDcyfi6",37,3
1377870527273000960,"2021-04-02T06:28:27Z","Meet the Quarks, a sub-atomic particle that serves as the building blocks for the Atoms you've seen before. check them out on @rariblecom   &lt;void&gt; is 2/2 priced at 0.2 ETH all others are 5/5 and priced at 0.1 ETH!  https://t.co/KOXa48rh9C https://t.co/kSJCYeXhi0",29,16
1377870523439280128,"2021-04-02T06:28:27Z","Criptoro is already present. M.E Universe as a HUB exchange platform for trading and arbitration crypto is ready to use. https://t.co/0OmqqF6q5w  #fintech #blockchain #trading #arbitrage #arbitration #crypto #criptomonedas #ctro #criptoro #criptorocoin #btc #eth #usdt https://t.co/co405KCMDA",107,42
1377870521614929921,"2021-04-02T06:28:26Z","Glad to announce that @BitKeepOS  reached a strategic Partnership with @JustLiquidity @JulSwap .  Julswap is the first @BinanceChain  Dex fully integrated and deployed in Bitkeep Wallet.  User can now trade,track,favorite Julswap pairs.  #julswap #juld #julb #bnb #BSC #btc #eth https://t.co/nvEpaZd4tn",1298,816
1377870516392976385,"2021-04-02T06:28:25Z","#Egyptians and the #Sudanese scientists have proven that #GERD has no disadvantage to both countries. @joebiden @KamalaHarris @SecBlinken @StateDept @RepKarenBass @CoryBooker @SenRubioPress @RepMalinowski @SenatorRisch @ChrisVanHollen #UnityForEthiopia #SupportEthiopia",10,10
1377870515143127040,"2021-04-02T06:28:25Z","TOP GAINERS #BTC - #ETH 🥇 $DOGE +36% 🥈 $WSBC +33% 🥉 $GEMX +20%  TOP TRADERS $ETH 1⃣ $DYT 2⃣ $XLR 3⃣ $TAU 4⃣ $RUNES  TOP TRADERS $BTC 1⃣ $ETJ 2⃣ $DOGE 3⃣ $BAN 4⃣ $XLR  🪂 5000 $XLR #Solaris #Airdrop  🏆 Coin of the month: #DYT  Go to https://t.co/9U6MeKGWf6 &amp; trade! https://t.co/wqXAtbMusQ",9,4
1377870505680588802,"2021-04-02T06:28:22Z","@saf_coin Succes new project!! My Eth wallet 0x8E8d5c1ad7983F9967B49aCCB7cbdAcd08150d57",0,0
1377870501691920391,"2021-04-02T06:28:21Z","@sonoferix @CoinbasePro It’s making me want to transfer my ETH to BTC, the guy hyped me up haha",1,0
1377870489423597568,"2021-04-02T06:28:18Z","@cz_binance I expect a new ATH of #bnb every time the ETH chain gets congested... So, basically, once a week",9,1
1377870488341516294,"2021-04-02T06:28:18Z","5,000 #ETH (9,963,438 USD) transferred from unknown wallet to #RenrenBit  https://t.co/hYXuDcyfi6",37,3
1377870479676035072,"2021-04-02T06:28:16Z","💧Twinci Airdrop 💧  🏆 Task:          ➕ $15 worth of  TRX                              ➕ $50 worth of TWIN  🔛 Airdrop Link &amp; Information: https://t.co/aV7t49dRDX  #cryptocurrency #Crypto #Bitcoin #Ethereum #ETH #Twinci #TWIN",1336,1777
1377870476488376324,"2021-04-02T06:28:15Z","@APompliano I buy and sell all sort of cryptos, bitcoin, etherium and all gifts cards such as Walmart, iTunes, amazon and any other type you can think of. I'm just a DM away very fast payment available.",0,0
1377870469446074372,"2021-04-02T06:28:14Z","@ITSHAPP34565334 @CryptoMedic4 @Cryptopko on ubikiri, on your ETH wallet, click the arrow to the right of the copy button this should take  you to https://t.co/DRYVHaKbVc then you can see if there are any ethereum transactions for the ethereum address of your ETH wallet https://t.co/DwDldVstEJ",1,0
1377870469152509957,"2021-04-02T06:28:14Z","#Eritrean and #Ethiopian people have a bright future. Soon they #liberalize trade and build their #economies. @joebiden @KamalaHarris @SecBlinken @StateDept @RepKarenBass @CoryBooker @SenRubioPress @RepMalinowski @SenatorRisch @ChrisVanHollen #UnityForEthiopia #SupportEthiopia",14,16
1377870464236843008,"2021-04-02T06:28:12Z","RT @jackbutcher: Reply🪙 &amp; RT to scratch.  (Winner will need an ETH wallet) https://t.co/A47BDcJpVd",651,836
1377870454082437122,"2021-04-02T06:28:10Z","If #BTC breaks $69,420 in APRIL 2021 I’ll give a random person my R8  Super SIMPLE: Like ✔️ RT ✔️ Follow ✔️ @JBTheCryptoKing  Drop eth addy ✔️ https://t.co/0ZTkU9CUuI",7875,3934
1377870442300596224,"2021-04-02T06:28:07Z","@keystonecollege Plan to study for masters in Spain, and one thing that you will … https://t.co/D4RcIsJCGe #Scholarships #Students #freestudy",0,0
1377870425162706944,"2021-04-02T06:28:03Z","@_shyone I buy and sell all sort of cryptos, bitcoin, etherium and all gifts cards such as Walmart, iTunes, amazon and any other type you can think of. I'm just a DM away very fast payment available.",0,0
1377870421333315585,"2021-04-02T06:28:02Z","The #Miacadra genocide that was committed by the TPLF '#Samri' brigade cannot be hidden from the #international community, by deep fake videos, fake news stamp, and synthetic media of the #TPLF Cadres. @joebiden @KamalaHarris @SecBlinken #UnityForEthiopia #SupportEthiopia",22,22
1377870404396662784,"2021-04-02T06:27:58Z","@Binance_Turkish Shdcash , etherium , pnetwork",0,0
1377870394678386690,"2021-04-02T06:27:56Z","Open source code is meant for everyone to contribute and improve it. The code is important. But, the most important is how to use it to build your own business that works.  #BSC works, and #ETH doesn’t. #fact https://t.co/zh8fxj3lAg",36,17
1377870390933000192,"2021-04-02T06:27:55Z","Ⓜ️ Win Unique #NFTⓂ️  🎯 Register👉 https://t.co/IEckR49FYj  🔹 Enter Your BEP20 BSC Address 🔹 Enter Your Email  1. Retweet + Like #CTBot Adrop Ram 3 TRX 90 #eth #bnb #bsc #DeFi #nftart #NFTGiveaway #NFTCommunity #NFTartists #NFTs #NFTcollectibles #free #Airdrop #btc #altcoins https://t.co/N6bcD0m8ho",87,85
1377870388953243650,"2021-04-02T06:27:54Z","Twitter &amp; TG giveaway campaign! To celebrate the opening of new round of Sketchbox, RT &amp; join TG(https://t.co/vy5ZhiZfy7).  1 Winner will get 100$ worth of $PURPLE  New Sketch round begin at 9AM UTC today Reward Pool  0.25 ETH X4ppl (1%)  1 DOT X 30ppl (5%)  1 PLT X 100ppl (15%) https://t.co/I6sMkaLj0v",72,81
1377870370351505408,"2021-04-02T06:27:50Z","It is the 10,000 #notorious criminals who were intentionally released from the Tigray #prison by the #TPLF, who created the #humanitarian crisis in the #Tigray region. @joebiden @KamalaHarris @SecBlinken @RepKarenBass @USAmbUN @ChrisCoonsCMUNC #UnityForEthiopia #SupportEthiopia",19,17
1377870361182674947,"2021-04-02T06:27:48Z","Current #SwipeSwap Liquidity Provider APY rates:  On #BSC: 104% $SXP-#BUSD  65% $SXP-#BNB  91% $SXP-#BTC  21% $USDT-#BUSD  95% $BTC-#BNB  87% $XVS-#BNB 74% $BNB-#BUSD 116% $BNB-#VAI 77% $ETH-#BNB 161% $DOT-#BNB 91% $ADA-#BNB 187% $TWT-#BNB  Get started 👉 https://t.co/i2uw3BGQZQ",645,117
1377870344900370435,"2021-04-02T06:27:44Z","Live in the moment🐯  #RT My new Horangi NFT on opensea🌈  Horangi is collection of 100NFTs that is inspired by 19th century funky Korean tiger paintings and folk arts.   #nft #nftart #nfts #nftartist #nftcollector #nftcommunity  #opensea #eth #ethereum #cryptoartist #cryptoart https://t.co/AXq9OvOiVp",64,23
1377870336428027905,"2021-04-02T06:27:42Z","Draper Goren Holm shows strong conviction in Tezos by announcing plans to add more Tezos-based Startups to its Portfolio @DraperGorenHolm @TimDraper @AlonGoren @JosefHolm @tezos @XTZNews @IgnoranceIt #blockchain #DeFi #NFT #FinTech #ETH #SmartContract https://t.co/hG9GqOEcCL",43,12
1377870336016986112,"2021-04-02T06:27:42Z","Happy Ethster Weekend! #Ethereum $eth",1,0
1377870328555245568,"2021-04-02T06:27:40Z","#GERD is the hope and dream of a hundred million #Ethiopians and several #African countries. Such a splendid hope cannot be extinguished by anyone. @joebiden @KamalaHarris @SecBlinken @RepKarenBass @USAmbUN @ChrisCoonsCMUNC @StateDept #UnityForEthiopia #SupportEthiopia",18,23
1377870316156895235,"2021-04-02T06:27:37Z","Just a few more hours left to take part in our GIVEAWAY!! 🤩 All you need to do is guess if the price of $ETH will be above or below $1,860 this Friday at 17:00 UTC. Tag your friends and invite them to play - each new guess adds 100 $DGTX to the prize pool!! 🔥 https://t.co/IXUkvnM3lm",64,11
1377870308443631616,"2021-04-02T06:27:35Z","RT @NewRarities: can we talk about how my man @ATOMICBUZZzz about to sell my painting for 88 ETH 😂 https://t.co/sXQe59t6dK",31,4
1377870306098868226,"2021-04-02T06:27:35Z","I wonder what events I was speaking of....  Oh look Dot and ICX are joining forces....crazy....  hm....  This human once again gave you the info your required.  This human has other assets aside from ICX and DOT.  ..but  $btc $eth $vet $ada $icx $icx $icx and obviously $dot",0,0
1377870299597783041,"2021-04-02T06:27:33Z","It’s your Art.  Your Art on that wall 💜  The aim behind this piece was to encourage you to take a leap and emerge yourself in colour, through the wall in the form of motion.  Current bid at 0.80 ETH 👀  https://t.co/PwSTnR7r9E  #qfilmstv #NFTs #NFTart https://t.co/HzVrhbpllB",7,1
1377870298175840257,"2021-04-02T06:27:33Z","💧Twinci Airdrop 💧  🏆 Task:          ➕ $15 worth of  TRX                              ➕ $50 worth of TWIN  🔛 Airdrop Link &amp; Information: https://t.co/aV7t49dRDX  #cryptocurrency #Crypto #Bitcoin #Ethereum #ETH #Twinci #TWIN",1336,1777
1377870297387388932,"2021-04-02T06:27:33Z","💧Twinci Airdrop 💧  🏆 Task:          ➕ $15 worth of  TRX                              ➕ $50 worth of TWIN  🔛 Airdrop Link &amp; Information: https://t.co/aV7t49dRDX  #cryptocurrency #Crypto #Bitcoin #Ethereum #ETH #Twinci #TWIN",1336,1777
1377870287329501184,"2021-04-02T06:27:30Z","ETHEthereum Correction for BINANCE:ETHUSDT by LVL_1001 #ETHUSDT https://t.co/JxpjBcObPb https://t.co/9G3gXvuroV",1,0
1377870287170121729,"2021-04-02T06:27:30Z","#Deep fake videos, #face swap, #synthetic media, #fake voice recording &amp; news stamps that are produced by z #TPLF diaspora desperados are means of disinformation to deceive the #US Gov, #EU, &amp; #Western media. @JoeBiden @KamalaHarris @SecBlinken #UnityForEthiopia #SupportEthiopia",19,20
1377870267234410500,"2021-04-02T06:27:25Z","Let’s do this #ETH                                    🪐 $2000                             🚀 🛸                  .                      .                       .             .         .      🌘$1500      .     .    . 🌎",175,15
1377870260003598337,"2021-04-02T06:27:24Z","🟩 FastSwap 2.0 SOON ‼️  This Gem 💎 is just $1.5m Mcap 😏 I expect it to easily pump back to ATH and beyond 🤑  🚫 #1inch Mcap: $671m ✅ $FAST mcap: $1.5m 👉 447x For $FAST to be worth the same !!!📈 ___________________________ @cctip_com airdrop 0.01 ETH 99999 #FastSwap $eth https://t.co/07Sv6hAAIG",154,122
1377870258715906048,"2021-04-02T06:27:23Z","ETH is Money https://t.co/XPkFOPoMKo",2,0
1377870258216833024,"2021-04-02T06:27:23Z","🔥GIVEAWAY🔥 Win the Crystal ETHereum logo 💎 0.77 ETH worth FOR FREE   Take a chance to win: 1. Go to FND and click follow https://t.co/0lzEfbhPSH  2. Follow @igor_3000A 3. RT this post💙  https://t.co/THGW3ipZhY  #nftcollector #NFT #NFTart #NFTCommunity #cryptoart #NFTGiveaway https://t.co/UT9IeugDud",156,111
1377870257067421701,"2021-04-02T06:27:23Z","ETH|Ethereum (Correction) - #ETHUSDT chart https://t.co/6Xujyhnt4B",0,0
1377870256748822528,"2021-04-02T06:27:23Z","If #BTC breaks $69,420 in APRIL 2021 I’ll give a random person my R8  Super SIMPLE: Like ✔️ RT ✔️ Follow ✔️ @JBTheCryptoKing  Drop eth addy ✔️ https://t.co/0ZTkU9CUuI",7875,3934
1377870253514846208,"2021-04-02T06:27:22Z","N is the fourteenth letter of the alphabet, C is the third letter. If you divide 14/3 you get 4.67. Avg ETH fees are $155 for a swap, 0.15 for bsc. That's a ratio of 1033.33333 : 1. Multiply 1033.33333 * 4.67 = 4825.66665. So in the future, 1 $NRV should equal 4825.66665 $CRV",157,15
1377870253460492288,"2021-04-02T06:27:22Z","@seyiamakinde @awabikeng I buy and sell all sort of cryptos, bitcoin, etherium and all gifts cards such as Walmart, iTunes, amazon and any other type you can think of. I'm just a DM away very fast payment available.",0,0
1377870221910933505,"2021-04-02T06:27:15Z","This one is personal...dropped it RAW, as is. #withFND @rariblecom @opensea #NFTcollectibles #nftart #NFTartist #ETH #blockchain #Crypto #cryptoartist  https://t.co/xW14cwuoMD",34,13
1377870219230769152,"2021-04-02T06:27:14Z","Fred Emmings bought for 0.207 ETH (411.86$) on the secondary market   Season: 2020-2021 Level: 0 Serial: 3/10 Price: 411.86$  ⚽ Sorare: https://t.co/QZYjZHoKFp  📊: https://t.co/XOdyELjic9  #Sorare #NFT #Ethereum #FantasyFootball",3,0
