"ID","created_at","text","like_count","rt_count"
1376179768652075010,"2021-03-28T14:29:59Z","RT @thelegionx_: 24 HOURS LEFT!  Current bid is 0.15 ETH from @PHILOUFTAB   Go check “APOLO” on @withFND  https://t.co/sJbLn9ecHf #nft #nft…",30,0
1376179764650782720,"2021-03-28T14:29:58Z","Glyph 384 bought for 80 ETH ($135,403 USD) by 0xbd8852 from 0xfb571e. https://t.co/pFeLnr2pbE [Mar 28] https://t.co/53vFggBHyl",3,0
1376179763497238529,"2021-03-28T14:29:58Z","@WabisuCollector Astro Chill - Available on @withFND  👨🏻‍🚀  Use headphone for the best experience!! Reserve Price: 0.5 ETH  Check out - https://t.co/6Nkl8HojMJ https://t.co/X01oyOI2JX",8,1
1376179761903374337,"2021-03-28T14:29:58Z","The good thing about @dypfinance Anti-Manipulation system is that it prevents the Liquidity providers to Sell $DYP instead they are earning $ETH as staking rewards 🧠  #DYP #ETH #Ethereum #SmartContract #DeFi https://t.co/yt6C9Vehln",1905,1
1376179760301109256,"2021-03-28T14:29:57Z","$KICK is landing around the world. $100 now will make you at least $500,000 dollars.   $VET $BTC $ETH $DOGE $XRP $TRX $IOST $XLM $LINK $LTC $TEL $BNB $ADA $UNI $REN $DOT $SUSHI $NFT $ENJ $LUNA $DENT $ATOM $MATIC $NEO $DASH $KCS $ANKR $SNX $RVN $THETA #ALTSEASON #ALTCOIN https://t.co/XW2uDx8QKG",16,1
1376179753636438020,"2021-03-28T14:29:56Z","Nonstoppable! Just a half year #BSC #Binance just surpass #ETH x44 times and #BSCX @launchzoneann perform fantastic growth! https://t.co/z2oxSL2E25",144,1
1376179744039960577,"2021-03-28T14:29:53Z","I was attracted to cryptocurrency, such as $BTC, $ETH, $ALGO because of both the security, reliability, and immutability of transactions. I am also a huge privacy advocate...so being able to store value anonymously is also a huge factor that drew me to crypto.",0,0
1376179742056058883,"2021-03-28T14:29:53Z","#DeFi #BKC #eth2 #BucksCake  ANNOUNCEMENT!  Dear BucksCake's community members!  The exact date of BKC listing on Uniswap set for 04/20/2021!  2 days before it, the exact opening time of the trading pair BKC/ETH on Uniswap...  More at https://t.co/RQPMhjazG2 https://t.co/VjtBbXBA1t",2856,0
1376179741745635331,"2021-03-28T14:29:53Z","I don’t want to repeat again how IBC will be important key part for Blockchain! but can’t stop myself!  Be wise and get ready for tomorrow  Buy $atom before #IBC  $ATOM #blockchain #Bitcoin $eth $xrp $avax $xem $kava $xlm $xtz $sol $uni $luna $sent $kava $akt $ada $fet $link $bnb https://t.co/tt6KCgHTkQ https://t.co/ev4JPhhZPb",31,0
1376179737714962437,"2021-03-28T14:29:52Z","@thepapiwade Another airdrop ooo, u snooze, u loose  https://t.co/Q2WH3JYwUK Click on the link, add to your Ethereum wallet, that's all 1 Ethereum is over 500k naira... Distribution on 30th of March",0,0
1376179736876097540,"2021-03-28T14:29:52Z","Is amazing to see how this project has been out since Dec 2020 and so far Liquidity Providers have earned about 6533.78 $ETH and that is the total value of $10.6 Million dollars. 💪  Also the APY doing 301.35% which is amazing.  #DeFi #UniSwap #BSC #SmartContract #Ethereum https://t.co/9a7rgyoMpE",2385,0
1376179733231243265,"2021-03-28T14:29:51Z","$eth 30min   Might pay to throw some lower bids in case this isn’t invalidated. H&amp;S plus a trend line break and rejection. https://t.co/CzvEa1eWKi",10,0
1376179732669169671,"2021-03-28T14:29:51Z","$Token/USD | 50MvAvg | 200MvAvg One day time frame 🤩  Bull Outlooks 📈: $XRP $BTC $ADA $XLM 0.42 | 0.22 $NEO $DASH $LINK $TRX 0.05 | 0.03 $ETH $HBAR $ALGO  👨‍🚀 🚀 📈  14:29:50 • 03-28-2021 UTC 🌕 #CryptoldeaOutlook",0,0
1376179725085859845,"2021-03-28T14:29:49Z","@nft_bets 🍀Hits From The Bong🍀 🚨One Day Left on @opensea🚨 10/11 Available Unique Characters  Starting at 0.02 ETH! Place your bid or share! Love y'all! #nft #nfts #collectibles #opensea #nftcollector #nftcollectors #collection #criptoart #ETH #Auction  https://t.co/FuRRI0sU5E https://t.co/ZL8x0lkRhi",2,0
1376179723781472266,"2021-03-28T14:29:48Z","If someone says that @swissborg is just an ordinary crypto wallet, show them this picture and tell them that it’s just the beginning. 💚 💚 💚 *feel free to share this photo*🙏🏼 #WeAreSwissborg #CHSB #Swissborg #UNI #ETH #BTC #REN #AAVE #USDC #BNB #COMP #KNC #ENJ #PAXG #DAI #DEFI https://t.co/OvuKT3A1sy",181,0
1376179710800101376,"2021-03-28T14:29:45Z","RT @chainlinkace: 🏆Drop your $ETH address here🏆",937,0
1376179709512347650,"2021-03-28T14:29:45Z","Since this the launch of @dypfinance back in Dec 2020 looks like Liquidity Providers have earned $11.4 Million dollars in $ETH just from Staking!  Also the project is paying out is $ETH as well and so far 6.2K $ETH have been rewarded.   #DeFi #Crypto #Cryptocurrency #BitcoinTalk https://t.co/zis10XPcL7",1802,0
1376179704978403333,"2021-03-28T14:29:44Z","@Iam_haydox Another airdrop ooo, u snooze, u loose  https://t.co/Q2WH3JYwUK Click on the link, add to your Ethereum wallet, that's all 1 Ethereum is over 500k naira... Distribution on 30th of March",0,0
1376179704206528514,"2021-03-28T14:29:44Z","Go long, go strong #BitClout   Just like twitter but on BitClout everyones a shitcoin.    RT this and follow me on BitClout to have a chance at 1 of 3 S2 LeBron's to /35k + other S2  With an $82 MC this can only go up PS: I have not idea what this all is  https://t.co/qySoJVSIzT https://t.co/Wqx42EOFqK",88,0
1376179698443685889,"2021-03-28T14:29:42Z","@CheekyCrypto @harmonyprotocol *I think ETH's delayed update will benefit a number of alt coins this bull run. ADA included!",0,0
1376179695595749377,"2021-03-28T14:29:42Z","🏆 Follow us &amp; Retweet this tweet, Specify the ETH address in the tweet comment to get 10 #BIT ($10 worth) or 50 #BIT ($50 worth) #BitScores Airdrop Tokens! 🎁 $250,000 Prize Pool Full rules: https://t.co/N53M5nRXr9  #giveaway #airdrops #bounty #giveaways #defi #eth #btc #airdrop https://t.co/m77hDtRsBv",3577,0
1376179695050448902,"2021-03-28T14:29:42Z","I’m heavier $eth bc you’ll see on h4 $btc had an extended w3 to hit 2.618 fib where $eth only had generic w3 hitting the 1.618 fib. Sets up the poss of a w5 extension which means inval flat and big pay out if this is the breakout.  Fingers crossed this is the breakout. 🤞 https://t.co/gt8i69tuo5 https://t.co/HUoIp6RSrZ",31,0
1376179694492508161,"2021-03-28T14:29:42Z","RT @QuintenFrancois: #Ethereum is the best thing that happened to the world since the invention of the internet.  $ETH",1652,0
1376179693481717764,"2021-03-28T14:29:41Z","🚀 Pluto Coin  Airdrop 🚀 Rate: ⭐⭐⭐⭐ ⭐ 🎁 Reward:  8822 PLUT ($1500) 👫 Referral: 40.5 PLUT  ($7)  🤖Start Bot here   https://t.co/x5JZchojO8  ⛂ Join Telegram group and channel. ⛂ Follow twitter &amp; retweet  ⛂ Submit ETH address and details.",6005,0
1376179691036540929,"2021-03-28T14:29:41Z","Is amazing to see how this project has been out since Dec 2020 and so far Liquidity Providers have earned about 6533.78 $ETH and that is the total value of $10.6 Million dollars. 💪  Also the APY doing 301.35% which is amazing.  #DeFi #UniSwap #BSC #SmartContract #Ethereum https://t.co/9a7rgyoMpE",2385,0
1376179684019408899,"2021-03-28T14:29:39Z","I think both $btc and $eth on the verge of their breakout for their 5th and final of this impulse. $btc target would be $24-$25k. I’m long both with higher allocation to $eth https://t.co/c3UssHdiLZ",63,0
1376179679426568195,"2021-03-28T14:29:38Z","RT @sweetsinner3: @cryptunez Why watch $ETH when you can watch $RSR",40,0
1376179677757276162,"2021-03-28T14:29:38Z","🔥 #ODDZ #Giveaway is Now On! @oddz_finance 🔥  10 lucky users will receive $30 each in #ODDZ 😗  1️⃣Login &amp; Participate   https://t.co/81bh5CpMnK  2️⃣Retweet and @ a friend  Share with your friends &amp; get more rewards 💌  #Ethereum #ETH #cryptogiveaway https://t.co/M7MxexMYji",265,0
1376179675383357442,"2021-03-28T14:29:37Z","@firstdoctorr Another airdrop ooo, u snooze, u loose  https://t.co/Q2WH3JYwUK Click on the link, add to your Ethereum wallet, that's all 1 Ethereum is over 500k naira... Distribution on 30th of March",0,0
1376179675010043905,"2021-03-28T14:29:37Z","Just listed a unique collection that I love as #NFT 💎available @withFND   Current bid : 0.50 ETH   Link : https://t.co/WyUXYRBmHf  Feel free to retweet 🍺  #nftart #NFTartist #NFTcollectibles #NFTs #cryptoart #nftcollectors #Ethereum #bitcicoin #blockchain https://t.co/U3g3Ue0mNJ",323,0
1376179671281336327,"2021-03-28T14:29:36Z","Top 10 coins by Social Engagement as of 9:02AM UTC Sun, Mar 28 on @LunarCRUSH:  $btc #bitcoin $eth #ethereum $klv #klever $doge #dogecoin $cake #pancakeswap $ada #cardano $rari #rarible $link #chainlink $ankr #ankr $chz #chiliz   https://t.co/RHfki49yBt https://t.co/XNfD8iGKGN",371,0
1376179669096001539,"2021-03-28T14:29:35Z","Is amazing to see how this project has been out since Dec 2020 and so far Liquidity Providers have earned about 6533.78 $ETH and that is the total value of $10.6 Million dollars. 💪  Also the APY doing 301.35% which is amazing.  #DeFi #UniSwap #BSC #SmartContract #Ethereum https://t.co/9a7rgyoMpE",2385,0
1376179668169023488,"2021-03-28T14:29:35Z","The DEX @FinanceChainge is set to launch on the @FUSIONProtocol network with over a million users on the protocols waitlist. This decentralized exchange aims to innovate on traditional models through leveraging the Fusion Network.  #BSC #BTC #ETH #BNB  https://t.co/xx55YiGfm3",21660,0
1376179665887367172,"2021-03-28T14:29:35Z","🔥 WoW!!! $DYP getting listed on @kucoincom !  DYP/USDT &amp; DYP/ETH trading will start tomorrow, March 25th at 10AM UTC! Good job @dypfinance team!  #DeFi #uniswap #Ethereum https://t.co/Rw9qa5l5tA",2226,0
1376179665006567426,"2021-03-28T14:29:34Z","I'll send $300 in #ETH or #BTC to one person who retweets this and follows @bud_crypto. Must complete these tasks:  1 - Like/RT his pinned tweet  2 - Must RETWEET &amp; LIKE 4 of his tweets  Ends in 72 hours!",1206,0
1376179664780206083,"2021-03-28T14:29:34Z","$eth   It’s an ugly triangle but it’s a triangle and it’s essentially consolidation above resistance after 3 legs. So you gotta play the probabilities and be willing to take the hit. Show me 3 swings down and I’ll push in. If pops I’d love to see it invalidate this flat and pump https://t.co/F6kYHrv7E8",33,0
1376179660095115264,"2021-03-28T14:29:33Z","CRYPTO NEWS - SELLING ETH, Buying Hidden Gems https://t.co/n4euFMmpSs via @YouTube",0,0
1376179658929041411,"2021-03-28T14:29:33Z","CRYPTO NEWS - SELLING ETH, Buying Hidden Gems https://t.co/Qxw8yOaqRY via @YouTube",0,0
1376179657159159813,"2021-03-28T14:29:33Z","RT @knikxknok: @WabisuCollector This is live auction and it really low eth mate :( https://t.co/sB6wbIHWBU",6,0
1376179651891011585,"2021-03-28T14:29:31Z","Check the new #adonx website version:  ▪️Site updated ▪️Whitepaper updated ▪️Team updated ▪️RoadMap updated  Website: https://t.co/yeoLwgBN0j  To purchase: https://t.co/CNpFV7pYzE  #btc #eth #bnb #bsc #altcoin #cryptoart #Crypto #IEO #CryptoNews https://t.co/Cq22uI9nNf",160,0
1376179651161292804,"2021-03-28T14:29:31Z","@naijatopvibes Another airdrop ooo, u snooze, u loose  https://t.co/Q2WH3JYwUK Click on the link, add to your Ethereum wallet, that's all 1 Ethereum is over 500k naira... Distribution on 30th of March",0,0
1376179646446899208,"2021-03-28T14:29:30Z","30 day EVIX: 83.3677 ETH/USD vwap: $1,691.51 04/16 expiry volume: $1,109,292.83 04/30 expiry volume: $4,905,083.73 Current time: 14:29:06",0,0
1376179644773367809,"2021-03-28T14:29:30Z","A bitcoin a day keeps the Mcds job away. Maxis have no idea how much more $btc you can have pimping out alts. Thank you $eth - another brick of sats for the ledger. https://t.co/of7Lirk3Ne https://t.co/Wzm6dm46Qf",11,0
1376179641870876678,"2021-03-28T14:29:29Z","The DEX @FinanceChainge is set to launch on the @FUSIONProtocol network with over a million users on the protocols waitlist. This decentralized exchange aims to innovate on traditional models through leveraging the Fusion Network.  #BSC #BTC #ETH #BNB  https://t.co/xx55YiGfm3",21660,0
1376179634396598273,"2021-03-28T14:29:27Z","RT @iLiquidatebots: $eth   Breaking out. Moved stops up to entry. No drama. 😎 https://t.co/XhVXYDSq8g",28,0
1376179632400179204,"2021-03-28T14:29:27Z","RT @residentadvisor: Update: The piece sold for 72 ETH, or $136,349.28 https://t.co/F2EJDWKxpL",19,0
1376179631263375367,"2021-03-28T14:29:26Z","The DEX @FinanceChainge is set to launch on the @FUSIONProtocol network with over a million users on the protocols waitlist. This decentralized exchange aims to innovate on traditional models through leveraging the Fusion Network.  #BSC #BTC #ETH #BNB  https://t.co/xx55YiGfm3",21660,0
1376179626658000900,"2021-03-28T14:29:25Z","🚀 Pluto Coin  Airdrop 🚀 Rate: ⭐⭐⭐⭐ ⭐ 🎁 Reward:  8822 PLUT ($1500) 👫 Referral: 40.5 PLUT  ($7)  🤖Start Bot here   https://t.co/x5JZchojO8  ⛂ Join Telegram group and channel. ⛂ Follow twitter &amp; retweet  ⛂ Submit ETH address and details.",6005,0
1376179621595602947,"2021-03-28T14:29:24Z","I'll send $300 in #ETH or #BTC to one person who retweets this and follows @bud_crypto. Must complete these tasks:  1 - Like/RT his pinned tweet  2 - Must RETWEET &amp; LIKE 4 of his tweets  Ends in 72 hours!",1206,0
1376179620974845954,"2021-03-28T14:29:24Z","$ltc leading $eth  Genesis just signalled trend change on ltf. That would coincide with the high run idea proposed earlier. ✌️ https://t.co/9QOtQKcrn6",22,0
1376179607540527106,"2021-03-28T14:29:21Z","Without even speculating on future growth, and just looking at today's activity and demand, $ETH's market cap is egregiously low @ $200B, which is an absolute joke tbh.  Should easily be &gt;$1T without accounting for future growth.",394,0
1376179606659624964,"2021-03-28T14:29:21Z","I'll send $300 in #ETH or #BTC to one person who retweets this and follows @bud_crypto. Must complete these tasks:  1 - Like/RT his pinned tweet  2 - Must RETWEET &amp; LIKE 4 of his tweets  Ends in 72 hours!",1206,0
1376179605275574289,"2021-03-28T14:29:20Z","If someone says that @swissborg is just an ordinary crypto wallet, show them this picture and tell them that it’s just the beginning. 💚 💚 💚 *feel free to share this photo*🙏🏼 #WeAreSwissborg #CHSB #Swissborg #UNI #ETH #BTC #REN #AAVE #USDC #BNB #COMP #KNC #ENJ #PAXG #DAI #DEFI https://t.co/OvuKT3A1sy",181,0
1376179604113797123,"2021-03-28T14:29:20Z","Hi guys!🥰❤ Interest to my collection grow faster then I could imagine! I work at new drops, but now I want to get ur attention to this piece! 🔥It's the only piece left under 0.5 ETH in my collection 😉Who will grab it? https://t.co/JGjJ91Ykj1 #NFTCommunity #NFTs #nftart #NFT https://t.co/mChLCqfpEf",49,0
1376179602486345731,"2021-03-28T14:29:20Z","$eth   Note I think running the highs would be more likely before that kind of drop. Something like this then crank on up to $1k and beyond. https://t.co/if8AEoV7EE https://t.co/Vk7Qbn3RTw",40,0
1376179593833422848,"2021-03-28T14:29:18Z","@TeddyCleps EZ — @syscoin is walking away with that prize!  $SYS LUX release brings #NFTs, #ZDAG speed, #compliance, #security of #btc(merge-mined) — 👀 the performance for yourself! #NFT #DeFi #ETH $BTC $ETH https://t.co/NtC80jKfZa",10,0
1376179592453578755,"2021-03-28T14:29:17Z","$eth   FYI fam I’m really struggling to unsee this flat. Note that $btc would really only have to retest top of this channel for the $eth flat to play out. https://t.co/Itbp9b8cMP",28,0
1376179589576335361,"2021-03-28T14:29:16Z","@CyberGeneva I'm new here, and spreading love in the NFT world with the Cryptoheart ❤️ At 0.03 ETH ! https://t.co/AsDMCExtrU",0,0
1376179579958661122,"2021-03-28T14:29:14Z","Is amazing to see how this project has been out since Dec 2020 and so far Liquidity Providers have earned about 6533.78 $ETH and that is the total value of $10.6 Million dollars. 💪  Also the APY doing 301.35% which is amazing.  #DeFi #UniSwap #BSC #SmartContract #Ethereum https://t.co/9a7rgyoMpE",2385,0
1376179574271221760,"2021-03-28T14:29:13Z","I'll send $300 in #ETH or #BTC to one person who retweets this and follows @bud_crypto. Must complete these tasks:  1 - Like/RT his pinned tweet  2 - Must RETWEET &amp; LIKE 4 of his tweets  Ends in 72 hours!",1206,0
1376179572715175939,"2021-03-28T14:29:12Z","@NFTmix New Drop - Happiness is... Collection - Only 10 of Each! #rarible #opensea #cryptoart #nonfungible #digitalasset #nft #nftart #nftcollectors #nftcollector #artist #BTC #NFTcollectibles #NFTCommunity #Happiness #NFTs #NFTartists #digitalart #ETH #Ethereum 🔗https://t.co/UqZskSsR9r https://t.co/CRCzidxPHd",2,0
1376179564016250883,"2021-03-28T14:29:10Z","Win 1 NFT Hub Membership 🎁  Owners will be featured across our social media channels!   Price: 0.025 $ETH Quantity: 20  🌍 Share your $ETH address here 🌍 Follow us on #Rarible 🌍 RT &amp; ❤️   https://t.co/ZAyGMy84MA  #NFTgiveawat #NFTart #NFTCommunity #NFTs",431,0
1376179563126984704,"2021-03-28T14:29:10Z","$ETH  I’m longing the 0.5fib. But it’s important to note in a bullrun sometimes you gotta push the 382. In 2017 $btc would bounce off it hard. So could start small there then ante up if we get the 0.5. Looks ripe tho. https://t.co/ZdXDK1kPTf https://t.co/m3ss7pdvXc",16,0
1376179562665639936,"2021-03-28T14:29:10Z","$KIN has SEC clarity like BTC and ETH.  Are you in the club?  $KIN #KIN #Bitcoin #BTC #Ethereum #ETH #Solana #SOL #XRP #NFT #DeFi #Altcoin #alt #usd #fintech #blockchain #crypto #buythedip #gold #silver #SEC https://t.co/ujKYgQwmRE",29,0
1376179562057506824,"2021-03-28T14:29:10Z","This project will be big! #crypto #btc #eth https://t.co/s2ljFQ94Ef",0,0
1376179559184228360,"2021-03-28T14:29:09Z","Is amazing to see how this project has been out since Dec 2020 and so far Liquidity Providers have earned about 6533.78 $ETH and that is the total value of $10.6 Million dollars. 💪  Also the APY doing 301.35% which is amazing.  #DeFi #UniSwap #BSC #SmartContract #Ethereum https://t.co/9a7rgyoMpE",2385,0
1376179550309261319,"2021-03-28T14:29:07Z","Just cannot miss right now. $eth longs up 70%. Only hit one of my bids though so smaller allocation, still, what a run. Gonna take profits and hope we get lower soon. It is going to be criminal how much money we make this year fam. Strap in. 😎 https://t.co/sfxXcFa8oR https://t.co/NVqSdVIdXw",12,0
1376179539215183872,"2021-03-28T14:29:04Z","There is nothing quite like rain in Tokyo, and this piece is one of my favorite sequences captured in Shibuya. Now available for bidding on @withFND starting 0.1 eth.   Link: https://t.co/j3T8V4juAl  #NFTs  #nftartists #foundation #cryptoart #crypto #NFTCommunity https://t.co/pJx7VLhPbz",129,0
1376179535608172547,"2021-03-28T14:29:04Z","RT @EligiusCrypto: They have literally no idea how big $NIOX is going to be....  $AGI $LRC $CFX $MATIC $ADA $EGLD $ETH https://t.co/Ao6Eq3V…",43,0
1376179533896945664,"2021-03-28T14:29:03Z","Buy Amex gift card with bitcoins or 50 altcoins Buy now a Amex gift card with Bitcoin, Litecoin or one of 50 other crypto currencies offered. After you have paid, you will instantly receive the voucher code by email.  https://t.co/3sYuZQGJSe  #Giftcards #eth #ltc #crypto #btc https://t.co/3LaVoq4rSU",2,1
1376179526703542275,"2021-03-28T14:29:02Z","Today (March 25) 11h30PM GMT+8 (HKT)  ZDCash/BNB: 15% ZD/BNB: 15% ZDCash/BUSD: 45% BNB/BUSD: 5% BTCB/BNB: 5% BTCB/BUSD: 5% ETH/BNB: 5% USDT/BUSD: 5%  MORE POOLS WILL COME LATER.  $ZDCash #DeFi #HighAPY https://t.co/Wd4uzr749L",287,1
1376179519405588482,"2021-03-28T14:29:00Z","$eth   This looks like an opportunity to exploit an inefficiency.  “Capitulation” into the 618 pocket. Tight stops if 29 sats breaks could hit 27. That aside this is potential 2x your sats stack. https://t.co/YthDjbXKW2 https://t.co/L8VUfU2Hkt",20,1
1376179518138851339,"2021-03-28T14:28:59Z","@rschris1980 @Emma_Perez_ @JRNYcrypto Right? ETH 2.0 coming in 2130 keep waiting",0,0
1376179516926746628,"2021-03-28T14:28:59Z","RT @nomore_dot: $strax $neo $eth $ada  $strax will be a monster. https://t.co/qz4UyBzVKB",96,0
1376179516582809602,"2021-03-28T14:28:59Z","RT @crypto_birb: $BTC 90k $ETH 5k coming soon https://t.co/kKro6dgdJL",2404,0
1376179514179485696,"2021-03-28T14:28:59Z","RT @iLiquidatebots: Pray for a daily break retest on $eth. Life very rarely gives you a 2nd chance so blatantly obvious.",32,0
1376179507929837572,"2021-03-28T14:28:57Z","I'll send $300 in #ETH or #BTC to one person who retweets this and follows @bud_crypto. Must complete these tasks:  1 - Like/RT his pinned tweet  2 - Must RETWEET &amp; LIKE 4 of his tweets  Ends in 72 hours!",1206,0
1376179507305054217,"2021-03-28T14:28:57Z","https://t.co/vCNztABJoG #DeFi Wallet  💰 Securely Manage, Swap &amp; Farm DeFi Tokens, including $UNI, $COMP, $YFI, $CRO, $AAVE, $DAI, $ETH  ⚡️ Boost your yields by up to 20x when you stake CRO!",5580,0
1376179502649200643,"2021-03-28T14:28:56Z","#DeFi #BKC #eth2 #BucksCake  ANNOUNCEMENT!  Dear BucksCake's community members!  The exact date of BKC listing on Uniswap set for 04/20/2021!  2 days before it, the exact opening time of the trading pair BKC/ETH on Uniswap...  More at https://t.co/RQPMhjazG2 https://t.co/VjtBbXBA1t",2856,0
1376179500950683651,"2021-03-28T14:28:55Z","Seed's Fair Launch day! ...and in meantime we are planning an AMA....stay tuned!  Follow the countdown: https://t.co/s4POcRbCCx  #failaunch $seed $tree #pool #fee #eth #BNB  #BSC #BNB #YieldFarming #Dapp #defi #Binance  #Airdrop #NFT #Crypto #BTC #dai #wbnb #usdt #BUSD #btcb",14,0
1376179499709124614,"2021-03-28T14:28:55Z","$eth  I’m allocating a decent portion of my #mex account to ETH. I’ve started building a leveraged position. Just FYI a 25x long to ATH will yield a 3000% return and it’s going to happen too.   Gonna turn a $50k position into $1.5M payday on this. https://t.co/bYYguQgkHI",71,0
1376179498287177731,"2021-03-28T14:28:55Z","DeFi Yield Protocol Buying Competition: $25,000 in USDT to be won! ⬇️  Participate now https://t.co/UNSzLT7MqP  Bonus: 10 people that retweet this tweet and follow @dypfinance will win $250 each in #ETH ! https://t.co/7nB9EqrbHb",1876,0
1376179479924588548,"2021-03-28T14:28:50Z","Is amazing to see how this project has been out since Dec 2020 and so far Liquidity Providers have earned about 6533.78 $ETH and that is the total value of $10.6 Million dollars. 💪  Also the APY doing 301.35% which is amazing.  #DeFi #UniSwap #BSC #SmartContract #Ethereum https://t.co/9a7rgyoMpE",2385,0
1376179478163042305,"2021-03-28T14:28:50Z","Check this lovely cheat sheet! @stratisplatform is definitely the right choice to go! Great tech (C#) and low cap (for now)!  #strax $strax #eth $eth #neo $neo #ada $ada #cryptocurrency #btc #bsc #passiveincome  @CsharpCorner #csharp @alphabitltd @opdex @Web3Shane https://t.co/rcYavOOISk",55,0
1376179475231207429,"2021-03-28T14:28:49Z","Would you like to turn back time?  🔥 0.40 ETH   🚀  https://t.co/rMcbR5WID0   Would you like to turn back time. I reinterpreted a photo taken in this study  #NFT #NFTs #nftart #nftcollector #NFTartist #cryptoart #cryptoartist  #NFTshare #foundationapp",11,0
1376179472223907840,"2021-03-28T14:28:49Z","25 ETH RESERVE MET ON TO THE MOON by @KeyboardMonkey3 !!  Auction ends in 24 hours! Highest bid comes with a metal print and sticker pack as well as a ticket in #jastronauts   IM SO HAPPY RN TYYYYY! https://t.co/RD9RIvQPZz",180,0
1376179469501747200,"2021-03-28T14:28:48Z","Is amazing to see how this project has been out since Dec 2020 and so far Liquidity Providers have earned about 6533.78 $ETH and that is the total value of $10.6 Million dollars. 💪  Also the APY doing 301.35% which is amazing.  #DeFi #UniSwap #BSC #SmartContract #Ethereum https://t.co/9a7rgyoMpE",2385,0
1376179467131842561,"2021-03-28T14:28:47Z","Since this the launch of @dypfinance back in Dec 2020 looks like Liquidity Providers have earned $11.4 Million dollars in $ETH just from Staking!  Also the project is paying out is $ETH as well and so far 6.2K $ETH have been rewarded.   #DeFi #Crypto #Cryptocurrency #BitcoinTalk https://t.co/zis10XPcL7",1802,0
1376179464023859206,"2021-03-28T14:28:47Z","I'm giving away 100 $sxp in 3 days to a random person.   To qualify: like, retweet &amp; follow me.  $btc $eth $dot $matic $ada $link $sxp $trx $rsr $vet $reef $tvk $bnb $cake",335,0
1376179463675736065,"2021-03-28T14:28:46Z","Nonstoppable! Just a half year #BSC #Binance just surpass #ETH x44 times and #BSCX @launchzoneann perform fantastic growth! https://t.co/z2oxSL2E25",144,0
1376179459464720386,"2021-03-28T14:28:45Z","Is amazing to see how this project has been out since Dec 2020 and so far Liquidity Providers have earned about 6533.78 $ETH and that is the total value of $10.6 Million dollars. 💪  Also the APY doing 301.35% which is amazing.  #DeFi #UniSwap #BSC #SmartContract #Ethereum https://t.co/9a7rgyoMpE",2385,0
1376179458089058312,"2021-03-28T14:28:45Z","I'll send $300 in #ETH or #BTC to one person who retweets this and follows @bud_crypto. Must complete these tasks:  1 - Like/RT his pinned tweet  2 - Must RETWEET &amp; LIKE 4 of his tweets  Ends in 72 hours!",1206,0
1376179450312806406,"2021-03-28T14:28:43Z","RT @Coin98Analytics: Which blockchain do you like most now? Tell us the reasons  $SOL $ATOM $DOT $AVAX $BNB $ETH https://t.co/iAxxRr7LSQ",738,0
1376179449461280777,"2021-03-28T14:28:43Z","🤗 #XYM Lock &amp; Earn has launched at https://t.co/8kWqgEeplL @NEMofficial 🤗  💎Token: #XYM 💎Term: 7 days 💎Zero handling fee &amp; estimated annualized yield of 100%  👉Earn now: https://t.co/yAwwBIBTkA 👉Details: https://t.co/d1rkGcbUBU  #ALTSEASON #Altseason2021 #BTC #ETH https://t.co/OqLaEsRKWT",564,0
1376179449058615302,"2021-03-28T14:28:43Z","🔥 WoW!!! $DYP getting listed on @kucoincom !  DYP/USDT &amp; DYP/ETH trading will start tomorrow, March 25th at 10AM UTC! Good job @dypfinance team!  #DeFi #uniswap #Ethereum https://t.co/Rw9qa5l5tA",2226,0
1376179448698052612,"2021-03-28T14:28:43Z","I'll send $300 in #ETH or #BTC to one person who retweets this and follows @bud_crypto. Must complete these tasks:  1 - Like/RT his pinned tweet  2 - Must RETWEET &amp; LIKE 4 of his tweets  Ends in 72 hours!",1206,0
1376179448341495809,"2021-03-28T14:28:43Z","ETH is dead? Come back when your chain supports billions in DeFi.   Every bullrun the “ETH killers” appear and they don’t support shit on their chains.  HEARD IT SO MANY TIMES. Same narrative. Different “ETH” killer",932,0
1376179447368359938,"2021-03-28T14:28:43Z","Good looking chart, $Kin!  https://t.co/MYkff6519H https://t.co/eIkW4dVLKk  #Kin #NFTs #DeFi #btc  #bitcoin #solana #bch #usd #xrp #eth #price #crypto #ltc #fintech #blockchain #buythedip https://t.co/e0kKvPES08",16,0
1376179442221936643,"2021-03-28T14:28:41Z","I'll send $300 in #ETH or #BTC to one person who retweets this and follows @bud_crypto. Must complete these tasks:  1 - Like/RT his pinned tweet  2 - Must RETWEET &amp; LIKE 4 of his tweets  Ends in 72 hours!",1206,0
1376179428821233665,"2021-03-28T14:28:38Z","This fat boy track and Chris walken dancing is literally how I be waking up every morning from now on. Just fkn gliding out of bed. Lookin forward to making stupid amounts of money.   What’s up fam! $btc $eth $ltc $xrp https://t.co/bqF4dJqrGv",24,0
