"ID","created_at","text","like_count","rt_count"
1377176330354102285,"2021-03-31T08:29:58Z","RT @QuintenFrancois: $ETH to $2500 in April or I'm giving away 0.3 $ETH to someone who retweets this.",4150,6184
1377176325874622482,"2021-03-31T08:29:57Z","My Next Drop 🔥 at @makersplaceco   𝘽𝙡𝙖𝙪 1/1 EDITION WORK  Date: 𝗔𝗽𝗿𝗶𝗹 𝟬𝟮 - 𝟳:𝟬𝟬 𝗣𝗠 (𝗚𝗠𝗧+𝟮) SAVE THE DATE ⬆️  Retweets are appreciated! #cryptoart #cryptoartist #NFT #NFTart #NFTartist #ETH  #digitalart #raredigitalart  #Ξ #nftcollector #NFTcomunity https://t.co/0GxycXA0hf",11,4
1377176321319571457,"2021-03-31T08:29:56Z","@tcrpty Sparrows are waiting for owners🚨  few numbers #RARE items are available at #opensea with low prices https://t.co/5cwNZpADYk  #NFTCollectors #NFTs #crypto #cryptoart #nftart #nftdrop #nftcommunity #eth #pixelart #NFTartist #NFT   https://t.co/bI4x5davNY",1,0
1377176314575155209,"2021-03-31T08:29:54Z","RT @QuintenFrancois: $ETH to $2500 in April or I'm giving away 0.3 $ETH to someone who retweets this.",4150,6184
1377176306069073923,"2021-03-31T08:29:52Z","The DEX @FinanceChainge is set to launch on the @FUSIONProtocol network with over a million users on the protocols waitlist. This decentralized exchange aims to innovate on traditional models through leveraging the Fusion Network.  #BSC #BTC #ETH #BNB  https://t.co/xx55YiGfm3",21535,13658
1377176301258170377,"2021-03-31T08:29:51Z","@onesuvam Sparrows are waiting for owners🚨  few numbers #RARE items are available at #opensea with low prices https://t.co/5cwNZpADYk  #NFTCollectors #NFTs #crypto #cryptoart #nftart #nftdrop #nftcommunity #eth #pixelart #NFTartist #NFT   https://t.co/bI4x5davNY",0,0
1377176287538671618,"2021-03-31T08:29:48Z","This Time for $1000 of $LINK GIVEAWAY!  TWO Winners Will Get Each $500.  To Enter: Follow/Like/RT and Tag 7 People.  $BTC $ETH $DOT $KSM $RSR $RUNE $HNT $NOIA $LINK $OCEAN $XTZ $ATOM $DCR $KAVA $GRT $REN $ZIL $TOMO $UNI $EGLD $ALPHA $DOGE $TWT $SFP $KMD https://t.co/Yv1opDdkrh",74,61
1377176284627824641,"2021-03-31T08:29:47Z","💧Poplink Oracles Airdrop 💧  🏆 Task:          ➕  50 POPO (~$50)  👨‍👩‍👧 Referral:  ➕  15 POPO (~$15)  🔛  Airdrop Link &amp; Information: https://t.co/DS6g34KhFp  #cryptocurrency #Crypto #Bitcoin  #BSC #BinanceSmartChain #Ethereum #ETH #Airdrop #bounty #POPO #Poplink",6695,8526
1377176279523319816,"2021-03-31T08:29:46Z","@cypherchk Sparrows are waiting for owners🚨  few numbers #RARE items are available at #opensea with low prices https://t.co/5cwNZpADYk  #NFTCollectors #NFTs #crypto #cryptoart #nftart #nftdrop #nftcommunity #eth #pixelart #NFTartist #NFT   https://t.co/bI4x5davNY",0,0
1377176270757191684,"2021-03-31T08:29:44Z","@sd_eth Thanks a lot, appreciate it!",1,0
1377176267225661454,"2021-03-31T08:29:43Z","The DEX @FinanceChainge is set to launch on the @FUSIONProtocol network with over a million users on the protocols waitlist. This decentralized exchange aims to innovate on traditional models through leveraging the Fusion Network.  #BSC #BTC #ETH #BNB  https://t.co/xx55YiGfm3",21535,13658
1377176257662611457,"2021-03-31T08:29:41Z","ETH-Based Akropolis Is Up By 130% This Month, Ready To Gain More https://t.co/kbqBAUzNP3",0,0
1377176227220361224,"2021-03-31T08:29:33Z","HAWT. With my partnership with @illuviumio I can give away 100 HOLOGRAPHIC Scoot Scarabok NFTs.  Similar ones have gone for 5 eth to 50 eth.  How to get -Post your ETH address + BATTLE SCOOT! below -Retweet/tag a friend -Follow @illuviumio and join their discord in bio https://t.co/xcCVVW6KdR",2754,2661
1377176220136169472,"2021-03-31T08:29:32Z","30 day EVIX: 88.0709 ETH/USD vwap: $1,795.57 04/16 expiry volume: $1,042,511.02 04/30 expiry volume: $6,077,709.30 Current time: 08:29:06",0,0
1377176218622066689,"2021-03-31T08:29:31Z","Don't put other #Cryptos down just because those #Investors #investment strategies differ from yours. All #crypto can win if we stay on the same team. ##ETH #XRP #BTC !",0,0
1377176217145667584,"2021-03-31T08:29:31Z","DCT TOKEN Airdrop Medium Star Claim 1 DCT ($ 100) + 0.045 DCT ($ 10) for each referral you make.   Steps  💎  Join channel and group  💎  Follow twitter, like and retweet pinned message   💎  Submit eth wallet address (ERC-20) Participate now Airdrop link: https://t.co/L24stp8tVI https://t.co/CVYQyLAWwU",8692,8870
1377176204273328128,"2021-03-31T08:29:28Z","Slow 169 | Normal 176 | Fast 181 | Instant 201 👈 current Ethereum gas prices in gwei. DM me a price and I will DM you as soon as gas drops below that price 👍 #Ethereum #GasPrice #ETHGasPrice #ETH",0,1
1377176200343265282,"2021-03-31T08:29:27Z","XL waterfront #NFT sold in @SomniumSpace for $33,000 USD which was 17.95 #ETH. This was the cheapest of the last 3 XL waterfronts to sell in the last 24 hours via @opensea. Over $2 million of #VRland sold in 7 days, 1,146 ETH weekly volume #VirtualReality  https://t.co/UwkSt3PM2y",12,6
1377176197562392577,"2021-03-31T08:29:26Z","HAWT. With my partnership with @illuviumio I can give away 100 HOLOGRAPHIC Scoot Scarabok NFTs.  Similar ones have gone for 5 eth to 50 eth.  How to get -Post your ETH address + BATTLE SCOOT! below -Retweet/tag a friend -Follow @illuviumio and join their discord in bio https://t.co/xcCVVW6KdR",2754,2661
1377176187001217026,"2021-03-31T08:29:24Z","@gem_detecter I am energized this trader @gem_detecter  The avg earning is X4 for the call  Subscribe now @gem_detecter   $niox $crv $bnt $eos $egld $sol $drt $lqd $fdo $map $omi $ren $ftt $vet $busd $bpc $zil $og $cro $atom $afc $dot $leo $algo $eth $slm $vidy $nexo $uma $rune $lba $xpc $ckb",1,0
1377176181758324736,"2021-03-31T08:29:23Z","@lindyli Inoculate, the very lexicon General Jeffrey #Amherst utilised whence he gave the order to slaughter our Mig'maw relatives as well as the Acadians with small pox, chicken pox laden blankets from 1754 till 1763... Thou shouldst be'eth ashamed of thyself with such words.  #Áhskwa",1,1
1377176162879741954,"2021-03-31T08:29:18Z","WOW  - Shiny Crown 👑 was sold 💸  Thank you my friend @ArtOfCastellani   Wear it with dignity! 😊👍  20/25 are left at @rariblecom for 0.02 ETH  #NFT #Cryptoart #pixelart https://t.co/TWHn9dilbf",14,1
1377176162795888645,"2021-03-31T08:29:18Z","@crnovision Sparrows are waiting for owners🚨  few numbers #RARE items are available at #opensea with low prices https://t.co/5cwNZpADYk  #NFTCollectors #NFTs #crypto #cryptoart #nftart #nftdrop #nftcommunity #eth #pixelart #NFTartist #NFT   https://t.co/bI4x5davNY",1,0
1377176156491841542,"2021-03-31T08:29:17Z","#DeFi #BKC #eth2 #BucksCake  ANNOUNCEMENT!  Dear BucksCake's community members!  The exact date of BKC listing on Uniswap set for 04/20/2021!  2 days before it, the exact opening time of the trading pair BKC/ETH on Uniswap...  More at https://t.co/RQPMhjazG2 https://t.co/VjtBbXBA1t",2829,2636
1377176152381345794,"2021-03-31T08:29:16Z","🔥 #ODDZ #Giveaway is Now On! @oddz_finance 🔥  10 lucky users will receive $30 each in #ODDZ 😗  1️⃣Login &amp; Participate   https://t.co/81bh5CpMnK  2️⃣Retweet and @ a friend  Share with your friends &amp; get more rewards 💌  #Ethereum #ETH #cryptogiveaway https://t.co/M7MxexMYji",267,619
1377176140813463552,"2021-03-31T08:29:13Z","@lindyli Inoculate, the very lexicon General Jeffrey #Amherst utilised whence he gave the order to slaughter our Mig'maw relatives as well as the Acadians with small pox, chicken pox laden blankets from 1754 till 1763... Thou shouldst be'eth ashamed of thyself with such words.  #Áhskwa",1,1
1377176127261745152,"2021-03-31T08:29:10Z","Join the @Holdefi community! Learn more about $HLD Token!  #HLD #Holdefi #ETH #BSC #IDO #ICO 👇👇 https://t.co/NrJrqKft96",0,0
1377176125000929280,"2021-03-31T08:29:09Z","The DEX @FinanceChainge is set to launch on the @FUSIONProtocol network with over a million users on the protocols waitlist. This decentralized exchange aims to innovate on traditional models through leveraging the Fusion Network.  #BSC #BTC #ETH #BNB  https://t.co/xx55YiGfm3",21535,13658
1377176115018559492,"2021-03-31T08:29:07Z","Setting up a diverse sector portfolio to catch the next pop.  Something has to go up soon!  $XED - Gaming/ESports DeFi Betting $UNN - Defi Ins w/ Mainnet $GRT - Web 3.0 Search $MATIC - ETH scaling b/c ppl hate gas fees $BNB - ETH defi competitor b/c ppl hate gas fees",1,1
1377176110610358339,"2021-03-31T08:29:06Z","I think more probable than just possible. $TEL is in beast mode and we are about to enter the most productive quarter in #Telcoin history.   #V3 alone can drive astounding growth!   April will be 🔥   STILL under 1 cent! Not for long!  #Telfam $BTC $ETH #Bitcoin #Crypto https://t.co/CJwIFwKq3W",36,13
1377176101080862722,"2021-03-31T08:29:03Z","@CosmoNFT Sparrows are waiting for owners🚨  few numbers #RARE items are available at #opensea with low prices https://t.co/5cwNZpADYk  #NFTCollectors #NFTs #crypto #cryptoart #nftart #nftdrop #nftcommunity #eth #pixelart #NFTartist #NFT   https://t.co/bI4x5davNY",1,0
1377176094760038413,"2021-03-31T08:29:02Z","🚀Hashmasks #5934🚀 SOLD for 3.4 ETH on OpenSea! Great buy but they would have been better waiting for the @jurassicasylum drop  Check out the transaction: https://t.co/BnxyA2SHf8 #JurassicAsylum #NFT #NFTartist #cryptoart #NFTCommunity https://t.co/WGM7WrIwjl",0,0
1377176093761826821,"2021-03-31T08:29:02Z","Prediction when #btc was at 58741   So if u want to learn trade .. Follow me , like share , Retweet post   #BTC #CryptoNews #Coinbase #eth  @cz_binance @VitalikButerin @michael_saylor @elonmusk @binance @BinanceAcademy @thebull_crypto @CrptoVIPsignal @coinbase @TheBlock__ https://t.co/mfXRusc7l8",1,0
1377176085289308165,"2021-03-31T08:29:00Z","Win Degenasaur #042 #NFT worth ETH! --&gt; https://t.co/l37pUrR6Y3   1.) RT this tweet   2.) Follow @degenasaurus  3.) Comment + tag 3 friends  OPTIONAL extra chance to Win! -&gt; 4.) Join discord post username twitter comp: https://t.co/Ewmuzju2wL  4.) Win randomly Sat 3rd April! https://t.co/eyLZUL4bFz",305,274
1377176071901093892,"2021-03-31T08:28:56Z","@PixelHeartsNFT Sparrows are waiting for owners🚨  few numbers #RARE items are available at #opensea with low prices https://t.co/5cwNZpADYk  #NFTCollectors #NFTs #crypto #cryptoart #nftart #nftdrop #nftcommunity #eth #pixelart #NFTartist #NFT   https://t.co/bI4x5davNY",0,0
1377176070399528964,"2021-03-31T08:28:56Z","DCT TOKEN Airdrop Medium Star Claim 1 DCT ($ 100) + 0.045 DCT ($ 10) for each referral you make.   Steps  💎  Join channel and group  💎  Follow twitter, like and retweet pinned message   💎  Submit eth wallet address (ERC-20) Participate now Airdrop link: https://t.co/L24stp8tVI https://t.co/CVYQyLAWwU",8692,8870
1377176069036339204,"2021-03-31T08:28:56Z","RT @asdf54834847: $eth #eth short at $1844 and take profit at $1787. Thank me later",0,1
1377176068356927489,"2021-03-31T08:28:56Z","Fact updated: $HOT holders are witnessing a new ATH EVERY DAY.  Let people know. #Holochain is way better not only than $BTC $ETH or $DOT, but also than #blockchain itself.  Therefore, TOP 10 is just a matter of time.   The market eventually will think outside the blocks! https://t.co/honY0BrnZW",232,100
1377176065366355971,"2021-03-31T08:28:55Z","I can wait for the real flippening in 2026. When $DAG finally flips #Bitcoin market cap. It's gonna be so beautiful.   $DAG $LTX $BTC $LCX $ETH",5,0
1377176059704041472,"2021-03-31T08:28:53Z","DCT TOKEN Airdrop Medium Star Claim 1 DCT ($ 100) + 0.045 DCT ($ 10) for each referral you make.   Steps  💎  Join channel and group  💎  Follow twitter, like and retweet pinned message   💎  Submit eth wallet address (ERC-20) Participate now Airdrop link: https://t.co/L24stp8tVI https://t.co/CVYQyLAWwU",8692,8870
1377176054616322059,"2021-03-31T08:28:52Z","Hashmask #5934 - “Unnamed” was purchased by https://t.co/L3JgYBgEN1 from https://t.co/3MX3PTZAbQ for 3.4000 $ETH ($6,297.79 USD) #thehashmasks #hashmasks  Character: Female Mask: African Eye: Green Skin: Gray Item: Bottle https://t.co/XBZCYR8tbC",4,0
1377176053907513344,"2021-03-31T08:28:52Z","DCT TOKEN Airdrop Medium Star Claim 1 DCT ($ 100) + 0.045 DCT ($ 10) for each referral you make.   Steps  💎  Join channel and group  💎  Follow twitter, like and retweet pinned message   💎  Submit eth wallet address (ERC-20) Participate now Airdrop link: https://t.co/L24stp8tVI https://t.co/CVYQyLAWwU",8692,8870
1377176053559435276,"2021-03-31T08:28:52Z","This #retweet is from the founder of #sentivate himself.  I hope you have bought the dip because it’s not gonna be low again ya! $SNTVT it to the heavens! 🚀 #sentivate   $eth $btc $aave $dent $npxs $dsla $xrp $ada $doge #Altcoins https://t.co/XnE4teAq8O https://t.co/jmZni06e0P",19,6
1377176051911065601,"2021-03-31T08:28:52Z","@artlancer_nft Sparrows are waiting for owners🚨  few numbers #RARE items are available at #opensea with low prices https://t.co/5cwNZpADYk  #NFTCollectors #NFTs #crypto #cryptoart #nftart #nftdrop #nftcommunity #eth #pixelart #NFTartist #NFT   https://t.co/bI4x5davNY",0,0
1377176049063141381,"2021-03-31T08:28:51Z","TA: Ethereum Bulls Keeps Pushing, Why Rally Isn’t Over Yet - NewsBTC via BTCnews for iOS https://t.co/HUgLvxm9cL",0,1
1377176048828252163,"2021-03-31T08:28:51Z","📢 Neeva DeFi Airdrop 📢 🎁 Reward 0.50 $NVA ($10) 📊 Already list in Latoken, and soon will list in Probit  ☑️ Mulai bot https://t.co/QwYhcN4H0L  ▪️ Finished to all task ▪️ Task YouTube (optional)  ▪️ Submit data ▪️ Enter address ETH ☑️ Selesai  #CTBot Adrop Ram .1 TRX 20",15,17
1377176040628363267,"2021-03-31T08:28:49Z","The DEX @FinanceChainge is set to launch on the @FUSIONProtocol network with over a million users on the protocols waitlist. This decentralized exchange aims to innovate on traditional models through leveraging the Fusion Network.  #BSC #BTC #ETH #BNB  https://t.co/xx55YiGfm3",21535,13658
1377176040221462537,"2021-03-31T08:28:49Z","The DEX @FinanceChainge is set to launch on the @FUSIONProtocol network with over a million users on the protocols waitlist. This decentralized exchange aims to innovate on traditional models through leveraging the Fusion Network.  #BSC #BTC #ETH #BNB  https://t.co/xx55YiGfm3",21535,13658
1377176036786380806,"2021-03-31T08:28:48Z","RT @QuintenFrancois: $ETH to $2500 in April or I'm giving away 0.3 $ETH to someone who retweets this.",4150,6184
1377176034009698308,"2021-03-31T08:28:47Z","Are you courious about induced seismicity? Then, look at the results of the EU project MEPHISTO @CORDIS_EU   @ETH_ERDW https://t.co/Huoz0cZjne https://t.co/5M8ifAMiYl",7,4
1377176027428839424,"2021-03-31T08:28:46Z","🌟 Announcing @GenShards &amp; @polkastarter First Ever Dual IDO  🌟 Polkastarter will integrate to BSC to increase the accessibility of IDOs and to promote cross-chain interoperability  🌟 GenShards ecosystem redefining NFTs as DeFi options  🗞️ INFO https://t.co/0JYXj8aK1P #SBN #BSC",149,145
1377176026048946180,"2021-03-31T08:28:45Z","@tanya_4d Sparrows are waiting for owners🚨  few numbers #RARE items are available at #opensea with low prices https://t.co/5cwNZpADYk  #NFTCollectors #NFTs #crypto #cryptoart #nftart #nftdrop #nftcommunity #eth #pixelart #NFTartist #NFT   https://t.co/bI4x5davNY",0,0
1377176015705804801,"2021-03-31T08:28:43Z","The series of @launchzoneann #BSC Spring Festival Referral Trading Challenge is blowing my mind 🤯  Get ready for your upcoming $BUSD $BNB $ETH $USDT $BETH $DOT $ADA rewards guys 🔥 Join them from 30th Mar 11:30 PM to 30th Apr 11:30 PM (HKT)!  Rewards &amp; more details below 👇 https://t.co/8IC291Bgo7",249,137
1377176009615712264,"2021-03-31T08:28:42Z","The @crowfinance Transcript from Mar 29th's AMA is now live on our site.  BSCNEWS hosts CrowFinance, an Evolution Yield Farming on Binance Smart Chain with daytime and nighttime burn mechanism system  #BinanceSmartChain #BSC #BTC #ETH #Ethereum #BNB  https://t.co/UmtPxpxfSP",55,21
1377176009376600074,"2021-03-31T08:28:41Z","RT @QuintenFrancois: $ETH to $2500 in April or I'm giving away 0.3 $ETH to someone who retweets this.",4150,6184
1377176007438819329,"2021-03-31T08:28:41Z","@Bzs50 Sparrows are waiting for owners🚨  few numbers #RARE items are available at #opensea with low prices https://t.co/5cwNZpADYk  #NFTCollectors #NFTs #crypto #cryptoart #nftart #nftdrop #nftcommunity #eth #pixelart #NFTartist #NFT   https://t.co/bI4x5davNY",0,0
1377176002091085827,"2021-03-31T08:28:40Z","#WRX touch 1usdt today night. Now it's under rectification    WRX full moon tonight 🤗  #BTC #BNB  #ETH  #BUSD  #trx",0,0
1377176000216264709,"2021-03-31T08:28:39Z","RT @cctip_com: [Update]CCTip is working now.  @cctip_io airdrop 0.005 ETH 200 #TryAgainNow",99,79
1377175994432323588,"2021-03-31T08:28:38Z","DCT TOKEN Airdrop Medium Star Claim 1 DCT ($ 100) + 0.045 DCT ($ 10) for each referral you make.   Steps  💎  Join channel and group  💎  Follow twitter, like and retweet pinned message   💎  Submit eth wallet address (ERC-20) Participate now Airdrop link: https://t.co/L24stp8tVI https://t.co/CVYQyLAWwU",8692,8870
1377175990133133319,"2021-03-31T08:28:37Z","@KeanaKills Sparrows are waiting for owners🚨  few numbers #RARE items are available at #opensea with low prices https://t.co/5cwNZpADYk  #NFTCollectors #NFTs #crypto #cryptoart #nftart #nftdrop #nftcommunity #eth #pixelart #NFTartist #NFT   https://t.co/bI4x5davNY",1,0
1377175973762793473,"2021-03-31T08:28:33Z","@TheCryptoLark Yeah. Or you can go directly in #Ethereum which is undervalued as hell. But I doubt Dave knows what that is 😂 $ETH",0,0
1377175969765584899,"2021-03-31T08:28:32Z","#Verasity is in discussion with third party NFT auction platforms to integrate Proof of View as an industry standard., i.e. partnerships and standards😱😱😱😱🚀🚀🚀🚀 #vra $vra $btc $eth",37,7
1377175968482140164,"2021-03-31T08:28:32Z","#NFTs on #Rewardiqa coming soon ! 🔥🚀🚀🚀👨‍🎨 #NFTCommunity  #nftcollector #NFTdrop #NFTGiveaway #REW #DeFi #BSCPAD #eth #btc #opensea #marketplace #bullrun #BinanceSmartChain https://t.co/Bo1M9Pox2L",820,756
1377175963558060040,"2021-03-31T08:28:31Z","@CyberRexes Sparrows are waiting for owners🚨  few numbers #RARE items are available at #opensea with low prices https://t.co/5cwNZpADYk  #NFTCollectors #NFTs #crypto #cryptoart #nftart #nftdrop #nftcommunity #eth #pixelart #NFTartist #NFT   https://t.co/bI4x5davNY",0,0
1377175957950226435,"2021-03-31T08:28:29Z","Welcome to massive Q DAO airdrop!   1. go now to telegram https://t.co/COyXgODY1z   2. Stay in telegram chat and wait announcement.  3. HOLD this gem until 10x   (soon - QDAO launch cross-chain for BSC, Polkadot and ETH)",4217,6165
1377175955815325700,"2021-03-31T08:28:29Z","Best entry price for $MATIC right now. $btc $chz $eth",2,0
1377175952841605121,"2021-03-31T08:28:28Z","#Crypto #Bitcoin #Binance #BNB  I think the bnb price could be very high soon, as the tokens will be burned in April #chzcoin #Crypto #altcoins #BinanceSmartChain $CHZ #kava #rvncoin #ETH https://t.co/dypp7SrNGf",2,1
1377175936265687041,"2021-03-31T08:28:24Z","@KennethBosak Sparrows are waiting for owners🚨  few numbers #RARE items are available at #opensea with low prices https://t.co/5cwNZpADYk  #NFTCollectors #NFTs #crypto #cryptoart #nftart #nftdrop #nftcommunity #eth #pixelart #NFTartist #NFT   https://t.co/bI4x5davNY",0,0
1377175922915176452,"2021-03-31T08:28:21Z","Welcome to massive Q DAO airdrop!   1. go now to telegram https://t.co/COyXgODY1z   2. Stay in telegram chat and wait announcement.  3. HOLD this gem until 10x   (soon - QDAO launch cross-chain for BSC, Polkadot and ETH)",4217,6165
1377175916317569027,"2021-03-31T08:28:19Z","@PixelPlanetNFTs Sparrows are waiting for owners🚨  few numbers #RARE items are available at #opensea with low prices https://t.co/5cwNZpADYk  #NFTCollectors #NFTs #crypto #cryptoart #nftart #nftdrop #nftcommunity #eth #pixelart #NFTartist #NFT   https://t.co/bI4x5davNY",0,0
1377175913620598786,"2021-03-31T08:28:19Z","The series of @launchzoneann #BSC Spring Festival Referral Trading Challenge is blowing my mind 🤯  Get ready for your upcoming $BUSD $BNB $ETH $USDT $BETH $DOT $ADA rewards guys 🔥 Join them from 30th Mar 11:30 PM to 30th Apr 11:30 PM (HKT)!  Rewards &amp; more details below 👇 https://t.co/8IC291Bgo7",249,137
1377175906360328194,"2021-03-31T08:28:17Z","My latest NFT has now gone live on @rariblecom. Lost is a collectable with 10 available to purchase, each at 0.25 $ETH.   https://t.co/sfVOTbGX9w  #nfts #cryptoart #cryptoartist #blockchain #rariblecom #nftartist #nftcollectable #NFTCommunity https://t.co/5Z4OwqY7JR",54,10
1377175898751782915,"2021-03-31T08:28:15Z","RT @elliotrades: The amount of people commenting that ETH is dead on my video .... wow, just wow.",1813,64
1377175898194014213,"2021-03-31T08:28:15Z","Yuki Yamamoto bought for 0.16540590609355357 ETH (300.00$) by BPHX on the primary market   Season: 2020-2021 Level: 0 Serial: 66/100 Price: 300.00$  ⚽ Sorare: https://t.co/GczqCEMsNn  📊: https://t.co/zFsW2DbYqI  #Sorare #NFT #Ethereum #FantasyFootball",0,0
1377175897384488968,"2021-03-31T08:28:15Z","Top 5 Mentions Updated Every 5 Minutes   Start Time: Wed Mar 31 2021 09:33:14 GMT+0300 (GMT+03:00)   (BETA STAGE)  1- $ETH==&gt;405  2- $BNB==&gt;181  3- $HBAR==&gt;131  4- $XRP==&gt;122  5- $AMB==&gt;115  - $Bitcoin #Bitcoin $Crypto #Crypto $Altcoin #Altcoin -",0,0
1377175895165652995,"2021-03-31T08:28:14Z","@kokokocrypto Sparrows are waiting for owners🚨  few numbers #RARE items are available at #opensea with low prices https://t.co/5cwNZpADYk  #NFTCollectors #NFTs #crypto #cryptoart #nftart #nftdrop #nftcommunity #eth #pixelart #NFTartist #NFT   https://t.co/bI4x5davNY",0,0
1377175876580745216,"2021-03-31T08:28:10Z","Most amazing game of #Tron world #NoleLegends is online as Beta 🎉🎉🚀🚀  Enjoy everybody 🎉🎉  #NoleLegends #NoleCoin $NOLE #NoleWater  @NoleCoinNOLE @NoleLegendsDapp @NoleWater @NoleXchange   @cctip_com draw 0.001 ETH 300 #NoleLegends_online   https://t.co/MzAFq4xKTc",50,44
1377175875993542662,"2021-03-31T08:28:10Z","@KennethBosak Sparrows are waiting for owners🚨  few numbers #RARE items are available at #opensea with low prices https://t.co/5cwNZpADYk  #NFTCollectors #NFTs #crypto #cryptoart #nftart #nftdrop #nftcommunity #eth #pixelart #NFTartist #NFT   https://t.co/bI4x5davNY",0,0
1377175857471528963,"2021-03-31T08:28:05Z","DCT TOKEN Airdrop Medium Star Claim 1 DCT ($ 100) + 0.045 DCT ($ 10) for each referral you make.   Steps  💎  Join channel and group  💎  Follow twitter, like and retweet pinned message   💎  Submit eth wallet address (ERC-20) Participate now Airdrop link: https://t.co/L24stp8tVI https://t.co/CVYQyLAWwU",8692,8870
1377175854350880777,"2021-03-31T08:28:05Z","@NFTGalleryPicks Sparrows are waiting for owners🚨  few numbers #RARE items are available at #opensea with low prices https://t.co/5cwNZpADYk  #NFTCollectors #NFTs #crypto #cryptoart #nftart #nftdrop #nftcommunity #eth #pixelart #NFTartist #NFT   https://t.co/bI4x5davNY",0,0
1377175852136341513,"2021-03-31T08:28:04Z","Totally decentralized P2P chat application begun to work.   It’s impossible to build such an app on $ETH network. Even if you build, each message costs you 50$. #Holochain makes decentralized chat free! $HOT  Holochain is way better than #blockchain. Think outside the blocks! https://t.co/oclP0OWW8G",248,83
1377175832079130628,"2021-03-31T08:27:59Z","HAWT. With my partnership with @illuviumio I can give away 100 HOLOGRAPHIC Scoot Scarabok NFTs.  Similar ones have gone for 5 eth to 50 eth.  How to get -Post your ETH address + BATTLE SCOOT! below -Retweet/tag a friend -Follow @illuviumio and join their discord in bio https://t.co/xcCVVW6KdR",2754,2661
1377175832033038350,"2021-03-31T08:27:59Z","🚀PRICE HIKE ALERT🚀 IM INCREASING THE PRICE BY +1 ETh Every Day this doesn’t sell!🚀.              ❤️Lollipop 2021 Sabet  1 of 1 • Now Available for Ξ 25.0  https://t.co/jbDacQ9TZo  @KnownOrigin_io  Art by @sabet  #cryptoart #NFT #cryptoartist #ETH",23,8
1377175832020443141,"2021-03-31T08:27:59Z","📢Scam Alert! ‼️Please be aware of scams‼️ There are fake groups, channels, and liquidity pools. We have not listed on Uniswap yet.   Here are our token information: HECO COOK: https://t.co/J5yvSaAENm BSC COOK: https://t.co/LL95w5pjvs ETH COOK: https://t.co/J23u3olh3N",245,152
1377175831538098177,"2021-03-31T08:27:59Z","Awesome @RealVision interview with @mnicoletos ...interesting that he is NOT long $ETH, because he says that there are better options...and mentions $HBAR @hedera specifically....  Maybe it's one of @RaoulGMI secret picks too?? https://t.co/uPJLJoMu9L",20,9
1377175825368326146,"2021-03-31T08:27:58Z","🟩 $BASE Will Moon So Hard 💎  Base Protocol will soon be doing a “Power Week” where they drop news every day.  👉 Hold a bag before it begin 😏 📈 My Target: Minimum 20x 🚀🌙  ___________________________ @cctip_com airdrop 0.01 ETH 99999 https://t.co/WPBJ9ZZp9k",155,213
1377175825359892484,"2021-03-31T08:27:58Z","@BaikalBingo @zeus_collector @CryptoClownNft @H_y_d_e_r_a_l_i @NftComposer @PeterjgrahamN @AndrejUrbancic1 0x86e9cF5f56bc3D3467d1E3a46E750A7b7C37D79C here is my ETH Addie!! 🙏☘️🍀💯💋😜🎁💕🤞🏻",1,0
1377175813901012995,"2021-03-31T08:27:55Z","@ChainlinkNFThub 🍬wish me luck🍬 0xA154D6ACeFE1648BF05E4c1B60ee6D10a881F493 #ETH https://t.co/uIBDUjAt40",1,1
1377175804262580234,"2021-03-31T08:27:53Z","@digiltable @thelgndryizzy Sparrows are waiting for owners🚨  few numbers #RARE items are available at #opensea with low prices https://t.co/5cwNZpADYk  #NFTCollectors #NFTs #crypto #cryptoart #nftart #nftdrop #nftcommunity #eth #pixelart #NFTartist #NFT   https://t.co/bI4x5davNY",1,1
1377175783500701696,"2021-03-31T08:27:48Z","All you need to make it in this bull run is $VRA 💯  $VRA will shine and outperform most tokens currently in top 100.  Upside is massive with the least risk in the cryptosphere.  Buy $VRA now or cry later 😭   It’s getting shilly in here. 🚀🚀  DYOR $RSR $DOT $KSM $BTC $ETH $ZERO https://t.co/H425xFFF4U",37,7
1377175772591349760,"2021-03-31T08:27:45Z","DCT TOKEN Airdrop Medium Star Claim 1 DCT ($ 100) + 0.045 DCT ($ 10) for each referral you make.   Steps  💎  Join channel and group  💎  Follow twitter, like and retweet pinned message   💎  Submit eth wallet address (ERC-20) Participate now Airdrop link: https://t.co/L24stp8tVI https://t.co/CVYQyLAWwU",8692,8870
1377175752601346048,"2021-03-31T08:27:40Z","@ArtworkByMH Sparrows are waiting for owners🚨  few numbers #RARE items are available at #opensea with low prices https://t.co/5cwNZpADYk  #NFTCollectors #NFTs #crypto #cryptoart #nftart #nftdrop #nftcommunity #eth #pixelart #NFTartist #NFT   https://t.co/bI4x5davNY",0,0
1377175745840041984,"2021-03-31T08:27:39Z","🔥 The Membrana #Giveaway | Rules 🔥 =   - Step 1: Like &amp; Retweet + tag 3-5 People! - Step 2: Follow @MBN_global  - Step 3: Join https://t.co/gRf7daTz3A - Step 4: Send Proof!   Prize = 100$ in #BTC or #ETH  31/03, we will announce the winner!",1328,1434
1377175735836663811,"2021-03-31T08:27:36Z","DCT TOKEN Airdrop Medium Star Claim 1 DCT ($ 100) + 0.045 DCT ($ 10) for each referral you make.   Steps  💎  Join channel and group  💎  Follow twitter, like and retweet pinned message   💎  Submit eth wallet address (ERC-20) Participate now Airdrop link: https://t.co/L24stp8tVI https://t.co/CVYQyLAWwU",8692,8870
1377175726047121412,"2021-03-31T08:27:34Z","RT @elliotrades: The amount of people commenting that ETH is dead on my video .... wow, just wow.",1813,64
1377175720976261121,"2021-03-31T08:27:33Z","@bignftcollector Sparrows are waiting for owners🚨  few numbers #RARE items are available at #opensea with low prices https://t.co/5cwNZpADYk  #NFTCollectors #NFTs #crypto #cryptoart #nftart #nftdrop #nftcommunity #eth #pixelart #NFTartist #NFT   https://t.co/bI4x5davNY",0,0
1377175716324798472,"2021-03-31T08:27:32Z","Genuinely curious if Art Twitter is going to boycott Paypal now..??? This is exponentially more environmentally damaging than NFTs because not only is Ethereum supported, but so is Bitcoin, which has 4x the emissions of ETH. What alternative platforms can independent artists use? https://t.co/zek7xyXwqL",1602,473
1377175709496451073,"2021-03-31T08:27:30Z","Totally decentralized P2P chat application begun to work.   It’s impossible to build such an app on $ETH network. Even if you build, each message costs you 50$. #Holochain makes decentralized chat free! $HOT  Holochain is way better than #blockchain. Think outside the blocks! https://t.co/oclP0OWW8G",248,83
1377175704257716230,"2021-03-31T08:27:29Z","@Cointelegraph Thank you to regularise the double spend problem send recive&amp;Trade OF 11EB 2021  ETHER 0.111335 ETH https://t.co/5GIViuJ9qP &amp; https://t.co/LHOWuz5MJ9 TETHER 196$not completed to 0xab52fbdf965888a6ddd4fcb4b35f1189e22d9f89 By changelly offert exchange in jaxx wallet support",0,0
1377175699853733893,"2021-03-31T08:27:28Z","We are happy to share this news that @RaiFinance will leverage @chain_swap technology to bridge its native token RAI between BSC and ETH! https://t.co/IINccLdQvO",5,0
