"ID","created_at","text","like_count","rt_count"
1376987588892983298,"2021-03-30T19:59:59Z","@Queen13Trx @bougeenetwork @RougeCoin @BitcoinGlobalEx @eth_classic @WhiteBit6 @binance @CDLToken @WhiteBIT_Token Thank you for the beautiful words 💯📈",3,0
1376987580064002048,"2021-03-30T19:59:56Z","ETH isn’t likely killable but some of the ETH killers will end up useful long run in some unexpected ways is my very boring opinion. How much will they be worth? No idea.",3,0
1376987576985296897,"2021-03-30T19:59:56Z","#ETH at $1,800 is a steal.  After this run it will never be under 2K again.  #Ethereum",0,0
1376987573424373767,"2021-03-30T19:59:55Z","🎁🎁  AIRDROP  Starts Soon 🎁🎁   We are giving 10,000 users 10,000   YearnCasino -YRNC-    Join the IEO  and grab it while it's still cheap https://t.co/sigigs6qZE   To Join the Airdrop   ✅ Retweet  ✅ Retweet Pinned Tweet  ✅ Follow us ✅ common wallet address  #Airdrop #eth https://t.co/LE1TgGDmxp",137,942
1376987571725627392,"2021-03-30T19:59:54Z","💧Roku Network Airdrop 💧  🏆 Task:          ➕  15 ROK (~$5)  👨‍👩‍👧 Referral:   ➕  3 ROK (~$1)  🔛  Airdrop Link &amp; Information: https://t.co/YhvsOcfEbH  #cryptocurrency #Crypto #Bitcoin  #BSC #BinanceSmartChain #Ethereum #ETH #Airdrop #bounty #ROK #RokuCoin #RokuNetwork",3738,4814
1376987571570552835,"2021-03-30T19:59:54Z","Order successful!  LAND Coordinates: [40, -95] Price: 7,500 $MANA ($8,250.0 USD = 4.4808 $ETH)  Purchased by https://t.co/pVq82zY0Ut from https://t.co/EwLRZPUe3i  https://t.co/FzoGkPf3pk #decentraland #land #parcel #estate #mana https://t.co/Q2cQ4nS07H",4,0
1376987554361270276,"2021-03-30T19:59:50Z","Breaking: Clayton joins One River Asset Management ~ a pivotal Bitcoin player late 2020 by scooping up $600 million in BTC and ETH. The firm said it expected to own roughly $1 billion worth of BTC and Ether (ETH) by the first half of 2021. @JohnEDeaton1 @attorneyjeremy @FilanLaw",678,151
1376987553518256135,"2021-03-30T19:59:50Z","Wanna know what's going on in the Metaverse while you're not around? Check out my YT https://t.co/rfIdcf4nkU  #nft #nfts #nftart #metaverse #dcl #decentraland #eth #mana #crypto #btc #ltc",12,4
1376987547058978822,"2021-03-30T19:59:49Z","My Sci-Fi Helmet is listed at 0.5ETH on @withFND! 🎨💻 https://t.co/dhdWxHk79X  Go check it out - #reshare &amp; #repost to support my first #nft drop!🚀  #nftart #nfts #cryptoart #ethereum #eth⁠ #digitalart #scifi #cgi #3d #3dart #artist #art #digital #design #render #lighting #vfx",102,23
1376987542076055553,"2021-03-30T19:59:47Z","HAWT. With my partnership with @illuviumio I can give away 100 HOLOGRAPHIC Scoot Scarabok NFTs.  Similar ones have gone for 5 eth to 50 eth.  How to get -Post your ETH address + BATTLE SCOOT! below -Retweet/tag a friend -Follow @illuviumio and join their discord in bio https://t.co/xcCVVW6KdR",2754,2661
1376987540943683588,"2021-03-30T19:59:47Z","@Rhett_Creighton One i made myself that i bought from myself for 7 eth that i intended to sell to someone else for a discounted price of 5 eth.",0,0
1376987537676320768,"2021-03-30T19:59:46Z","$wan Is going places that's how crazy runs begin! easy 500x 😲👑💯 $wasp $iota $comp $agi $btc $eth $link $rsr $bnb $celr $algo $uni $theta $orai $enj $hbar $qnt $ada $crypto $Fet $Link $wan $Orai $Band #Api3 #crypto #btc #eth https://t.co/awTBzN2haj https://t.co/vYHFNO2TbX",17,4
1376987532978749447,"2021-03-30T19:59:45Z","Don't miss this #Airdrop  and get a free drop for #uniswap and #1inch  #Crypto #cryptocurrencies #BTC #ETH #blockchain #Coinlist #BULLISH #NFT #DeFi #token #coin                     https://t.co/rxlglCMo1n",0,2
1376987527005962243,"2021-03-30T19:59:44Z","@hex_next @ccfxstudios @RichardHeartWin @WholesomeHex @HEXisEffortless @StakeHEX5555 A fork of ETH means that everyone who has ETH, will have Pulse in equal % to supply. If Pulse is 1:1 to ETH, then yes you will have exactly the same amount of Pulse to your ETH holdings.",2,0
1376987517862486026,"2021-03-30T19:59:42Z","$ONE @harmonyprotocol  retweet please! I want to open a challeng buy and hold $one soon huge news is coming retweet please! $btc $eth $dot $ada $neo https://t.co/EGCz7U1FLK",40,20
1376987499021602818,"2021-03-30T19:59:37Z","I hope everyone on this $HOT @holochain 🚀🚀 Ready for a serious take off in 2021 and beyond.  #Holo #Hot  #cryptocurrency #Crypto #HoloFuel #bitcoin #btc #Ethereum #blockchain #eth #currency #xrp #trading #altcoin #ripple #binance #CryptoNews #Holoarmy #Holochain 💎👊🚀🌜 https://t.co/TrFDMOQbnr",8,2
1376987498673537031,"2021-03-30T19:59:37Z","Risk-averse traders who believe Ethereum is in a bull trend often use the Iron Condor options strategy to limit their downside risk. Ether (ETH) has been m...Read more: https://t.co/2EpIr2YJlh",0,0
1376987494768599041,"2021-03-30T19:59:36Z","Anonymity has been the most critical feature of the blockchain and cryptocurrency over the years. Privacy-inclined users in the BSC network will find @TyphoonCrypto, a helpful privacy protocol.  #BinanceSmartChain #BSC #BTC #ETH #Ethereum #BNB https://t.co/8aDeTTqq8e",85,31
1376987484790345730,"2021-03-30T19:59:34Z","$wan Is going places that's how crazy runs begin! easy 500x 😲👑💯 $wasp $iota $comp $agi $btc $eth $link $rsr $bnb $celr $algo $uni $theta $orai $enj $hbar $qnt $ada $crypto $Fet $Link $wan $Orai $Band #Api3 #crypto #btc #eth https://t.co/awTBzN2haj https://t.co/vYHFNO2TbX",17,4
1376987477286785030,"2021-03-30T19:59:32Z","Stimmy never came. I guess the government found out I was going to invest it all on ETH and Bitcoin. Oh well",2,0
1376987475403505664,"2021-03-30T19:59:31Z","HAWT. With my partnership with @illuviumio I can give away 100 HOLOGRAPHIC Scoot Scarabok NFTs.  Similar ones have gone for 5 eth to 50 eth.  How to get -Post your ETH address + BATTLE SCOOT! below -Retweet/tag a friend -Follow @illuviumio and join their discord in bio https://t.co/xcCVVW6KdR",2754,2661
1376987473729970177,"2021-03-30T19:59:31Z","RT @harmony_coin: With smart contacts delayed on $ADA and the continuation of high gas fees on $ETH  harmony $ONE has some unique opportuni…",77,23
1376987473478213632,"2021-03-30T19:59:31Z","#MXCExchange will list $TOWER and Launch the 43rd Session MX DeFi - Stake $USDT, $MX, $BTC, $ETH to Earn Yield $TOWER.  ▶️Follow @MXC_Exchange &amp; @TowerToken  ▶️Like, RT &amp; Tag 3 friends ▶️Comment  🏆10 ppl * 125 $TOWER  More info about the listing: https://t.co/VqsPboXOb5 https://t.co/6RZ4gmWYtY",992,770
1376987466888966145,"2021-03-30T19:59:29Z","And ELOHIYM said, Behold, I have given you eth-every herb bearing seed, which is upon the face of all the earth, and eth every tree, in the which is the fruit of a tree yielding seed; to you it shall be for food. BERE'SHIYTH (GENESIS) 1:29   Why is scripture being ignored??",20,10
1376987466645843975,"2021-03-30T19:59:29Z","Hey #NFTCommunity , Today I updated my collection on @opensea   Panic Ξ 0.44 ETH Remaining Ξ 0.33 ETH Monetary Prostitute Ξ 0.11 ETH Check it Out And Feel Free To Place a Bid Guys   #NFT #NFTs #nftcollector #nftcollectors #cryptoartist #cryptoart https://t.co/3F7BXbWbyx",34,12
1376987463294590976,"2021-03-30T19:59:29Z","OH. I also just dropped a new #NFT on @opensea before I got totally distracted by @NiftyWhaleNFT making my day with a bid! I set the auction reserve low (.25 ETH), since it's more of a sketchbook-style work.  #NFTCommunity #nftcollector #nftart #cryptoart  https://t.co/BcaJLwTInO",73,20
1376987448971030529,"2021-03-30T19:59:25Z","I was lost and found eternity Collab with @UnoDwicho  Available for bidding on Rarible: https://t.co/qRqJHP9nHk  Guardian Angels My genesis collection available on Foundation  Reserve price of 1.11 ETH https://t.co/ZeseJci5ng  Check them out!!!  love all yall,  Jack🖤 https://t.co/LAG1fFTQtQ",57,23
1376987448559951874,"2021-03-30T19:59:25Z","@bitcuin Doesn't make you any less of shitcoiner holding eth bag",0,0
1376987440729186309,"2021-03-30T19:59:23Z","Hendrik Van Crombrugge bought for 0.3 ETH (552.89$) on the secondary market   Season: 2020-2021 Level: 3 Serial: 19/100 Price: 552.89$  ⚽ Sorare: https://t.co/hLqcTQWVXA  📊: https://t.co/T6bp0S6b4o  #Sorare #NFT #Ethereum #FantasyFootball",0,0
1376987439747719168,"2021-03-30T19:59:23Z","We are not forking #hex, we are forking #eth. Most likely 1 to 1 for eth holders. Your hex position would be duplicated on the new chain. https://t.co/Lq0fEvudLU",101,11
1376987430406868993,"2021-03-30T19:59:21Z","Collected this dreamy piece from my boy @_bydomo   Y'ALL MFS SLEEPING ON HIM   HIS WORK GONNA BE WORTH 10+ ETH SOON Y'ALL BETTER BUY IT NOW WHILE IT'S CHEAP 👇 https://t.co/Sdz6uxHi16 https://t.co/O8cThgtZed  #NFTCommunity #nftcollector #cryptoartist #NFT https://t.co/vVDyh8XAui",33,12
1376987423952007177,"2021-03-30T19:59:19Z","Little hint !  #cryptoart #nft #nfts #nftartist #drop #nftcollectibles #eth #share #mdcommunity #motiondesigners #motionlovers #nftcollectors https://t.co/szhaKB5lgW",1,0
1376987416351936516,"2021-03-30T19:59:17Z","DUE TO LAST WEEK HACK @tryrollhq WE GOT NOTIFIED THAT $PIXEL WERE ALSO DRIED OUT FROM @Uniswap POOLS.   WE DECIDED TO REMOVE ALL PIXEL/ETH POOLS NOW &amp; CREATE NEW ONES @0xPolygon ON L2.  $PIXEL IS ALREADY MAPPED &amp; SOON POOLS WILL BE OPEN AGAIN.   #HODL YOUR $PIXEL.  ✏️/1 https://t.co/NzUi6adr0T",24,17
1376987412103102466,"2021-03-30T19:59:16Z","Good piece from @CoinDesk on all that's happening in the #NFT world. #NFTs #NFTart #Cryptoart @beeple @ChristiesInc @mcuban @ParisHilton @justinsuntron @CryptoFinally @iamDCinvestor @jeffwilser $ETH #Ethereum #crypto   https://t.co/l8qe0y4FLK",78,15
1376987403861299204,"2021-03-30T19:59:14Z","RT @Crypt0mummy: READY FOR #FegEx 🔥🚀  #FEG #FegTrack $FEG #Crypto #CryptoNews #Altcoins #DeFi #bsc #bnb #ETH #Binance https://t.co/hd2aOWL5…",254,118
1376987400887365634,"2021-03-30T19:59:14Z","Collected this dreamy piece from my boy @_bydomo   Y'ALL MFS SLEEPING ON HIM   HIS WORK GONNA BE WORTH 10+ ETH SOON Y'ALL BETTER BUY IT NOW WHILE IT'S CHEAP 👇 https://t.co/Sdz6uxHi16 https://t.co/O8cThgtZed  #NFTCommunity #nftcollector #cryptoartist #NFT https://t.co/vVDyh8XAui",33,12
1376987397074866184,"2021-03-30T19:59:13Z","RT @money_blizzard: Slide on down to our newest pools!   ❄️The ICE is NICE❄️  Stake your $BLZD to earn $ETH or $BTC https://t.co/kIJ9ghmG4a",41,12
1376987395820822533,"2021-03-30T19:59:13Z","It’s quite obvious #HEX is very undervalue through all the bullshit it has to go through @CoinMarketCap @coingecko #ETH high gas fees @VitalikButerin @elonmusk tweeting about @dogecoin reckless behavior. I thought crypto was here to solve problems not make them. https://t.co/r89jtwc91G",5,0
1376987392389705728,"2021-03-30T19:59:12Z","It's time to #octoaliens Giveaway.  1) Follow @octoaliens 2) Like and Retweet 3) Tag 3 friends below  Win a unknown #octoaliens (min. value 0.5 ETH).   Min. Participants: 15  #NFT #NFTs #NFTGiveaway #nftcollector #NFTCommunity https://t.co/EtEi2ljitf",108,102
1376987386647875588,"2021-03-30T19:59:10Z","Check the Volume on all the BTC pairings on @kucoincom the only other coin is $ETH that has higher Volume than $VRA on the whole exchange, that just puts everything into perspective that we are onto a real winner here Verasians!👏👏💪💪🔥🔥🔥💎  @verasitytech @rjmark_verasity https://t.co/vKh4APTxkQ",382,81
1376987386236796933,"2021-03-30T19:59:10Z","Boom 🚀  Short term $QNT/ $USD bull flag target, clearly aiming for $120 per #QNT INSHALLAH.   $eth $link $xrp $zil #BTC #altcoin #Binance #BNB #Bitcoin #NFTCommunity #XRP #LINK #Ethereum #ETH $bnb https://t.co/Fp7Sn4uMI7",108,28
1376987383732781060,"2021-03-30T19:59:10Z","RT @QuintenFrancois: $ETH to $2500 in April or I'm giving away 0.3 $ETH to someone who retweets this.",4150,6184
1376987375168069633,"2021-03-30T19:59:08Z","HAWT. With my partnership with @illuviumio I can give away 100 HOLOGRAPHIC Scoot Scarabok NFTs.  Similar ones have gone for 5 eth to 50 eth.  How to get -Post your ETH address + BATTLE SCOOT! below -Retweet/tag a friend -Follow @illuviumio and join their discord in bio https://t.co/xcCVVW6KdR",2754,2661
1376987374400462851,"2021-03-30T19:59:07Z","Didn’t realise the keyboard in the #iOS1442 update has #Cryptocurrency symbols! $LTC #BTC $ADA $ETH #ETH where the #DogeCoin ? https://t.co/g8B8mjn8Mc",2,0
1376987364090781703,"2021-03-30T19:59:05Z","RT @QuintenFrancois: $ETH to $2500 in April or I'm giving away 0.3 $ETH to someone who retweets this.",4150,6184
1376987363977670660,"2021-03-30T19:59:05Z","RT @QuintenFrancois: $ETH to $2500 in April or I'm giving away 0.3 $ETH to someone who retweets this.",4150,6184
1376987363856031744,"2021-03-30T19:59:05Z","$BIA Great market where you can buy LARGE projects with small caps only available on uniswap $DANK $KYRN $ERN $ERSDL $SUMO $SWPRL $ZPAY $AXS $TROY $FOR $COS $MASKA $CUDOS $ICAP $OCEAN $MARS $ARTH $LGCY $BTC $ETH                                             https://t.co/9v6sgEXYwm",3,1
1376987344914542592,"2021-03-30T19:59:00Z","@CryptoVince369 There's upside and downside to holding both. #HEX will be like #BTC (Ideal for SoV) And #Pulse will be like #ETH.",9,0
1376987340774633474,"2021-03-30T19:58:59Z","Will ETH hit $3k by the end of April?",0,0
1376987339529019394,"2021-03-30T19:58:59Z","Earn up to 50,000% APR in Farms!  NEW PAIRS ARE LIVE! 🔥🔥 Enjoy free gift from us - high APR %  Promo 3,9% bonus non piano pairs! https://t.co/33qfVQ9HeL  - PIANO/ADA - PIANO/DOT - DOT/ETH - USDT/BUSD  #BSC #BNB #DOT #DeFi https://t.co/ox2C4RnvVd",122,42
1376987338702659589,"2021-03-30T19:58:59Z","Pay attention to @SecretNetwork   $SCRT  DON'T FOMO  $BTC $ETH $XMR $ZCH https://t.co/DafclJO5nt",1,0
1376987334500048899,"2021-03-30T19:58:58Z","RT @QuintenFrancois: $ETH to $2500 in April or I'm giving away 0.3 $ETH to someone who retweets this.",4150,6184
1376987325968879621,"2021-03-30T19:58:56Z","Yes! $TEL can be bought in the #V3 app (other coins can be stored / exchanged). #Telcoin is becoming a mobile exchange. Toss in staking &amp; their growing remittance business &amp; it's easy to see why this compliance-first biz is going to the top of #CMC.  $BTC $ETH #Crypto #Bitcoin https://t.co/SLSzNQongI",26,6
1376987322030379008,"2021-03-30T19:58:55Z","➡️ @jack has accepted a bid of US$2.9-million (1630.6 ETH) for the NFT of his first tweet. @sinaEstavi, CEO of Bridge Oracle, bought it on the Valuables platform.✨ https://t.co/rpU99BKwxp",5,2
1376987315004932098,"2021-03-30T19:58:53Z","RT @QuintenFrancois: $ETH to $2500 in April or I'm giving away 0.3 $ETH to someone who retweets this.",4150,6184
1376987300727382016,"2021-03-30T19:58:50Z","HAWT. With my partnership with @illuviumio I can give away 100 HOLOGRAPHIC Scoot Scarabok NFTs.  Similar ones have gone for 5 eth to 50 eth.  How to get -Post your ETH address + BATTLE SCOOT! below -Retweet/tag a friend -Follow @illuviumio and join their discord in bio https://t.co/xcCVVW6KdR",2754,2661
1376987293081296900,"2021-03-30T19:58:48Z","RT @QuintenFrancois: $ETH to $2500 in April or I'm giving away 0.3 $ETH to someone who retweets this.",4150,6184
1376987292414410755,"2021-03-30T19:58:48Z","@KoroushAK $FSW going to pump. They're an aggregator that matches transactions on layer 2 and any trades that aren't matched are batched up and sent to DEX's with gas fee split between many. This will drastically reduce the eth gas fees for everyday DEX users",1,0
1376987289503551497,"2021-03-30T19:58:47Z","RT @QuintenFrancois: $ETH to $2500 in April or I'm giving away 0.3 $ETH to someone who retweets this.",4150,6184
1376987286940831746,"2021-03-30T19:58:47Z","RT @JimmyRagosa: Hi, I'm Jimmy. I outperform this dude by buying ETH once per month since 2015 on my Moto g4.",1683,110
1376987281404334081,"2021-03-30T19:58:45Z","the first #based music nft just dropped let's goooooooooooo  s/o to @KeyboardKid206 for sharinb our future visions 😎  go check it out and maybe even place a bid!   #nft #crypto #art #music $eth @NftsTips https://t.co/1nJTB0Zp0h",14,8
1376987273301000193,"2021-03-30T19:58:43Z","From a macro-economic standpoint, the digital asset large caps, (from a rotational perspective), BTC &amp; ETH, are right on track with respect to this bull cycle's out-performance of Metcalfe's Law.   Alt-season incoming in earnest. https://t.co/pIlFw2YHDJ",404,70
1376987253675864077,"2021-03-30T19:58:39Z","RT @chainlinkace: 🏆Drop your $ETH address here🏆",931,445
1376987244695814145,"2021-03-30T19:58:36Z","RT @QuintenFrancois: $ETH to $2500 in April or I'm giving away 0.3 $ETH to someone who retweets this.",4150,6184
1376987242795839489,"2021-03-30T19:58:36Z","Weekly #BTC dom chart. i think if this breaks down below that bottom line alts are really going to run. $link $dot $bnt $grt $eth $klv we're all gonna make it https://t.co/rWTaRYBqfX",16,2
1376987236202389505,"2021-03-30T19:58:34Z","$BTC to $72K, $ETH to $3.6K. Those are my potential targets in the not so distant future (Ethereum needs to break out first).   My reasoning is in the video below + a news recap.  https://t.co/UkSt39uCnY",1249,141
1376987234499452928,"2021-03-30T19:58:34Z","RT @QuintenFrancois: $ETH to $2500 in April or I'm giving away 0.3 $ETH to someone who retweets this.",4150,6184
1376987229193531396,"2021-03-30T19:58:33Z","Still plenty of time to get in your bid for this 1/1 #LuckyCryptoCat. This badass cat likes karate, hot chicks, cars, and rock music. #nft #nfts #NFTCommunity #NFTcollectibles #nftcollector #CobraKai #pixelart #cryptoart #cats #NFTcollection $btc $eth https://t.co/91H4Dt6hqW https://t.co/RwT47q2gQV",7,0
1376987225599008769,"2021-03-30T19:58:32Z","RT @davidgokhshtein: i don't care who freaks out, but $ETH is going higher than $10,000 IMO.   Same exactly pattern as #bitcoin in 2017. sa…",435,55
1376987225309769728,"2021-03-30T19:58:32Z","RT @scoinaldo: $ETH to 3k USD in April or I’ll delete this tweet.",3154,229
1376987224592420868,"2021-03-30T19:58:32Z","RT @scoinaldo: $ETH to 3k USD in April or I’ll delete this tweet.",3154,229
1376987220301787141,"2021-03-30T19:58:31Z","RT @QuintenFrancois: $ETH to $2500 in April or I'm giving away 0.3 $ETH to someone who retweets this.",4150,6184
1376987219714469891,"2021-03-30T19:58:31Z","RT @QuintenFrancois: $ETH to $2500 in April or I'm giving away 0.3 $ETH to someone who retweets this.",4150,6184
1376987217416032258,"2021-03-30T19:58:30Z","🎁Competition time!🎁  WIN this 1 of 3 NFT  🍄Entrance of the Eth🍄  ....just....  LIKE✔ SHARE this post ✔ FOLLOW the page ✔  ....and we'll pick a winner in 48hrs 😊💛🐼🙏🎉   Good luck everyone x https://t.co/T38uHnTGmh #NFT #NFTart #Rarible #Kiefmonster #NFTcompetition https://t.co/XN9WLaRZv2",127,88
1376987215809679362,"2021-03-30T19:58:30Z","HAWT. With my partnership with @illuviumio I can give away 100 HOLOGRAPHIC Scoot Scarabok NFTs.  Similar ones have gone for 5 eth to 50 eth.  How to get -Post your ETH address + BATTLE SCOOT! below -Retweet/tag a friend -Follow @illuviumio and join their discord in bio https://t.co/xcCVVW6KdR",2754,2661
1376987214249332736,"2021-03-30T19:58:29Z","The new #NFT platform for #football fanatics! Play with your favorite team and get a valuable collection of cards buy bid sell earn  #NFTs #ETH  #nftart                                         LINK- https://t.co/pUnOd9C2lQ          https://t.co/0BowyKa3Mw #Sorare przez @SorareHQ",0,2
1376987207228096517,"2021-03-30T19:58:28Z","RT @TheCryptoCactus: $ETH / USD  The question is not if but only when... https://t.co/VY6vHydleF",380,48
1376987206997381128,"2021-03-30T19:58:27Z","April could bring SXP to the moon The accumulation phase was perfect, with high volumes Not financial advice  #SXP $sxp #altcoins #Altseason2021 #altcoin #Bitcoin #bitcoinnews #BTC #Binance #swipe $swipe #doge #wallstreetbets #ada #dot #xrp #ltc #eth #uni #cryptocurrency #crypto https://t.co/5h5BDcI5OE",1,0
1376987204707303428,"2021-03-30T19:58:27Z","https://t.co/U3F4FHpMJK  Another day, another NFT.   -3D + Live Action GIF 🌟-  Femme Fatal  Bid Price: 0.3 ETH  #NFT #NFTs #NFTCommunity #nftart #NFTartist #NFTcollectibles #digitalart #3dart #liveaction #videoart #GIF",1,0
1376987204187226114,"2021-03-30T19:58:27Z","Are Your Funds Safe?  Several million dollars have been stolen due to smart contracts bugs ⚠  Investors should always require a security audit of the ERC20 token in which they invest ✅  Learn more about smart contracts audits: 📌https://t.co/JGM0IF91pL  #ERC20 #ETH #DeFi $CLO https://t.co/wCySYQh9iK",99,87
1376987199074312194,"2021-03-30T19:58:26Z","@QuintenFrancois @TopShotBull23 I both think that this is possible and also could use .3 ETH. So not sure how to feel about this one!",2,0
1376987198633967621,"2021-03-30T19:58:25Z","Kevin Molino bought for 0.349 ETH (643.19$) on the secondary market   Season: 2020-2021 Level: 6 Serial: 31/100 Price: 643.19$  ⚽ Sorare: https://t.co/4xeOzXcSg6  📊: https://t.co/RJhg9J1DU1  #Sorare #NFT #Ethereum #FantasyFootball",0,0
1376987197589528577,"2021-03-30T19:58:25Z","RT @QuintenFrancois: $ETH to $2500 in April or I'm giving away 0.3 $ETH to someone who retweets this.",4150,6184
1376987196612354051,"2021-03-30T19:58:25Z","$ETH is about to rocket! https://t.co/MJHqXyU9db",0,0
1376987192405413897,"2021-03-30T19:58:24Z","RT @bitcoin_curious: #ETH is undervalued.   #DGB is even more undervalued.",31,8
1376987186701160452,"2021-03-30T19:58:23Z","Collected this dreamy piece from my boy @_bydomo   Y'ALL MFS SLEEPING ON HIM   HIS WORK GONNA BE WORTH 10+ ETH SOON Y'ALL BETTER BUY IT NOW WHILE IT'S CHEAP 👇 https://t.co/Sdz6uxHi16 https://t.co/O8cThgtZed  #NFTCommunity #nftcollector #cryptoartist #NFT https://t.co/vVDyh8XAui",33,12
1376987185862217731,"2021-03-30T19:58:22Z","the first #based music nft just dropped let's goooooooooooo  s/o to @KeyboardKid206 for sharinb our future visions 😎  go check it out and maybe even place a bid!   #nft #crypto #art #music $eth @NftsTips https://t.co/1nJTB0Zp0h",14,8
1376987180254511123,"2021-03-30T19:58:21Z","🔶 ViteX Exchange Dex 🔶 🔸 $VX Staking APR 75%🔸  🚦Join:  https://t.co/24PTq7iglh 🚦Code:  𝟵𝟲𝟭𝟰𝟲𝟭𝟰𝟬𝟰  🌐 Install App &amp; Buy Vite Token 🌐 Mining Staking Vite Token 🌐 Dividends VX Token or #BTC #ETH #USDT 🌐 Trading Income VX Token 🌐 Done  @CTBott Adrop Avg 100 SPKL 50 https://t.co/s5XD1JU90v",41,48
1376987179331825673,"2021-03-30T19:58:21Z","$ETH is about to explode, you guys. This is it.",3,0
1376987176122998787,"2021-03-30T19:58:20Z","RT @krugman25: $ETH $BTC https://t.co/FsM5WjRImh",1235,115
1376987175955406852,"2021-03-30T19:58:20Z","OMG 😱  Day 1 on CMC   TacoToken🌶  is Top pair on #coinmarketcap    #tacoswaptothemoon #cryptocurrencies #tacoswaptomars #defi #eth #ADA #ethereum #crypto @bepronet @Poolz__ @Xed",1184,1072
1376987169009459202,"2021-03-30T19:58:18Z","RT @somayacrypto: Can we pump TVL on @dHedgeOrg to 100mil?  Thanks.  $YFI $ETH $LINK $AAVE $DOT #DEFI $UNI $REN https://t.co/Gs53UpqCjP",22,5
1376987160855904260,"2021-03-30T19:58:16Z","💧YetuBit Airdrop 2nd Round💧  🏆 Task:          ➕  25 YETU (~$20)  👨‍👩‍👧 Referral:   ➕  5 YETU (~$4)  🔛  Airdrop Link &amp; Information: https://t.co/ZoGw3AR71I  #cryptocurrency #Crypto #Bitcoin  #BSC #BinanceSmartChain #Ethereum #ETH #Airdrop #bounty #YetuBit #YetuSwap #YETU",4463,5632
1376987157332697093,"2021-03-30T19:58:16Z","Keeping the thread alive:   If I had to guess....  $ETH https://t.co/P81tfrXmyk",1,0
1376987157273870339,"2021-03-30T19:58:16Z","Every 10 seconds a new $FREE coin blockchain wallet is created (most on #BSC, others on #ETH and #TronNetwork ) 🚀  This is a clear and objective indication of the accelerated adoption of the $FREE coin ❤️  @binance @BinanceResearch @BinanceChain @cz_binance @bepalliance https://t.co/zLRntXqfUQ",431,199
1376987155860443136,"2021-03-30T19:58:15Z","HAWT. With my partnership with @illuviumio I can give away 100 HOLOGRAPHIC Scoot Scarabok NFTs.  Similar ones have gone for 5 eth to 50 eth.  How to get -Post your ETH address + BATTLE SCOOT! below -Retweet/tag a friend -Follow @illuviumio and join their discord in bio https://t.co/xcCVVW6KdR",2754,2661
1376987151385165834,"2021-03-30T19:58:14Z","Swap #Eth and #ERC20 tokens on the $HPB #blockchain network, and avoid the crazy #uniswap gas fees! - Mytrade on #HPB - https://t.co/T5RxWgwAvH",29,12
1376987148407033856,"2021-03-30T19:58:14Z","HAWT. With my partnership with @illuviumio I can give away 100 HOLOGRAPHIC Scoot Scarabok NFTs.  Similar ones have gone for 5 eth to 50 eth.  How to get -Post your ETH address + BATTLE SCOOT! below -Retweet/tag a friend -Follow @illuviumio and join their discord in bio https://t.co/xcCVVW6KdR",2754,2661
1376987142841327628,"2021-03-30T19:58:12Z","$eth buy $tsla or something?",0,0
1376987137795497986,"2021-03-30T19:58:11Z","the first #based music nft just dropped let's goooooooooooo  s/o to @KeyboardKid206 for sharinb our future visions 😎  go check it out and maybe even place a bid!   #nft #crypto #art #music $eth @NftsTips https://t.co/1nJTB0Zp0h",14,8
