"ID","created_at","text","like_count","rt_count"
1376187315178119176,"2021-03-28T14:59:58Z","@actuallyaryaman Another airdrop ooo, u snooze, u loose  https://t.co/Q2WH3JYwUK Click on the link, add to your Ethereum wallet, that's all 1 Ethereum is over 500k naira... Distribution on 30th of March",0,0
1376187311982002181,"2021-03-28T14:59:58Z","Is amazing to see how this project has been out since Dec 2020 and so far Liquidity Providers have earned about 6533.78 $ETH and that is the total value of $10.6 Million dollars. 💪  Also the APY doing 301.35% which is amazing.  #DeFi #UniSwap #BSC #SmartContract #Ethereum https://t.co/9a7rgyoMpE",2385,0
1376187305774436354,"2021-03-28T14:59:56Z","RT @chainlinkace: 🏆Drop your $ETH address here🏆",937,0
1376187299894075397,"2021-03-28T14:59:55Z","🥳WE'RE GOING BACK UP!🥳  314K TVL AND COUNTING! Get ready for the SEED launch and join our pools🌳  #fairlaunch $seed $tree #pool #fee #eth #BNB  #BSC #BNB #YieldFarming #Dapp #defi #Binance  #Airdrop #NFT #Crypto #BTC #dai #wbnb #usdt #BUSD #btcb https://t.co/pZ3L7aMJCM",5,1
1376187296064499713,"2021-03-28T14:59:54Z","#DeFi #BKC #eth2 #BucksCake  ANNOUNCEMENT!  Dear BucksCake's community members!  The exact date of BKC listing on Uniswap set for 04/20/2021!  2 days before it, the exact opening time of the trading pair BKC/ETH on Uniswap...  More at https://t.co/RQPMhjazG2 https://t.co/VjtBbXBA1t",2856,1
1376187292474208267,"2021-03-28T14:59:53Z","$KLV is now Top 3 coin by Social Engagements, with over 75 million engagements, and only $BTC &amp; $ETH ahead of #KLV!  Thank you for sharing the #klever vision of financial independence for all 🙏🏽 https://t.co/8M4aEksIHQ",664,1
1376187290477805571,"2021-03-28T14:59:53Z","@intocryptoverse Eth, Link",3,0
1376187283355828230,"2021-03-28T14:59:51Z","I'll send $300 in #ETH or #BTC to one person who retweets this and follows @bud_crypto. Must complete these tasks:  1 - Like/RT his pinned tweet  2 - Must RETWEET &amp; LIKE 4 of his tweets  Ends in 72 hours!",1206,0
1376187277680992258,"2021-03-28T14:59:49Z","This is the last time to buy $CUR &amp; $CGT from @curio_invest cheap !!! Next week news about new cars sale (#tokenization) and new website design.  #polkadot #kusama #chainlink  #DeFi #ETH #BTC #CUR #Binance #cryptocurrencies #Crypto #cryptocurrency #ALTSEASON #uniswap #uniswapgem https://t.co/LuXWtqgeAm",19,0
1376187277123190787,"2021-03-28T14:59:49Z","@trashstar_eth Hello! Please check my art, hope you enjoy it! -CryptoBank-  Don’t get stuck, trying to get some crypto  The owner will receive a High-Res JPG 4000px x 4000px 300dpi  Avaibable on Foundation https://t.co/qDbla71FCM",0,0
1376187275885826049,"2021-03-28T14:59:49Z","It's time to discuss the pre-sales. It is expected that there will be two rounds of pre-sales in the next two months. Constructive suggestions from community members are welcome. 🚀🚀 #POPO #ETH $POPO #poplink https://t.co/6DYhpkufnK",179,0
1376187274459746309,"2021-03-28T14:59:49Z","@Shinichi3390 Another airdrop ooo, u snooze, u loose  https://t.co/Q2WH3JYwUK Click on the link, add to your Ethereum wallet, that's all 1 Ethereum is over 500k naira... Distribution on 30th of March",0,0
1376187274069692422,"2021-03-28T14:59:49Z","🚀 Pluto Coin  Airdrop 🚀 Rate: ⭐⭐⭐⭐ ⭐ 🎁 Reward:  8822 PLUT ($1500) 👫 Referral: 40.5 PLUT  ($7)  🤖Start Bot here   https://t.co/x5JZchojO8  ⛂ Join Telegram group and channel. ⛂ Follow twitter &amp; retweet  ⛂ Submit ETH address and details.",6005,0
1376187271028776964,"2021-03-28T14:59:48Z","Going mainstream. Wait until they realize this all runs on ETH https://t.co/xsLEuxJKqO",0,0
1376187270525546504,"2021-03-28T14:59:48Z","@DarkCryptoLord $sol will flip $eth too eventually.  I reached this conclusion because I hold [redacted] $Sol and 0 $eth",1,0
1376187266809298951,"2021-03-28T14:59:47Z","*** GIVEAWAY ***  LIKE 👍 and RETWEET 🔁 this tweet for a chance to win a huge, fat altseason with green candles that will blow you away! $BTC $ETH $LINK $ADA $VET https://t.co/3SlSYcLS7c",480,0
1376187263277805568,"2021-03-28T14:59:46Z","Eth Maxis used to care about the environment when it had a lot lower consumption than Bitcoin. They will probably care about it again if they finally implement PoS. $XTZ #Tezos https://t.co/1ooUcCZUoJ",112,0
1376187256613052420,"2021-03-28T14:59:44Z","$zefu is the real deal. Super low cap with huge upside. Testers are live  Sign up yourself Team is the real deal and very public  $orn $omi $lyxe $uni $cake $kpad $btc $eth $algo $link $dego $ocean $zil   https://t.co/UYvefqHXFB",14,0
1376187245212930049,"2021-03-28T14:59:42Z","CRYPTO NEWS - SELLING ETH, Buying Hidden Gems https://t.co/30mUk9EGhh via @YouTube",0,0
1376187243279306755,"2021-03-28T14:59:41Z","🚨🚨 MEGA 4/20 MOMENT GIVEAWAY 🚨🚨  Details in the image below. Follow @TheeHustleHouse as he will be dropping the free NFT tickets on his twitter.   RT This And Follow: @KennethBosak @CryptoStache @riceboy42069 @grantpat @Topshotbabe @Wades_ETH @TheeHustleHouse @NBATopShotEast https://t.co/gKUgFyMGLD",96,0
1376187242734059527,"2021-03-28T14:59:41Z","Borrowed DOLA on your ETH and want to park it?  Deposit on Curve Swaps &amp; earn swap fees  In a few days, you’ll be able to earn:  💸 Interest on your ETH collateral 💸 INV reward for supplying ETH 💸 Curve swap fees 💸 More INV reward for staking DOLA-3CRV  https://t.co/kor5B26hoY",71,0
1376187239797903361,"2021-03-28T14:59:40Z","Name: 274 Rite Price: 0.01 $ETH (~17$) Quantity: 5 Minted: 4 weeks ago  ✨Follow @le_nifty  ✨Comment your $ETH address  https://t.co/iQ5aGFxtCr  #NFTart #NFTCommunity #NFTs",131,0
1376187232428515330,"2021-03-28T14:59:39Z","The good thing about @dypfinance Anti-Manipulation system is that it prevents the Liquidity providers to Sell $DYP instead they are earning $ETH as staking rewards 🧠  #DYP #ETH #Ethereum #SmartContract #DeFi https://t.co/yt6C9Vehln",1905,0
1376187232306880524,"2021-03-28T14:59:39Z","The DEX @FinanceChainge is set to launch on the @FUSIONProtocol network with over a million users on the protocols waitlist. This decentralized exchange aims to innovate on traditional models through leveraging the Fusion Network.  #BSC #BTC #ETH #BNB  https://t.co/xx55YiGfm3",21660,0
1376187231505850368,"2021-03-28T14:59:38Z","Welcome to massive Q DAO airdrop!   1. go now to telegram https://t.co/COyXgODY1z   2. Stay in telegram chat and wait announcement.  3. HOLD this gem until 10x   (soon - QDAO launch cross-chain for BSC, Polkadot and ETH)",4254,0
1376187231422005251,"2021-03-28T14:59:38Z","🔄 Prices update in $USD (1 hour):  $BTC - 55803.2 $  (+0.02 %) $ETH - 1699.79 $  (+0.31 %) $DOT - 32.28 $    (+0.12 %) $ADA - 1.18 $     (-0.19 %)  #BTC #ETH #DOT #ADA #Crypto #Bitcoin",0,0
1376187231161946112,"2021-03-28T14:59:38Z","Erwin Mulder bought for 0.32 ETH (541.17$) on the secondary market   Season: 2020-2021 Level: 0 Serial: 38/100 Price: 541.17$  ⚽ Sorare: https://t.co/fkLYOajr8b  📊: https://t.co/3rWlvhfn3y  #Sorare #NFT #Ethereum #FantasyFootball",0,0
1376187229324902402,"2021-03-28T14:59:38Z","I'll send $300 in #ETH or #BTC to one person who retweets this and follows @bud_crypto. Must complete these tasks:  1 - Like/RT his pinned tweet  2 - Must RETWEET &amp; LIKE 4 of his tweets  Ends in 72 hours!",1206,0
1376187228553089033,"2021-03-28T14:59:38Z","Just listed a unique collection that I love as #NFT 💎available @withFND   Current bid : 0.50 ETH   Link : https://t.co/WyUXYRBmHf  Feel free to retweet 🍺  #nftart #NFTartist #NFTcollectibles #NFTs #cryptoart #nftcollectors #Ethereum #bitcicoin #blockchain https://t.co/U3g3Ue0mNJ",323,0
1376187225595990021,"2021-03-28T14:59:37Z","$GRT Let's make the daily MACD green, it's been red for too long.   #bitcoin $btc $eth $dot $ada $ankr $cake $bnb $xtp #crypto $Theta $Tfuel https://t.co/7HWAynoOQL",4,1
1376187224648265731,"2021-03-28T14:59:37Z","25 ETH RESERVE MET ON TO THE MOON by @KeyboardMonkey3 !!  Auction ends in 24 hours! Highest bid comes with a metal print and sticker pack as well as a ticket in #jastronauts   IM SO HAPPY RN TYYYYY! https://t.co/RD9RIvQPZz",180,1
1376187223087845383,"2021-03-28T14:59:36Z","🏆 Follow us &amp; Retweet this tweet, Specify the ETH address in the tweet comment to get 10 #BIT ($10 worth) or 50 #BIT ($50 worth) #BitScores Airdrop Tokens! 🎁 $250,000 Prize Pool Full rules: https://t.co/N53M5nRXr9  #giveaway #airdrops #bounty #giveaways #defi #eth #btc #airdrop https://t.co/m77hDtRsBv",3577,1
1376187221146021889,"2021-03-28T14:59:36Z","#CAKECITY PRESALE STAGE TWO IS LIVE ON UNICRYPT 🚀🤩  The CakeCity Pre-sale  stage 2 is now live on https://t.co/Ds8vE0todP  Token Sales details  Presale Stage = 2 Platform = unicrypt  Price = 0.2 ETH Token allocations = 10000 $CKE   For more info follow : https://t.co/WQBt6LuFv8",68,1
1376187212589637633,"2021-03-28T14:59:34Z","⭕More 3 Days left for OBX to AGF swap ⭕  The OOOBTC Token (OBX) token swap and migration to https://t.co/MpXZQdp2DS will end on 31 march, ensure you have taken all necessary actions, read more here https://t.co/VdCXBAVl4a  #OBX #DeFi #BTC #ETH #AGF https://t.co/b2LAmwjzKQ",2,1
1376187210546864130,"2021-03-28T14:59:33Z","Is amazing to see how this project has been out since Dec 2020 and so far Liquidity Providers have earned about 6533.78 $ETH and that is the total value of $10.6 Million dollars. 💪  Also the APY doing 301.35% which is amazing.  #DeFi #UniSwap #BSC #SmartContract #Ethereum https://t.co/9a7rgyoMpE",2385,1
1376187195120230406,"2021-03-28T14:59:30Z","Since this the launch of @dypfinance back in Dec 2020 looks like Liquidity Providers have earned $11.4 Million dollars in $ETH just from Staking!  Also the project is paying out is $ETH as well and so far 6.2K $ETH have been rewarded.   #DeFi #Crypto #Cryptocurrency #BitcoinTalk https://t.co/zis10XPcL7",1802,1
1376187194365378568,"2021-03-28T14:59:30Z","Best place to buy a milgauss with $btc or $eth?",0,0
1376187183439081472,"2021-03-28T14:59:27Z","New Airdrop: Diamond Crystal (DCT) Reward: 100 DCT ($100) Rate: ⭐️⭐️⭐️⭐️ Focus: Distribution starts after airdrop ends   Bot Airdrop Link: https://t.co/9Qzk47HUKt  #Airdrop #giveaway #BTC #ETH",4033,0
1376187173804765187,"2021-03-28T14:59:25Z","@KEVINNE47277120 @EthernityChain @Finxflo U didn't lose an eth?   1. Do you know what you are Doing? 2. Have you asked people to show you before you started? 3. You do realize 1 eth has not been swapped to ERN  Mate, you should learn what you're doing before doing something with your hard earned money.",1,0
1376187170537496578,"2021-03-28T14:59:24Z","*** GIVEAWAY ***  LIKE 👍 and RETWEET 🔁 this tweet for a chance to win a huge, fat altseason with green candles that will blow you away! $BTC $ETH $LINK $ADA $VET https://t.co/3SlSYcLS7c",480,0
1376187162274619395,"2021-03-28T14:59:22Z","@velas_token Good project  My eth : 0x0c3396A6847dc9139cC488348a66c1795F90Dc95",0,0
1376187146499932162,"2021-03-28T14:59:18Z","This year, Binance Chain is one of the hottest chains, not just for fees but also for speed. Having that in mind $CGG offering a token bridge between ETH and BSC is future proofing and adaption to the trends 🔥  #ChainGuardians #BlockchainGaming #binancechain https://t.co/x1gnsaX1R9",2,1
1376187139956695049,"2021-03-28T14:59:17Z","🍹 Join $YVS Finance, the decentralized yield-farming &amp; lottery platform on both #ETH &amp; #BSC and start earning passive income!  🌽 Buy now on:  Uniswap / https://t.co/ibtLe8P2if MXC / https://t.co/JLAKIneeqR JulSwap / https://t.co/SGVjvMp82f  📚 Need help? https://t.co/vG54PeiKMT https://t.co/kOhuDRReGm",59,1
1376187134416089091,"2021-03-28T14:59:15Z","$DYP liquidity providers earned 6,533.78 #Ethereum worth $10,616,674 since launch!  Earn up to 301.35% APY 💰  If you want to start earning #ETH you just need to join one of our liquidity pools: DYP-ETH, DYP-WBTC, DYP-USDC, and DYP-USDT https://t.co/zxyI0V2tnr  #DeFi #Uniswap https://t.co/acaV7p6h3G",406,1
1376187128632250374,"2021-03-28T14:59:14Z","@rejoice_simeon Another airdrop ooo, u snooze, u loose  https://t.co/Q2WH3JYwUK Click on the link, add to your Ethereum wallet, that's all 1 Ethereum is over 500k naira... Distribution on 30th of March",0,0
1376187127940087814,"2021-03-28T14:59:14Z","NGMI @straits_times   SINGAPORE - If we were to list the most used keyboard functions in the world, copy and paste is bound to feature among the top few: Ctrl-C, Ctrl-V, and there you go - you have the exact replica of another digital file.  #NFT #NFTs #art #digitalart #eth https://t.co/HrRcOdOleD",5,0
1376187125255790596,"2021-03-28T14:59:13Z","being stubborn will take you nowhere.  vital to adapt and research upcoming trends.  there are moments where you:  - trade $BTC / $ETH - swing altcoincoins - ape on uniswap - invest in micro caps - buy stupid overpriced NFT  the market doesn't care of your opinion, move with it. https://t.co/vMcozXuzAY",130,0
1376187120239382533,"2021-03-28T14:59:12Z","Like other blockchains, Ethereum has a native cryptocurrency called Ether (ETH). ETH is digital money. Like Bitcoin, ETH has many of the same features.   https://t.co/zzmV8YUHuQ   https://   #Defi   #MustHaveCrypto https://t.co/mAfb32z31J",0,0
1376187117932527619,"2021-03-28T14:59:11Z","The DEX @FinanceChainge is set to launch on the @FUSIONProtocol network with over a million users on the protocols waitlist. This decentralized exchange aims to innovate on traditional models through leveraging the Fusion Network.  #BSC #BTC #ETH #BNB  https://t.co/xx55YiGfm3",21660,0
1376187113536913413,"2021-03-28T14:59:10Z","Did you know that $LPL couldn’t fill it’s entire 1000 ETH sale.   Every ETH put into the sale is now worth $507,500 at current prices.  wait - it gets better.  Circulating supply is around 20M-25M &amp; less with it being staked on the network.  We’ve just begun. If only you knew...",4,0
1376187111896850436,"2021-03-28T14:59:10Z","#DeFi #BKC #eth2 #BucksCake  ANNOUNCEMENT!  Dear BucksCake's community members!  The exact date of BKC listing on Uniswap set for 04/20/2021!  2 days before it, the exact opening time of the trading pair BKC/ETH on Uniswap...  More at https://t.co/RQPMhjazG2 https://t.co/VjtBbXBA1t",2856,0
1376187108931600386,"2021-03-28T14:59:09Z","BROKEN WRIST #NFT   View Listing ➡️ https://t.co/FZiLLJyEKB  Mint number 1 of 50 (max: 50) Blockchain: #WAX Market: #AtomicHub #AtomicAssets Collection: raccoonbrand Schema Name: gamingdamage 🔁 Transferable 🔥 Not Burnable  #NFTs #DeFi #Crypto #Blockchain $WAXP $WAXE $ETH $BTC",7,0
1376187067609276416,"2021-03-28T14:58:59Z","Only few hours left until the « today we push » Binance +1000% Push!  Join the push: https://t.co/caL0R5e2Zs https://t.co/aKBlTOYtgL  #Bitcoin #BTC #Crypto $Bitcoin #Bitcoin $ETH #ETH $Ethereum #Ethereum $BTC #BNB $BNB #Binance",0,0
1376187065759580161,"2021-03-28T14:58:59Z","I'll send $300 in #ETH or #BTC to one person who retweets this and follows @bud_crypto. Must complete these tasks:  1 - Like/RT his pinned tweet  2 - Must RETWEET &amp; LIKE 4 of his tweets  Ends in 72 hours!",1206,0
1376187064144650242,"2021-03-28T14:58:59Z","🔥 WoW!!! $DYP getting listed on @kucoincom !  DYP/USDT &amp; DYP/ETH trading will start tomorrow, March 25th at 10AM UTC! Good job @dypfinance team!  #DeFi #uniswap #Ethereum https://t.co/Rw9qa5l5tA",2226,0
1376187059602399234,"2021-03-28T14:58:57Z","@intocryptoverse Controversial opinion: BNB. I think it should be bigger than ETH and probably bigger than BTC",27,0
1376187057920413696,"2021-03-28T14:58:57Z","@kurateed_eth @JamesDa47116905 @surferjimw So you’re saying we are already fully communist? lol ... I paid a significant amount of taxes last year... sooooo... SOMETHING is being paid for with taxes. That comment was like something a little boy says to convince his parents he can sleep over at his fwends house. Grow up.",0,0
1376187056976695300,"2021-03-28T14:58:57Z","@Debbie__Fresh Another airdrop ooo, u snooze, u loose  https://t.co/Q2WH3JYwUK Click on the link, add to your Ethereum wallet, that's all 1 Ethereum is over 500k naira... Distribution on 30th of March",0,0
1376187055349276674,"2021-03-28T14:58:56Z","🌋#ATD #Giveaway is on now! @a2dao_ 🌋  10 lucky users will receive $30 each in #ATD ✨  1️⃣Login &amp; Participate ☀️ https://t.co/wrbe0JlJuK   2️⃣Retweet and @ a friend  #DeFi #crypto #ALTSEASON #ETH #NFT https://t.co/oq0O5RbPbj",307,0
1376187048508411906,"2021-03-28T14:58:55Z","I have a few more ETH to spend today💰  Shill me with your #NFTs and tag some new #NFTartists who are looking to sell their first piece  #NFTCommunity #NFTcollectibles",137,0
1376187046583271425,"2021-03-28T14:58:54Z","🚀 Pluto Coin  Airdrop 🚀 Rate: ⭐⭐⭐⭐ ⭐ 🎁 Reward:  8822 PLUT ($1500) 👫 Referral: 40.5 PLUT  ($7)  🤖Start Bot here   https://t.co/x5JZchojO8  ⛂ Join Telegram group and channel. ⛂ Follow twitter &amp; retweet  ⛂ Submit ETH address and details.",6005,0
1376187040425992202,"2021-03-28T14:58:53Z","RT @intocryptoverse: Who was buying $ETH at &lt;$200?",3499,0
1376187034524659719,"2021-03-28T14:58:52Z","@cybertime_eth @telegram Is cybertime comp with trustwallet?",0,0
1376187033916428289,"2021-03-28T14:58:51Z","Nobody works harder than @SunnyFengHan! When the stories are written years from now, his role in the future of #web3 will never be forgotten!  #Elastos $ELA @ElastosInfo #FilDA #CreDA #BTC #Bitcoin #ETH #Ethereum https://t.co/MHOxBEMt1E",92,0
1376187022860300289,"2021-03-28T14:58:49Z","There’s a 300 INV reward for supplying ETH (including as collateral to borrow DOLA) and an additional 300 INV for borrowing ETH  Which means lending and borrowing ETH have different APYs depending on total borrowed and supplied  Both APYs will be added to the interface soon",83,0
1376187020884738054,"2021-03-28T14:58:48Z","@Rajah85990971 Another airdrop ooo, u snooze, u loose  https://t.co/Q2WH3JYwUK Click on the link, add to your Ethereum wallet, that's all 1 Ethereum is over 500k naira... Distribution on 30th of March",0,0
1376187009232859136,"2021-03-28T14:58:45Z","Is amazing to see how this project has been out since Dec 2020 and so far Liquidity Providers have earned about 6533.78 $ETH and that is the total value of $10.6 Million dollars. 💪  Also the APY doing 301.35% which is amazing.  #DeFi #UniSwap #BSC #SmartContract #Ethereum https://t.co/9a7rgyoMpE",2385,0
1376187006196273161,"2021-03-28T14:58:45Z","@MehakJainArt @jjohnsonAUS @basileus_eth @AsyncArt @TheGuild_NFT Congratulations!!",1,0
1376187004828983297,"2021-03-28T14:58:44Z","imo, since ETH fucked up with the update, I honestly think this is a decent time to start accumulating ETH for those dealing with bigger sums of money. I do not recommend getting into ETH if you are putting under 5K USD, I'd put it in other lower MCAP coins. https://t.co/DclXkRKe2M",0,0
1376186989154770946,"2021-03-28T14:58:41Z","🌿 The STRAINZ #Giveaway | Rules 🌿 =   - Step 1: Like &amp; Retweet + tag 3-5 People! - Step 2: Follow @StrainZ_NFT  - Step 3: Join: https://t.co/MRZdJREL0N - Step 4: Like &amp; RT quoted tweet! - Step 5: Send Proof!   Prize = 100$ in #BTC or #ETH  Winner announced at 01/04 🎁 https://t.co/I0m7gDDbg7",1435,0
1376186981298933767,"2021-03-28T14:58:39Z","RT @dokidokifinance: @k0nbinifty_ This machine is ETH machine. We will have another AZUKI machine soon.",2,0
1376186980350914567,"2021-03-28T14:58:39Z","Who was buying $ETH at &lt;$200?",3499,118
1376186980078264328,"2021-03-28T14:58:39Z","I'll send $300 in #ETH or #BTC to one person who retweets this and follows @bud_crypto. Must complete these tasks:  1 - Like/RT his pinned tweet  2 - Must RETWEET &amp; LIKE 4 of his tweets  Ends in 72 hours!",1206,118
1376186977050038278,"2021-03-28T14:58:38Z","Two things I trust 1) BTC and ETH block chains and 2) The inability for time travelers to mint more 2018-2019 OG art. An artist saying they will curtail minting in the present day doesn’t make the list... that is a show me story.",47,0
1376186974608982016,"2021-03-28T14:58:37Z","#BTC Price: $55688 #ETH Price: $1701 #LTC Price: $183  Next update in 10 minutes Last updated: 10:58:37.03",0,0
1376186972369195012,"2021-03-28T14:58:37Z","#dailyFEG Sunday, 28 March 2021 Where to buy: $FEG #ETH at @Uniswap @1inchExchange $FEG #BSC at @PancakeSwap  #FEG #FEGex #FEGtrack #altcoin #altseason #blockchain #BNB #BTC #crypto #cryptonews #cryptoworld #cryptoinvestor #cryptotrader #DeFi #ERC20 #BEP20 #HODL #NFT #ToTheMoon https://t.co/HxLRhf59dS",91,0
1376186971979010049,"2021-03-28T14:58:37Z","I'll send $300 in #ETH or #BTC to one person who retweets this and follows @bud_crypto. Must complete these tasks:  1 - Like/RT his pinned tweet  2 - Must RETWEET &amp; LIKE 4 of his tweets  Ends in 72 hours!",1206,0
1376186967478710272,"2021-03-28T14:58:36Z","🔥 #ODDZ #Giveaway is Now On! @oddz_finance 🔥  10 lucky users will receive $30 each in #ODDZ 😗  1️⃣Login &amp; Participate   https://t.co/81bh5CpMnK  2️⃣Retweet and @ a friend  Share with your friends &amp; get more rewards 💌  #Ethereum #ETH #cryptogiveaway https://t.co/M7MxexMYji",265,0
1376186961786978318,"2021-03-28T14:58:34Z","@SportsGAMEUP10 Another airdrop ooo, u snooze, u loose  https://t.co/Q2WH3JYwUK Click on the link, add to your Ethereum wallet, that's all 1 Ethereum is over 500k naira... Distribution on 30th of March",0,0
1376186960910290947,"2021-03-28T14:58:34Z","RT @The_NFT_Hub: 🎁Drop your $ETH address below🎁",1165,0
1376186949346553860,"2021-03-28T14:58:31Z","The good thing about @dypfinance Anti-Manipulation system is that it prevents the Liquidity providers to Sell $DYP instead they are earning $ETH as staking rewards 🧠  #DYP #ETH #Ethereum #SmartContract #DeFi https://t.co/yt6C9Vehln",1905,0
1376186945445974030,"2021-03-28T14:58:30Z","Code Buddy https://t.co/JAgZXrQJol $15 ETH Giveaway!  ➡ Entry:  ☑ Use https://t.co/FxCYspVrLM ☑ RT + Like + Tag 2 ☑ Following @use_code_buddy   24hrs - Good luck!  #ethgiveaway #rollbit @rollbitcom https://t.co/U6oEqRm0WU",34,0
1376186944770674696,"2021-03-28T14:58:30Z","CRYPTO NEWS - SELLING ETH, Buying Hidden Gems https://t.co/LUEb8OLvXi via @YouTube",0,0
1376186940291158016,"2021-03-28T14:58:29Z","@bitcoin_works @koreanjewcrypto Mate seeing your selection made me feel less guilty about having such a wide range. But it’s been working so why change? keep chopping profits to ETH or BTC but they just keep growing.",0,0
1376186938235920393,"2021-03-28T14:58:29Z","🌋#ATD #Giveaway is on now! @a2dao_ 🌋  10 lucky users will receive $30 each in #ATD ✨  1️⃣Login &amp; Participate ☀️ https://t.co/wrbe0JlJuK   2️⃣Retweet and @ a friend  #DeFi #crypto #ALTSEASON #ETH #NFT https://t.co/oq0O5RbPbj",307,0
1376186922683396096,"2021-03-28T14:58:25Z","Is amazing to see how this project has been out since Dec 2020 and so far Liquidity Providers have earned about 6533.78 $ETH and that is the total value of $10.6 Million dollars. 💪  Also the APY doing 301.35% which is amazing.  #DeFi #UniSwap #BSC #SmartContract #Ethereum https://t.co/9a7rgyoMpE",2385,0
1376186920519225346,"2021-03-28T14:58:24Z","🚀 Pluto Coin  Airdrop 🚀 Rate: ⭐⭐⭐⭐ ⭐ 🎁 Reward:  8822 PLUT ($1500) 👫 Referral: 40.5 PLUT  ($7)  🤖Start Bot here   https://t.co/x5JZchojO8  ⛂ Join Telegram group and channel. ⛂ Follow twitter &amp; retweet  ⛂ Submit ETH address and details.",6005,0
1376186917813776386,"2021-03-28T14:58:24Z","🚀 Pluto Coin  Airdrop 🚀 Rate: ⭐⭐⭐⭐ ⭐ 🎁 Reward:  8822 PLUT ($1500) 👫 Referral: 40.5 PLUT  ($7)  🤖Start Bot here   https://t.co/x5JZchojO8  ⛂ Join Telegram group and channel. ⛂ Follow twitter &amp; retweet  ⛂ Submit ETH address and details.",6005,0
1376186917692211201,"2021-03-28T14:58:24Z","Since this the launch of @dypfinance back in Dec 2020 looks like Liquidity Providers have earned $11.4 Million dollars in $ETH just from Staking!  Also the project is paying out is $ETH as well and so far 6.2K $ETH have been rewarded.   #DeFi #Crypto #Cryptocurrency #BitcoinTalk https://t.co/zis10XPcL7",1802,0
1376186909920231432,"2021-03-28T14:58:22Z","$MBX  Ready to BLOW towards 4 cents.....!  SENDING IN....3...2....1........ 🌟🚀🚀🚀🚀  TA PRIMED FOR TAKE OFF  💎 $MBX ( $ETH Bridge ) 💎@Uniswap Listing 💎Retailer Announcement 💎Staking for early investors 💎Beta App Launch   All in MARCH.....HOLD ON TIGHT 👀↗️💥  @Mobie_Pay https://t.co/Dbj23yYR8B",60,0
1376186903792398340,"2021-03-28T14:58:20Z","Massive volume spikes in $MANA and $ENJ - these guys have been winding down for awhile now, preparing for the next big jump. It's coming.  $CHZ $BNB $DENT $ENJ $MANA $TWT $LINK $ETH $ALICE $VET $FET $SAND $CAKE $RVN $ANKR $VIA $STORJ $NXS #pump",1,0
1376186903679098889,"2021-03-28T14:58:20Z","#Ethereum was an actual ICO security offering..  #eth vs. #btc  @digitalassetbuy  @bancosantander  @ethereum @Ripple  @BIS_org @Interledger https://t.co/9WgSesDfHl",89,0
1376186899925176328,"2021-03-28T14:58:19Z","Hello, $PIE community.  We're thrilled to announce strategic partnership with @merchdao $MRCH. Soon they'll add liquidity to #ETH #DeFiPie app and also we'll provide #NFT deals for both communities 🔥🔥🔥 https://t.co/V5SvYtL4J5",66,0
1376186897987481613,"2021-03-28T14:58:19Z","The DEX @FinanceChainge is set to launch on the @FUSIONProtocol network with over a million users on the protocols waitlist. This decentralized exchange aims to innovate on traditional models through leveraging the Fusion Network.  #BSC #BTC #ETH #BNB  https://t.co/xx55YiGfm3",21660,0
1376186895777071104,"2021-03-28T14:58:18Z","Slow 95 | Normal 99 | Fast 102 | Instant 110 👈 current Ethereum gas prices in gwei. DM me a price and I will DM you as soon as gas drops below that price 👍 #Ethereum #GasPrice #ETHGasPrice #ETH",0,0
1376186892547457025,"2021-03-28T14:58:18Z","@kerneltrader 🤝 but even easier... ETH had to create that market share.... SOL just has to take it",7,0
1376186889053429762,"2021-03-28T14:58:17Z","🔥New Listing @a2dao_ 🔥  #ATD trading will be enabled on https://t.co/8kWqgEeplL 😎  👉Trade: https://t.co/ExhZLJsBuu 👉Details: https://t.co/wHKyoIXPWV  #DeFi #crypto #ALTSEASON #ETH #NFT https://t.co/UjKmwZhqea",256,0
1376186887765860362,"2021-03-28T14:58:17Z","I'll send $300 in #ETH or #BTC to one person who retweets this and follows @bud_crypto. Must complete these tasks:  1 - Like/RT his pinned tweet  2 - Must RETWEET &amp; LIKE 4 of his tweets  Ends in 72 hours!",1206,0
1376186887031771139,"2021-03-28T14:58:16Z","🔥 WoW!!! $DYP getting listed on @kucoincom !  DYP/USDT &amp; DYP/ETH trading will start tomorrow, March 25th at 10AM UTC! Good job @dypfinance team!  #DeFi #uniswap #Ethereum https://t.co/Rw9qa5l5tA",2226,0
1376186886146904068,"2021-03-28T14:58:16Z","RT @dokidokifinance: @osirene_ @miguelgarest Yes, most likely. Please deposit regular ETH.",1,0
