"ID","created_at","text","like_count","rt_count"
1376315642769371139,"2021-03-28T23:29:54Z","@trashstar_eth @piperartdesign https://t.co/Xa5dNDE5PG  Cheers! https://t.co/gc96TTrw38",0,0
1376315640978448386,"2021-03-28T23:29:54Z","While everyone sleeps on @cosmos I’ll keep accumulating. Buying $ATOM now is like buying $ETH around $35. Most of you on CT would give a kidney to be able to buy at that price but you ignore $ATOM sub $20. Good luck to you all with your $DOT $ADA $SOL and others https://t.co/zFiTOblpam https://t.co/fhgC9GrEYz",19,0
1376315629226008577,"2021-03-28T23:29:51Z","@bitcoinzay That guy told him that Eth is hard money",7,0
1376315628546445317,"2021-03-28T23:29:51Z","Is amazing to see how this project has been out since Dec 2020 and so far Liquidity Providers have earned about 6533.78 $ETH and that is the total value of $10.6 Million dollars. 💪  Also the APY doing 301.35% which is amazing.  #DeFi #UniSwap #BSC #SmartContract #Ethereum https://t.co/9a7rgyoMpE",2385,0
1376315622217383937,"2021-03-28T23:29:49Z","Ryuho Kikuchi bought for 0.647 ETH (1089.83$) on the secondary market   Season: 2020-2021 Level: 0 Serial: 49/100 Price: 1089.83$  ⚽ Sorare: https://t.co/SqZmWUyJnX  📊: https://t.co/3ucUQrTqDv  #Sorare #NFT #Ethereum #FantasyFootball",0,0
1376315618190884869,"2021-03-28T23:29:48Z","@intocryptoverse Sub $200 $ETH Only wish I bought more!",0,0
1376315613270921218,"2021-03-28T23:29:47Z","@AddictNftor Hello! Check out our very first Trippy Blotter collection! Featuring Elon Musk in this very first edition, still waiting for his first buyer! Only 0.02 ETH :)  https://t.co/Omt2lKjecO",0,0
1376315601627590665,"2021-03-28T23:29:44Z","This account now has over 300 followers. I hope every single one of you buying and holding prosper financially. I will be sending 10 people $100 worth of crypto to celebrate this. Comment below with your $BTC $RVN  $WAXP $SYS $SC $ETH or $LTC.",18,0
1376315590307147779,"2021-03-28T23:29:42Z","Update: @SoupingGood $Soups 🍜 on the 1 hour || PA  riding the 9 - Macd starting to curve || $BTC $ICX $ETH $LTC $BIFI $BLZD https://t.co/iCywWb2ScL",0,0
1376315572519120900,"2021-03-28T23:29:37Z","RT @cryptoguidee: Justin Sun Throws Shade On Vitalik Buterin After Rankings Report Show ETH On 3rd Place https://t.co/OO2rfN6s3i",1,0
1376315570522624003,"2021-03-28T23:29:37Z","Historical moment for $FEG #ETH. Ninth zero down. 😎 Now waiting for $FEG #BSC. 🦍🚀 #FEG #FEGEx #FEGtrack https://t.co/P3tj1EbPkC",116,39
1376315560011649027,"2021-03-28T23:29:34Z","$SKALE that shit! Lower the gas...  #ETH $Link #DeFi https://t.co/mJKYDvLHHJ",15,2
1376315557046153219,"2021-03-28T23:29:34Z","$feg are deflationary progressive token without limit of burning💎 and the DexCex FegEx gonna launch soon, you gonna be able to earn eth and bnb just by stacking your $FEG $eth $bnb $bsc $sol $btc #cryptocurrency #Crypto #DeFi $dent #rich #MILLIONBOYS #BinanceSmartChain #altcoin https://t.co/Ynn3AtTPNK",147,2
1376315549798572038,"2021-03-28T23:29:32Z","💡 Sold 90%. Hurry up...  BUY EXPER: https://t.co/zujmCvzFLZ  How to buy EXPER TOKEN? 1. Register and Login to https://t.co/uAOFvgdpPx 2. ICO Buy 3. Select ETH or BNB  #binance  #bitcoin  #bnb  #ethereum https://t.co/W5pJ35UTIf",140,2
1376315540642349061,"2021-03-28T23:29:30Z","@Squizz612 Problem, 10% ethanol 87 is not far behind. Additive would put it at or above the non eth price.",0,0
1376315536536186887,"2021-03-28T23:29:29Z","30 day EVIX: 83.8519 ETH/USD vwap: $1,683.83 04/16 expiry volume: $1,240,516.37 04/30 expiry volume: $5,510,022.23 Current time: 23:29:05",0,0
1376315536359878656,"2021-03-28T23:29:29Z","🔥We have started random global airdrop of 100,000 NFTs to single wallet ETH address 🚀 USDT-NFTs is listed on Uniswap  🚀 The contract address: 0x6599fc3e77cbfa6f6e9cac605a30b1e78827eba0  💰 Holding more NFTs makes you richer  🚀Like、Retweet &amp; Tag 3 friends  #NFTs #NFT #AIRDROP https://t.co/1tf4LcEX3C",1095,0
1376315532832555011,"2021-03-28T23:29:28Z","@nontendo My collection for sale at @opensea 🏷Prices 0.65  - 10 ETH 💎Clean&amp;stylish photoedits 🛍 Who will take some arts home? 💎Few of gems are still avaliable 🔄 support with RT 🙏😊 https://t.co/lDqcuR5KGa _ #NFT #NFTCommunity #NFTart #cryptoart #NFTartist https://t.co/IWJR49QITM",1,0
1376315503610888205,"2021-03-28T23:29:21Z","I have exacly 1 ETH left, who does have #NFT or #NFTs art that I can buy. Needs to look appealing at least.  RT &amp; Follow to see your art! #nftcollector #nftartist #nftart #NFTCommunity",300,0
1376315501094256645,"2021-03-28T23:29:20Z","RT @mocumocu: @DocumentEther @santimentfeed Li @ethereum @VitalikButerin @reddit save $ETH price. Fucking $ETH Miners. Stake pls, no mining",1,0
1376315499286560773,"2021-03-28T23:29:20Z","My newest piece is now available for only 2 ETH, looking to find it a good home in someone’s collection.  https://t.co/JJZD6iVACQ? #cryptoart #cryptoartist #Ethereum https://t.co/LsiNJ4S1yv",149,0
1376315494584713216,"2021-03-28T23:29:19Z","The top 10 coins on Coinrank for March 28th:  $ETH #Ethereum  $ADA #Cardano  $DOT #Polkadot  $SOL #Solana  $MIOTA #IOTA  $EGLD #Elrond  $MATIC #Polygon  $MKR #Maker  $SNX #SynthetixNetworkToken  $MANA #Decentraland  https://t.co/ujsS7RWm9e",6,0
1376315483977252867,"2021-03-28T23:29:16Z","@Garcia_Capital @Ehrls15 I love @investvoyager but I don’t like that the 1 eth I withdrew from voyager last night at 7pm pst STILL hasn’t transferred over to my other wallet. Kind of frustrating. $vgx",1,0
1376315471927083015,"2021-03-28T23:29:13Z","Top 10 Coins Mentioned on Twitter Last Week 📣  $BTC 2,039,139 $ETH 261,941 $CAKE 251,833 $DOGE 166,849 $ADA 119,458 $RARI 102,392 $KLV 82,619 $LINK 76,034 $BCH 75,261 $XRP 53,950  👉 https://t.co/AgXao7y3eB https://t.co/CtnCLEu4An",656,0
1376315467082694657,"2021-03-28T23:29:12Z","@DocumentEther @santimentfeed Li @ethereum @VitalikButerin @reddit save $ETH price. Fucking $ETH Miners. Stake pls, no mining",1,1
1376315461143568387,"2021-03-28T23:29:11Z","#BTC Price: $55495 #ETH Price: $1686 #LTC Price: $183  Next update in 10 minutes Last updated: 19:29:10.09",0,0
1376315454948581377,"2021-03-28T23:29:09Z","🔥 #ODDZ #Giveaway is Now On! @oddz_finance 🔥  10 lucky users will receive $30 each in #ODDZ 😗  1️⃣Login &amp; Participate   https://t.co/81bh5CpMnK  2️⃣Retweet and @ a friend  Share with your friends &amp; get more rewards 💌  #Ethereum #ETH #cryptogiveaway https://t.co/M7MxexMYji",265,0
1376315452654149634,"2021-03-28T23:29:09Z","💰What’s your #ETH wallet address?  🚀Don’t ask why, just drop it below👇  🚀Like、Retweet &amp; Tag ALL U CAN  🚀 USDT-NFTs has been listed on Uniswap！  🚀 The contract address: 0x6599fc3e77cbfa6f6e9cac605a30b1e78827eba0  #NFTs #NFT #AIRDROP #UNISWAP https://t.co/H29ZBOR0aL",1387,0
1376315448506073092,"2021-03-28T23:29:08Z",".@NBCSportsChi thinks posting spreads is sports news.   That’s gambling sales pitch and you frauds know it. Along with you @PointsBet.   Don’t fall into the gambling trap. #Invest #BNB #ETH #Stocks #Bonds I don’t care what you buy. Just don’t put your money to these crooks!",0,0
1376315442281787393,"2021-03-28T23:29:06Z","⭕More 3 Days left for OBX to AGF swap ⭕  The OOOBTC Token (OBX) token swap and migration to https://t.co/MpXZQdp2DS will end on 31 march, ensure you have taken all necessary actions, read more here https://t.co/VdCXBAVl4a  #OBX #DeFi #BTC #ETH #AGF https://t.co/b2LAmwjzKQ",2,0
1376315435591860224,"2021-03-28T23:29:05Z","@Zaharia_af @majedarnos @rariblecom Your work is unreal, really stoked to buy something when I get some eth 💜",1,0
1376315422669074434,"2021-03-28T23:29:02Z","🐶Time to decide the champion Doge! 🏆  We select the raffle winner (valued at 3.5 ETH/$6k) at the end of this voting!  You will get an entry by: 1. Following us 2. Retweeting (each RT is an entry) 3. Tagging 3 friends!  @opensea #nft #doge #dogearmy #btc #ETH @elonmusk #airdrop https://t.co/9kCMXnKAQB",85,0
1376315413110300674,"2021-03-28T23:28:59Z","Yay! Sold my first NFT, still a few more of Space Dump up for grabs at .068 ETH!  https://t.co/nFSoy3GgJ5  #ethereum #nonfungible #digitalasset #nft #Cryptoart #NFTCommunity #nftcollector https://t.co/CgAHPSnAIQ",2,0
1376315385318883332,"2021-03-28T23:28:53Z","@singhsurya @fffff_hhgg Haha easy 9x for $KSM, I’m confident with that. $ETH will struggle af for only 2x 😂",1,0
1376315381753769984,"2021-03-28T23:28:52Z","The account is sponsored by #Maanky 🐵 #BTC #Bitcoin #ETH #FOREX ICYMI: China imposes anti-dumping tariffs on Australian wine (levy start today) https://t.co/UoyG6jwJFH",0,0
1376315375114022913,"2021-03-28T23:28:50Z","2️⃣ https://t.co/kIaYwUqSm3 (built by @SwitcheoNetwork) is a decentralized crosschain exchange with futures trading. Currently has an active #BTC and #ETH futures contract with up to 50x-150x leverage. Market makers are coming soon.",56,0
1376315368701108225,"2021-03-28T23:28:49Z","Whenever I see a project adopt @0xPolygon L2 solutions on ETH I always go check it out.  Usually, projects that put the work in to have this done on their protocol show that they prioritize their user's experience(low-cost TXs) AND looking long-term for their development. https://t.co/ZtwI7MPiJM",17,0
1376315330448875525,"2021-03-28T23:28:40Z","7️⃣ Did I mention Demex is crosschain? Imagine:   $BTC / iUSD $ETH / iUSD $BNB / iUSD $NEO / iUSD  $ZIL / iUSD $USDC / iUSD $BUSD / iUSD $CAKE/ iUSD  There will also be a mechanism that will allow anyone (who is staking $SWTH) to add supported markets. (BEP-20, ERC‐20, NEP-5)",56,0
1376315318298152961,"2021-03-28T23:28:37Z","Post your work here! Giving away Eth to the top 5 most liked and retweeted. Must follow, like, and RT.  #nft #nftart #nftartist #opensea #mintable #superrare #niftygateway #eth #ethereum #cryptoart #cryptoartist #nfts #nftcommunity #nftcollector #nftartists",111,0
1376315283934183425,"2021-03-28T23:28:29Z","Just a little fun track made by a member of the $Poodl community   $eth $btc $orn $hoge $doge #altcoins #ADA $ada #altcoin #DeFi #BNB #CryptoNews #Cardano $vet #Crypto  Here’s an album for you… Hoodle That Poodle Goldcryptoking https://t.co/G7zqSLYvjB",6,0
1376315272622190598,"2021-03-28T23:28:26Z","next zero will be gone soon!  buy $FEG now before it is to late!  #cryptocurrency #Binance #ETH #crypto #BTC #bnb #FEGex #FEGarmy https://t.co/pVkI8nTDaZ",23,6
1376315272441774080,"2021-03-28T23:28:26Z","@Lankai_ Well personally, Im doing the oposite. Sure some people get hit with the rush of earning as much eth as possible, but it is totally possible to keep going at your own pace and not sacrificing quality. I still take as long as I used to making my pieces bc I want them to be good!!",1,0
1376315267924512769,"2021-03-28T23:28:25Z","What happened to the 'outstanding partnership' between US &amp; #Ethiopia? We put up with authoritarian #TPLF for 27 years. Now Ethiopia is reforming, let's find new ways of working together @POTUS &amp; @KamalaHarris. But first: #SupportEthiopia #UnityForEthiopia https://t.co/VOJ3eooKj5",21,0
1376315267278589961,"2021-03-28T23:28:25Z","Have you got your $Poodl yet? ✅WEBSITE: https://t.co/A42Q5bIgmP ✅WhiteBIT Buy Link https://t.co/ljQnQOCt8f… ✅Uniswap Buy Link https://t.co/PULjVhqJA5… ✅Telegram  https://t.co/CIWEZzGtF3  $HOGE $DOGE $GRUMPY  #bitcoin  #btc  #cryptocurrency #crypto #coinbase #usd $eth $ada",6,0
1376315265378615298,"2021-03-28T23:28:24Z","THIS IS IT ! 🔥☄️ $TACO #TacoToken 🌶 #Coingecko,  Target: $15 @bepronet @Exeedme @Poolz  Let’s farm on our platforms, you will have more returns than on uniswap ! $sol $eth $link $hot $one $ada $btc $bnb $lina $vra $omi $uni $cake $sushi $xrp $luna $aave $avax $chz $rsr $ankr https://t.co/cvXHf1RPWu",18,0
1376315264262881284,"2021-03-28T23:28:24Z","@RichardMcCrackn @SnackieChan123 Don't care, I'd not stake eth for some minor APY, too much risk, little reward",0,0
1376315263419736066,"2021-03-28T23:28:24Z","@nguyen_er @chanwen_ @Arthur_0x @MikeMcDonald89 @cz_binance @BlockchainAndy @cmtopdog @cosmos @zilliqa @NEOnewstoday @bsc_daily @seraph_staking @O3_Labs @SwitcheoNetwork @demexchange Great thread here. $SWTH is clearly a well developed product. A decentralized exchange capable of trading anything. Derivatives, futures, options. No KYC.  Working mainnet functionality. Integration with multiple blockchains including #eth #bsc #neo and a token with a use case 🚀",11,5
1376315263382126593,"2021-03-28T23:28:24Z","@ZssBecker  Q cardano - ada 38b market cap,  expected to go to 10 in 1+ years - labeled eth killer......filecoin Fil - 3b market cap - just went from 41 to 139 in a month ?  where is the logic in that ?",0,0
1376315258021810184,"2021-03-28T23:28:22Z","🔸 New Listing🔸   #BKEX will list #DRYCAKE @DryCakeSwap🚀 🚀  - Trading pair: DRYCAKE/USDT - Trading time: 20:00 on Mar 29 (UTC+8)  🔹 🔹 More details: https://t.co/kC2IIebfTT  #Bitcoin #ETH #BKK #Blockchain https://t.co/w8CHyKXaUD",2480,0
1376315246189674501,"2021-03-28T23:28:20Z","🔴 Swapped $162K in #ETH for #USDC on #Uniswap 🦄  🐟 ($0) #0xd757FA https://t.co/x0pxmum9Ma",0,0
1376315243551412224,"2021-03-28T23:28:19Z","$KAT @KambriaNetwork in 2021  👀🚀🧨💎 ✅Token Burns ✅ Working Product ✅ New exchanges ✅ PhD level team ✅ Frontier Technology ✅ Education Platform ✅ Open Innovation ✅ Hackathons &amp; Bounties ✅ Solid community  And check those partners  $BTC $ETH $KAT $CHZ $BNB $VRA $DOGE https://t.co/gpvavNGlXy",47,0
1376315242456702980,"2021-03-28T23:28:19Z","$btc $eth Join binance global to trade with zero commissions for lifetime https://t.co/q7FY3vQ4Na",0,0
1376315241370357765,"2021-03-28T23:28:18Z","LIFE PATHS only available on @withFND for 0.333 ETH #art #NFT #nftart #nftcollectors   A representation of one's life paths. We are not bound to do only one thing in our whole existence. Taste other things and experience life in all sorts of directions. https://t.co/Pndd5Ik3Ed https://t.co/DDtbJAYbum",12,4
1376315239826870275,"2021-03-28T23:28:18Z","Reo Hatate bought for 0.65 ETH (1094.88$) on the secondary market   Season: 2020-2021 Level: 2 Serial: 59/100 Price: 1094.88$  ⚽ Sorare: https://t.co/Lw9QtKGeFG  📊: https://t.co/cplKfq1whc  #Sorare #NFT #Ethereum #FantasyFootball",0,0
1376315220637798400,"2021-03-28T23:28:13Z","Giveaway Time!! We're giving away CryptoFreak #201, a Rocking Rockstar worth .2 ETH ($400), to enter:  - Follow @digirocksnft  - Retweet this post - Tag 2 friends  Winner will be chosen at 9PM EST on Sunday (03/28) #NFT #Giveaway #Cryptoart #cryptofreaks #digirocks https://t.co/68WpYRcql7",221,0
1376315219576782855,"2021-03-28T23:28:13Z","RT @mvhvma: just listed this piece at 2.5 ETH x https://t.co/WeLNoin0p9",30,0
1376315213268578306,"2021-03-28T23:28:12Z","RT @____Vinci: $ETH IS UNDERVALUED  $LINK IS MORE UNDERVALUED",586,0
1376315211469225988,"2021-03-28T23:28:11Z","To celebrate @3DPunks_ #100/100 Auction Current bid at 16 ETH ($27K USD)  I'm giving away 3D Punk #049  Which last sold for 6.97 ETH ($12K USD)  How: - Follow @evankeast + @3DPunks_  - Like + Retweet - Tag a friend - Join the discord: https://t.co/5paneepNDb - Say hi in discord https://t.co/SOy3l78yP1",1043,0
1376315187398119428,"2021-03-28T23:28:06Z","Man embracing Eth” Intaglio Ring  https://t.co/VbBdDDfhWy? #rarible #ethereum #nonfungible #digitalasset #nft via @rariblecom",1,0
1376315170176311298,"2021-03-28T23:28:01Z","📢Congrats！First launch on Uniswap！ 🚀USDT-NFTs trading pair is live！ 🚀The contract address:  0x6599fc3e77cbfa6f6e9cac605a30b1e78827eba0  💰Hold more NFTs, be richer！  🌸Like、Retweet &amp; Tag 3 friends  🚀Select 10 addresses to airdrop 1,000,000 NFTs, leave wallet #ETH address https://t.co/Slor4FBQzP",2942,0
1376315164820135937,"2021-03-28T23:28:00Z","My very first drop: Nipsey Hussle  https://t.co/I2eGz1O79z  #NFT #NFTs #nftart #cryptoart #nipseyhussle #NFTCommunity #NFTartist #eth #etherum #nftcollector https://t.co/bY7VUCbBor",48,0
1376315161233911808,"2021-03-28T23:27:59Z","@fxNichola ETH $25K 😂😂😂 in this world or another one?",0,0
1376315140862320649,"2021-03-28T23:27:54Z","@DissolutionGame For a moment I did get excited. Then I saw the #ETH tag. That network is dead for low- to mid-ranged valued game assets and has been for over one year. ETH isn't cost efficient at this moment in time for #play2own or #play2earn gaming. In fact, it killed it. Move on.",1,0
1376315137007624196,"2021-03-28T23:27:54Z","This account now has over 300 followers. I hope every single one of you buying and holding prosper financially. I will be sending 10 people $100 worth of crypto to celebrate this. Comment below with your $BTC $RVN  $WAXP $SYS $SC $ETH or $LTC.",18,3
1376315129357275136,"2021-03-28T23:27:52Z","RT @LilMoonLambo: Can't wait to buy more $ETH after this weekly close 🚀 https://t.co/yVdRSHEpZG",180,3
1376315126039646214,"2021-03-28T23:27:51Z","RT @RushFamTourneys: https://t.co/QMfAJyml24 #RushTheBand Sunday Concert Feature - Sign Of ETH - 1977 Manchester, UK (bootleg)  #Rushfamily…",14,3
1376315120813547529,"2021-03-28T23:27:50Z","$AAVE $ADA $ALGO $ATOM $BNB $BTC $DOT $ETH $LINK $LTC $LUNA $MATIC $THETA $UNI $VET $ZIL  I wonder that $ICX raised by just 20% to $2.3 &amp; this is what disgusting $ICX investor writes. These pathetic people will go CRAZY if it accidentally touches $3.. Still 81% down from its ATH. https://t.co/f99ueWNTQr",0,0
1376315095806976000,"2021-03-28T23:27:44Z","@radcow2000 Rocket $GRT LETS GO!!!  #FUD is for those who live with doubt.   When in doubt zoom out. $btc $eth $dot $busd $link $ada $ltc $xrp #bch #crv $bnb $xlm $sushi $aave $celo #uni #yfı #yfıı $uni $eos #xtz $enj $dash $atom $bat $neo #fıl $sparta $xlm #doge #crypto",0,0
1376315095668690945,"2021-03-28T23:27:44Z","RT @tokenstate: ETH at $10,000 really does look conservative when you consider the tsunamis coming this year. 👀 https://t.co/EWISGzNNqK",573,0
1376315089528176645,"2021-03-28T23:27:42Z","$KICK’s USA exchange license is in the works with paperwork already filed and processing through the channels.  $100 = 800,000 KICK Tokens  $VET $BTC $ETH $DOGE $XRP $TRX $IOST $XLM $LINK $LTC $TEL $BNB $ADA $UNI $REN $DOT $SUSHI $NFT $ENJ $LUNA $DENT $ATOM #ALTSEASON #ALTCOIN https://t.co/NcQh3H9SBS",13,0
1376315086583701506,"2021-03-28T23:27:41Z","🔸 New Listing🔸   #BKEX will list #DRYCAKE @DryCakeSwap🚀 🚀  - Trading pair: DRYCAKE/USDT - Trading time: 20:00 on Mar 29 (UTC+8)  🔹 🔹 More details: https://t.co/kC2IIebfTT  #Bitcoin #ETH #BKK #Blockchain https://t.co/w8CHyKXaUD",2480,0
1376315080158089216,"2021-03-28T23:27:40Z","Remember the 1st #VoxelHotel Party?😎  ⚠️Well, you get till next Friday to get some new killing wearable!⚠️  PARTY² on The Rooftop,  @EclecticMethod LIVE video remix!   Like+Retweet to win a 🤖 Robot Head X1 wearable : https://t.co/XsNXwq2SOC  @basileus_eth  @cryptovoxels https://t.co/4hnbHb6QBN",223,0
1376315071794581505,"2021-03-28T23:27:38Z","#dailyFEG Sunday, 28 March 2021 Where to buy: $FEG #ETH at @Uniswap @1inchExchange $FEG #BSC at @PancakeSwap  #FEG #FEGex #FEGtrack #altcoin #altseason #blockchain #BNB #BTC #crypto #cryptonews #cryptoworld #cryptoinvestor #cryptotrader #DeFi #ERC20 #BEP20 #HODL #NFT #ToTheMoon https://t.co/HxLRhf59dS",91,0
1376315060436484097,"2021-03-28T23:27:35Z","Bullish Q1 for crypto markets and so much more to come: #UNI v3 - May #ETH EIP-1559 and Optimism L2 scaling - July #ADA smart contract mainnet - August #DOT parachain auctions - summer #BTC ETF... Fidelity? No date Massive year ahead! @BanklessHQ @iamDCinvestor",0,0
1376315054748880899,"2021-03-28T23:27:34Z","Giveaway Time!! We're giving away CryptoFreak #201, a Rocking Rockstar worth .2 ETH ($400), to enter:  - Follow @digirocksnft  - Retweet this post - Tag 2 friends  Winner will be chosen at 9PM EST on Sunday (03/28) #NFT #Giveaway #Cryptoart #cryptofreaks #digirocks https://t.co/68WpYRcql7",221,0
1376315043902451718,"2021-03-28T23:27:31Z","@josephpallant in the long run I am super bullish on Topshot, but generally just more bullish on Eth. happy to HODL either way :)",1,0
1376315043168415744,"2021-03-28T23:27:31Z","I'll send $300 in #ETH or #BTC to one person who retweets this and follows @bud_crypto. Must complete these tasks:  1 - Like/RT his pinned tweet  2 - Must RETWEET &amp; LIKE 4 of his tweets  Ends in 72 hours!",1206,0
1376315042375856129,"2021-03-28T23:27:31Z","RT @konceptxizzy: Genesis piece still up for grabs on Rarible! 🖤  #nft #eth #cryptoart   https://t.co/Pcf5twW8Xa https://t.co/Zi00qlbEwn",28,0
1376315023904145416,"2021-03-28T23:27:27Z","Friendly reminder:  Right now, at 100 gwei, $1685 ETH, it costs ~$10 to deposit your ETH onto Loopring L2, and live gas-free.  That deposit *IS* onboarding.  If you've never onboarded to Loopring yet: $10  If you have, and are just depositing more: $10  https://t.co/qRy7TPhGHD 👈",220,0
1376315009303711744,"2021-03-28T23:27:23Z","My first minted animation...   💙💚💜✨“SPECTRAL RINGS”✨💜💚💙  Now Available on @withFND! 🌐  Reserve Price: .222 ETH   Check it out here!   https://t.co/WNLhnEHYib https://t.co/ZmyG2Hrmkf",130,0
1376315004975202305,"2021-03-28T23:27:22Z","Minted my second piece at @withfoundation ! This one has a 0.65 ETH Reserve price and looking for a new home! https://t.co/MF3lpGndoS #nft #nftart #nfts #nftartist #nftcollector #nftcommunity #nftartists #cryptoart #cryptoartist https://t.co/0dsobG41H2 https://t.co/qF4fnnC7in",11,0
1376314982925803522,"2021-03-28T23:27:17Z","There’s a 300 INV reward for supplying ETH (including as collateral to borrow DOLA) and an additional 300 INV for borrowing ETH  Which means lending and borrowing ETH have different APYs depending on total borrowed and supplied  Both APYs will be added to the interface soon",83,0
1376314981352796161,"2021-03-28T23:27:16Z","RT @valon89x: Dr Mantis created one of the greatest games on #Ethereum #NFTs #CryptoNews $MWG $ETH $PAXG https://t.co/EW7LjCJnwJ",14,0
1376314979339673604,"2021-03-28T23:27:16Z","Sharing some new ways you can get 💸funds on to the @0xPolygon Layer 2 network to take advantage of the 🤑 $QUICK rewards on the $VISION / $ETH pool! Thanks to @zapper_fi and @AscendEX_Global this process has gotten easier! 😍 #eth #defi #yieldfarming  https://t.co/iJa1nquWUO",50,0
1376314973790568451,"2021-03-28T23:27:15Z","Honestly ethereum, I'm on my knees $ETH",1,0
1376314970217058307,"2021-03-28T23:27:14Z","🛡 Reflexer Safe #307 Repaid  🧑‍🚒 169.77k RAI paid back 🧯🧯🚒 📉 299.25 ETH sold 💸  https://t.co/JWhLO2ihgi",0,0
1376314967314554889,"2021-03-28T23:27:13Z","Here it is! 1 $KSM will be worth more than 1 $ETH https://t.co/oE3UC3UhH8",1,0
1376314951015497732,"2021-03-28T23:27:09Z","The Museum of NFT is proud to introduce you to the following emerging NFT artist:  #nft #nftart #nfts #nftartist #nftcollector #nftcommunity #superrare #mintable #rarible #niftygateway #opensea #eth #ethereum #bitcoin #doge #decentraland #sandbox #cryptoart #crypto https://t.co/cjT45Z8ndX",14,0
1376314925837062154,"2021-03-28T23:27:03Z","Why will the @SEC_News not produce one single document on why btc and eth are not securities?!   Is this really an agency to protect its investors but they won’t share any of their findings?  Aren’t they suppose to work for the people?  @HesterPeirce @JohnEDeaton1 @attorneyjeremy",19,0
1376314916693544960,"2021-03-28T23:27:01Z","@RingSwap Hello, nice news and good project #eth #btc #bsc #defi #farming #binance",0,0
1376314912289525760,"2021-03-28T23:27:00Z","@NBCSChicago @PointsBetUSA And that right there is how you lose a follower. 👋   Betting and gambling, this is why I’m divorcing from sports. I’d rather put my money in #BNB #ETH",0,0
1376314911035420677,"2021-03-28T23:27:00Z","#btc #eth buy target 1400 https://t.co/MsXOKkOZsw",2,0
1376314907025682433,"2021-03-28T23:26:59Z","The feeling your gonna have when you realize you should've bought a huge bag of $dag &amp; $ltx  Don't be that guy, we'll all laugh at you!!! #hugeDAGbag  $LTX $DAG $DOT $UNI $XRP $BTC $ETH $DOGE $EOS $IOTA $ADA $LINK $COTI $OCEAN $BNB $ZCX $XLM $RUNE $OCTO $QNT $CAKE $TRTL $SUSHI https://t.co/s4Hj9Nd9qv",10,0
1376314905440100353,"2021-03-28T23:26:58Z","Friendly reminder:  Right now, at 100 gwei, $1685 ETH, it costs ~$10 to deposit your ETH onto Loopring L2, and live gas-free.  That deposit *IS* onboarding.  If you've never onboarded to Loopring yet: $10  If you have, and are just depositing more: $10  https://t.co/qRy7TPhGHD 👈",220,0
1376314899152912387,"2021-03-28T23:26:57Z","RT @Atom1kOne: 🎁 25$ ETH Giveaway 🎁  - Follow me &amp; @DED_RIMMER  - Retweet  - 3 days  GL! 🔥 https://t.co/C7GPPwmaff",111,0
1376314898704179203,"2021-03-28T23:26:57Z","Last 24h update:  ⚪ 2391 $WHITE staking ⚪ 7 $WHETH hedging contracts acquired ⚪ 1 $WHWBTC hedging contracts acquired ⚪ 231K USDC in the liquidity pool ⚪ 5.81 $ETH wrapped and protected",15,0
1376314884703584258,"2021-03-28T23:26:53Z","The feeling your gonna have when you realize you should've bought a huge bag of $dag &amp; $ltx  Don't be that guy, we'll all laugh at you!!! #hugeDAGbag  $LTX $DAG $DOT $UNI $XRP $BTC $ETH $DOGE $EOS $IOTA $ADA $LINK $COTI $OCEAN $BNB $ZCX $XLM $RUNE $OCTO $QNT $CAKE $TRTL $SUSHI https://t.co/s4Hj9Nd9qv",10,2
1376314874251317250,"2021-03-28T23:26:51Z","RT @LilMoonLambo: Can't wait to buy more $ETH after this weekly close 🚀 https://t.co/yVdRSHEpZG",180,2
1376314860326244358,"2021-03-28T23:26:48Z","Daily $FET @Fetch_ai tidbit: #AutonomousAgentOracles incoming 🌚🌚🌚🌚🌚🌚🌚🌚🌚🌚🌚🌚 #NextGenerationOracle  $Fet $Link $Trb $Orai $Band #Api3 #OracleJunky #crypto #btc #eth https://t.co/XmF3mGGXo5",180,2
1376314826260148232,"2021-03-28T23:26:39Z","My first minted animation...   💙💚💜✨“SPECTRAL RINGS”✨💜💚💙  Now Available on @withFND! 🌐  Reserve Price: .222 ETH   Check it out here!   https://t.co/WNLhnEHYib https://t.co/ZmyG2Hrmkf",130,2
