"ID","created_at","text","like_count","rt_count"
1375983475266875397,"2021-03-28T01:29:59Z","Insane APY!  Insane Tokenomics!  NO inflation!  #DeFi #yieldfarming #BNB #BinanceSmartChain #Binance $auto $cake $bake $eth $dot #BSC https://t.co/u0dqOXpcaG",18,0
1375983454295363588,"2021-03-28T01:29:54Z","RT @CryptocatsLive: Cat #0 just sold for 19.99 ETH (0X19) From: 0xedc To: 0xdb2 #Cryptocats #NFT #Ethereum The Yoko Cat team unites ! https…",13,0
1375983447190081536,"2021-03-28T01:29:53Z","🚀#NFTs TOKENS AIRDROP Join to get 100,000 NFTs！  People will be chosen randomly！  🔹Follow NFTs Group 🔹Tag 3 friends to join us 🔹Comment wallet #ETH Address 🔹Retweet the top tweet  Please attract our attention. NFTs will be more valuable because of you🚀 #NFTs #NFT #AIRDROP https://t.co/5Hrt5mYGH5",3039,0
1375983432891785221,"2021-03-28T01:29:49Z","Google cloud tweeting about $THETA $TFUEL And you dont have a bag😂🤣😁😄  $ETH $TRON $ONT $LINK $DGB $BTC $BNB $HUSD $TELLOR $NEM $DASH $IOST $BCD $QTUM $KMD $DOT $Atom #oasis  $BAI  #Defi @Cosmos $DAO $MATIC https://t.co/mrRDT8ObAf",4,1
1375983415019905026,"2021-03-28T01:29:45Z","Opposites Attract. Tomorrow:  *sound on*  #19 The Desert 15/15 @ 0.7 ETH (6-7p EST window)  #20 The Mountain 1/1 24hr Auction ending 6p EST Monday (Buy-It-Now: 20 ETH) https://t.co/LFFwDyy9MS",160,1
1375983413191176192,"2021-03-28T01:29:44Z","@nicksdjohnson @frame_eth Well...there's the Legacy path on the Ledger, is that what you're referring to? But the Lattice doesn't support the legacy path either as far as I can tell in either their MetaMask extension or Frame.  Even if it did I'd still have to go back and move stuff...",0,0
1375983412717219843,"2021-03-28T01:29:44Z","$DEFY just passed @TechRate1 audit with flying colours. Here is the link to the audit: https://t.co/Efzjn9A9lc  sincerely first ever deflationary #YieldFarming project.  #DeFi #BinanceSmartChain #binance #BNB $ETH $BTC",14,0
1375983406979239941,"2021-03-28T01:29:43Z","🥇 We are https://t.co/w9DE49pwCm 🚀  👨‍🌾 @GoldFarmIO is a cross-chain DeFi FaaS protocol designed to bring utility to any token by turning it into an NFT farm with no code required on both BSC and ETH blockchains.  🔥 Max Supply: 1000000 $GOLD  Learn:  https://t.co/4nxZBcfdJO https://t.co/C90UElVsdw",247,0
1375983406379642881,"2021-03-28T01:29:43Z","I'm giving away 100 $sxp in 3 days to a random person.   To qualify: like, retweet &amp; follow me.  $btc $eth $dot $matic $ada $link $sxp $trx $rsr $vet $reef $tvk $bnb $cake",335,0
1375983381960265732,"2021-03-28T01:29:37Z","🎉 3D MASKS GIVEAWAY 🎉  Value: 0.8+ ETH  Complete the following steps for the chance to win a 1/1 #3dmasks   ✅ Follow @3DMasks_  ✅ Like &amp; Retweet ✅ Comment + tag 3 NFT buddies  The winner will be announced 10AM EST April 6th  #NFTCommunity #nftart #nftgiveaway #nftcollectors https://t.co/NdyOwjzD5Q",331,0
1375983379334582274,"2021-03-28T01:29:36Z","🥇 We are https://t.co/w9DE49pwCm 🚀  👨‍🌾 @GoldFarmIO is a cross-chain DeFi FaaS protocol designed to bring utility to any token by turning it into an NFT farm with no code required on both BSC and ETH blockchains.  🔥 Max Supply: 1000000 $GOLD  Learn:  https://t.co/4nxZBcfdJO https://t.co/C90UElVsdw",247,0
1375983372070174727,"2021-03-28T01:29:35Z","There’s a 300 INV reward for supplying ETH (including as collateral to borrow DOLA) and an additional 300 INV for borrowing ETH  Which means lending and borrowing ETH have different APYs depending on total borrowed and supplied  Both APYs will be added to the interface soon",83,0
1375983370568630277,"2021-03-28T01:29:34Z","30 day EVIX: 87.7345 ETH/USD vwap: $1,711.24 04/16 expiry volume: $1,658,789.99 04/30 expiry volume: $6,306,028.64 Current time: 01:29:09",0,0
1375983362175864836,"2021-03-28T01:29:32Z","To celebrate @3DPunks_ #100/100 Auction Current bid at 16 ETH ($27K USD)  I'm giving away 3D Punk #049  Which last sold for 6.97 ETH ($12K USD)  How: - Follow @evankeast + @3DPunks_  - Like + Retweet - Tag a friend - Join the discord: https://t.co/5paneepNDb - Say hi in discord https://t.co/SOy3l78yP1",1043,0
1375983345419616256,"2021-03-28T01:29:28Z","Countdown begins for @VulcanForged utility token-launch 🔥Let's set the world on $PYR!🔥  JOIN US👇  👉https://t.co/9fzupeT8TJ 👉https://t.co/feyIqNmDbl  @vulcanverse @Berserk_Game @0xPolygon   #BlockchainGaming #metaverse #playtoearn   $PYR $MATIC $ENJ $ETH https://t.co/M55TZdw0A9",71,0
1375983342252777473,"2021-03-28T01:29:27Z","25 ETH RESERVE MET ON TO THE MOON by @KeyboardMonkey3 !!  Auction ends in 24 hours! Highest bid comes with a metal print and sticker pack as well as a ticket in #jastronauts   IM SO HAPPY RN TYYYYY! https://t.co/RD9RIvQPZz",180,9
1375983325144252419,"2021-03-28T01:29:23Z","🥇 We are https://t.co/w9DE49pwCm 🚀  👨‍🌾 @GoldFarmIO is a cross-chain DeFi FaaS protocol designed to bring utility to any token by turning it into an NFT farm with no code required on both BSC and ETH blockchains.  🔥 Max Supply: 1000000 $GOLD  Learn:  https://t.co/4nxZBcfdJO https://t.co/C90UElVsdw",247,9
1375983322493423620,"2021-03-28T01:29:23Z","🥇 We are https://t.co/w9DE49pwCm 🚀  👨‍🌾 @GoldFarmIO is a cross-chain DeFi FaaS protocol designed to bring utility to any token by turning it into an NFT farm with no code required on both BSC and ETH blockchains.  🔥 Max Supply: 1000000 $GOLD  Learn:  https://t.co/4nxZBcfdJO https://t.co/C90UElVsdw",247,9
1375983322153721857,"2021-03-28T01:29:23Z","🥇 We are https://t.co/w9DE49pwCm 🚀  👨‍🌾 @GoldFarmIO is a cross-chain DeFi FaaS protocol designed to bring utility to any token by turning it into an NFT farm with no code required on both BSC and ETH blockchains.  🔥 Max Supply: 1000000 $GOLD  Learn:  https://t.co/4nxZBcfdJO https://t.co/C90UElVsdw",247,9
1375983322099236865,"2021-03-28T01:29:23Z","🔄 Prices update in $USD (1 hour):  $BTC - 56040.0 $  (+0.57 %) $ETH - 1710.63 $  (+0.21 %) $DOT - 32.87 $    (+1.91 %) $ADA - 1.18 $     (+0.96 %)  #BTC #ETH #DOT #ADA #Crypto #Bitcoin",0,0
1375983321239420929,"2021-03-28T01:29:22Z","RT @The_NFT_Hub: 🎁Drop your $ETH address below🎁",1165,0
1375983308358701057,"2021-03-28T01:29:19Z","Daily traders be like:  $btc $eth $ada $busd $chz $bnb $xrp $enj $rvn $luna $alice $dot $vet $hot $xem $ltc $mith $sxp $theta $ogn $mana $ont https://t.co/aiuFidZYbv",0,0
1375983306592808964,"2021-03-28T01:29:19Z","Win #NFT worth ETH!  To WIN #Giveaway You MUST:    1.) Follow @degenasaurus   2.) Retweet the tweet BELOW ⬇️ + comment it  3.) OPTION -&gt; Join discord: https://t.co/alAVVDlyQu  NFT: https://t.co/l37pUrR6Y3  Wish luck!! 🦖♥️🛸👫  @coinkit_ mon 45 2000 BTC  https://t.co/wFeOut8N85",310,0
1375983303862325248,"2021-03-28T01:29:18Z","Check the new #adonx website version:  ▪️Site updated ▪️Whitepaper updated ▪️Team updated ▪️RoadMap updated  Website: https://t.co/yeoLwgBN0j  To purchase: https://t.co/CNpFV7pYzE  #btc #eth #bnb #bsc #altcoin #cryptoart #Crypto #IEO #CryptoNews https://t.co/Cq22uI9nNf",160,0
1375983281435381761,"2021-03-28T01:29:13Z","To celebrate @3DPunks_ #100/100 Auction Current bid at 16 ETH ($27K USD)  I'm giving away 3D Punk #049  Which last sold for 6.97 ETH ($12K USD)  How: - Follow @evankeast + @3DPunks_  - Like + Retweet - Tag a friend - Join the discord: https://t.co/5paneepNDb - Say hi in discord https://t.co/SOy3l78yP1",1043,0
1375983280227516420,"2021-03-28T01:29:13Z","RT @intocryptoverse: $ETH / $BTC breakout in a few weeks? https://t.co/FpsjdNfnHy",635,0
1375983279191560201,"2021-03-28T01:29:12Z","🚀 Pluto Coin  Airdrop 🚀 Rate: ⭐⭐⭐⭐ ⭐ 🎁 Reward:  8822 PLUT ($1500) 👫 Referral: 40.5 PLUT  ($7)  🤖Start Bot here   https://t.co/x5JZchojO8  ⛂ Join Telegram group and channel. ⛂ Follow twitter &amp; retweet  ⛂ Submit ETH address and details.",6005,0
1375983276242956289,"2021-03-28T01:29:12Z","To celebrate @3DPunks_ #100/100 Auction Current bid at 16 ETH ($27K USD)  I'm giving away 3D Punk #049  Which last sold for 6.97 ETH ($12K USD)  How: - Follow @evankeast + @3DPunks_  - Like + Retweet - Tag a friend - Join the discord: https://t.co/5paneepNDb - Say hi in discord https://t.co/SOy3l78yP1",1043,0
1375983273210482693,"2021-03-28T01:29:11Z","Based on a previous tweet, please fill this out if you are a crypto mining expert.  Looking for someone to make guides on how to set up in detail.  Only fill it out if you can provide proof of a mining set up of greater than 50k in value   #btc #mining #eth #LTC https://t.co/dUMUg9bGRX",77,0
1375983264482099206,"2021-03-28T01:29:09Z","@coldhealing Pretty much what the big ETH guys want people to do, mint NFTs by paying for it in ETH. Make no money on it and pump the value of ETH for the people in it before NFTs became a thing",0,0
1375983256206635010,"2021-03-28T01:29:07Z","Win #NFT worth ETH!  To WIN #Giveaway You MUST:    1.) Follow @degenasaurus   2.) Retweet the tweet BELOW ⬇️ + comment it  3.) OPTION -&gt; Join discord: https://t.co/alAVVDlyQu  NFT: https://t.co/l37pUrR6Y3  Wish luck!! 🦖♥️🛸👫  @coinkit_ mon 45 2000 BTC  https://t.co/wFeOut8N85",310,0
1375983255728619521,"2021-03-28T01:29:07Z","reaching $229m full market cap, 19 days after launching on @harmonyprotocol   anonymous developer @VenomDAO, first cross-chain liquidity pool, bridges with ETH-ONE-BSC for @binance's BNB BUSD assets  time-locked and multi-sig contracts coming soon for  https://t.co/0wx8PXyASq https://t.co/GfeDOgszxM",453,0
1375983251462877186,"2021-03-28T01:29:06Z","🥇 We are https://t.co/w9DE49pwCm 🚀  👨‍🌾 @GoldFarmIO is a cross-chain DeFi FaaS protocol designed to bring utility to any token by turning it into an NFT farm with no code required on both BSC and ETH blockchains.  🔥 Max Supply: 1000000 $GOLD  Learn:  https://t.co/4nxZBcfdJO https://t.co/C90UElVsdw",247,0
1375983246014566401,"2021-03-28T01:29:05Z","https://t.co/FdQi2oITKg  Play easy arcade games and earn #BTC #ETH and #DOGE  Simple as that. Go get it. https://t.co/m5121cSHHO @dogecoin @rollercoin @bitcoin",0,0
1375983227043598339,"2021-03-28T01:29:00Z","🥇 We are https://t.co/w9DE49pwCm 🚀  👨‍🌾 @GoldFarmIO is a cross-chain DeFi FaaS protocol designed to bring utility to any token by turning it into an NFT farm with no code required on both BSC and ETH blockchains.  🔥 Max Supply: 1000000 $GOLD  Learn:  https://t.co/4nxZBcfdJO https://t.co/C90UElVsdw",247,0
1375983225357574150,"2021-03-28T01:29:00Z","To celebrate @3DPunks_ #100/100 Auction Current bid at 16 ETH ($27K USD)  I'm giving away 3D Punk #049  Which last sold for 6.97 ETH ($12K USD)  How: - Follow @evankeast + @3DPunks_  - Like + Retweet - Tag a friend - Join the discord: https://t.co/5paneepNDb - Say hi in discord https://t.co/SOy3l78yP1",1043,0
1375983222140542978,"2021-03-28T01:28:59Z","🥇 We are https://t.co/w9DE49pwCm 🚀  👨‍🌾 @GoldFarmIO is a cross-chain DeFi FaaS protocol designed to bring utility to any token by turning it into an NFT farm with no code required on both BSC and ETH blockchains.  🔥 Max Supply: 1000000 $GOLD  Learn:  https://t.co/4nxZBcfdJO https://t.co/C90UElVsdw",247,0
1375983219120734211,"2021-03-28T01:28:58Z","@ValidatorONE @harmonyprotocol @Esthy_amaka @Onuechetakosi @Mai_Oasisglobal  I love $one majorly because of its two seconds finality processing, lowest fees currently on the planet and for the fact it will soon dwarf Cake and Eth.  Bring it on.",4,1
1375983212875276291,"2021-03-28T01:28:57Z","RT @The_NFT_Hub: 🎁Drop your $ETH address below🎁",1165,1
1375983207917625347,"2021-03-28T01:28:55Z","🥇 We are https://t.co/w9DE49pwCm 🚀  👨‍🌾 @GoldFarmIO is a cross-chain DeFi FaaS protocol designed to bring utility to any token by turning it into an NFT farm with no code required on both BSC and ETH blockchains.  🔥 Max Supply: 1000000 $GOLD  Learn:  https://t.co/4nxZBcfdJO https://t.co/C90UElVsdw",247,1
1375983198673379328,"2021-03-28T01:28:53Z","🚀 Pluto Coin  Airdrop 🚀 Rate: ⭐⭐⭐⭐ ⭐ 🎁 Reward:  8822 PLUT ($1500) 👫 Referral: 40.5 PLUT  ($7)  🤖Start Bot here   https://t.co/x5JZchojO8  ⛂ Join Telegram group and channel. ⛂ Follow twitter &amp; retweet  ⛂ Submit ETH address and details.",6005,1
1375983195271831552,"2021-03-28T01:28:52Z","Will be giving away 5k worth of $STACK to 10 lucky people (500usd/each) in the next week BUT you have to hold at least ONE @StackerVentures Token in your $ETH wallet to qualify for the drawing. Just giving the heads up about my #Airdrop  #airdrops #freeMULA  Stay Tuned &amp; Notified",22,1
1375983185989750786,"2021-03-28T01:28:50Z","🚨@Modefi_Official is now listed on @LunarCRUSH 🚨  🚀 You can now use @LunarCRUSH to track social indicators and get daily updates for Modefi Directly! 🚀  Link - https://t.co/rtNBw0RHyW  #Defi #IDO #Uniswap #Oracle #ETH #MOD $MOD $SWAP #Ethereum #DefiNews",138,1
1375983184668594176,"2021-03-28T01:28:50Z","$CRV to $10 will trigger $YFI to $100k.  $CRV to $10 pushes most USD and ETH yields to 3 figure APY.  This leads $ETH to $20k.  Which leads to well over 10x across all of defi.  Cascade of positive feedback.  $CRV is the lynchpin. $EPS sparks the great crypto boom of 2021.",619,1
1375983174749147140,"2021-03-28T01:28:48Z","🥇 We are https://t.co/w9DE49pwCm 🚀  👨‍🌾 @GoldFarmIO is a cross-chain DeFi FaaS protocol designed to bring utility to any token by turning it into an NFT farm with no code required on both BSC and ETH blockchains.  🔥 Max Supply: 1000000 $GOLD  Learn:  https://t.co/4nxZBcfdJO https://t.co/C90UElVsdw",247,1
1375983170638770177,"2021-03-28T01:28:47Z","$RSR - Woke up to healthy movements. Very happy with the progression so far. Would like to see something like this happen.   Will start taking profits at the 1.618 extension. (.105c)  #BTC  #ETH #XRP #DOT #KSM #LINK #CHR #SXP #ROSE #UTK #IOTX #COTI #OCEAN #WING #AST #WABI #LUNA https://t.co/Teomgv6woO https://t.co/oG6rutKXpu",4,1
1375983165924315136,"2021-03-28T01:28:45Z","To celebrate @3DPunks_ #100/100 Auction Current bid at 16 ETH ($27K USD)  I'm giving away 3D Punk #049  Which last sold for 6.97 ETH ($12K USD)  How: - Follow @evankeast + @3DPunks_  - Like + Retweet - Tag a friend - Join the discord: https://t.co/5paneepNDb - Say hi in discord https://t.co/SOy3l78yP1",1043,1
1375983164191956998,"2021-03-28T01:28:45Z","🥇 We are https://t.co/w9DE49pwCm 🚀  👨‍🌾 @GoldFarmIO is a cross-chain DeFi FaaS protocol designed to bring utility to any token by turning it into an NFT farm with no code required on both BSC and ETH blockchains.  🔥 Max Supply: 1000000 $GOLD  Learn:  https://t.co/4nxZBcfdJO https://t.co/C90UElVsdw",247,1
1375983158395551744,"2021-03-28T01:28:44Z","@Cryptoartyst @dragonchaingang @SnoopDogg This definitely needs to happen on DragonNet. Why spend the gas fees when you can mint and trade with @dragonchaingang for less than $.01! #drgn &gt; #eth https://t.co/XHJwOvODNc",14,1
1375983148182380552,"2021-03-28T01:28:41Z","$RSR - Woke up to healthy movements. Very happy with the progression so far. Would like to see something like this happen.   Will start taking profits at the 1.618 extension. (.105c)  #BTC  #ETH #XRP #DOT #KSM #LINK #CHR #SXP #ROSE #UTK #IOTX #COTI #OCEAN #WING #AST #WABI #LUNA https://t.co/Teomgv6woO https://t.co/oG6rutKXpu",4,1
1375983145997070337,"2021-03-28T01:28:41Z","No need to spend your own money to trade #cryptocurrency. Over 10K users won crypto rewards on @latokens last week. It's the best way to join the financial revolution. Start by earning a share of $100K in CLIQ airdrop: https://t.co/eq7k6kbvBX #Bitcoin #ETH #Citi #AON #LATOKEN",0,0
1375983141471485953,"2021-03-28T01:28:40Z","Do you have money just sitting there in #stablecoins like #USDC or #BUSD? You could be early huge passive income by lending on FTX!   Register here and start earning now: https://t.co/SzgbT2Ypee  $BTC $ETH $BNB $CAKE $CRV $ADA $FTT $USDT $USDC  @coinkit_ mon 0.25 225 $TRX https://t.co/fO3EDM60eG",74,0
1375983115613696004,"2021-03-28T01:28:33Z","To celebrate @3DPunks_ #100/100 Auction Current bid at 16 ETH ($27K USD)  I'm giving away 3D Punk #049  Which last sold for 6.97 ETH ($12K USD)  How: - Follow @evankeast + @3DPunks_  - Like + Retweet - Tag a friend - Join the discord: https://t.co/5paneepNDb - Say hi in discord https://t.co/SOy3l78yP1",1043,0
1375983103739629568,"2021-03-28T01:28:31Z","@dixon_eth Thank you ;-; you’re the sweetest",0,0
1375983099880763392,"2021-03-28T01:28:30Z","Win #NFT worth ETH!  To WIN #Giveaway You MUST:    1.) Follow @degenasaurus   2.) Retweet the tweet BELOW ⬇️ + comment it  3.) OPTION -&gt; Join discord: https://t.co/alAVVDlyQu  NFT: https://t.co/l37pUrR6Y3  Wish luck!! 🦖♥️🛸👫  @coinkit_ mon 45 2000 BTC  https://t.co/wFeOut8N85",310,0
1375983098769203202,"2021-03-28T01:28:29Z","Just did a video on why I'm selling $ETH and what type of altcoins I'm looking to buy + big Crypto news   https://t.co/7xahp1z3cj  #Bitcoin #Ethereum #Binance #Litecoin",1459,0
1375983087532789760,"2021-03-28T01:28:27Z","To celebrate @3DPunks_ #100/100 Auction Current bid at 16 ETH ($27K USD)  I'm giving away 3D Punk #049  Which last sold for 6.97 ETH ($12K USD)  How: - Follow @evankeast + @3DPunks_  - Like + Retweet - Tag a friend - Join the discord: https://t.co/5paneepNDb - Say hi in discord https://t.co/SOy3l78yP1",1043,0
1375983086836477954,"2021-03-28T01:28:27Z","RT @iamMichael21: $STORJ is having an insane pump at the moment. #Altseason2021 #Crypto #cryptocurrency #btc #eth #alts",1,0
1375983078263300100,"2021-03-28T01:28:25Z","Win #NFT worth ETH!  To WIN #Giveaway You MUST:    1.) Follow @degenasaurus   2.) Retweet the tweet BELOW ⬇️ + comment it  3.) OPTION -&gt; Join discord: https://t.co/alAVVDlyQu  NFT: https://t.co/l37pUrR6Y3  Wish luck!! 🦖♥️🛸👫  @coinkit_ mon 45 2000 BTC  https://t.co/wFeOut8N85",310,0
1375983066812928005,"2021-03-28T01:28:22Z","_/﹋\_    (҂`_´)   &lt;,︻╦╤─ ҉🌶🌶  _/﹋\_  Best rewards on tacoswap than sushiswap and uniswap ! Let’s go, join the rocket 🚀 #taco #tacoswap #Tacotoken #tacoswaptothemoon #tacofinance #defi $btc $eth $doge $ada $xlm $crd 😎",22,0
1375983059783151618,"2021-03-28T01:28:20Z","🥇 We are https://t.co/w9DE49pwCm 🚀  👨‍🌾 @GoldFarmIO is a cross-chain DeFi FaaS protocol designed to bring utility to any token by turning it into an NFT farm with no code required on both BSC and ETH blockchains.  🔥 Max Supply: 1000000 $GOLD  Learn:  https://t.co/4nxZBcfdJO https://t.co/C90UElVsdw",247,0
1375983046545928192,"2021-03-28T01:28:17Z","To celebrate @3DPunks_ #100/100 Auction Current bid at 16 ETH ($27K USD)  I'm giving away 3D Punk #049  Which last sold for 6.97 ETH ($12K USD)  How: - Follow @evankeast + @3DPunks_  - Like + Retweet - Tag a friend - Join the discord: https://t.co/5paneepNDb - Say hi in discord https://t.co/SOy3l78yP1",1043,0
1375983039973580801,"2021-03-28T01:28:15Z","To celebrate @3DPunks_ #100/100 Auction Current bid at 16 ETH ($27K USD)  I'm giving away 3D Punk #049  Which last sold for 6.97 ETH ($12K USD)  How: - Follow @evankeast + @3DPunks_  - Like + Retweet - Tag a friend - Join the discord: https://t.co/5paneepNDb - Say hi in discord https://t.co/SOy3l78yP1",1043,0
1375983035909206019,"2021-03-28T01:28:14Z","#DeFi #BKC #eth2 #BucksCake  ANNOUNCEMENT!  Dear BucksCake's community members!  The exact date of BKC listing on Uniswap set for 04/20/2021!  2 days before it, the exact opening time of the trading pair BKC/ETH on Uniswap...  More at https://t.co/RQPMhjazG2 https://t.co/VjtBbXBA1t",2856,0
1375983019463335938,"2021-03-28T01:28:11Z","Realistic Price Prediction for 2021: $BTC $85,000 $BCH $15,000 $ETH $5,000 $VET $2,00 $ADA $6,00 $XRP $12 (with regulations $1500+) $DOGE $0.50 $NPXS $0.20 $FLR $4,00",722,0
1375983010839818241,"2021-03-28T01:28:08Z","To celebrate @3DPunks_ #100/100 Auction Current bid at 16 ETH ($27K USD)  I'm giving away 3D Punk #049  Which last sold for 6.97 ETH ($12K USD)  How: - Follow @evankeast + @3DPunks_  - Like + Retweet - Tag a friend - Join the discord: https://t.co/5paneepNDb - Say hi in discord https://t.co/SOy3l78yP1",1043,0
1375983008172232710,"2021-03-28T01:28:08Z","Join the @Holdefi community in HLD public sale!  #HLD #Holdefi #ETH #BSC #IDO #ICO 👇👇 https://t.co/x4hWDegYsm",0,0
1375982994742206470,"2021-03-28T01:28:05Z","@art444aura https://t.co/o8PVC3onT4 these lovely Mona Pudding Pops approves of manifestation. Especially when they are only selling themselves for 0.1 ETH!!!",5,0
1375982992041074688,"2021-03-28T01:28:04Z","RT @RealSaidov: Complete reallocation from $ETH to $ADA.   Forget the past. Invest in the future.",98,0
1375982987804745734,"2021-03-28T01:28:03Z","🔶 CryptoDicko Giveaway! 🔶  1/1 Edition Next Suprise CrpytoDicko #NFT  VALUE: 0,1 ETH Follow and RETWEET also Comment! Thank you!   Aradicko Harry Dickor  GET a CryptoDicko limited edition!  #NFT #nftcollector #NFTs #NFTartist #nftcollectors #NFTartists #NFTdrop https://t.co/xJS1gDcIoc",16,0
1375982987163013124,"2021-03-28T01:28:03Z","RT @HobbaTito: The last 3 months have been the most stagnent for me in #Crypto. Neither $LINK nor $ETH made any significant move. https://t…",5,0
1375982984591896580,"2021-03-28T01:28:02Z","@ChubbiesNFT 16.666 ETH will be the end of the auction",0,0
1375982982255669248,"2021-03-28T01:28:02Z","If $FET finishes this month at 1$ then next month will be epic!!! 🚀🚀🪐🌔  $OCEAN $ONION $XVS $BAT $ALGO $THETA  $FET $IOST $DGB $ETH $XRP https://t.co/jrlqtFq60O",6,1
1375982974676598785,"2021-03-28T01:28:00Z","Prediction of money for the Future of Bitcoin, ETH, XRP, and LTC. Exchange crypto with trusted ones https://t.co/GX61shCywP",0,0
1375982974567612419,"2021-03-28T01:28:00Z","@art444aura https://t.co/o8PVC3onT4 these lovely Mona Pudding Pops approves of manifestation. Especially when they are only selling themselves for 0.1 ETH!!!",5,1
1375982965264678920,"2021-03-28T01:27:58Z","To celebrate @3DPunks_ #100/100 Auction Current bid at 16 ETH ($27K USD)  I'm giving away 3D Punk #049  Which last sold for 6.97 ETH ($12K USD)  How: - Follow @evankeast + @3DPunks_  - Like + Retweet - Tag a friend - Join the discord: https://t.co/5paneepNDb - Say hi in discord https://t.co/SOy3l78yP1",1043,1
1375982953692418050,"2021-03-28T01:27:55Z","🥇 We are https://t.co/w9DE49pwCm 🚀  👨‍🌾 @GoldFarmIO is a cross-chain DeFi FaaS protocol designed to bring utility to any token by turning it into an NFT farm with no code required on both BSC and ETH blockchains.  🔥 Max Supply: 1000000 $GOLD  Learn:  https://t.co/4nxZBcfdJO https://t.co/C90UElVsdw",247,1
1375982953105395712,"2021-03-28T01:27:55Z","RT @NfTcave: What would you do with a Digital Land plot ?  #Giveaway !  -Follow  -Retweet -Comment your idea. 👇  #NFT #Crypto #Eth Fire!",3,1
1375982933027258375,"2021-03-28T01:27:50Z","@Loganthedudee These candles bring good fortune! 10 Available 0.011 Eth more to come! https://t.co/XeimyqMQ48",0,0
1375982927838806016,"2021-03-28T01:27:49Z","If you haven’t already check out $ICX as it is still early for #ICON in this bull run.. Lots of things coming up:  ✅Defi  ✅Interoperability  ✅NFT ✅Usage by certain parts of S Korean Government   $BTC $ETH $DOT $NEO $LINK $ADA $XRP $AAVE",33,0
1375982926450491395,"2021-03-28T01:27:48Z","Win #NFT worth ETH!  To WIN #Giveaway You MUST:    1.) Follow @degenasaurus   2.) Retweet the tweet BELOW ⬇️ + comment it  3.) OPTION -&gt; Join discord: https://t.co/alAVVDlyQu  NFT: https://t.co/l37pUrR6Y3  Wish luck!! 🦖♥️🛸👫  @coinkit_ mon 45 2000 BTC  https://t.co/wFeOut8N85",310,0
1375982923673972743,"2021-03-28T01:27:48Z","The #crosschain future is made by #Anyswap  powered by #FUSIONProtocol technology.  $ETH $FTM $HT $XDAI $LTC $BNB $FSN $MATIC $BTC $OKB done ✅  $ADA $SOL $DOT in progress  #FSN #DEFI #DCRM https://t.co/2YRraP2vzZ",23,0
1375982920322613249,"2021-03-28T01:27:47Z","🥇 We are https://t.co/w9DE49pwCm 🚀  👨‍🌾 @GoldFarmIO is a cross-chain DeFi FaaS protocol designed to bring utility to any token by turning it into an NFT farm with no code required on both BSC and ETH blockchains.  🔥 Max Supply: 1000000 $GOLD  Learn:  https://t.co/4nxZBcfdJO https://t.co/C90UElVsdw",247,0
1375982906334531587,"2021-03-28T01:27:44Z","RT @holdefi: At last but not least, It is Public Time 😎🥳  #HLD #DeFi #BSC #ETH #publicsale   https://t.co/12bHllXEx9",130,0
1375982888253030402,"2021-03-28T01:27:39Z","reaching $229m full market cap, 19 days after launching on @harmonyprotocol   anonymous developer @VenomDAO, first cross-chain liquidity pool, bridges with ETH-ONE-BSC for @binance's BNB BUSD assets  time-locked and multi-sig contracts coming soon for  https://t.co/0wx8PXyASq https://t.co/GfeDOgszxM",453,0
1375982879600037890,"2021-03-28T01:27:37Z","🥇 We are https://t.co/w9DE49pwCm 🚀  👨‍🌾 @GoldFarmIO is a cross-chain DeFi FaaS protocol designed to bring utility to any token by turning it into an NFT farm with no code required on both BSC and ETH blockchains.  🔥 Max Supply: 1000000 $GOLD  Learn:  https://t.co/4nxZBcfdJO https://t.co/C90UElVsdw",247,0
1375982869235965952,"2021-03-28T01:27:35Z","@tokenmetricsinc $ICX and $ETH 🤑  Now waiting for $NFTT to be my next major bag😉  🌑 @TechNFTT is an #NFT art marketplace that will surely be on top.  ✅ Fix the illiquidity problem ✅ Partnership with @orion_protocol ✅ Backed by @dao_duck, @CapitalVendetta  #NFT #DeFi https://t.co/wfaoBKnQxq",2,0
1375982861531119617,"2021-03-28T01:27:33Z","RT @da13thsun: My Mindset is Always a Chosen Few will make eth through to Th End 13Love https://t.co/08OtQgzviU",56,0
1375982857403858944,"2021-03-28T01:27:32Z","@ChainlinkNFThub I am join here   ETH wallet addresses  0xE8e3CDE35F72050B6e6F8CC7B4b8DE96B668360e  Good opportunity  Done Task ....  Thanks for ETH ...... I am Accepted here your concept..... Thanks......",0,0
1375982848969150466,"2021-03-28T01:27:30Z","@ChaBoyyHD @AlexM_Remy @intocryptoverse Against USD, every one is in profit. Anyway, ETH will always outperform BTC, easy.",0,0
1375982843252199428,"2021-03-28T01:27:29Z","Win #NFT worth ETH!  To WIN #Giveaway You MUST:    1.) Follow @degenasaurus   2.) Retweet the tweet BELOW ⬇️ + comment it  3.) OPTION -&gt; Join discord: https://t.co/alAVVDlyQu  NFT: https://t.co/l37pUrR6Y3  Wish luck!! 🦖♥️🛸👫  @coinkit_ mon 45 2000 BTC  https://t.co/wFeOut8N85",310,0
1375982833521414147,"2021-03-28T01:27:26Z","Join our airdrop and Earn 400 TKM and additional 40 TKM for every Referral  https://t.co/h6oyRpmJoh  #airdrop #tkm #crypto #eth https://t.co/7i0hyv5LE5",8468,0
1375982827985108992,"2021-03-28T01:27:25Z","To celebrate @3DPunks_ #100/100 Auction Current bid at 16 ETH ($27K USD)  I'm giving away 3D Punk #049  Which last sold for 6.97 ETH ($12K USD)  How: - Follow @evankeast + @3DPunks_  - Like + Retweet - Tag a friend - Join the discord: https://t.co/5paneepNDb - Say hi in discord https://t.co/SOy3l78yP1",1043,0
1375982826852507648,"2021-03-28T01:27:25Z","To celebrate @3DPunks_ #100/100 Auction Current bid at 16 ETH ($27K USD)  I'm giving away 3D Punk #049  Which last sold for 6.97 ETH ($12K USD)  How: - Follow @evankeast + @3DPunks_  - Like + Retweet - Tag a friend - Join the discord: https://t.co/5paneepNDb - Say hi in discord https://t.co/SOy3l78yP1",1043,0
1375982812629757955,"2021-03-28T01:27:21Z","Just did a video on why I'm selling $ETH and what type of altcoins I'm looking to buy + big Crypto news   https://t.co/7xahp1z3cj  #Bitcoin #Ethereum #Binance #Litecoin",1459,0
1375982805495152644,"2021-03-28T01:27:20Z","Thanks to everyone who has already entered. #NFTGiveaway TIME!  1. LIKE &amp; FOLLOW 👍🏽  2. Share 😆  3. Comment with your $ETH address  You need to follow to be accepted! Feel free to enter again if you already have for a second chance! #blokcraft  https://t.co/FNlzXsmd2Y https://t.co/Q49aWs7cLY",103,0
1375982804081778695,"2021-03-28T01:27:19Z","Do you have money just sitting there in #stablecoins like #USDC or #BUSD? You could be early huge passive income by lending on FTX!   Register here and start earning now: https://t.co/SzgbT2Ypee  $BTC $ETH $BNB $CAKE $CRV $ADA $FTT $USDT $USDC  @coinkit_ mon 0.25 225 $TRX https://t.co/fO3EDM60eG",74,0
1375982795160489988,"2021-03-28T01:27:17Z","Cryptocurrency Price Check: Bitcoin Falls, DeFi Gets New Update - TheStreet https://t.co/ZNhCehiLtE #Ethereum #BitcoinNews #XRP #ETH #CryptoCurrency #BlockchainNews #QASH #Cryptocurrencynews #BLockchain #BCH #BTC #CryptoNews",1,0
1375982785119322113,"2021-03-28T01:27:15Z","@Greed2Fear The LINK action is worse than ETH #overit",1,0
1375982757726273540,"2021-03-28T01:27:08Z","Do you have money just sitting there in #stablecoins like #USDC or #BUSD? You could be early huge passive income by lending on FTX!   Register here and start earning now: https://t.co/SzgbT2Ypee  $BTC $ETH $BNB $CAKE $CRV $ADA $FTT $USDT $USDC  @coinkit_ mon 0.25 225 $TRX https://t.co/fO3EDM60eG",74,0
