"ID","created_at","text","like_count","rt_count"
1376051393354723331,"2021-03-28T05:59:52Z","RT @whale_alert: 🚨  6,294 #ETH (10,814,431 USD) transferred from #Binance to unknown wallet  https://t.co/MKluH6pLuk",93,0
1376051386576564227,"2021-03-28T05:59:51Z","Only few hours left until the wall street bets pump!  Join the pump: https://t.co/ypRVpwXdNs https://t.co/K31DLn3IfP  #Bitcoin #BTC #Crypto $Bitcoin #Bitcoin $ETH #ETH $Ethereum #Ethereum $BTC #BNB $BNB #Binance",0,0
1376051381618892805,"2021-03-28T05:59:49Z","@WormsNFT Accidental GLTCH is out now for 0.3 Eth.  Check the colletion out now!  https://t.co/UBnUKvHQzu",1,0
1376051381044346881,"2021-03-28T05:59:49Z","Good piece from @CoinDesk on all that's happening in the #NFT world. #NFTs #NFTart #Cryptoart @beeple @ChristiesInc @mcuban @ParisHilton @justinsuntron @CryptoFinally @iamDCinvestor @jeffwilser $ETH #Ethereum #crypto   https://t.co/l8qe0y4FLK",78,0
1376051378502520833,"2021-03-28T05:59:49Z","RT @The_NFT_Hub: 🎁Drop your $ETH address below🎁",1165,0
1376051371435159558,"2021-03-28T05:59:47Z","#LEGITFAUCET #ETHFAUCET New free #ethereum coin (#ETH) FAUCET  Claim ETH worth up to $300 Every 60 Min  Free Withdraw. LINK REGISTER : https://t.co/lD2uzRUzzj  1. Signup 2. Retweet + Like  #EthereumFaucet #FAUCET #NEWFAUCET #FreeMoney #FREECRYPTO  #CTBot Adrop Ram 50 TATM 30",11,0
1376051358252609536,"2021-03-28T05:59:44Z","RT @WhaleTrades: 📈💶$1,001,450 $ETH LONGED @$1724.0 [28/03/21 05:59:30] 🏪FTX | ETH-PERP  🗣️Eat my Shorts - Bart Simpson",10,0
1376051329034973192,"2021-03-28T05:59:37Z","🚀 Pluto Coin  Airdrop 🚀 Rate: ⭐⭐⭐⭐ ⭐ 🎁 Reward:  8822 PLUT ($1500) 👫 Referral: 40.5 PLUT  ($7)  🤖Start Bot here   https://t.co/x5JZchojO8  ⛂ Join Telegram group and channel. ⛂ Follow twitter &amp; retweet  ⛂ Submit ETH address and details.",6005,0
1376051329030746112,"2021-03-28T05:59:37Z","@Chlomirxm Matic and link because of the network effect. Matic is trying to solve scalability issue on eth and chain link is the mother of all oracles",1,0
1376051320705019906,"2021-03-28T05:59:35Z","$LINK PRICE $27.39 @ 0.015924 Eth (+1.26%) FULLY DILUTED MARKET CAP  $27,390,000,000.00 Max Total Supply: 1,000,000,000 LINK Holders: 465,624 ( 0.040%) Transfers: 7,913,312  Can 465,624 entities be wrong? https://t.co/EqR1wiHRJs",0,0
1376051317752274946,"2021-03-28T05:59:34Z","Limited Edition 1 of 1 NFTs will be dropped soon, DM for enquiries. #nft #cryptoart #nftart #nfts #ethereum #eth #minecraft #fortnite https://t.co/Ou8NKvHwhw",9,3
1376051309338583047,"2021-03-28T05:59:32Z","@yohanne56859746 @elonmusk @MMCrypto @TheMoonCarl @IvanOnTech @Bitboy_Cryplto Sorry i still have bit stock of crypto! #btc &amp; #eth ! Btw at bull run you must to sale 10-30% assets and stock in #usdt or $/€ ❤️",0,3
1376051309116198915,"2021-03-28T05:59:32Z","And he said they will be leaving Tigray. Next move?  Eritrean forces will dress up in Eth military outfit, &amp; will continue doing what they have been doing, occupying a large area of Tigray and over a million people at their mercy.",19,3
1376051302258651139,"2021-03-28T05:59:30Z","📈💶$1,001,450 $ETH LONGED @$1724.0 [28/03/21 05:59:30] 🏪FTX | ETH-PERP  🗣️Eat my Shorts - Bart Simpson",10,1
1376051293320531968,"2021-03-28T05:59:28Z","RT @scoinaldo: $BTC popping.  $ETH &amp; alts popping even harder.  If you know what I mean 😏",1371,1
1376051287305768973,"2021-03-28T05:59:27Z","@Million7111 @TheCryptoLark Heavy eth bags",0,0
1376051282952081414,"2021-03-28T05:59:26Z","RT @holdefi: At last but not least, It is Public Time 😎🥳  #HLD #DeFi #BSC #ETH #publicsale   https://t.co/12bHllXEx9",130,0
1376051269664653312,"2021-03-28T05:59:23Z","Among all coins in existence, only two (2) support smart contracts and are decentralized to more than 100 block producers; namely, $ETH and $AVAX. https://t.co/dzyro6FZWY",836,0
1376051265101258755,"2021-03-28T05:59:22Z","Bull market things Buy every dip and enjoy the bounce.  #ALTSEASON #altcoins #cryptocurrency #crypto $btc $eth $ltc #bitcoin #ethereum",1,0
1376051258369437697,"2021-03-28T05:59:20Z","Win up to $300 worth of #Ethereum tokens #ETH every hour. https://t.co/d7J8WaJtQe",0,0
1376051228199813122,"2021-03-28T05:59:13Z","🚨  6,294 #ETH (10,814,431 USD) transferred from #Binance to unknown wallet  https://t.co/MKluH6pLuk",93,9
1376051226744291329,"2021-03-28T05:59:12Z","RT @corruptedvodka: Is it just me but ETH DeFis seemed to be reversing?! 🤔 #ChooseYourPoison https://t.co/N5SD7TqrpG",1,9
1376051224848465923,"2021-03-28T05:59:12Z","Win Degenasaur #042 #NFT worth ETH! --&gt; https://t.co/l37pUrR6Y3   1.) RT this tweet   2.) Follow @degenasaurus  3.) Comment + tag 3 friends  OPTIONAL extra chance to Win! -&gt; 4.) Join discord post username twitter comp: https://t.co/Ewmuzju2wL  4.) Win randomly Sat 3rd April! https://t.co/eyLZUL4bFz",306,9
1376051220620537859,"2021-03-28T05:59:11Z","@JRNYcrypto #BSC is x20 #ETH , switched ??",0,0
1376051218628415488,"2021-03-28T05:59:10Z","Buy Horizon takes you to Binance, and @coinclarity clearly is talking about the $HZ not @horizenglobal listed on @BinanceUS - but the page is stuck Loading.. and the recommendation to buy BTC or ETH at Gemini is a good first step - they do keep Custody 4 Canadian ETF collateral https://t.co/tVy1ZlZzmH",0,0
1376051211225403392,"2021-03-28T05:59:09Z","@LayahHeilpern @van_eth In France it would be considered a sexual aggression. Punishable by law.",0,0
1376051207400255494,"2021-03-28T05:59:08Z","The DEX @FinanceChainge is set to launch on the @FUSIONProtocol network with over a million users on the protocols waitlist. This decentralized exchange aims to innovate on traditional models through leveraging the Fusion Network.  #BSC #BTC #ETH #BNB  https://t.co/xx55YiGfm3",21659,0
1376051201075126273,"2021-03-28T05:59:06Z","@NFTs_Group I   really  want   to   gat  an  airdrop ETH    wallet  0xe41D83C51474DC8571E9b51b9078b7846ccCB0d9",0,0
1376051191264681984,"2021-03-28T05:59:04Z","@AltcoinDailyio Hope ETH fix gas fee issue, otherwise I won’t use it",2,0
1376051187078852609,"2021-03-28T05:59:03Z","@NFTArghtee You can begin the 24h countdown on this with a 0.2 eth bid, all RT are appreciated https://t.co/nDXN88dF2Z",1,0
1376051173334122496,"2021-03-28T05:59:00Z","Guys I’ve worked all day with my video production team in Sydney Australia, creating a SAFEMOON promo video #safemoon #Repost #partagez #Ethereum #eth #ElonMusk #CryptoNews #safemoon #bibipom #Crypto #blockchain #Binance #Bitcoin #BinanceSmartChain #btc #ElonMusk #tacoToken https://t.co/2ZDJFpl5md",114,0
1376051160608600065,"2021-03-28T05:58:57Z","⚽ Crypto Fut Legends 🚨  CARLOS • LEGEND 077/100 • LVL 91  Is now minted on the #ETH blockchain in @opensea 🚀  PRICE:  Ξ0.050  TOTAL SUPPLY: 100  #nfts #nft #nftsport #nftfootball #sorare #footystock #NFTcollectibles #futcrypto  https://t.co/GkSO1kzC3i",1,0
1376051151158710274,"2021-03-28T05:58:54Z","The DEX @FinanceChainge is set to launch on the @FUSIONProtocol network with over a million users on the protocols waitlist. This decentralized exchange aims to innovate on traditional models through leveraging the Fusion Network.  #BSC #BTC #ETH #BNB  https://t.co/xx55YiGfm3",21659,0
1376051129033707523,"2021-03-28T05:58:49Z","🏆 Follow us &amp; Retweet this tweet, Specify the ETH address in the tweet comment to get 10 #BIT ($10 worth) or 50 #BIT ($50 worth) #BitScores Airdrop Tokens! 🎁 $250,000 Prize Pool Full rules: https://t.co/N53M5nRXr9  #giveaway #airdrops #bounty #giveaways #defi #eth #btc #airdrop https://t.co/m77hDtRsBv",3577,0
1376051126617874438,"2021-03-28T05:58:49Z","Bitcoin vs eth https://t.co/vQeXuNO4Xw",2,0
1376051119802159106,"2021-03-28T05:58:47Z","Limited Edition 1 of 1 NFTs will be dropped soon, DM for enquiries. #nft #cryptoart #nftart #nfts #ethereum #eth https://t.co/155mwLassU",5,0
1376051119735078913,"2021-03-28T05:58:47Z","RT @AltcoinDailyio: These are the 'good old days'. I’m telling you. $BTC $ETH",1358,0
1376051106569195520,"2021-03-28T05:58:44Z","⚽ Crypto Fut Legends 🚨  BUNDLE - With 4 cards the best football athletes in the world! ⚽️  Is now minted on the #ETH blockchain in @opensea 🚀  PRICE:  Ξ0.050  TOTAL SUPPLY: 100  #nfts #nft #nftsport #nftfootball #sorare #NFTcollectibles #futcrypto  https://t.co/xe5lZuR8Qc",2,0
1376051050294222851,"2021-03-28T05:58:30Z","RT @AltcoinDailyio: $BTC and $ETH are just babies. We are early. 👶",2021,0
1376051050155757568,"2021-03-28T05:58:30Z","Limited Edition 1 of 1 NFTs will be dropped soon, DM for enquiries. #nft #cryptoart #nftart #nfts #ethereum #eth https://t.co/4HLkNR8tAU",11,0
1376051048943480834,"2021-03-28T05:58:30Z","TOP 15 coins by @LunarCRUSH Galaxy Score  Galaxy Score is a proprietary score that is constantly measuring crypto against itself with respect to the community metrics pulled in from across the web  $UKT $BNB $REN $FSN $ICX $STORJ $KEY $MANA $NRG $CELR $ETH $CAKE $ALGO $TRX $OM https://t.co/BSHdwUQaI2",361,0
1376051038105395202,"2021-03-28T05:58:27Z","Join the @Holdefi community in HLD public sale!  #HLD #Holdefi #ETH #BSC #IDO #ICO 👇👇 https://t.co/Irw48DDUzh",0,0
1376051020246097923,"2021-03-28T05:58:23Z","@TheCryptoLark Its a joke not looking good, arrogance of being no.1 dangerous Miners fighting to keep high fees, greed before innovations &amp; progress is enemy of civilization $ETH fails add up others move forward Years head start on competitors is now pissed away History Rhymes #NETSCAPE #AOL",1,0
1376051019335966724,"2021-03-28T05:58:23Z","CRYPTO NEWS - SELLING ETH, Buying Hidden Gems https://t.co/tCHyiX7t4i via @YouTube",0,0
1376051018601955330,"2021-03-28T05:58:23Z","🔸 New Listing🔸   #BKEX will list #DRYCAKE @DryCakeSwap🚀 🚀  - Trading pair: DRYCAKE/USDT - Trading time: 20:00 on Mar 29 (UTC+8)  🔹 🔹 More details: https://t.co/kC2IIebfTT  #Bitcoin #ETH #BKK #Blockchain https://t.co/w8CHyKXaUD",2480,0
1376051015103905794,"2021-03-28T05:58:22Z","@eth_classic Etc 500$ soon",6,0
1376051005490556931,"2021-03-28T05:58:20Z","$KIN making some moves today!  https://t.co/MYkff6519H https://t.co/eIkW4dVLKk  #Kin #NFTs #DeFi #btc  #bitcoin #solana #bch #usd #xrp #eth #price #crypto #ltc #fintech #blockchain #buythedip https://t.co/Ve95GpwdiQ",20,7
1376051005289271296,"2021-03-28T05:58:20Z","sold my $eth",1,0
1376051003498323969,"2021-03-28T05:58:19Z","Hey, #NFTCommunity, I'm going to give away 1 #cryptofut that costs 0.030 ETH.  As soon as we reach 500 followers !!!  Rules:   1⃣ Follow us  2⃣ Retweet 3⃣ Tag 2 other NFT friends  New Crypto Futs Legends coming this weekend! ⚽️  #nft #NFTcollectibles #NFTGiveaway #nftcollectors",79,0
1376050977309069318,"2021-03-28T05:58:13Z","Claim free ETH every 30 mins  Unlimited 0.0007 ETH refferal bonus  0.1 minimum withdrawl https://t.co/ZwjU3cDVT7 1. Retweet + Like  #CTBot Adrop Ram 0.1 TRX 23",20,0
1376050973530013696,"2021-03-28T05:58:12Z","Ryan Meara bought for 0.33 ETH (564.85$) on the secondary market   Season: 2020-2021 Level: 3 Serial: 13/100 Price: 564.85$  ⚽ Sorare: https://t.co/B9d4Nbb5Hl  📊: https://t.co/DQUAT91mxD  #Sorare #NFT #Ethereum #FantasyFootball",1,0
1376050960452161536,"2021-03-28T05:58:09Z","🔄 Prices update in $USD (1 hour):  $BTC - 56215.9 $ (-0.06 %) $ETH - 1719.85 $ (+0.06 %) $DOT - 32.85 $   (-0.34 %) $ADA - 1.19 $    (-0.43 %)  #BTC #ETH #DOT #ADA #Crypto #Bitcoin",1,0
1376050954974334987,"2021-03-28T05:58:08Z","This  is success  campaign, don't miss #blockchain #cryptocurrency #defi #phore #ecommerce #marketplace #sharding #smartcontracts #crypto #bitcoin #ethereum #Graphene #Airdrop $BTC $ETH $GFN $PHR.",0,0
1376050954282352640,"2021-03-28T05:58:07Z","Giveaway Time!! We're giving away CryptoFreak #201, a Rocking Rockstar worth .2 ETH ($400), to enter:  - Follow @digirocksnft  - Retweet this post - Tag 2 friends  Winner will be chosen at 9PM EST on Sunday (03/28) #NFT #Giveaway #Cryptoart #cryptofreaks #digirocks https://t.co/68WpYRcql7",221,0
1376050946590015488,"2021-03-28T05:58:06Z","Claim free ETH every 30 mins  Unlimited 0.0007 ETH refferal bonus  0.1 minimum withdrawl https://t.co/ZwjU3cDVT7 1. Retweet + Like  #CTBot Adrop Ram 0.1 TRX 23",20,0
1376050944455143428,"2021-03-28T05:58:05Z","RT @adflondon: $ICX at $2.53! Are we now paying attention 👀  $BTC $ETH $LUNA $ATOM $DOT",151,0
1376050941829345282,"2021-03-28T05:58:04Z","The DEX @FinanceChainge is set to launch on the @FUSIONProtocol network with over a million users on the protocols waitlist. This decentralized exchange aims to innovate on traditional models through leveraging the Fusion Network.  #BSC #BTC #ETH #BNB  https://t.co/xx55YiGfm3",21659,0
1376050933285711878,"2021-03-28T05:58:02Z","Haha wow NFTs really good for mass adoption. $ETH https://t.co/bS4lg3Cnh5",0,0
1376050926612455425,"2021-03-28T05:58:01Z","Only few hours left until the wall street bets pump!  Join the pump: https://t.co/aDifNtakJc https://t.co/sDUzY5Gn4V  #Bitcoin #BTC #Crypto $Bitcoin #Bitcoin $ETH #ETH $Ethereum #Ethereum $BTC #BNB $BNB #Binance",0,0
1376050926449008644,"2021-03-28T05:58:01Z","New Airdrop: Diamond Crystal (DCT) Reward: 100 DCT ($100) Rate: ⭐️⭐️⭐️⭐️ Focus: Distribution starts after airdrop ends   Bot Airdrop Link: https://t.co/9Qzk47HUKt  #Airdrop #giveaway #BTC #ETH",4033,0
1376050922166480899,"2021-03-28T05:58:00Z","ETH 101: The purpose of Ether, the cryptocurrency, is to allow for the existence of a market for computation. Such a market provides an economic incentive for participants to verify/execute transaction requests and to provide computational resources to the network.",0,0
1376050916969771010,"2021-03-28T05:57:59Z","RT @holdefi: At last but not least, It is Public Time 😎🥳  #HLD #DeFi #BSC #ETH #publicsale   https://t.co/12bHllXEx9",130,0
1376050894035431426,"2021-03-28T05:57:53Z","Add @coinbureau to the list of heavy hitter crypto influencers who is starting to see the writing on the wall for #ethereum. $ETH is on life support. $ADA is coming of age. Where do you want to put your money? #cardano https://t.co/rGLXpAQyYg",188,0
1376050865958699008,"2021-03-28T05:57:46Z","We will see heights you would never believe. #safegalaxy https://t.co/kJu34lT022  https://t.co/yiZbsonlKY  $btc $eth $bnb $dft $pols $kit $cake $cap $isla $sushi $bund $pis $uni $dai $cgg $xrp $dot $bitt $ada $usf $link $pux $sota $cur $pteria $cgt $bcp $ankr https://t.co/8tIWlOr6ii",76,0
1376050857096151041,"2021-03-28T05:57:44Z","with all due respect to NekoZ  fooo thinks this is exactly  EXACTLY  the kind of tweet fooo is looking for prior to Eth ripping hard and melting everyones' face https://t.co/CqxG9a9YAO",161,0
1376050848913096708,"2021-03-28T05:57:42Z","New GIVEAWAY ! #Okcash $ok $BTC #ETH  “20” WINNERS 5 OK EACH. Valid until the next giveaway.  RULES:  1. Like and Retweet 2. Follow 3. Tag 3 friends 4. Post your Okcash address in answer to this tweet #Bitcoin  #Giveaway #cryptocurrency #Crypto #Sharing #EXCHANGE https://t.co/bpl7Ouy4oC",37,0
1376050834564259841,"2021-03-28T05:57:39Z","💰 Earn $50 in free BTC once you complete photo verification and trading milestones  🐰 Join OKEx with link 👉 https://t.co/BlAozkfRa6   #CTBot Adrop Ram 250 WIN 100 #freecrypto  #Okex #OKB #BTC #ETH #DeFi #Trading #Trader #cryptocurrency https://t.co/uHXSSneqFy",48,0
1376050808073170948,"2021-03-28T05:57:33Z","Claim free ETH every 30 mins  Unlimited 0.0007 ETH refferal bonus  0.1 minimum withdrawl https://t.co/ZwjU3cDVT7 1. Retweet + Like  #CTBot Adrop Ram 0.1 TRX 23",20,0
1376050788070346752,"2021-03-28T05:57:28Z","MANIFESTING THOSE SELLING VIBES!! @withFND and cryptofriends! Both available for biding. Reserve price: 0.2 ETH 🙀😳 Genesis piece: Door to Unknown https://t.co/M6S7UCo8wj Domesticated Wildness https://t.co/UyS8TwaHbM 🌿🐱🌿 #NFTs #NFTCommunity #NFTartists ✴️🔚🚶 https://t.co/WEJ2ellbUf",11,0
1376050739185733635,"2021-03-28T05:57:16Z","what cryptos would you recommend I check out beyond the usual suspects?  my favorites: $ETH $LINK $ANKR $PNK   on my radar: $ONE $MANA $GRT $STORJ",8,0
1376050734773329920,"2021-03-28T05:57:15Z","Just a reminder:  $ICX price is appreciating because it's one of the fundamentally strongest projects in the space. By the end of the year it will be the largest #AggregatorChain in the world and more.  ICON is still grossly undervalued  $BTC $ETH $ADA $DOT $ATOM $LTC $LUNA $LINK",102,0
1376050726716211203,"2021-03-28T05:57:13Z","Bahir Dar, Amhara Region, March 2021.   In what other region in #Ethiopia can you openly tote and purchase firearms? This type of brazen behavior is completely unimaginable in #Oromia and #Tigray.   Obviously, Amhara militia and fanno terrorist groups operate freely in #ETH. https://t.co/Zj0lMT5aqD",81,0
1376050699235074050,"2021-03-28T05:57:07Z","It's the dawn of a new #Vether day! 🌄 $ETH burned on previous day: 16.79 🔥 Implied value: $28.18 Number of participants: 16 💪",6,0
1376050693006532618,"2021-03-28T05:57:05Z","Join the @Holdefi community in HLD public sale!  #HLD #Holdefi #ETH #BSC #IDO #ICO 👇👇 https://t.co/lKSgAdF0re",0,0
1376050691018350593,"2021-03-28T05:57:05Z","Forex entering in Defi gonna be huge. One create &amp; exchange multi-currency stablecoins on @handle_fi Settle trades in your native currency, convert between non USD currency pairs, ETH, DAI and more... https://t.co/8RcJARr70l",1,0
1376050661263994881,"2021-03-28T05:56:58Z","Win and Share $50,000 in $DATA on #Binance  🎁 $25,000 in DATA for New Users  👉 Sign up with link: https://t.co/y1Is00yYBa  (Bonus! 10% Trading Fee discount.)  @CTBott Adrop Ram 500 TATM 100 #DATA #BinanceLiquidSwap #Binance #BNB #BUSD #cryptocurrency #Bitcoin #BTC #ETH #USDT https://t.co/J6D2IIzzjs",34,0
1376050649511555072,"2021-03-28T05:56:55Z","SIGN MY PETITION. DON'T MOVE THE SHIP. SAVE THE ENVIRONMENT.  https://t.co/0S1WNTWILh #smartcontracts #utilitytokens #CUT #ETH #crypto #sustainable",0,0
1376050646579736576,"2021-03-28T05:56:54Z","Welcome to massive Q DAO airdrop!   1. go now to telegram https://t.co/COyXgODY1z   2. Stay in telegram chat and wait announcement.  3. HOLD this gem until 10x   (soon - QDAO launch cross-chain for BSC, Polkadot and ETH)",4254,0
1376050633971744769,"2021-03-28T05:56:51Z","🚀 Top 10 coins by Galaxy Score™ as of 4:50PM UTC Sat, Mar 27, 2021 📊  $bnb #binancecoin $sha #safehaven $lina #linearfinance $algo #algorand $vet #VeChain $cake #pancakeswap $etc #ethereumclassic $celr #celernetwork $mitx #morpheuslabs $eth #ethereum   https://t.co/DQ4vBnPM0K https://t.co/pXFlIPqQiN",210,0
1376050619031650306,"2021-03-28T05:56:48Z","Top 4 GAMING altcoins set to explode in 2021  https://t.co/dhvWWTiaEW #ethereum #eth #altcoin #gaming #nft #nftart #nfts https://t.co/pvXi3TUUco",4,0
1376050612845023234,"2021-03-28T05:56:46Z","BUNNEH’s #NFT is a #MentalHealth initiative we created!  Please get involved!! All funds from #BUNNEHs #NFT are being used to fund Mental Health Therapy for a loved one! Contribute to a fantastic cause https://t.co/pDr0GrcdGn  All NFT starting 0.005 $ETH @coinkit_ mon 25 1000 BTC",171,0
1376050606515879937,"2021-03-28T05:56:45Z","🎉 3D MASKS GIVEAWAY 🎉  Value: 0.8+ ETH  Complete the following steps for the chance to win a 1/1 #3dmasks   ✅ Follow @3DMasks_  ✅ Like &amp; Retweet ✅ Comment + tag 3 NFT buddies  The winner will be announced 10AM EST April 6th  #NFTCommunity #nftart #nftgiveaway #nftcollectors https://t.co/NdyOwjzD5Q",331,0
1376050596822675456,"2021-03-28T05:56:42Z","RT @holdefi: At last but not least, It is Public Time 😎🥳  #HLD #DeFi #BSC #ETH #publicsale   https://t.co/12bHllXEx9",130,0
1376050594113290240,"2021-03-28T05:56:42Z","The DEX @FinanceChainge is set to launch on the @FUSIONProtocol network with over a million users on the protocols waitlist. This decentralized exchange aims to innovate on traditional models through leveraging the Fusion Network.  #BSC #BTC #ETH #BNB  https://t.co/xx55YiGfm3",21659,0
1376050586743885825,"2021-03-28T05:56:40Z","@TheCryptoArt CyberRexes is a set of 10.000 unique 1/1 Rexes. No more can ever be created. Price 0.01 ETH  You can mint yours at our website https://t.co/IOjL6qNx7K https://t.co/P5zfkx781G",3,0
1376050576878792707,"2021-03-28T05:56:37Z","RT @WolfKnight_: 🎉Giveaway 500$ ETH🎉 ✅Follow me  ✅Rt + Like ✅Tag 2 Friend ⏰Rolling in 1month 21.04/2021 https://t.co/eJAfncCx7v",420,0
1376050570537050114,"2021-03-28T05:56:36Z","RT @AltcoinDailyio: These are the 'good old days'. I’m telling you. $BTC $ETH",1358,0
1376050561645219840,"2021-03-28T05:56:34Z",".@VenusProtocol has the cheapest stable coin borrow rate on #BSC !!  All three are driving the TVL along with $BTC, $BNB &amp; $ETH.   Share this tweet guys, don't think everyone on #BSC is aware of this fact. Let's take the TVL to 10Billion 🚀🚀  $XVS $VAI $SXP @JLSwipe https://t.co/SykaFm9dZ0",78,0
1376050551314518018,"2021-03-28T05:56:31Z","#DeGate unique initial Social Media token offering:📣  To honor contributors to Crypto Assets on social media, DeGate offers an early opportunity to buy DG tokens at a preferential rate. 10 m DG tokens at $0.005  Start ➡️ March 29  https://t.co/5gPWIBwZea  #ETH #BTC #DeFi https://t.co/2qpuVZGJKm",1750,0
1376050538270187521,"2021-03-28T05:56:28Z","Only few hours left until the « today we push » Binance +1000% Push!  Join the push: https://t.co/M0oM8EQSj4 https://t.co/8N9zJnLZOh  #Bitcoin #BTC #Crypto $Bitcoin #Bitcoin $ETH #ETH $Ethereum #Ethereum $BTC #BNB $BNB #Binance",0,0
1376050520599756801,"2021-03-28T05:56:24Z","Giveaway Time!! We're giving away CryptoFreak #201, a Rocking Rockstar worth .2 ETH ($400), to enter:  - Follow @digirocksnft  - Retweet this post - Tag 2 friends  Winner will be chosen at 9PM EST on Sunday (03/28) #NFT #Giveaway #Cryptoart #cryptofreaks #digirocks https://t.co/68WpYRcql7",221,0
1376050518372581376,"2021-03-28T05:56:24Z","Did you know: GMNG token will be used for all transactions in the prize payout process or to purchase upcoming optional services (e.g., AI-powered predictions).   It enables the use of Smart Contracts, which are in turn crucial for platform security and transparency.   #eth #defi https://t.co/ANxC4ssFwg",87,0
1376050510256615424,"2021-03-28T05:56:22Z","@jamesonc18 Hi! I'm Terence The Spider, a new #NFTartist specializing in funny and thought provoking #nftart, #nftcomics, and #nftmusic. I currently have #NFTs ranging from 0.1 - 0.75 #ETH.  Appreciate you checking out my work!  https://t.co/D14VKiuS5K https://t.co/xGzZqWIvI5",0,0
1376050499040944128,"2021-03-28T05:56:19Z","So I made a group for short-term crypto signals, join up please - https://t.co/JCFVJ0Ptay Lets learn together  #crypto #cryptocurrency #Bitcoin  #BTC $BTC #ETH $ETH $ADA #alts #altcoin #Altcoins #HODL $Ankr #Binance #ALTSEASON #CryptoNews #Ethereum $XRP $BNB $DOGE $STORJ $OXT https://t.co/NqSz5QFuuX https://t.co/olQpcg9h18",1,0
1376050485434535939,"2021-03-28T05:56:16Z","Selling your $VEVE #VeVecollectibles #VeVecollectible at cheap prices or selling your $Omi $ECOMI #Ecomi #OMI at a couple cents is like this guy below who sold is $BTC #BitCoin for .30 cents.   $ETH #Ethereum $LTC $ADA #Cardano $MRX $XLM $BePro #NBATopShot #NBATopShots #TopShot https://t.co/ktVJREaf3Y",4,0
1376050452287131649,"2021-03-28T05:56:08Z","@CryptoCeleb_NFT CyberRexes is a set of 10.000 unique 1/1 Rexes. No more can ever be created. Price 0.01 ETH  You can mint yours at our website https://t.co/IOjL6qNx7K https://t.co/ecH3qX5UCe",0,0
1376050442287910912,"2021-03-28T05:56:05Z","🚀 Pluto Coin  Airdrop 🚀 Rate: ⭐⭐⭐⭐ ⭐ 🎁 Reward:  8822 PLUT ($1500) 👫 Referral: 40.5 PLUT  ($7)  🤖Start Bot here   https://t.co/x5JZchojO8  ⛂ Join Telegram group and channel. ⛂ Follow twitter &amp; retweet  ⛂ Submit ETH address and details.",6005,0
1376050431139414017,"2021-03-28T05:56:03Z","🚀City🚀 SOLD for 4.1 ETH on OpenSea! Great buy but they would have been better waiting for the @jurassicasylum drop  Check out the transaction: https://t.co/9CcdfErg66 #JurassicAsylum #NFT #NFTartist #cryptoart #NFTCommunity https://t.co/ZUv4NScJPN",0,0
1376050399925440513,"2021-03-28T05:55:55Z","Are you interested in the accumulation in the marked area? After this accumulation in binance, all tokens pump  there will also  #COS TOKEN burning $COS $COSTV probably will be pumped soon 👁️👁️ $DYOR  $BTC $ETH $BNB $DOT $ANKR $CHZ $MATIC $ONE $CELER https://t.co/LQl7BM35Me",10,2
1376050392425885697,"2021-03-28T05:55:53Z","#NFT twitter seems to be filled with bogus statements like I've got X ETH and looking to buy some NFTs. I want to try something else here.",3,0
