"ID","created_at","text","like_count","rt_count"
1376579904658157576,"2021-03-29T16:59:59Z","@NFTs_Group 0x833bFE73038026B24bf19eCffe12a6D4EC82b3fB  #NFTs #NFT #AIRDROP #ETH",1,0
1376579900623237129,"2021-03-29T16:59:58Z","The third batch of Big Birds have hatched and been placed up for sale 🥚  PRICE:  Ξ0.015  LINK: https://t.co/ykAEUHa69l  The first batches sold quickly, price floor raises at #100  #NFT #NFTS #crypto #cryptoart #nftart #nftdrop #nftcommunity #eth #pixelart   Minted via  @opensea https://t.co/vDaw374sPU",12,0
1376579899851472900,"2021-03-29T16:59:58Z","RT @cryptoallied: What’s your ETH address???  No questions, just drop it below 👇  #ETH #Ethereum #cryptocurrency #Crypto Make Sure to LIKE…",222,0
1376579898958041090,"2021-03-29T16:59:58Z","Exactly $UBXT is not YET 👈 The project that people talk about a lot!  But has all the fundamentals to be a successful project! 🔥🔥🔥#dyor   Take a position now before they do 😉    20x from this price entry easy 🤑  $ada $uni $coti $fet $luna $dag $orn $coti $eth $egld #btc https://t.co/u5MiCcVjjY https://t.co/H7UA4Ze2ll",4,0
1376579898374942722,"2021-03-29T16:59:58Z","RT @davidgokhshtein: So, Visa is settling payments in $USDC stablecoin on #Ethereum blockchain.   Again, on the #Ethereum blockchain.   $ET…",194,0
1376579895086653444,"2021-03-29T16:59:57Z","https://t.co/LZAXNfcnWN  #airdrop #bsc #bscgem #crypto #blockchain #cryptonews #bnb #binance #eth #btc #bounty  #altcoin #bitcoin   #CTBot Adrop Ram 100 DOGE 100",77,0
1376579892431745032,"2021-03-29T16:59:56Z","@HerzogSM @CSS_Zurich @ETH Congrats Stephen!  Looking forward to having you down the road!",1,0
1376579891118940160,"2021-03-29T16:59:56Z","RT @IamCryptoWolf: $ETH.  Look at the 4h iHS ! 🔥🔥🔥 https://t.co/bmRtyQkeor",181,0
1376579888400973827,"2021-03-29T16:59:55Z","Telos was never looking to kill anyone. However, we are still building bridges.  We are happy to see VISA working with $ETH because the Telos Ethereum Machine will still be very useful to many people.  $TLOS #DeFi #blockchain #cryptocurrency https://t.co/3ZdsbpeOdh",17,3
1376579886609928193,"2021-03-29T16:59:55Z","The layer-2 protocols can definitely extend ETH to an infinite degree, much faster and cheaper and scalable than L1.   C'mon ETH and DeGate the great guys!  #L2Meme @DeGateDex   Realized that I forgot to add Degate logo!! Hope this works! https://t.co/Pniv7o1iNw",5,3
1376579884575727624,"2021-03-29T16:59:54Z","Should of sold everything to long even more ETH",0,0
1376579880435994629,"2021-03-29T16:59:53Z","The thing I like about $matic is that it's a popular currency for #NFTs and other #cryptomarkets, so its likely to remain stable and mostly increase (like $Eth).",1,0
1376579879165116420,"2021-03-29T16:59:53Z","@altseason21 @RyanSAdams @xbtbabe 😂😂 love the dig, so true. Say what you will about eth it has a working product rn at least, despite needing a serious overhaul",6,0
1376579878867247108,"2021-03-29T16:59:53Z","Lets Break 80sat in single candle $SC  #SiacoinArmy #SIACOIN🚀🚀🚀  $btc $eth $bnb $ada $xlm $xrp $bake $cake $chz $enj $dot $ogn $uni $ltc $link $theta $egld $sand $vet $reef $sxp $matic $dock $ioxt $vite $perl $avax $chr $blz $Fil https://t.co/6uWMrCdALr",7,1
1376579875943940096,"2021-03-29T16:59:52Z","@MacroCRG $ETH is the currency of the new NFT art movement that’s blowing up, not to mention Visa is processing it for crypto payments. This is only the beginning for $ETH. https://t.co/q45qT4msY5",1,0
1376579873402056704,"2021-03-29T16:59:52Z","RT @TylerDurden: So @Visa are using the ETH blockchain to settle payments.  Looking forward to paying $3 for coffee + $900 gas fee and wait…",9326,0
1376579871636328464,"2021-03-29T16:59:51Z","@CryptoBethany Bnb buyers now moving to eth",1,0
1376579870847856645,"2021-03-29T16:59:51Z","RT @ki_young_ju: I smell crypto mass adoption here  $ETH",1537,0
1376579870457786371,"2021-03-29T16:59:51Z","$ETH - just a matter of time before it goes nuts and takes alts with it.  - Held key support = bullish  - Back above the Ichimoku cloud = bullish  - Forming higher lows = bullish https://t.co/31XuGGwNfr",457,0
1376579868801040386,"2021-03-29T16:59:50Z","$HBAR averaging 600000 txs per hour for last 5 hrs if they continue @ this rate by the end of fiscal day they'll have over 10 million txs $vet $btc $eth $xrp $trx $ada $dot $iot #vechain #hashgraph #bitcoin #cryptocurrency #ethereum #ripple  #cardano #polkadot #iota",15,1
1376579867429453827,"2021-03-29T16:59:50Z","@krugermacro It is the same, why it doesnt work to go to https://t.co/AQ6x4ivfAn and bet 0.1 ETH on a 50/50 chance and double down if you loose to make guarantee 0.1ETH win, because this might work with enough capital 10 times, but the often you play, the more likely it gets you loose all",1,0
1376579864271020034,"2021-03-29T16:59:49Z","https://t.co/EQXRAOoKcw  #airdrop #bsc #bscgem #crypto #blockchain #cryptonews #bnb #binance #eth #btc #bounty  #altcoin #bitcoin   #CTBot Adrop Ram 100 DOGE 100",71,0
1376579864208277504,"2021-03-29T16:59:49Z","Made a sale ♥️ so reinvesting that $ETH in another NFT. I'm in the market! Please share your NFT's with me. I'll also retweet. #support   #nftcollector #NFTshill #NFTCommunity #NFTs",324,0
1376579861012185088,"2021-03-29T16:59:49Z","This period of cryptocurrency history will look ridiculous in retrospect.  It should be beyond obvious by now that ETH is the true market leader, BTC just being a pale shadow of its former self.  ETH is destined to reach dominance on this trajectory, exposing BTC in the process.",440,0
1376579858386587657,"2021-03-29T16:59:48Z","RT @cryptoallied: What’s your ETH address???  No questions, just drop it below 👇  #ETH #Ethereum #cryptocurrency #Crypto Make Sure to LIKE…",222,0
1376579858264915969,"2021-03-29T16:59:48Z","Join the $POODL community!  https://t.co/vhftCSP6KB  The funniest and kindest community ever. Have some fun with us!  Our plans:  -Building a world wide community -Surpass $DOGE  $HOGE $DOGE $GRUMPY  #bitcoin #btc #money #price #blockchain #crypto #coinbase #usd #buying #eth #ada",90,0
1376579852309041153,"2021-03-29T16:59:47Z","What the fuck is going on with $HEX right now?  People are dumping their bags like crazy!  @RichardHeartWin @4Tendies @morrdreadd @THEAnnette #HEXicans @thehodldog $BTC $ETH #Bitcoin #Ethereum $UNI #Uniswap",0,0
1376579849586929669,"2021-03-29T16:59:46Z","📉💶$1,341,919 $ETH SHORTED @$1808.3 [29/03/21 16:59:46] 🏪FTX | ETH-PERP  🗣️I’ve made more money then you 100% guaranteed - Notsofast",2,0
1376579844201414660,"2021-03-29T16:59:45Z","RT @NFTFusion: What’s your ETH address?  No questions, just drop it below 👇 #NFT #NFTs",1953,0
1376579837171802115,"2021-03-29T16:59:43Z","RT @intocryptoverse: $ETH under $2k will be only a distant dream in a few years",2303,0
1376579836345380865,"2021-03-29T16:59:43Z","$ETH Just a matter of time...😏🤝 https://t.co/IuWIAmp6Nn",1,0
1376579836026703875,"2021-03-29T16:59:43Z","zkSync (@zksync) from @the_matter_labs is one of the biggest names in #ethereum L2 scaling solutions and they have been teasing a token for a while now. With the v2 mainnet set to go live later this year it might be worth depositing some #eth to v1 in case of an airdrop. https://t.co/xbm5CmjYTf",5,1
1376579833157783556,"2021-03-29T16:59:42Z","[SCAN RESULTS - 15m - #BTC PAIR]  Binance top 5 bullish strength 1: $DUSK 2: $WABI 3: $SKL 4: $FTT 5: $ETH  Binance top 5 bullish reversal strength 1: $XTZ 2: $ALGO 3: $YFI 4: $ATM 5: $BCH  All results on https://t.co/vMSA8RwQ1G website!",5,1
1376579827541676038,"2021-03-29T16:59:41Z","Visa Starts Settling Transactions in USD Coin On Ethereum - Payments giant Visa partnered with major crypto company https://t.co/mR8jKWKnpT in order to settle transactions in the second-largest steblecoin USD Coin (USDC) with Visa over Ethereum (ETH). https://t.co/2AFJQMKVCl",0,0
1376579826975444992,"2021-03-29T16:59:41Z","RT @TeddyCleps: ethereum wants to takeover the world and you know it.  $ETH https://t.co/1HTcDtQjWT",389,0
1376579824483975171,"2021-03-29T16:59:40Z","Pair : XAUUSD  Order Type :Sell  Stop Loss at :1717.00 Take Profit at : 1705.00  #forextrading #forex #trading #forexsignals #XAUUSD #GBPUSD #EURUSD #EURJPY #GBPJPY #Bitcoin #Binance #ETH #cryptocurrency",1,0
1376579820247650306,"2021-03-29T16:59:39Z","RT @cryptoallied: What’s your ETH address???  No questions, just drop it below 👇  #ETH #Ethereum #cryptocurrency #Crypto Make Sure to LIKE…",222,0
1376579819882881034,"2021-03-29T16:59:39Z","@intocryptoverse @iamDCinvestor See you tomorrow for $1700 ETH",0,0
1376579819018805251,"2021-03-29T16:59:39Z","Go, ETH/BTC, go!",1,0
1376579817294995456,"2021-03-29T16:59:38Z","Instead, it is looking like ETH will emerge as the p2p eCash. Not ETH itself, but the ERC-20 stablecoins on ETH. It will be interesting what is more valuable: BTC as the SoV, or ETH as the currency to pay fees for p2p payments.",20,0
1376579816003080198,"2021-03-29T16:59:38Z","🐣 RARE 🐣  A Big Bird has just hatched from the Nest Collection  link: https://t.co/VRutRwZH3r  #nft #nftart #nfts #crypto #cryptoart #eth #nftcommunity https://t.co/mNYC7lvCdq",20,0
1376579815118082054,"2021-03-29T16:59:38Z","By REMOVING the BARRIERS to entry and OPENING up CLOSED NETWORKS,   we have facilitated a   GLOBAL TRADING ECOSYSTEM that –  for the first time –   allows   DIGITAL ASSETS to flow, simply and seamlessly, AROUND THE WORLD  $QNT  $xrp $lin $btc $eth  https://t.co/vFHTPAJK6H https://t.co/XK4FvzBYrw",15,0
1376579813440421892,"2021-03-29T16:59:37Z","📢According to @coinmetrics, #TRON transactions count is much higher than #ETH, #XRP, #NEO, #ADA, #DASH.  👀On Mar 11th, the number reached 3.324391M!  🚀Reaching over 23M total accounts and 1.6B total transactions, TRON is the world’s fastest-growing public chain. https://t.co/xi8sEORaUx",2421,0
1376579808403058694,"2021-03-29T16:59:36Z","RT @CryptoGodJohn: So many bullish catalysts are lining up for $ETH  Not owning #Ethereum right now should be considered a crime.",280,0
1376579808239443972,"2021-03-29T16:59:36Z","@cryptorecruitr I’m a ADA fan, Eth is going to do well and so will ADA, it’s not a zero sum game",2,0
1376579801625067527,"2021-03-29T16:59:34Z","Why should journey of $HOT end up with TOP 10 of the market?  No mining No fee Instant transaction  #Holochain is not #blockchain. It has superior tech compared to $BTC $ETH $DOT.  Think outside the blocks! https://t.co/JLcOEb3xxX",599,0
1376579796143108096,"2021-03-29T16:59:33Z","Show mas go on. #ETH",0,0
1376579787871903744,"2021-03-29T16:59:31Z","There' an hour left on the countdown! ❤️ Currently standing at 2.5 ETH! (≧◡≦) ♡  (I feel a little bad for posting again but twitters memory is so short and I wanted to bring it back up one more time 💜)  #nft #cryptoart   https://t.co/bk4IP5xppR",120,0
1376579787477635077,"2021-03-29T16:59:31Z","@neurocolor @money_alotta @EclecticMethod @basileus_eth @cryptovoxels aaahhh i remember that day!",1,0
1376579787133702148,"2021-03-29T16:59:31Z","📢According to @coinmetrics, #TRON transactions count is much higher than #ETH, #XRP, #NEO, #ADA, #DASH.  👀On Mar 11th, the number reached 3.324391M!  🚀Reaching over 23M total accounts and 1.6B total transactions, TRON is the world’s fastest-growing public chain. https://t.co/xi8sEORaUx",2421,0
1376579785380540427,"2021-03-29T16:59:31Z","THANKS FOR THE EARNING 💥💥  FOLLOW @gem_insider   $arte $dcr $chow $celo $usdc $bta $ltc $pond $stx $rsr $got $ust $comp $zrx $omg $btmx $bu $zero $mars $drt $fsbt $nexo $rev $dent $vgx $chsb $exf $dexg $hoge $eth $atom $bnt $avax $crv $wbtc $edc $uma $algo $dot $btt $hnt $dft https://t.co/IvwEPArB8G",0,0
1376579784608653316,"2021-03-29T16:59:30Z","#CTBot Adrop Ram 100 DOGE 100  #airdrop #bsc #bscgem #crypto #blockchain #cryptonews #bnb #binance #eth #btc #bounty  #altcoin #bitcoin   https://t.co/1wkQLNY3h8",101,0
1376579780678651907,"2021-03-29T16:59:29Z","📢According to @coinmetrics, #TRON transactions count is much higher than #ETH, #XRP, #NEO, #ADA, #DASH.  👀On Mar 11th, the number reached 3.324391M!  🚀Reaching over 23M total accounts and 1.6B total transactions, TRON is the world’s fastest-growing public chain. https://t.co/xi8sEORaUx",2421,0
1376579776719298561,"2021-03-29T16:59:29Z","📢According to @coinmetrics, #TRON transactions count is much higher than #ETH, #XRP, #NEO, #ADA, #DASH.  👀On Mar 11th, the number reached 3.324391M!  🚀Reaching over 23M total accounts and 1.6B total transactions, TRON is the world’s fastest-growing public chain. https://t.co/xi8sEORaUx",2421,0
1376579776668909570,"2021-03-29T16:59:29Z","📢According to @coinmetrics, #TRON transactions count is much higher than #ETH, #XRP, #NEO, #ADA, #DASH.  👀On Mar 11th, the number reached 3.324391M!  🚀Reaching over 23M total accounts and 1.6B total transactions, TRON is the world’s fastest-growing public chain. https://t.co/xi8sEORaUx",2421,0
1376579775657992192,"2021-03-29T16:59:28Z","@M1ssNft @DevanSuresh3 gonna be an uphill battle. seeing lots of ETH flying all around me. and that's the key word... ME. many artists want to help or pay it forward... BUT DON'T. doesn't benefit them. its ALL about them. they weren't raised like me. I've done this since I was 6 years old.",2,1
1376579774689259520,"2021-03-29T16:59:28Z","Rome was not built in a day.  #SwipeSwap is not even a month old. Exchanges and AMMs take time to gather momentum. A lot of work is required behind the scene.  In time (Few months), I see $SXP &amp; #SwipeSwap leading the #DEX space on #ETH &amp; #BSC combined!  Patience will be rewarded",54,1
1376579762244608002,"2021-03-29T16:59:25Z","$ETH ladies and gentlemen, we got em  Long your longs szn activated https://t.co/DMoAOL7hcr",3,0
1376579749695348740,"2021-03-29T16:59:22Z","📢According to @coinmetrics, #TRON transactions count is much higher than #ETH, #XRP, #NEO, #ADA, #DASH.  👀On Mar 11th, the number reached 3.324391M!  🚀Reaching over 23M total accounts and 1.6B total transactions, TRON is the world’s fastest-growing public chain. https://t.co/xi8sEORaUx",2421,0
1376579745522016260,"2021-03-29T16:59:21Z","@Loopifyyy Eth and Ada confirmed moonbound",0,0
1376579744422973442,"2021-03-29T16:59:21Z","💧Roku Network Airdrop 💧  🏆 Task:          ➕  15 ROK (~$5)  👨‍👩‍👧 Referral:   ➕  3 ROK (~$1)  🔛  Airdrop Link &amp; Information: https://t.co/YhvsOcfEbH  #cryptocurrency #Crypto #Bitcoin  #BSC #BinanceSmartChain #Ethereum #ETH #Airdrop #bounty #ROK #RokuCoin #RokuNetwork",3811,0
1376579742946721797,"2021-03-29T16:59:20Z","Dear investors !   #tacoswap is on 🔥 $ 5 million staked !  It’s just the begining !  What are you waiting for to have your taco and join the adventure!  #tacotothemoon #tacotoken🌶 #defi #cryptocurrency #BinanceSmartChain #eth #btc #tacoswap @exeedme @poolz__ @bepronet",1172,0
1376579737716289537,"2021-03-29T16:59:19Z","Buy my #NFT for 23 #ETH I double dog dare you... (prob won’t even link my #Rarible but there’s prob a link tree in my bio that has the url but like whatever cya later 🐊)",4,0
1376579733907980288,"2021-03-29T16:59:18Z","$ETH building up some momentum vs USD and BTC. Should get to $2200 in the next few weeks.  #Ethereum https://t.co/AbPtGziHYY",3,0
1376579731743764483,"2021-03-29T16:59:18Z","RT @NFTFusion: What’s your ETH address?  No questions, just drop it below 👇 #NFT #NFTs",1953,0
1376579728627302411,"2021-03-29T16:59:17Z","@haydenzadams @kevinchan2020 @danrobinson @hosseeb Very cool, however wouldn't tracking the fees earned by every NFT LP position be easier? I think this would support multiple pools at multiple fee levels (aka you could have token X/ETH@1% fee, X/USDC@0.3% fee, etc and just pay liquidity in fees earned? Cc: @will__price",3,0
1376579720440057866,"2021-03-29T16:59:15Z","The funny thing is that eth maxis don’t understand how #bitcoin works BECAUSE THEY CAN CODE. 😂 😂 😂 it’s so funny and I seem to be the only one understanding this",2,0
1376579719433453569,"2021-03-29T16:59:15Z","#ADA   3 Days  +17 Gain  1.28 direct hits 🎯😎 Then came the correction movement.  I didn't buy it myself, I shared it to help you. My own trade coins are different  $BTC $ETH $ADA $XRP $DOT $BNB $LTC $LINK $XLM $DOGE $UNI $ATOM $TRX $XEM  $THETA $GRT $MKR $LUNA $NEO $ALGO $COMP https://t.co/8Kq4u1zkEZ https://t.co/rSb0ghT4nN",1,0
1376579718342926337,"2021-03-29T16:59:15Z","@mickalamasse1 @Exeedme @Poolz__ @bepronet Taco taco to the mooooooon 🌶🔥💪🏻#tacotothemoon #tacotoken🌶 #defi #cryptocurrency #BinanceSmartChain  #eth #btc  #tacoswap @exeedme @poolz__ @bepronet",55,0
1376579716954525696,"2021-03-29T16:59:14Z","RT @cryptoallied: What’s your ETH address???  No questions, just drop it below 👇  #ETH #Ethereum #cryptocurrency #Crypto Make Sure to LIKE…",222,0
1376579716782682114,"2021-03-29T16:59:14Z","@SalehAhmedd_ Seems that $BTC and $ETH are finally starting to move. They will pull eveything else",2,0
1376579714345746434,"2021-03-29T16:59:14Z","@helyearelyea @Daley_Kong I mean, they pretty much started saying they were on the cusp of switching over about 23 minutes after ETH launched. They're not exactly pulling out all the stops to make it happen.",1,0
1376579706338869250,"2021-03-29T16:59:12Z","RT @ki_young_ju: I smell crypto mass adoption here  $ETH https://t.co/AUOfaqAT3M",1537,0
1376579704526897153,"2021-03-29T16:59:11Z","$MBX ATH after ATH today and the fun didn't even start yet. 💥🚀🚀  Between now and the end of 31 March.  🛑 Staking 🛑 First Retailer Announcement 🛑 $ETH Bridge 🛑 Uniswap Listing  Keep an eye out for the #MobieMondays 👀 👀   Join the train before it becomes a rocket.  $VRA https://t.co/tngsJotiZJ",45,0
1376579700512948224,"2021-03-29T16:59:10Z","If $ETH gets a significant breakout at $2000 it will fly away and will left many people behind.  Shit talker and disbeliever will get clapped. 👏",4,1
1376579693600768001,"2021-03-29T16:59:09Z","$BLIA $GME: +1,625% Express $EXPR: +559% AMC $AMC: +525% New Concept Energy $GBR: +473% Blackberry $BB: +113% Bed Bath $BBBY: +99% Virgin Galactic $SPCE: +87% Ethereum $ETH: +86% Bitcoin $BTC: +20% S&amp;P 500 $SPY: -1% https://t.co/abBtItkBUz",0,0
1376579689968496649,"2021-03-29T16:59:08Z","➡️ 💸 Withdrawal for 10.69 ETH ($19,279.40) https://t.co/H7wL0twCZX",0,0
1376579689607790596,"2021-03-29T16:59:08Z","➡️ 💸 Withdrawal for 82.13 ETH ($148,132.91) https://t.co/H7wL0twCZX",0,0
1376579688047464457,"2021-03-29T16:59:07Z","RT @davidgokhshtein: Banks will use #Ethereum and Ripple to build.   But you already knew that.   $ETH $XRP",589,0
1376579687594524680,"2021-03-29T16:59:07Z","RT @avg_crypto_guy: https://t.co/P92D7Zv2H3  $POODL  $hoge $doge $grumpy $pika #crypto #eth #blockchain #cryptocurrencies https://t.co/5MpS…",37,0
1376579686290046982,"2021-03-29T16:59:07Z","📢According to @coinmetrics, #TRON transactions count is much higher than #ETH, #XRP, #NEO, #ADA, #DASH.  👀On Mar 11th, the number reached 3.324391M!  🚀Reaching over 23M total accounts and 1.6B total transactions, TRON is the world’s fastest-growing public chain. https://t.co/xi8sEORaUx",2421,0
1376579679319101443,"2021-03-29T16:59:05Z","https://t.co/6aUEzPsSEO  $btc $eth $xvg $ltc $etn $doge $xzc $pivx $bch $aeon #crypto #altcoins #cryptocurrencynews #pool get all you need from them",0,0
1376579676769030144,"2021-03-29T16:59:05Z","High bid is up to 1.2 ETH !!!!! Crypto Airships • #001-ACE-01 (Unique) collectible https://t.co/YQvMFLedwW? #rarible #ethereum #nonfungible #digitalasset #nft via @rariblecom  @m_barutcu_ #NFTs #NFTCommunity #nftcollector #NFTs",3,0
1376579676500602880,"2021-03-29T16:59:05Z","The DEX @FinanceChainge is set to launch on the @FUSIONProtocol network with over a million users on the protocols waitlist. This decentralized exchange aims to innovate on traditional models through leveraging the Fusion Network.  #BSC #BTC #ETH #BNB  https://t.co/xx55YiGfm3",21659,0
1376579669730885632,"2021-03-29T16:59:03Z","@TylerDurden @Visa all my homies hate $ETH",0,0
1376579668363579398,"2021-03-29T16:59:03Z","This guy had just up his bid for this @lindsaylohan NFT to $32,000 USD.  Tron gas fees are so cheap so it is 1/100th of the cost to create a NFT on TRC-721 protocol compare to ERC-721 protocol.  Cost to create NFT on #Tron = $0.25 gas fee Cost to create NFT on #ETH = $50 gas fee https://t.co/7P4iDvRgat",80,0
1376579657575845895,"2021-03-29T16:59:00Z","Why should journey of $HOT end up with TOP 10 of the market?  No mining No fee Instant transaction  #Holochain is not #blockchain. It has superior tech compared to $BTC $ETH $DOT.  Think outside the blocks! https://t.co/JLcOEb3xxX",599,0
1376579654182531075,"2021-03-29T16:58:59Z","@SEC_News @Santosjoaquim33 Why is the hinman and Clayton not being investigated by the @FBIWFO for conflict of interest they both had an interest in #eth and #bitcoin while working at the @SEC_News and both currently have an interest in those currencies based on where they have gone to work,it’s a disgrace",73,0
1376579653436022788,"2021-03-29T16:58:59Z","#DeGate unique initial Social Media token offering:📣  To honor contributors to Crypto Assets on social media, DeGate offers an early opportunity to buy DG tokens at a preferential rate. 10 m DG tokens at $0.005  Start ➡️ March 29  https://t.co/5gPWIBwZea  #ETH #BTC #DeFi https://t.co/2qpuVZGJKm",1751,0
1376579652802711552,"2021-03-29T16:58:59Z","@econoar High bid is up to 1.2 ETH !!!!! Crypto Airships • #001-ACE-01 (Unique) collectible https://t.co/YQvMFLedwW? #rarible #ethereum #nonfungible #digitalasset #nft via @rariblecom  @m_barutcu_ #NFTs #NFTCommunity #nftcollector #NFTs",3,0
1376579650856493058,"2021-03-29T16:58:59Z","RT @CryptoGodJohn: So many bullish catalysts are lining up for $ETH  Not owning #Ethereum right now should be considered a crime.",280,0
1376579650709766147,"2021-03-29T16:58:58Z","$VID #VideoCoin about to breakout!  Have you fastened your seat belts?  $1 incoming Let's goo 🚀🚀🚀  $btc $eth $dot $ada $storj #videocoin $vid $theta $fil  $LVP #btc #CloudComputing #aws #googlecloud #Azure #filecoin #cdn @storjproject #crypto #cryptonews #dCDN #transcode #mux https://t.co/P8GLd0W46L",45,0
1376579647694106626,"2021-03-29T16:58:58Z","RT @MacroCRG: Wow $ETH $1807   Buyers are insatiable",185,0
1376579645487804418,"2021-03-29T16:58:57Z","This Time for $1000 of $LINK GIVEAWAY!  TWO Winners Will Get Each $500.  To Enter: Follow/Like/RT and Tag 7 People.  $BTC $ETH $DOT $KSM $RSR $RUNE $HNT $NOIA $LINK $OCEAN $XTZ $ATOM $DCR $KAVA $GRT $REN $ZIL $TOMO $UNI $EGLD $ALPHA $DOGE $TWT $SFP $KMD https://t.co/Yv1opDdkrh",74,0
1376579643243855873,"2021-03-29T16:58:57Z","The DEX @FinanceChainge is set to launch on the @FUSIONProtocol network with over a million users on the protocols waitlist. This decentralized exchange aims to innovate on traditional models through leveraging the Fusion Network.  #BSC #BTC #ETH #BNB  https://t.co/xx55YiGfm3",21659,0
1376579639544590341,"2021-03-29T16:58:56Z","RT @NFTFusion: What’s your ETH address?  No questions, just drop it below 👇 #NFT #NFTs",1953,0
1376579638332436480,"2021-03-29T16:58:56Z","@ArtworkByMH High bid is up to 1.2 ETH !!!!! Crypto Airships • #001-ACE-01 (Unique) collectible https://t.co/YQvMFLedwW…? #rarible #ethereum #nonfungible #digitalasset #nft via  @rariblecom    @m_barutcu_  #NFTs #NFTCommunity #nftcollector #NFTs",2,0
1376579629868322816,"2021-03-29T16:58:54Z","RT @Chainlinkjunkie: Everyone hating on #Ethereum lately but what if this is the bottom for $eth $btc pair? 👀🤔 https://t.co/qrUBOtiNCd",67,0
1376579628815507457,"2021-03-29T16:58:53Z","#Ethereum $ETH TP1800 OUT  THANKS https://t.co/SxSIG8AfK8",0,0
1376579619529310218,"2021-03-29T16:58:51Z","$EGLD 2.0 is coming, which will push it above 250$  Now #EGLD = 143$  Target 1:250$ Target 2:500$ Target 3: 1000$  #btc #eth #xrp #usdt #bch #ltc #eos #bnb #bsv #ada #trx #leo #xmr #atom #link #neo",444,0
