"ID","created_at","text","like_count","rt_count"
1377372627472293889,"2021-03-31T21:29:59Z","@BarrySilbert I’d love to hear their reasoning. #BTC #ETH   #XRP #LINK",0,0
1377372620392308737,"2021-03-31T21:29:57Z","With $BTC being so incredibly high it will be a unssestanable crypto for all people to buy and sell. The price would only justify the demand and not a whole lot else. Leading the way for the main men $ETH and $DOGE to become the true peoples currency",0,0
1377372617464668161,"2021-03-31T21:29:57Z","Swipe Ignition is coming to #SwipeSwap next week on both #BSC AND #ETH chains.   50% off spot for a $4m allocation of our next IWO ⚡️  Purchased in $SXP only  🔥 Full sale goes towards $SXP burn.   Restrictions apply.  Void where prohibited  Details: April 5th Launch:  April 9th https://t.co/DhWKYCTN9v",1393,394
1377372612297375746,"2021-03-31T21:29:55Z","RT @CryptoLimbo_: I had a Dream 🌕 $BTC to 100K  $ETH to 5k $BNB to 500$ $KSM to 2000$ $RSR to $1 $LUNA to $100 $HTR to $10 $UTK to $10",1003,110
1377372602939887617,"2021-03-31T21:29:53Z","Our Knowledge test is back and better!  Missed our Knowledge test series? Or didn't notice we've been on a break? Oh no!  We are back, find out how 50USD $ETH can all be yours this week! https://t.co/mpQONTG8L8",35,26
1377372601513693184,"2021-03-31T21:29:53Z","@dahongfei Mintable Gasless is free. I do not know much about all of this but I have 3 #nft #gasless pieces of art I created without charge that are on sale. https://t.co/x0PzWYu2cq  $doge #doge $ada #cardano #btc $btc #eth $eth $link #link $dot #dot $vet #vet",3,0
1377372591455760384,"2021-03-31T21:29:50Z","Genuinely curious if Art Twitter is going to boycott Paypal now..??? This is exponentially more environmentally damaging than NFTs because not only is Ethereum supported, but so is Bitcoin, which has 4x the emissions of ETH. What alternative platforms can independent artists use? https://t.co/zek7xyXwqL",1602,473
1377372582987460609,"2021-03-31T21:29:48Z","Here's what you want #popo #BTCUSDT  #ETH https://t.co/ynaqtN90UN",0,0
1377372580127113218,"2021-03-31T21:29:48Z","Bitcoin flash crashes by $2K in 5 minutes, liquidating $600M in longs https://t.co/k4LJBEpRqw #GPTForum #MoneyMaking #PaidForumPosting #GetPaidToForum #btc #doge #dogecoin #ltc #litecoin #eth #ethereum #moon #dogearmy #dogetothemoon #dogeto1dollar #dogecoinrise #bitcoins #bitcoin https://t.co/CFJEWByt7D",1,0
1377372572501696513,"2021-03-31T21:29:46Z","I would absolutely fucking love it if the ETH/BTC intermediate bottom occurred precisely as maxis held a ‘party’ devoted to it breaking below 0.03",274,9
1377372571532886019,"2021-03-31T21:29:46Z","@CryptoTopBoys 👽ETh🛸 my fresh creation just dropped 👉👉https://t.co/axnaykLvVw https://t.co/UlyIpDJWfV",1,0
1377372571503484933,"2021-03-31T21:29:46Z","I love what I'm seeing right now..... $ETH https://t.co/xgvRlnfj4H",0,0
1377372571310514178,"2021-03-31T21:29:46Z","This fund is now closed and it did +92.11% (vs. $ETH) for investors: https://t.co/8hmzD1YTUL  Check all the open funds here: https://t.co/jFG60vbGpo  #uniswap $btc $ifund https://t.co/BGMhBlUuAk",26,11
1377372570618449920,"2021-03-31T21:29:45Z","📈🐶To celebrate April crypto bull month, we're hosting another giveaway for a Dogepunk valued at 3.5 ETH / ~$6,000!  To get the chance to win: 1. Follow us 2. Retweet this  3. Tag 3 friends in this tweet  We'll select the winner on Apr 5! #airdrop $doge #eth #btc #eth #giveaway https://t.co/ZvF7Bir16M",421,311
1377372559331753985,"2021-03-31T21:29:43Z","💧Fly Amanita Airdrop 💧  🏆 Task:          ➕ $5 worth of FLY  👨‍👩‍👧 Referral:   ➕ $0.5 worth of FLY  🔛Airdrop Link &amp; Information: https://t.co/Teh5tZDNPE  #cryptocurrency #Crypto #Bitcoin #Ethereum #ETH #Airdrop #bounty #FlyAmanita #FLY",1470,1811
1377372556399800322,"2021-03-31T21:29:42Z","📈🐶To celebrate April crypto bull month, we're hosting another giveaway for a Dogepunk valued at 3.5 ETH / ~$6,000!  To get the chance to win: 1. Follow us 2. Retweet this  3. Tag 3 friends in this tweet  We'll select the winner on Apr 5! #airdrop $doge #eth #btc #eth #giveaway https://t.co/ZvF7Bir16M",421,311
1377372552499056642,"2021-03-31T21:29:41Z","Let them $Eth cake https://t.co/AAFFwxcolE",3,0
1377372536166490113,"2021-03-31T21:29:37Z","💧Fly Amanita Airdrop 💧  🏆 Task:          ➕ $5 worth of FLY  👨‍👩‍👧 Referral:   ➕ $0.5 worth of FLY  🔛Airdrop Link &amp; Information: https://t.co/Teh5tZDNPE  #cryptocurrency #Crypto #Bitcoin #Ethereum #ETH #Airdrop #bounty #FlyAmanita #FLY",1470,1811
1377372534354538498,"2021-03-31T21:29:37Z","In recent weeks, $NKN liquidity on decentralized exchange @Uniswap has been improved. Both NKN/USDT and NKN/ETH pairs are active. (not financial advice) https://t.co/EI4r9JwQzc",45,8
1377372529057144833,"2021-03-31T21:29:35Z","The rumors are over, proof is on the website. Haters gonna Hate! #Shibaswap up next! #SHIBArmy attack! $shib @VitalikButerin @elonmusk #doge #Ethereum #dogecoin #eth #Crypto #ElonMusk #cryptocurrency #NFTs #nft https://t.co/C1qUUgBgKM @Shibtoken https://t.co/Xj8pAU3eF8",49,24
1377372527958360065,"2021-03-31T21:29:35Z","We love @superbid_io don't you! To prove it we're sharing 1/2 of the 10 ETH prize with ONE lucky person if we win!   ENTER: https://t.co/BvihIDYyyo  #Superbid is the first social-action app built on #ETH. ~ https://t.co/JrS8Kt08KI  #airdrop #contest #ethairdrop #giveaway #uniswap https://t.co/ocJmUFbBdp",503,1314
1377372514054115330,"2021-03-31T21:29:32Z","30 day EVIX: 96.7851 ETH/USD vwap: $1,942.22 04/16 expiry volume: $1,423,542.74 04/30 expiry volume: $5,963,012.40 Current time: 21:29:05",0,0
1377372512430907393,"2021-03-31T21:29:31Z","@5dayoldburrito @elliotrades @LynAldenContact To clarify, for btc I support perfect decentralization since it is literally store of value, and the entire value can be destroyed by centralized attacks. Eth is primarily a super computer running smart contracts.",0,0
1377372511319429125,"2021-03-31T21:29:31Z","@CryptoGodJohn Allright: $RAMP - Earn staking rewards - unlock liquidity from staked assets  - stack multiple yield streams at the same time - 100m mcap - buyback and burn program - ETH and BSC Pools - Huge partners and soon Chai*l*nk - rUSD stablecoin #DeFi #Binance #Ethereum #TVL #TVU #ramp",4,2
1377372511302676482,"2021-03-31T21:29:31Z","📌NITokens  Nothing in this #world is easy to get, the #solution is simply to stop talking and start doing it  🎬#action: https://t.co/9hEAHRDMCA  #CTBot Adrop Ram 1.2 TRX 34 #Crypto #cryptocurrency #CryptoNews #Bitcoin #ETH #TRX #LatokenApp #airdrop #freelancer #job #Viral https://t.co/1rzUV9Fhtm",33,33
1377372504994455553,"2021-03-31T21:29:30Z","Some of the entites that have nodes deployed on LACChain..   ✅ BNDES ✅ CitiBank ✅ Everis ✅ Inter American Development Bank ✅ Multiledgers  If you don't understand how big this $QNT partnership is.. I suggest you take the night to do some research on LACChain😏  $BTC $ETH https://t.co/nfVTe2a4Th",216,77
1377372504659013639,"2021-03-31T21:29:30Z","💧Fly Amanita Airdrop 💧  🏆 Task:          ➕ $5 worth of FLY  👨‍👩‍👧 Referral:   ➕ $0.5 worth of FLY  🔛Airdrop Link &amp; Information: https://t.co/Teh5tZDNPE  #cryptocurrency #Crypto #Bitcoin #Ethereum #ETH #Airdrop #bounty #FlyAmanita #FLY",1470,1811
1377372503597842434,"2021-03-31T21:29:29Z","Want to airdrop some NFTs into someones ETH address without paying $15 bucks in gas fees? Mint on $MATIC, send to $ETH addresses, NFTs live on $MATIC but show in their regular ETH address with a small M indicator.  :) $ZUZ @zUzProtocol https://t.co/FeDT7FcQ3n",92,24
1377372501316001794,"2021-03-31T21:29:29Z","💵 $1.2 Million &amp; Tesla Giveaway 🚘  $BASE Protocol &amp; #Tesla have pooled over $1.2M USD for a 24h Giveaway MARATHON 💵  ⭐️1 #Bitcoin airdropped every Hour &amp; ONE Winner of a CYBERTRUCK 🛻 ‼️‼️  👉 Comment $BTC address, Like &amp; Retweèt  (NEW TWEET DUE TO $BTC as Airdrop, not $ETH) https://t.co/hHl6k7MOYI",186,155
1377372500946939904,"2021-03-31T21:29:29Z","🚘 $1.2 Million &amp; Tesla Giveaway ‼️  $BASE Protocol &amp; @Tesla have pooled over $1.2M USD for a 24h Giveaway MARATHON.  32 $ETH Airdropped every hour for the next 24 hours‼️  ⭐️ The final draw: ONE WALLET WIN A #TESLA CYBERTRUCK 🛻🚀  👉 Comment Ethereum address, Follow &amp; RT! https://t.co/n1tHCrucKk",169,176
1377372497989955586,"2021-03-31T21:29:28Z","Swipe Ignition is coming to #SwipeSwap next week on both #BSC AND #ETH chains.   50% off spot for a $4m allocation of our next IWO ⚡️  Purchased in $SXP only  🔥 Full sale goes towards $SXP burn.   Restrictions apply.  Void where prohibited  Details: April 5th Launch:  April 9th https://t.co/DhWKYCTN9v",1393,394
1377372496761122817,"2021-03-31T21:29:28Z","RT @cz_binance: Alright, I have one more tweet people may not like as much, or like a lot. 👇  #BSC comes from #ETH and ...  😂",2045,308
1377372487114125312,"2021-03-31T21:29:25Z","@SmartContracter #ETH getting ready to run. #BTC near term top was in weeks ago and much more likely to the downside here",1,0
1377372485054734339,"2021-03-31T21:29:25Z","@TimmyChitwood @drdickspalding @GSigma10 I guess if you think $ETH is a shit coin?",1,0
1377372480558403587,"2021-03-31T21:29:24Z","Scientists didn’t were wrong, cryptomarkets are linked to substance abusers #LMAO 👀  #Bitcoin #ADA #LTC #ETH #XRP https://t.co/VlEdoQYSe6 https://t.co/qAgulNJHOg",0,0
1377372472731860993,"2021-03-31T21:29:22Z","RT @crypto_rand: $ETH wants moon. Be ready! 🔥",1151,78
1377372472509538304,"2021-03-31T21:29:22Z","Swipe Ignition is coming to #SwipeSwap next week on both #BSC AND #ETH chains.   50% off spot for a $4m allocation of our next IWO ⚡️  Purchased in $SXP only  🔥 Full sale goes towards $SXP burn.   Restrictions apply.  Void where prohibited  Details: April 5th Launch:  April 9th https://t.co/DhWKYCTN9v",1393,394
1377372471062450181,"2021-03-31T21:29:22Z","@__CaptainCrypto @UBIX_Network I've been using @officialmudrex for 3 months ago, and I would never switch because it's very effective. Thanks to this platform my manual trading process is automated.  #Traders #BTC #ETH #trading https://t.co/DLMCo3WKf4",0,0
1377372467509915652,"2021-03-31T21:29:21Z","@miss_aneleee And Eth on its way for a new ath... 🤔🤔🤨🤨",0,0
1377372466406776832,"2021-03-31T21:29:20Z","$ETH almost at $2000 when you could’ve bought at $1300 a month ago",7,1
1377372460815802371,"2021-03-31T21:29:19Z","I would absolutely fucking love it if the ETH/BTC intermediate bottom occurred precisely as maxis held a ‘party’ devoted to it breaking below 0.03",274,9
1377372443136946177,"2021-03-31T21:29:15Z","I hope (but doubt) Eth will be over $3,000-$4,000 by then  That would definitely benefit the 5 winners a lot  AND all of my other #Ethereum pumping my portfolio wouldn't make me mad  I LOVE GAINERS",130,16
1377372441735880705,"2021-03-31T21:29:15Z","You guys remember when I spoon fed you the bottom of $ETH, while everyone was screaming that the sky was falling?  Yeah... good times. https://t.co/DxXpagF6NI https://t.co/An5Vznohux",30,2
1377372435796922374,"2021-03-31T21:29:13Z","Sherlock (018) has SOLD! Thank you @CryptoKage! I know he’s off to join an excellent collection 🦄💕  #NFT #NFTs #ETH $ETH",2,0
1377372425621364736,"2021-03-31T21:29:11Z","Do you know a rock star #AssistantProfessor (or equivalent)? Then nominate them for the Materials Prize for Young Investigators.@ETH_Materials  @ETH_en  The #Award includes 10,000 USD and a special lecture! For more information please check it out here: https://t.co/wCIYiHBr7W https://t.co/FvJhNfWEZ8",52,18
1377372423431970824,"2021-03-31T21:29:10Z","RT @ShardiB2: You really think we are going to keep tapping $59k $BTC and $1850  $ETH and not blow throw them soon?",1162,70
1377372421682950144,"2021-03-31T21:29:10Z","RT @ShardiB2: You really think we are going to keep tapping $59k $BTC and $1850  $ETH and not blow throw them soon?",1162,70
1377372420827455488,"2021-03-31T21:29:10Z","$eth #eth in the process of a glorious breakout https://t.co/UHiWKPBT4o",1,0
1377372412514197505,"2021-03-31T21:29:08Z","$TRX is up 27% today.   What is going on @justinsuntron ?  What if the Tron Platform takes a big portion of the NFT market in the next 12 months because of the cheap gas fee to create on #TRON  rather than ETH.  Create NFT on Tron = $.50 gas fee Create NFT on ETH = $45 gas fee https://t.co/RhBPuDebam",391,92
1377372407413964803,"2021-03-31T21:29:06Z","RT @Budgiesnft: Yeah, sex is good, but have you ever blown $150 on gas 🤤  #nfts #eth #nftcommunity #ethereum",36,3
1377372403924369408,"2021-03-31T21:29:06Z","DCT TOKEN Airdrop Medium Star Claim 1 DCT ($ 100) + 0.045 DCT ($ 10) for each referral you make.   Steps  💎  Join channel and group  💎  Follow twitter, like and retweet pinned message   💎  Submit eth wallet address (ERC-20) Participate now Airdrop link: https://t.co/L24stp8tVI https://t.co/CVYQyLAWwU",8622,8871
1377372402410131456,"2021-03-31T21:29:05Z","Use ETH not METH 😂😂",1,0
1377372386438180865,"2021-03-31T21:29:01Z","$cov refuelling the engines nicely here this one is about to go waaaaaay higher 🚀🚀🚀🚀  #Bitcoin #etherium #cryptocurrency https://t.co/BZUGd0KfcC",13,1
1377372381807734785,"2021-03-31T21:29:00Z","RT @LearnCryptoUK: US Treasury’s Proposed Crypto Wallet Rule Is Unconstitutional, Warns Civil Rights Group https://t.co/uXJA07geSl By @BTCT…",2,1
1377372379714711552,"2021-03-31T21:29:00Z","RT @nutsfordonuts2: #eth gas fees are too high.",0,1
1377372370176892933,"2021-03-31T21:28:58Z","My genesis piece on @KnownOrigin_io   1 of 1 edition of Dreamcatcher  😱💀🤢  https://t.co/GoxTOCTgPW  #cryptoart #NFT #cryptoartist #ETH https://t.co/7NtlCAksZF",186,31
1377372367177936904,"2021-03-31T21:28:57Z","@LitecoinForever pt2 of 2. there are tons of leetist ETH wales that literally do not give a flying shit about everyone else using ETH getting screwed every day. That's the real reason I got out of ETH. they couldn't give 2 shits about the price of gas or the ingame currency value and systems.",0,0
1377372361633058818,"2021-03-31T21:28:56Z","#ETH breaking out of its consilidation. BOOM! https://t.co/rr5mgNuBWF",2,1
1377372361356238852,"2021-03-31T21:28:55Z","Don't sleep on $TROP 😀 #NFT #ETH #BTC #ALTSEASON https://t.co/ICDeQB9wYH",2,0
1377372352707579905,"2021-03-31T21:28:53Z","Swipe Ignition is coming to #SwipeSwap next week on both #BSC AND #ETH chains.   50% off spot for a $4m allocation of our next IWO ⚡️  Purchased in $SXP only  🔥 Full sale goes towards $SXP burn.   Restrictions apply.  Void where prohibited  Details: April 5th Launch:  April 9th https://t.co/DhWKYCTN9v",1393,394
1377372345015230466,"2021-03-31T21:28:52Z","Ethereum $ETH on CoinSpot currently $AU2520.25 ($AU2520.25 buy /  $AU2540 sell). #spon https://t.co/ZnKhnJfXb4",0,0
1377372336467312645,"2021-03-31T21:28:50Z","@CryptoPicsou $ETH 20k$",2,0
1377372333912952834,"2021-03-31T21:28:49Z","!!! @katecursed @kvollstaedt collab! two of my favorite NFT artists together at last! I'm going to try to get my ETH up and buy this before it's too late!  https://t.co/aLzjaMG6et #NFT #cryptoart https://t.co/huCSPFFoED",15,3
1377372326522675203,"2021-03-31T21:28:47Z","Swipe Ignition is coming to #SwipeSwap next week on both #BSC AND #ETH chains.   50% off spot for a $4m allocation of our next IWO ⚡️  Purchased in $SXP only  🔥 Full sale goes towards $SXP burn.   Restrictions apply.  Void where prohibited  Details: April 5th Launch:  April 9th https://t.co/DhWKYCTN9v",1393,394
1377372325583069186,"2021-03-31T21:28:47Z","DCT TOKEN Airdrop Medium Star Claim 1 DCT ($ 100) + 0.045 DCT ($ 10) for each referral you make.   Steps  💎  Join channel and group  💎  Follow twitter, like and retweet pinned message   💎  Submit eth wallet address (ERC-20) Participate now Airdrop link: https://t.co/L24stp8tVI https://t.co/CVYQyLAWwU",8622,8871
1377372322420588546,"2021-03-31T21:28:46Z","0.033 ETH/BTC! #KeepGoing",0,0
1377372311586623496,"2021-03-31T21:28:44Z","In recent weeks, $NKN liquidity on decentralized exchange @Uniswap has been improved. Both NKN/USDT and NKN/ETH pairs are active. (not financial advice) https://t.co/EI4r9JwQzc",45,8
1377372310525542400,"2021-03-31T21:28:43Z","@NFTurtle ETh my fresh creation just dropped https://t.co/axnaykLvVw https://t.co/DVmJiSEtb1",1,0
1377372307514007552,"2021-03-31T21:28:43Z","The $eth network is literally so slow right now that even if I pump gas up to 300 tx's aren't even going through.  This is completely pricing soo many people out of minting/buying #nfts  Thank God for @PhantasmaChain and $soul's @ghostmarketio that costs like $1 per tx!! $kcal",27,12
1377372302564724739,"2021-03-31T21:28:41Z","@PatrickAlphaC Is it called zero knowledge because none of the eth maxis know what’s coming?",0,0
1377372295107276801,"2021-03-31T21:28:40Z","💵 $1.2 Million &amp; Tesla Giveaway 🚘  $BASE Protocol &amp; #Tesla have pooled over $1.2M USD for a 24h Giveaway MARATHON 💵  ⭐️1 #Bitcoin airdropped every Hour &amp; ONE Winner of a CYBERTRUCK 🛻 ‼️‼️  👉 Comment $BTC address, Like &amp; Retweèt  (NEW TWEET DUE TO $BTC as Airdrop, not $ETH) https://t.co/hHl6k7MOYI",186,155
1377372290606714884,"2021-03-31T21:28:39Z","$eth the first run of 2021",0,0
1377372283132514307,"2021-03-31T21:28:37Z","This is just the beginning. So pack your bag $KICK is ready to fly 🚀🚀🚀  #BTC #ETH #LTC #BNB #HIVE #ADA #JUILD #GEMS #DOGE https://t.co/0tDPMctZV0",17,4
1377372278162214917,"2021-03-31T21:28:36Z","🔶 BetFury Airdrop 🔶 🔸🚰 Claim Free $BTC $ETH $BNB every 20 min.🔸  🚦 Join: https://t.co/2VXxFsrJA8  🌐 Login your $TRX , $ETH &amp; $BSC Wallet! 🌐 Deposits/Withdrawals 🌐 Playing any games! 🌐 Mining $BFG ( $TRX &amp; $BTC ) 🌐 Staking payouts  #BFG @CTBott Adrop Avg 100 SPKL 50",17,17
1377372277474357249,"2021-03-31T21:28:35Z","RT @iamDCinvestor: $ETH is consolihating  don't be a dater",143,7
1377372276287414276,"2021-03-31T21:28:35Z","📈🐶To celebrate April crypto bull month, we're hosting another giveaway for a Dogepunk valued at 3.5 ETH / ~$6,000!  To get the chance to win: 1. Follow us 2. Retweet this  3. Tag 3 friends in this tweet  We'll select the winner on Apr 5! #airdrop $doge #eth #btc #eth #giveaway https://t.co/ZvF7Bir16M",421,311
1377372273867378689,"2021-03-31T21:28:35Z","The Ribbits project consists of 1,000 frog NFTs that are initially claimable for 0.1 ETH each and can then be traded on NFT marketplaces like https://t.co/mJ36b3MVRk. There is also an awesome mechanism built into the website to wrap each NFT into an ERC-20 token.  👇",1,0
1377372272093110275,"2021-03-31T21:28:34Z","Alright someone pulled a Bitcoin Dragon out of his @Polkamonorg booster pack and there are already offers as high as 75 ETH for it.  Turning a 30$ $PMON token to a 140,000$ Polkamon.  The hype is real.  https://t.co/OaKeBMatOB",864,199
1377372271833088001,"2021-03-31T21:28:34Z","@frogefinance1 @WhiteBit6 Absolutely awesome news glad to be on this so early!! $froge $doge $hoge $eth",10,2
1377372269698150402,"2021-03-31T21:28:34Z","$NEO #NEO #NEO3 #NeoN3 #GAS #FLM 🦩  💚NEO💚🚀🚀🚀  Neo launches N3 amid high Ethereum gas fees · TechNode https://t.co/2VpZN4366R  #BTC #ETH #ADA #TRX #Binance #cryptocurrency #BTT #BNB",13,6
1377372266745393155,"2021-03-31T21:28:33Z","💧Fly Amanita Airdrop 💧  🏆 Task:          ➕ $5 worth of FLY  👨‍👩‍👧 Referral:   ➕ $0.5 worth of FLY  🔛Airdrop Link &amp; Information: https://t.co/Teh5tZDNPE  #cryptocurrency #Crypto #Bitcoin #Ethereum #ETH #Airdrop #bounty #FlyAmanita #FLY",1470,1811
1377372265868713988,"2021-03-31T21:28:33Z","💧Fly Amanita Airdrop 💧  🏆 Task:          ➕ $5 worth of FLY  👨‍👩‍👧 Referral:   ➕ $0.5 worth of FLY  🔛Airdrop Link &amp; Information: https://t.co/Teh5tZDNPE  #cryptocurrency #Crypto #Bitcoin #Ethereum #ETH #Airdrop #bounty #FlyAmanita #FLY",1470,1811
1377372265466142720,"2021-03-31T21:28:33Z","Looking forward to this @ChemPhysChem/@ChemSystemsChem symposium with talks by Markus Reiher (@ETH_en), @theo_chem &amp; @theochemmerida (Moderator: Wolfram Koch @GDCh_aktuell) #compchem @ChemEurope   Thursday, April 22, 2021 at 4 pm (CEST) Free registration: https://t.co/u4VCWE9oyg https://t.co/3DTdgTPMo1",12,8
1377372263624835076,"2021-03-31T21:28:32Z","$ETH to $3,000 in April?   The last big run from #Ethereum was back in late December/early January.  It seems due for another one.   A daily close above $1,870 to confirm the breakout. https://t.co/7YUAsuYLpT",298,25
1377372258868424705,"2021-03-31T21:28:31Z","RT @JJcycles: This literally sums up the way the markets work.  $ETH / $BTC https://t.co/MTa0oIR3bV",155,10
1377372258797121536,"2021-03-31T21:28:31Z","HAWT. With my partnership with @illuviumio I can give away 100 HOLOGRAPHIC Scoot Scarabok NFTs.  Similar ones have gone for 5 eth to 50 eth.  How to get -Post your ETH address + BATTLE SCOOT! below -Retweet/tag a friend -Follow @illuviumio and join their discord in bio https://t.co/xcCVVW6KdR",2755,2661
1377372256406409220,"2021-03-31T21:28:30Z","Should’ve bought more $eth when it was 1600 dammit",1,0
1377372251884937220,"2021-03-31T21:28:29Z","🐳 Large Order Detected 🐳    🏪 Market: ETH/USDC 🔹 Position Size: -65.95 ETH 💱 Entry Price: 1918.93 USDC  💵 Notional Value: $127319.68 📅 Time: 2021-03-31 21:27:30 🔗 Link: https://t.co/IBMUqN2iNJ",0,0
1377372249989124101,"2021-03-31T21:28:29Z","🐳 Large Order Detected 🐳    🏪 Market: ETH/USDC 🔹 Position Size: 51.68 ETH 💱 Entry Price: 1937.02 USDC  💵 Notional Value: $99632.52 📅 Time: 2021-03-31 21:27:35 🔗 Link: https://t.co/kj9bMrZfnG",0,0
1377372242787540993,"2021-03-31T21:28:27Z","🚘 $1.2 Million &amp; Tesla Giveaway ‼️  $BASE Protocol &amp; @Tesla have pooled over $1.2M USD for a 24h Giveaway MARATHON.  32 $ETH Airdropped every hour for the next 24 hours‼️  ⭐️ The final draw: ONE WALLET WIN A #TESLA CYBERTRUCK 🛻🚀  👉 Comment Ethereum address, Follow &amp; RT! https://t.co/n1tHCrucKk",169,176
1377372241675972609,"2021-03-31T21:28:27Z","Swipe Ignition is coming to #SwipeSwap next week on both #BSC AND #ETH chains.   50% off spot for a $4m allocation of our next IWO ⚡️  Purchased in $SXP only  🔥 Full sale goes towards $SXP burn.   Restrictions apply.  Void where prohibited  Details: April 5th Launch:  April 9th https://t.co/DhWKYCTN9v",1393,394
1377372234315034625,"2021-03-31T21:28:25Z","We love @superbid_io don't you! To prove it we're sharing 1/2 of the 10 ETH prize with ONE lucky person if we win!   ENTER: https://t.co/BvihIDYyyo  #Superbid is the first social-action app built on #ETH. ~ https://t.co/JrS8Kt08KI  #airdrop #contest #ethairdrop #giveaway #uniswap https://t.co/ocJmUFbBdp",503,1314
1377372229227311105,"2021-03-31T21:28:24Z","HE HAS RISEN.  ITS ETHster WEEKEND EVERYONE  $eth #ETH #etherium #ethbtc. #ETHUSD",1,0
1377372224261222401,"2021-03-31T21:28:23Z","March... GameStop $GME: +87% Ethereum $ETH: +34% Bitcoin $BTC: +30% AMC $AMC: +27% Dow $DIA: +7% S&amp;P 500 $SPY: +4.5% Nasdaq 100: +1.7% Gold $GLD: -1% Bonds $AGG: -1% 20+ Treasuries $TLT: -5% ARK Innovation $ARKK: -8% SPACs $SPAK: -12% ViacomCBS $VIAC: -30% Volatility $VIX: -31%",1363,286
1377372222285746176,"2021-03-31T21:28:22Z","Want to airdrop some NFTs into someones ETH address without paying $15 bucks in gas fees? Mint on $MATIC, send to $ETH addresses, NFTs live on $MATIC but show in their regular ETH address with a small M indicator.  :) $ZUZ @zUzProtocol https://t.co/FeDT7FcQ3n",92,24
1377372216543772674,"2021-03-31T21:28:21Z","Get me a daily close above 1933 and it's GO TIME $ETH https://t.co/Bc1xPaxzzm",12,0
1377372213200842752,"2021-03-31T21:28:20Z","@travislambirth Dollars and yuan disappear, bitcoin and etherium remain.",2,0
1377372212462710784,"2021-03-31T21:28:20Z","RT @QuintenFrancois: $ETH to $2500 in April or I'm giving away 0.3 $ETH to someone who retweets this.",4150,6184
1377372210084470784,"2021-03-31T21:28:19Z","@CryptOrca $SOL is basically ETH with the transaction speed of XRP.",3,0
1377372209052721153,"2021-03-31T21:28:19Z","#EthereumBreakout Party 8pm EST!🚀🌙  Follow our team @BernardBaruch @schumpeter15 @aripaul5 @JuanPaDulanto @BlubberProducer @Charlie42551326 @intuitpiano @Laozi27218018   Join and learn about #DeFi #NFTs #Blockchain #DApps  #Ethereum $ETH $ETHE #Ether👇  https://t.co/ZJEO4TIkRl https://t.co/xLcXwF5k6V https://t.co/SkMM0DO8A0",6,3
