"ID","created_at","text","like_count","rt_count"
1374805712837152772,"2021-03-24T19:29:59Z","$SKL continues to hold on to the support. $btc.d is one of the first coins to rise if it loosens down.  #binance #bitcoin  #btc #eth #Crypto #xrp #doge $doge $xrp $btc $eth $atom $dot $algo $sxp $bnb https://t.co/jJpqDOYljJ",8,2
1374805711750713344,"2021-03-24T19:29:58Z","Hey Guys, If you looking a strong project then ypu can check #phore project.   website: https://t.co/z420cFSVnC  A great project with a very cool idea! I believe this project has a bright future and I am happy to  part of this great project.   #defi #phore $BTC $ETH $GFN $PHR.",0,0
1374805705622978560,"2021-03-24T19:29:57Z","📉💶$2,247,759 $ETH SHORTED @$1655.0 [24/03/21 19:29:56] 🏪FTX | ETH-PERP  🗣️He put his peep in an electrical socket. You can’t do that. - JD Scrubs",0,0
1374805698970677248,"2021-03-24T19:29:55Z","Member of 「Re-NFT Shards Protocol」 Artist: @sundachun  Titl: [Hair Garden]   How much ETH u will pay for her HAIR !!!!!  #nftart  #art #artsy #NFT #NFTs #artwork   「Re-NFT Shards Protocol」,there are so many #NFTart creators, #NFTart  lovers gathered. https://t.co/e6Csey6ae4",18,8
1374805698396225543,"2021-03-24T19:29:55Z","MAJOR UPDATES:  🔥Elastic Vault: Overview on how the vault will help you hedge negative $AMPL rebases  🎁Airdrop: Airdrop to $kMPL Token Holders  💰Pioneer Fund III: Rewards for kMPL/ETH Liquidity Providers  ⚡️ Zeus and Apollo NFTs: NFTs to Apollo and Zeus kGeyser stakers",25,5
1374805697129512967,"2021-03-24T19:29:55Z","Franco Armani bought for 0.37 ETH (616.13$) on the secondary market   Season: 2020-2021 Level: 0 Serial: 47/100 Price: 616.13$  ⚽ Sorare: https://t.co/f0lhhuiANi  📊: https://t.co/xVIAIFLcYx  #Sorare #NFT #Ethereum #FantasyFootball",0,0
1374805692876472333,"2021-03-24T19:29:54Z","@Casper101Susie @souljaboy Yeah I buy too. You have too, I have a project coming and I got everything ,I’m on all social media platforms I got  .ZIL . Eth . Crypto and anything else related I got it and I’m waiting for clearance from lawyer.",1,0
1374805688170508295,"2021-03-24T19:29:53Z","The Pickers family now counts over 25k players🎉  To celebrate this milestone, we are giving away $50 of ETH and 3 exclusive #NFTs  How to join? ► Follow @CryptoPickHQ ► Like &amp; Retweet ► Tag 2 friends ► Comment your CryptoPick username below  🎁8 winners -⌛️Ends in 48H https://t.co/ItWwew1yv2",282,218
1374805681421783040,"2021-03-24T19:29:51Z","Here Comes The Night available now on @SuperRare !  @KiboDesigns x @NicMaxJim 🔥   Enlightened Legacy Contact  Transcending The Other Side  Reserve: 1.5 ETH  https://t.co/br0qOIjvMg  #NFTs #NFT #NFTCommunity #NFTartist #cryptoart https://t.co/RQsAtd9JFE",95,22
1374805680075460617,"2021-03-24T19:29:51Z","Second Ethermon dropping in 30 minutes at 9 PM CET!  Ethermon 03 Netherpuff is so fast it can hardly be caught, luckily for you we managed to catch some.   16 available going for 0.03 ETH!  Catch yours at: https://t.co/A65sPsUbDj https://t.co/KP02bDbXQj",4,1
1374805676539613184,"2021-03-24T19:29:50Z","@soniaacalahorra @krakenfx @danheld @AshBennington Damn, what's that + 12 eth",0,0
1374805675604377601,"2021-03-24T19:29:50Z","@etherium_winds theres a pitch competition for an animation festival we’re all attending virtually and saying entirely without bias that holly eimear and tinos pitches were better than the one that won 🤡",3,0
1374805671271559168,"2021-03-24T19:29:49Z","Member of 「Re-NFT Shards Protocol」 Artist: @sundachun  Titl: [Hair Garden]   How much ETH u will pay for her HAIR !!!!!  #NFTCommunity  #nftcollector #Ethereum  #NFT #ArthurExpulso   「Re-NFT Shards Protocol」,there are so many #NFTart creators, #NFTart  lovers gathered. https://t.co/OP3S6PwB69",34,18
1374805670885781512,"2021-03-24T19:29:49Z","RT @ErmiasK91904883: Adewa is the best thing for  ETH iopian people  and  we are  happy when we selbret the next year",1,1
1374805668109111296,"2021-03-24T19:29:48Z","@OKExInsights @Tesla attention attention There is nothing left until the end of March and soon the big and good news of Bitcoin Gold #BTG will be published and the flight to the moon will start. #BTG #BTC #ETH #USDT #DOT #ADA #XRP #BNB #DOGE #TRX https://t.co/I7Gcuj4qJf",0,0
1374805668054638599,"2021-03-24T19:29:48Z","The first 111 @kevinabosch auctions have finished and the numbers are in 👇   2.1 ETH average price, with 54 unique owners!  The remaining auctions will start over the next few days, so check out this guest post for sale details and background info: https://t.co/3mUUqgeQ5i https://t.co/oq5QCmgOtt",94,18
1374805665168826369,"2021-03-24T19:29:47Z","I would recommend keeping #GNBU #defi in your investment portfolio #binance #coinmarketcap #forex #giveaway #BNB #Bitcoin #DeFi #ETH, #TRON #BTC #binance #coinmarketcap #forex #giveaway #BNB https://t.co/ghRj965bVt",0,0
1374805664665636869,"2021-03-24T19:29:47Z","Ethereum derivatives lean bullish even as ETH price sits at a key support  https://t.co/cQoO3QDDTM",0,0
1374805659888287748,"2021-03-24T19:29:46Z","The time for $drgn has come, stop sleeping on this beast!  Patents, millions of tx’s, adoption, LFG!  $btc, $icx, $eth, #btc, #eth, #drgn, #icx @HuwhyteBoy @graphitezor @BinanceUS @Gemini @BES6935 @tomasico82 @XaidinCrypto @647_6733 @treyrutledge3 @CloudFaceUSA @j0j0r0 @elonmusk https://t.co/j8WDNxBkj5",66,39
1374805643538878467,"2021-03-24T19:29:42Z","@OKExInsights @Tesla attention attention There is nothing left until the end of March and soon the big and good news of Bitcoin Gold #BTG will be published and the flight to the moon will start. #BTG #BTC #ETH #USDT #DOT #ADA #XRP #BNB #DOGE #TRX https://t.co/9Nh4Zcqe3E",0,0
1374805632449081344,"2021-03-24T19:29:40Z","Member of 「Re-NFT Shards Protocol」 Artist: @sundachun  Titl: [Hair Garden]   How much ETH u will pay for her HAIR !!!!!  #NFTCommunity  #nftcollector #Ethereum  #NFT #ArthurExpulso   「Re-NFT Shards Protocol」,there are so many #NFTart creators, #NFTart  lovers gathered. https://t.co/f3a6VstAlM",155,100
1374805619501334529,"2021-03-24T19:29:36Z","@greg16676935420 I used to be an ETH maxi but damn this is funny.",1,0
1374805618456895490,"2021-03-24T19:29:36Z","NFT artists should pay attention to price action in BTC and ETH markets as it will impact sales and momentum. better to do a drop when the market is healthy and traders are happy than when the market is uncertain and traders are cautious with their money",247,29
1374805613838995458,"2021-03-24T19:29:35Z","$UNI who ? Starlight is uniswap on steroids and it’s going to be built on @Zenon_Network   Don’t sleep on $ZNN The rocket is leaving the station 🚀  #BTC #DeFi $ETH $DOT $DOGE $ADA $LINK $LUNA $BNB $KAI $HTR https://t.co/Ocx22Rt7Lb https://t.co/6YMae528ln",16,2
1374805613377589249,"2021-03-24T19:29:35Z","Great news! @dypfinance team currently running tests on Kovan Test Network for the DYP Earn Vault!  ⭐Some features of $DYP Earn Vault: ~Support #ETH, WBTC, USDC, USDT, DAI ~5 different lockup durations ~Fixed APY for each pool  e.t.c  The DYP Earn Vault should be launched soon🥳 https://t.co/XyOBxjujIp",307,302
1374805612480057344,"2021-03-24T19:29:35Z","For those of you already in, or just now joining the $PIKA #PIKA Fam, that prefer videos over text 👀 get loaded up and ready for this weekend's Mission to Mt. Moon and everyone!!!  https://t.co/jsL1ZHmmnr  $ETH $FEG $FET $POODL $FROGO $WOLFY $BUNNY $SHIB $HOGE $DOGE $CHIN $RDIII",10,6
1374805610982703108,"2021-03-24T19:29:34Z","RT @BiTToken_Club: 🎉🎉 10.000 Followers 🎉🎉   Thank for your support family!  #DeFi $BITT $KIT $ETH $BTC #Crypto #BITTokenclub #bitswap https…",99,50
1374805610198310912,"2021-03-24T19:29:34Z","The DEX @FinanceChainge is set to launch on the @FUSIONProtocol network with over a million users on the protocols waitlist. This decentralized exchange aims to innovate on traditional models through leveraging the Fusion Network.  #BSC #BTC #ETH #BNB  https://t.co/xx55YiGfm3",21105,13409
1374805604116627461,"2021-03-24T19:29:33Z","🔄 Prices update in $USD (1 hour):  $BTC - 55181.8 $  (-1.5 %) $ETH - 1656.92 $  (-1.62 %) $DOT - 33.77 $    (-2.63 %) $ADA - 1.11 $     (-1.47 %)  #BTC #ETH #DOT #ADA #Crypto #Bitcoin",0,0
1374805602023669763,"2021-03-24T19:29:32Z","Hello Rocket Ship 🚀@CloudFaceUSA @dragonchaingang @treyrutledge3 @j0j0r0  #drgn #eth #btc #ETC  Price in AUD but soon 50x https://t.co/Sk8mHgN26o",17,5
1374805599083503621,"2021-03-24T19:29:32Z","someone who knows about ethereum and crypto and nfts tell me if i should spend $200 of my stimulus on .116 ETH thanks",0,0
1374805590644551682,"2021-03-24T19:29:30Z","30 day EVIX: 95.1996 ETH/USD vwap: $1,655.36 04/09 expiry volume: $2,483,186.74 04/30 expiry volume: $8,238,545.60 Current time: 19:29:05",0,0
1374805590304768004,"2021-03-24T19:29:30Z","Oracle today confirmed that KPMG, one of the Big Four consultancy firms, are working with @quant_network &amp; utilizing Overledger technology ✅  You can hear Oracle talking about $QNT here - https://t.co/wKiagfPrNX  One of the Big Four announced... Three to go 😏  $QNT $BTC $ETH https://t.co/g03lNi2q3z",256,90
1374805586794184705,"2021-03-24T19:29:29Z","@cryptomeowmeow When eth up",0,0
1374805586596954113,"2021-03-24T19:29:29Z","The community asked &amp; I listened.  See you inside 😁  $KIN $WOO $CPX $BNB $ICX $XRP $HYDRO $DCN $ETH $BTC  https://t.co/epPRtVGQSv",3,1
1374805570587291649,"2021-03-24T19:29:25Z","Taking quite a bit longer than originally expected- but still expecting this and looks like we may be starting to break down. This has always been 1 of the conditions I was looking for to complete before I could flip bullish on the market as a whole. Gimme that flush. $ETH https://t.co/dwTAKt5v0X https://t.co/rr2HFvAy8o",197,22
1374805548185448451,"2021-03-24T19:29:19Z","RT @cryptorangutang: $ETH is just sad to watch right now https://t.co/HHOEkluMpF",52,3
1374805546436599812,"2021-03-24T19:29:19Z","New all time high $DAI supply at $2.92 Billion!  Also, a major change to the $ETH collateral ceiling means total debt ceiling is now just under $20 BILLION Dai.  Man, I remember when we were just breaking $50 Million Dai. #Ethereum #Defi https://t.co/A9Gahhdz0e",45,11
1374805544897290244,"2021-03-24T19:29:19Z","🚀 Safe The Children  🔷 Token Symbol : STC  🔷 Contract: https://t.co/nk3qsF2PJV  🔷 Website: https://t.co/4y0g7dqswM  🔷 Whitepaper: https://t.co/PHPZI4dbyR  🔷 Presentation Video : https://t.co/Mycfov12IU  #Safe_Childrens #Bitcoin  #Binance #BinanceSmartChain #DEFI  #BTC #ETH",13977,13664
1374805531878100996,"2021-03-24T19:29:16Z","💧Roku Network Airdrop 💧  🏆 Task:          ➕  15 ROK (~$5)  👨‍👩‍👧 Referral:   ➕  3 ROK (~$1)  🔛  Airdrop Link &amp; Information: https://t.co/YhvsOcfEbH  #cryptocurrency #Crypto #Bitcoin  #BSC #BinanceSmartChain #Ethereum #ETH #Airdrop #bounty #ROK #RokuCoin #RokuNetwork",3593,4682
1374805526773694464,"2021-03-24T19:29:14Z","Join us next Tuesday for Afternoon Tea  and ETC as @stevanlohja of the @ETCCooperative hosts our regularly scheduled community call.  When? Tuesday, Mar 30, 2021; 10:00AM PST, 12:00 PM CST, 1:00PM EST  Where? Invite and more info below. Much thanks Stev! https://t.co/cLOxTJwGT2 https://t.co/gOCzpgjvyB",45,13
1374805513335099395,"2021-03-24T19:29:11Z","@MadMaraca @rariblecom If it is your ETH address then it's your acc. Web 3 is decentralized, so the platform (e.g. OpenSea) doesn't own your data, you do. The NFTs you created from your ETH address can be shown in multiple platforms. If it's not your ETH address it might be a scam tho.",8,0
1374805509593829384,"2021-03-24T19:29:10Z","RT @skewdotcom: ETH $2,000 in sight 👀 https://t.co/XFR7akpsik",257,191
1374805509035950088,"2021-03-24T19:29:10Z","#Etheria (the first #NFT on #ETH) is now available on @opensea   You will not be able to set a 'for sale' price on Opensea, but you will be able to receive and accept offers.  v1.2 https://t.co/dQGtFmovvF v.1.1 https://t.co/hxKh4EWlAi https://t.co/QZjDzxx6Rp",32,16
1374805497455513605,"2021-03-24T19:29:07Z","Deposit your BTC, ETH, USDT, BCH, DOGE, XMR, Dash, Zcash to get worry-free returns. Paid out daily. https://t.co/dFKF5EIKGN @miccheleti @IgorRogerf",0,0
1374805493567401990,"2021-03-24T19:29:06Z","For those of you already in, or just now joining the $PIKA #PIKA Fam, that prefer videos over text 👀 get loaded up and ready for this weekend's Mission to Mt. Moon and everyone!!!  https://t.co/jsL1ZHmmnr  $ETH $FEG $FET $POODL $FROGO $WOLFY $BUNNY $SHIB $HOGE $DOGE $CHIN $RDIII",10,6
1374805476920135686,"2021-03-24T19:29:03Z","Drained from my #Binance account, but I got my first #NFT for 1 ETH 😅, I am not a gambler, but I like the green froggy frog 🐸  I love these types of cartoons so if you have any similar suggestions for LIMITED collections, let me know 🙌  https://t.co/VLsIoVJwSZ  #nftcollector https://t.co/B3ExfAMhlq",3,0
1374805465423564804,"2021-03-24T19:29:00Z","Oracle today confirmed that KPMG, one of the Big Four consultancy firms, are working with @quant_network &amp; utilizing Overledger technology ✅  You can hear Oracle talking about $QNT here - https://t.co/wKiagfPrNX  One of the Big Four announced... Three to go 😏  $QNT $BTC $ETH https://t.co/g03lNi2q3z",256,90
1374805460910505995,"2021-03-24T19:28:59Z","RT @iArtSometimes: FUCK IT - you know what? No. I’M MANIFESTING 10 ETH FOR THIS. This is the best thing I have made to date.",112,21
1374805451192344580,"2021-03-24T19:28:56Z","Have fun staying poor  $ETH $AVAX $WAN $LINK $UNI https://t.co/aHUu66ou5n",1,0
1374805437749551107,"2021-03-24T19:28:53Z","RT @EmBeaufils: $XTZ 🚀 20$-30$   That’s the tweet  #blockchain #invest #bitcoin #ETH #NFTs #CleanNFTs #cryptocurrency",31,9
1374805436399022081,"2021-03-24T19:28:53Z","Oracle today confirmed that KPMG, one of the Big Four consultancy firms, are working with @quant_network &amp; utilizing Overledger technology ✅  You can hear Oracle talking about $QNT here - https://t.co/wKiagfPrNX  One of the Big Four announced... Three to go 😏  $QNT $BTC $ETH https://t.co/g03lNi2q3z",256,90
1374805435656638465,"2021-03-24T19:28:53Z","#HTMLCOIN strong project with  the cheapest gas and decent TPS , Smart contract , NFTs , Dapps &amp; your own blockchain.  #htmlcoin  @htmlcoin #btc  #Ethereum #ETH https://t.co/MAtF6PImtc",21,10
1374805435086163969,"2021-03-24T19:28:53Z","RT @scottmelker: Nothing like flushing $ETH down the toilet on a failed swap, right?",2135,103
1374805433697894401,"2021-03-24T19:28:52Z","RT @NEPTUNEPRlNCE: looking for the first bid on my #NFT ‘Botulinum’ on @withFND &lt;3 reserve at 1 ETH. link in thread. https://t.co/0qguSnN729",67,16
1374805428023009287,"2021-03-24T19:28:51Z","@BuckyBigTime I've listed my third #nft. Maybe you like it. Have a look. Reserve price 0.35 ETH. First collector will also get a Collectors Badge  https://t.co/ab1IQZsUO1",0,1
1374805420489936896,"2021-03-24T19:28:49Z","Good news: We just have our first successful test confirmed. Here is the transaction tx: https://t.co/u9Y75qRv7M  I successful swap eth for 100 1inch token from fastswap liquidity aggregator. Let prepare for launch and do the final finishing. This is amazing",53,20
1374805415976972289,"2021-03-24T19:28:48Z","RT @EmBeaufils: $XTZ 🚀 20$-30$   That’s the tweet  #blockchain #invest #bitcoin #ETH #NFTs #CleanNFTs #cryptocurrency",31,9
1374805415012175873,"2021-03-24T19:28:48Z","An astronaut traveling through space and time to find life again, sailing in the ocean of eden towards the tree of life to find new souls 🔴Reserve : 0.30 ETH  #nft #NFTs #nftart #nftcollectors #NFTCommunity #cryptoart #NFTdrop #NFTartist #foundationapp   https://t.co/flHGFfa9CO",3,0
1374805405986131979,"2021-03-24T19:28:46Z","For those of you already in, or just now joining the $PIKA #PIKA Fam, that prefer videos over text 👀 get loaded up and ready for this weekend's Mission to Mt. Moon and everyone!!!  https://t.co/jsL1ZHmmnr  $ETH $FEG $FET $POODL $FROGO $WOLFY $BUNNY $SHIB $HOGE $DOGE $CHIN $RDIII",10,6
1374805384444137475,"2021-03-24T19:28:40Z","The more ETH falls the more I can buy 😤😤😤",4,0
1374805368820359171,"2021-03-24T19:28:37Z","@dodo_tokens Many thanks for this DODO grab!!!!! My ETH address is: 0x374b9f679C33759A2ef1481C23020dF551F04065",0,0
1374805356703014912,"2021-03-24T19:28:34Z","RT @CarinaKrehl: Young #basquiat 💸 @Sothebys @ChristiesInc @phillipsauction  1111 ETH",8,3
1374805355817881607,"2021-03-24T19:28:34Z","🚀 Safe The Children  🔷 Token Symbol : STC  🔷 Contract: https://t.co/nk3qsF2PJV  🔷 Website: https://t.co/4y0g7dqswM  🔷 Whitepaper: https://t.co/PHPZI4dbyR  🔷 Presentation Video : https://t.co/Mycfov12IU  #Safe_Childrens #Bitcoin  #Binance #BinanceSmartChain #DEFI  #BTC #ETH",13977,13664
1374805346397601805,"2021-03-24T19:28:31Z","Oracle today confirmed that KPMG, one of the Big Four consultancy firms, are working with @quant_network &amp; utilizing Overledger technology ✅  You can hear Oracle talking about $QNT here - https://t.co/wKiagfPrNX  One of the Big Four announced... Three to go 😏  $QNT $BTC $ETH https://t.co/g03lNi2q3z",256,90
1374805344887709702,"2021-03-24T19:28:31Z","RT @_RN03xx_: Beeple sold his $ETH but did NOT sell his $OCTO $HTR or $RAZOR...  BULLISH 🚀",95,5
1374805335442083855,"2021-03-24T19:28:29Z","@CryptoMessiah Yes, but what will he do with that ETH?",0,0
1374805334326439940,"2021-03-24T19:28:29Z","What did I tell you? Look at the 🚀 #HTMLCOIN is in going #TOTHEMOON! 🌕   #Bitcoin and #Ethereum hybrid $HTML is the best of both worlds! $BTC and $ETH and will always be anle to keep up with technological developments! Great #altcoin and lots of upside left! It’s warming up! https://t.co/Zxc985JClo https://t.co/xkd5fwPFls",30,11
1374805328693366784,"2021-03-24T19:28:27Z","@BowtiedAsset @APompliano Damn, what's that + 12 eth",0,0
1374805325237395460,"2021-03-24T19:28:26Z","Oracle today confirmed that KPMG, one of the Big Four consultancy firms, are working with @quant_network &amp; utilizing Overledger technology ✅  You can hear Oracle talking about $QNT here - https://t.co/wKiagfPrNX  One of the Big Four announced... Three to go 😏  $QNT $BTC $ETH https://t.co/g03lNi2q3z",256,90
1374805323781918722,"2021-03-24T19:28:26Z","https://t.co/usXAzmrtPh  This NFT 1/50 giveaway in 24 hours!💥💥💥  Price 0.06 ETH =$100 !!!  🤝🤝🤝Follow me + @Watches1Crypto  👍 like  💪 retweet   🤝two friends+ comment with your ETH wallet adress. 🙏🙏🙏 I wish everyone good luck   #NFTartist #rarible #nft  #cryptoart https://t.co/aQh9S3iMc6",144,131
1374805319033888768,"2021-03-24T19:28:25Z","Been screaming about this gem since the beginning for months now  $VRX is on the left, $AVAX on the right  Don't be shaken out,  5000$ incoming  🚀  Buy $VRX NOW!  Only 47.5k max supply, 60% staked! Game changing coin🔥  #bitcoin $btc $eth  $spi $chain $umx $cfi $ern $lpt $rfr https://t.co/VJheZrWKaa",2435,3576
1374805307357007876,"2021-03-24T19:28:22Z","Round 3, Final Four: Elon Doge vs Snoop Dogge (poll in comments)  @opensea #dogepunks #nft #doge #eth #btc #dogearmy  #DogecoinToTheMoon https://t.co/IZZiKjljBz",7,3
1374805299136061443,"2021-03-24T19:28:20Z","💧Roku Network Airdrop 💧  🏆 Task:          ➕  15 ROK (~$5)  👨‍👩‍👧 Referral:   ➕  3 ROK (~$1)  🔛  Airdrop Link &amp; Information: https://t.co/YhvsOcfEbH  #cryptocurrency #Crypto #Bitcoin  #BSC #BinanceSmartChain #Ethereum #ETH #Airdrop #bounty #ROK #RokuCoin #RokuNetwork",3593,4682
1374805296896483328,"2021-03-24T19:28:20Z","🏀🐶Final FOUR of DOGE Madness! We will be selecting the winner of Dogepunk (valued at 3.5 ETH/$6.3k) when we crown the winner!  You will get an entry by: 1. Following us 2. Retweeting this (each RT is an entry) 3. Tagging 3 friends to vote!  @opensea #nft #doge #dogearmy https://t.co/bm4jiG76W2",14,7
1374805280773566467,"2021-03-24T19:28:16Z","@millionchubbies I've listed my third #nft. Maybe you like it. Have a look. Reserve price 0.35 ETH. First collector will also get a Collectors Badge  https://t.co/ab1IQZsUO1",0,0
1374805278944755712,"2021-03-24T19:28:15Z","@CredibleCrypto One more leg down from btc to retest 52k should take eth down there and we are done. With Tesla accepting bitcoin for cars i dont think many people will want to sell :)",0,0
1374805272858746882,"2021-03-24T19:28:14Z","@idevrimy @KoroushAK my prize was 46 ETH!!!",0,0
1374805269067264001,"2021-03-24T19:28:13Z","We’re experiencing a lot of interest today!   Anyone who wants to know more, or needs assistance to trade our token or enter the staking platform, please head over to our AMAZING community on telegram: https://t.co/OZIT9nCYMb  They’ll be more than happy to help! $VNLA $MATIC $ETH",19,9
1374805265451732999,"2021-03-24T19:28:12Z","Hourly #bitcoin  price  alert   $BTC: 55805.01 $ETH: 1702.26  Trending4 @coingecko $OVR: 2.92 $VSP: 63.03 $ERN: 46.75 $NPXS: 0.00795337    $50 USDT Retweet &amp; Follow me @PAkinboye   Increase your Chances Of Winning",3,1
1374805259353260044,"2021-03-24T19:28:11Z","Beeple sold his $ETH but did NOT sell his $OCTO $HTR or $RAZOR...  BULLISH 🚀",95,5
1374805254852771847,"2021-03-24T19:28:10Z","Ordered as soon as available on #amazon 💙  BIG #exchange coming and a lot of exciting news soon🔥  #metrix is a life changer 👊🏽  #btc #bitcoin $btc $mana $ada $ltc $eth $chz $mrx $chr $hbar $perl $tomo $bnb #mrx $matic $chz $coti $dego $hbar $bel $lit $fio $req $alice $knc $bat https://t.co/VvUQ9P7cbd",46,15
1374805252063518723,"2021-03-24T19:28:09Z","👾HashHound #32👾  Scarecrow inspired boi has been listed on the secondary market for only 0.1 eth! He constantly bumps into things because he never takes his hat off.  https://t.co/RADoHFkyYI  #NFT #NFTs #NFTCommunity #nftart #NFTartist #nftcollectors #pixelart https://t.co/Bi3blAlTBg",12,2
1374805247332397056,"2021-03-24T19:28:08Z","Hourly #bitcoin  price  alert   $BTC: 55485.29 $ETH: 1668.3  Trending4 @coingecko $OVR: 3.18 $MATIC: 0.355847 $ERN: 47.74 $AUDIO: 2.29    $50 USDT Retweet &amp; Follow me @PAkinboye   Increase your Chances Of Winning",1,1
1374805244723527685,"2021-03-24T19:28:07Z","The Pickers family now counts over 25k players🎉  To celebrate this milestone, we are giving away $50 of ETH and 3 exclusive #NFTs  How to join? ► Follow @CryptoPickHQ ► Like &amp; Retweet ► Tag 2 friends ► Comment your CryptoPick username below  🎁8 winners -⌛️Ends in 48H https://t.co/ItWwew1yv2",282,218
1374805238612434948,"2021-03-24T19:28:06Z","@StakeHEX5555 @RichardHeartWin @StakerApp @Hexologist31 @YORmadjic @MatiAllin @whalesonly1 @sammyChica @HexMac @ccfxstudios @THEAnnette @HexLadies @bradmillscan @Phantomkiwi @RG3_Pirate Not a popular opinion but Cardano is actually not that bad. It's not suitable for #Hex $Hex (right now) but good thing we have the encapsulation functionality. I think forking ETH is the way to go, It's a great decision.",1,0
1374805232597762054,"2021-03-24T19:28:04Z","Those #NFTartist who sell all there #Ethereum now will be begging in 6 months for your sub $2000 #ETH. https://t.co/x68CfN6uQA",2,0
1374805231305887744,"2021-03-24T19:28:04Z","@udiWertheimer One of the only reasons I follow you. $Eth to 0🤣🤣🤣",2,0
1374805228038537224,"2021-03-24T19:28:03Z","@nftartistss Hi! I'm Terence The Spider, a new #NFTartist specializing in funny and thought provoking #nftart, #nftcomics, and #nftmusic. I currently have #NFTs ranging from 0.1 - 0.75 #ETH.  Appreciate you checking out my work!  https://t.co/D14VKiuS5K https://t.co/X9MkF4CwPT",1,0
1374805227602345984,"2021-03-24T19:28:03Z","Available pieces on @rariblecom  In The Beyond w/ @DavidIainBrown 1/1 0.5 ETH https://t.co/YALXpWUYBR ILLUMINATE 1/1 0.1 ETH https://t.co/I8ZGtispW2 ACID 3/3 0.1 ETH https://t.co/RM9hDjCrbs Support is appreciated! 🎨 https://t.co/guhULxAXwY",66,28
1374805226100785155,"2021-03-24T19:28:03Z","🚨🚨 #Crypto ALERT  🚨🚨       BIG POTENTIAL x1000🚀🚀         The #TRDG to buy it ⬇️  #BNB &gt; #pancakeswap &gt; $TRDG  #FEG #altcoins #crypto4you #TACO #altcoin #Binance #doge #ETH #SAFEMOON #VET #CHLZ #RDC #JULL #JulSwap #Trdg #CHBT #BULLISH #Moon #DEX #NFT #PEG #NFTs #DOGE #XRP https://t.co/U2TWXNaAcP",32,15
1374805225559580673,"2021-03-24T19:28:03Z","Beeple was smart to cash out  Unrealized profits aren't realized until they're in the bank  That's with ETH or BTC, yes I said BTC too  Don't try to act like Saylor won't take profits eventually, cause he will along with every other fund on the planet  Then they'll buy back lower",463,33
1374805225316360193,"2021-03-24T19:28:03Z","When it comes to $ETH L2 scaling, there are a number of competing projects. In the past 2 months, $MATIC has gone through a re-branding &amp; 10x move in its price. In my video today, I take a look at Polygon and analyse whether it still has potential... 🤔  https://t.co/ClG9hYBtyW",389,61
1374805220392280066,"2021-03-24T19:28:01Z","Now available for only 0.69 #ETH... niceeee 😁👌🏼  Cyberpunk Lilu Multipass by @Gonzon17   1 of 10  Sound On🔊  Link to purchase: https://t.co/Jl8hwMtPyJ  #rarible #cyberpunk #NFT #5thelement #scifiart  #NFTart #NFTs #NFTcollector #NFTcollectors #crypto https://t.co/rATtClOCG6",20,3
1374805218223874048,"2021-03-24T19:28:01Z","Taking quite a bit longer than originally expected- but still expecting this and looks like we may be starting to break down. This has always been 1 of the conditions I was looking for to complete before I could flip bullish on the market as a whole. Gimme that flush. $ETH https://t.co/dwTAKt5v0X https://t.co/rr2HFvAy8o",197,22
1374805217171095559,"2021-03-24T19:28:01Z","Can you eat an 100-year old carrot? 🥕🧐 @ETH_en @MartinLoessner shares his knowledge  about bacteria in our food- good and bad!  Lecture for Kids from #TreffpunktScienceCity (in DE): https://t.co/5JNR4aDcC5 https://t.co/jQsGFlN5IG",8,1
1374805208702799875,"2021-03-24T19:27:59Z","@scottmelker i just swapped for $qnt it did not fail I feel so much better owning a piece of the furture than the dead wood eth!",4,0
1374805208270741507,"2021-03-24T19:27:58Z","03/23/21 UPDATE: Net Assets Under Management, Holdings per Share, and Market Price per Share for our Investment Products.  Total AUM: $42.4 billion  $BTC $BCH $ETH $ETC $ZEN $LTC $XLM $ZEC $BAT $LINK $MANA $FIL $LPT https://t.co/s3vx4MRhrM",624,120
1374805205326442498,"2021-03-24T19:27:58Z","RT @dixon_eth: Check actual gas prices here Thank me later 🚀 RT this for the #nft family https://t.co/WjDabWjsJf https://t.co/AVpr9rVfhV",278,83
1374805195922808838,"2021-03-24T19:27:56Z","Today MGI began rolling out their API-driven infrastructure for new business &amp; use cases beginning w/ successful integration of the G-Coin token to provide consumers a new way to access blockchain-based digital gold assets. G-Coin runs on Quorum (ETH).  -Thanks @NatePardue1 ! https://t.co/1GFR2p1hc0",22,7
