"ID","created_at","text","like_count","rt_count"
1374941611197526016,"2021-03-25T04:29:59Z","RT @CryptoK4t: New work #cryptoart #nft #gif #eth #metaverse   Come follow for more!  SETI c. 3.18.21 https://t.co/69nSoDEY3Q",67,0
1374941592881086466,"2021-03-25T04:29:55Z","https://t.co/dj7DkIUm3T $4900  Premium #Domainname #ForSale  #VR #Analytics #AI #MachineLearning #BigData #5G #AR #Robotics #ML #IoT #CloudComputing #futureofwork #Crypto #100DaysOfCode #fintech #Blockchain #LIVE #Bitcoin #BTC #LTC #ETH #Crypto365 #technology #LINK #Metaverse https://t.co/ZgkO4HgfUb",10,0
1374941588359684096,"2021-03-25T04:29:54Z","RT @dillonatm: I'm already thinking in ETH instead of USD",82,0
1374941587013214209,"2021-03-25T04:29:54Z","@impastaus @PancakeSwap Smart contracts == centralized? If so, ETH is a centralized shitcoin.",12,0
1374941583418650628,"2021-03-25T04:29:53Z","My 1st NFT @withFND is still up for grab at 0.99. I have to say a BIG Thank You to the #NFTCommunity for their support #NFT  #cryptoart #nftcollector $eth #cryptoart https://t.co/svHmHQu595",94,0
1374941565303541762,"2021-03-25T04:29:49Z","RT @Catheri_coin: @Palmskei Let's sacrifice $ETH",6,0
1374941546106265606,"2021-03-25T04:29:44Z","https://t.co/dj7DkIUm3T $4900  Premium #Domainname #ForSale  #VR #Analytics #AI #MachineLearning #BigData #5G #AR #Robotics #ML #IoT #CloudComputing #futureofwork #Crypto #100DaysOfCode #fintech #Blockchain #LIVE #Bitcoin #BTC #LTC #ETH #Crypto365 #technology #LINK #Metaverse https://t.co/ZgkO4HgfUb",10,0
1374941540397821959,"2021-03-25T04:29:43Z","Adding some $eth around $1580 and going to bed. https://t.co/RqjCEw7Sv6",1,0
1374941532625641477,"2021-03-25T04:29:41Z","🔸 New Listing🔸   #BKEX will list #DRYCAKE @DryCakeSwap🚀 🚀  - Trading pair: DRYCAKE/USDT - Trading time: 20:00 on Mar 29 (UTC+8)  🔹 🔹 More details: https://t.co/kC2IIebfTT  #Bitcoin #ETH #BKK #Blockchain https://t.co/w8CHyKXaUD",2480,0
1374941531145039874,"2021-03-25T04:29:40Z","4hr chart. Break that bottom yellow line we could see 47k $BTC. Break the top yellow line 59-62K is back in play. Newbs, quit pissin yo pants, sit on your hands and we'll all be fine. $eth $xrp $xlm $dot $doge $snx https://t.co/nrN6x7LfSx",0,0
1374941528834064389,"2021-03-25T04:29:40Z","https://t.co/dj7DkIUm3T $4900  Premium #Domainname #ForSale  #VR #Analytics #AI #MachineLearning #BigData #5G #AR #Robotics #ML #IoT #CloudComputing #futureofwork #Crypto #100DaysOfCode #fintech #Blockchain #LIVE #Bitcoin #BTC #LTC #ETH #Crypto365 #technology #LINK #Metaverse https://t.co/ZgkO4HgfUb",10,0
1374941516167270403,"2021-03-25T04:29:37Z","https://t.co/dj7DkIUm3T $4900  Premium #Domainname #ForSale  #VR #Analytics #AI #MachineLearning #BigData #5G #AR #Robotics #ML #IoT #CloudComputing #futureofwork #Crypto #100DaysOfCode #fintech #Blockchain #LIVE #Bitcoin #BTC #LTC #ETH #Crypto365 #technology #LINK #Metaverse https://t.co/ZgkO4HgfUb",10,0
1374941506679767045,"2021-03-25T04:29:35Z","https://t.co/dj7DkIUm3T $4900  Premium #Domainname #ForSale  #VR #Analytics #AI #MachineLearning #BigData #5G #AR #Robotics #ML #IoT #CloudComputing #futureofwork #Crypto #100DaysOfCode #fintech #Blockchain #LIVE #Bitcoin #BTC #LTC #ETH #Crypto365 #technology #LINK #Metaverse https://t.co/ZgkO4HgfUb",10,0
1374941506197364739,"2021-03-25T04:29:34Z","Important Notice:  📍Some Airdrop participants have joined the airdrop bot but they did not complete Airdrop mandatory tasks. Example: 💥Join telegram group  💥Join telegram channel 💥Follow Twitter 💥Like + Retweet pinned post with using hashtag below #STC #ETH #DEFI #Airdrops https://t.co/QREjAmTDDe",124,0
1374941500572848130,"2021-03-25T04:29:33Z","30 day EVIX: 108.5462 ETH/USD vwap: $1,580.02 04/09 expiry volume: $2,705,463.62 04/30 expiry volume: $5,821,890.62 Current time: 04:29:06",0,0
1374941485817286659,"2021-03-25T04:29:30Z","https://t.co/dj7DkIUm3T $4900  Premium #Domainname #ForSale  #VR #Analytics #AI #MachineLearning #BigData #5G #AR #Robotics #ML #IoT #CloudComputing #futureofwork #Crypto #100DaysOfCode #fintech #Blockchain #LIVE #Bitcoin #BTC #LTC #ETH #Crypto365 #technology #LINK #Metaverse https://t.co/ZgkO4HgfUb",10,0
1374941462421508096,"2021-03-25T04:29:24Z","RT @volmexfinance: What’s your ETH address?  Don’t ask why, just drop it below 👇",4852,0
1374941437003898882,"2021-03-25T04:29:18Z","@qcumber_batch @crackedegggames @crypto_bobby It's over. Eth won. Just deal with it.",0,0
1374941430301478917,"2021-03-25T04:29:16Z","thereal5g.crypto (0.51 ETH) 5gfantastic.crypto (0.51 ETH) amazing5g.crypto (0.51 ETH) 5gunlimited.crypto (1 ETH) bespokeinsurance.crypto (1.1 ETH) bespokeinteriors.crypto (1.1 ETH) bespokeinteriordesign.crypto (1.1 ETH) #5gnetworks #insurance #insuretech #interiordesignmasters",0,0
1374941417999454211,"2021-03-25T04:29:13Z","Wow! 20k Followers!😍  Our family is growing exponentially, so to celebrate we're doing a competition! 🎁  ❶ Follow + RT ❷ Tag a friend and tell them what you like best about #ValueDefi  👉After 48h, 20 comments will win 6.8 $gvVALUE-B each!  Good luck frens!🍀  #BSC #ETH #DeFi https://t.co/WHnV5DU7TU",333,0
1374941402858201115,"2021-03-25T04:29:10Z","You can now search for Crypto Pyramid on Yandex and Google! Our website is listed https://t.co/CfjRuvbhBt #eth #bitcoin #Ethereum",0,0
1374941401318744065,"2021-03-25T04:29:09Z","That feel when you own only piece of art in the whole #NFTspace , isn’t it the most contentment feel ?   Sit back n Relax🙆🏻‍♂️ for the such #NFT unveiling this week ! 💙✨  Only 1 in the 🌎  / Only 1 can get hands on 🙌🏻  #NFTs #NFTCommunity #cryptoart #nftart #eth #rarible",3,0
1374941379487408129,"2021-03-25T04:29:04Z","The DEX @FinanceChainge is set to launch on the @FUSIONProtocol network with over a million users on the protocols waitlist. This decentralized exchange aims to innovate on traditional models through leveraging the Fusion Network.  #BSC #BTC #ETH #BNB  https://t.co/xx55YiGfm3",21660,0
1374941373372174336,"2021-03-25T04:29:03Z","RT @CashNCrypto: $150 to one person in 48hrs  Rt &amp; follow me + @domscrypto &amp; @boar_eth",2067,0
1374941353663074306,"2021-03-25T04:28:58Z","The DEX @FinanceChainge is set to launch on the @FUSIONProtocol network with over a million users on the protocols waitlist. This decentralized exchange aims to innovate on traditional models through leveraging the Fusion Network.  #BSC #BTC #ETH #BNB  https://t.co/xx55YiGfm3",21660,0
1374941346390282243,"2021-03-25T04:28:56Z","$GRUMPY Starting to take off again after all the recent issues.. You know it's the crypto world and people forget things easily.. so hop on  https://t.co/eAdaz6mh82  $GLQ $ATD $ETH $LABS $BANK $PAID $VISR $SUPER $STR https://t.co/4pOaRShHB4",2,0
1374941338077163520,"2021-03-25T04:28:54Z","My 1st NFT @withFND is still up for grab at 0.99. I have to say a BIG Thank You to the #NFTCommunity for their support #NFT  #cryptoart #nftcollector $eth #cryptoart https://t.co/svHmHQu595",94,0
1374941311594299393,"2021-03-25T04:28:48Z","@NFTs_Group It is really amazing project, thanks. My eth adress 0x8555F9d19E7F5E337f61bf3E3Bf840BC3748819a",0,0
1374941306372296708,"2021-03-25T04:28:47Z","@dodo_tokens Especially Especially Thanks for the opportunity ❤️ Great project 🥰 I have $DoDo project are success and go to the moon 🌠🚀  ETH Address:-  0x9852ECdc1f08B3F4cf64e045526fa8B8C865d363  Good luck 🥰  I have done All rules ✅✅✅",0,0
1374941301242650625,"2021-03-25T04:28:46Z","@cullenroche Centralization. NFT run on other chains, these platforms - less decentralized than the chains - less decentralized than BTC. Also network effect. First mover advantage. Finiteness. ETH vs BTC debate - and that's something that requires a lot of study honestly. PoS is not PoW.",0,0
1374941299242057728,"2021-03-25T04:28:45Z","Thomas Hasal bought for 0.244 ETH (383.62$) by gsd4 on the primary market   Season: 2020-2021 Level: 0 Serial: 46/100 Price: 383.62$  ⚽ Sorare: https://t.co/P2pEVcs1VQ  📊: https://t.co/ldOkzioUZo  #Sorare #NFT #Ethereum #FantasyFootball",1,0
1374941298512297991,"2021-03-25T04:28:45Z","@NFTFix @PurpLeTariat Two unique 1/1 pieces from my GENESIS EDITION SERIES ‘HELLO NURSE’, are NOW AVAILABLE:  https://t.co/iP0dOQNsUP  The first piece in the series was collected by collector legend, 888.  #NFT #nftart #nftartist #nft #nftcollector #NFTcommunity #cryptoart #crypto #eth #ETH https://t.co/s7HPTBXJ5L",5,0
1374941275443527681,"2021-03-25T04:28:39Z","The DEX @FinanceChainge is set to launch on the @FUSIONProtocol network with over a million users on the protocols waitlist. This decentralized exchange aims to innovate on traditional models through leveraging the Fusion Network.  #BSC #BTC #ETH #BNB  https://t.co/xx55YiGfm3",21660,0
1374941271840714762,"2021-03-25T04:28:39Z","Top 5 Mentions Updated Every 3 Minutes : Thu Mar 25 2021 00:55:37 GMT+0300 (GMT+03:00)   (BETA STAGE)  1- $ETH==&gt;873  2- $BNB==&gt;394  3- $XRP==&gt;326  4- $LINK==&gt;252  5- $LTC==&gt;220",0,0
1374941256489517058,"2021-03-25T04:28:35Z","https://t.co/dj7DkIUm3T $4900  Premium #Domainname #ForSale  #VR #Analytics #AI #MachineLearning #BigData #5G #AR #Robotics #ML #IoT #CloudComputing #futureofwork #Crypto #100DaysOfCode #fintech #Blockchain #LIVE #Bitcoin #BTC #LTC #ETH #Crypto365 #technology #LINK #Metaverse https://t.co/ZgkO4HgfUb",10,0
1374941251091456004,"2021-03-25T04:28:34Z","As of late, seems like more impatient capital is behind Bitcoin chasing institutional announcements. ETH and DeFi are IMHO under-appreciated and underexposed.  *Not financial advice*",291,0
1374941246729281541,"2021-03-25T04:28:33Z","Absolute pleasure, had a great time talking @nbatopshot with one of my brothers @LgDoucet   So proud of what he's been able to achieve with @TheFirstMint in a short period of time.  Clip of myself and LG while recording. ⬇️ Great fun, thanks for having me on! 🤣 https://t.co/PAEy1xzriz https://t.co/1gAbPRw2Oo",71,0
1374941240899342339,"2021-03-25T04:28:31Z","I’ll help keep $Tosa $Grumpy $Pika $froge elite. $Tosa up 500% $link $xrp $bnf $bdog $eth $uni $bao $shib $feg $pika $bunny $dash $rvn $doge $hoge $scat $rfi $fet $fil $ada $dot $poodl $froge $grug $tnt $jedi $link $xrp $bnf $bdog $eth $uni $bao $shib $feg https://t.co/lQ06iiXXYb https://t.co/AjudhkaH8D",14,0
1374941234133749760,"2021-03-25T04:28:30Z","https://t.co/dj7DkIUm3T $4900  Premium #Domainname #ForSale  #VR #Analytics #AI #MachineLearning #BigData #5G #AR #Robotics #ML #IoT #CloudComputing #futureofwork #Crypto #100DaysOfCode #fintech #Blockchain #LIVE #Bitcoin #BTC #LTC #ETH #Crypto365 #technology #LINK #Metaverse https://t.co/ZgkO4HgfUb",10,21
1374941226294767617,"2021-03-25T04:28:28Z","💧YetuBit Airdrop 2nd Round💧  🏆 Task:          ➕  25 YETU (~$20)  👨‍👩‍👧 Referral:   ➕  5 YETU (~$4)  🔛  Airdrop Link &amp; Information: https://t.co/ZoGw3AR71I  #cryptocurrency #Crypto #Bitcoin  #BSC #BinanceSmartChain #Ethereum #ETH #Airdrop #bounty #YetuBit #YetuSwap #YETU",4530,21
1374941223656415235,"2021-03-25T04:28:27Z","I never cease to be impressed that so few people seem to know that individual BTC transaction fees are far higher than individual ETH transaction fees.  It's almost as if nobody is actually using Bitcoin.",328,21
1374941219910901762,"2021-03-25T04:28:26Z","🔥 WoW!!! $DYP getting listed on @kucoincom !  DYP/USDT &amp; DYP/ETH trading will start tomorrow, March 25th at 10AM UTC! Good job @dypfinance team!  #DeFi #uniswap #Ethereum https://t.co/Rw9qa5l5tA",2225,21
1374941186767552515,"2021-03-25T04:28:18Z","I’ll never sell!!! 😤  $ETH $RSR $DGB $ZIL $NOIA $UBT https://t.co/9r4MBxcaNw",9,1
1374941161299668992,"2021-03-25T04:28:12Z","I got airdropped these a while back lol anyone know if these projects are even around anymore lol   $BTC $ADA $REN $ETH $SRK $LTC $UNI $DOGE $BNB $DOT $KCS $vet $fil $enj $bch $aave $cro $ela $nft https://t.co/fdSqEq9rbD",0,0
1374941131302002690,"2021-03-25T04:28:05Z","Look at the #attached #pic. Then tweet @elonmusk to ask him when... We need an answer so I can #complete the #Infographics. This is a lot of Utility for $FREE coin and the list continues to grow.  #FREE #Tesla #TeslaModel3 $BTC #BinanceNeedsFREEcoin #BSC #BTC #BNB #ETH https://t.co/J0g4C5yni7",124,0
1374941129980846081,"2021-03-25T04:28:05Z","💧Roku Network Airdrop 💧  🏆 Task:          ➕  15 ROK (~$5)  👨‍👩‍👧 Referral:   ➕  3 ROK (~$1)  🔛  Airdrop Link &amp; Information: https://t.co/YhvsOcfEbH  #cryptocurrency #Crypto #Bitcoin  #BSC #BinanceSmartChain #Ethereum #ETH #Airdrop #bounty #ROK #RokuCoin #RokuNetwork",3813,0
1374941120090796035,"2021-03-25T04:28:02Z","Order successful!  LAND Coordinates: [-62, -9] Price: 5,900 $MANA ($5,182.02 USD = 2.8927 $ETH)  Purchased by https://t.co/hKC3SvsAH5 from https://t.co/f09dlDsaxa  https://t.co/ynt9PjxFZu #decentraland #land #parcel #estate #mana https://t.co/g2PPs9NeoO",6,1
1374941106446561281,"2021-03-25T04:27:59Z","@Prodigy_ETH @Tetranode Yeah was going to say you should try this",0,0
1374941089904353282,"2021-03-25T04:27:55Z","digitizedsilver.crypto (2.2 ETH) digitisedsilver.crypto (2.2 ETH) platinumjewellery.crypto (5 ETH) investinginsilver.crypto (4.5 ETH) digitizedplatinum.crypto (2.1 ETH) tokenizedplatinum.crypto (2.1 ETH) unbeatable5g.crypto (1.2 ETH) fantastic5g.crypto (0.51 ETH) #fintech https://t.co/c5CEZ23Xti",1,0
1374941087777714176,"2021-03-25T04:27:55Z","@sassal0x @screentimes u mean eth ?",0,0
1374941084598472707,"2021-03-25T04:27:54Z","ETH IS A GOVERNMENT FUNDED PROJECT TO DESTROY #BITCOIN  GOVERNMENT NOCOINERS AND .METH HEADS WILL SOON JOIN FORCES IN AN ATTEMPT TO DESTROY #BITCOIN  CHANGE MY MIND",10,1
1374941084208467968,"2021-03-25T04:27:54Z","◽️ Cross Chain DEX ◽️ Deep Asset Liquidity ◽️ Binance Cloud ◽️ Social Indicators ◽️ DeFi Aggregation ◽️ Trusted Security ◽️ ZenX Incubator ◽️ High Regulatory Compliance  It's only a matter of time before the space understands what is coming with $ZCX 🔥  $BTC $ETH $BNB https://t.co/oEYEQ0uDNL",63,1
1374941083742912514,"2021-03-25T04:27:54Z","#CKB $CKB #NERVOSNETWORK #AnotherOne Seriously, if you can't tell, I'm riding with this project for the long haul.  At least I'm not shilling shitcoins.  $btc $ltc $link $uni $bnb $band $eth $grt $dnt $omg $one $trx $xvg $nu $Ada $vet $bat $oxt $knc $algo $fil $lrc $aave $mana https://t.co/G7rnOICH44",6,0
1374941079166803970,"2021-03-25T04:27:53Z","I will always support new artists!!!   Made 4 bids last Sunday, 1 was accepted, 2 pending 🤞 and the other one I got out bided!!  Next Sunday another 4 bids coming, stay tuned!!!  #nfts #nft #cryptoartist #NFTCommunity #eth #btc",99,0
1374941075903811587,"2021-03-25T04:27:52Z","I’m seeing that $QNT is tracking its overall January trend line.  Expect a breakout like we saw in February as the spring wears on — remember that @OverledgerNet goes live for the public in Q2.  $AVAX $THETA $XRP $ETH $BTC $XDC $HTR $ALBT https://t.co/S5OyLl7AcK",94,0
1374941059118063617,"2021-03-25T04:27:48Z","Lot of big spenders in the #NFT space spending like they got $ for free.  Many kind of did.  ETH at $1-$10, BTC at $500 - 5,000.  Then you got airdrops, probably $50k+ worth if you've been involved in this space for the last 2 years.",120,0
1374941058019123200,"2021-03-25T04:27:48Z","@dodo_tokens Thanks for opportunity my ETH Address is  0xe1DfFFAf558E767efa98839a42bcCF8D164DDFD5",0,0
1374941042449866754,"2021-03-25T04:27:44Z","RT @volmexfinance: What’s your ETH address?  Don’t ask why, just drop it below 👇",4852,0
1374941039232917507,"2021-03-25T04:27:43Z","I'm trying to get my free airdrops back to the #ETHEREUM mainnet (as $ETH of course).  There is a troll called CZ that lives under the BSC-ETH bridge... I can't move it across.  I made 3 successful tx, 4th one does this to me.  Is there another way? https://t.co/WRge3kyGTw",103,0
1374941038893166592,"2021-03-25T04:27:43Z","I'll send $500 in #ETH or #BTC to one person who retweets this and follows @bud_crypto. Must complete these tasks:  1 - Like/RT his pinned tweet  2 - Must RETWEET &amp; LIKE 4 of his tweets  Ends in 72 hours!",1406,0
1374941038205415424,"2021-03-25T04:27:43Z","Diogo Costa bought for 0.274 ETH (430.79$) on the secondary market   Season: 2020-2021 Level: 0 Serial: 50/100 Price: 430.79$  ⚽ Sorare: https://t.co/84QFURtmKy  📊: https://t.co/WFoWx91Ppp  #Sorare #NFT #Ethereum #FantasyFootball",0,0
1374941036619907074,"2021-03-25T04:27:42Z","#BTC Price: $52779 #ETH Price: $1591 #LTC Price: $177  Next update in 10 minutes Last updated: 0:27:42.09",0,0
1374941019024850945,"2021-03-25T04:27:38Z","CryptoExpert was created for 100 $MANA ($85.16 USD = 0.0538 $ETH) by https://t.co/aRC51NyiWi https://t.co/fIoM737xBI #decentraland #names #avatar https://t.co/vUpo6wMLwX",2,1
1374941008287309827,"2021-03-25T04:27:36Z","💰What’s your #ETH wallet address?  🚀Don’t ask why, just drop it below👇  🚀Like、Retweet &amp; Tag ALL U CAN  🚀 USDT-NFTs has been listed on Uniswap！  🚀 The contract address: 0x6599fc3e77cbfa6f6e9cac605a30b1e78827eba0  #NFTs #NFT #AIRDROP #UNISWAP https://t.co/H29ZBOR0aL",1387,1
1374941005431115777,"2021-03-25T04:27:35Z","Thomas Didillon bought for 0.303 ETH (476.38$) by London1982 on the primary market   Season: 2020-2021 Level: 0 Serial: 43/100 Price: 476.38$  ⚽ Sorare: https://t.co/m2oaaDZc0d  📊: https://t.co/kx5SRdKMgK  #Sorare #NFT #Ethereum #FantasyFootball",0,0
1374941002729979906,"2021-03-25T04:27:34Z","Just released my third artwork on @rariblecom and @opensea 😍😍 I titled this piece “Mentally Numb 🚯”  Hope you guys like it😅 #NFT #3dart #nftcollector #cryptoart #NFTshill #NFTCommunity #ETH #Ethereum #superrare  https://t.co/MaqM3XT2GT https://t.co/3r5FfLKNLV",43,0
1374940995268177921,"2021-03-25T04:27:33Z","Look at the #attached #pic. Then tweet @elonmusk to ask him when... We need an answer so I can #complete the #Infographics. This is a lot of Utility for $FREE coin and the list continues to grow.  #FREE #Tesla #TeslaModel3 $BTC #BinanceNeedsFREEcoin #BSC #BTC #BNB #ETH https://t.co/J0g4C5yni7",124,0
1374940994559377411,"2021-03-25T04:27:32Z","🔸 New Listing🔸   #BKEX will list #DRYCAKE @DryCakeSwap🚀 🚀  - Trading pair: DRYCAKE/USDT - Trading time: 20:00 on Mar 29 (UTC+8)  🔹 🔹 More details: https://t.co/kC2IIebfTT  #Bitcoin #ETH #BKK #Blockchain https://t.co/w8CHyKXaUD",2480,0
1374940993586262026,"2021-03-25T04:27:32Z","Win and Share $50,000 in $DATA on #Binance  🎁 $25,000 in DATA for New Users  👉 Sign up with link: https://t.co/y1Is00yYBa  (Bonus! 10% Trading Fee discount.)  @CTBott Adrop Ram 500 TATM 100 #DATA #BinanceLiquidSwap #Binance #BNB #BUSD #cryptocurrency #Bitcoin #BTC #ETH #USDT https://t.co/TlxcRo5R3r",44,0
1374940960304418822,"2021-03-25T04:27:24Z","The DEX @FinanceChainge is set to launch on the @FUSIONProtocol network with over a million users on the protocols waitlist. This decentralized exchange aims to innovate on traditional models through leveraging the Fusion Network.  #BSC #BTC #ETH #BNB  https://t.co/xx55YiGfm3",21660,0
1374940948136927232,"2021-03-25T04:27:21Z","Hey #NFTartists do you want to try out minting at @hicetnunc2000  on #Tezos #DPoS #blockchain? (much lower emissions &amp; fees if that bugs you about ETH) First 20 to respond with $xtz address I will send enough to get you started. No strings attached but please retweet for exposure",54,0
1374940946958331905,"2021-03-25T04:27:21Z","@crypt0fungus This dip has nothing to do with ETH. The entire crypto community is down so shut the fuck up. Positive response to your post just shows how little people know and are easily influenced by social media https://t.co/zdxhX5sZUK",1,0
1374940937609113601,"2021-03-25T04:27:19Z","Win and Share $50,000 in $DATA on #Binance  🎁 $25,000 in DATA for New Users  👉 Sign up with link: https://t.co/y1Is00yYBa  (Bonus! 10% Trading Fee discount.)  @CTBott Adrop Ram 500 TATM 100 #DATA #BinanceLiquidSwap #Binance #BNB #BUSD #cryptocurrency #Bitcoin #BTC #ETH #USDT https://t.co/TlxcRo5R3r",44,0
1374940918197800960,"2021-03-25T04:27:14Z","@theWhiteIveyDFS @TheFirstMint @Wades_ETH @TheReelPhilD someone in the community has it. just not sure where",1,0
1374940917530914816,"2021-03-25T04:27:14Z","https://t.co/dj7DkIUm3T $4900  Premium #Domainname #ForSale   #Crypto365 #shop #BitcoinAsset #Analytics #AI #BigData #5G #AR #Robotics #ML #IoT #store #tesla #NFT  #futureofwork #Crypto #cryptocurrencies #fintech #Blockchain #LIVE #Bitcoin #LTC #ETH  #technology #LINK #Metaverse https://t.co/A5IVnxzF5N",2,0
1374940905342394370,"2021-03-25T04:27:11Z","Run Bitcoin BTC t-shirt   🛒 https://t.co/7FnWidekfv  👆Crypto merchandise so awesome that now we are the official cryptocurrency gear provider of all crypto fans 🧢👕🧦  $btc $eth $xrp $ltc $trx $xmr $neo $dash $vet $icx $link $hot $doge https://t.co/B49EfO6scK",0,0
1374940892654616583,"2021-03-25T04:27:08Z","It's time 🔥🔥🔥   Check out our latest #NFTdrop   50 Unique 1/1 #3DDudes for 0.1 ETH   Be a Badass &amp; Join the #DudeGang ✌️  https://t.co/OqkDjZ37vQ  #NFTdrop #nftcollectors #nftart #NFTartist #NFTs #NFT #NFTartists #NFTcollectibles #NFTcollectible #cryptoartist @opensea https://t.co/X2HqV6U7JD",43,0
1374940868029767683,"2021-03-25T04:27:02Z","VeChain Price Prediction  Projected 2021 Total Crypto Market Cap: $5.1T - 3x from here  #btc dominance 52% - down 9% - $142k per  $ETH 13% of total market - up 2% from here - $5700 per  $VET 9th ranked coin - 2% of total market - $1.58 per  #VeChain #VeFam",103,0
1374940849423925251,"2021-03-25T04:26:58Z","RT @officialmudrex: This is getting crazy!  #BTC #Bitcoin #ETH #Ethereum #DeFi #CryptoNews  #Cryptoart #cryptopunks https://t.co/MAggBJTj5g",2,0
1374940841739874306,"2021-03-25T04:26:56Z","Who has an #NFT priced at .01 ETH that they think is up my alley? I’m drunk and looking for ONE piece to add to my collection. I don’t have the ETH liquid right now but will exchange some of my smelly Bitcoin for it  #NFTartist #NFTs #NFTCollection",43,0
1374940835347714048,"2021-03-25T04:26:54Z",".@AlunaSocial's genesis Liquidity Mining pool will distribute 250,000 $ALN to ALN/ETH liquidity providers on #Uniswap over 12 weeks, starting at 12PM UTC on Thursday, March 25, 2021.  🚀New liquidity mining pools &amp; Distribution Farming coming soon‼️ https://t.co/ZFXVRfOq1i",8,0
1374940833552736257,"2021-03-25T04:26:54Z","@ryan17709825 @AlexjFerraro change eth for $AST and litecoin for $Coti and you will get x2 in less than 2 months. Remember me when that happens",0,0
1374940824241250305,"2021-03-25T04:26:52Z","and the equivalent is converted into eth and placed as a bid. These people would not have to learn about crypto or maintain a wallet to buy these items.   IMO the whole NFT thing becomes more mainstream this way, and creators get better prices.",0,0
1374940822878126085,"2021-03-25T04:26:51Z","I'm just thinking here but the bids on NFTs would increase if they were based on USD also.  Like pay in USD instead of eth and get the item.   People still have to learn about eth, nft, etc to get involved but what if they could just pay in usd",1,0
1374940807183015942,"2021-03-25T04:26:48Z","@NFTFix @PurpLeTariat Two unique 1/1 pieces from my GENESIS EDITION SERIES ‘HELLO NURSE’, are NOW AVAILABLE:  https://t.co/iP0dOQNsUP  The first piece in the series was collected by collector legend, 888.  #NFT #nftart #nftartist #nft #nftcollector #NFTcommunity #cryptoart #crypto #eth #ETH https://t.co/s7HPTBXJ5L",5,1
1374940801852002306,"2021-03-25T04:26:46Z","🔸 New Listing🔸   #BKEX will list #DRYCAKE @DryCakeSwap🚀 🚀  - Trading pair: DRYCAKE/USDT - Trading time: 20:00 on Mar 29 (UTC+8)  🔹 🔹 More details: https://t.co/kC2IIebfTT  #Bitcoin #ETH #BKK #Blockchain https://t.co/w8CHyKXaUD",2480,1
1374940794591805440,"2021-03-25T04:26:45Z","genuinediamonds.crypto (5 ETH) investinginpreciousmetals.crypto (5 ETH) digitisedgold.crypto (2.7 ETH) digitizedgold.crypto (2.1 ETH) digitizedpreciousmetals.crypto (2.1 ETH) investingingold.crypto (5 ETH) investinginplatinum.crypto (5 ETH) tokenisedplatinum.crypto ( 2.1 ETH) https://t.co/n74qOWyBdk",0,0
1374940787700506627,"2021-03-25T04:26:43Z","@prettyblocks Can't pay any bills in ETH.",1,0
1374940776648433666,"2021-03-25T04:26:40Z","💰💸Click Here to Purchase Tokens: https://t.co/oTkgLUUmGd    ETH Smart Contract: 0xB64288A2668631D8b0c7D40E5B4CA4b72c23D6D6  Starting price:  $0.03 🔥🔥LIMITED TIME OFFER. HURRY UP! 🔥🔥   🛑Disclaimer: Please buy BBND token only by sale address from https://t.co/oTkgLUUmGd",4706,0
1374940740128804865,"2021-03-25T04:26:32Z","Data from @CointelegraphMT  Pro &amp; @Tradingview showed $BTCUSD gaining 3.3% over several hours during Wed on news that #Tesla will accept, keep payments in #Bitcoin.  https://t.co/SDnX4rPG2K  @Cointelegraph #BTC #BITCOIN #ETH #Crypto #cryptocurrency https://t.co/JKH02ZeyfP",1,0
1374940717395640322,"2021-03-25T04:26:26Z","@sassal0x @icebergy_ legit asked a tech savvy fren to buy $eth two days ago  refused to because it was “$1700 a share...too expensive...not paying for it”  owns dogecoin.",4,0
1374940702942113793,"2021-03-25T04:26:23Z","RT @scoinaldo: Just in case you were wondering how much upside $BTC still has.  Same applies for $ETH and all tech stocks. https://t.co/3Y0…",213,0
1374940693827878919,"2021-03-25T04:26:21Z","Three major things need to happen  1. ETH transactions need to be cheaper than flying on Emirates 2. Macro needs to be less weak (lol cme) 3. 0326 options need to expire https://t.co/ly5RbPPUR6",2,0
1374940668108238848,"2021-03-25T04:26:15Z","#EOS (USDT) Hit all buy target good dip😍. Now hold this for mid-term 👍. Best of luck. Eos dropped from 4.3$😂.  $btc $eth $xrp $ada $bch $uni $dot $link $ltc $bnb $eos https://t.co/6tTV3YyhdA",3,0
1374940656070709255,"2021-03-25T04:26:12Z","#Bitcoin $BTC recovered above $56k on Mar 24 after a new Elon candle put a familiar spring in the step of bulls.  Report from @Cointelegraph   #BTC $BTC $ETH #ETH #ETHEREUM #DeFi #cryptocurrencies #CryptoNews https://t.co/iOcDEFA7xG",5,0
1374940627587108866,"2021-03-25T04:26:05Z","You missed the rise of Amazon, Facebook, Apple seriously will you miss the rise of @BinanceChain!  You missed the rise of Bitcoin, ETH, BNB, NEO seriously will you miss the rise of $BSCX. The coin was born in the bull market of 2020-2021 and will rise as the newest crypto-asset! https://t.co/gHx4QHBDOk",194,0
1374940619966189572,"2021-03-25T04:26:03Z","I'll have a good stream for y'all later.  Retweets appreciated ~  $BTC $ETH  SUBSCRIBE/CLICK BELL: https://t.co/UcTp7NOKSt https://t.co/QYY18rX1LE",30,0
1374940619332845568,"2021-03-25T04:26:03Z","Price in brackets: remoteworking.crypto (6 ETH) digitisedpreciousmetals.crypto (2.5 ETH) mortgage-finder.crypto (4 ETH) intelligent-investing.crypto (4 ETH) digitisedproperty.crypto (5 ETH) strategicinvestments.crypto (7 ETH) startupfunding.crypto (5 ETH) #crossborderpayments https://t.co/tYfoweVa2m",1,0
1374940619013951491,"2021-03-25T04:26:03Z","🌋#ATD #Giveaway is on now! @a2dao_ 🌋  10 lucky users will receive $30 each in #ATD ✨  1️⃣Login &amp; Participate ☀️ https://t.co/wrbe0JlJuK   2️⃣Retweet and @ a friend  #DeFi #crypto #ALTSEASON #ETH #NFT https://t.co/oq0O5RbPbj",307,0
1374940609593544704,"2021-03-25T04:26:01Z","https://t.co/Q0bFuSt2EA 🖼 $6300  #DomainName For Sale  #NFT #NFTART #NFTcollectibles #nftcollector #NFTCommunity #superrare #grif #shanegriffin #scifiart #conceptart #NFTartist #cryptoart #NFTcollectibles #NFTCommunity #animation #HandNFTart #digitalart #eth #blenderart #ART https://t.co/Nqvj2YLBEr",4,0
