"ID","created_at","text","like_count","rt_count"
1377863361031983105,"2021-04-02T05:59:59Z","For all these people cheering about #ETH at 2K: that is 1K less than 3K. Don't ask me to be cheerful yet.",0,0
1377863360310517762,"2021-04-02T05:59:59Z","DCT TOKEN Airdrop Medium Star Claim 1 DCT ($ 100) + 0.045 DCT ($ 10) for each referral you make.   Steps  💎  Join channel and group  💎  Follow twitter, like and retweet pinned message   💎  Submit eth wallet address (ERC-20) Participate now Airdrop link: https://t.co/L24stp8tVI https://t.co/CVYQyLAWwU",8623,8871
1377863351695417346,"2021-04-02T05:59:57Z","@RyanSAdams Technically it is more “hard” or sound in terms of inflation schedule.   Maxis have a hard time seeing utility and staking incentives of Eth.",0,0
1377863346918096900,"2021-04-02T05:59:56Z","Similar ones have gone for 5 eth to 50 eth. @rokymyson  @PpCrypto85  @hasan28d https://t.co/z93P2wZqv9",0,0
1377863338428936195,"2021-04-02T05:59:54Z","@Thecryptomist Lets hope $ETH breaks and holds $2k this weekend",1,0
1377863337380352002,"2021-04-02T05:59:53Z","Honestly looking at every Defi ecosystem with an open mind...  looking at BSC now and all I'm seeing is a literal copy of ETH that allows ppl to migrate over easily to basically a POS version of it.. even has metamask their wallet..  is that right?  🤷‍♂️",3,0
1377863333978677248,"2021-04-02T05:59:52Z","RT @SafeEarthETH: #SafeEarth is now listed on #Coinmarketcap   https://t.co/4blLjrcjpy  Give us a like to boost our mission 🌍  #eth #charit…",214,72
1377863329381769223,"2021-04-02T05:59:51Z","@RyanSAdams Eth is not sound money and never will be.",59,0
1377863326059786240,"2021-04-02T05:59:51Z","RT @FatihSK87: Investors don't care about stupid transactions costs. They see opportunities. There's literally a big gap between $BTC and $…",57,3
1377863323480391686,"2021-04-02T05:59:50Z","If #BTC breaks $69,420 in APRIL 2021 I’ll give a random person my R8  Super SIMPLE: Like ✔️ RT ✔️ Follow ✔️ @JBTheCryptoKing  Drop eth addy ✔️ https://t.co/0ZTkU9CUuI",7875,3934
1377863312105467908,"2021-04-02T05:59:47Z","🎁 Dropping some $ETH 🎈💵  Like &amp; RT. It will show up in your CCtip wallet.  ✅Join $BASE 💎 Telegram👇 https://t.co/tg0tLCDYyM   ___________________________ @cctip_com airdrop 0.01 ETH 99999 #Ethereum",264,222
1377863309437796355,"2021-04-02T05:59:47Z","If #BTC breaks $69,420 in APRIL 2021 I’ll give a random person my R8  Super SIMPLE: Like ✔️ RT ✔️ Follow ✔️ @JBTheCryptoKing  Drop eth addy ✔️ https://t.co/0ZTkU9CUuI",7875,3934
1377863299543359490,"2021-04-02T05:59:44Z","If #BTC breaks $69,420 in APRIL 2021 I’ll give a random person my R8  Super SIMPLE: Like ✔️ RT ✔️ Follow ✔️ @JBTheCryptoKing  Drop eth addy ✔️ https://t.co/0ZTkU9CUuI",7875,3934
1377863287572946945,"2021-04-02T05:59:41Z","$ETH            vs         $2,000     ( •_•)                          (•_• )     ( ง )ง                          ୧( ୧ )    /︶\                              /︶\",12645,1704
1377863273299595270,"2021-04-02T05:59:38Z","HAWT. With my partnership with @illuviumio I can give away 100 HOLOGRAPHIC Scoot Scarabok NFTs.  Similar ones have gone for 5 eth to 50 eth.  How to get -Post your ETH address + BATTLE SCOOT! below -Retweet/tag a friend -Follow @illuviumio and join their discord in bio https://t.co/xcCVVW6KdR",2755,2661
1377863268115443717,"2021-04-02T05:59:37Z","💧Twinci Airdrop 💧  🏆 Task:          ➕ $15 worth of  TRX                              ➕ $50 worth of TWIN  🔛 Airdrop Link &amp; Information: https://t.co/aV7t49dRDX  #cryptocurrency #Crypto #Bitcoin #Ethereum #ETH #Twinci #TWIN",1336,1777
1377863267192688641,"2021-04-02T05:59:37Z","If #BTC breaks $69,420 in APRIL 2021 I’ll give a random person my R8  Super SIMPLE: Like ✔️ RT ✔️ Follow ✔️ @JBTheCryptoKing  Drop eth addy ✔️ https://t.co/0ZTkU9CUuI",7875,3934
1377863246544302083,"2021-04-02T05:59:32Z","If #BTC breaks $69,420 in APRIL 2021 I’ll give a random person my R8  Super SIMPLE: Like ✔️ RT ✔️ Follow ✔️ @JBTheCryptoKing  Drop eth addy ✔️ https://t.co/0ZTkU9CUuI",7875,3934
1377863229477515266,"2021-04-02T05:59:28Z","@ki_young_ju If they are buying ETH, wowee",0,0
1377863223941033984,"2021-04-02T05:59:26Z","📢AIRDROP📢  Today I will airdrop 50k tokens of my new project $NOPE to the community.  1. Follow @Mr_Chonky 2. Like this tweet 3. Retweet 4. Comment your ETH address below 👇👇👇  to enter the airdrop. https://t.co/heMYCYzBnp",2234,1918
1377863217746219008,"2021-04-02T05:59:25Z","📢AIRDROP📢  Today I will airdrop 50k tokens of my new project $NOPE to the community.  1. Follow @Mr_Chonky 2. Like this tweet 3. Retweet 4. Comment your ETH address below 👇👇👇  to enter the airdrop. https://t.co/heMYCYzBnp",2234,1918
1377863206102650880,"2021-04-02T05:59:22Z","RT @ThisisNFTs: I have 1 ETH to giveaway to enter just RT this and follow me. I’ll pick one of you tomorrow.",517,518
1377863205448425475,"2021-04-02T05:59:22Z","$ETH            vs         $2,000     ( •_•)                          (•_• )     ( ง )ง                          ୧( ୧ )    /︶\                              /︶\",12645,1704
1377863200104931328,"2021-04-02T05:59:21Z","RT @tomuky: 🎯 $ETH to $5,000 within 50 days https://t.co/4aUmHx1OZS",1742,225
1377863191934406661,"2021-04-02T05:59:19Z","04/01/21 UPDATE: Net Assets Under Management, Holdings per Share, and Market Price per Share for our Investment Products.  Total AUM: $46.0 billion  $BTC $BCH $ETH $ETC $ZEN $LTC $XLM $ZEC $BAT $LINK $MANA $FIL $LPT https://t.co/8nBrnfmG9n",376,75
1377863191896723456,"2021-04-02T05:59:19Z","6/ No way to know who will win in crypto (e.g. L2s: @optimismPBC  vs @zksync vs @arbitrum )  Big players are spraying and praying and investing in everything.  Things are too complicated with too many moving pieces.  Will become much easier as soon as $ETH moves to POS.",0,0
1377863191078727682,"2021-04-02T05:59:18Z","@davidgokhshtein Is your 20k Eth still on the plate?",0,0
1377863189824737281,"2021-04-02T05:59:18Z","5/ Thinks diff blockchains can coexist with diff use cases ( $SOL, $DOT, $FLOW, etc.)  However, they do have a risk of falling behind like Netscape if they don't get momentum quick enough (i.e. before Eth 2.0 is fully released).  Isn't worried about $ETH becoming obsolete.",0,0
1377863187886915586,"2021-04-02T05:59:18Z","Win up to $300 worth of #Ethereum tokens #ETH every hour. https://t.co/d7J8WaJtQe",0,0
1377863183713628161,"2021-04-02T05:59:17Z","2/ $ETH is a better platform than $BTC.  Got really excited due to #NFTs and specifically the new royalty standard.  Thinks business and entertainment will be bigger for #NFTs than art and collectibles.  E.g. @dallasmavs resellable tickets as NFTs E.g. parametric insurance: $DIP",1,0
1377863181821939712,"2021-04-02T05:59:16Z","Join $BASE Telegram &amp; Get ready for powerweek: https://t.co/fnmggXK3Ur  ___________________________ @cctip_com airdrop 0.01 ETH 99999  $ETH $LINK $MANA $HOT $OGN $MTL $ERN",98,153
1377863167796109312,"2021-04-02T05:59:13Z","Vote for Ren’s Cross-Chain Asset Pool on @RariCapital.  Any of the following assets can be supplied and used as collateral to borrow any of the other assets in the pool: $renBTC / $renFIL / $ETH / $DAI / $USDC https://t.co/SO5mihAYZf",170,25
1377863160242257924,"2021-04-02T05:59:11Z","#Binance Adds New Trading Pairs:  🔸 $NAV/ $ETH @Navcoin  🔸 $RVN/ $TRY @Ravencoin  🔸 $THETA/ $EUR @Theta_Network  🔸 $XVG/ $BUSD @vergecurrency   https://t.co/uHjlEnLPAS",987,283
1377863144190705665,"2021-04-02T05:59:07Z","Win Degenasaur #042 #NFT worth ETH! --&gt; https://t.co/l37pUrR6Y3   1.) RT this tweet   2.) Follow @degenasaurus  3.) Comment + tag 3 friends  OPTIONAL extra chance to Win! -&gt; 4.) Join discord post username twitter comp: https://t.co/Ewmuzju2wL  4.) Win randomly Sat 3rd April! https://t.co/eyLZUL4bFz",305,274
1377863119813349377,"2021-04-02T05:59:01Z","Sold all my $ETH, $LINK, $ADA and aped in on $ZNN Feeling like an absolute Zenonchad.   Packing my bags now while it crabs around 20-25 bucks. Very optimistic about price action moving forward. Going to sit back, relax and enjoy the passive staking rewards. https://t.co/IRTOqgej7T",30,6
1377863102654472193,"2021-04-02T05:58:57Z","#XRTUSDT - another dip bought.  Ascending channel with a resistance that turned into support - $50. TP1 short-term, TP2 mid-term.  Huge opportunity of buying, if $XRT lands in the purple area (~$40).   Recently launched a robot that creates #NFTs.  $DOT &amp; $ETH enabled.  #Crypto https://t.co/VizWa2iTcw",11,6
1377863099496210432,"2021-04-02T05:58:57Z","What’s a non-fungible token (or NFT)? It’s a way to buy almost anything. Even a tweet.  So let’s try it out! Reply to this tweet with the best financial advice you’ve ever received, and we’ll buy our 3 favourite tweets for 1 ETH each (approx. ~$2100 CAD) via @Cent on Friday.",386,38
1377863097583431681,"2021-04-02T05:58:56Z","💧Twinci Airdrop 💧  🏆 Task:          ➕ $15 worth of  TRX                              ➕ $50 worth of TWIN  🔛 Airdrop Link &amp; Information: https://t.co/aV7t49dRDX  #cryptocurrency #Crypto #Bitcoin #Ethereum #ETH #Twinci #TWIN",1336,1777
1377863094966218754,"2021-04-02T05:58:55Z","If #BTC breaks $69,420 in APRIL 2021 I’ll give a random person my R8  Super SIMPLE: Like ✔️ RT ✔️ Follow ✔️ @JBTheCryptoKing  Drop eth addy ✔️ https://t.co/0ZTkU9CUuI",7875,3934
1377863092969861130,"2021-04-02T05:58:55Z","🟩 $BASE Will Moon So Hard 💎  Base Protocol will soon be doing a “Power Week” where they drop news every day.  👉 Hold a bag before it begin 😏 📈 My Target: Minimum 20x 🚀🌙  ___________________________ @cctip_com airdrop 0.01 ETH 99999 https://t.co/WPBJ9ZZp9k",155,213
1377863092957282305,"2021-04-02T05:58:55Z","Jang Ho-Ik bought for 1.137 ETH (2267.58$) by Superlyn65 on the primary market   Season: 2021-2022 Level: 0 Serial: 1/10 Price: 2267.58$  ⚽ Sorare: https://t.co/Ti47r999xh  📊: https://t.co/6SSAQM4OSX  #Sorare #NFT #Ethereum #FantasyFootball",0,0
1377863085285900289,"2021-04-02T05:58:53Z","April 4th  Stay tuned  #Utrust $UTK 💎 #CryptoPayments  #cryptocurrencies  #ecommerce   #BTC #ETH https://t.co/h4h7bxUW3Z",1,0
1377863083956133890,"2021-04-02T05:58:53Z",".@mcuban knows #ETH is money.   https://t.co/xzACxzzDTR https://t.co/se56jz073P",0,0
1377863079397109761,"2021-04-02T05:58:52Z","If #BTC breaks $69,420 in APRIL 2021 I’ll give a random person my R8  Super SIMPLE: Like ✔️ RT ✔️ Follow ✔️ @JBTheCryptoKing  Drop eth addy ✔️ https://t.co/0ZTkU9CUuI",7875,3934
1377863074191962114,"2021-04-02T05:58:51Z","RT @NFTsShoutout: I have 1 ETH to giveaway to enter just RT this and follow me. I’ll pick one of you tomorrow.",614,749
1377863063475486720,"2021-04-02T05:58:48Z","Ethereum.  I own a lot of Ethereum because I think it’s the closest to a true currency - Mark Cuban.  ETH and DeFi will be on fire in Q2 2021.",1883,232
1377863052155031552,"2021-04-02T05:58:45Z","@CryptoMichNL Do you think is this true about ETH? https://t.co/KgUdq5sM5V",3,0
1377863045163192320,"2021-04-02T05:58:44Z","RT @mar_kixa: Price analysis 3/31: BTC, ETH, BNB, ADA, DOT, XRP, UNI, THETA, LTC, LINK https://t.co/5VWBbraIDZ",27,18
1377863041979670531,"2021-04-02T05:58:43Z","👁#NFT SHILLS WELCOME!👁  We want to get eyes on some new emerging NFT artists! Share your #NFTs below and please retweet!♥️   #nftart #nftartist #nftcollector #nftcommunity #superrare #mintable #rarible #niftygateway #opensea #eth #ethereum #bitcoin #doge #decentraland #crypto",76,23
1377863037357592576,"2021-04-02T05:58:42Z","RT @NFTsShoutout: I have 1 ETH to giveaway to enter just RT this and follow me. I’ll pick one of you tomorrow.",614,749
1377863034190749699,"2021-04-02T05:58:41Z","If #BTC breaks $69,420 in APRIL 2021 I’ll give a random person my R8  Super SIMPLE: Like ✔️ RT ✔️ Follow ✔️ @JBTheCryptoKing  Drop eth addy ✔️ https://t.co/0ZTkU9CUuI",7875,3934
1377863017954742275,"2021-04-02T05:58:37Z","$10,000 $ETH is not my blow off top scenario number, that is my healthy, not overly exuberant number.  At $10k, $ETH is still worth less than Apple or Microsoft.  Call me crazy but I think a blow off top puts $ETH at a much higher market cap than a single stock. Maybe 20-30k.",609,61
1377863012212731905,"2021-04-02T05:58:36Z","#DOTUSDT Update:   If $BTC and $ETH are pumping, #DOT will do the same.  Hope you all loaded more $DOT in the 1st accumulation zone.  Heading to TP1, as I wrote 11 days ago &amp; TP2 mid-term.  More &amp; more projects are joining the #Polkadot environment.   #Trading #Binance #Crypto https://t.co/JEgFh8NPpQ",14,8
1377863003744403456,"2021-04-02T05:58:34Z","New CoinMarketCap Listing!  SafeNebula / $SNBL Price: 2.10460968783245 24h Volume: 212088.89220643 #crypto #gem #eth #defi  https://t.co/TRhhAM8z44",22,12
1377862999050948609,"2021-04-02T05:58:33Z","We have been planning this for a long time. And now the moment has come: @Joel_Mesot and I have switched seats. He will run @EPFL_en for one week, and I have the honor to direct @ETH_en, my alma mater. #ChangingPlaces https://t.co/ZWDdN1F55y",409,14
1377862998728056832,"2021-04-02T05:58:33Z","📣 #BCN1 Daily Digest 04/01/2021  📌 @TenseT_io developed Second-generation ETF  📌 @astronauttoken implemented KYC  📌 @Moma_Finance introduced Lending Pool  📌 @YIELDapp launced YLD_ETH SushiSwap Onsen Pool  📌 @saffronfinance_ Weekly Update https://t.co/rwhAuJNgyC",142,135
1377862986904317953,"2021-04-02T05:58:30Z","People still don't know what is coming. 🙈  $UNI has access to ~$400bn of liquidity via #ETH  $RUNE has access to ~$2trillion of liquidity via #BTC #ETH #BCH #LTC #BNB, with more coming ($DOGE,  $solana, $LUNA, etc).  Which one do you think will have the highest TVL and volume? https://t.co/f1nwyDdfCS",191,44
1377862978670714883,"2021-04-02T05:58:28Z","RT @ThisisNFTs: I have 1 ETH to giveaway to enter just RT this and follow me. I’ll pick one of you tomorrow.",517,518
1377862976191950849,"2021-04-02T05:58:27Z","#XRP #Crypto #DigitalTransformation #ETH #BitcoinAsset #DogecoinToTheMoon #Ripple #blockchain @bgarlinghouse @looP_rM311_7211 @bearableguy123  Ripples new partner, Tranglo, is better than moneygram.  https://t.co/661PZWbIax",1,1
1377862974984089601,"2021-04-02T05:58:27Z","$TRX is worth $0.25 as a *bare minimum* and if the burn continues at this rate, on to $0.5 and $1.10  TRX is the 4th most adopted blockchain and consistently processes far more transactions per day than ETH. Billions of dollars fly around on the network every single day:",67,19
1377862968549896194,"2021-04-02T05:58:25Z","Aye eth back at 2k",0,0
1377862965299453953,"2021-04-02T05:58:25Z","Etherium BNB CAKE  These Crypto should be in your wallet for the long run.  BTT mayb",0,0
1377862949843300354,"2021-04-02T05:58:21Z","RT @Cointelegraph: The season of all-time highs isn't over!  ETH breaks $2,000 https://t.co/inelNFX9wk",477,100
1377862942809411584,"2021-04-02T05:58:19Z","Don't be a fool this April 1st Get in on our...  🚀Pre-sale in April #giveaways! 🌟20 x (100 #POPO) (worth$100)random winners   ✅RT and like this Tweet ✅TAG 3 Friends ✅Comment with Link and #ETH Wallet address #POPO #Poplink 🚀🚀🚀 https://t.co/PZv72o1Mxx",1028,810
1377862938560753665,"2021-04-02T05:58:18Z","$YSEC announces @CxnNetwork launch (rebranded Coxena for #BSC)  @YearnSecure money is about to start rolling in. Stake $YSEC on their platform for a share of the 2.5% pool that gets paid out in $ETH!  The fact that $YSEC is launching BSC projects now is going to make it p-a-m-p https://t.co/OVgID9Hekr",10,2
1377862935733809158,"2021-04-02T05:58:17Z","RT @NFTsShoutout: I have 1 ETH to giveaway to enter just RT this and follow me. I’ll pick one of you tomorrow.",614,749
1377862935633092608,"2021-04-02T05:58:17Z","I have 154865 ETH. I'm a whale;  on Rinkeby.  So, you don't want to send me your NFTs.",3,0
1377862917102710786,"2021-04-02T05:58:13Z","If #BTC breaks $69,420 in APRIL 2021 I’ll give a random person my R8  Super SIMPLE: Like ✔️ RT ✔️ Follow ✔️ @JBTheCryptoKing  Drop eth addy ✔️ https://t.co/0ZTkU9CUuI",7875,3934
1377862898354118659,"2021-04-02T05:58:09Z","You want discover $kick universe ? Here the link 👇🏻of the futur European BINANCE !  $kicktoken #kick #kickex $kickex #BTC #Ethereum #BNB #cryptocurrency #Visa #Ethereum #Cardano #ARRR #KMD #AAVE #SNDL #MCL #XEP #BTC #ETH $whale #BCH #LTC #BNB #USD  https://t.co/LEnh8Xn9rn",11,5
1377862894906454017,"2021-04-02T05:58:08Z","Genesis Shards is a #decentralized ecosystem powered by #Polkadot redefining #NFTs as #DeFi options, creating liquidity for pre-IDO tokens.  @GenShards is the first-ever project to launch a dual IDO on @polkastarter #ETH &amp; #BSC.  Big players-backed.  Upcoming $GS, don't miss it! https://t.co/BGaaHUOLTj",12,7
1377862881425952768,"2021-04-02T05:58:05Z","@CoinbaseSupport Timely for this to happen. $BTC and $ETH on verge of $60k and $2k breaks respectively.",14,0
1377862875629387776,"2021-04-02T05:58:03Z","Delighted to see that a mysterious crypto_signer has reclaimed the top bid position @ 1.25 Eth with just under 6 hours left on the auction clock. #art #myart #myartwork #coolart #funart #abstractart #makearteveryday #artsy #experimentalart #visualart  https://t.co/y6AuWdiILi",7,5
1377862871338520580,"2021-04-02T05:58:02Z","$ETH            vs         $2,000     ( •_•)                          (•_• )     ( ง )ง                          ୧( ୧ )    /︶\                              /︶\",12645,1704
1377862869144985601,"2021-04-02T05:58:02Z","RT @sassal0x: $ETH is now 20% of the way to $10,000.",1477,132
1377862868398264323,"2021-04-02T05:58:01Z","@APompliano @SequencetheSE Perhaps some talented Adobe Premiere user could add the appropriate #IOTA #BTC and #ETH crypto logos to this clip and we'll RT it around the cryptoverse.  Shoot 'em in the DAG.",18,3
1377862867345637376,"2021-04-02T05:58:01Z","GIVEAWAY TIME! We're doing 3 sets of giveaways on Twitter, Instagram, and Discord!   First up, we're giving away ETH Waifu #5189! Simply follow and retweet this tweet to enter, and winners will be announced in 5 days. (Sorry for repost!) https://t.co/Mqmlsz07Aw",75,100
1377862860517339136,"2021-04-02T05:58:00Z","If #BTC breaks $69,420 in APRIL 2021 I’ll give a random person my R8  Super SIMPLE: Like ✔️ RT ✔️ Follow ✔️ @JBTheCryptoKing  Drop eth addy ✔️ https://t.co/0ZTkU9CUuI",7875,3934
1377862859212779520,"2021-04-02T05:57:59Z","RT @Knutti_ETH: Source:  Anthropogenic climate change has slowed global agricultural productivity growth  https://t.co/NrOwXsHMT1",32,8
1377862854762668037,"2021-04-02T05:57:58Z","1559 is my new favorite number.  $eth takes out 20k it will head to 40k.   It’s almost worth a tattoo.   😂.    Wish it would look better.   Maybe someone should just get a vanity license plate for their $ETH Ferrari.",1008,94
1377862850719346694,"2021-04-02T05:57:57Z","To those who think warmer temperatures and more CO2 is good for plants:  Climate change slowed global agricultural productivity growth by ~21% since 1961. That is equivalent of losing about seven years of farm productivity.  https://t.co/RlLAQZ9ci9",220,111
1377862849826058241,"2021-04-02T05:57:57Z","@russian_market I've been trading $LPOOL / $ETH on $UNI platform and that's fun https://t.co/Gp1HRjVkiP",1,0
1377862849205313536,"2021-04-02T05:57:57Z","RT @TheCryptoCactus: New ATH for $ETH is imminent",738,43
1377862845921132544,"2021-04-02T05:57:56Z","To those who think warmer temperatures and more CO2 is good for plants:  Climate change slowed global agricultural productivity growth by ~21% since 1961. That is equivalent of losing about seven years of farm productivity.  https://t.co/RlLAQZ9ci9",220,111
1377862836374827016,"2021-04-02T05:57:54Z","@mysavagedogs Oh man. How much ETH do I need to put into my account 🙃",1,0
1377862825423560707,"2021-04-02T05:57:51Z","RT @girlgone_crypto: 60k #bitcoin and 2k $ETH 🔥",2175,221
1377862823125020672,"2021-04-02T05:57:51Z","💧Twinci Airdrop 💧  🏆 Task:          ➕ $15 worth of  TRX                              ➕ $50 worth of TWIN  🔛 Airdrop Link &amp; Information: https://t.co/aV7t49dRDX  #cryptocurrency #Crypto #Bitcoin #Ethereum #ETH #Twinci #TWIN",1336,1777
1377862808172306435,"2021-04-02T05:57:47Z","@ecomi_ My exchange had been going on for ten hours and still no agreement had been reached. Now ETH is not crowded. Is this a mistake? I see all other transactions going on normally. Did the system forget me? Is there a technician to help me?",0,0
1377862798651355137,"2021-04-02T05:57:45Z","RT @AlphaLemonade: &gt;50% APY to long ETH 1.5x in the $FLI LP pool 👀 https://t.co/Vba98roLJ7",57,4
1377862790388535297,"2021-04-02T05:57:43Z","RT @jackbutcher: Reply🪙 &amp; RT to scratch.  (Winner will need an ETH wallet) https://t.co/A47BDcJpVd",651,836
1377862776224382979,"2021-04-02T05:57:39Z","been playing w/ fUSDT, doing a lot of transfers between FTM, BSC, ETH networks  Not shilling, fUSDT aint gonna pump, just love the tech and that @Tether_to, which has been multichain from start, continues to build in the area  @danielesesta over there especially doing great work https://t.co/Vwti8uX2l6",27,5
1377862775872061440,"2021-04-02T05:57:39Z","RT @sassal0x: I just sold all of my $ETH for $BTC",1919,85
1377862768053870593,"2021-04-02T05:57:38Z","RT @PeterLBrandt: There is no better day of the year to announce that I am going 10X my entire net worth into $ETH https://t.co/E3SSVQxDvE",1519,115
1377862766891966468,"2021-04-02T05:57:37Z","RT @girlgone_crypto: 60k #bitcoin and 2k $ETH 🔥",2175,221
1377862766275477508,"2021-04-02T05:57:37Z","This one is personal...dropped it RAW, as is. #withFND @rariblecom @opensea #NFTcollectibles #nftart #NFTartist #ETH #blockchain #Crypto #cryptoartist  https://t.co/xW14cwuoMD",34,13
1377862753466118145,"2021-04-02T05:57:34Z","Crypto update: #Bitcoin 59574.90 +1.22% #Ether 1991.44 +1.09% #BitcoinCash 557.69 +0.82% #EOS 5.5376 -0.2% #Stellar 0.4441 +5.14% #Litecoin 204.97 +1.86% #NEO 53.726 +1.43% #Crypto 10 Index 17196 +2.02% #BTC #ETH #BCH #XLM #LTC",17,5
1377862748952911873,"2021-04-02T05:57:33Z","@astrojungle @justinsuntron So what’s the cost to use Eth to pay for this ? Tron it would be just cents",6,0
1377862740291641344,"2021-04-02T05:57:31Z","Happy Day of the Rake $link $eth $BTC $NFT #NFT #MEMES #raredigitalart #canada #LegalizeIt  https://t.co/XGuFWcMLF2",0,0
1377862735535304708,"2021-04-02T05:57:30Z","RT @Wangarian1: Young, dumb and longing $ETH",604,38
1377862731517284354,"2021-04-02T05:57:29Z","@degenasaurus @DEFIBUZZ @AJColores @HodlPepesNFT @SCryptobroski @CryptoDragoons @Ninjaselo @realsmokinggod @cryptoyla My #ETH 0xCeE121Cac94cbB5B7566D8E4911a99E9FDBBe3D2  @AlexGarlic @coinairdropSK @DogecoinBeggar   I could really use this #NFT to finally round out my portfolio.",0,0
1377862724160380932,"2021-04-02T05:57:27Z","@CNBC @CNBCMakeIt Epic 4D chess big brain move. Does he take ETH for a box at his basketball games?",0,0
