"ID","created_at","text","like_count","rt_count"
1376662951772491784,"2021-03-29T22:29:59Z","Dear investors !   #tacoswap is on 🔥 $ 5 million staked !  It’s just the begining !  What are you waiting for to have your taco and join the adventure!  #tacotothemoon #tacotoken🌶 #defi #cryptocurrency #BinanceSmartChain #eth #btc #tacoswap @exeedme @poolz__ @bepronet",1172,0
1376662932520583168,"2021-03-29T22:29:54Z","@MichaelRMcD @rogerkver @federalreserve Please donate a little if possible we are in a very difficult situation  BTC 32iG1ivS3kBuBkGmHjv3Tx7p34Fp4yVyM7  ETH 0x5ea31cdcc432def363fa6f747ba7c0c097b5de08",0,0
1376662927986528261,"2021-03-29T22:29:53Z","OMG 😱  Day 1 on CMC   TacoToken🌶  is Top pair on #coinmarketcap    #tacoswaptothemoon #cryptocurrencies #tacoswaptomars #defi #eth #ADA #ethereum #crypto @bepronet @Poolz__ @Xed",1180,0
1376662923549028353,"2021-03-29T22:29:52Z","Welcome to massive Q DAO airdrop!   1. go now to telegram https://t.co/COyXgODY1z   2. Stay in telegram chat and wait announcement.  3. HOLD this gem until 10x   (soon - QDAO launch cross-chain for BSC, Polkadot and ETH)",4254,0
1376662919354572800,"2021-03-29T22:29:51Z","Innovative automated World-class crypto trading bot platform https://t.co/ElNRyGOLL6 #btc #bitcoin #usd # #암호화폐 #암호화폐거래소 #투자 #재테크 #금융 #비트코인 #bitcoin #btc #이더리움 #ethereum #eth #crypto #cryptocurrency #gate #gateio #gatekr #gatechain",0,0
1376662916703850499,"2021-03-29T22:29:51Z","You don't want to miss it @Falcon_Swap $fsw  #ETH #Ethereum  #ATH #BTC https://t.co/hZobIuwsbE",4,1
1376662911544741888,"2021-03-29T22:29:49Z","So I moved a ton of my huge ETH holding to SPI...SPI is up 50%  What dumb luck. Gotta give some back.   Let's give away a mooncat (valued at $1000) AND $500 in SPI.  Post your eth wallet below with MEOWTH THATS RIGHT...  Tagging/rewteeting is appreciated https://t.co/VDXboLlmP0",1918,1
1376662906868269059,"2021-03-29T22:29:48Z","@mickalamasse1 @bepronet @Poolz__ @xed God !!!  OMG 😱  Day 1 on CMC   TacoToken🌶  is Top pair on #coinmarketcap    #tacoswaptothemoon #cryptocurrencies #tacoswaptomars #defi #eth #ADA #ethereum #crypto @bepronet @Poolz__ @Xed",54,1
1376662881656320004,"2021-03-29T22:29:42Z","RT @GrandmaInvestor: Mega bullish on $Kin. Biggest alt coin holding outside of #ltc #eth for me https://t.co/1FD7h8hHBE",37,1
1376662879458369536,"2021-03-29T22:29:42Z","BUNNEH’s #NFT is a #MentalHealth initiative we created!  Please get involved!! All funds from #BUNNEHs #NFT are being used to fund Mental Health Therapy for a loved one! Contribute to a fantastic cause https://t.co/pDr0GrcdGn  All NFT starting 0.005 $ETH @coinkit_ mon 25 1000 BTC",171,1
1376662872353280007,"2021-03-29T22:29:40Z","@left_going @rogerkver @dannyhappydayz @federalreserve Please donate a little if possible we are in a very difficult situation  BTC 32iG1ivS3kBuBkGmHjv3Tx7p34Fp4yVyM7  ETH 0x5ea31cdcc432def363fa6f747ba7c0c097b5de08",0,0
1376662871816474629,"2021-03-29T22:29:40Z","@ManuellOffy @OgbeniDipo @EquilibriumDeFi What's the percentage of their APY?  And is it on binance smart chain or etherium network?",0,0
1376662866984591371,"2021-03-29T22:29:39Z","RT @Ididntdoitcat: Good thing for $ren. Good think for $luna. Great for $eth https://t.co/ZxPHTgPhF3",3,0
1376662862349885443,"2021-03-29T22:29:38Z","Why should journey of $HOT end up with TOP 10 of the market?  No mining No fee Instant transaction  #Holochain is not #blockchain. It has superior tech compared to $BTC $ETH $DOT.  Think outside the blocks! https://t.co/JLcOEb3xxX",599,0
1376662861800439808,"2021-03-29T22:29:38Z","🐱NCAT Audit is Complete!🐱  BSC Gemz (@bscgemz) has successfully completed our audit of NCAT and the results can be found here: https://t.co/k7Ci2wATpP  Thanks, everyone!  $btc $eth $ada $ltc $ncat",52,0
1376662856553394177,"2021-03-29T22:29:36Z","RT @DigitalDoucheB: Show me your #NFTs!➡️  I’ll be buying them all day!🔥  #nftcollector #NFTcollectibles #nftartists #eth #NFTs",340,0
1376662839050563589,"2021-03-29T22:29:32Z","30 day EVIX: 86.6147 ETH/USD vwap: $1,811.17 04/16 expiry volume: $1,626,157.82 04/30 expiry volume: $6,350,988.91 Current time: 22:29:06",0,0
1376662830762622980,"2021-03-29T22:29:30Z","RT @RonnyRoehrig: @WhaleTrades @AlexjFerraro Wow. Let’s Go $eth",5,0
1376662824508911625,"2021-03-29T22:29:29Z","🔥HOT🔥 - $100 in Cryptocurrency | Giveaway!  To win: ✔ Follow us &amp; @MatrixAINetwork ✔ Tag a friend ✔ Retweet ✔ Join: https://t.co/R9H48O8Tq3 Thats it! Good luck! 💖 Rolling in 24 hours!  #goodvibes #goodluck #giveaway #bitcoin #Giveaways  #cryptocurrency #eth #btc #BSC #TRON https://t.co/0Eju3gcguv",306,0
1376662823984594945,"2021-03-29T22:29:29Z","@mickalamasse1 @bepronet @Poolz__ @xed #tacotoken 🌶 #tacoswap #tacoswaptothemoon 🚀🚀 #BTC #DeFi #Ethereum #ETH  @bepronet @Poolz__ @Exeedme @SushiSwap @Uniswap @PancakeSwap Come on guys !!! 🚀🚀🚀🚀🔥🔥 Welcome on Tacoswap 🚀🌶🚀🌶🔥🔥",41,0
1376662818108362752,"2021-03-29T22:29:27Z","@mickalamasse1 @bepronet @Poolz__ @xed #tacotoken 🌶 #tacoswap #tacoswaptothemoon 🚀🚀 #BTC #DeFi #Ethereum #ETH  @bepronet @Poolz__ @Exeedme @SushiSwap @Uniswap @PancakeSwap Come on guys !!! 🚀🚀🚀🚀🔥🔥 Welcome on Tacoswap 🚀🌶🚀🌶🔥🔥",41,0
1376662814241271811,"2021-03-29T22:29:26Z","🛹💔  #NFT including physical print  $ETH .35  #cryptoart #nftart #nftcollector  https://t.co/POxBe5AtoS",3,0
1376662813901520898,"2021-03-29T22:29:26Z","Save your ETH by paying gas in stablecoins with @biconomy Forward! Try testnet for https://t.co/AMiWUH1pJ6 now.” 0x5155684820ea801d3DC5f3f9C7BB01CF6A80C4Ca https://t.co/DgFgNuYU2J",0,0
1376662808734076929,"2021-03-29T22:29:25Z","@mickalamasse1 @bepronet @Poolz__ @xed Guys, let’s go to top1 pair trending on #coinmarketcap   #tacoswaptothemoon #tacotoken🌶#tacoswap #tacotothemoon #cryptocurrencies #tacoswaptomars #defi #eth #ADA #ethereum #crypto #sushiswap #uniswap @bepronet @Poolz__ @Xed @SushiSwap @Uniswap",24,0
1376662798214647811,"2021-03-29T22:29:22Z","I have $eth but I want MOAR",0,0
1376662774722478080,"2021-03-29T22:29:17Z","@rogerkver @federalreserve Please donate a little if possible we are in a very difficult situation  BTC 32iG1ivS3kBuBkGmHjv3Tx7p34Fp4yVyM7  ETH 0x5ea31cdcc432def363fa6f747ba7c0c097b5de08",0,0
1376662767390822406,"2021-03-29T22:29:15Z","@AlphaMonad @RyanSAdams Plus I didn’t say anywhere about an ETH killer. These chains will continue to  co-exist as they do now. It’s why I said “as well” but it’s a fact that USDC also runs on $ALGO &amp; $SOL - even the statement from Visa says they’re going to work with others. Try to read nxt time. 🤡",2,0
1376662744410288130,"2021-03-29T22:29:10Z","You don't need: - A bridge network - On demand liquidity - Messaging layer - Software licenses - Mercenary partnerships - $10B treasury &amp; ongoing fundraising - A new token in each Tx - Bankers &amp; IMF - SEC lawsuit  You just need @ethereum.  Simple. Superior. 🌐🔐📡 $ETH $USDC $V https://t.co/acAp2b74ib",1230,0
1376662733127573504,"2021-03-29T22:29:07Z","@anat3btt @laviroses hi eth I looked at ur dp and almost lost my shit again how was ur day queen",0,0
1376662732674531329,"2021-03-29T22:29:07Z","Welcome to massive Q DAO airdrop!   1. go now to telegram https://t.co/COyXgODY1z   2. Stay in telegram chat and wait announcement.  3. HOLD this gem until 10x   (soon - QDAO launch cross-chain for BSC, Polkadot and ETH)",4254,0
1376662712982331392,"2021-03-29T22:29:02Z","Dear investors !   #tacoswap is on 🔥 $ 5 million staked !  It’s just the begining !  What are you waiting for to have your taco and join the adventure!  #tacotothemoon #tacotoken🌶 #defi #cryptocurrency #BinanceSmartChain #eth #btc #tacoswap @exeedme @poolz__ @bepronet https://t.co/MxA8ecUQB8",32,0
1376662711648579585,"2021-03-29T22:29:02Z","@rogerkver @AnypayX @BitPay @eligmacom Please donate a little if possible we are in a very difficult situation  BTC 32iG1ivS3kBuBkGmHjv3Tx7p34Fp4yVyM7  ETH 0x5ea31cdcc432def363fa6f747ba7c0c097b5de08",0,0
1376662711568719876,"2021-03-29T22:29:02Z","Remember when @quant_network was selected as Company Guarantors to Pay UK alongside..  ◽️ Santander ◽️ Revolut ◽️ Societe Generale ◽️ Starling Bank  I do 😏  $QNT $BTC $ETH https://t.co/fsJLMEVVVQ",175,0
1376662709698109442,"2021-03-29T22:29:01Z","The good thing about @dypfinance Anti-Manipulation system is that it prevents the Liquidity providers to Sell $DYP instead they are earning $ETH as staking rewards 🧠  #DYP #ETH #Ethereum #SmartContract #DeFi https://t.co/yt6C9Vehln",1905,0
1376662688852549633,"2021-03-29T22:28:56Z","Not sure what this will mean in terms of practical consumer products but it does support my thesis that the #Ethereum blockchain (not necessarily the ETH token) will eat the world. https://t.co/dmDgApLPGQ",1,0
1376662684108795908,"2021-03-29T22:28:55Z","So I moved a ton of my huge ETH holding to SPI...SPI is up 50%  What dumb luck. Gotta give some back.   Let's give away a mooncat (valued at $1000) AND $500 in SPI.  Post your eth wallet below with MEOWTH THATS RIGHT...  Tagging/rewteeting is appreciated https://t.co/VDXboLlmP0",1918,0
1376662663711793152,"2021-03-29T22:28:50Z","@cryptodotg Use USDC chain swap where there is no fee to convert ETH to XLM, njoy it....",0,0
1376662662751248386,"2021-03-29T22:28:50Z","RT @RyanSAdams: Smart money buying ETH.",951,0
1376662662713516033,"2021-03-29T22:28:50Z","RT @CryptocatsLive: Cat #78 just sold for 3.9 ETH (0X19) From: 0xedc To: 0x7f1 #Cryptocats #NFT #Ethereum The Punk Cat team unites ! https:…",5,0
1376662656891904001,"2021-03-29T22:28:49Z","RT @TheCryptoCactus: $ETH is undervalued everyday it’s below $10,000 and everyone knows it!",1289,0
1376662654643798016,"2021-03-29T22:28:48Z","Did you know you will be able to deploy a Wordpress website in minutes on the StackOS decentralized cloud protocol?   Resulting in a more secure, anonymous and easy to scale environment compared to centralized clouds.  Early access: https://t.co/7D4M0yfDAm  #Wordpress $ETH $BNB https://t.co/qE51lXZCx4",14,0
1376662652248682501,"2021-03-29T22:28:48Z","Checkout my first #NFT drop at @opensea. https://t.co/tlM8HEnyw3 . #nft#nftart#nonfungibletokens#cryptocurrency#crypto#opensea#ethereum#eth#blender#blender3d#3dart#digitalart#collectibles#figure#figurine https://t.co/y67tQ4t64K",4,0
1376662649275039749,"2021-03-29T22:28:47Z","OMG 😱  Day 1 on CMC   TacoToken🌶  is Top pair on #coinmarketcap    #tacoswaptothemoon #cryptocurrencies #tacoswaptomars #defi #eth #ADA #ethereum #crypto @bepronet @Poolz__ @Xed",1180,0
1376662640777367554,"2021-03-29T22:28:45Z","OMG 😱  Day 1 on CMC   TacoToken🌶  is Top pair on #coinmarketcap    #tacoswaptothemoon #cryptocurrencies #tacoswaptomars #defi #eth #ADA #ethereum #crypto @bepronet @Poolz__ @Xed",1180,0
1376662638818627588,"2021-03-29T22:28:44Z","Good bye old friends, $BTC $ETH $REN $WAN $LINK $AAVE $ALGO $UTK https://t.co/zl0SOYNLsK",1,0
1376662632468508673,"2021-03-29T22:28:43Z","@JmcArtmod @scoinaldo @MoonrockCapital @Morningstar_vc 4 ETH is the lowest price in the screen, so that’s 15 000 USDC for the highest. But you’re right, the dot is used normally for decimals",1,0
1376662621630427148,"2021-03-29T22:28:40Z","@Crypt0RyanBLKCN @TheCryptoLark Kraken..i just convert Eth or stable coin to DOT and KSM",3,0
1376662608783286275,"2021-03-29T22:28:37Z","@mickalamasse1 @bepronet @Poolz__ @xed God !!!  OMG 😱  Day 1 on CMC   TacoToken🌶  is Top pair on #coinmarketcap    #tacoswaptothemoon #cryptocurrencies #tacoswaptomars #defi #eth #ADA #ethereum #crypto @bepronet @Poolz__ @Xed",54,0
1376662597554987010,"2021-03-29T22:28:35Z","@DigitalDoucheB 🔵🟣🟡⚫️ 210327 - A Soft Haze On The Edge by LaineButler  1 of 3 • Now Available for Ξ 0.24  🔥 Genesis edition 🔥  https://t.co/fqk7HfD68F  @KnownOrigin_io  Art by @laine_butler  #cryptoart #NFT #cryptoartist #ETH",2,0
1376662585324408833,"2021-03-29T22:28:32Z","@Jordan_Fuchs @alenaxbt I will put my life savings into $ETH in honor of @alenaxbt if this happens",3,0
1376662572833808384,"2021-03-29T22:28:29Z","RT @chainlinkace: 🏆Drop your $ETH address here🏆",937,0
1376662569717538822,"2021-03-29T22:28:28Z","searching for love   now sitting at 2 ETH --   a self portrait that has an original song that i made over It -it describes a time in my life where i was losing many friends from a lot of situations.   the collector will receive a 1/1 vinyl record that includes unreleased songs https://t.co/uPjGqYEAlX",184,0
1376662564419997696,"2021-03-29T22:28:27Z","Strongly recommend checking the group telegram, strong future value with a well oiled group open to any and all prospects with the right information, give it a look at the very least 🤝 $eth $bsc $btc https://t.co/vw8d7c6mHq",0,0
1376662557885337600,"2021-03-29T22:28:25Z","Patric bought for 0.25 ETH (452.07$) by Keval5000 on the primary market   Season: 2020-2021 Level: 0 Serial: 65/100 Price: 452.07$  ⚽ Sorare: https://t.co/8Pa1CYBLbb  📊: https://t.co/2sQE6dwDWX  #Sorare #NFT #Ethereum #FantasyFootball",1,0
1376662553959469062,"2021-03-29T22:28:24Z","Look what i found ! A bullish pattern in the $coti / $btc chart,i think COTI will visit again the 1050 sats !!! Follow me for more free signals 👍  $btc $crv $dent $sxp $ada $btt $lsk $eos $grt $eth $reef $iost $utk $link $matic  $zil $vet $hot $npxs $aion https://t.co/O3b4jb0PQh",1,1
1376662543037562884,"2021-03-29T22:28:22Z","Buy #ONT/USDT In accumulation zone👀Breakout will be very massive🧨 $ont $ren $btc $eth $ada $xrp $doge $cake $dot $lit $ksm $pond $hot $btt $juld $bnb $uni $ltc $link $xlm $luna $vet $sol $atom $aave $xmr $xtz $neo $hbar $ht $sushi $dash $matic $mkr $rvn $mana $sc $ankr $flow https://t.co/2VbbSEllnB",3,0
1376662541502345217,"2021-03-29T22:28:21Z","I'll send $300 in #ETH or #BTC to one person who retweets this and follows @bud_crypto. Must complete these tasks:  1 - Like/RT his pinned tweet  2 - Must RETWEET &amp; LIKE 4 of his tweets  Ends in 72 hours!",1206,0
1376662541175291904,"2021-03-29T22:28:21Z","So I moved a ton of my huge ETH holding to SPI...SPI is up 50%  What dumb luck. Gotta give some back.   Let's give away a mooncat (valued at $1000) AND $500 in SPI.  Post your eth wallet below with MEOWTH THATS RIGHT...  Tagging/rewteeting is appreciated https://t.co/VDXboLlmP0",1918,0
1376662539094777856,"2021-03-29T22:28:21Z","RT @linkchainlink: Visa is now an $ETH sidechain powered by $LINK.  Think about that for a min.",584,0
1376662537194901508,"2021-03-29T22:28:20Z","So I moved a ton of my huge ETH holding to SPI...SPI is up 50%  What dumb luck. Gotta give some back.   Let's give away a mooncat (valued at $1000) AND $500 in SPI.  Post your eth wallet below with MEOWTH THATS RIGHT...  Tagging/rewteeting is appreciated https://t.co/VDXboLlmP0",1918,0
1376662532144967681,"2021-03-29T22:28:19Z","Dear investors !   #tacoswap is on 🔥 $ 5 million staked !  It’s just the begining !  What are you waiting for to have your taco and join the adventure!  #tacotothemoon #tacotoken🌶 #defi #cryptocurrency #BinanceSmartChain #eth #btc #tacoswap @exeedme @poolz__ @bepronet",48,0
1376662531335413760,"2021-03-29T22:28:19Z","🔮BID ALERTTT! 🔮 New BID from @Beldrueger at 0.222 ETH! This is unreal!! Who is getting the first access to Dino's World? @Beldrueger @ubbe_ensling   Once again thank you!! So Excited!",0,0
1376662514000351232,"2021-03-29T22:28:15Z","#NFTCommunity lets show the Collectors something today 🙌🏼  Drop you best deal below - only nfts under 0.5 ETH 🔥  We will rt out favourites as always 🚀  Rt this post and we will follow you back 💯  Letsss goo guys ✨  #nft #nfts #nftcollector #nftcollectors #nftcollectible",186,0
1376662508069658625,"2021-03-29T22:28:13Z","OMG 😱  Day 1 on CMC   TacoToken🌶  is Top pair on #coinmarketcap    #tacoswaptothemoon #cryptocurrencies #tacoswaptomars #defi #eth #ADA #ethereum #crypto @bepronet @Poolz__ @Xed",1180,0
1376662502445084672,"2021-03-29T22:28:12Z","PRICE DROP TO .05 ETH LAST TIME I'LL EVER PUT PRICES SO LOW!   PLEASE RETWEET IF YOU LIKE MY WORK. THANK YOU. #NFTs #nftcollector #nftart #cryptoart #CryptoNews #cryptocurrencies https://t.co/hhezSe5syz",14,7
1376662497961328642,"2021-03-29T22:28:11Z","🚨 The Doomed sold for 4 #ETH ($7,267.92 USD) 🚨    #KnownOrigin #NFT #cryptoart   https://t.co/VHXzriIXro",0,0
1376662495264452608,"2021-03-29T22:28:10Z","You don't need: - A bridge network - On demand liquidity - Messaging layer - Software licenses - Mercenary partnerships - $10B treasury &amp; ongoing fundraising - A new token in each Tx - Bankers &amp; IMF - SEC lawsuit  You just need @ethereum.  Simple. Superior. 🌐🔐📡 $ETH $USDC $V https://t.co/acAp2b74ib",1230,0
1376662492085116929,"2021-03-29T22:28:09Z","RT @MasksPoly: 🚨 New Drop 🚨 3D Poly Mask This time! Today EST time 15:00 - Only 0.6 Eth!  Monday be like: https://t.co/igySBVRIZI https://t…",11,0
1376662487823683586,"2021-03-29T22:28:08Z","So I moved a ton of my huge ETH holding to SPI...SPI is up 50%  What dumb luck. Gotta give some back.   Let's give away a mooncat (valued at $1000) AND $500 in SPI.  Post your eth wallet below with MEOWTH THATS RIGHT...  Tagging/rewteeting is appreciated https://t.co/VDXboLlmP0",1918,0
1376662484195622912,"2021-03-29T22:28:08Z","The $POODL army eating dips be like #HOODLTHEPOODL   By @tomars369 on https://t.co/zohsLvOusn!  $DOGE #SAFEMOON #DOGE #DOGECOIN $HOGE #HOGECOIN #POODL #BTC #ETH #CRYPTO https://t.co/ZkqoUBE3Pw",216,0
1376662475907731457,"2021-03-29T22:28:06Z","RT @linkchainlink: Visa is now an $ETH sidechain powered by $LINK.  Think about that for a min.",584,0
1376662470132125702,"2021-03-29T22:28:04Z","OMG 😱  Day 1 on CMC   TacoToken🌶  is Top pair on #coinmarketcap    #tacoswaptothemoon #cryptocurrencies #tacoswaptomars #defi #eth #ADA #ethereum #crypto @bepronet @Poolz__ @Xed",1180,0
1376662467519115272,"2021-03-29T22:28:04Z","🏆 Follow us &amp; Retweet this tweet, Specify the ETH address in the tweet comment to get 10 #BIT ($10 worth) or 50 #BIT ($50 worth) #BitScores Airdrop Tokens! 🎁 $250,000 Prize Pool Full rules: https://t.co/N53M5nRXr9  #giveaway #airdrops #bounty #giveaways #defi #eth #btc #airdrop https://t.co/m77hDtRsBv",3577,0
1376662465505804294,"2021-03-29T22:28:03Z","🚀The Doomed🚀 SOLD for 4.0 ETH on OpenSea! Great buy but they would have been better waiting for the @jurassicasylum drop  Check out the transaction: https://t.co/loI366Ybiz #JurassicAsylum #NFT #NFTartist #cryptoart #NFTCommunity https://t.co/iWojxm8SeR",1,0
1376662461852553222,"2021-03-29T22:28:02Z","@mickalamasse1 @bepronet @Poolz__ @xed Day 1 on CMC : #TacoToken🌶is Top pair on #coinmarketcap 🌶️🌶️🌶️ 🔥🔥🔥 Don't miss it guys ! :) #tacoswaptothemoon #cryptocurrencies #tacoswaptomars #defi #eth #ADA #ethereum #crypto @bepronet @Poolz__  @Xed @henni_mo",41,0
1376662456152559618,"2021-03-29T22:28:01Z","OMG 😱  Day 1 on CMC   TacoToken🌶  is Top pair on #coinmarketcap    #tacoswaptothemoon #cryptocurrencies #tacoswaptomars #defi #eth #ADA #ethereum #crypto @bepronet @Poolz__ @Xed",1180,0
1376662455317901317,"2021-03-29T22:28:01Z","So I moved a ton of my huge ETH holding to SPI...SPI is up 50%  What dumb luck. Gotta give some back.   Let's give away a mooncat (valued at $1000) AND $500 in SPI.  Post your eth wallet below with MEOWTH THATS RIGHT...  Tagging/rewteeting is appreciated https://t.co/VDXboLlmP0",1918,0
1376662450049855490,"2021-03-29T22:27:59Z","OMG 😱  Day 1 on CMC   TacoToken🌶  is Top pair on #coinmarketcap    #tacoswaptothemoon #cryptocurrencies #tacoswaptomars #defi #eth #ADA #ethereum #crypto @bepronet @Poolz__ @Xed",1180,0
1376662447927521285,"2021-03-29T22:27:59Z","Starting to think people are just missing the entire project not just the nuances that make it the best defi lending platform out there. $YLD (@YieldCredit )  $ETH $BTC $AAVE $ADA $LINK $YFI $FTM https://t.co/Wvd5VtUBBl",6,1
1376662446312656900,"2021-03-29T22:27:59Z","OMG 😱  Day 1 on CMC   TacoToken🌶  is Top pair on #coinmarketcap    #tacoswaptothemoon #cryptocurrencies #tacoswaptomars #defi #eth #ADA #ethereum #crypto @bepronet @Poolz__ @Xed",1180,1
1376662441753460744,"2021-03-29T22:27:57Z","Join other investors !! 🌏 $ 5 million staked on #tacoswap 🌶 🚀🚀 Don't miss this adventure You want #TacoToken , too? Joins us !!!   #BSC #Bitcoin #BinanceSmartChain #Bepro #blockchain #CoinGecko #crypto #eth #poolz #ADA #Sushiswap #VeChain #Uniswap https://t.co/mxZnpt1QYw",107,1
1376662440855932930,"2021-03-29T22:27:57Z","OMG 😱  Day 1 on CMC   TacoToken🌶  is Top pair on #coinmarketcap    #tacoswaptothemoon #cryptocurrencies #tacoswaptomars #defi #eth #ADA #ethereum #crypto @bepronet @Poolz__ @Xed",1180,1
1376662436606996480,"2021-03-29T22:27:56Z","@MartiniGuyYT After posting +25 videos saying “ETH breakout imminent”.",3,0
1376662423923482636,"2021-03-29T22:27:53Z","OMG 😱  Day 1 on CMC   TacoToken🌶  is Top pair on #coinmarketcap    #tacoswaptothemoon #cryptocurrencies #tacoswaptomars #defi #eth #ADA #ethereum #crypto @bepronet @Poolz__ @Xed",1180,0
1376662409109200903,"2021-03-29T22:27:50Z","RT @TylerDurden: So @Visa are using the ETH blockchain to settle payments.  Looking forward to paying $3 for coffee + $900 gas fee and wait…",9326,0
1376662406114517002,"2021-03-29T22:27:49Z","OMG 😱  Day 1 on CMC   TacoToken🌶  is Top pair on #coinmarketcap    #tacoswaptothemoon #cryptocurrencies #tacoswaptomars #defi #eth #ADA #ethereum #crypto @bepronet @Poolz__ @Xed",1180,0
1376662398485037059,"2021-03-29T22:27:47Z","@mickalamasse1 @bepronet @Poolz__ @xed God !!!  OMG 😱  Day 1 on CMC   TacoToken🌶  is Top pair on #coinmarketcap    #tacoswaptothemoon #cryptocurrencies #tacoswaptomars #defi #eth #ADA #ethereum #crypto @bepronet @Poolz__ @Xed",54,0
1376662389626695691,"2021-03-29T22:27:45Z","OMG 😱  Day 1 on CMC   TacoToken🌶  is Top pair on #coinmarketcap    #tacoswaptothemoon #cryptocurrencies #tacoswaptomars #defi #eth #ADA #ethereum #crypto @bepronet @Poolz__ @Xed",1180,0
1376662388657827848,"2021-03-29T22:27:45Z","@nckbtc @crypto_danielle I simply typed that first tweet wrong.  I’m 92% BTC 8% ETH so 2/1 is too low.  Sorry.",1,0
1376662373981896707,"2021-03-29T22:27:41Z","The%APR are just amazing on https://t.co/CVmTA5mpcS! After #Uniswap and #Sushiswap the best is #TacoSwap! Long live the TacoToken🌶#tacoswaptothemoon 🚀 @exeedme @poolz__ @bepronet #tacotoken #defi #cryptocurrency #BinanceSmartChain #eth #btc #tacoswap @exeedme @poolz__ @bepronet https://t.co/wJiIewPHeE",23,0
1376662371335340038,"2021-03-29T22:27:41Z","Look what I just dropped on @opensea! Buy now .06 ETH!  #nft #opensea #nftcommunity https://t.co/dbngAyCLcY",2,0
1376662361076011009,"2021-03-29T22:27:38Z","Hashmask #2746 - “John Doe” was purchased by https://t.co/HxmJMNu1SS from https://t.co/ZHa2KoWjcN for 2.6800 $ETH ($4,869.51 USD) #thehashmasks #hashmasks  Character: Female Mask: Basic Eye: Green Skin: Blue Item: No Item https://t.co/bDCvjS3zPL",0,0
1376662346748280834,"2021-03-29T22:27:35Z","@mickalamasse1 @bepronet @Poolz__ @xed Day 1 on CMC : #TacoToken🌶is Top pair on #coinmarketcap 🌶️🌶️🌶️ 🔥🔥🔥 Don't miss it guys ! :) #tacoswaptothemoon #cryptocurrencies #tacoswaptomars #defi #eth #ADA #ethereum #crypto @bepronet @Poolz__  @Xed @henni_mo",41,0
1376662343384510466,"2021-03-29T22:27:34Z","I will accept the bid for my #CyberWatch layer on @AsyncArt at 9:45 EST tonight!! Currently .6 ETH 👉https://t.co/NGIhYif2z0  🔥BONUSES INCLUDED🔥 ~ AR-Enabled physical painting (20 x 40) ~ 1/1 animated NFT ~ Limited edition Cyber Watch poster NFT! https://t.co/R8hcKyA3VI",26,0
1376662341450756096,"2021-03-29T22:27:34Z","@BTCBap @elliotrades The alt chains to ETH. Alt simply means “something other than”",0,0
1376662338795896847,"2021-03-29T22:27:33Z","The account is sponsored by #Maanky 🐵 #BTC #Bitcoin #ETH #FOREX CME Group Globex Good Friday Holiday Schedule https://t.co/nh3lMQedp3",0,0
1376662336744923137,"2021-03-29T22:27:32Z","Guys, just tweeting so I can say « I told you » later ^^  Consider this as a test, we know ETH blockchain is not sustainable.  Be on the lookout for stablecoins ($USDC first?) (and Visa?) coming on https://t.co/2oiDyNdEhV Chain, then ... sky is the limit.  #Bitcoin #Ethereum #CRO https://t.co/dJaEgJI5qm",59,0
1376662327098028034,"2021-03-29T22:27:30Z","RT @EnsBot: erc20wallets.eth was just registered for 1 year https://t.co/4Y1yWQeORp",0,0
1376662325441273857,"2021-03-29T22:27:30Z","$hot cannot reach 1$ . Look at the #token supply   Someone definitely said the same about   $btc cannot get to 10k $eth cannot get to 100$ $link cannot get to 1$  $btc has changed the game forever.    Also, this is #crypto anything can happen. #holochain https://t.co/RFX5t5jKus",47,0
1376662322417168386,"2021-03-29T22:27:29Z","🚨🛡 28 #ETH shielded. If it was sold completely, PRV/ETH ticker would increase by 🔼2.42%  Tx: https://t.co/exnowEUsmO",0,0
