"ID","created_at","text","like_count","rt_count"
1375711677069557766,"2021-03-27T07:29:57Z","Please Retweet if you find value in my content!  12000% Profit #Altcoin Picks! Next #altcoins to pump extreme! Explosive #altcoin season soon! Opportunity of a lifetime coming soon! $ETH $FET $WTC $BTT  https://t.co/ze4nUxbk47",156,0
1375711640780431362,"2021-03-27T07:29:49Z","Nessie #597 has emerged from the depths of Loch Ness and is now minted on the #ETH blockchain via @opensea  PRICE:  Ξ0.085  TOTAL SUPPLY: 889  https://t.co/d1sLbAos9T  #Nessies #pixelart #cryptopunks #crypto #NFT #NFTs #NFTCommunity https://t.co/sKUOkUnWQm",10,0
1375711638976917505,"2021-03-27T07:29:48Z","Collectors who ask “Tell me why i should buy your art”  Don’t even reply to that. It’s not a contest, not a competition. It’s art. It either resonates with the collector, or it doesn’t. Move along.",352,0
1375711629652979712,"2021-03-27T07:29:46Z","Nessie #597 has emerged from the depths of Loch Ness and is now minted on the #ETH blockchain via @opensea  PRICE:  Ξ0.085  TOTAL SUPPLY: 889  https://t.co/d1sLbAos9T  #Nessies #pixelart #cryptopunks #crypto #NFT #NFTs #NFTCommunity https://t.co/sKUOkUnWQm",10,2
1375711619506827265,"2021-03-27T07:29:44Z","Celsius Network (@CelsiusNetwork) is managing over 70,000 #btc   #bitcoin   worth approx $3.85 billion 🤭😮🔥  Over 10,000 have been added since 8th Feb (47 days), that’s an average of approx 225 net increase per day 👏🏻   Great work @Mashinsky 💪🏼   #cel #eth https://t.co/eonZanI8LS",120,2
1375711605623726083,"2021-03-27T07:29:40Z","No need to spend your own money to trade #cryptocurrency. Over 10K users won crypto rewards on @latokens last week. It's the best way to join the financial revolution. Start by earning a share of $100K in CLIQ airdrop: https://t.co/6KNFZcNLOo #Bitcoin #ETH #Citi #AON #LATOKEN",0,0
1375711602209513473,"2021-03-27T07:29:40Z","Great writeup on $VNLA. They chose to build on $MATIC to avoid the terrible $ETH fees. The first deflationary staking coin, it continues to burn 5% on every transaction until only 100,000 coins are left. That means every bet or trade lowers supply.  https://t.co/QdUpHPYa1V",83,0
1375711597474148354,"2021-03-27T07:29:38Z","🚀 Safe The Children  🔷 Token Symbol : STC  🔷 Contract: https://t.co/nk3qsF2PJV  🔷 Website: https://t.co/4y0g7dqswM  🔷 Whitepaper: https://t.co/PHPZI4dbyR  🔷 Presentation Video : https://t.co/Mycfov12IU  #Safe_Childrens #Bitcoin  #Binance #BinanceSmartChain #DEFI  #BTC #ETH",14722,0
1375711588137730049,"2021-03-27T07:29:36Z","@knikxknok hey friend!  I comment that I have available my genesis of @withFND   https://t.co/YbgiFYeG7Z:  I also have 5 works available in rarible, one of 1of1, prices from: 0.012eth - 0.5 eth  https://t.co/AAUeKLPWxT https://t.co/3NhmrOJJuH",5,1
1375711582450294788,"2021-03-27T07:29:35Z","Kenneth Taylor bought for 0.18 ETH (306.24$) by Yhtan on the primary market   Season: 2020-2021 Level: 0 Serial: 33/100 Price: 306.24$  ⚽ Sorare: https://t.co/nxf442mDTj  📊: https://t.co/M4hIB2Eoa8  #Sorare #NFT #Ethereum #FantasyFootball",0,0
1375711568789340160,"2021-03-27T07:29:32Z","🚀 Safe The Children  🔷 Token Symbol : STC  🔷 Contract: https://t.co/nk3qsF2PJV  🔷 Website: https://t.co/4y0g7dqswM  🔷 Whitepaper: https://t.co/PHPZI4dbyR  🔷 Presentation Video : https://t.co/Mycfov12IU  #Safe_Childrens #Bitcoin  #Binance #BinanceSmartChain #DEFI  #BTC #ETH",14722,0
1375711562346889219,"2021-03-27T07:29:30Z","#CoinInn #Airdrops  THINGS TO DO: -register https://t.co/o7VvqIKX60 -RT&amp;TAG 3 firends -comment your #Coininn #BTC wallet address we will select 10 luck winners 20€ each one special winner for 50€ if you are in the #telegram group https://t.co/OrtTBnXWke #ETH #Giveaways #Bitcoin",156,0
1375711554998525953,"2021-03-27T07:29:28Z","30 day EVIX: 87.9086 ETH/USD vwap: $1,699.44 04/16 expiry volume: $2,490,759.88 04/30 expiry volume: $6,439,134.68 Current time: 07:29:04",0,0
1375711536287653890,"2021-03-27T07:29:24Z","🚀 Safe The Children  🔷 Token Symbol : STC  🔷 Contract: https://t.co/nk3qsF2PJV  🔷 Website: https://t.co/4y0g7dqswM  🔷 Whitepaper: https://t.co/PHPZI4dbyR  🔷 Presentation Video : https://t.co/Mycfov12IU  #Safe_Childrens #Bitcoin  #Binance #BinanceSmartChain #DEFI  #BTC #ETH",14722,0
1375711532659712000,"2021-03-27T07:29:23Z","🚀 Safe The Children  🔷 Token Symbol : STC  🔷 Contract: https://t.co/nk3qsF2PJV  🔷 Website: https://t.co/4y0g7dqswM  🔷 Whitepaper: https://t.co/PHPZI4dbyR  🔷 Presentation Video : https://t.co/Mycfov12IU  #Safe_Childrens #Bitcoin  #Binance #BinanceSmartChain #DEFI  #BTC #ETH",14722,0
1375711518851932164,"2021-03-27T07:29:20Z","@poplink16 It is a great giveaway. I hope this project will shine soon. @SmrtKhan3 @RubelUd93104179 @Mohamma74654458  #POPO #ETH #BTC",0,0
1375711510396162051,"2021-03-27T07:29:18Z","$PIKA BULLISH AF!!! LAST TIME TO GET IN, TRAIN IS LEAVING SOON!! Telegram: https://t.co/TFE5pqp4K3  $jedi $doge $eth $btc #btc $sunf $froge $toma #eth $link $xrp $bnf $bdog $uni $layer $shib $feg $bunny #doge $hoge $rfi $fet $fil $ada $dot $poodl $froge $grug $tnt #safemars #moon https://t.co/nimkPSThp9",16,0
1375711498006376450,"2021-03-27T07:29:15Z","Hope to know your thoughts of the $NFTT coin. That @TechNFT offers legit profit. The project is rn on dev point but they already got Qatar investments. Is it true?   $fil $poc $ankr $comp $btc $atom $earn $zil $yni $chow $bsv $bnb $btdx $chsb $rune $comb $eth $airx $tac $vgx $ht https://t.co/EmM2YkWjQp",1,0
1375711493673648128,"2021-03-27T07:29:14Z","$CFX We Almost Did #X10 From This Call I Hope You Had That Next Step $3  $btc $eth $bch $strax $sushi $alpha $jst $xrp $ada $xlm $bat $ocean $sxp $xvs $stx $ocean $tomo $trx $xvz $axs $dnt $mana $hive $cvc $loom $blz $uni $qtum $lsk $dlt $crv $skl $sun $rcn $kmd $eos $link https://t.co/gvSuwVPYRI https://t.co/kUv3LoQBpn",1,0
1375711486178250752,"2021-03-27T07:29:12Z","NEVER SELLING!! $PIKA  $jedi $doge $eth $btc #btc $sunf $froge $toma #eth $link $xrp $bnf $bdog $uni $layer $shib $feg $bunny #doge $hoge $rfi $fet $fil $ada $dot $poodl $froge $grug $tnt #safemars #moon https://t.co/kKe2UHmDD1",7,0
1375711473733922820,"2021-03-27T07:29:09Z","Trade real (non-wrapped) $BTC #Bitcoin $ETH #Ethereum $NOIA $NEO $LINK $NEX on @nashsocial in a non-custodial way. Be in control of your keys!  Create your own Nash account: https://t.co/oZrBtM3RPM https://t.co/4VmlRHADrF",4,0
1375711471456247809,"2021-03-27T07:29:08Z","Welcome to massive Q DAO airdrop!   1. go now to telegram https://t.co/COyXgODY1z   2. Stay in telegram chat and wait announcement.  3. HOLD this gem until 10x   (soon - QDAO launch cross-chain for BSC, Polkadot and ETH)",4254,0
1375711462669217793,"2021-03-27T07:29:06Z","PIKA X1000 OR BROKE FOREVER? $PIKA $jedi $doge $eth $btc #btc $sunf $froge $toma #eth $link $xrp $bnf $bdog $uni $layer $shib $feg $bunny #doge $hoge $rfi $fet $fil $ada $dot $poodl $froge $grug $tnt #safemars #moon https://t.co/OgDK1JcYOT",10,0
1375711460169498624,"2021-03-27T07:29:06Z","As of March 26, 2021 at 08:29AMCET, 1 ETH is 1439.2507 EUR.",0,0
1375711459003486208,"2021-03-27T07:29:05Z","#BitTorrent hits $0.00361100  Still rising.   Up 8.12% vs $USDT Up 4.96% vs $BTC Up 4.68% vs $ETH Up 3.37% vs $TRX  #cryptocurrency #altcoins #NewsFlash #Marketing #Trending #TRON #BTT #BTC https://t.co/eHfuunepDc",0,0
1375711455660621827,"2021-03-27T07:29:05Z","5 lucky winners will receive $500 worth USDT who Retweet this post  Join our airdrop https://t.co/1Q0yNzjSOj Joining rewards 30 RBL ($30) Reffer rewards 10 RBL ($10)  ✅ Follow  ✅ Like, RT with 5 friends ✅ Comment your ETH address",4987,0
1375711447435538432,"2021-03-27T07:29:03Z","🚀 Safe The Children  🔷 Token Symbol : STC  🔷 Contract: https://t.co/nk3qsF2PJV  🔷 Website: https://t.co/4y0g7dqswM  🔷 Whitepaper: https://t.co/PHPZI4dbyR  🔷 Presentation Video : https://t.co/Mycfov12IU  #Safe_Childrens #Bitcoin  #Binance #BinanceSmartChain #DEFI  #BTC #ETH",14722,0
1375711440321974277,"2021-03-27T07:29:01Z","RT @cryptunez: the slower $ETH pumps, the longer the bull market lasts.",1521,0
1375711420898177029,"2021-03-27T07:28:56Z","🚀 Safe The Children  🔷 Token Symbol : STC  🔷 Contract: https://t.co/nk3qsF2PJV  🔷 Website: https://t.co/4y0g7dqswM  🔷 Whitepaper: https://t.co/PHPZI4dbyR  🔷 Presentation Video : https://t.co/Mycfov12IU  #Safe_Childrens #Bitcoin  #Binance #BinanceSmartChain #DEFI  #BTC #ETH",14722,0
1375711404116779012,"2021-03-27T07:28:52Z","🚀 Safe The Children  🔷 Token Symbol : STC  🔷 Contract: https://t.co/nk3qsF2PJV  🔷 Website: https://t.co/4y0g7dqswM  🔷 Whitepaper: https://t.co/PHPZI4dbyR  🔷 Presentation Video : https://t.co/Mycfov12IU  #Safe_Childrens #Bitcoin  #Binance #BinanceSmartChain #DEFI  #BTC #ETH",14722,0
1375711373150146561,"2021-03-27T07:28:45Z","$50 GIVEAWAY 💸  I'll give $50 to one person. Must retweet this tweet and retweet &amp; like the quoted tweet below 👇 (no need to post proof here or there!)  Ends in 24 hours! #giveaways #cryptocurrencies #btc #eth #defi https://t.co/ZBvNkhsVqr",32,0
1375711364803653632,"2021-03-27T07:28:43Z","@binance I am checking my yield apy on eth and usdc @swissborg app and hope to see BNB yield soon too.",0,0
1375711364283572224,"2021-03-27T07:28:43Z","@mavroses hey friend!  I comment that I have available my genesis of @withFND   https://t.co/YbgiFYeG7Z:  I also have 5 works available in rarible, one of 1of1, prices from: 0.012eth - 0.5 eth  https://t.co/AAUeKLPWxT https://t.co/1DEiv5QiVf",0,0
1375711343945285635,"2021-03-27T07:28:38Z","Welcome to massive Q DAO airdrop!   1. go now to telegram https://t.co/COyXgODY1z   2. Stay in telegram chat and wait announcement.  3. HOLD this gem until 10x   (soon - QDAO launch cross-chain for BSC, Polkadot and ETH)",4254,0
1375711333484613632,"2021-03-27T07:28:36Z","@Safe_Childrens Good project good luck ❤️  #STC $STC #ETH #DEFI #DONATION",0,0
1375711330674614274,"2021-03-27T07:28:35Z","RT @JJcycles: It is time we start the Ethereum Bullmarket. How high do you think this one can go?  $ETH https://t.co/0kVkxOTHOI",436,0
1375711321778319363,"2021-03-27T07:28:33Z","Welcome to massive Q DAO airdrop!   1. go now to telegram https://t.co/COyXgODY1z   2. Stay in telegram chat and wait announcement.  3. HOLD this gem until 10x   (soon - QDAO launch cross-chain for BSC, Polkadot and ETH)",4254,0
1375711317651165186,"2021-03-27T07:28:32Z","If you have account on @kucoincom @HuobiGlobal , buy  token $datx @DATxOfficial and double your balance X10 In just a month. $cnb $doge $sc $dgb $icx $eth  ↗️↗️🔥🔥 High risk high profits 😉 https://t.co/0gMue5LCcr",156,0
1375711317387001856,"2021-03-27T07:28:32Z","Please Retweet if you find value in my content!  12000% Profit #Altcoin Picks! Next #altcoins to pump extreme! Explosive #altcoin season soon! Opportunity of a lifetime coming soon! $ETH $FET $WTC $BTT  https://t.co/ze4nUxbk47",156,0
1375711309879246850,"2021-03-27T07:28:30Z","Insane APY!  Insane Tokenomics!  NO inflation!  #DeFi #yieldfarming #BNB #BinanceSmartChain #Binance $auto $cake $bake $eth $dot #BSC https://t.co/u0dqOXpcaG",18,0
1375711306792251392,"2021-03-27T07:28:29Z","Cole Osborne this one's for you , send some ETH, let's end your 7 year nightmare",0,0
1375711297933828096,"2021-03-27T07:28:27Z","RT @JeffTerraVirtua: Nice job @majorart_eth !!!  🤜🤛",14,0
1375711296725807106,"2021-03-27T07:28:27Z","@cryptonio123 bids  55 ETH $96,284.61 👀🙏🏻🚀💜  WOW! What a way to wake up! The reserve has now been met.  Auction will end at 6pm GMT Today (11AM PST) on @SuperRare 💎(With 10 Mins extended on final bids) #astroadntheuniverse #nft #cryptoart   https://t.co/tkkBd3g1Rl",171,0
1375711290493186049,"2021-03-27T07:28:25Z","@mukeshkapila News is coming out from #Ethiopia that Eritreans are being forcefully taken by the police to be returned to Eritrea. Apparently Eth gov had a list at entry &amp; using that to get them.",7,0
1375711282347835393,"2021-03-27T07:28:23Z","📢Congrats！First launch on Uniswap！ 🚀USDT-NFTs trading pair is live！ 🚀The contract address:  0x6599fc3e77cbfa6f6e9cac605a30b1e78827eba0  💰Hold more NFTs, be richer！  🌸Like、Retweet &amp; Tag 3 friends  🚀Select 10 addresses to airdrop 1,000,000 NFTs, leave wallet #ETH address https://t.co/Slor4FBQzP",2942,0
1375711273023725568,"2021-03-27T07:28:21Z","If you have account on @kucoincom @HuobiGlobal , buy  token $datx @DATxOfficial and double your balance X10 In just a month. $cnb $doge $sc $dgb $icx $eth  ↗️↗️🔥🔥 High risk high profits 😉 https://t.co/0gMue5LCcr",156,0
1375711265465638921,"2021-03-27T07:28:19Z","🚀 Pluto Coin  Airdrop 🚀 Rate: ⭐⭐⭐⭐ ⭐ 🎁 Reward:  8822 PLUT ($1500) 👫 Referral: 40.5 PLUT  ($7)  🤖Start Bot here   https://t.co/x5JZchojO8  ⛂ Join Telegram group and channel. ⛂ Follow twitter &amp; retweet  ⛂ Submit ETH address and details.",6005,0
1375711259622998016,"2021-03-27T07:28:18Z","Welcome to massive Q DAO airdrop!   1. go now to telegram https://t.co/COyXgODY1z   2. Stay in telegram chat and wait announcement.  3. HOLD this gem until 10x   (soon - QDAO launch cross-chain for BSC, Polkadot and ETH)",4254,0
1375711251494432777,"2021-03-27T07:28:16Z","Save your ETH by paying gas in stablecoins with @biconomy Forward! Try testnet for https://t.co/fjMSLTOu0b now..  After test swap Very friendly dex swap IMO  0xa078dCFc267d812F7E92a33a002034b4f156c30D https://t.co/Y8kEnDxeM7",0,0
1375711251129532417,"2021-03-27T07:28:16Z","🚀 Safe The Children  🔷 Token Symbol : STC  🔷 Contract: https://t.co/nk3qsF2PJV  🔷 Website: https://t.co/4y0g7dqswM  🔷 Whitepaper: https://t.co/PHPZI4dbyR  🔷 Presentation Video : https://t.co/Mycfov12IU  #Safe_Childrens #Bitcoin  #Binance #BinanceSmartChain #DEFI  #BTC #ETH",14722,0
1375711238420897792,"2021-03-27T07:28:13Z","💧Poplink Oracles Airdrop 💧  🏆 Task:          ➕  50 POPO (~$50)  👨‍👩‍👧 Referral:  ➕  15 POPO (~$15)  🔛  Airdrop Link &amp; Information: https://t.co/DS6g34KhFp  #cryptocurrency #Crypto #Bitcoin  #BSC #BinanceSmartChain #Ethereum #ETH #Airdrop #bounty #POPO #Poplink",6788,0
1375711236973715458,"2021-03-27T07:28:13Z","RT @QuintenFrancois: This is why $ETH is here to stay... https://t.co/USHKA6o26A",2745,0
1375711231798034435,"2021-03-27T07:28:11Z","The @Uniswap V3 x*y=k animation from @pplpleasr1 was just purchased for 310 ETH ($525,000)  The buyer was 0x067b9Bbbbc42d2AB9b9Ab6bB62646dAF7F344A76, a DAO formed for the sole purpose of forming capital buying this NFT  an NFT SPAC, if you will 🤯🤑💸  https://t.co/d8KrGgPn1L",1342,0
1375711229537214467,"2021-03-27T07:28:11Z","No need to spend your own money to trade #cryptocurrency. Over 10K users won crypto rewards on @latokens last week. It's the best way to join the financial revolution. Start by earning a share of $100K in CLIQ airdrop: https://t.co/NnqBDPrfVw #Bitcoin #ETH #Citi #AON #LATOKEN",0,0
1375711202584616971,"2021-03-27T07:28:04Z","Welcome to massive Q DAO airdrop!   1. go now to telegram https://t.co/COyXgODY1z   2. Stay in telegram chat and wait announcement.  3. HOLD this gem until 10x   (soon - QDAO launch cross-chain for BSC, Polkadot and ETH)",4254,0
1375711201712353280,"2021-03-27T07:28:04Z","The longer and slower #eth moves up the longer this bull market will last.",0,0
1375711201557147648,"2021-03-27T07:28:04Z","@bneiluj @RektHQ You can sell 60m$ of eth in 3hours without moving the price. This article starts very badly.",2,0
1375711199631974401,"2021-03-27T07:28:04Z","$DEFY just passed @TechRate1 audit with flying colours. Here is the link to the audit: https://t.co/Efzjn9A9lc  sincerely first ever deflationary #YieldFarming project.  #DeFi #BinanceSmartChain #binance #BNB $ETH $BTC",14,0
1375711192287694849,"2021-03-27T07:28:02Z","If you missed the big dip on $RAINI before, some very low IQ whales just dumped and are giving you a second chance https://t.co/IFSVte7T7L https://t.co/217ANAnUsR",8,0
1375711186939969536,"2021-03-27T07:28:01Z","#BTC Price: $54927 #ETH Price: $1700 #LTC Price: $183  Next update in 10 minutes Last updated: 3:28:0.08",0,0
1375711180824674304,"2021-03-27T07:27:59Z","1 Bitcoin ( #BTC ) Dollar: 55,102.58$   1 Bitcoin Cash ( #BCH ) Dollar: 5,02.36$   1 Ethereum ( #ETH ) Dollar: 1,700.05$   1 Ripple ( #XRP ) Dollar: 0.55673$   Date: 27 Mar 2021 7:27  #Bitcoin #Ethereum #cryptocurrency #crypto #altcoin #Blockchain #Ripple",2,1
1375711176466780162,"2021-03-27T07:27:58Z","Get the best price for $BTC and $ETH when trading on the $FXF official platform.   Sign up to our #FREEDEMO and stand a chance to gain early access to the #Launch of our platform on 3 May! https://t.co/E6wBfj6Hg9",83,1
1375711151527325700,"2021-03-27T07:27:52Z","Welcome to massive Q DAO airdrop!   1. go now to telegram https://t.co/COyXgODY1z   2. Stay in telegram chat and wait announcement.  3. HOLD this gem until 10x   (soon - QDAO launch cross-chain for BSC, Polkadot and ETH)",4254,1
1375711147542765571,"2021-03-27T07:27:51Z","@bneiluj @RektHQ He doesn’t need support anymore though. That’s enough money to spend until he dies.  Would have pulled out too, pay taxes, diversify in different investments not just ETH",2,0
1375711145022001154,"2021-03-27T07:27:51Z","STC one of the respective thought is for Unprivileged Children in the world. STC 20% of total profit goes to STC special fund for Safe the Children forum. #STC $STC #ETH #DEFI #DONATION",2306,0
1375711101866758148,"2021-03-27T07:27:40Z","Cool! Many people don't actually realize this, but you can send funds to ANY Ethereum address using Loopring L2. As you see below, costing only 0.0001 ETH.   Doesn't matter if the recipient is aboard already, or if they have never even heard the word rollup 💸 https://t.co/m76OKbMIhd",196,0
1375711100260413440,"2021-03-27T07:27:40Z","💧Poplink Oracles Airdrop 💧  🏆 Task:          ➕  50 POPO (~$50)  👨‍👩‍👧 Referral:  ➕  15 POPO (~$15)  🔛  Airdrop Link &amp; Information: https://t.co/DS6g34KhFp  #cryptocurrency #Crypto #Bitcoin  #BSC #BinanceSmartChain #Ethereum #ETH #Airdrop #bounty #POPO #Poplink",6788,0
1375711097370472450,"2021-03-27T07:27:39Z","Anyone holding a Socket right now will be rewarded.   After we hit the 500 cap the project will be completely secondary market and the lowest you will see a Socket going for is 5-10 ETH.  #NFTs #NFTCollectibles #Sockets",17,0
1375711061165236225,"2021-03-27T07:27:31Z","I'll send $500 in #ETH or #BTC to one person who retweets this and follows @bud_crypto. Must complete these tasks:  1 - Like/RT his pinned tweet  2 - Must RETWEET &amp; LIKE 4 of his tweets  Ends in 72 hours!",1406,0
1375711042777538560,"2021-03-27T07:27:26Z","$CARR is extremly ready to Pump, buy it NOW  #crypto #cryptocurrency #cryptocurrencies #blockchains #cryptogirl $btc $eth $xrp $ada $bnb #dogecoin $hot $dot $lua $sylo $one $algo $rsr $uni $link $aave $xlm $vet $atom $tron $doge $ramp $ern $konomi $dank #nft $cate $dexa $skl $lpt https://t.co/X6pISNy0mU",4,1
1375711041699475459,"2021-03-27T07:27:26Z","@dixon_eth Unknown 661 Artist @buvardboy  Exclusively on https://t.co/e1EAEexTAg #cryptoart #NFT @CryptoArt_Ai  Direct purchase link https://t.co/CrAPURVoMD",0,0
1375711036716806149,"2021-03-27T07:27:25Z","@MuroCrypto The best picks might pump more $kPAD $CVP $OGN $BNB $TWT $ALBT 🚀🚀🚀 send it   #altcoin #btc #crypto #Etherium https://t.co/t6gQb5GD4a",6,0
1375711033612853250,"2021-03-27T07:27:24Z","Welcome to massive Q DAO airdrop!   1. go now to telegram https://t.co/COyXgODY1z   2. Stay in telegram chat and wait announcement.  3. HOLD this gem until 10x   (soon - QDAO launch cross-chain for BSC, Polkadot and ETH)",4254,0
1375711022686765058,"2021-03-27T07:27:21Z","We’re proud to say that the first $ROYA #cryptoart #NFT sold yesterday for 0.172 ETH.  Our new ROYALE MOMENTS collection on @rariblecom will be priced similarly for the next week.  Here we have the 👸 in Rome at the Colosseum.  Will you fight for her? ⚔️  https://t.co/IlTKwcmS72",164,0
1375711015661359109,"2021-03-27T07:27:20Z","DPW Holdings Anticipates New Lending Program to Begin in March 2021📈DPW Holdings’ Digital Power Lending to Provide Business Loans Collateralized by Bitcoin (BTC) and Ethereum (ETH)📈BUY DPW📈BUY📈My opinion is this is Hugh for DPW and the investors as Bitcoin will add Revenues📈 https://t.co/pwJdweHEvC",0,0
1375711008769994754,"2021-03-27T07:27:18Z","The DEX @FinanceChainge is set to launch on the @FUSIONProtocol network with over a million users on the protocols waitlist. This decentralized exchange aims to innovate on traditional models through leveraging the Fusion Network.  #BSC #BTC #ETH #BNB  https://t.co/xx55YiGfm3",21660,0
1375710988624781312,"2021-03-27T07:27:13Z","@poplink16 Great projeft. I like it @nguyenvandai995 @nam02804794 @Huaquoc621   #POPO #ETH #BTC",0,0
1375710986699730947,"2021-03-27T07:27:13Z","$CRV to $10 will trigger $YFI to $100k.  $CRV to $10 pushes most USD and ETH yields to 3 figure APY.  This leads $ETH to $20k.  Which leads to well over 10x across all of defi.  Cascade of positive feedback.  $CRV is the lynchpin. $EPS sparks the great crypto boom of 2021.",619,0
1375710984170565632,"2021-03-27T07:27:12Z","⚡️New #FlashLoan 4.289 $ETH to 0x00000000fea1fab3ce021f3bedd21a94d0ba190c  https://t.co/C4seNzbw45",0,0
1375710966470545413,"2021-03-27T07:27:08Z","@EthereumJesus Kinda sad to see eth maxis motivate themselves every single day",1,0
1375710955607371776,"2021-03-27T07:27:05Z","ADA News: Hoskinson, creator of #Cardano (ADA), has stated that the Cardano might beat the two largest cryptocurrencies, #Bitcoin (BTC) and #Ethereum (ETH), to become the first efficient crypto, regardless of the emergence of the much-awaited Ethereum 2.0. https://t.co/8iWq8URApq",251,0
1375710949408145412,"2021-03-27T07:27:04Z","@Grnriver @JohnEDeaton1 @SEC_News Need to Investigate Clayton/Hillman and their pre stated actions on Bitcoin/Etherium, financial gains from those actions directly/indirectly and connections to firms that profited to!",0,0
1375710945255649285,"2021-03-27T07:27:03Z","@poplink16 Let's support for new project.. #POPO #ETH #BTC   @Kamil99920685 @Artin06800959 @zhougongyuan @vmvigneshela",0,0
1375710923122413569,"2021-03-27T07:26:58Z","Getting into crypto: BTC and ETH are everything. To the moon!  After doing research with an open mind: #IOTA could overtake everyone. The sheer audacity of this project is humbling.",240,0
1375710910153637888,"2021-03-27T07:26:55Z","@Safe_Childrens Nice project  #STC #ETH #DEFI #Airdrops",0,0
1375710903107153924,"2021-03-27T07:26:53Z","🎉🎉 Lighthouse produced its first #Eth1 &amp; #Eth2 merge transaction 🎉🎉  This is an ETH tx using *only* proof-of-stake validators. A step towards a 99.98% drop in Ethereum energy consumption 🌏🌲🌄  Credits to @gballet, @mkalinin2 &amp; @Teku_ConsenSys!  Important qualifications 👇 https://t.co/DW5GSk4JVo",917,0
1375710902100500480,"2021-03-27T07:26:53Z","Welcome to massive Q DAO airdrop!   1. go now to telegram https://t.co/COyXgODY1z   2. Stay in telegram chat and wait announcement.  3. HOLD this gem until 10x   (soon - QDAO launch cross-chain for BSC, Polkadot and ETH)",4254,0
1375710888691335168,"2021-03-27T07:26:49Z","The current price of One FUNDX is 1,803 USDT at Probit Exchange. The 24Hour Volume is 51.15 ETH &amp; the price is up about +0.40%.   #BUY FUNDX NOW-  https://t.co/9nwwOgcuP1  #FUNDX #MOON 🚀 🔥  @ProBit_Exchange https://t.co/09K6F2q9iE",3,0
1375710885923057665,"2021-03-27T07:26:49Z","#CoinInn #Airdrops  THINGS TO DO: -register https://t.co/o7VvqIKX60 -RT&amp;TAG 3 firends -comment your #Coininn #BTC wallet address we will select 10 luck winners 20€ each one special winner for 50€ if you are in the #telegram group https://t.co/OrtTBnXWke #ETH #Giveaways #Bitcoin",156,0
1375710876825657346,"2021-03-27T07:26:47Z","Time to Diversify your Crypto Profits   Start #Buying and Holding FUNDX in your wallet  Once you hit the goal of 10% In the purchase price of your #dream home, you are 1 step closer to owning a #Home Debt Free in Just 5 Year's.  BUY FUNDX TODAY 👇 https://t.co/9nwwOgcuP1 https://t.co/Is9U3KzDX0",6,0
1375710874191589377,"2021-03-27T07:26:46Z","🔶 SEND YOUR #NFT I spend 2.1 Eth I have allocated a budget of 0.9 Eth.  I want to add pieces of talents to my collection.  Could you please share your works? And RETWEET! Thank you!  #NFT #nftcollector #NFTs #NFTartist #nftcollectors #NFTartists #NFTdrop https://t.co/cnWYVm7fsS",126,0
1375710871138136064,"2021-03-27T07:26:45Z","💧Poplink Oracles Airdrop 💧  🏆 Task:          ➕  50 POPO (~$50)  👨‍👩‍👧 Referral:  ➕  15 POPO (~$15)  🔛  Airdrop Link &amp; Information: https://t.co/DS6g34KhFp  #cryptocurrency #Crypto #Bitcoin  #BSC #BinanceSmartChain #Ethereum #ETH #Airdrop #bounty #POPO #Poplink",6788,0
1375710864620224514,"2021-03-27T07:26:44Z","We’re proud to say that the first $ROYA #cryptoart #NFT sold yesterday for 0.172 ETH.  Our new ROYALE MOMENTS collection on @rariblecom will be priced similarly for the next week.  Here we have the 👸 in Rome at the Colosseum.  Will you fight for her? ⚔️  https://t.co/IlTKwcmS72",164,0
1375710859897397249,"2021-03-27T07:26:43Z","💧Poplink Oracles Airdrop 💧  🏆 Task:          ➕  50 POPO (~$50)  👨‍👩‍👧 Referral:  ➕  15 POPO (~$15)  🔛  Airdrop Link &amp; Information: https://t.co/DS6g34KhFp  #cryptocurrency #Crypto #Bitcoin  #BSC #BinanceSmartChain #Ethereum #ETH #Airdrop #bounty #POPO #Poplink",6788,0
1375710858806849539,"2021-03-27T07:26:42Z","Invest in the Future of Real Estate   INVEST In FUNDX   FUNDX is #Listed ON -  Probit Exchange  P2pb2b Exchange  Binance Dex   FUNDX #Overview at -  CoinMarketCap  CoinGecko 🚀 🔥  BUY NOW!!👇 https://t.co/9nwwOgu6dB  #FUNDX @ProBit_Exchange @p2pb2b @binance https://t.co/pKk12INwzH",7,0
1375710855422218244,"2021-03-27T07:26:42Z","🚀 Safe The Children  🔷 Token Symbol : STC  🔷 Contract: https://t.co/nk3qsF2PJV  🔷 Website: https://t.co/4y0g7dqswM  🔷 Whitepaper: https://t.co/PHPZI4dbyR  🔷 Presentation Video : https://t.co/Mycfov12IU  #Safe_Childrens #Bitcoin  #Binance #BinanceSmartChain #DEFI  #BTC #ETH",14722,0
1375710841870241792,"2021-03-27T07:26:38Z","🚀 Pluto Coin  Airdrop 🚀 Rate: ⭐⭐⭐⭐ ⭐ 🎁 Reward:  8822 PLUT ($1500) 👫 Referral: 40.5 PLUT  ($7)  🤖Start Bot here   https://t.co/x5JZchojO8  ⛂ Join Telegram group and channel. ⛂ Follow twitter &amp; retweet  ⛂ Submit ETH address and details.",6005,0
1375710834744127489,"2021-03-27T07:26:37Z","FUNDX at Probit Exchange  The current price of FUNDX at Probit Exchange is 0.98ETH/FUNDX which is equals 1293USDT. The 24Hour Volume in pair of #Eth is 60.78ETH. It's already up around 0.35%.🚀   BUY 10% in FUNDX!! Own Your #Dream Home with.   BUY NOW! 👇 https://t.co/9nwwOgcuP1 https://t.co/dxVkPECTvd",63,0
1375710830017323009,"2021-03-27T07:26:36Z","Celsius Network (@CelsiusNetwork) is managing over 70,000 #btc   #bitcoin   worth approx $3.85 billion 🤭😮🔥  Over 10,000 have been added since 8th Feb (47 days), that’s an average of approx 225 net increase per day 👏🏻   Great work @Mashinsky 💪🏼   #cel #eth https://t.co/eonZanI8LS",120,0
1375710815144140802,"2021-03-27T07:26:32Z","So fun creating 'Cyberdog'!!! for sale on  @withFND!  #nftart #crypto #Bitcoin #ETH #CyberTruck #Tesla  #Dogecoins  Cyberdog By Ryan Church 2021 Personal Work https://t.co/FvejLBAwQ0 https://t.co/hVCM7LOOFC",225,0
