"ID","created_at","text","like_count","rt_count"
1375107698006630403,"2021-03-25T15:29:58Z","@scoinaldo What you have plus LINK DOT ETH",0,0
1375107696198815749,"2021-03-25T15:29:57Z","Our friends @ISE_BU are looking for a postdoc to work with us on solutions for industrial emissions in AY21-22 @BjarneSteffen @ETH_EPG @natehultman @kellysgallagher @GregNemet @JesseJenkins @leahstokes @tlieuwen1 https://t.co/3dOt0LeTc7",6,0
1375107692851818497,"2021-03-25T15:29:56Z","@scottmelker Noticed that. Just sold my eth to btc. 2% up",1,0
1375107692713320448,"2021-03-25T15:29:56Z","https://t.co/57gXevVRJH is for sale!   #Domains #domainnames #DomainNameForSale #cryptocurrency #Bitcoin #Ethereum #BTC #ETH #dogecoin #HODL #Tesla #cryptotwitter https://t.co/9iyV9syDrV",0,0
1375107687084658689,"2021-03-25T15:29:55Z","Join us tonight at the 7th Machine Learning and Data Analytics Symposium (MLDAS ) 2021.  Speakers: Dr. Claire Tomlin, @UCBerkeley  Dr. Andreas Krause, @ETH_en  Dr. Alex Rudnicky, @CarnegieMellon  Dr. Hassan Sajjad, QCRI Dr. Daniela Rus, @MIT_CSAIL   Join us!  @HBKU @QF https://t.co/hzyDkmFogg",4,0
1375107680474390536,"2021-03-25T15:29:53Z","1/  🛸 Here comes a new farming program with @VesperFi!  🌐 Liquidity providers to $1INCH-$VSP pool will collect 150k $1INCH tokens and 100k $VSP tokens distributed over a 24-week period 🔷  #1inch #DeFi #Ethereum #ETH https://t.co/PMpUbnEybF",254,0
1375107673721540615,"2021-03-25T15:29:52Z","🗣️@seascapenetwork partnered @PancakeSwap, this partnership will give users opportunity to earn more $CWS.  Below is the inforgraphics showing the steps on how to stake $cake with syrup pool.  #Bsc #NFT #ETH #CryptoNews #Gaming #CWS #PancakeSwap  #CTBot Adrop RAM 1 Trx 50 https://t.co/rYDuxGMOj6",46,0
1375107668990394369,"2021-03-25T15:29:51Z","https://t.co/57gXevVRJH is for sale!   #Domains #domainnames #DomainNameForSale #cryptocurrency #Bitcoin #Ethereum #BTC #ETH #dogecoin #HODL #Tesla #cryptotwitter https://t.co/9iyV9syDrV",0,2
1375107666247319559,"2021-03-25T15:29:50Z","$ETH Then, Now, Next Month https://t.co/nnZZBeiZiD",1,0
1375107660886990851,"2021-03-25T15:29:49Z","@aRealAMR @TheMoonCarl Damn, what's that + 12 eth",0,0
1375107657418293248,"2021-03-25T15:29:48Z","The Doctor's call is in: Buy, buy, buy!!! This is the perfect dip for many of you who are new to #Crypto to get into the space with your #stimmy #stimulus checks! #BTC #ADA #ETH #STMX #UNI #BNBcoin",0,0
1375107642482434054,"2021-03-25T15:29:44Z","@davidgokhshtein GLYPH token $GLY (soon on #uniswap), join at Discord via the following invite and get familiar with us   https://t.co/4IGwgL2uPR  #logistics #SupplyChain #erc20 #transport #eth #XEP #shipping  And  @Xchainz1 $XCZ",10,0
1375107638715850756,"2021-03-25T15:29:43Z","ARE YOU READY TO BE A FARMER LIKE ME?  👉Today (March 25) 11h30PM GMT+8 (HKT) 👉@launchzoneann  ZDCash/BNB: 15% ZD/BNB: 15% ZDCash/BUSD: 45% BNB/BUSD: 5% BTCB/BNB: 5% BTCB/BUSD: 5% ETH/BNB: 5% USDT/BUSD: 5%  MORE POOLS WILL COME LATER.  $ZDCash #DeFi #HighAPY https://t.co/T6rba37Aom",131,0
1375107636920786950,"2021-03-25T15:29:43Z","$AIOZ launch is like Ethereum launching with YouTube already on it.  I'm excited to get away from ETH's gas prices while seeing the newest decentralized video service. #defi #AIOZ #youtube https://t.co/udXvpObixG",18,0
1375107635461169152,"2021-03-25T15:29:43Z","Third time at my local bank trying to send an int’l wire transfer. First two times it was a deadline miscommunication.   Now I’ve been here for 40 minutes waiting for them to fill out forms and get the amount right.    USDC would have taken 15 seconds and cost 80% less. SMH  #ETH",117,0
1375107631614894080,"2021-03-25T15:29:42Z","🏆 Follow us &amp; Retweet this tweet, Specify the ETH address in the tweet comment to get 10 #BIT ($10 worth) or 50 #BIT ($50 worth) #BitScores Airdrop Tokens! 🎁 $250,000 Prize Pool Full rules: https://t.co/N53M5nRXr9  #giveaway #airdrops #bounty #giveaways #defi #eth #btc #airdrop https://t.co/m77hDtRsBv",3577,0
1375107627630403584,"2021-03-25T15:29:41Z","Catch is finally here! Had a blast with this one❤️  1/1 #nft, available on @SuperRare   My first drop on the platform! So excited !!  Timed auction with a reserve price of 3 $Eth   https://t.co/AwKfgGha3C  #cryptoart #digitalart #superrare #nftdrop #illustration #SURREALISM https://t.co/QAAP1WBydW",97,0
1375107627127091202,"2021-03-25T15:29:41Z","“Ecstacy 54” paying homage to the Golden Era of New Night Life! Edition to 5 - .4 eth (see what I did there lol) Live now! https://t.co/ksGg5mqyPt #studio54 #NFTs #NFT #nftcollector #NFTCommunity @GabrielJWeis @eddiegangland @D0PEP0PE @WARHODL @Dario_Desiena @MannyLinx #loveyall https://t.co/W8h30vIQZj",36,0
1375107623712747529,"2021-03-25T15:29:40Z","$ETH DIPS ARE FOR BUYING DISCOUNT #NFT  $ETH DIPS ARE FOR BUYING DISCOUNT #NFT  $ETH DIPS ARE FOR BUYING DISCOUNT #NFT  $ETH DIPS ARE FOR BUYING DISCOUNT #NFT  $ETH DIPS ARE FOR BUYING DISCOUNT #NFT",18,0
1375107621271789568,"2021-03-25T15:29:39Z","eth in a nutshell  eth network can go fuck itself https://t.co/R8wg7Sh7y3",1,0
1375107616788131843,"2021-03-25T15:29:38Z","1/  🛸 Here comes a new farming program with @VesperFi!  🌐 Liquidity providers to $1INCH-$VSP pool will collect 150k $1INCH tokens and 100k $VSP tokens distributed over a 24-week period 🔷  #1inch #DeFi #Ethereum #ETH https://t.co/PMpUbnEybF",254,0
1375107611524091904,"2021-03-25T15:29:37Z","1/  🛸 Here comes a new farming program with @VesperFi!  🌐 Liquidity providers to $1INCH-$VSP pool will collect 150k $1INCH tokens and 100k $VSP tokens distributed over a 24-week period 🔷  #1inch #DeFi #Ethereum #ETH https://t.co/PMpUbnEybF",254,0
1375107584466808833,"2021-03-25T15:29:31Z","$AIOZ launch is like Ethereum launching with YouTube already on it.  I'm excited to get away from ETH's gas prices while seeing the newest decentralized video service. #defi #AIOZ #youtube https://t.co/udXvpObixG",18,0
1375107583997050882,"2021-03-25T15:29:30Z","🚀 Safe The Children  🔷 Token Symbol : STC  🔷 Contract: https://t.co/nk3qsF2PJV  🔷 Website: https://t.co/4y0g7dqswM  🔷 Whitepaper: https://t.co/PHPZI4dbyR  🔷 Presentation Video : https://t.co/Mycfov12IU  #Safe_Childrens #Bitcoin  #Binance #BinanceSmartChain #DEFI  #BTC #ETH",14724,0
1375107575809736705,"2021-03-25T15:29:28Z","30 day EVIX: 104.5110 ETH/USD vwap: $1,589.70 04/16 expiry volume: $1,253,569.57 04/30 expiry volume: $8,562,140.26 Current time: 15:29:05",0,0
1375107574534705155,"2021-03-25T15:29:28Z","@ShardiB2 Looks like a likely capitulation dump.  Hope it holds support.  But eth sucks any way you cut it. To move $2000 UMA from wallet to wallet would have cost me $78.  Tried again next day $48.    Those gas fees are not sustainable.",0,0
1375107572026462217,"2021-03-25T15:29:28Z","🚨DO NOT FALL FOR SCAMS🚨  $EBOX token is not  trading anywhere at the moment-official contract address will only be posted on our  channels as following🤝  Official $EBOX Contract Address:   0x33840024177a7daca3468912363bed8b425015c5  Decimals: 18   Ticker: EBOX  #staysafe #ETH",234,0
1375107570281672707,"2021-03-25T15:29:27Z","And it's LIVE! $POODL now available for trading on WhiteBit! Here's what Tyrone has to say about it ;) #HOODLTHEPOODL   #SAFEMOON #HOGE $HOGE #crypto #cryptocurrencies #btc #eth #usdt #NFT https://t.co/Q3gLrA5hTz",334,0
1375107568381665281,"2021-03-25T15:29:27Z","RT @cryptowhitewalk: $ETH #Ethereum  time is here, can still wick till 1420s but who wants to buy the exact bottom $BTC pair looks solid ht…",40,0
1375107563742707712,"2021-03-25T15:29:26Z","#Unisocks $SOCKS NFT below, take a look at the price (315 pair of these digital socks in existence). Your #Ecomi $Ecomi $Omi #Omi #Veve $Veve NFTs / collectibles are more valuable than digital 'socks'.   $BTC #AI $LTC $ADA $FLOW $LINK $UNI $ETH $BNB $XRP $BCH $IOTA $NANO $MRX $IQ https://t.co/rNPlBsvpRU",0,0
1375107560789921795,"2021-03-25T15:29:25Z","$AIOZ launch is like Ethereum launching with YouTube already on it.  I'm excited to get away from ETH's gas prices while seeing the newest decentralized video service. #defi #AIOZ #youtube https://t.co/udXvpObixG",18,0
1375107560706093060,"2021-03-25T15:29:25Z","I've been trying to tell people about all the amazing things that @MetrixCoin is getting done for so long and I know people are probably sick of hearing about it but holy crap you should be paying attention.  $BTC $ETH $DRGN $VET $LTC #Bitcoin #Crypto #cryptocurrencies",36,18
1375107560504627207,"2021-03-25T15:29:25Z","RT @CashNCrypto: $150 to one person in 48hrs  Rt &amp; follow me + @domscrypto &amp; @boar_eth",2067,18
1375107558051045392,"2021-03-25T15:29:24Z","$CATE is just beginning its  journey to its destination. Congratulations to all who trust in the project!  $CATE $ETH $BNB $BTC $IRIS $DOT $UNI #NFTs #DeFi #Blockchain #Binance  @davidgokhshtein https://t.co/BrC0fUkDKx",4,18
1375107557983932421,"2021-03-25T15:29:24Z","At the beginning of March @sophiesaidso and I sat together with the intention of working towards 5 ETH bids on our art this month.   Sitting down with the idea to create something from the beginning that I deemed to be high value, made me consider more than just the quality of my https://t.co/gMamrejuxS",109,18
1375107535460425731,"2021-03-25T15:29:19Z","hey everyone! the auction for my genesis piece on @withFND is only going for 5 more hours!! thank you so much @Edgar_Frias_ for starting the bids at .2 eth 🙏💖🥳🌈 if any of you want this piece in your collection, now's your chance! #cryptoart  https://t.co/HVIYBEuJAb",17,18
1375107535108251650,"2021-03-25T15:29:19Z","Will BTC ever see $1,000,000?  🚨Follow for daily crypto polls🚨 🔌Stay up to date with how the market is thinking🔌  Here is my current portfolio: $VRA $BEPRO $ETH $DOT $ADA $BTC $THETA $ONE $OMI $VET $LTC $AVAX $HBAR $ENJ $SPI $CHZ $VET $CHZ $ERN $BNB",0,0
1375107532570685448,"2021-03-25T15:29:18Z","$AIOZ launch is like Ethereum launching with YouTube already on it.  I'm excited to get away from ETH's gas prices while seeing the newest decentralized video service. #defi #AIOZ #youtube https://t.co/udXvpObixG",18,0
1375107531543097348,"2021-03-25T15:29:18Z","The DEX @FinanceChainge is set to launch on the @FUSIONProtocol network with over a million users on the protocols waitlist. This decentralized exchange aims to innovate on traditional models through leveraging the Fusion Network.  #BSC #BTC #ETH #BNB  https://t.co/xx55YiGfm3",21660,0
1375107531308163075,"2021-03-25T15:29:18Z","And it's LIVE! $POODL now available for trading on WhiteBit! Here's what Tyrone has to say about it ;) #HOODLTHEPOODL   #SAFEMOON #HOGE $HOGE #crypto #cryptocurrencies #btc #eth #usdt #NFT https://t.co/Q3gLrA5hTz",334,0
1375107529903108100,"2021-03-25T15:29:18Z","“Ecstacy 54” paying homage to the Golden Era of New Night Life! Edition to 5 - .4 eth (see what I did there lol) Live now! https://t.co/ksGg5mqyPt #studio54 #NFTs #NFT #nftcollector #NFTCommunity @GabrielJWeis @eddiegangland @D0PEP0PE @WARHODL @Dario_Desiena @MannyLinx #loveyall https://t.co/W8h30vIQZj",36,9
1375107528997150722,"2021-03-25T15:29:17Z","Quant working with the worlds largest consultancy firms is just another confirmation that #Overledger is ready to be mass adopted..  They will take OVL to potential clients seeking innovation &amp; DLT/Blockchain implementation..  At this point, it is an inevitability ✅  $QNT $ETH https://t.co/K6X8FKA8Np",151,9
1375107522210582532,"2021-03-25T15:29:16Z","💯 Proof-of-stake protocol @Solana (SOL), which is being touted as another alternative to #Ethereum (ETH), has announced two strategic investments today, from crypto exchanges @OKEx and @MXC_Exchange.  https://t.co/lXcEd24hGy",25,9
1375107517236269084,"2021-03-25T15:29:15Z","$AIOZ launch is like Ethereum launching with YouTube already on it.  I'm excited to get away from ETH's gas prices while seeing the newest decentralized video service. #defi #AIOZ #youtube https://t.co/udXvpObixG",18,9
1375107516749729799,"2021-03-25T15:29:14Z","🎙️ @CompendiaOrg Massive Giveaway by 20+ Validators!  💥 Guess the block height of Compendia last March announcement!  💰 ß 84K (~$5,000 USD) PRIZE POOL!   More info: https://t.co/ZWnlX5NSKK  Best of luck! $BIND  #CompendiaMassiveMarch #CryptoGiveAway #DeFi #BTC #ETH #ARK #BIND https://t.co/LExvCErnq9",128,9
1375107500618432520,"2021-03-25T15:29:11Z","I am very excited to present my first work released on this new platform.  Parallelism combines different techniques and supports! I hope you enjoy.  https://t.co/1Yr9iXT85r  @withFND   #nftcollector #NFTCommunity #NFTartists #ETH https://t.co/5gcuM2nicq",30,9
1375107499712471040,"2021-03-25T15:29:10Z","And it's LIVE! $POODL now available for trading on WhiteBit! Here's what Tyrone has to say about it ;) #HOODLTHEPOODL   #SAFEMOON #HOGE $HOGE #crypto #cryptocurrencies #btc #eth #usdt #NFT https://t.co/Q3gLrA5hTz",334,9
1375107498856878082,"2021-03-25T15:29:10Z","New Airdrop: Diamond Crystal (DCT) Reward: 100 DCT ($100) Rate: ⭐️⭐️⭐️⭐️ Focus: Distribution starts after airdrop ends   Bot Airdrop Link: https://t.co/9Qzk47HUKt  #Airdrop #giveaway #BTC #ETH",4033,9
1375107497732739081,"2021-03-25T15:29:10Z","🐳 Large Order Detected 🐳    🏪 Market: ETH/USDC 🔹 Position Size: -37.81 ETH 💱 Entry Price: 1582.08 USDC  💵 Notional Value: $60000.0 📅 Time: 2021-03-25 15:28:30 🔗 Link: https://t.co/PCO9p4Isbq",0,0
1375107494410915841,"2021-03-25T15:29:09Z","Catch is finally here! Had a blast with this one❤️  1/1 #nft, available on @SuperRare   My first drop on the platform! So excited !!  Timed auction with a reserve price of 3 $Eth   https://t.co/AwKfgGha3C  #cryptoart #digitalart #superrare #nftdrop #illustration #SURREALISM https://t.co/QAAP1WBydW",97,0
1375107492057767937,"2021-03-25T15:29:09Z","📢Congrats！First launch on Uniswap！ 🚀USDT-NFTs trading pair is live！ 🚀The contract address:  0x6599fc3e77cbfa6f6e9cac605a30b1e78827eba0  💰Hold more NFTs, be richer！  🌸Like、Retweet &amp; Tag 3 friends  🚀Select 10 addresses to airdrop 1,000,000 NFTs, leave wallet #ETH address https://t.co/Slor4FBQzP",2943,0
1375107488576589828,"2021-03-25T15:29:08Z","🌋#ATD #Giveaway is on now! @a2dao_ 🌋  10 lucky users will receive $30 each in #ATD ✨  1️⃣Login &amp; Participate ☀️ https://t.co/wrbe0JlJuK   2️⃣Retweet and @ a friend  #DeFi #crypto #ALTSEASON #ETH #NFT https://t.co/oq0O5RbPbj",307,0
1375107486819131398,"2021-03-25T15:29:07Z","UPDATE : We raised the 20 ETH required to fund the WhiteBit listing. Stay tuned for further updates! $POODL #HOODLTHEPOODL https://t.co/5twimdOgaU",185,0
1375107475809185799,"2021-03-25T15:29:05Z","Happy Thursday loyal #cryptards - We are giving one lucky follower 0.5 $ETH if they RT, Like and Share with 5 accounts #ETH #BTC We will DM the winner",2,3
1375107464463585287,"2021-03-25T15:29:02Z","RT @scottmelker: Going to say something crazy but....  $ETH actually looks good against $BTC right now.",1800,3
1375107458096566272,"2021-03-25T15:29:00Z","Rafa Silva bought for 0.9 ETH (1438.97$) on the secondary market   Season: 2020-2021 Level: 4 Serial: 8/10 Price: 1438.97$  ⚽ Sorare: https://t.co/r0VHBcPSep  📊: https://t.co/OwLOLM3Jsf  #Sorare #NFT #Ethereum #FantasyFootball",0,0
1375107457660424195,"2021-03-25T15:29:00Z","@KongWorldArt @tphlat I've got a 4 piece drop right now; I hope you enjoy! - My #NFTs: https://t.co/5MEikTM739 - #NFTcollector #NFTartist #ETH #NFTsale https://t.co/xSJTgLxoBQ",5,0
1375107452044070913,"2021-03-25T15:28:59Z","If $KEY had a similar market cap as $DOGE it would be worth $1.80.  It’s currently sitting at a $71 million market cap. HUGE POTENTIAL for 🌙 🚀   $DENT $HOT $ADA $REEF $KEY $DOGE $NPXS $OGN $DGB $XLM $BTC $MATIC $ETH $BNB $TEL $ONE $ENJ $CHZ $ENJ $CHR $XEM https://t.co/7phY3RewXx",4,0
1375107451729686530,"2021-03-25T15:28:59Z","@DrBitcoinMD .Eth I think",1,0
1375107451637354498,"2021-03-25T15:28:59Z","Top 5 Mentions Updated Every 3 Minutes   Start Time: Thu Mar 25 2021 08:49:58 GMT+0300 (GMT+03:00)   (BETA STAGE)  1- $ETH==&gt;1520  2- $BNB==&gt;626  3- $DOGE==&gt;514  4- $XRP==&gt;472  5- $LINK==&gt;446",1,0
1375107450597224455,"2021-03-25T15:28:59Z","ALL CRYPTOCURRENCIES AND DIGITAL ASSETS BEWARE  All leaders involved in Cryptocurrencies and Digital Assets should read the 74 pages of the March 19 hearing.   The @SEC_Enforcement has not made a material distinction between #ETH #BTC and #XRP.  The SEC attorney’s comments https://t.co/xzd9oRb5mY",507,0
1375107449112330240,"2021-03-25T15:28:58Z","RT @TheMarjan: Wow, interesting, @Beeple doesn't believe in Ethereum and cashed out immediately. What does everyone think?  https://t.co/Nz…",98,0
1375107447359221771,"2021-03-25T15:28:58Z","RT @CryptoNewton: Longed $ETH.",716,0
1375107439314489345,"2021-03-25T15:28:56Z","It’s easier and less riskier to manipulate metrics than the market itself. You don’t need to sell anything. Instead, switch them and show as if they’re sold. They’re not risking to sell them, people buy them eventually. They can’t collect them now $btc $eth #altcoins",81,0
1375107434713341956,"2021-03-25T15:28:55Z","Uniswap V3 was just introduced! Lets take a look at it, especially at the concentrated liquidity.  #uniswap #uni #eth #ethereum #defi #crypto #hive #leofinance  https://t.co/YJDJZpUc2y",10,0
1375107424420388869,"2021-03-25T15:28:52Z","@SirHarsh1 @CryptoKaleo $ETH  If looking at rsi, potentially next pump will form lower high on rsi giving bearish divergence and signalling the top ala 2017...  That's when i will sell. I don't short, just sell my bags.",1,0
1375107405273559043,"2021-03-25T15:28:48Z","@ShardiB2 Bye eth/corn bears https://t.co/7KARMhk5Aa",1,0
1375107402215747584,"2021-03-25T15:28:47Z","@scylla440X @scottmelker Just like #eth is congested? And #defi wasn't going to eat up a piece? Lol 😆 if it needs to be fixed, it doesn't work.",0,0
1375107397203623941,"2021-03-25T15:28:46Z","No need to spend your own money to trade #cryptocurrency. Over 10K users won crypto rewards on @latokens last week. It's the best way to join the financial revolution. Start by earning a share of $100K in CLIQ airdrop: https://t.co/zNGOsOI9nb #Bitcoin #ETH #Citi #AON #LATOKEN",0,0
1375107393458176000,"2021-03-25T15:28:45Z","🔥New Listing @a2dao_ 🔥  #ATD trading will be enabled on https://t.co/8kWqgEeplL 😎  👉Trade: https://t.co/ExhZLJsBuu 👉Details: https://t.co/wHKyoIXPWV  #DeFi #crypto #ALTSEASON #ETH #NFT https://t.co/UjKmwZhqea",256,0
1375107393357549576,"2021-03-25T15:28:45Z","RT @scottmelker: Going to say something crazy but....  $ETH actually looks good against $BTC right now.",1800,0
1375107392749268997,"2021-03-25T15:28:45Z","And it's LIVE! $POODL now available for trading on WhiteBit! Here's what Tyrone has to say about it ;) #HOODLTHEPOODL   #SAFEMOON #HOGE $HOGE #crypto #cryptocurrencies #btc #eth #usdt #NFT https://t.co/Q3gLrA5hTz",334,0
1375107388835909636,"2021-03-25T15:28:44Z","Guys oimited airdrop go join 🥳 @Robain66535773 @Nanangsaprudi13 @ismail05042000 @ryzen000 @Pege86311802 @FanzulSquer @zainal_Zz  #STC #ETH #DEFI #PTO #IconicGoldAwards2021 https://t.co/tKOWQ0qlkX",1,1
1375107384708886529,"2021-03-25T15:28:43Z","One more buy for the month - $ETH  Added /some last night.  #cryptocurrencies #Crypto #Ethereum",0,0
1375107383240712195,"2021-03-25T15:28:43Z","#DeFi #BKC #eth2 #BucksCake #Airdrops  During BucksCake Private Pre-Sale  with our Staking Program🎫  you can get up to 💥 422% APY profit 🛥  Current APY% Rates: ❇️  ETH Staking - 9% APY 🚙 BNB Staking - 10%  APY 🛵 🔥 BKC Staking - 422% APY 🚀  More at https://t.co/RQPMhjazG2 https://t.co/jAz6gHuvbE",1405,0
1375107361266798599,"2021-03-25T15:28:37Z","#Unisocks $SOCKS NFT below, take a look at the price (315 pair of these digital socks in existence). Your #Ecomi $Ecomi $Omi #Omi #Veve $Veve NFTs / collectibles are more valuable than digital 'socks'.   $BTC #AI $LTC $ADA $FLOW $LINK $UNI $ETH $BNB $XRP $BCH $IOTA $NANO $MRX $IQ https://t.co/rNPlBsvpRU",0,1
1375107348797267974,"2021-03-25T15:28:34Z","RT @CryptoXinc: now I gotta transfer some more eth over the bridge https://t.co/LCFp7RwTXM",9,1
1375107348755177475,"2021-03-25T15:28:34Z","RT @whale_alert: 🚨 🚨 🚨 🚨  29,500 #ETH (47,301,087 USD) transferred from unknown wallet to unknown wallet  https://t.co/PqhiNWhuol",35,1
1375107348180529157,"2021-03-25T15:28:34Z","Today (March 25) 11h30PM GMT+8 (HKT)  ZDCash/BNB: 15% ZD/BNB: 15% ZDCash/BUSD: 45% BNB/BUSD: 5% BTCB/BNB: 5% BTCB/BUSD: 5% ETH/BNB: 5% USDT/BUSD: 5%  MORE POOLS WILL COME LATER.  $ZDCash #DeFi #HighAPY https://t.co/1WjomaGIqY",135,1
1375107333328543746,"2021-03-25T15:28:31Z","This month is the month when my second child was born. Exactly 3 years. This is a drawing of my daughter's face made last year. What is the right gift for this girl? ETH wallet? NFT?  Maybe he can disburse it in the next 20 years 😂😂 https://t.co/Gb8Y4BcEto",12,1
1375107331944558594,"2021-03-25T15:28:30Z","Ethereum $ETH - Fib Retracement on the daily chart. The lines in purple was previous support and resistance for 2021. If we fall under support we can see retracement back to 0.618. #Ethereum #ETH #cryptocurrencies #altcoins #altcoin https://t.co/rmOA298JN8",1,0
1375107330833022979,"2021-03-25T15:28:30Z","@PostyXBT + He probably dumped his $ETH at perfect bottom of ETH/BTC 🤷",1,0
1375107329406951424,"2021-03-25T15:28:30Z","$AMD $AAVE $ETH $GME $FIZZ $FOUR $EXPR $TSLA $NIO 🚀",0,0
1375107329100775424,"2021-03-25T15:28:30Z","@aurasberg you mean by cashing out eth?",0,0
1375107328232497155,"2021-03-25T15:28:29Z","@elonmusk Musical chairs game with ETH  https://t.co/Tb1Cf5yrq1  https://t.co/zlnEs0tSr5",0,0
1375107324121993217,"2021-03-25T15:28:28Z","They coming! #ZDCASH The BIGGEST and COUNTLESS types of POOLS we have MORE ways and MORE profits! #ZDCash/#BNB: 15% #ZD/#BNB: 15% #ZDCash/#BUSD: 45% #BNB/#BUSD: 5% #BTCB/#BNB: 5% #BTCB/#BUSD: 5% #ETH/#BNB: 5% #USDT/#BUSD: 5%  Today (March 25) 11h30PM GMT+8 (HKT) on @launchzoneann https://t.co/us9ISpclaT",142,0
1375107323618811907,"2021-03-25T15:28:28Z","Zoom! @BigComicArt by BigComicArt  1 of 1 • Now Available for Ξ 6.0  🔥 Genesis edition 🔥  https://t.co/u3hI1YfrC0  @KnownOrigin_io  Art by @bigcomicart  #cryptoart #NFT #cryptoartist #ETH",12,2
1375107321140015109,"2021-03-25T15:28:28Z","The DEX @FinanceChainge is set to launch on the @FUSIONProtocol network with over a million users on the protocols waitlist. This decentralized exchange aims to innovate on traditional models through leveraging the Fusion Network.  #BSC #BTC #ETH #BNB  https://t.co/xx55YiGfm3",21660,2
1375107318455672833,"2021-03-25T15:28:27Z","Join Here and earn your passive income Crypto with staking,vault etc. https://t.co/DoOnJ4FodL  #BinanceSmartChain #BSC  #btc #ETH #Binance #cz_binance  @cz_binance @JackMa",4,2
1375107308141735937,"2021-03-25T15:28:25Z","RT @LLinkston: Last couple days for me !!  $sc $btc $eth $link $dot $fil $manic $ocean https://t.co/deAbkXeTVM",30,2
1375107303532281862,"2021-03-25T15:28:24Z","@elonmusk what do you think of etherium ? 😁",0,0
1375107294443171843,"2021-03-25T15:28:21Z","✅Staking  ✅Yielding  ✅NFT Farming ✅Lending ✅Borrowing ❇️UNISWAP Link 👇  https://t.co/yC7rGJBSl0 One of the best  project. Fill your bags.Huge pumping is coming and  hopefully it will make us rich🤙  @CopsFinance #ETH #DeFi https://t.co/l1syvGeGn6",78,0
1375107285538766856,"2021-03-25T15:28:19Z","Some interesting insights into the project's recent history! https://t.co/NwN7ElKFtd  Give us a clap and on Medium write us a comment about what you thought below the article. The best comment wins $50 in ETH!   One random retweeter of this tweet will also win $20 in ETH!",21,0
1375107281403121666,"2021-03-25T15:28:18Z","@reverend365 @MoneyNostra $GRT, $ADA, and $ETH all day. Others like $NU and $ALGO have broken their trends and are going to have slow long-term recoveries to previous levels.",0,0
1375107270049198087,"2021-03-25T15:28:16Z","RT @CryptoNewton: Longed $ETH.",716,0
1375107267918397451,"2021-03-25T15:28:15Z","Tonight can't be sleep   Today (March 25) 11h30PM GMT+8 (HKT)  ZDCash/BNB: 15% ZD/BNB: 15% ZDCash/BUSD: 45% BNB/BUSD: 5% BTCB/BNB: 5% BTCB/BUSD: 5% ETH/BNB: 5% USDT/BUSD: 5%  MORE POOLS WILL COME LATER.  $ZDCash #DeFi #HighAPY https://t.co/3uDStsdJfo",120,0
1375107252995112963,"2021-03-25T15:28:12Z","New Airdrop: Diamond Crystal (DCT) Reward: 100 DCT ($100) Rate: ⭐️⭐️⭐️⭐️ Focus: Distribution starts after airdrop ends   Bot Airdrop Link: https://t.co/9Qzk47HUKt  #Airdrop #giveaway #BTC #ETH",4033,0
1375107248926519299,"2021-03-25T15:28:11Z","1/  🛸 Here comes a new farming program with @VesperFi!  🌐 Liquidity providers to $1INCH-$VSP pool will collect 150k $1INCH tokens and 100k $VSP tokens distributed over a 24-week period 🔷  #1inch #DeFi #Ethereum #ETH https://t.co/PMpUbnEybF",254,0
1375107247370551296,"2021-03-25T15:28:10Z","French Digital Insurance Leader Wakam Becomes Tezos Corporate Baker @hello_wakam @tezos @IgnoranceIt @XTZNews @TezosBakingBad @tezosbaking #Tezos #XTZ #TezosBaker #Baking #blockchain #DeFi #NFT #FinTech #Bitcoin #ETH #Trending #Crypto #TezosCommons https://t.co/wOebU4xZTC",31,0
1375107247337000964,"2021-03-25T15:28:10Z","Ethereum Socks   🛒 https://t.co/7FnWidekfv  👆Crypto merchandise so awesome that now we are the official cryptocurrency gear provider of all crypto fans 🧢👕🧦  $btc $eth $xrp $ltc $trx $xmr $neo $dash $vet $icx $link $hot $doge https://t.co/jwKtzxkTLe",1,0
