"ID","created_at","text","like_count","rt_count"
1377078186538754051,"2021-03-31T01:59:59Z","A kind and gracious thank to all who attended the inaugural Afternoon Tea &amp; ETC.  A sincere thank you to @stevanlohja for hosting this insightful, yet delightful gathering of the greatest minds in ETC.  We shall see you at the next gathering—feel free to bring your own eTea-c.🍵 https://t.co/KkQAWcG564",84,15
1377078173091827725,"2021-03-31T01:59:55Z","RT @QuintenFrancois: $ETH to $2500 in April or I'm giving away 0.3 $ETH to someone who retweets this.",4150,6184
1377078150929211400,"2021-03-31T01:59:50Z","RT @QuintenFrancois: $ETH to $2500 in April or I'm giving away 0.3 $ETH to someone who retweets this.",4150,6184
1377078150568407041,"2021-03-31T01:59:50Z","#LaunchZone is excited to announce the $ETH #BSC Spring Festival Referral Trading Challenge. $ETH is the leading crypto asset with high fee and slow transaction. Reward: 1.145 ETH ($2000 worth) Time: 30th Mar 11:30 PM to 30th Apr 2021 11:30 PM (HKT). https://t.co/XiUhW49c8Q https://t.co/GAQ1kPEIMo",257,142
1377078150010572803,"2021-03-31T01:59:50Z","Only for connoisseurs 👊 Reminder: piu capri by @maxosirisart was sold for 50 $eth.  I own two valuables Max's art pieces,  I'm willing to sell at a reasonable price because I need to raise funds for my projects.  [1/4]  @cctip_com draw 1.0046 WHALE 200 #nftart",187,82
1377078145145204736,"2021-03-31T01:59:49Z","@2154Trx Dropping it like it's hot. Handpainted digital watercolor pieces using soft and gentle tones to relax the eye and your heart. Get them now before they become 1 trillion ETH each! If my art doesn't speak to you check out my retweets for other great artists. https://t.co/LS8VHaVSIC",1,0
1377078141924048901,"2021-03-31T01:59:48Z","🗣SOLD for $1352! Natural Growth, a rare digital artwork. https://t.co/3x2GKLH5TP #raredigitalart #digitalart via @makersplaceco  #nft #nfts $eth",33,3
1377078139365494784,"2021-03-31T01:59:47Z","Gonna open at least 2 slots for NSFW art :0 Since I need to practice more! X3 Information on my Trello: https://t.co/F8RDIrg2ZX https://t.co/iILNrgUpLR",133,34
1377078133501743106,"2021-03-31T01:59:46Z","Which Crypto you think is the best for the evolution of Humanity 🌏♥️  #Crypto #cryptocurrenices #BTC #Bitcoin $Btc #Doge #Dogecoin #dogearmy $Doge #Ethereum #ETH $Etc",57,29
1377078132121960458,"2021-03-31T01:59:46Z","Punk 4176 bought for 85 ETH ($157,313.75 USD) by 0xb4bb41 from 0x338fd1. https://t.co/hhfkeXiWKu #cryptopunks #ethereum https://t.co/A5WHmfPSQe",16,3
1377078131358539776,"2021-03-31T01:59:46Z","$FIL The future market capitalization of FIL will reach $20.79 billion; if ETH is used as the reference standard, then the market capitalization of FIL can reach $29.427 billion. https://t.co/doFQNTdCIF",0,0
1377078101591531520,"2021-03-31T01:59:38Z","@launchzoneann Yasssss. #ETH price has soared to a new ATH of $1,950. Defi ecosystem that works on top of the Ethereum network is one it the biggest success story from crypto. Thank @launchzoneann for bringing this challenge to us. Let’s rock!!!! https://t.co/Wb4Ca6eyMX",1,0
1377078082809556993,"2021-03-31T01:59:34Z","HAWT. With my partnership with @illuviumio I can give away 100 HOLOGRAPHIC Scoot Scarabok NFTs.  Similar ones have gone for 5 eth to 50 eth.  How to get -Post your ETH address + BATTLE SCOOT! below -Retweet/tag a friend -Follow @illuviumio and join their discord in bio https://t.co/xcCVVW6KdR",2754,2661
1377078078367617028,"2021-03-31T01:59:33Z","@Billydakid7131 That it'll be $500 by the end of April? Half of my portfolio is in BNB, and the other half is mostly ETH with a mix of ID/LIGHT/RISKMOON  Sure enough, but still managing risk appropriately.",0,0
1377078071170232321,"2021-03-31T01:59:31Z","The DEX @FinanceChainge is set to launch on the @FUSIONProtocol network with over a million users on the protocols waitlist. This decentralized exchange aims to innovate on traditional models through leveraging the Fusion Network.  #BSC #BTC #ETH #BNB  https://t.co/xx55YiGfm3",21535,13658
1377078069828022273,"2021-03-31T01:59:31Z","Compound (APR)  noteworthy rate Δ  🔹 $ETH  - B 2.70% S 0.14%  🔹 $USDC - B 10.31% S 8.05%  🔹 $REP  - B 11.99% S 0.00%  🔹 $BAT  - B 6.59% S 0.72%  🔹 $ZRX  - B 6.93% S 0.80% 🔹 $WBTC  - B 2.49% S 0.03% 🔹 $DAI  - B 9.27% S 6.57% 🔹 $USDT  - B 16.16% S 13.29%",0,0
1377078065730310147,"2021-03-31T01:59:30Z","RT @QuintenFrancois: $ETH to $2500 in April or I'm giving away 0.3 $ETH to someone who retweets this.",4150,6184
1377078065679888387,"2021-03-31T01:59:30Z","@aicreepto @elliotrades @LynAldenContact There’s a lot more that makes Eth the king of smart contracts, than the decentralization aspect",3,0
1377078056809082887,"2021-03-31T01:59:28Z","Verasity’s technology uses advanced methods to ensure only views verified by Proof of View are counted. Views which are verified are added to a publicly accessible database containing anonymized data. #vra $vra #verasity #crypto #btc #eth",12,3
1377078055491919872,"2021-03-31T01:59:27Z","$QNT getting ready for the egg to hatch.  And when it finally does, #crypto is going to have the T-Rex 🦖  of crypto  climbing the ranks of #CMC.  🦖 ➡️🍽 $REV $YFI $RVN $EGLD  🦖 ➡️🍽 $EOS $ATOM $AAVE  🦖 ➡️🍽 $XLM $LINK $XRP  🦖 ➡️🍽 $XRP $ADA $ETH  🦖➡️👑 https://t.co/mDcPkQuANP",33,5
1377078051989639172,"2021-03-31T01:59:27Z","RT @WhaleAgents: $ETH will flip to 5k at 2021",166,137
1377078050643456002,"2021-03-31T01:59:26Z","WTC/SNM/ROSE/CUDOS/ROOBEE/QKC/ESS/SOTA/OVR get in the train guys crypto gang get on those coins coins or regret later #Binance #ETH #Bitcoin #cryptocurrency #cryptofuture007 @Nadeem6321",1,1
1377078019316142081,"2021-03-31T01:59:19Z","same ben, same.... #eth $eth https://t.co/t6avhVkoW3",0,0
1377078019110576134,"2021-03-31T01:59:19Z","It's time for Aave Weekly 2021W13 👻  @AaveAave closes week 13 of 2021 with $5.8 billion of liquidity 🌊  🥇 $ETH has the largest liquidity, followed by $LINK, $AAVE and $USDC https://t.co/F7jWhe2D4o",135,38
1377078018665971713,"2021-03-31T01:59:19Z","#LaunchZone is excited to announce the $ETH #BSC Spring Festival Referral Trading Challenge. $ETH is the leading crypto asset with high fee and slow transaction. Reward: 1.145 ETH ($2000 worth) Time: 30th Mar 11:30 PM to 30th Apr 2021 11:30 PM (HKT). https://t.co/XiUhW49c8Q https://t.co/GAQ1kPEIMo",257,142
1377078014538883075,"2021-03-31T01:59:18Z","We knocked off a zero! The price is only getting higher and higher!   Get your SQUIRTLE to save that TURTLE 🐢🚀  We're moonshooting!   $SQRT $PIKA $POODL $HOGE $DOGE $BNB $BTC $ETH #NFT  #savetheturtles #sealife #cleanoceans",10,5
1377078009019002883,"2021-03-31T01:59:16Z","Update: $BTC is now up 20% in 4 days!  See ya'll at a $65,000 #Bitcoin 🔥  👉 Follow me for more free 💵  ---  #crypto #bitcoin #defi #nfts $btc $eth $doge $ada $sxp $mtl $wan $hot $dent $wrx $ogn $kmd $ramp $axs $nuls $xvs $super $dock $fil $bnb $xvs $wan $rune $super $uni $btt https://t.co/kOWC4aFrgi https://t.co/CCkqYRYzwW",0,1
1377078007093809152,"2021-03-31T01:59:16Z","The expansion of Creams’ BSC money markets to include CAKE LP tokens allows the DeFi ecosystem to generate more liquidity and earnings for all participants. @CreamdotFinance @PancakeSwap  #BinanceSmartChain #BSC #BTC #ETH #Ethereum #BNB #crypto  https://t.co/1jraYax16q",92,31
1377078006787624962,"2021-03-31T01:59:16Z","Time for WitLink Token #Airdrop!  ✔️ Start the Airdrop bot: https://t.co/8HDV9cCJse  Complete the tasks to earn  Get 10 WAI ($2.5) + Get 4 WAI ($1) For Each Valid Refer   #ETH #BTC #WAI #LINK #Airdrops",1478,1424
1377077996587266049,"2021-03-31T01:59:13Z","🔴#GIVEAWAY ITEM NO.3:  💎 HighPotato #0019 💰Value : 0.03 #ETH  📣LAST CHANCE to be one of the five lucky winners of the HighPotato GIVEAWAY!🎁  ⏰ March 31, 4:20 PM-GMT🥔💨🚀  Criteria:👇🏻 Follow us, RT &amp; like any tweet!  https://t.co/SyWbbIbJ52   #NFT #nftcollector #NFTartist",65,50
1377077986592194560,"2021-03-31T01:59:11Z","RT @whale_alert: 🚨 🚨  14,065 #ETH (26,033,154 USD) transferred from unknown wallet to unknown wallet  https://t.co/ygd0p8hEOQ",30,3
1377077982905438210,"2021-03-31T01:59:10Z","💰10,000 #ETH (18,407,701 USD) move from #bittrex to unknown wallet   Date : 2021-03-31 01:57:50 (GMT 0) Blockchain : #ETHEREUM Symbol : #ETH   Detail: https://t.co/Yqi7FrTIMm",0,0
1377077976030867458,"2021-03-31T01:59:09Z","Only for connoisseurs 👊 Reminder: piu capri by @maxosirisart was sold for 50 $eth.  I own two valuables Max's art pieces,  I'm willing to sell at a reasonable price because I need to raise funds for my projects.  [1/4]  @cctip_com draw 1.0046 WHALE 200 #nftart",187,82
1377077968988561410,"2021-03-31T01:59:07Z","I'll send $300 in #ETH or #BTC to one person who retweets this and follows @bud_crypto. Must complete these tasks:  1 - Like/RT his pinned tweet  2 - Must RETWEET &amp; LIKE 4 of his tweets  Ends in 72 hours!",1210,1759
1377077962437107712,"2021-03-31T01:59:05Z","@BTC_JackSparrow I can’t wait until we start to value $ETH based on stock-to-flow. Memes for days",0,0
1377077956913344516,"2021-03-31T01:59:04Z","Genuinely curious if Art Twitter is going to boycott Paypal now..??? This is exponentially more environmentally damaging than NFTs because not only is Ethereum supported, but so is Bitcoin, which has 4x the emissions of ETH. What alternative platforms can independent artists use? https://t.co/zek7xyXwqL",1602,473
1377077937195921408,"2021-03-31T01:58:59Z","@CryptoVince369 I don't think we even know what the camps are yet. I think we need hold off on speculation that might start to divide. When we may be falsely speculating on how eth will be forked by Richard in the first place.",15,1
1377077933563514880,"2021-03-31T01:58:58Z","Buy the best products online using #CRYPTO on https://t.co/hAuIYjlfWh  #BTC #LTC #BCH #BEAM #BNB #BSV #BTG #BTT #BUSD #CELO #DAI #DASH #DGB #DIVI #DOGE #ETC #ETH #ETN #EURS #FIRO #GRS #KCS #KMD #LSK #OKB #OXEN #PIVX #QASH #QTUM #RVN #SRN #STORJ #TRX #WAVES #XEM #XMR #ZEC #ZEN https://t.co/mPnpPV9F4i",919,116
1377077930019459074,"2021-03-31T01:58:58Z","RT @PostyXBT: Doesn't feel like it will be long before $ETH breaks through $1850 and continues its mission up...",58,3
1377077910205566976,"2021-03-31T01:58:53Z","Top 5 Mentions Updated Every 3 Minutes   Start Time: Wed Mar 31 2021 00:13:52 GMT+0300 (GMT+03:00)   (BETA STAGE)  1- $ETH==&gt;934  2- $AMB==&gt;861  3- $BTS==&gt;857  4- $BNB==&gt;359  5- $XRP==&gt;257  - $Bitcoin #Bitcoin $Crypto #Crypto $Altcoin #Altcoin -",0,0
1377077902014095360,"2021-03-31T01:58:51Z","🔄 Prices update in $USDT (1 hour):  $BTC - 58907.28 $      (-0.11 %) $ETH - 1848.48 $       (-0.42 %) $DOT - 34.54 $         (+1.29 %) $ADA - 1.21 $          (-0.48 %)  #BTC #ETH #DOT #ADA #Crypto #Bitcoin",1,0
1377077901334568964,"2021-03-31T01:58:51Z","I'm super excited to announce my New Drop🔥 @makersplaceco Help me to share this with all the #NFTcomunity And make this drop huge!  Date: 𝗔𝗽𝗿𝗶𝗹 𝟬𝟮 𝟳:𝟬𝟬 𝗣𝗠 (𝗚𝗠𝗧+𝟮)  #cryptoart #cryptoartist #NFT #NFTart #NFTartist #ETH  #digitalart #raredigitalart #Ξ #collectible https://t.co/94CVRu7I9M",61,16
1377077889917722625,"2021-03-31T01:58:48Z","Which Crypto you think is the best for the evolution of Humanity 🌏♥️  #Crypto #cryptocurrenices #BTC #Bitcoin $Btc #Doge #Dogecoin #dogearmy $Doge #Ethereum #ETH $Etc",57,29
1377077885207478275,"2021-03-31T01:58:47Z","RT @intocryptoverse: $ETH chilling above $1800.  Not a bad day.",1057,49
1377077882514718721,"2021-03-31T01:58:46Z","RT @QuintenFrancois: $ETH to $2500 in April or I'm giving away 0.3 $ETH to someone who retweets this.",4150,6184
1377077882229563394,"2021-03-31T01:58:46Z","@elliotrades If you have priced out middle-class from using ETH, I think thats pretty much the definition of dead.",5,0
1377077874885201920,"2021-03-31T01:58:44Z","🗞 @PayPal: today the online payments company announced that it will let US customers use #cryptocurrency to pay at millions of merchants with no additional fees  #LTC #ETH #BTC",3,1
1377077866358140933,"2021-03-31T01:58:42Z","Beginning April 1st at 00:00 UTC — in 24 hours — we will be giving away $100 a day until we launch our presale on #bsc.   Rules are simple: Follow us and #Retweet any of our tweets from that day. We will choose one winner each day and send them $100 in $ETH. Good luck! https://t.co/XwxcRi05c1",381,463
1377077864869228550,"2021-03-31T01:58:42Z","@NewsAsset ETH will be swallowed by flare, polkadot, avalanche, and or something else. And the sooner the better!",0,0
1377077853032955908,"2021-03-31T01:58:39Z","@GoingParabolic @stoolpresidente I like this one better! 🤪   #BTC $btc $vgx $eth  https://t.co/XYb3U6Zqr2 https://t.co/eLUpUrWvE1",3,0
1377077845567045632,"2021-03-31T01:58:37Z","It's time for Aave Weekly 2021W13 👻  @AaveAave closes week 13 of 2021 with $5.8 billion of liquidity 🌊  🥇 $ETH has the largest liquidity, followed by $LINK, $AAVE and $USDC https://t.co/F7jWhe2D4o",135,38
1377077845554458627,"2021-03-31T01:58:37Z","HAWT. With my partnership with @illuviumio I can give away 100 HOLOGRAPHIC Scoot Scarabok NFTs.  Similar ones have gone for 5 eth to 50 eth.  How to get -Post your ETH address + BATTLE SCOOT! below -Retweet/tag a friend -Follow @illuviumio and join their discord in bio https://t.co/xcCVVW6KdR",2754,2661
1377077836842987522,"2021-03-31T01:58:35Z","$ETH  If the daily candle closes above 2k, it will easily cross 2500$ mark. Keep an eye on it.  Checkout the link in bio for crypto signals  $SOL $STPT $REQ $CTXC #bitcoin #CRYPTO 40868 https://t.co/s7TEhRI5oV",2,0
1377077836259991552,"2021-03-31T01:58:35Z","Hi yes #Ethereum can you please go back above $2,000 k thanks bye. #ETH $eth #bitcoin #btc $btc #crypto #cryptonews #cryptotwitter #cryptotrading #altcoin #nft #defi #nfts #bitcoinnews #bitcointrading #cryptocurrency #cryptoart #cryptoartist #blockchain #buythedip",1,0
1377077835270127618,"2021-03-31T01:58:35Z","Ricardo Pepi bought for 0.336 ETH (624.60$) by Iankk  on the primary market   Season: 2020-2021 Level: 0 Serial: 61/100 Price: 624.60$  ⚽ Sorare: https://t.co/z7oxftfMWL  📊: https://t.co/HHXhjGNhLV  #Sorare #NFT #Ethereum #FantasyFootball",0,0
1377077832795439104,"2021-03-31T01:58:34Z","But I can see why ppl 1000-10000x there couple gs into millions in a short span of time having tried what is essentially Defi so far.. the ability to swap,stake at least on ETH but on Solana you also can trade",1,0
1377077820363448320,"2021-03-31T01:58:31Z","#Ethereum 🥰😍   https://t.co/SNVNx2vKUt for sale,  grab this premium domain name for your #business / #startup.   #ETH #cryptocurrencies #CryptoNews #Blockchain #Ether #NFT https://t.co/ablYZ0ZQ3P",0,0
1377077816936656904,"2021-03-31T01:58:31Z","@SatsMoonSoon @GTSewell @hipworth_ @natehillphoto @DaveGoode5 @CapitalGian @rustysniper1 @JimThalassoudis @ZamArtist @NicholasKeays1 @rooks_xx @lushsux @pnau @flumemusic @Runitwild @DCLBlogger @majorart_eth @MILKBAR_x @Benza333 @marc0matic @A_Giant_Swan cheers!",5,0
1377077810871693320,"2021-03-31T01:58:29Z","when they are pump i see many people sell for stop lost. don’t say “why this coin is dead or move like snail.” if you like crypto because it’s make money please stop yourself to be a bearish. $ankr $matic $coti $eth $iota $storj $rvn $one $ftm $sushi $uni $dot",6,0
1377077800096571395,"2021-03-31T01:58:27Z","@elliotrades it is. eth-btc ratio lagging all year, and visa news barely changes it. most eth maxis are in denial how unusable most eth dapps are",3,0
1377077793129910280,"2021-03-31T01:58:25Z","Genuinely curious if Art Twitter is going to boycott Paypal now..??? This is exponentially more environmentally damaging than NFTs because not only is Ethereum supported, but so is Bitcoin, which has 4x the emissions of ETH. What alternative platforms can independent artists use? https://t.co/zek7xyXwqL",1602,473
1377077790827220992,"2021-03-31T01:58:24Z","RT @QuintenFrancois: $ETH to $2500 in April or I'm giving away 0.3 $ETH to someone who retweets this.",4150,6184
1377077788964970501,"2021-03-31T01:58:24Z","@IchimokuScholar Because pump my eth and btc bags I'm a tradelord who lost 80% of my networth buying aths and have been salty ever since and demand everyone else be too",7,0
1377077781343920133,"2021-03-31T01:58:22Z","Welcome to massive Q DAO airdrop!   1. go now to telegram https://t.co/COyXgODY1z   2. Stay in telegram chat and wait announcement.  3. HOLD this gem until 10x   (soon - QDAO launch cross-chain for BSC, Polkadot and ETH)",4217,6165
1377077744077430793,"2021-03-31T01:58:13Z","@Bitcoin NEW TRADING SITE FOR CRYPTO: https://t.co/95W1jQ3Wvp https://t.co/cPmEQcsGcN  🚨🚨🚨NEW  1 OnTime(OTO) token= $62.33 @ 0.033694 Eth  1 InTime (ITO) token= $30.21 @ 0.016302 Eth  https://t.co/7nzcyLPvxh",0,0
1377077734850097157,"2021-03-31T01:58:11Z","@KennethBosak I had ETH before and when I found about nfts. I got recommended opensea and I went for it. There’s so many options out so I thought start here get enough money to mint other sites. The fees add up unfortunately",2,0
1377077729510760448,"2021-03-31T01:58:10Z","RT @arktoshidotcom: I’ve heard that Whale groups 🇻🇳 are going to swap their $NEO $ETH $ETC bags to $ARK. Bullish signal confirmed! 🐳 #ARKto…",25,10
1377077710736986113,"2021-03-31T01:58:05Z","RT @XrpJust: IMAGINE BUYING #ETH at $.03 that's #XDC right now but Gen 3 protocols",44,11
1377077707427614721,"2021-03-31T01:58:04Z","@SatsMoonSoon @GTSewell @hipworth_ @natehillphoto @DaveGoode5 @CapitalGian @rustysniper1 @JimThalassoudis @ZamArtist @NicholasKeays1 @rooks_xx @lushsux @Shokmachine1 @pnau @flumemusic @Runitwild @DCLBlogger @majorart_eth @MILKBAR_x @Benza333 @marc0matic Makin our own waves down here 🌊🌊🌊",7,0
1377077703233314821,"2021-03-31T01:58:03Z","Is amazing to see how this project has been out since Dec 2020 and so far Liquidity Providers have earned about 6533.78 $ETH and that is the total value of $10.6 Million dollars. 💪  Also the APY doing 301.35% which is amazing.  #DeFi #UniSwap #BSC #SmartContract #Ethereum https://t.co/9a7rgyoMpE",2385,2476
1377077694899314689,"2021-03-31T01:58:01Z","Top 10 Coins Mentioned on Twitter Last Week 📣  $BTC 1,751,412 $ETH 267,287 $DOGE 200,050 $CAKE 152,555 $ADA 149,907 $CHZ 78,208 $LINK 71,556 $POLS 59,075 $KLV 52,392 $XRP 48,110  👉 https://t.co/AgXao7y3eB https://t.co/btPf4hoyZp",587,196
1377077690390478849,"2021-03-31T01:58:00Z","RT @QuintenFrancois: $ETH to $2500 in April or I'm giving away 0.3 $ETH to someone who retweets this.",4150,6184
1377077684178669575,"2021-03-31T01:57:59Z","PREDICTION: BY THE TIME I GIVE AWAY THESE 5 #Ethereum   They will be worth well over $10k total  Let the countdown begin  ALSO:  this 2+ month #eth pattern looks like it's about to blow it's top off  I'M JUICED ON APRIL 🌕🌕  #Bitcoin https://t.co/hPb0ntcjoa",444,76
1377077679757877248,"2021-03-31T01:57:58Z","Slow 115 | Normal 116 | Fast 132 | Instant 148 👈 current Ethereum gas prices in gwei. DM me a price and I will DM you as soon as gas drops below that price 👍 #Ethereum #GasPrice #ETHGasPrice #ETH",0,0
1377077669498609673,"2021-03-31T01:57:55Z","Genuinely curious if Art Twitter is going to boycott Paypal now..??? This is exponentially more environmentally damaging than NFTs because not only is Ethereum supported, but so is Bitcoin, which has 4x the emissions of ETH. What alternative platforms can independent artists use? https://t.co/zek7xyXwqL",1602,473
1377077664968630275,"2021-03-31T01:57:54Z","Welcome to massive Q DAO airdrop!   1. go now to telegram https://t.co/COyXgODY1z   2. Stay in telegram chat and wait announcement.  3. HOLD this gem until 10x   (soon - QDAO launch cross-chain for BSC, Polkadot and ETH)",4217,6165
1377077659478417412,"2021-03-31T01:57:53Z","🔥 SOLD!  Edition #7/8 of Amogus from the @lushsux x @Crypto888crypto collaboration has sold for 13.62 ETH ($24,700 USD)   FINAL edition is live and ends tomorrow 03/30 at 3:30pm PST  👇👇 https://t.co/LLBuPyXEkQ  #NFT #CryptoArt https://t.co/buLogic5S8",65,7
1377077659079901184,"2021-03-31T01:57:53Z","Genuinely curious if Art Twitter is going to boycott Paypal now..??? This is exponentially more environmentally damaging than NFTs because not only is Ethereum supported, but so is Bitcoin, which has 4x the emissions of ETH. What alternative platforms can independent artists use? https://t.co/zek7xyXwqL",1602,473
1377077648979947522,"2021-03-31T01:57:51Z","payment can be in #Bitcoin, $ETH, paypal, cashapp, gcash, indo ewallet, $DOGE, $BNB, any crypto, whatever you want. must be following if you win so i can dm. #giveaway ends in 1 week. 🍀",1201,232
1377077642042646533,"2021-03-31T01:57:49Z","I'll send $300 in #ETH or #BTC to one person who retweets this and follows @bud_crypto. Must complete these tasks:  1 - Like/RT his pinned tweet  2 - Must RETWEET &amp; LIKE 4 of his tweets  Ends in 72 hours!",1210,1759
1377077632664227845,"2021-03-31T01:57:47Z","Win #NFT worth ETH!  To WIN You MUST:    1.) Follow @degenasaurus  2.) RT tweet BELOW + comment it  3.) OPTION -&gt; Join Discord post name in twitter comp channel: https://t.co/alAVVDlyQu  NFT: https://t.co/l37pUrR6Y3  Luck!!  @coinkit_ mon 35 1000 BTC  https://t.co/wFeOut8N85",116,856
1377077631896539140,"2021-03-31T01:57:46Z","The ONLY way I am getting rid of my Wolverine @SpeediesNFT is for 100 ETH. Period. Just so i can get more. :) https://t.co/AhdvFZIw3z",1,0
1377077631426777090,"2021-03-31T01:57:46Z","#NFTs on #Rewardiqa coming soon ! 🔥🚀🚀🚀👨‍🎨 #NFTCommunity  #nftcollector #NFTdrop #NFTGiveaway #REW #DeFi #BSCPAD #eth #btc #opensea #marketplace #bullrun #BinanceSmartChain https://t.co/Bo1M9Pox2L",820,756
1377077630311264258,"2021-03-31T01:57:46Z","$ETH will surpass 10,000$ $RSR Will surpass 2$ $LINK will surpass 200$ #API3 Will surpass 100$ $OCEAN will surpass 20$ $NIOX will surpass 10$ $HTR will surpass 50$  Question is will you be holding still?",744,96
1377077616033824770,"2021-03-31T01:57:43Z","RT @QuintenFrancois: $ETH to $2500 in April or I'm giving away 0.3 $ETH to someone who retweets this.",4150,6184
1377077610874818572,"2021-03-31T01:57:41Z","#LaunchZone is very excited to announce the $BETH #BSC Spring Festival Referral Trading Challenge. $BETH is a tokenized asset representing ETH at a 1:1 ratio Reward: 0.5725 BETH ($1,000 worth) Time: 30th Mar 11:30 PM to 30th Apr 2021 11:30 PM (HKT). https://t.co/uUPTMJ6xwU https://t.co/lKqPqxroiU",267,145
1377077583880290304,"2021-03-31T01:57:35Z","HAWT. With my partnership with @illuviumio I can give away 100 HOLOGRAPHIC Scoot Scarabok NFTs.  Similar ones have gone for 5 eth to 50 eth.  How to get -Post your ETH address + BATTLE SCOOT! below -Retweet/tag a friend -Follow @illuviumio and join their discord in bio https://t.co/xcCVVW6KdR",2754,2661
1377077576863117316,"2021-03-31T01:57:33Z","RT @WhaleAgents: $ETH will flip to 5k at 2021",166,137
1377077570148044801,"2021-03-31T01:57:32Z","RT @NFTFusion: What’s your ETH address?  No questions, just drop it below 👇 #NFT #NFTs",1955,1480
1377077568260694017,"2021-03-31T01:57:31Z","Wrapped Mooncat #8020 was purchased for 0.35 ETH   #mooncats #mooncatsrescue https://t.co/DP8O3oioR8",0,0
1377077568126517249,"2021-03-31T01:57:31Z","Holding $CNS is like holding #ETH in 2016. It's okay to doubt and it's also okay to take a leap of faith. @CentricRise is clearly defined, a  unique project with a dual token protocol with a predictive future.   $CNS is undervalued.   🚀🚀🚀",125,51
1377077564770897921,"2021-03-31T01:57:30Z","RT @QuintenFrancois: $ETH to $2500 in April or I'm giving away 0.3 $ETH to someone who retweets this.",4150,6184
1377077556260798474,"2021-03-31T01:57:28Z","RT @drakefjustin: if capped-supply BTC is sound money 📢  decreasing-supply ETH is ultrasound money 🦇 https://t.co/Y9N8HBmHBr",960,210
1377077553974845441,"2021-03-31T01:57:28Z","It's time for Aave Weekly 2021W13 👻  @AaveAave closes week 13 of 2021 with $5.8 billion of liquidity 🌊  🥇 $ETH has the largest liquidity, followed by $LINK, $AAVE and $USDC https://t.co/F7jWhe2D4o",135,38
1377077543107448832,"2021-03-31T01:57:25Z","⚠️⚠️⚠️ $UBT #Unibright  Everything about Unibright . This safes you a lot of time when you research by your own.A great summary . #Ethereum #Blockchain #EnterpriseDefi #DeFi #Freequity  #Provide #baselineprotocol #SAP  @BaseledgerNet  $ETH $BTC  https://t.co/tEJdGqcrRY",40,9
1377077534924419077,"2021-03-31T01:57:23Z","@KennethBosak imagine owning the sketch of Thor's hammer or any other iconic Comichero weaponry, I don't got eth to go that hard so i'm sticking to panels but if Stan Lee could see NFTs at the peak he would be crying for like months at how much money he could make in a market like this/hisname",0,0
1377077522953871360,"2021-03-31T01:57:20Z","@elliotrades EtTHmight not be dead, but it is dead to me 🤷‍♂️ I'll put my ETH money into ADA and DOT. Those are my new ETH.",1,0
1377077512770043906,"2021-03-31T01:57:18Z","RT @abit_hex: It's ok to start at the bottom, but it's not ok to stay there.  -@YORmadjic   #HEX #Cryptocurrency #ETH #BTC",32,2
1377077507392827394,"2021-03-31T01:57:17Z","#LaunchZone is excited to announce the $ETH #BSC Spring Festival Referral Trading Challenge. $ETH is the leading crypto asset with high fee and slow transaction. Reward: 1.145 ETH ($2000 worth) Time: 30th Mar 11:30 PM to 30th Apr 2021 11:30 PM (HKT). https://t.co/XiUhW49c8Q https://t.co/GAQ1kPEIMo",257,142
1377077504280821761,"2021-03-31T01:57:16Z","🟩 $BASE Will Moon So Hard 💎  Base Protocol will soon be doing a “Power Week” where they drop news every day.  👉 Hold a bag before it begin 😏 📈 My Target: Minimum 20x 🚀🌙  ___________________________ @cctip_com airdrop 0.01 ETH 99999 https://t.co/WPBJ9ZZp9k",155,213
