"ID","created_at","text","like_count","rt_count"
1376549700996763648,"2021-03-29T14:59:58Z","#DeGate unique initial Social Media token offering:📣  To honor contributors to Crypto Assets on social media, DeGate offers an early opportunity to buy DG tokens at a preferential rate. 10 m DG tokens at $0.005  Start ➡️ March 29  https://t.co/5gPWIBwZea  #ETH #BTC #DeFi https://t.co/2qpuVZGJKm",1751,0
1376549699428188161,"2021-03-29T14:59:58Z","Updating my pinned post! I currently have two pieces available, one on @opensea and the other on @withFND. The prices are .5 $ETH and a .75 reserve respectively. 😊  https://t.co/Kp70WEaXMu  https://t.co/ZMrIGllhuk  #NFT #cryptoart #nftcollector #nftart #NFTartist https://t.co/7NGMyHS6aw",114,0
1376549685662523395,"2021-03-29T14:59:54Z","@mickalamasse1 @Exeedme @Poolz__ @bepronet Go go go #tacotothemoon #tacotoken🌶 #defi #cryptocurrency #BinanceSmartChain  #eth #btc  #tacoswap @exeedme @poolz__ @bepronet",41,0
1376549678792183809,"2021-03-29T14:59:53Z","Dear investors !   #tacoswap is on 🔥 $ 5 million staked !  It’s just the begining !  What are you waiting for to have your taco and join the adventure!  #tacotothemoon #tacotoken🌶 #defi #cryptocurrency #BinanceSmartChain #eth #btc #tacoswap @exeedme @poolz__ @bepronet",1172,0
1376549673406726144,"2021-03-29T14:59:51Z","@mickalamasse1 @Exeedme @Poolz__ @bepronet Join us guys! 🌶🌶   #tacotothemoon #tacotoken🌶 #defi #cryptocurrency #BinanceSmartChain  #eth #btc  #tacoswap @exeedme @poolz__ @bepronet",59,0
1376549668960808967,"2021-03-29T14:59:50Z","@KONOGATARI I'm The ANT (Ancient) #NFT Creator on #rarible . Get my first 1/1 NFT.  Be first to grab it and get 100cm x 70cm canvas.  Price: 20 ETH  All #NFTs are based on Animals Some of the profits will be to help Some Animals where i can. Blesses from The ANT https://t.co/ghvLl67QNk",4,0
1376549668952231945,"2021-03-29T14:59:50Z","The DEX @FinanceChainge is set to launch on the @FUSIONProtocol network with over a million users on the protocols waitlist. This decentralized exchange aims to innovate on traditional models through leveraging the Fusion Network.  #BSC #BTC #ETH #BNB  https://t.co/xx55YiGfm3",21659,0
1376549668201623556,"2021-03-29T14:59:50Z","@a3voices @t0nzbrah @TylerDurden @Visa And it is necessary, as I explained 10 times before. ETH need it.",0,0
1376549661490741250,"2021-03-29T14:59:49Z","Dear investors !   #tacoswap is on 🔥 $ 5 million staked !  It’s just the begining !  What are you waiting for to have your taco and join the adventure!  #tacotothemoon #tacotoken🌶 #defi #cryptocurrency #BinanceSmartChain #eth #btc #tacoswap @exeedme @poolz__ @bepronet",1172,0
1376549651973877762,"2021-03-29T14:59:46Z","@mickalamasse1 @Exeedme @Poolz__ @bepronet Taco taco to the mooooooon 🌶🔥💪🏻#tacotothemoon #tacotoken🌶 #defi #cryptocurrency #BinanceSmartChain  #eth #btc  #tacoswap @exeedme @poolz__ @bepronet",55,0
1376549646932324356,"2021-03-29T14:59:45Z","Dear investors !   #tacoswap is on 🔥 $ 5 million staked !  It’s just the begining !  What are you waiting for to have your taco and join the adventure!  #tacotothemoon #tacotoken🌶 #defi #cryptocurrency #BinanceSmartChain #eth #btc #tacoswap @exeedme @poolz__ @bepronet",1172,0
1376549642620465164,"2021-03-29T14:59:44Z","$ETH almost reaching my target prediction. https://t.co/NGCs0TBrwd",47,0
1376549641970417667,"2021-03-29T14:59:44Z","💰What’s your #ETH wallet address?  🚀Don’t ask why, just drop it below👇  🚀Like、Retweet &amp; Tag ALL U CAN  🚀 USDT-NFTs has been listed on Uniswap！  🚀 The contract address: 0x6599fc3e77cbfa6f6e9cac605a30b1e78827eba0  #NFTs #NFT #AIRDROP #UNISWAP https://t.co/H29ZBOR0aL",1386,0
1376549629626511360,"2021-03-29T14:59:41Z","💧Roku Network Airdrop 💧  🏆 Task:          ➕  15 ROK (~$5)  👨‍👩‍👧 Referral:   ➕  3 ROK (~$1)  🔛  Airdrop Link &amp; Information: https://t.co/YhvsOcfEbH  #cryptocurrency #Crypto #Bitcoin  #BSC #BinanceSmartChain #Ethereum #ETH #Airdrop #bounty #ROK #RokuCoin #RokuNetwork",3811,0
1376549623725101061,"2021-03-29T14:59:40Z","The DEX @FinanceChainge is set to launch on the @FUSIONProtocol network with over a million users on the protocols waitlist. This decentralized exchange aims to innovate on traditional models through leveraging the Fusion Network.  #BSC #BTC #ETH #BNB  https://t.co/xx55YiGfm3",21659,0
1376549623297359887,"2021-03-29T14:59:39Z","Big news. Reconciliation &gt; ETH.   Fun how the news is buried ... USDC is quite the branding. Can’t blame them for couching it to assuage the old school. https://t.co/ScwawzV8FZ",0,0
1376549618373308416,"2021-03-29T14:59:38Z","RT @davidiach: Just so you know, Visa will need to buy $ETH to pay for transaction fees.",2333,0
1376549617203040259,"2021-03-29T14:59:38Z","RT @TylerDurden: So @Visa are using the ETH blockchain to settle payments.  Looking forward to paying $3 for coffee + $900 gas fee and wait…",9326,0
1376549617165275144,"2021-03-29T14:59:38Z","@mickalamasse1 @Exeedme @Poolz__ @bepronet join us on #tacoswap, you will find better yields than uniswap and sushiswap. why not?  #tacotothemoon #tacotoken🌶 #defi #cryptocurrency #BinanceSmartChain #eth #btc #tacoswap @exeedme @poolz__ @bepronet",22,0
1376549614447386632,"2021-03-29T14:59:37Z","@itsoffwrld I'm The ANT (Ancient) #NFT Creator on #rarible . Get my first 1/1 NFT.  Be first to grab it and get 100cm x 70cm canvas.  Price: 20 ETH  All #NFTs are based on Animals Some of the profits will be to help Some Animals where i can. Blesses from The ANT https://t.co/ghvLl67QNk",4,0
1376549612878766092,"2021-03-29T14:59:37Z","Dear investors !   #tacoswap is on 🔥 $ 5 million staked !  It’s just the begining !  What are you waiting for to have your taco and join the adventure!  #tacotothemoon #tacotoken🌶 #defi #cryptocurrency #BinanceSmartChain #eth #btc #tacoswap @exeedme @poolz__ @bepronet",1172,0
1376549611163189259,"2021-03-29T14:59:37Z","The Binance Smart Chain (BSC) is the leading development platform for decentralized applications. Critical to the reliability of BSC is a set of network nodes known as Validators.  #BinanceSmartChain #BSC #BTC #ETH #Ethereum #BNB #crypto  https://t.co/IPXIHQqDsv",147,0
1376549609892290563,"2021-03-29T14:59:36Z","The DEX @FinanceChainge is set to launch on the @FUSIONProtocol network with over a million users on the protocols waitlist. This decentralized exchange aims to innovate on traditional models through leveraging the Fusion Network.  #BSC #BTC #ETH #BNB  https://t.co/xx55YiGfm3",21659,0
1376549596059598852,"2021-03-29T14:59:33Z","HUGE coin burn coming out of $XEP. This paired with it's tech, #ElectraPay, and the confirmed T1 exchange listing seems like investing is a no brainier. #btc #eth #ltc #BSC https://t.co/uMj8KXjHXt",29,0
1376549593257799681,"2021-03-29T14:59:32Z","#nftartists drop those #nfts ⚡⚡⚡  1. follow me 2. like and retweet 3. leave your art in the comments  doing artist showcase on our favorites⚡⚡⚡  #nft #nftartist #nftart #cryptoart #nftcollectors #nftcollector #ethereum #nftartists #eth",10,0
1376549591680704516,"2021-03-29T14:59:32Z","@OgbeniDipo Caught the signal on Eth earlier and put in some worth of 1.+ of eth Profit now at £120+",7,0
1376549591391346698,"2021-03-29T14:59:32Z","Whether you're an incumbent payment network settling stables (Visa), or an L2 network settling trades, swaps, &amp; transfers (Loopring),   if you want the guarantees of the most secure settlement layer in the world (Ethereum), you pay the toll in $ETH 🛣️",206,0
1376549580125302784,"2021-03-29T14:59:29Z","Dear investors !   #tacoswap is on 🔥 $ 5 million staked !  It’s just the begining !  What are you waiting for to have your taco and join the adventure!  #tacotothemoon #tacotoken🌶 #defi #cryptocurrency #BinanceSmartChain #eth #btc #tacoswap @exeedme @poolz__ @bepronet",1172,0
1376549575427825665,"2021-03-29T14:59:28Z","Phore holders get Graphene tokens for free!🚀  💸Get 10 $GFN for every 1 $PHR you hold*💸  ➡️➡️➡️ https://t.co/BnYkuvMvjq ⬅️⬅️⬅️   Don't have #Phore? Don't miss out!🤗  👇Watch the video below to find out how👇  #Bitcoin #Ethereum $BTC $ETH #Graphene $GFN #airdrop #cryptocurrency https://t.co/CXUBMdaIeI",78,0
1376549575276773380,"2021-03-29T14:59:28Z","Sounds like that our one word  https://t.co/F5GIgDOQ6Z   has higher chance to find it’s new owner.   #Ethereum #ETH #Binance #CryptoNews #cryptocurrency #altcoin #DeFi #Coinbase #Coinmarketcap #Coinbase #domainsforsale #buydomainname #domainmarket https://t.co/yJ0dzLFLSn",1,0
1376549568414879744,"2021-03-29T14:59:26Z","🤣 #eth needs to get its act together.  #fees are stupid expensive https://t.co/5qTOMM0LjP",3,0
1376549565088686080,"2021-03-29T14:59:26Z","#MXCExchange will list $TOWER and Launch the 43rd Session MX DeFi - Stake $USDT, $MX, $BTC, $ETH to Earn Yield $TOWER.  ▶️Follow @MXC_Exchange &amp; @TowerToken  ▶️Like, RT &amp; Tag 3 friends ▶️Comment  🏆10 ppl * 125 $TOWER  More info about the listing: https://t.co/VqsPboXOb5 https://t.co/6RZ4gmWYtY",998,0
1376549563754897409,"2021-03-29T14:59:25Z","#DeGate unique initial Social Media token offering:📣  To honor contributors to Crypto Assets on social media, DeGate offers an early opportunity to buy DG tokens at a preferential rate. 10 m DG tokens at $0.005  Start ➡️ March 29  https://t.co/5gPWIBwZea  #ETH #BTC #DeFi https://t.co/2qpuVZGJKm",1751,0
1376549559883603976,"2021-03-29T14:59:24Z","💧Poplink Oracles Airdrop 💧  🏆 Task:          ➕  50 POPO (~$50)  👨‍👩‍👧 Referral:  ➕  15 POPO (~$15)  🔛  Airdrop Link &amp; Information: https://t.co/DS6g34KhFp  #cryptocurrency #Crypto #Bitcoin  #BSC #BinanceSmartChain #Ethereum #ETH #Airdrop #bounty #POPO #Poplink",6787,0
1376549558658985989,"2021-03-29T14:59:24Z","Researchers at @ETH_en have developed a #wristband equipped with sensors to enable free-hand, intuitive working in #VR that could be used in everyday applications. @cholz @CSatETH #VRexperience https://t.co/NL0D45VkaN https://t.co/OszbxUU5vx",0,0
1376549558419824642,"2021-03-29T14:59:24Z","$ETH still going strong. https://t.co/46KXo7JXFC",48,3
1376549555626475520,"2021-03-29T14:59:23Z","Why $ETH though? https://t.co/D2ukwCtrgC",0,0
1376549554502385673,"2021-03-29T14:59:23Z","@mickalamasse1 @Exeedme @Poolz__ @bepronet Together 💪🏻🔥🌶   #tacotothemoon #tacotoken🌶 #defi #cryptocurrency #BinanceSmartChain  #eth #btc  #tacoswap @exeedme @poolz__ @bepronet",40,0
1376549554372415488,"2021-03-29T14:59:23Z","Folks in case u don’t know it yet, as we all expected the #ETH upgrade is delayed, again.  But lets focus on something more important like the fact Visa is using USDC, think that when their transactions get stuck(👀)they will definitely come to #AVAX, its just a matter of time",29,0
1376549554330464257,"2021-03-29T14:59:23Z","RT @NFTFusion: What’s your ETH address?  No questions, just drop it below 👇 #NFT #NFTs",1953,0
1376549554301104129,"2021-03-29T14:59:23Z","@mickalamasse1 @Exeedme @Poolz__ @bepronet Taco taco to the mooooooon 🌶🔥💪🏻#tacotothemoon #tacotoken🌶 #defi #cryptocurrency #BinanceSmartChain  #eth #btc  #tacoswap @exeedme @poolz__ @bepronet",55,0
1376549550102605824,"2021-03-29T14:59:22Z","Join @swissborg before you miss out on a great opportunity, they will continue to go green👍🏻 #CHSB #Swissborg Earn good yield  on your #Bitcoin #ETH and #CHSB #USDC now, but more coming too👌🏻😁 https://t.co/OV7eCYJ8jm",57,10
1376549544767414275,"2021-03-29T14:59:21Z","@mickalamasse1 @Exeedme @Poolz__ @bepronet To the mooooon on vous a dit!! #tacotothemoon #tacotoken🌶 #defi #cryptocurrency #BinanceSmartChain  #eth #btc  #tacoswap @exeedme @poolz__ @bepronet",46,10
1376549544662609923,"2021-03-29T14:59:21Z","1/ I get it, it's been a long bull and we are secretly longing for that exit liquidity but the CT excitement about Visa settling payments on Eth is so cringe. These companies have been holding merchants in a stranglehold with fees on their bloated centralized networks for decades https://t.co/fPVkry4N6W",80,10
1376549540917092358,"2021-03-29T14:59:20Z","Dear investors !   #tacoswap is on 🔥 $ 5 million staked !  It’s just the begining !  What are you waiting for to have your taco and join the adventure!  #tacotothemoon #tacotoken🌶 #defi #cryptocurrency #BinanceSmartChain #eth #btc #tacoswap @exeedme @poolz__ @bepronet",1172,10
1376549536240373760,"2021-03-29T14:59:19Z","RT @TylerDurden: So @Visa are using the ETH blockchain to settle payments.  Looking forward to paying $3 for coffee + $900 gas fee and wait…",9326,10
1376549535015710720,"2021-03-29T14:59:18Z","$ETH - just a matter of time before it goes nuts and takes alts with it.  - Held key support = bullish  - Back above the Ichimoku cloud = bullish  - Forming higher lows = bullish https://t.co/31XuGGwNfr",457,10
1376549525897158659,"2021-03-29T14:59:16Z","💧DogeSwap Airdrop💧  🏆 Task:          ➕   7 DOG  👨‍👩‍👧 Referral:     ➕   2 DOG  🔛  Airdrop Link &amp; Information: https://t.co/3rlt9kiu64  #cryptocurrency #Crypto #Bitcoin  #DogeSwap #Ethereum #ETH #Airdrop #bounty #Doge #AirdropStario",4198,10
1376549522030141445,"2021-03-29T14:59:15Z","Dear investors !   #tacoswap is on 🔥 $ 5 million staked !  It’s just the begining !  What are you waiting for to have your taco and join the adventure!  #tacotothemoon #tacotoken🌶 #defi #cryptocurrency #BinanceSmartChain #eth #btc #tacoswap @exeedme @poolz__ @bepronet",1172,10
1376549520281112576,"2021-03-29T14:59:15Z","@mickalamasse1 @Exeedme @Poolz__ @bepronet Together 💪🏻🔥🌶   #tacotothemoon #tacotoken🌶 #defi #cryptocurrency #BinanceSmartChain  #eth #btc  #tacoswap @exeedme @poolz__ @bepronet",40,10
1376549520083972098,"2021-03-29T14:59:15Z","I wanna see a 10 ETH bid on this one.  #NFT #NFTCommunity #nftcollector https://t.co/vD5F7AdbMI",10,0
1376549519970689035,"2021-03-29T14:59:15Z","@NFTMansa I'm The ANT (Ancient) #NFT Creator on #rarible . Get my first 1/1 NFT.  Be first to grab it and get 100cm x 70cm canvas.  Price: 20 ETH  All #NFTs are based on Animals Some of the profits will be to help Some Animals where i can. Blesses from The ANT https://t.co/ghvLl67QNk",5,1
1376549510042640390,"2021-03-29T14:59:12Z","Banks offering products for bitcoin is incredible because they spent 10yrs  campaigning the world to ban it.  Visa using USDC via eth is amazing because that was always the benchmark. how do we get to VISA size tps  Turns out, being able to reliably finalize is what was needed.",476,1
1376549508922888192,"2021-03-29T14:59:12Z","@mickalamasse1 @Exeedme @Poolz__ @bepronet We are Tacoswap!! #tacotothemoon #tacotoken🌶 #defi #cryptocurrency #BinanceSmartChain  #eth #btc  #tacoswap @exeedme @poolz__ @bepronet",23,1
1376549505294860293,"2021-03-29T14:59:11Z","RT @TylerDurden: So @Visa are using the ETH blockchain to settle payments.  Looking forward to paying $3 for coffee + $900 gas fee and wait…",9326,1
1376549504888016906,"2021-03-29T14:59:11Z","The first set of Ahegao NFTs sold out in a week, so I've been working on some more which are now live at https://t.co/MAOPR2F1DH  #pixel_dailies #nft #NFTs #nftart #nftartist #crypto #blockchain #eth #ethereum #digitalart #art #value #nftcollector #hentai #ahegao https://t.co/YWPHtqTMQv",78,1
1376549500387479562,"2021-03-29T14:59:10Z","This amazing animated art will also be available very soon !!  New things are to come  on @rariblecom @opensea  #nft #NFTartists #nftcollectors #NFTcollectibles #RARE #raredigitalart #digitalartist #digitalart #illustration #eth https://t.co/Dcxe8yTLuT",2,0
1376549500123242497,"2021-03-29T14:59:10Z","Dear investors !   #tacoswap is on 🔥 $ 5 million staked !  It’s just the begining !  What are you waiting for to have your taco and join the adventure!  #tacotothemoon #tacotoken🌶 #defi #cryptocurrency #BinanceSmartChain #eth #btc #tacoswap @exeedme @poolz__ @bepronet",1172,0
1376549499380768770,"2021-03-29T14:59:10Z","I'm giving away 100 $sxp in 3 days to a random person.   To qualify: like, retweet &amp; follow me.  $btc $eth $dot $matic $ada $link $sxp $trx $rsr $vet $reef $tvk $bnb $cake",335,0
1376549497099063302,"2021-03-29T14:59:09Z","@sassal0x how many eth do you have?",0,0
1376549490472140800,"2021-03-29T14:59:08Z","RT @SelectiveSnail: Crypto is the future; we are in the future. $ETH $BTC",5,0
1376549490191138823,"2021-03-29T14:59:08Z","To celebrate @3DPunks_ #100/100 Auction Current bid at 16 ETH ($27K USD)  I'm giving away 3D Punk #049  Which last sold for 6.97 ETH ($12K USD)  How: - Follow @evankeast + @3DPunks_  - Like + Retweet - Tag a friend - Join the discord: https://t.co/5paneepNDb - Say hi in discord https://t.co/SOy3l78yP1",1043,0
1376549489620701185,"2021-03-29T14:59:08Z","Keisuke Osako bought for 0.88 ETH (1568.62$) on the secondary market   Season: 2020-2021 Level: 0 Serial: 61/100 Price: 1568.62$  ⚽ Sorare: https://t.co/FvnE7Fxjme  📊: https://t.co/YXUT5eE6je  #Sorare #NFT #Ethereum #FantasyFootball",0,0
1376549472881278976,"2021-03-29T14:59:04Z","🔥🔥Today’s Drop🔥🔥  Includes SimPunk #15 (0.1 ETH)  #NFT #NFTCommunity #cryptopunks #nftart #collectibles https://t.co/yE9fL12CI2",0,0
1376549472134602758,"2021-03-29T14:59:03Z","RT @CryptoGodJohn: $BTC to $72k $ETH to $2500",754,0
1376549468980400130,"2021-03-29T14:59:03Z","Welcome to massive Q DAO airdrop!   1. go now to telegram https://t.co/COyXgODY1z   2. Stay in telegram chat and wait announcement.  3. HOLD this gem until 10x   (soon - QDAO launch cross-chain for BSC, Polkadot and ETH)",4254,0
1376549468783398919,"2021-03-29T14:59:03Z","RT @rsvptemple: God, the people you put on earth to prosper are busy knacking [ubiquitous] babes with 1 ETH. https://t.co/5ZmFlK6R4I",21,0
1376549467420299267,"2021-03-29T14:59:02Z","Patric bought for 3 ETH (5347.56$) on the secondary market   Season: 2020-2021 Level: 1 Serial: 1/1 Price: 5347.56$  ⚽ Sorare: https://t.co/Hdo9PjMuAv  📊: https://t.co/mNzkUJaXpd  #Sorare #NFT #Ethereum #FantasyFootball",0,0
1376549467290136576,"2021-03-29T14:59:02Z","@AlexanderChain9 @D34D_eth @TheBlock__ @Yogita_Khatri5 https://t.co/UJ2vKr4XZv  if no one uses BSV ? so what are 16 million transactions in one block ? come on man this is ridiculous  ive had thousands of ETH , ive used it, and BSV sends faster than ETH ever could",0,0
1376549459421696006,"2021-03-29T14:59:00Z","RT @paupe_ai: @tphlat AIR | Blow your mind - Available on foundation: https://t.co/JaNW58U67t - Reserve price: 0.4 ETH",2,0
1376549457672671240,"2021-03-29T14:59:00Z","@mickalamasse1 @Exeedme @Poolz__ @bepronet Dear investors !   #tacoswap is on 🔥 $ 5 million staked !  #tacotothemoon #tacotoken🌶 #defi #cryptocurrency #BinanceSmartChain #eth #btc #tacoswap @exeedme @poolz__ @bepronet",54,0
1376549449409953792,"2021-03-29T14:58:58Z","RT @WhaleTrades: 📉💶$1,000,335 $ETH SHORTED @$1780.6 [29/03/21 14:55:45] 🏪FTX | ETH-PERP  🗣️Hey Hey Heyyyyyyyyy - Carlos Matos",3,0
1376549448843599878,"2021-03-29T14:58:58Z","RT @TheRoyGreenShow: Podcast of Saturday pgm with CPC MP Pierre Poilievre challenging Liberals at parl ethics committee. https://t.co/91Zp2…",26,0
1376549439377190915,"2021-03-29T14:58:56Z","Dear investors !   #tacoswap is on 🔥 $ 5 million staked !  It’s just the begining !  What are you waiting for to have your taco and join the adventure!  #tacotothemoon #tacotoken🌶 #defi #cryptocurrency #BinanceSmartChain #eth #btc #tacoswap @exeedme @poolz__ @bepronet",1172,0
1376549439209406467,"2021-03-29T14:58:56Z","Dear investors !   #tacoswap is on 🔥 $ 5 million staked !  It’s just the begining !  What are you waiting for to have your taco and join the adventure!  #tacotothemoon #tacotoken🌶 #defi #cryptocurrency #BinanceSmartChain #eth #btc #tacoswap @exeedme @poolz__ @bepronet",1172,0
1376549437879762944,"2021-03-29T14:58:55Z","@Debussy100 Eth can barely handle uniswap how is it going to handle 100x the traffic?",0,0
1376549435627409410,"2021-03-29T14:58:55Z","@mickalamasse1 @Exeedme @Poolz__ @bepronet Together 💪🏻🔥🌶   #tacotothemoon #tacotoken🌶 #defi #cryptocurrency #BinanceSmartChain  #eth #btc  #tacoswap @exeedme @poolz__ @bepronet",40,0
1376549432842317828,"2021-03-29T14:58:54Z","Good The DEX @FinanceChainge is set to launch on the @FUSIONProtocol network with over a million users on the protocols waitlist. This decentralized exchange aims to innovate on traditional models through leveraging the Fusion Network #BSC #BTC #ETH #BNB  https://t.co/vqK5NIBlcx",2,0
1376549431999397890,"2021-03-29T14:58:54Z","@bitfinex Bnb Btc Eth",0,0
1376549428538929152,"2021-03-29T14:58:53Z","Visa just announced they're using Ethereum as a settlement layer.  Ethereum.  ETHEREUM.  Visa will be paying ETH holders to use the network.  Lol this is so bullish for ETH and this market is still too dumb to understand it.  ETH under $2000 is hilarious.",3684,0
1376549427402272771,"2021-03-29T14:58:53Z","$BTC to $72k $ETH to $2500",12,0
1376549426731319296,"2021-03-29T14:58:53Z","RT @TylerDurden: So @Visa are using the ETH blockchain to settle payments.  Looking forward to paying $3 for coffee + $900 gas fee and wait…",9326,0
1376549422935506944,"2021-03-29T14:58:52Z","Digital currency comes to @Visa's settlement platform: With direct acceptance of payments in USD Coin #Visa forges new connections between digital &amp; traditional currencies https://t.co/WtCQwgCb2b #usdc #stablecoin #Ethereum @visanews #digitalcurrency #cryptocurrency $USDC $ETH $V",0,0
1376549422838910980,"2021-03-29T14:58:52Z","Save your ETH by paying gas in stablecoins with @biconomy Forward! 0x2ca7dd1bdBF0BDD49A811Fb3bc494a06906f11a5 https://t.co/KXdIDX0yW9",1,0
1376549421702332417,"2021-03-29T14:58:51Z","@DonKees $LTO bags are full but damn, maybe I will add a bit more 🛍️ and then watch the charts 🍿. Great breakout from this range @TheLTONetwork  #altcoinseason #altcoin #LTO #LTONetwork #eth #ada #btc #eth #Crypto #NFT #DeFi #BSC",5,0
1376549420163076096,"2021-03-29T14:58:51Z","@mickalamasse1 @Exeedme @Poolz__ @bepronet To the mooooon on vous a dit!! #tacotothemoon #tacotoken🌶 #defi #cryptocurrency #BinanceSmartChain  #eth #btc  #tacoswap @exeedme @poolz__ @bepronet",46,0
1376549419991072772,"2021-03-29T14:58:51Z","@KennethBosak This one I'm The ANT (Ancient) #NFT Creator on #rarible . Get my first 1/1 NFT Be first to grab it and get 100cm x 70cm canvas. Price: 20 ETH  All #NFTs are based on Animals Some of the profits will be to help Some Animals where i can. Blesses from The ANT https://t.co/ghvLl67QNk",2,0
1376549419181608960,"2021-03-29T14:58:51Z","$Dent let’s go guys, April is coming and dent will explode! #DENT #Altcoins #ALTSEASON #Binance #Bitcoin #Ethereum $btc $eth $usdt #dentcoin #kucoin wait and see 💎💎💎❤️DENT❤️💎💎💎",2,1
1376549418015420416,"2021-03-29T14:58:50Z","RT @ki_young_ju: I smell crypto mass adoption here  $ETH",1537,1
1376549408167370756,"2021-03-29T14:58:48Z","Visa just announced they're using Ethereum as a settlement layer.  Ethereum.  ETHEREUM.  Visa will be paying ETH holders to use the network.  Lol this is so bullish for ETH and this market is still too dumb to understand it.  ETH under $2000 is hilarious.",3684,1
1376549404912521221,"2021-03-29T14:58:47Z","@MMCrypto ETH is dead",0,0
1376549398323204105,"2021-03-29T14:58:46Z","💧Roku Network Airdrop 💧  🏆 Task:          ➕  15 ROK (~$5)  👨‍👩‍👧 Referral:   ➕  3 ROK (~$1)  🔛  Airdrop Link &amp; Information: https://t.co/YhvsOcfEbH  #cryptocurrency #Crypto #Bitcoin  #BSC #BinanceSmartChain #Ethereum #ETH #Airdrop #bounty #ROK #RokuCoin #RokuNetwork",3811,0
1376549397262045184,"2021-03-29T14:58:46Z","💧Roku Network Airdrop 💧  🏆 Task:          ➕  15 ROK (~$5)  👨‍👩‍👧 Referral:   ➕  3 ROK (~$1)  🔛  Airdrop Link &amp; Information: https://t.co/YhvsOcfEbH  #cryptocurrency #Crypto #Bitcoin  #BSC #BinanceSmartChain #Ethereum #ETH #Airdrop #bounty #ROK #RokuCoin #RokuNetwork",3811,0
1376549396452548613,"2021-03-29T14:58:45Z","This card (CRO26) just sold for 6 ETH - $10,583!  Still time to get in. Now that #CurioCards are wrapped and trending on @opensea you have an opportunity to pick up deals while the market is in price discovery. https://t.co/jE0clbSDJ7",13,0
1376549394342887425,"2021-03-29T14:58:45Z","Dear investors !   #tacoswap is on 🔥 $ 5 million staked !  It’s just the begining !  What are you waiting for to have your taco and join the adventure!  #tacotothemoon #tacotoken🌶 #defi #cryptocurrency #BinanceSmartChain #eth #btc #tacoswap @exeedme @poolz__ @bepronet",1172,0
1376549394057719814,"2021-03-29T14:58:45Z","Join the @Holdefi community in HLD public sale!  #HLD #Holdefi #ETH #BSC #IDO #ICO 👇👇 https://t.co/jWyOtvAJfn",0,0
1376549380925366279,"2021-03-29T14:58:42Z","@mickalamasse1 @Exeedme @Poolz__ @bepronet join us on #tacoswap, you will find better yields than uniswap and sushiswap. why not?  #tacotothemoon #tacotoken🌶 #defi #cryptocurrency #BinanceSmartChain #eth #btc #tacoswap @exeedme @poolz__ @bepronet",1,1
1376549380883369990,"2021-03-29T14:58:42Z","Dear investors !   #tacoswap is on 🔥 $ 5 million staked !  It’s just the begining !  What are you waiting for to have your taco and join the adventure!  #tacotothemoon #tacotoken🌶 #defi #cryptocurrency #BinanceSmartChain #eth #btc #tacoswap @exeedme @poolz__ @bepronet",1172,1
1376549377016262656,"2021-03-29T14:58:41Z","Daniel Wass bought for 3.5 ETH (6238.82$) on the secondary market   Season: 2020-2021 Level: 0 Serial: 1/1 Price: 6238.82$  ⚽ Sorare: https://t.co/iWPu9dxNNH  📊: https://t.co/CV4oA87NWl  #Sorare #NFT #Ethereum #FantasyFootball",0,0
1376549375384559617,"2021-03-29T14:58:40Z","@UsonStudios 0.25 ETH Bid on Halcyon at @withFND   1 Hour remaining to bid with @tpvinpan   https://t.co/1NQJuxclew",1,0
