"ID","created_at","text","like_count","rt_count"
1374835912404828166,"2021-03-24T21:29:59Z","We are preparing for our #marketing push for $FEG! Please #donate to this address with either #ETH or #BNB to help us out! This is so important guys! I seriously cannot stress enough how important it is that we have big funds!  Address: 0x192525b291A360e7c04b323b6ad174BDc6C97055",422,152
1374835910005514243,"2021-03-24T21:29:58Z","Thats correct! You can swap your @NftTrader Squads #NFTs which you mint from the SALE, securely &amp; interoperably using our platform. Here is the how-to video tutorial. https://t.co/iBVzxn6GDy  #NFT #blockchain #dapps #cryptocurrencies #crypto #cryptonews #cryptoart #ethereum $ETH https://t.co/FuBp9dbSGz",8,1
1374835908000808962,"2021-03-24T21:29:58Z","We are preparing for our #marketing push for $FEG! Please #donate to this address with either #ETH or #BNB to help us out! This is so important guys! I seriously cannot stress enough how important it is that we have big funds!  Address: 0x192525b291A360e7c04b323b6ad174BDc6C97055",422,152
1374835901797371904,"2021-03-24T21:29:56Z","JUST WANT YALL TO KNOW THAT THIS 1OF1 HI-RES AUDIO VISUAL #NFT LOOPS PERFECTLY FOR ETERNITY AND NOT MANY CAN SAY THAT ✨🚀 (original unreleased music from EZZYLAND)  https://t.co/OoYrUsEZWm  #nfts #eth #cryptoartist #crytpoart #nftcollector #musicnft",10,4
1374835900065193986,"2021-03-24T21:29:56Z","@kaiynne 25% of ETH's market cap &amp; no one uses ADA nor will they.  Doesn't even have smart contracts yet.",4,0
1374835890367963137,"2021-03-24T21:29:54Z","🔸 New Listing🔸   #BKEX will list #DRYCAKE @DryCakeSwap🚀 🚀  - Trading pair: DRYCAKE/USDT - Trading time: 20:00 on Mar 29 (UTC+8)  🔹 🔹 More details: https://t.co/kC2IIebfTT  #Bitcoin #ETH #BKK #Blockchain https://t.co/w8CHyKXaUD",3140,4392
1374835889562513409,"2021-03-24T21:29:53Z","@Mawdiiiii @elonmusk my 21,5 eth came! thank u ELON",0,0
1374835886748143619,"2021-03-24T21:29:53Z","RT @CashNCrypto: $150 to one person in 48hrs  Rt &amp; follow me + @domscrypto &amp; @boar_eth",2050,4122
1374835885439647748,"2021-03-24T21:29:52Z","🔄 Prices update in $USD (1 hour):  $BTC - 53963.8 $  (+0.45 %) $ETH - 1614.75 $  (+1.44 %) $DOT - 33.34 $    (+0.21 %) $ADA - 1.11 $     (+0.81 %)  #BTC #ETH #DOT #ADA #Crypto #Bitcoin",0,0
1374835883174735882,"2021-03-24T21:29:52Z","RT @BanklessHQ: A thinker for the people.   🙏 @drakefjustin 🙏  $ETH #UltraSoundMoney #PassItOn https://t.co/7HPzb6779Y",137,21
1374835881689939973,"2021-03-24T21:29:52Z","House of Chimera released Weekly Altcoin Portfolio (week 12) update on Telegram!   Updated assets: @zilliqa @ethereum  @reserveprotocol (new!) @fetch_ai  Check out the full release here: https://t.co/ABgUgFX7Ck  $FET $ZIL $ETH $RSR",18,3
1374835876337967106,"2021-03-24T21:29:50Z","We are preparing for our #marketing push for $FEG! Please #donate to this address with either #ETH or #BNB to help us out! This is so important guys! I seriously cannot stress enough how important it is that we have big funds!  Address: 0x192525b291A360e7c04b323b6ad174BDc6C97055",422,152
1374835874324742147,"2021-03-24T21:29:50Z","@MrHydr0g3n Nature is everything, we are nature 🌿  0.11 ETH  #NFT #NFTs #Cryptoart #NFTartist #NFTart  https://t.co/hVJMp8bt6k",1,0
1374835868016463872,"2021-03-24T21:29:48Z","We are preparing for our #marketing push for $FEG! Please #donate to this address with either #ETH or #BNB to help us out! This is so important guys! I seriously cannot stress enough how important it is that we have big funds!  Address: 0x192525b291A360e7c04b323b6ad174BDc6C97055",422,152
1374835866439389200,"2021-03-24T21:29:48Z","We are preparing for our #marketing push for $FEG! Please #donate to this address with either #ETH or #BNB to help us out! This is so important guys! I seriously cannot stress enough how important it is that we have big funds!  Address: 0x192525b291A360e7c04b323b6ad174BDc6C97055",422,152
1374835865239707648,"2021-03-24T21:29:48Z","RT @CashNCrypto: $150 to one person in 48hrs  Rt &amp; follow me + @domscrypto &amp; @boar_eth",2050,4122
1374835862022807554,"2021-03-24T21:29:47Z","$ETH good point for buying, #ETH #cryptocurrency 👌 https://t.co/GSZ7jZLg4m",2,0
1374835845383995394,"2021-03-24T21:29:43Z","We are preparing for our #marketing push for $FEG! Please #donate to this address with either #ETH or #BNB to help us out! This is so important guys! I seriously cannot stress enough how important it is that we have big funds!  Address: 0x192525b291A360e7c04b323b6ad174BDc6C97055",422,152
1374835841776951300,"2021-03-24T21:29:42Z","$ETH  If the daily candle closes above 2k, it will easily cross 2500$ mark. Keep an eye on it.  Checkout the link in bio for crypto signals  $EGLD $UNI #bitcoin $TRB $YFII $WING 64413 https://t.co/Jslst8Xr9t",0,0
1374835839285522437,"2021-03-24T21:29:41Z","We are preparing for our #marketing push for $FEG! Please #donate to this address with either #ETH or #BNB to help us out! This is so important guys! I seriously cannot stress enough how important it is that we have big funds!  Address: 0x192525b291A360e7c04b323b6ad174BDc6C97055",422,152
1374835835363848194,"2021-03-24T21:29:41Z","We are preparing for our #marketing push for $FEG! Please #donate to this address with either #ETH or #BNB to help us out! This is so important guys! I seriously cannot stress enough how important it is that we have big funds!  Address: 0x192525b291A360e7c04b323b6ad174BDc6C97055",422,152
1374835828736753668,"2021-03-24T21:29:39Z","@Laila93812177 @LisaNEdwards Eth is a black hole :( ..keeps eating my profits from my other coins",3,0
1374835824156676097,"2021-03-24T21:29:38Z","@donediditdre ima place a bid for .0002 ETH",0,0
1374835824051765250,"2021-03-24T21:29:38Z","We are preparing for our #marketing push for $FEG! Please #donate to this address with either #ETH or #BNB to help us out! This is so important guys! I seriously cannot stress enough how important it is that we have big funds!  Address: 0x192525b291A360e7c04b323b6ad174BDc6C97055",422,152
1374835820658622471,"2021-03-24T21:29:37Z","@slaveofsaturn King $ETH's CryptDeck is prepared for its master  Vitalik. Just minted 10/10. Completely handcrafted to defeat any false challengers!   https://t.co/MuceKE0yqf https://t.co/VRtwqsJZ8V",1,0
1374835817701642243,"2021-03-24T21:29:36Z","RT @CyborgHumanism: @VitalikButerin just dumped all my eth",27,2
1374835809329717249,"2021-03-24T21:29:34Z","RT @antiprosynth: ETH/BTC is dying https://t.co/5Xc9C1jyUb",330,46
1374835801801039877,"2021-03-24T21:29:33Z","#ETH 1612 now i got stopped on the freeroll after a protection stop on a small trade earlier in the week 1698+  ...ntg with playing your setup n managing a failure",0,0
1374835800429502466,"2021-03-24T21:29:32Z","We are preparing for our #marketing push for $FEG! Please #donate to this address with either #ETH or #BNB to help us out! This is so important guys! I seriously cannot stress enough how important it is that we have big funds!  Address: 0x192525b291A360e7c04b323b6ad174BDc6C97055",422,152
1374835793458499586,"2021-03-24T21:29:31Z","30 day EVIX: 103.3602 ETH/USD vwap: $1,615.12 04/09 expiry volume: $2,138,405.18 04/30 expiry volume: $7,742,591.66 Current time: 21:29:05",0,0
1374835791973715974,"2021-03-24T21:29:30Z","We are preparing for our #marketing push for $FEG! Please #donate to this address with either #ETH or #BNB to help us out! This is so important guys! I seriously cannot stress enough how important it is that we have big funds!  Address: 0x192525b291A360e7c04b323b6ad174BDc6C97055",422,152
1374835788140195850,"2021-03-24T21:29:29Z","The #CryptoBubble is starting to get that institutional $$ #cryptocurrency #ETF $BTC $ETH #CryptoNews #Fidelity &amp; #GoldmanSachs   https://t.co/tlLqitRBa9",3,3
1374835783245385733,"2021-03-24T21:29:28Z","🛡 MakerDAO Vault #21332 Repaid  🧑‍🚒 32.02k DAI paid back 🧯🧯 📉 19.95 ETH sold 💸  https://t.co/uQSCXPPcRN",0,0
1374835782712709123,"2021-03-24T21:29:28Z","@RAFAELA_RIGO_ $DAFI!  ⚡️ @DAFiProtocol can incentivize early-users and maintain a network in bearish markets, without issuing large quantities of tokens.  📈 $DAFI is now available on @Uniswap, @Bilaxy_exchange and @BitMax_Official.  🔥🔥🔥  $BTC $ETH #DeFi https://t.co/Ijk7s6gTkR",1,1
1374835780581924866,"2021-03-24T21:29:27Z","Been screaming about this gem since the beginning for months now  $VRX is on the left, $AVAX on the right  Don't be shaken out,  5000$ incoming  🚀  Buy $VRX NOW!  Only 47.5k max supply, 60% staked! Game changing coin🔥  #bitcoin $btc $eth  $spi $chain $umx $cfi $ern $lpt $rfr https://t.co/VJheZrWKaa",2435,3576
1374835772470173697,"2021-03-24T21:29:26Z","RT @CashNCrypto: $150 to one person in 48hrs  Rt &amp; follow me + @domscrypto &amp; @boar_eth",2050,4122
1374835768498253826,"2021-03-24T21:29:25Z","We are preparing for our #marketing push for $FEG! Please #donate to this address with either #ETH or #BNB to help us out! This is so important guys! I seriously cannot stress enough how important it is that we have big funds!  Address: 0x192525b291A360e7c04b323b6ad174BDc6C97055",422,152
1374835766887645184,"2021-03-24T21:29:24Z","Top gainers at @Binance during the last 15 minutes (compared to ETH):  1. $PROS (@Prosperpredict) [+6.06%] 2. $STMX (@stormxio) [+3.63%] 3. $AION (@Aion_OAN) [+3.49%]  More information: https://t.co/jzj8IuNKxm",0,0
1374835759019098115,"2021-03-24T21:29:22Z","RT @musketon: I think I'm almost done with my ETH Gas Station piece   #nft #nfts #cryptoart #bitcoin https://t.co/cpfyLyuDBV",230,28
1374835758431866880,"2021-03-24T21:29:22Z","If Bitcoin were outlawed it would be bad for all crypto short term but probably good for eth long term through demand consolidation. Possibility Cryptopunks might be the next digital gold in that case.  https://t.co/CndfLcJKpA",2,0
1374835755151949824,"2021-03-24T21:29:21Z","RT @PeterMcCormack: Degen traders buying JPEGs for Eth saying don’t buy a depreciating asset.  LMAO, get the fuck out of here.",224,7
1374835750127210496,"2021-03-24T21:29:20Z","@Krista_Kim Get Ethereum in a matter of minutes on your phone or computer!  #marshouse #nft #digitalart #architecture #interiordesign #metaverse #ethereum #eth https://t.co/p22hxWRJxj",4,0
1374835740975099905,"2021-03-24T21:29:18Z","RT @flurtft: payment can be in #Bitcoin, $ETH, paypal, gcash, $DOGE, $BNB, whatever you want. must be following if you win so i can dm. end…",1231,204
1374835728207724553,"2021-03-24T21:29:15Z","AIRDROP -  Win 10,000,000 $SOLAR. To participate RT, Like, Join our Telegram and fill out this form  https://t.co/3eYqlLYgZg  Telegram: https://t.co/cwwylgrqqq  #BSC  #PancakeSwap #BSCGems #BNB #ETH #BTC #Crypto 9:46 PM · Mar 24, 2021·Twitter Web Ap",106,73
1374835727775764480,"2021-03-24T21:29:15Z","To whom it may concern (literally everyone in the $WORLD) did you know @worldtoken_ is the only project which has the escrow marketplace with nfts combined with frictionless yield to benefit merchants and hodlers? U didn’t? well now it’s your chance to get in 💰💯💰#ETH $BSC",32,6
1374835713678712834,"2021-03-24T21:29:12Z","second life but eth, monumentally stupid",0,0
1374835705973645312,"2021-03-24T21:29:10Z","Look what I just discovered on @opensea! #nft #opensea #eth #btc  https://t.co/wKCjTjTZbm",2,0
1374835702765064192,"2021-03-24T21:29:09Z","Have fun staying poor  $ETH $AVAX $WAN $LINK $UNI https://t.co/l0r6HxvhqP",0,0
1374835699489329154,"2021-03-24T21:29:08Z","@gem_detecter $DAFI.  ⚡️ @DAFiProtocol can incentivize early-users and maintain a network in bearish markets, without issuing large quantities of tokens.  ⚡️No hyperinflation, no excess supply, and the ability to reward early-users &amp; adoption even in low phases of demand.  $BTC $ETH #DeFi https://t.co/KLMzpkDdA7",2,1
1374835694129066002,"2021-03-24T21:29:07Z","We are preparing for our #marketing push for $FEG! Please #donate to this address with either #ETH or #BNB to help us out! This is so important guys! I seriously cannot stress enough how important it is that we have big funds!  Address: 0x192525b291A360e7c04b323b6ad174BDc6C97055",422,152
1374835690219974656,"2021-03-24T21:29:06Z","I swear, for the life of me I can’t figure out how some projects go completely under the radar of most people in this space. $BTC $LTC $ETH $VET $DRGN #Bitcoin https://t.co/NdzbzE7U0i",15,4
1374835689850863623,"2021-03-24T21:29:06Z","The DEX @FinanceChainge is set to launch on the @FUSIONProtocol network with over a million users on the protocols waitlist. This decentralized exchange aims to innovate on traditional models through leveraging the Fusion Network.  #BSC #BTC #ETH #BNB  https://t.co/xx55YiGfm3",21105,13409
1374835687522979845,"2021-03-24T21:29:05Z","RT @CashNCrypto: $150 to one person in 48hrs  Rt &amp; follow me + @domscrypto &amp; @boar_eth",2050,4122
1374835684490403840,"2021-03-24T21:29:05Z","Free ETHEREUM Mining web link: https://t.co/xjeuvcpQYi just enter your ETH Contract Address, Free 1,200 GH / S, please try it maybe legit👍 https://t.co/5uJNEbiP6B",1,0
1374835679465771011,"2021-03-24T21:29:03Z","$ETH 2.0 is coming soon probably sometime this year. Do not hesitate in buying now! I can see a 3-5x after launch!",0,0
1374835669831462919,"2021-03-24T21:29:01Z","The #CryptoBubble is starting to get that institutional $$ #cryptocurrency #ETF $BTC $ETH #CryptoNews #Fidelity &amp; #GoldmanSachs   https://t.co/tlLqitRBa9",3,3
1374835665469206531,"2021-03-24T21:29:00Z","@glapacha $TUSK NFT, A beautiful design that we made to commemorate our first donation of 1 ETH to an elephant charity organization - @wildtomorrow  The first of many more in the future - Crypto can be good for everyone!  https://t.co/9gVaOFRDY8 https://t.co/PahwwWsYEh",9,5
1374835663405678592,"2021-03-24T21:29:00Z","@AnonOnAMoose @zooko Not sure how this would work but Ethereum is leading the way. Im thankful zcash has focused on privacy with Halo. They can then learn what Eth did and not have the pave the way.",10,2
1374835661727920131,"2021-03-24T21:28:59Z","@Mawdiiiii @elonmusk my 21,5 eth came! thank u ELON",0,0
1374835661178605570,"2021-03-24T21:28:59Z","@McJuggerNuggets $TUSK NFT, A beautiful design that we made to commemorate our first donation of 1 ETH to an elephant charity organization -  @wildtomorrow   The first of many more in the future - Crypto can be good for everyone!  https://t.co/pStpiH7rto https://t.co/2mVh3iguTL",5,1
1374835660767387651,"2021-03-24T21:28:59Z","@BourdaLaurens @PeterMcCormack @RaoulGMI my prize was 46 ETH!!!",0,0
1374835654622769153,"2021-03-24T21:28:57Z","RT @CashNCrypto: $150 to one person in 48hrs  Rt &amp; follow me + @domscrypto &amp; @boar_eth",2050,4122
1374835654589358082,"2021-03-24T21:28:57Z","🔥 We are thrilled to announce $DYP listing on @kucoincom !  🔷 DYP/USDT &amp; DYP/ETH trading will start tomorrow, March 25th at 10AM UTC!  🔸 Stay tuned: More News and Activities TBA!  ✅ More News at: https://t.co/7xB73Xen1N https://t.co/uQ3Q5sPpq3",564,461
1374835654211829765,"2021-03-24T21:28:57Z","Chainlink provides ready-made price oracle solutions so #DeFi developers can securely build new dApps that rely on tamper-proof price reference data. Easily integrate the MLN/ETH #Chainlink Price Feed into your smart contract today, already used and supported by @enzymefinance.",503,107
1374835651187777547,"2021-03-24T21:28:57Z","🚀 Safe The Children  🔷 Token Symbol : STC  🔷 Contract: https://t.co/nk3qsF2PJV  🔷 Website: https://t.co/4y0g7dqswM  🔷 Whitepaper: https://t.co/PHPZI4dbyR  🔷 Presentation Video : https://t.co/Mycfov12IU  #Safe_Childrens #Bitcoin  #Binance #BinanceSmartChain #DEFI  #BTC #ETH",13977,13664
1374835643931561984,"2021-03-24T21:28:55Z","@TheMoonCarl Web 1, Old Skool. BTC/ETH, The Graduates. https://t.co/4xIK2lr6Pf, The Masters ? ❤️♾🌎 https://t.co/Qe7eTvEeus",0,0
1374835629100572675,"2021-03-24T21:28:51Z","The DEX @FinanceChainge is set to launch on the @FUSIONProtocol network with over a million users on the protocols waitlist. This decentralized exchange aims to innovate on traditional models through leveraging the Fusion Network.  #BSC #BTC #ETH #BNB  https://t.co/xx55YiGfm3",21105,13409
1374835616873992193,"2021-03-24T21:28:48Z","RT @maqstik: Whether you accept it or not, non- $ETH market share is a thing.",228,36
1374835602554765313,"2021-03-24T21:28:45Z","RT @MushiesNFT: MAGIC MUSHY DROP  Mushy #016 is dropping at 10pm GMT   Bargain at 0.01 Eth! https://t.co/PJPFmqHf13",19,7
1374835598037557257,"2021-03-24T21:28:44Z","I would never buy when My TA is showing sell   I would not enter the Market when My analysis is different from the #Market   Even when the market is bull my chart will surely show up  That's how you won't get trapped in a dip #btc #eth #cryptocurrency #bsc #bnb #crypto",2,0
1374835591016185860,"2021-03-24T21:28:42Z","@ZoieCunt @krakenfx @Tesla I received 30 ETH, thank you very much",0,0
1374835588570963972,"2021-03-24T21:28:42Z","@Matt23776255 @scottmelker I think $eth will turn out to be one of the best performing coins in 2021. The work horse of crypto.",0,0
1374835568308318212,"2021-03-24T21:28:37Z","Look at the #attached #pic. Then tweet @elonmusk to ask him when... We need an answer so I can #complete the #Infographics. This is a lot of Utility for $FREE coin and the list continues to grow.  #FREE #Tesla #TeslaModel3 $BTC #BinanceNeedsFREEcoin #BSC #BTC #BNB #ETH https://t.co/J0g4C5yni7",123,52
1374835557382168581,"2021-03-24T21:28:34Z","@Loganthedudee Nature is everything, we are nature 🌿  0.11 ETH  #NFT #NFTs #Cryptoart #NFTartist #NFTart  https://t.co/hVJMp8bt6k",1,0
1374835549563809793,"2021-03-24T21:28:32Z","Insane opportunity NOW for an @ethereum fork.  Optimistic ETH's rollup is having a mainnet DELAY!! The ETH scaling solution mainnet was supposed to happen this month but tomorrow the public will learn of the delay! #CryptoNews #HEX #BTC @RichardHeartWin https://t.co/zbn99kN4cI",3,0
1374835546904784903,"2021-03-24T21:28:32Z","Everyone scared, crying that the sky is falling.  Meanwhile I'm over here adding to my longs, like the degenerate perma-bull that I am. $ETH gonna bounce and create a big ass Ascending Triangle.  Imagine being bearish in a bull market. BWAHAHAHAHAHAHAHAHA  Have fun staying poor. https://t.co/Gao7EWLTW6",201,21
1374835543930900480,"2021-03-24T21:28:31Z","Great news! @dypfinance team currently running tests on Kovan Test Network for the DYP Earn Vault!  ⭐Some features of $DYP Earn Vault: ~Support #ETH, WBTC, USDC, USDT, DAI ~5 different lockup durations ~Fixed APY for each pool  e.t.c  The DYP Earn Vault should be launched soon🥳 https://t.co/XyOBxjujIp",307,302
1374835536733609987,"2021-03-24T21:28:29Z","I just changed the price to 0.12 ETH because I want you guys to have this one! so share this tweet till everyone can see this. I LOVE YOU GUYS MORE THAN MONEY! ❤️❤️❤️ https://t.co/per9k88dGy",41,16
1374835519264198657,"2021-03-24T21:28:25Z","RT @IamCryptoWolf: $ETH. 50% fibonacci has been HIT.  Bounce now or never. 🙏 https://t.co/KVzcr1EkPc",220,27
1374835519008473088,"2021-03-24T21:28:25Z","RT @DailyDogeUpdate: 🚀 $1000 to anyone who Like, Follow and Retweet 🚀  #Dogecoin #LTC $ETH",1838,1206
1374835509806080000,"2021-03-24T21:28:23Z","$one - As is mentioned in the Prophecy. $ONE is NEO 🤑🤑🤑🤑🤑  $matic $ada $fet $vet $labs $btc $eth $xrp $npxs https://t.co/gr6vhW2kCI",13,4
1374835507524370432,"2021-03-24T21:28:22Z","Show me your craziest/weirdest/boldest #NFT   When I reach 1K followers I’ll buy one of two if it’s below 0.3 ETH🤍  #nftart #nftcollector #ETH",139,20
1374835504697475075,"2021-03-24T21:28:22Z","Looks like most #cryptocurrencies are having a bad day today #LINK #ETH #BYC #MKR Sigh.",0,0
1374835504613572613,"2021-03-24T21:28:22Z","@StinkyCubert Besides ETH and BTC it was QuantStamp. Figured the industry could use a solid auditer. Fast forward years later it's still around but it defintely underperformed. It could still 100x but honestly who the fuck knows lol",2,0
1374835497894342661,"2021-03-24T21:28:20Z","@noahdummett @solana $KIN for the win Grab urself the next 10x bagger -@RaydiumProtocol listing &amp; staking -token on 50k TPS @Solana chain -TRX fees only 0.000005 $SOL -SEC case settled = not a security! Alongside $BTC &amp; $ETH -dozens of real apps &amp; mn MAU Sleeping giant! We like the crypto :) #KinArmy",0,0
1374835497315500036,"2021-03-24T21:28:20Z","These MASSIVE upgrades could send ETH parabolic with gains!! https://t.co/zzBT6itun4 via @YouTube",0,0
1374835494253699077,"2021-03-24T21:28:19Z","BogTools is a BEP-20 smart contract that provides decentralized on-chain oracles and code execution on the BSC blockchain. In the coming days, the team will begin deploying several different BogTools.  #BinanceSmartChain #BSC #BTC #ETH #BNB @bogtools  https://t.co/gupAKatJP4",161,59
1374835483939856385,"2021-03-24T21:28:17Z","RT @CashNCrypto: $150 to one person in 48hrs  Rt &amp; follow me + @domscrypto &amp; @boar_eth",2050,4122
1374835482501189639,"2021-03-24T21:28:16Z","@econoar People aren’t happy because most of them skipped the entire run up and only bought the top at $2000 after waiting 9 months for $ETH price to drop below $100 again.",1,0
1374835481935032332,"2021-03-24T21:28:16Z","People said I've been negative lately...So let's give away a THICC Pokemon NFT (valued at about $1000 now, but I think at least $2k in 3 months)  Post your ETH wallet below and your favorite pokemon. Tags/Retweets to friends who like NFTs/Crypto is super appreciated. https://t.co/GHxjLnTcb1",1142,509
1374835478118215692,"2021-03-24T21:28:15Z","#ETH is taking a beating $$$",1,0
1374835476457259018,"2021-03-24T21:28:15Z","Show me your craziest/weirdest/boldest #NFT   When I reach 1K followers I’ll buy one of two if it’s below 0.3 ETH🤍  #nftart #nftcollector #ETH",139,20
1374835463651909632,"2021-03-24T21:28:12Z","The Public Testnet is finally here. If you are a #crypto #Developer come build your project on @Zenon_Network. They are offering hefty grants and support for building zApps on the platform.  More details here: https://t.co/avC7uNptuv  $ZNN $ETH $POL $BNB $LINK $SOL $EOS $NEO https://t.co/NrchtXgMhu https://t.co/TU6gASkLze",27,8
1374835460309065729,"2021-03-24T21:28:11Z","@Mawdiiiii @elonmusk my 21,5 eth came! thank u ELON",0,0
1374835449827631104,"2021-03-24T21:28:09Z","@PeterMcCormack @RaoulGMI “ETH and BTC— iTz ThE SaMe StuPiD!! JuSt mTCafee’s LaW”  🤪",0,0
1374835443376615424,"2021-03-24T21:28:07Z","The DEX @FinanceChainge is set to launch on the @FUSIONProtocol network with over a million users on the protocols waitlist. This decentralized exchange aims to innovate on traditional models through leveraging the Fusion Network.  #BSC #BTC #ETH #BNB  https://t.co/xx55YiGfm3",21105,13409
1374835436431028224,"2021-03-24T21:28:05Z","What i am feeling...🤯 #Binance #BNB #ETH #CryptoNews #BTC #SUSHI #INCH https://t.co/2lSDrVjZl9",5,0
1374835429002768385,"2021-03-24T21:28:04Z","RT @kieran_eth: @smartdefi is hiring! #Web3 #Solidity #Ethereum",13,5
1374835407729254402,"2021-03-24T21:27:59Z","Hey! For this week I have already bought CryptoArts for 4 ETH, but this is not enough !? Offer me your art: 1. Follow me 2. Like and retweet 3. Leave your art in the comment!  #nft #defi #NFTs #NFTartist #nftart #cryptoart #nftcollectors #nftcollector #Ethereum #bitcoin #crypto https://t.co/3HYNtONY8A",615,259
1374835403908214784,"2021-03-24T21:27:58Z","I'm not complaining tho, you guys bought .gifs with your $ETH whilst I de-levered, went spot only, and bought stablecoins.  I'm gladly DCA buying all this dumped $ETH with my stablecoin stack.  I prefer wealth. https://t.co/qEenUuOeov",1,0
