"ID","created_at","text","like_count","rt_count"
1374783058939944962,"2021-03-24T17:59:58Z","🔥 WoW!!! $DYP getting listed on @kucoincom !  DYP/USDT &amp; DYP/ETH trading will start tomorrow, March 25th at 10AM UTC! Good job @dypfinance team!  #DeFi #uniswap #Ethereum https://t.co/Rw9qa5l5tA",2211,2334
1374783058755395586,"2021-03-24T17:59:58Z","@PepeXBT If you are an investor - ETH not even worth looking at. If you are a trader - ETH is definitely not worth looking at.",1,0
1374783054389055488,"2021-03-24T17:59:57Z","RT @volmexfinance: What’s your ETH address?  Don’t ask why, just drop it below 👇",4854,1656
1374783050811207685,"2021-03-24T17:59:56Z","I'll send $500 in #ETH or #BTC to one person who retweets this and follows @bud_crypto. Must complete these tasks:  1 - Like/RT his pinned tweet  2 - Must RETWEET &amp; LIKE 4 of his tweets  Ends in 72 hours!",1402,1861
1374783036680761346,"2021-03-24T17:59:52Z","@RobertCow_ (I accept bids .1 eth and over for this exclusive cryptocow worth 2eth!) https://t.co/MHUCfdyUOD",2,0
1374783036206764046,"2021-03-24T17:59:52Z","The DEX @FinanceChainge is set to launch on the @FUSIONProtocol network with over a million users on the protocols waitlist. This decentralized exchange aims to innovate on traditional models through leveraging the Fusion Network.  #BSC #BTC #ETH #BNB  https://t.co/xx55YiGfm3",21105,13409
1374783034084491264,"2021-03-24T17:59:52Z","@jtcyberfm Imagine instead of selling a premium RSS feed on Patreon, you could sell individual episodes for 10 cents a piece. Whole new ball game!  We store your entire audio file on the blockchain. In this model, Bitcoin is the file host itself - not a pointer to a file like ETH NFTs.",1,0
1374783027277103109,"2021-03-24T17:59:50Z","RT @cryptoisland: There are 2 UBT pools on @QuickswapDEX  UBT/QUICK  ~ 218% APY  UBT/ETH ~ 195% APY   https://t.co/vcO2uQrhI5",39,7
1374783021539336207,"2021-03-24T17:59:49Z","RT @VentureCoinist: If $ETH keeps going up it makes my job very easy.",210,12
1374783019874156544,"2021-03-24T17:59:48Z","I'll send $500 in #ETH or #BTC to one person who retweets this and follows @bud_crypto. Must complete these tasks:  1 - Like/RT his pinned tweet  2 - Must RETWEET &amp; LIKE 4 of his tweets  Ends in 72 hours!",1402,1861
1374783015293919232,"2021-03-24T17:59:47Z","$14 million $REAP coins are up for grabs🚀  💸💸Legit Airdrop💰💰  Earn your share of 7M tokens in the $REAP Airdrop by completing easy social tasks.  Join: https://t.co/kugDOvWzoq  #Bitcoin #BTC #Dogecoin #Doge #TRX #ETH _________  #CTBot Adrop Avg 5000 TATM 900",67,74
1374783014434050051,"2021-03-24T17:59:47Z","I'll send $500 in #ETH or #BTC to one person who retweets this and follows @bud_crypto. Must complete these tasks:  1 - Like/RT his pinned tweet  2 - Must RETWEET &amp; LIKE 4 of his tweets  Ends in 72 hours!",1402,1861
1374783006217535491,"2021-03-24T17:59:45Z","Uploaded a video sharing my thoughts on $ETH's breakout today: https://t.co/o5xZVoUlj5  Impressive it was able to outpace Bitcoin on the day $BTC broke higher too.  One contributing factor could be the $ETHE share cycle. I'll upload another one tomorrow covering how it works 👀",31,9
1374783005542084609,"2021-03-24T17:59:45Z","RT @DailyDogeUpdate: 🚀 $1000 to anyone who Like, Follow and Retweet 🚀  #Dogecoin #LTC $ETH",1838,1206
1374783002585280522,"2021-03-24T17:59:44Z","GIVEAWAY DAY!!!! $6,600 IN VALUE!!!!  ARE WE FUCKING READY??? Let us eat some breakfast and some water for this hangover, and in a little bit we will be back to start THE SECOND ROUND OF PARTY!!!!  #VeChain #Bitcoin #Cardano #IOTA $VET $VTHO $BTC $ETH $ADA $IOTA $LINK $DOT",917,245
1374782999267569669,"2021-03-24T17:59:43Z","I'll send $500 in #ETH or #BTC to one person who retweets this and follows @bud_crypto. Must complete these tasks:  1 - Like/RT his pinned tweet  2 - Must RETWEET &amp; LIKE 4 of his tweets  Ends in 72 hours!",1402,1861
1374782988773322752,"2021-03-24T17:59:41Z","@CashNCrypto @domscrypto @boar_eth Woaaah thanks",0,0
1374782988207194120,"2021-03-24T17:59:41Z","Hard to exaggerate how freeing designing for #bsc is vs eth.   Every single conversation in eth token design ends with ya, but thats too many fees",46,5
1374782979302682625,"2021-03-24T17:59:39Z","Damnn $UBX heard me before I went to bed last night . Great day to start new HIGH ! Loving my 700% gain since original buy . Lets goo !   $TEL $XRP $BTC $ETH $BNB https://t.co/CKA7htN5PC",13,4
1374782962319814658,"2021-03-24T17:59:35Z","(Updating my pinned thread..!)  These are all currently available, two on @opensea and one on @withFND. 😊 The loa in the series are .5 $ETH, and the FND piece is .75 reserve!  #nftcollector #nftart #NFTs #cryptoart #nftartist #NFT  https://t.co/ZMrIGllhuk https://t.co/16mkAeKZZx https://t.co/04PZnd6jkg",85,21
1374782956133355529,"2021-03-24T17:59:33Z","💰What’s your #ETH wallet address?  🚀Don’t ask why, just drop it below👇  🚀Like、Retweet &amp; Tag ALL U CAN  🚀 USDT-NFTs has been listed on Uniswap！  🚀 The contract address: 0x6599fc3e77cbfa6f6e9cac605a30b1e78827eba0  #NFTs #NFT #AIRDROP #UNISWAP https://t.co/H29ZBOR0aL",1380,1178
1374782952454844417,"2021-03-24T17:59:32Z","RT @PepeXBT: move over dot and atom, beeple is the real eth killer",620,37
1374782951343423496,"2021-03-24T17:59:32Z","Absolutely incredible to see the enthusiasm for https://t.co/GbyfX68hy7 from our users. In the week since our launch of our rollups have processed over $400,000 of Eth deposits, with over 9,000 signups 🎉",79,17
1374782949955051523,"2021-03-24T17:59:32Z","Hard to exaggerate how freeing designing for #bsc is vs eth.   Every single conversation in eth token design ends with ya, but thats too many fees",46,5
1374782947371360259,"2021-03-24T17:59:31Z","@sumitkapoor16 @oceanprotocol @WazirXIndia @OVRtheReality @terra_virtua @ecomi_ 0x664D3dfbBa70605e37857881cbd2f65969743586  This is my eth address sir",1,0
1374782943382568961,"2021-03-24T17:59:30Z","RT @CashNCrypto: $150 to one person in 48hrs  Rt &amp; follow me + @domscrypto &amp; @boar_eth",2050,4122
1374782938039021568,"2021-03-24T17:59:29Z","Prediction of money for the Future of Bitcoin, ETH, XRP, and LTC. Exchange crypto with trusted ones https://t.co/GX61shCywP",0,0
1374782934889107458,"2021-03-24T17:59:28Z","For those of you looking for $ven @Impulse_ven @YfdaiF on uniswap, here is the eth pair link on uniswap that they posted on their telegram: https://t.co/JGKXbTbjqb. If you don’t believe me go to @YfdaiF and go to their telegram.",0,0
1374782931579760640,"2021-03-24T17:59:27Z","The DEX @FinanceChainge is set to launch on the @FUSIONProtocol network with over a million users on the protocols waitlist. This decentralized exchange aims to innovate on traditional models through leveraging the Fusion Network.  #BSC #BTC #ETH #BNB  https://t.co/xx55YiGfm3",21105,13409
1374782929482571776,"2021-03-24T17:59:27Z","RT @CashNCrypto: $150 to one person in 48hrs  Rt &amp; follow me + @domscrypto &amp; @boar_eth",2050,4122
1374782925145731074,"2021-03-24T17:59:26Z","RT @volmexfinance: What’s your ETH address?  Don’t ask why, just drop it below 👇",4854,1656
1374782912084774915,"2021-03-24T17:59:23Z","RT @1CrypticPoet: 🔥 Chainlink Integration Connects Filecoin to Smart Contract-Enabled Blockchains  https://t.co/71gbjQTddH #eth #fil #link…",29,7
1374782904866381840,"2021-03-24T17:59:21Z","Trade all your BITCOIN and All Valid Gift Cards  @GreysExchange and get paid fast 🔥  • BTC || ETH || USDT || XRP || LTC || BCH  ALL GIFT CARDS ✅  iTunes  Steam Google play Amazon  Walmart Grendot  Venmo  Slide into our dm @GreysExchange for Smooth Transactions. https://t.co/3RTmJb5CQZ",41,47
1374782901431205889,"2021-03-24T17:59:20Z","@KatePending Hi, you can try using @myetherwallet and switching the network to access your ETH on ETC blockchain https://t.co/KSFZSiN6f5",1,0
1374782892526686213,"2021-03-24T17:59:18Z","🔥 Keeping to my process of releasing Accessible #NFTs Here it is! 🔥  🔥3 of 10 SOLD🔥  🚀Speed Racer 2021 Sabet🚀  ♥️2 of 10 Available Now = 1 Eth  🏓RETWEET PLEASE🏓  @WhaleShark_Pro @JonnyB_NFT @jims_eth #nftartist #nftcollector #nftart #NFT   https://t.co/EwryKObwDH",43,12
1374782884368707586,"2021-03-24T17:59:16Z","RT @musketon: I think I'm almost done with my ETH Gas Station piece   #nft #nfts #cryptoart #bitcoin https://t.co/cpfyLyuDBV",230,28
1374782879063019527,"2021-03-24T17:59:15Z","Absolutely incredible to see the enthusiasm for https://t.co/GbyfX68hy7 from our users. In the week since our launch of our rollups have processed over $400,000 of Eth deposits, with over 9,000 signups 🎉",79,17
1374782873660751876,"2021-03-24T17:59:13Z","RT @DailyDogeUpdate: 🚀 $1000 to anyone who Like, Follow and Retweet 🚀  #Dogecoin #LTC $ETH",1838,1206
1374782867151187972,"2021-03-24T17:59:12Z","People said I've been negative lately...So let's give away a THICC Pokemon NFT (valued at about $1000 now, but I think at least $2k in 3 months)  Post your ETH wallet below and your favorite pokemon. Tags/Retweets to friends who like NFTs/Crypto is super appreciated. https://t.co/GHxjLnTcb1",1142,509
1374782866899484673,"2021-03-24T17:59:12Z","🚨 AMA-Event 🚨 with @BlockDuelers  The best 3 questions asked during the #AMA in https://t.co/humQff03zD win $30 dollars in $BDT tokens  📅Date: This Thursday, March 25th ⏲️Time: 7pm CET 🏠Where: https://t.co/60W9vlmCZd 🤵‍♂️Participants: built2last and @Nevershill   $ETH #Alts https://t.co/4keKtKfhYF",15,10
1374782861837021187,"2021-03-24T17:59:11Z","2 more flags are coming out!  1st Drop - 8:30pm GMT 2nd Drop - 9 pm GMT  Grab it on https://t.co/VUdrvLT3bd  #eth #NFT #NFTDrop #NFTs #NFTartists #NFTcollection #nftart #OpenSea",4,0
1374782860289318915,"2021-03-24T17:59:10Z","I managed to snipe Reflection by XCOPY a week ago for $98k, despite 2 prior sales from the X12 (SR mints 5-16) going for 2x and 3x.  Death Dip sold for $1.8M and was minted after Reflection. I have this listed at 888 ETH (about $1.5M), and feel it's now in danger of being sold.😲 https://t.co/4J3LwTfS0X",87,6
1374782858913476611,"2021-03-24T17:59:10Z","Show me your craziest/weirdest/boldest #NFT   When I reach 1K followers I’ll buy one of two if it’s below 0.3 ETH🤍  #nftart #nftcollector #ETH",139,20
1374782858775134209,"2021-03-24T17:59:10Z","@Definews_Info @oddz_finance @Uniswap oddz finance have of liquidity Rewards to give pool on uniswap and the trade pair as ODDZ and ETH All the Liquidity providers will share the rewards proportionally.",0,0
1374782857491615744,"2021-03-24T17:59:10Z","Today's New Tokens everyone!  ⚡️@nftwars, $WAR (~$2,8M) ⚡️@WoonklyEN, $WOOP (~$1,68M) ⚡️@pepemonfinance, $PPDEX (~$751k) ⚡️@AIRCOINS_App, $AIRX (~$622k) ⚡️@RocketBunny2021, $PBOM (~$301k)  #Crypto #DeFi #Ethereum #ETH #BSC #NFT https://t.co/Zk36HLmxzB",75,32
1374782848171921409,"2021-03-24T17:59:07Z","RT @volmexfinance: What’s your ETH address?  Don’t ask why, just drop it below 👇",4854,1656
1374782847840583687,"2021-03-24T17:59:07Z","If you missed out on #polkabridge $PBR at 6 cents I highly recommend loading up a 💼 of $QUAM, fantastic project with farming and staking coming soon initially on #BSC but will be bridging to #eth soon",1,0
1374782841146417158,"2021-03-24T17:59:06Z","RT @CashNCrypto: $150 to one person in 48hrs  Rt &amp; follow me + @domscrypto &amp; @boar_eth",2050,4122
1374782838784946176,"2021-03-24T17:59:05Z","@SuperDeshBhakt @DivuH @InvisAnonn @CoinList @Casper_Network that's ok as long as it's still in the sale time which last for 5 days i think. You can pay in Usdt usdc btc eth .",1,0
1374782836763398147,"2021-03-24T17:59:05Z","The dream is still alive for my $ETH long as reclaimed support has held through the weekend.   It would be constructive if price can start closing back above 232. https://t.co/izSPZRlwBk",88,12
1374782836746678275,"2021-03-24T17:59:05Z","$TROY looks good buy here next leg up will take it to 95 sats+ 🚀 $troy coming up with two release. Low sats coin are pumping 🚀  1 - 31 Mar 2021  Prototype &amp; Aggregator  2 - 30 Jun 2021  Interface &amp; Asset Tools  $btc $eth $ada $xrp $luna $qtum $vra $vet $kmd $bnt $sxp $uni $pnt https://t.co/GHQxSlqBXD",2,2
1374782829935140864,"2021-03-24T17:59:03Z","RT @jamie247: Let’s start this at 6 ETH https://t.co/nN6viVQUz8",9,2
1374782826713919496,"2021-03-24T17:59:02Z","RT @VentureCoinist: $ETH update https://t.co/2ve0XFTHsg",50,8
1374782826260918273,"2021-03-24T17:59:02Z","$CLOAK: New Perspectives give new Heights  #CloakCoin #ENIGMA #Privacycoin #Privacy #Untraceable #Art #Cryptoart #Crypto #Cryptocurrency #Cryptoartist #NFT #NFTS #NFTart #DigitalArt #Crypto3D #Blockchain #Altcoin #Ethereum #Bitcoin #ETH #Altseason #BYOB #AtomicSwap #BitcoinCore https://t.co/0CBUciz8OO",27,13
1374782820334309377,"2021-03-24T17:59:01Z","It' s about time to talk about security between L2 types. Loopring ZK Rollups already proved that in case off shutdown you still in control of our asset and can claim back to Etherium by our self.  Is it possible to do it on  Binance Smart Chain or Matic PoS  L2 ???",0,0
1374782815523442688,"2021-03-24T17:59:00Z","Remember the 2018 ETH and alts crash? don't buy those celebrity NFTs with your hard-earned crypto, they will just dump on you cuz they don't care.",122,13
1374782799719374853,"2021-03-24T17:58:56Z","RT @scottmelker: Nothing like flushing $ETH down the toilet on a failed swap, right?",2135,103
1374782798117146631,"2021-03-24T17:58:55Z","Elon bullying Luu's ETH bags https://t.co/iCUscVIArJ",0,0
1374782786180120579,"2021-03-24T17:58:53Z","💧Poplink Oracles Airdrop 💧  🏆 Task:          ➕  50 POPO (~$50)  👨‍👩‍👧 Referral:  ➕  15 POPO (~$15)  🔛  Airdrop Link &amp; Information: https://t.co/DS6g34KhFp  #cryptocurrency #Crypto #Bitcoin  #BSC #BinanceSmartChain #Ethereum #ETH #Airdrop #bounty #POPO #Poplink",6484,8311
1374782780744302594,"2021-03-24T17:58:51Z","💧DogeSwap Airdrop💧  🏆 Task:          ➕   7 DOG  👨‍👩‍👧 Referral:     ➕   2 DOG  🔛  Airdrop Link &amp; Information: https://t.co/3rlt9kiu64  #cryptocurrency #Crypto #Bitcoin  #DogeSwap #Ethereum #ETH #Airdrop #bounty #Doge #AirdropStario",3946,5027
1374782779817349127,"2021-03-24T17:58:51Z",".@SIMADUniversity Faculty of Engineering &amp; @IITEInstitute will soon unveil oxygen concentrators thanks to technical support from @ETH_En &amp; @UNDPSomalia. The prototypes are awaiting for final housing before use. This will contribute to the fight against COVID-19 in Somalia. https://t.co/ZptuiMDDXu",135,41
1374782774687625218,"2021-03-24T17:58:50Z","@news_of_bsc @FinanceChainge @FUSIONProtocol This decentralized exchange aims to innovate on traditional models through leveraging the Fusion Network.  #BSC #BTC #ETH #BNB Dịch Tweet",1,0
1374782774574346242,"2021-03-24T17:58:50Z","RT @udiWertheimer: Elon sells the best car in the world. keeps revenue 100% in bitcoin  Beeple sells jpeg files, sells every last ETH he re…",2667,228
1374782774419333129,"2021-03-24T17:58:50Z","@KeyboardMonkey3 I think we're all just tweeting it.  It's not like he was a Michael Saylor or somebody actively promoting crypto.  I still kinda think he shot himself in the foot with the community.  Am I mad at him?  No.  Not so sure I'd buy his stuff after dumping the Eth though.",1,0
1374782767221866497,"2021-03-24T17:58:48Z","You can now buy a #Tesla car with #Bitcoin   “Nothing is stronger than habit” @DavosCryptos   $BTC $ETH #TSLA #Cryptocurrency https://t.co/L0UpN4xTtm",675,790
1374782764369784833,"2021-03-24T17:58:47Z","YAY! We have a #giveaway winner :) Congratulations to @horizon_crypto. Winner already got his  #033 NFT Panda - RariPanda  https://t.co/mKDq5Phdn5  #nft #nftart #drop #rarible #eth #btc #defi https://t.co/ln525sXOCG",10,1
1374782763711205376,"2021-03-24T17:58:47Z",".@SIMADUniversity Faculty of Engineering &amp; @IITEInstitute will soon unveil oxygen concentrators thanks to technical support from @ETH_En &amp; @UNDPSomalia. The prototypes are awaiting for final housing before use. This will contribute to the fight against COVID-19 in Somalia. https://t.co/ZptuiMDDXu",135,41
1374782760162758658,"2021-03-24T17:58:46Z","RT @DailyDogeUpdate: 🚀 $1000 to anyone who Like, Follow and Retweet 🚀  #Dogecoin #LTC $ETH",1838,1206
1374782760087216130,"2021-03-24T17:58:46Z","Could not be more impressed with the #CryptoGathering. Come join the largest #Crypto event of the year hosted by @RealVision and @RaoulGMI.  So many great discussions and Slack channels available to learn more about #DeFi #BTC #ETH #Regulations and more!   #CryptoGathering",17,3
1374782743142273026,"2021-03-24T17:58:42Z","Member of 「Re-NFT Shards Protocol」 Artist: @sundachun  Titl: [Hair Garden]   How much ETH u will pay for her HAIR !!!!!  #NFTCommunity  #nftcollector #Ethereum  #NFT #ArthurExpulso   「Re-NFT Shards Protocol」,there are so many #NFTart creators, #NFTart  lovers gathered. https://t.co/f3a6VstAlM",156,100
1374782735982682113,"2021-03-24T17:58:41Z","Order successful!  LAND Coordinates: [14, 16] Price: 8,900 $MANA ($7,816.94 USD = 4.3635 $ETH)  Purchased by https://t.co/mOfpG5rYCp from https://t.co/C9SYVFU4R3  https://t.co/BWTg33INy0 #decentraland #land #parcel #estate #mana https://t.co/ojR116eUw8",4,1
1374782734879571973,"2021-03-24T17:58:40Z","@MMCrypto Who cares? Fuck off showing off your wealth. #bitcoin #Ethereum #dogecoin #polkadot #DeFi #Binance #Chainlink $link $btc $eth $dot",0,0
1374782722917433349,"2021-03-24T17:58:38Z","@justinmaller @Juicetra Maller with the RD bid deathblow. See ya at 22 ETH ✌️ https://t.co/iZ2VEsfhVs",1,0
1374782721415901188,"2021-03-24T17:58:37Z","💧Roku Network Airdrop 💧  🏆 Task:          ➕  15 ROK (~$5)  👨‍👩‍👧 Referral:   ➕  3 ROK (~$1)  🔛  Airdrop Link &amp; Information: https://t.co/YhvsOcfEbH  #cryptocurrency #Crypto #Bitcoin  #BSC #BinanceSmartChain #Ethereum #ETH #Airdrop #bounty #ROK #RokuCoin #RokuNetwork",3593,4682
1374782714528808965,"2021-03-24T17:58:36Z","For the $ETH bulls:  So far June's price action is looking pretty similar to May before it made another leg higher...  but it's important to have a rule that lets you determine when the trend is fading.  $225 is the line in the sand for me. https://t.co/TXbJGTzkcD",62,15
1374782711546716164,"2021-03-24T17:58:35Z","Here Comes The Night available now on @SuperRare !  @KiboDesigns x @NicMaxJim 🔥   Enlightened Legacy Contact  Transcending The Other Side  Reserve: 1.5 ETH  https://t.co/br0qOIjvMg  #NFTs #NFT #NFTCommunity #NFTartist #cryptoart https://t.co/RQsAtd9JFE",95,22
1374782702658809858,"2021-03-24T17:58:33Z","It just cost me $90 to sell $80 worth of $matic. If you still think $eth has ANYTHING on $bsc $bnb you are crazy.  #BinanceSmartChain is the future. Get involved NOW to save your future $$$",5,1
1374782693141925888,"2021-03-24T17:58:30Z","Invest in the Future of Real Estate   INVEST In FUNDX   FUNDX is #Listed ON -  Probit Exchange  P2pb2b Exchange  Binance Dex   FUNDX #Overview at -  CoinMarketCap  CoinGecko 🚀 🔥  BUY NOW!!👇 https://t.co/9nwwOgu6dB  #FUNDX @ProBit_Exchange @p2pb2b @binance https://t.co/pKk12INwzH",7,6
1374782692747837440,"2021-03-24T17:58:30Z","@ThisIsNuse If ETH maxis didnt want him using their money, they shouldnt have given it to him!",1,0
1374782688129916935,"2021-03-24T17:58:29Z","@NumanUK RIP my eth wallet",1,0
1374782685407744000,"2021-03-24T17:58:29Z","Order successful!  LAND Coordinates: [14, 16] Price: 8,900 $MANA ($7,816.94 USD = 4.3635 $ETH)  Purchased by https://t.co/mOfpG5rYCp from https://t.co/C9SYVFU4R3  https://t.co/BWTg33INy0 #decentraland #land #parcel #estate #mana https://t.co/ojR116eUw8",4,1
1374782684245889026,"2021-03-24T17:58:28Z","@IntelligntSteak *searches frantically for etherium wallet and .1 eth just for gas*",0,0
1374782684082307074,"2021-03-24T17:58:28Z","People are going to doubt you. Just keep going #dogearmy  #Dogecoin #DogecoinRise #DogecoinToTheMoon $DOGE #Bitcoin #btc $BTC #Ethereum $ETH #RIPPLE $XRP https://t.co/RG24LpdRzb",3,2
1374782681209319430,"2021-03-24T17:58:28Z","RT @Quant_111: $QNT partners and integrations   NVIDIA Oracle Amazon KPMG Microsoft  $xrp $link $eth $btc https://t.co/X8nwhLKhOm",47,13
1374782676058714131,"2021-03-24T17:58:26Z","@vladyastreb @realbankso @eceertrey @AbiWolcoff @Photoshop @TheBakaArts @shavonnewong_ @kwrrk_NFT @dixon_eth @liquiddensity @aeforiadesign @jpierce_art @baugasm @designbyjake_ @FluxInfrared @grossehalbuer @_blindisland @litodesigns @mikecampau @victormosquerar @NekroXIII ofc you’re in and i followed you. artists united 🙌",5,0
1374782670237011971,"2021-03-24T17:58:25Z","ETH is delusionally undervalued by the market  ETH true value = confidence + utility + fees ETH fees today = worth ETH at $2450 ETH price today = $1700  Plug in numbers:  $1700 = confidence + utility + fees $1700 = confidence + utility + $2450 -$750 = confidence + utility  🤔",104,10
1374782668450242560,"2021-03-24T17:58:25Z","$DEXTF - Very Bullish article and price predictions (see article ⬇️)  DEXTF will be a cross-chain governance token, currently on Ethereum $ETH and soon to be on Algorand $ALGO to support financial institutions and banks  #DEFI #fintech https://t.co/d6wbWdSItd https://t.co/U3l3GvwLxN",31,9
1374782659235356679,"2021-03-24T17:58:22Z","New episode is live with @KyleSamani!   If you are investing in DeFi, this is a must-watch.  Kyle challenges quite a few narratives in this one that are blindly accepted by the majority of $ETH investors. I learned a ton.  full episode: https://t.co/BMrauuFzxX https://t.co/YKH54dboRx",43,21
1374782650179805187,"2021-03-24T17:58:20Z","RT @Coin98Analytics: Which blockchain do you like most now? Tell us the reasons  $SOL $ATOM $DOT $AVAX $BNB $ETH https://t.co/iAxxRr7LSQ",739,145
1374782640600068101,"2021-03-24T17:58:18Z","@joaosilvestr @davidgokhshtein NP Something interesting about both $dot and $ksm is fees get reinvested into developing the network (unlike $eth going to miners) And people vote on-chain for what the money gets invested on $ksm and $dot can evolve in different ways and slowly become more and more unique",0,0
1374782624640737284,"2021-03-24T17:58:14Z","To celebrate the launch of our project, we are doing our very first #NFTGiveaway 🥳  Yes, 3 Doodes will be given away! To participate:  1. Like 2. Retweet 3. Follow  and drop your ETH address below!  Winners will be announced this Saturday!  #nftart  #NFTs #NFT #nftcollector https://t.co/tlEJEc8EKD",301,195
1374782617694920704,"2021-03-24T17:58:12Z","💧Roku Network Airdrop 💧  🏆 Task:          ➕  15 ROK (~$5)  👨‍👩‍👧 Referral:   ➕  3 ROK (~$1)  🔛  Airdrop Link &amp; Information: https://t.co/YhvsOcfEbH  #cryptocurrency #Crypto #Bitcoin  #BSC #BinanceSmartChain #Ethereum #ETH #Airdrop #bounty #ROK #RokuCoin #RokuNetwork",3593,4682
1374782613718700034,"2021-03-24T17:58:11Z","@Polkamonorg hi guys, and thanks for the egg. I made a mistake transfering ETH directly from my Binance account to the polkamon add without getting through my metamask wallet... I’ll love to speak to someone to get that money back.... 🙏",0,0
1374782597167935490,"2021-03-24T17:58:08Z","@ZssBecker @cxcrypto1 My fav pokemon is Meowtwo How about you sir? @ZssBecker   My friends is: @fixitflx    @ariefwilda    My ETH wallet is:  0x4a3C6A03493494Fcecc2947E6F182FcA47483C56 https://t.co/77um2uvwbX",0,0
1374782589068738566,"2021-03-24T17:58:06Z","@rolandbouman @piesaac Important to clarify: the goods are unrelated to whatever the NFT is attached to.  The goods are the tokens themselves, which you can only buy via Eth. Which you have to get from someone who already bought Eth at a lower price.",4,0
1374782582798262281,"2021-03-24T17:58:04Z","Check out Scysem’s #nft wonderland.   #btc #eth #movie https://t.co/5WoXAdx5nn",3,0
1374782579400962053,"2021-03-24T17:58:03Z","$ETH is breaking out of the range it's been consolidating in for the past 5 days.   Expecting continued outperformance. https://t.co/BZtPrnUXbc",245,41
1374782570668437508,"2021-03-24T17:58:01Z","RT @xvghum: Remember when #Vergecurrency was on a billboard in #nyc ?    #xvg $xvg #verge #doge #btc #eth #ltc #vergefam https://t.co/02WIM…",110,31
1374782567375806466,"2021-03-24T17:58:00Z","Nope.  The seller listed at 1 ETH, the buyer offered 0.9 USDC and the seller probably did not check the details. https://t.co/XvSMkw02bC",0,0
1374782566553780225,"2021-03-24T17:58:00Z","Looks like I was a little too early in anticipating a breakout for $ETH, but my view has not changed.   •Outperformance started in May •Price consolidating in the white box since June started  Labeled the chart to explain how I'm viewing this level: https://t.co/4SIjvtxCjF",49,7
