"ID","created_at","text","like_count","rt_count"
1376715783447928834,"2021-03-30T01:59:55Z","Ekk #38 - 0.5 - Retweet for a chance to win! #nfts #nft #digitalart #art #cryptoart #l #raredigitalart #ethereum #artoftheday #cryptoartist #blockchain #contemporaryart #instagood #animation #abstractart #ETH #Bitcoin   #nft #opensea https://t.co/MjlUvcHuba",5,2
1376715775604559874,"2021-03-30T01:59:53Z","👇🏾 pictures speaks a lot! የ ሁለት አለም ሰዎች!!! @DahlaKib @NeaminZeleke @iyoba4u @NoRoom4FakeNews @daynachew @UnityForEthio @eth_first1 https://t.co/i1XwtnEGlS",201,2
1376715775373762561,"2021-03-30T01:59:53Z","@crypt0snews How visa is going handle transaction fee? Are they using eth Or 2nd layer solution?",3,0
1376715774920945673,"2021-03-30T01:59:53Z","😻Feline Frenzy UPDATE!😻  Donations rolling in!  6 Trillion $NCAT (220 BNB) already burned!  $BTC $ETH $ADA #SAFEMOON $LINK $BNB   https://t.co/7Vr8pMsZTr",45,19
1376715761734070275,"2021-03-30T01:59:50Z","RT @CryptoFinally: What is LP staking? Farming &amp; Liquidity mining on $eth for beginners in 2 minutes - LPs are a box of chocolates :) https…",610,19
1376715755232747522,"2021-03-30T01:59:48Z","No need to spend your own money to trade #cryptocurrency. Over 10K users won crypto rewards on @latokens last week. It's the best way to join the financial revolution. Start by earning a share of $100K in CLIQ airdrop: https://t.co/d0McG2Tczm #Bitcoin #ETH #Citi #AON #LATOKEN",0,0
1376715753274097667,"2021-03-30T01:59:48Z","💧Roku Network Airdrop 💧  🏆 Task:          ➕  15 ROK (~$5)  👨‍👩‍👧 Referral:   ➕  3 ROK (~$1)  🔛  Airdrop Link &amp; Information: https://t.co/YhvsOcfEbH  #cryptocurrency #Crypto #Bitcoin  #BSC #BinanceSmartChain #Ethereum #ETH #Airdrop #bounty #ROK #RokuCoin #RokuNetwork",3811,0
1376715748165345292,"2021-03-30T01:59:47Z","Added $Matic , @0xPolygon, to my curated list of Crypto Alt coins that focus on decentralized data for dApps. $FIL, $CHR, $LINK, $GRT #BitCoin #Eth #Ethereum #Altcoins  @Chromia   @chainlink   @graphprotocol @Filecoin  https://t.co/BBubyHxE1W",0,0
1376715735838285828,"2021-03-30T01:59:44Z","@Fabihodler @TheCryptoDog I did this over the past eight weeks. Closed all ETH and bought bigly into SOL, DOT, KSM and micro caps.",0,0
1376715731434414081,"2021-03-30T01:59:43Z","I will be giving away $20K USD (paid in ETH) when $BUND @BundlesFinance Reaches $6 million Market cap..   $5K each to 4 $Bund wallet holders ❤️❤️❤️❤️  Conditions  ✅Follow, like , retweet &amp; share to 5 friends  ✅ Buy min 10 $BUND (From now)  ✅ Promote and support @BundlesFinance https://t.co/LYyLmCRSGI",91,0
1376715716754354177,"2021-03-30T01:59:39Z","There's nothing necessarily wrong with a high-throughput, pseudo-decentralized network. It is just a trade-off with different use cases that should not be compared to $BTC and $ETH.",345,0
1376715711326916609,"2021-03-30T01:59:38Z","RT @James_HODLer: @antiprosynth Nothing, I still love BTC. But let's not get this twisted, this is an ETH win.",51,0
1376715710622093312,"2021-03-30T01:59:38Z","@PixelPlanetNFTs Check out this awesome collection of DynoBits that just dropped!  Early pricing is at 0.015 ETH!!  https://t.co/9t3e3athI6",0,0
1376715700308303872,"2021-03-30T01:59:35Z","RT @scoinaldo: Looks like $BTC and $ETH could test their ATHs this week.",1549,0
1376715692322471939,"2021-03-30T01:59:33Z","@JRNYcrypto I had very little invested, but seems like small altcoins is way more profitable than ETH.  I bought ETH at 1787 a month ago.  Since, I’ve bought ONE and VET and finally turning a good profit thanks to good advice from JRNY and others.",1,0
1376715680939134976,"2021-03-30T01:59:31Z","The first set of Ahegao NFTs sold out in a week, so I've been working on some more which are now live at https://t.co/MAOPR2F1DH  #pixel_dailies #nft #NFTs #nftart #nftartist #crypto #blockchain #eth #ethereum #digitalart #art #value #nftcollector #hentai #ahegao https://t.co/YWPHtqTMQv",78,0
1376715671128670208,"2021-03-30T01:59:28Z","@VonMises14 AR nfts right from web on iOS &amp; Android, more to come soon :) https://t.co/G0V2NnxugU https://t.co/enLoxMNWua",0,0
1376715665688600582,"2021-03-30T01:59:27Z","Added $Matic , @0xPolygon, to my curated list of Crypto Alt coins that focus on decentralized data for dApps. $FIL, $CHR, $LINK, $GRT #BitCoin #Eth #Ethereum #Altcoins  @Chromia   @chainlink   @graphprotocol @Filecoin  https://t.co/4vtnikO6YJ",1,0
1376715665109831680,"2021-03-30T01:59:27Z","OMG 😱  Day 1 on CMC   TacoToken🌶  is Top pair on #coinmarketcap    #tacoswaptothemoon #cryptocurrencies #tacoswaptomars #defi #eth #ADA #ethereum #crypto @bepronet @Poolz__ @Xed",1180,0
1376715661263560708,"2021-03-30T01:59:26Z","SOLD to skymine for .85 ETH!!! 🖤🖤 Thank you and everyone who bid for taking an interest in my work. It truly means a lot to me! 🤗 I learned ALOT about myself and my work throughout the course of this project, and I'm SO looking forward to what's next! https://t.co/rI76fTr4OI",23,0
1376715658692419584,"2021-03-30T01:59:25Z","@PeterIstrate 🚨GANGSTER #GIVEAWAY ALERT🚨  We’ve launched our GOLD Series Gangsters!  To celebrate, we are giving away BOTH a GOLD Capone and GOLD Escobar (valued at 0.15 ETH each) to 1 lucky winner! See our pinned to enter!  Our RealCryptoGangsters are available here: https://t.co/390XU0GT8m https://t.co/17KqaGDoue",1,0
1376715655144083458,"2021-03-30T01:59:24Z","There is a new bid by @hash_nft and I had no idea i wasn't home Im so sorry 😭😭❤️  Thank you very much for the generous offer, the lowest price I will currently take for this piece would be 2 $ETH ❤️ https://t.co/U9ZDdyd6Au",11,1
1376715651897643010,"2021-03-30T01:59:24Z","@DropYourNFT Check out this awesome collection of DynoBits that just dropped!  Early pricing is at 0.015 ETH!!  https://t.co/9t3e3athI6",0,0
1376715644226375681,"2021-03-30T01:59:22Z","@chrisdbarnett @TheBlock__ Remind me again: 1. How many ETH premined at day 0 + kept by founders? 2. Total supply of ETH? 3. How is ETH decentralized when it relies so strongly on Infura infrastructure?",0,0
1376715644113186817,"2021-03-30T01:59:22Z","#Bitcoin(#BTC) $57,459, +4.30% up #Ethereum(#ETH) $1804.2, 0.031399781BTC, +7.30% up #Holo(#HOT) $0.01277, 0.000000222BTC, +26.52% up #ICON(#ICX) $2.740, 0.000047686BTC, +21.14% up https://t.co/ZU6KMfoJeK",1,0
1376715623032446979,"2021-03-30T01:59:17Z","@anklovee Check out this awesome collection of DynoBits that just dropped!  Early pricing is at 0.015 ETH!!  https://t.co/9t3e3athI6",0,0
1376715622567055360,"2021-03-30T01:59:17Z","@L3gacyHD https://t.co/AfOiSUD8L2 any amt of eth would mean the world to me",1,0
1376715618234163200,"2021-03-30T01:59:16Z","https://t.co/Y2rYw9F8LE  #airdrop #bsc #bscgem #crypto #blockchain #cryptonews #bnb #binance #eth #btc #bounty  #altcoin #bitcoin   #CTBot Adrop Ram 100 DOGE 100",63,0
1376715611913457666,"2021-03-30T01:59:14Z","RT @PostyXBT: $ETH  Breakout and it's game on...  𝕤𝕖𝕟𝕕 𝕚𝕥 https://t.co/beQ5maZk3q",81,0
1376715604632158209,"2021-03-30T01:59:12Z","What is Ether?  Ether (ETH or Ξ) is the native cryptocurrency used on the Ethereum network and is used to compensate miners who secure transactions.  https://t.co/CoYad4SGNI   https://   #Defi   #MustHaveCrypto https://t.co/ToPMpuUcMY",0,0
1376715598386855939,"2021-03-30T01:59:11Z","@FinalOmit @hartejsawney @YIELDapp Not yet, but YIELD App offers market leading APY on ETH, USDT and USDC, so we have high hopes for BTC 👏🏻  What would be better than gaining double digit APY on the hardest money in existence? 🤑 #BTC",4,0
1376715591990435840,"2021-03-30T01:59:09Z","@LevelBevel4D Check out this awesome collection of DynoBits that just dropped!  Early pricing is at 0.015 ETH!!  https://t.co/9t3e3athI6",0,0
1376715588353937409,"2021-03-30T01:59:09Z","@GreekTycoon_ in about 1 week, when #1 BOWL BOWL (1/1) is purchased for 1 ETH. 😎 #BOWLWORLD 🌎",0,0
1376715575041359880,"2021-03-30T01:59:05Z","I was introduced to the NFT space in 2019 when a SuperRare representative reached out about considering the platform. I only began making NFTs in February—wish I started sooner! When did you start producing NFTs?  #cryptoartist #Ethereum #ETH #ArtistOnTwitter #nftart #NFTartist https://t.co/EbGHGRjLjD",5,0
1376715573317410817,"2021-03-30T01:59:05Z","@TrustlessState ETH is old, expensive as fuck. We need fast transaction, high volume, cheap for everyone. That is why the ETH is losing the game. #BSC and $BNB is the real king of #DeFi",82,0
1376715573296463874,"2021-03-30T01:59:05Z","*Some only invest in $BTC &amp; $ETH  *Some only in the top 10  *Some only in top 25 blue chips  *Some only w/ a MC of $1bil+  *Some only in the top 100  *Some only w/ a MC of $100mil+  *Some find assets which will meet all this criteria at a sub $1 mil MC  Who R U?  $albt $jup $cell",64,0
1376715569781637122,"2021-03-30T01:59:04Z","Jay Clayton, whose SEC declared #BTC and #ETH are not securities and removed all obstacles to trading them, now works for hedge fund that is betting on #BTC and #ETH.  (Coincidentally, he also sued @Ripple, crashed #XRP and forced its delisting.) https://t.co/W7boQD1zYq",2050,0
1376715568422789120,"2021-03-30T01:59:04Z","The $POODL army eating dips be like #HOODLTHEPOODL   By @tomars369 on https://t.co/zohsLvOusn!  $DOGE #SAFEMOON #DOGE #DOGECOIN $HOGE #HOGECOIN #POODL #BTC #ETH #CRYPTO https://t.co/ZkqoUBE3Pw",216,0
1376715567634124803,"2021-03-30T01:59:04Z","https://t.co/LZAXNfcnWN  #airdrop #bsc #bscgem #crypto #blockchain #cryptonews #bnb #binance #eth #btc #bounty  #altcoin #bitcoin   #CTBot Adrop Ram 100 DOGE 100",77,0
1376715566854111233,"2021-03-30T01:59:03Z","RT @RyanSAdams: No no you don’t get it.  If you own ETH you won’t be paying banks in the future...the banks will be paying you.",878,0
1376715556636737540,"2021-03-30T01:59:01Z","@KONOGATARI Check out this awesome collection of DynoBits that just dropped!  Early pricing is at 0.015 ETH!!  https://t.co/9t3e3aKT6G",0,0
1376715555915276290,"2021-03-30T01:59:01Z","@santiagoroel I agree that energy shouldn't be  wasted BTC vs ETH.   But I don't think reality will play out as being mutually exclusive (one will win over the other).",0,0
1376715555453870080,"2021-03-30T01:59:01Z","📢#CryptoPHD is about to start the OTC trading of @BESTokens  #BEST is a Hashrate Token Holding $BEST= Mining $BTC+ $ETH  👇Ruels 1⃣Follow @BESTokens &amp; @CryptoPHD_DeFi  2⃣Retweet &amp; join in tg: https://t.co/y5ClVHPmhB  $BEST #OTC #Hashrate #BTC #ETH https://t.co/NK35WDTSsd",134,0
1376715552102641665,"2021-03-30T01:59:00Z","Even though $BNB is the real king of #DeFi, but it doesn’t mean that $ETH is not important. This is your chance to put your $ETH to work.   Earn huge APY today by mining the liquidity of BETH/ETH on #LaunchZone PoolX: https://t.co/RcGnonXe5e $BSCX #BSC  #BankOnBSCX @BinanceChain https://t.co/FpwYvia32a",2,0
1376715525544275970,"2021-03-30T01:58:54Z","We will randomly collect ETH wallet addresses every day and arrange to send the airdrops of 100,000 NFTs until the end of Q2. Those who haven't received NFTs don't need to worry, because it will always be your turn. https://t.co/3APkHz0uO3",886,0
1376715524801880065,"2021-03-30T01:58:53Z","@pixelbros__ Check out this awesome collection of DynoBits that just dropped!  Early pricing is at 0.015 ETH!!  https://t.co/9t3e3athI6",0,0
1376715522008608773,"2021-03-30T01:58:53Z","@econoar @TrustlessState Portfolio adjustment is a sensitive issue for those having issues with gas fees. If you have loads of different tokens that amount to less $500 per asset, you won't be adjusting nish! All those peeps can really do is buy loads more ETH and get it onto L2 then trade.",0,0
1376715497077497858,"2021-03-30T01:58:47Z","@AnotherPeteNFT Check out this awesome collection of DynoBits that just dropped!  Early pricing is at 0.015 ETH!!  https://t.co/9t3e3athI6",0,0
1376715494925856769,"2021-03-30T01:58:46Z","@rutorvl gm eth !",0,0
1376715494112296960,"2021-03-30T01:58:46Z","@CryptoNekoZ I’ll get an ETH tattoo if it hits 5K by EOY.",0,0
1376715472830259208,"2021-03-30T01:58:41Z","The Binance Smart Chains' De-Fi landscape continues its expansion with 4 new projects added to this weeks graphic. Take a look at our curated list of projects on this weeks DeFi landscape.  @bolt_dollar @SwampFinance @CubiexEsports @cybertime_eth  #BSC #BinanceSmartChain #DeFi https://t.co/xHrc0nvMLq",360,0
1376715463531458561,"2021-03-30T01:58:39Z","The DEX @FinanceChainge is set to launch on the @FUSIONProtocol network with over a million users on the protocols waitlist. This decentralized exchange aims to innovate on traditional models through leveraging the Fusion Network.  #BSC #BTC #ETH #BNB  https://t.co/xx55YiGfm3",21659,0
1376715459144380416,"2021-03-30T01:58:38Z","There's nothing necessarily wrong with a high-throughput, pseudo-decentralized network. It is just a trade-off with different use cases that should not be compared to $BTC and $ETH.",345,0
1376715458280316930,"2021-03-30T01:58:38Z","If you heard Visa is settling transactions on Ethereum &amp; your reaction was how can Ethereum do this when gas fees are high then...and I mean this with all respect...you don't understand how this works.  Visa can batch billions of $'s in one ETH transaction  Gas doesn't matter",1369,0
1376715443142987778,"2021-03-30T01:58:34Z","@StrayAliens Check out this awesome collection of DynoBits that just dropped!  Early pricing is at 0.015 ETH!!  https://t.co/9t3e3athI6",0,0
1376715430388174851,"2021-03-30T01:58:31Z","#DeGate unique initial Social Media token offering:📣  To honor contributors to Crypto Assets on social media, DeGate offers an early opportunity to buy DG tokens at a preferential rate. 10 m DG tokens at $0.005  Start ➡️ March 29  https://t.co/5gPWIBwZea  #ETH #BTC #DeFi https://t.co/2qpuVZGJKm",1751,0
1376715428714582018,"2021-03-30T01:58:30Z","#EU #US-SusanRice NGOs’ fictitious narratives to humiliate #Eritrea for their ulterior motives have been confronted/exposed #Eritrean-#Eth leaders have spoken evidently no interference can stop Z Peace-Security-Development-Prosperity @EUCouncil @UN @SecBlinken #EU&amp;USengageEritrea https://t.co/4sUNlL6owJ",1,0
1376715419394838529,"2021-03-30T01:58:28Z","👍 #Ethereum's network growth, which measures the amount of new addresses being created on the network, continues its long-term rise. Similarly encouraging is the fact that the supply of $ETH on exchanges continues dropping, now firmly below 20%. https://t.co/4ZvZv5JS8b https://t.co/xB073InBhh",97,0
1376715406618980353,"2021-03-30T01:58:25Z","Join the @Holdefi community in HLD public sale!  #HLD #Holdefi #ETH #BSC #IDO #ICO 👇👇 https://t.co/vWWbt2pgmx",0,0
1376715394422079490,"2021-03-30T01:58:22Z","Candy Etherea - Vtuber / Audio/Video collectible NFTs available on @rariblecom for only 0.09 ETH. 24 still available - INFTINIfTY CARDS AV12 #nft #cryptoart #nifty #nftartist #musicnft https://t.co/jujwAPWT52 https://t.co/Z54dZGw6AD",11,1
1376715387308412932,"2021-03-30T01:58:21Z","What if #crypto exchange platform also got some money from hedge fund company to #delist $xrp ? #xrp #btc #eth",0,0
1376715385072873474,"2021-03-30T01:58:20Z","https://t.co/Y2rYw9F8LE  #airdrop #bsc #bscgem #crypto #blockchain #cryptonews #bnb #binance #eth #btc #bounty  #altcoin #bitcoin   #CTBot Adrop Ram 100 DOGE 100",63,0
1376715384754208771,"2021-03-30T01:58:20Z","$jup @JUP_Project @crypto_barney @LiveCoinWatch  #TrendingNow #cryptocurrency Jupiter has arrived! #Bitcoin #ETH #ADAcardano #ATOM #Ripple #Polkadot #Synthetix #altcoins https://t.co/7O9oUNQYP7",20,0
1376715384275922946,"2021-03-30T01:58:20Z","Auction for Smart sensor is now live on @SuperRare! Thanks to mr spasmodic for 2 eth 🙏 https://t.co/m3qm5RedCh  #NFT https://t.co/M0EnbCmdeX",21,0
1376715371743342595,"2021-03-30T01:58:17Z","https://t.co/xyWEzxvsUK  #CTBot Adrop Ram 100 DOGE 100  #airdrop #bsc #bscgem #crypto #blockchain #cryptonews #bnb #binance #eth #btc #bounty  #altcoin #bitcoin",67,0
1376715357818392583,"2021-03-30T01:58:14Z","So I moved a ton of my huge ETH holding to SPI...SPI is up 50%  What dumb luck. Gotta give some back.   Let's give away a mooncat (valued at $1000) AND $500 in SPI.  Post your eth wallet below with MEOWTH THATS RIGHT...  Tagging/rewteeting is appreciated https://t.co/VDXboLlmP0",1918,0
1376715351119945733,"2021-03-30T01:58:12Z","https://t.co/LZAXNfcnWN  #airdrop #bsc #bscgem #crypto #blockchain #cryptonews #bnb #binance #eth #btc #bounty  #altcoin #bitcoin   #CTBot Adrop Ram 100 DOGE 100",77,0
1376715344224526341,"2021-03-30T01:58:10Z","@L3gacyHD Take home a CYBOAR-G//CRYPTO BOAR-G_01  0.05 ETH LIMITED EDITION OF 10  https://t.co/Rzwvry1PWE",0,0
1376715337014599690,"2021-03-30T01:58:09Z","$HTSC, GoingGreenPicks “Pick of the week” Undervalued, Oversold! Only 25 million shares in the float. Nickel EV play.  $AABB $WDLF $SKDI $CYIO $AFOM $WAFU $PVSP $RGBP $GMPW $TGGI $INCT $GME $FONU $MDMP $UAMM $AURI $VRCFF $PVDG $FTXP $SMAA $HCMC $AMC $TSNPD $IMTL $ICBU $ETH $BTC",5,0
1376715334049280001,"2021-03-30T01:58:08Z","@crypto_danielle Sell ETH. Buy more #Bitcoin",0,0
1376715330735595521,"2021-03-30T01:58:07Z","@NFT_Whisperer Check out this awesome collection of DynoBits that just dropped!  Early pricing is at 0.015 ETH!!  https://t.co/9t3e3athI6",0,0
1376715326709235718,"2021-03-30T01:58:06Z","$jup @JUP_Project @crypto_barney @LiveCoinWatch  #TrendingNow #cryptocurrency Jupiter has arrived! #Bitcoin #ETH #ADAcardano #ATOM #Ripple #Polkadot #Synthetix #altcoins https://t.co/7O9oUNQYP7",20,0
1376715321495539714,"2021-03-30T01:58:05Z","https://t.co/EQXRAOoKcw  #airdrop #bsc #bscgem #crypto #blockchain #cryptonews #bnb #binance #eth #btc #bounty  #altcoin #bitcoin   #CTBot Adrop Ram 100 DOGE 100",71,0
1376715319905976328,"2021-03-30T01:58:05Z","RT @cryptoallied: What’s your ETH address???  No questions, just drop it below 👇  #ETH #Ethereum #cryptocurrency #Crypto Make Sure to LIKE…",222,0
1376715308971397122,"2021-03-30T01:58:02Z","3. At the end of the day, Crypto. com sends a USDC batch transfer over Ethereum to Visa's Eth address held on Anchorage, hence settling its intra-day payment obligations. Visa is, then, taking some credit risk (which will translate into costs for Visa partners and merchants).  3/",61,0
1376715279980355585,"2021-03-30T01:57:55Z","@WholesomeHex He’s hinted at a new chain since the beginning whenever any one asked what would happen if ETH failed  I do not believe that eating ETH’s fees is the solution  ETH is holding HEX back  That simple   We also have pumped ETH enough w literal 0 acknowledgement, v disrespectful",5,0
1376715278608969729,"2021-03-30T01:57:55Z","@ZssBecker So I moved a ton of my huge ETH holding to SPI...SPI is up 50%  What dumb luck. Gotta give some back.   Let's give away a mooncat (valued at $1000) AND $500 in SPI.  MEOWTH THATS RIGHT WalletAddress:0xa6222ebc2accc7ee4913da0435b80358d233bf2b",0,0
1376715272468398080,"2021-03-30T01:57:53Z","🏆 Top Volume Leaders on https://t.co/qihXWjOcFK  What's your fav? 🔹 $BTC @Bitcoin  🔹 $FIL @Filecoin  🔹 $ETH @ethereum  🔹 $STORJ @storjproject  🔹 $DOT @Polkadot  🔹 #TRX  @Tronfoundation  🔹 $THETA  @Theta_Network",211,0
1376715269163257859,"2021-03-30T01:57:52Z","#DeFi #BKC #eth2 #BucksCake  ANNOUNCEMENT!  Dear BucksCake's community members!  The exact date of BKC listing on Uniswap set for 04/20/2021!  2 days before it, the exact opening time of the trading pair BKC/ETH on Uniswap...  More at https://t.co/RQPMhjazG2 https://t.co/VjtBbXBA1t",2856,0
1376715266701189123,"2021-03-30T01:57:52Z","To me, DeFi coins like $ETH, $LINK, $AAVE or $SNX are in their do or die phase. They need to pump to remain the integrity of their bull market because they seem to be lagging.",1,0
1376715259738722305,"2021-03-30T01:57:50Z","#DeGate unique initial Social Media token offering:📣  To honor contributors to Crypto Assets on social media, DeGate offers an early opportunity to buy DG tokens at a preferential rate. 10 m DG tokens at $0.005  Start ➡️ March 29  https://t.co/5gPWIBwZea  #ETH #BTC #DeFi https://t.co/2qpuVZGJKm",1751,0
1376715246866337792,"2021-03-30T01:57:47Z","VESPER REVENUE MODEL @VesperFi   Pool strategies generate revenue from withdraw and platform fees. 95% of all revenue generated from fees (or otherwise) are used to buyback $VSP tokens from the open market.   #defi #ethereum #bitcoin #yieldfarming #cryptocurrency $ETH $BTC https://t.co/50Z7slz5Nq",4,0
1376715200229822466,"2021-03-30T01:57:36Z","#DeGate unique initial Social Media token offering:📣  To honor contributors to Crypto Assets on social media, DeGate offers an early opportunity to buy DG tokens at a preferential rate. 10 m DG tokens at $0.005  Start ➡️ March 29  https://t.co/5gPWIBwZea  #ETH #BTC #DeFi https://t.co/2qpuVZGJKm",1751,0
1376715199709802496,"2021-03-30T01:57:36Z","40 hours until Main Net 🚀  40 of the most popular tokens will be available across $ETH and BSC chains, including $BTC, $ETH, $LINK, $DOT, $ADA, $YFI, $UNI, $OMG, $GRT, $BNB, and $XRP.  Via complex swap, #OrionTerminal will have 1,500+ pairs via unique cross-pair functionality. https://t.co/QAOfl6Z1wn",743,0
1376715196442509317,"2021-03-30T01:57:35Z","RT @NFTFusion: What’s your ETH address?  No questions, just drop it below 👇 #NFT #NFTs",1953,0
1376715181229801473,"2021-03-30T01:57:31Z","RT @Shredded_Jay62: Weekly golden cross soon $vidt Few... #BinanceSmartChain #Bitcoin $dego $eth $omg $omi #NFTs https://t.co/xfm4mTLkte",13,0
1376715173109506051,"2021-03-30T01:57:30Z","The #KINARMY gets thing done.      $KIN #KIN #Bitcoin #BTC #Ethereum #ETH #Solana #SOL #XRP #NFT #DeFi #Altcoin #alt #usd #fintech #blockchain #crypto #buythedip #gold #silver #SEC https://t.co/hMB9XwD4I0",47,0
1376715171754770437,"2021-03-30T01:57:29Z","Even though $BNB is the real king of #DeFi, but it doesn’t mean that $ETH is not important. This is your chance to put your $ETH to work.   Earn huge APY today by mining the liquidity of BETH/ETH on #LaunchZone PoolX: https://t.co/ixhxYwhpMC $BSCX #BSC  #BankOnBSCX @BinanceChain https://t.co/la5ryNM7aS",233,0
1376715169242378243,"2021-03-30T01:57:29Z","40 hours until Main Net 🚀  40 of the most popular tokens will be available across $ETH and BSC chains, including $BTC, $ETH, $LINK, $DOT, $ADA, $YFI, $UNI, $OMG, $GRT, $BNB, and $XRP.  Via complex swap, #OrionTerminal will have 1,500+ pairs via unique cross-pair functionality. https://t.co/QAOfl6Z1wn",743,0
1376715166570618880,"2021-03-30T01:57:28Z","RT @comrad_pete: ETH / SOL / RUNE / RAY / BNB / ATOM all look very ripe",38,0
1376715103098204167,"2021-03-30T01:57:13Z","@RichardHeartWin And the half eth gas fee",0,0
1376715082663596038,"2021-03-30T01:57:08Z","#Giveaway to every follower! Get a SEXY SHRIMP #NFT  300 up for grabs.   To receive #FreeNFT  complete :   ➡️Follow  @ParrotfishJ ➡️Like &amp; Retweet ➡️Comment this tweet with your wax wallet #NFTgiveaway #btc #waxp #eth #cryptoart #digitalart  #doge #xrp  https://t.co/2jcUuVRXah",68,0
1376715078880219140,"2021-03-30T01:57:07Z","@RealJohnDough @Ananya63579323 BTC will be digital gold caz of the decentralization. BTC is the store of value 2.0. It is the decentralization with limited supply that are valued more than efficiency and speed if we are to talk bout storing value asset. ETH will have different roles in different space, too.",0,0
1376715077718523906,"2021-03-30T01:57:07Z","SURPRISE PRIZE 🎉  Since we have been growing so fast, I wanted to add a bonus prize to the giveaway to say thank you to you all  BONUS PRIZE: - 1 CYBERPOWER GAMING COMPUTER ($1500 value) or $1k of $ETH  The winner will get to decide  Drawing all 29 giveaway winners at 6pm PST https://t.co/QdkURu6onz",4005,0
1376715073788518409,"2021-03-30T01:57:06Z","Who’s doing NFT’s?  https://t.co/hY5EoTQnya  #nft #crypto #sell #crypocurrency #eth #btc #doge #CryptoNews #NFTartists",1,0
1376715073360629768,"2021-03-30T01:57:06Z","@ki_young_ju @Falcon_Swap  $FSW #fsw  #BTC #Ethereum  market capitalization just woke up. Buy it before $ 5 or $ 10 this week mainet. project with solid foundations. THE RATE REDUCTION AT #ETH IS MY GREATEST REASON TO INVEST. THIS WILL CHANGE HISTORY",0,0
1376715062556041217,"2021-03-30T01:57:03Z","@Crypto_Stoners Check out this awesome collection of DynoBits that just dropped!  Early pricing is at 0.015 ETH!!  https://t.co/9t3e3athI6",0,0
1376715051088846850,"2021-03-30T01:57:00Z","40 hours until Main Net 🚀  40 of the most popular tokens will be available across $ETH and BSC chains, including $BTC, $ETH, $LINK, $DOT, $ADA, $YFI, $UNI, $OMG, $GRT, $BNB, and $XRP.  Via complex swap, #OrionTerminal will have 1,500+ pairs via unique cross-pair functionality. https://t.co/QAOfl6Z1wn",743,0
1376715047892881413,"2021-03-30T01:57:00Z","#Nessie #397 has emerged from the depths of Loch Ness and is now minted on the #ETH blockchain via @opensea  PRICE: Ξ0.085  https://t.co/OuOaq7mABf  #Nessies #NFT #NFTs #NFTCommunity #Crypto #ETH #CryptoPunks #DigitalArt https://t.co/Qg5r9djZCU",18,0
1376715045699153930,"2021-03-30T01:56:59Z","RT @CryptoFinally: What is LP staking? Farming &amp; Liquidity mining on $eth for beginners in 2 minutes - LPs are a box of chocolates :) https…",609,0
