"ID","created_at","text","like_count","rt_count"
1377825613394763779,"2021-04-02T03:29:59Z","If #BTC breaks $69,420 in APRIL 2021 I’ll give a random person my R8  Super SIMPLE: Like ✔️ RT ✔️ Follow ✔️ @JBTheCryptoKing  Drop eth addy ✔️ https://t.co/0ZTkU9CUuI",7875,3934
1377825612132409346,"2021-04-02T03:29:59Z","$TRX is worth $0.25 as a *bare minimum* and if the burn continues at this rate, on to $0.5 and $1.10  TRX is the 4th most adopted blockchain and consistently processes far more transactions per day than ETH. Billions of dollars fly around on the network every single day:",67,19
1377825609859141637,"2021-04-02T03:29:58Z","If #BTC breaks $69,420 in APRIL 2021 I’ll give a random person my R8  Super SIMPLE: Like ✔️ RT ✔️ Follow ✔️ @JBTheCryptoKing  Drop eth addy ✔️ https://t.co/0ZTkU9CUuI",7875,3934
1377825606373609473,"2021-04-02T03:29:57Z","ETH testing that 2k resistance hopefully it pops ⚡️",2,1
1377825600266702849,"2021-04-02T03:29:56Z","🚨 And the winner of the @RealVision poll is... 🚨  🥁 🥁 🥁  VECHAIN! 🥳  #VeChain $VET #VeFam $BTC $ETH $ADA $XRP $DOGE $XRP $XLM $DOT $UNI $LTC $FIL $LINK https://t.co/t21RBJpPYr",186,33
1377825589734739969,"2021-04-02T03:29:54Z","If $BTC can hold 60k and $ETH can hold 2k through the weekend 🤤🤤🤤🤤🤤🤤🤤🤤🤤🤤🤤🤤🤤🤤🤤",0,0
1377825584122888202,"2021-04-02T03:29:52Z","RT @westcoastbill: ETH just hit $2000!!!  congrats everyone!!!",2177,169
1377825580759015424,"2021-04-02T03:29:51Z","Ethereum.  I own a lot of Ethereum because I think it’s the closest to a true currency - Mark Cuban.  ETH and DeFi will be on fire in Q2 2021.",1883,232
1377825572013899776,"2021-04-02T03:29:49Z","@pokkst u an eth boy?",0,0
1377825563369332736,"2021-04-02T03:29:47Z","|￣￣￣￣￣￣￣￣￣￣￣￣￣|    $ETH is back over $2,000 |＿＿＿＿＿＿＿＿＿＿＿＿＿|                      (\__/)  ||                      (•ㅅ•) ||                      / 　 づ",1556,185
1377825562681606145,"2021-04-02T03:29:47Z","If #BTC breaks $69,420 in APRIL 2021 I’ll give a random person my R8  Super SIMPLE: Like ✔️ RT ✔️ Follow ✔️ @JBTheCryptoKing  Drop eth addy ✔️ https://t.co/0ZTkU9CUuI",7875,3934
1377825560705998853,"2021-04-02T03:29:47Z","@saf_coin Thank you ❤️ ETH address : 0x519bf07451a18BdAd0DB6268E168c62A137c71A9",0,0
1377825558214545417,"2021-04-02T03:29:46Z","If #BTC breaks $69,420 in APRIL 2021 I’ll give a random person my R8  Super SIMPLE: Like ✔️ RT ✔️ Follow ✔️ @JBTheCryptoKing  Drop eth addy ✔️ https://t.co/0ZTkU9CUuI",7875,3934
1377825555949756421,"2021-04-02T03:29:45Z","RT @girlgone_crypto: 60k #bitcoin and 2k $ETH 🔥",2175,221
1377825546403520517,"2021-04-02T03:29:43Z","Come on #eth, hold the line!",0,0
1377825542402105344,"2021-04-02T03:29:42Z","Which token has the strongest community? 💪🏻♥️   #Crypto #CryptoNews #FegEx #bnb #bnb #Binance #ETH $GOLD $TRY #DeFi #Altcoins #altcoinseason2021 @FEGtoken",349,132
1377825541609390082,"2021-04-02T03:29:42Z","ETH to #CRUSH Bitcoin (Top Expert Prediction) Bitcoin Proponent EXPLAINS on Lex #Fridman Podcast  Ethereum #could #OUTPERFORM #Bitcoin. Bitcoiner Nic ..  https://t.co/EJi8yxAlqJ  #ethereum https://t.co/4YLFdv6Dls",0,1
1377825535670284289,"2021-04-02T03:29:41Z","RT @AbstractDement: Many talk about having a lot of ETH. But no one says they want to buy my digital art 🤔  #nft #nfts #NFTCommunity #nftco…",1,1
1377825533573132291,"2021-04-02T03:29:40Z","$ETH 2K. 🙏🏼🙏🏼🙏🏼🙏🏼🙏🏼🙏🏼🙏🏼🙏🏼🙏🏼🙏🏼🙏🏼🙏🏼",89,8
1377825533526896641,"2021-04-02T03:29:40Z","Today's event is an official auction📢  We will be selling the Yome prepared by the management at 0 ETH on the Open Sea🏰  The first session will have a rainbow card🌈 The auction items will also have original benefits🔏  Please join us😆✨ https://t.co/MqLuiGlE5P",16,4
1377825524970618892,"2021-04-02T03:29:38Z","RT @westcoastbill: ETH just hit $2000!!!  congrats everyone!!!",2177,169
1377825524265914370,"2021-04-02T03:29:38Z","@exchange_coins_ Exchange coin to the moon soon 🚀🚀🚀  Eth address:0x20f3a341fa880ac931c47c343bb7ec6b1c32e825",0,0
1377825508079980549,"2021-04-02T03:29:34Z","RT @jackbutcher: Reply🪙 &amp; RT to scratch.  (Winner will need an ETH wallet) https://t.co/A47BDcJpVd",651,836
1377825504451915776,"2021-04-02T03:29:33Z","https://t.co/yrZ5UHVAyw Just posted this! @brianromero @hydro74 @_sampierson @LeoDiCaprio #nft #nfts #crypto #cryptoart #cryptocurrency #eth #Ethereum",28,17
1377825504288382976,"2021-04-02T03:29:33Z","What’s going to happen with #ETH over the next week? Predictions? Thoughts? #Ethereum",0,0
1377825503722172418,"2021-04-02T03:29:33Z","DCT TOKEN Airdrop Medium Star Claim 1 DCT ($ 100) + 0.045 DCT ($ 10) for each referral you make.   Steps  💎  Join channel and group  💎  Follow twitter, like and retweet pinned message   💎  Submit eth wallet address (ERC-20) Participate now Airdrop link: https://t.co/L24stp8tVI https://t.co/CVYQyLAWwU",8623,8871
1377825503483138049,"2021-04-02T03:29:33Z","$BTC 60K $ETH 2K 🥰 Hermoso",0,0
1377825494435950600,"2021-04-02T03:29:31Z","@Xprivacy2 No 😂. Hodling my core, but it's crazy that sell volume is pushing it up because of the delta market buys and floor eth/btc tvpl pushing it higher. When dexs launch this can be a 50k token easy.",1,0
1377825486596943872,"2021-04-02T03:29:29Z","30 day EVIX: 92.7431 ETH/USD vwap: $2,003.80 04/30 expiry volume: $6,764,302.78 05/28 expiry volume: $5,822,962.20 Current time: 03:29:07",0,0
1377825484038283264,"2021-04-02T03:29:28Z","ETH when Bitcoin Maxi’s say they’re going to reinvent DeFi. https://t.co/RZXDTxkOvI",32,1
1377825478631948288,"2021-04-02T03:29:27Z","If #BTC breaks $69,420 in APRIL 2021 I’ll give a random person my R8  Super SIMPLE: Like ✔️ RT ✔️ Follow ✔️ @JBTheCryptoKing  Drop eth addy ✔️ https://t.co/0ZTkU9CUuI",7875,3934
1377825468309716992,"2021-04-02T03:29:25Z","@stoolpresidente we've got something for you! we hope you send us an eth address and hold this one 🙏  #wallstreetbets #barstoolsports #nftcollector #NFTdrop   https://t.co/oSPcaKeh9C",3,1
1377825465386196996,"2021-04-02T03:29:24Z","Announcement   At the time of launching ADONX, we had referenced its price against ETH. However, ETH value has risen very sharply. We at Adonx have decided to reference token value to USDT, the new price is $.20. People who have already bought will be compensated accordingly. https://t.co/KNRWA0d1kS",109,61
1377825462513246210,"2021-04-02T03:29:23Z","|￣￣￣￣￣￣￣￣￣￣￣￣￣|    $ETH is back over $2,000 |＿＿＿＿＿＿＿＿＿＿＿＿＿|                      (\__/)  ||                      (•ㅅ•) ||                      / 　 づ",1556,185
1377825451503198209,"2021-04-02T03:29:21Z","When we break $2000 and fly, there's a good chance we will revisit $2000 later for a retest. I'm honestly hoping to find the next ATH for $ETH and buy the retest...",2,0
1377825449871601666,"2021-04-02T03:29:20Z","ETH core devs should sell a limited edition basket of 1559 NFTs for 1 ETH each and donate the proceeds to the team of people that worked on EIP 1559.   I would buy a “I funded EIP 1559” badge of honor NFT if I knew the money was going to the team that worked on it.",1253,108
1377825447942103041,"2021-04-02T03:29:20Z","$ETH over $2000 lets go 🚀",4,0
1377825446616821760,"2021-04-02T03:29:19Z","New CoinMarketCap Listing!  SafeNebula / $SNBL Price: 2.10460968783245 24h Volume: 212088.89220643 #crypto #gem #eth #defi  https://t.co/TRhhAM8z44",22,12
1377825445412888580,"2021-04-02T03:29:19Z","PSA:  $Kin still does not have a ceiling.  #Kin #NFTs #DeFi #btc  #bitcoin #solana #bch #usd #xrp #eth #price #crypto #ltc #fintech #blockchain #buythedip https://t.co/pOuPuwTxfF",31,11
1377825443429019649,"2021-04-02T03:29:19Z","If #BTC breaks $69,420 in APRIL 2021 I’ll give a random person my R8  Super SIMPLE: Like ✔️ RT ✔️ Follow ✔️ @JBTheCryptoKing  Drop eth addy ✔️ https://t.co/0ZTkU9CUuI",7875,3934
1377825440887304193,"2021-04-02T03:29:18Z","@binance $ETH            vs         $5,000     ( •_•)                          (•_• )     ( ง )ง                          ୧( ୧ )    /︶\                              /︶\",1,0
1377825438609899520,"2021-04-02T03:29:17Z","RT @JBTheCryptoKing: Shill me your #1 BAG...I’m buying $50k of a shitcoin tonight 💯!!!  #btc #eth #bnb #crypto #alts",460,59
1377825436500131848,"2021-04-02T03:29:17Z","RT @westcoastbill: ETH just hit $2000!!!  congrats everyone!!!",2177,169
1377825435774410754,"2021-04-02T03:29:17Z","#Binance Adds New Trading Pairs:  🔸 $NAV/ $ETH @Navcoin  🔸 $RVN/ $TRY @Ravencoin  🔸 $THETA/ $EUR @Theta_Network  🔸 $XVG/ $BUSD @vergecurrency   https://t.co/uHjlEnLPAS",987,283
1377825431345188867,"2021-04-02T03:29:16Z","@C0inAlchemist @sassal0x Can we all stake against Sassal’s ability to tweet until Eth breaks 5k?",1,0
1377825427738136579,"2021-04-02T03:29:15Z","Me vs. #XRP haters.   $XRP #BTC #ETH #cryptocurrencies https://t.co/Pfu0CKwM14",0,0
1377825411577520128,"2021-04-02T03:29:11Z","RT @crypto_birb: $ETH should easily rip 2.7k in next few weeks https://t.co/wjoKJkXlyU",869,97
1377825399816613888,"2021-04-02T03:29:08Z","RT @intocryptoverse: $2k $ETH",1899,131
1377825391134511108,"2021-04-02T03:29:06Z","Gonna open at least 2 slots for NSFW art :0 Since I need to practice more! X3 Information on my Trello: https://t.co/F8RDIrg2ZX https://t.co/iILNrgUpLR",133,34
1377825380334239744,"2021-04-02T03:29:04Z","'G-check' sold for 3.5 ETH on @withFND, I'm so touched by @ThisIsAito for collecting one of my most transparent pieces of work😭 +Thank you @jespow for bidding too, means a lot coming from big figures in this space!  Emotionally writing this sat next to some canvas💕 Much love! https://t.co/WKj51tN40f",77,7
1377825375871332355,"2021-04-02T03:29:03Z","RT @CoinBoards: Mark Cuban owns 30% ETH because it’s ‘closest to a true currency’ https://t.co/5W4dimQ3ED",0,2
1377825369936384007,"2021-04-02T03:29:01Z","If #BTC breaks $69,420 in APRIL 2021 I’ll give a random person my R8  Super SIMPLE: Like ✔️ RT ✔️ Follow ✔️ @JBTheCryptoKing  Drop eth addy ✔️ https://t.co/0ZTkU9CUuI",7875,3934
1377825369055752192,"2021-04-02T03:29:01Z","#AI #AIethics   An #ArtificialIntelligence Program That Makes Mistakes On Purpose   by @analyticsinme cc @ETH @lawrennd @GaryMarcus @andy_lucerne @CognitiveValley  https://t.co/t8LWHW8O1T https://t.co/8DgmOxunjl",11,10
1377825367868628995,"2021-04-02T03:29:01Z","🔷Official Auction Rules🔷 1⃣All auctions will start at 0 ETH and run for 1 week 2⃣Auctioned items will be marked with a special symbol 3⃣The contents of the auction may vary from week to week 4⃣Item will be purchased by the management, There is no impact on the overall supply.",6,1
1377825365880541190,"2021-04-02T03:29:00Z","Today's event is an official auction📢  We will be selling the Yome prepared by the management at 0 ETH on the Open Sea🏰  The first session will have a rainbow card🌈 The auction items will also have original benefits🔏  Please join us😆✨ https://t.co/MqLuiGlE5P",16,4
1377825359777820673,"2021-04-02T03:28:59Z","Eth broke out big time, and eth/btc did really well too, but with both coins showing strength and breaking out I have no interest in longing eth shorting btc anymore so closing this trade out here https://t.co/6l9bvfzGjp",2,0
1377825351770853380,"2021-04-02T03:28:57Z","Has anyone else noticed that $ETH broke $2K?? 👀💸",0,0
1377825351229861891,"2021-04-02T03:28:57Z","$ETH            vs         $2,000     ( •_•)                            ( ง )=o                      (x_x )     /︶\                                _/￣|__",5098,613
1377825351016050693,"2021-04-02T03:28:57Z","$2K on coinbase for what it’s worth  $ETH",2,1
1377825346775568388,"2021-04-02T03:28:56Z","If #BTC breaks $69,420 in APRIL 2021 I’ll give a random person my R8  Super SIMPLE: Like ✔️ RT ✔️ Follow ✔️ @JBTheCryptoKing  Drop eth addy ✔️ https://t.co/0ZTkU9CUuI",7875,3934
1377825345903030277,"2021-04-02T03:28:55Z","Ethereum right now. $eth https://t.co/esZgaPcrFa",1,0
1377825341947969536,"2021-04-02T03:28:54Z","RT @westcoastbill: ETH just hit $2000!!!  congrats everyone!!!",2177,169
1377825337837502467,"2021-04-02T03:28:53Z","#Binance Adds New Trading Pairs:  🔸 $NAV/ $ETH @Navcoin  🔸 $RVN/ $TRY @Ravencoin  🔸 $THETA/ $EUR @Theta_Network  🔸 $XVG/ $BUSD @vergecurrency   https://t.co/uHjlEnLPAS",987,283
1377825337237704712,"2021-04-02T03:28:53Z","Ethereum: $2,002.45  +4.60% (+$88.04) High: $2,009.75 Low: $1,889.21 Volume: 3625  $ETH #ETH #ethereum",0,0
1377825334641487877,"2021-04-02T03:28:53Z","RT @iamjosephyoung: $ETH $2,000.  That's all.",1549,130
1377825327540494338,"2021-04-02T03:28:51Z","Great day today!  Met with an amazing photographer in the morning  onboarded several Black women onto Foundation  (posting them all soon) and gave out tons of info  saw @zak_krevitt piece for @BTFAcollective  get bid up to 8.8888 ETH  and had the bidding start on my piece I.!",15,2
1377825327502745601,"2021-04-02T03:28:51Z","#Binance Adds New Trading Pairs:  🔸 $NAV/ $ETH @Navcoin  🔸 $RVN/ $TRY @Ravencoin  🔸 $THETA/ $EUR @Theta_Network  🔸 $XVG/ $BUSD @vergecurrency   https://t.co/uHjlEnLPAS",987,283
1377825323694260225,"2021-04-02T03:28:50Z","Today is a Pinnacle day for all #Ethereum holders.  Today we reached new heights..📈  Comment Below Your Price Prediction for #ETH By The End Of 2021 🪙 @coinkit_ mon 10 100 BTC https://t.co/appEdWy8hN",169,125
1377825313351065605,"2021-04-02T03:28:48Z","My first collaboration with talented @Hoori_Jyn  We present you : Planet ETH available on @rariblecom  https://t.co/HFLvq198Sy (Please wait until drop)  #nftart #nftmusic #nftcollector #NFTCommunity #NFTartist #Ethereum #rarible",46,14
1377825312667533313,"2021-04-02T03:28:47Z","🎁 Dropping some $ETH 🎈💵  Like &amp; RT. It will show up in your CCtip wallet.  ✅Join $BASE 💎 Telegram👇 https://t.co/tg0tLCDYyM   ___________________________ @cctip_com airdrop 0.01 ETH 99999 #Ethereum",264,222
1377825310385733639,"2021-04-02T03:28:47Z","RT @JRNYcrypto: $60k #Bitcoin and $2k $ETH 👀",1935,149
1377825310041722883,"2021-04-02T03:28:47Z","@dan_rouleau @21Hornets @redditinvestors It makes no difference, you can buy all crypto in small amounts. Don't go all in to either. 30% BTC, 30% ETH, 30% ADA and 10% moonshots is a good place to start.",0,0
1377825307164504068,"2021-04-02T03:28:46Z","#Binance Adds New Trading Pairs:  🔸 $NAV/ $ETH @Navcoin  🔸 $RVN/ $TRY @Ravencoin  🔸 $THETA/ $EUR @Theta_Network  🔸 $XVG/ $BUSD @vergecurrency   https://t.co/uHjlEnLPAS",987,283
1377825305218347015,"2021-04-02T03:28:46Z","#Binance Adds New Trading Pairs:  🔸 $NAV/ $ETH @Navcoin  🔸 $RVN/ $TRY @Ravencoin  🔸 $THETA/ $EUR @Theta_Network  🔸 $XVG/ $BUSD @vergecurrency   https://t.co/uHjlEnLPAS",987,283
1377825282820874251,"2021-04-02T03:28:40Z","RT @econoar: Front page of CNBC right now. @mcuban knows ETH is money. https://t.co/FMrBKDuExc",2088,348
1377825274570665985,"2021-04-02T03:28:38Z","Good news!  The Digital Reserve Vault #3 has officially launched and The Digital Reserve Vaults interface has been updated!  $DRC holders now have access to the $MPH, $FARM, and $ETH vault.    https://t.co/0CAVxEBY1f https://t.co/Oqgw7grrVK",72,18
1377825273769431047,"2021-04-02T03:28:38Z","RT @DrewLloydArt: drop your wallet addy that takes eth collectibles and you just might get one of my doge nfts",5,1
1377825272481738755,"2021-04-02T03:28:38Z","$ETH            vs         $2,000     ( •_•)                            ( ง )=o                      (x_x )     /︶\                                _/￣|__",5098,613
1377825271743705090,"2021-04-02T03:28:38Z","RT @ThisisNFTs: I have 1 ETH to giveaway to enter just RT this and follow me. I’ll pick one of you tomorrow.",517,518
1377825263833202690,"2021-04-02T03:28:36Z","|￣￣￣￣￣￣￣￣￣￣￣￣￣|    $ETH is back over $2,000 |＿＿＿＿＿＿＿＿＿＿＿＿＿|                      (\__/)  ||                      (•ㅅ•) ||                      / 　 づ",1556,185
1377825253125132288,"2021-04-02T03:28:33Z","RT @CorgiNFT: Take home Cotton Candy Corgi for just .05 ETH! https://t.co/x3m71CReFW #NFTs #opensea",4,1
1377825250121973760,"2021-04-02T03:28:33Z","Mark Cuban owns 30% ETH because it’s ‘closest to a true currency’ https://t.co/5W4dimQ3ED",0,2
1377825249522184195,"2021-04-02T03:28:32Z","Mark Cuban owns 30% ETH because it’s ‘closest to a true currency’ https://t.co/InGJ71lfCX #bizassetinsights #bacdaily #BusinessAsset #STO #DigitalAssets",0,0
1377825248339492865,"2021-04-02T03:28:32Z","$2k $ETH 👀",0,0
1377825244841271298,"2021-04-02T03:28:31Z","RT @iamoliverneil: 🚨 WE HAVE BROKE #60k 🚨  #BULLISH   #Bitcoin #BTC #ETH #CryptoNews  @coinkit_ mon 10 100 BTC https://t.co/L9JVZvdvtx",35,99
1377825229729361924,"2021-04-02T03:28:28Z","RT @girlgone_crypto: 60k #bitcoin and 2k $ETH 🔥",2175,221
1377825227795664901,"2021-04-02T03:28:27Z","@cyber_hokie What I find interesting is that it isn't exactly competing with Bitcoin. Rather they are both evolving along different paths toward being more like money and less like speculative assets. ETH is on a faster track as commodity money but BTC has a lot of mimetic energy",0,0
1377825220279500800,"2021-04-02T03:28:25Z","Cliq DAO Airdrop Officially Launched Fill this Form https://t.co/AFdBErdRVn to Get 500 CLQ Tokens Worth $50 USD  Don't Miss this chance  Token Distribution April 2021 Month End. #BSC $BNB $ETH $BTC  #Bitcoin #BinanceSmartChain #BNB #cryptocurrency #crypto #NFTs #Airdrops #Airdrop https://t.co/8whsgLzhEl",530,426
1377825216827637760,"2021-04-02T03:28:25Z","@monerotrader BTC will end up just becoming wBTC that people will keep as an NFT in their ETH wallet as a collectible.",4,0
1377825212150939652,"2021-04-02T03:28:23Z","💧Twinci Airdrop 💧  🏆 Task:          ➕ $15 worth of  TRX                              ➕ $50 worth of TWIN  🔛 Airdrop Link &amp; Information: https://t.co/aV7t49dRDX  #cryptocurrency #Crypto #Bitcoin #Ethereum #ETH #Twinci #TWIN",1336,1777
1377825207004454914,"2021-04-02T03:28:22Z","$ETH            vs         $2,000     ( •_•)                            ( ง )=o                      (x_x )     /︶\                                _/￣|__",5098,613
1377825204609503238,"2021-04-02T03:28:22Z","#BTC $60000 🚀🚀 #ETH $2000  #BNB ATH $356 #WRX $1.4 India Wants Crypto",1,0
1377825194581049345,"2021-04-02T03:28:19Z","NBA 2K? more like ETH 2K",0,0
1377825187182178305,"2021-04-02T03:28:18Z","@BandicootCrypto @illuviumio @binance @cz_binance @KieranWarwick $ILV will be giant 💥🚀😎👊 #ETH #Binance",4,0
1377825186209144833,"2021-04-02T03:28:17Z","🚨 And the winner of the @RealVision poll is... 🚨  🥁 🥁 🥁  VECHAIN! 🥳  #VeChain $VET #VeFam $BTC $ETH $ADA $XRP $DOGE $XRP $XLM $DOT $UNI $LTC $FIL $LINK https://t.co/t21RBJpPYr",186,33
1377825180345585664,"2021-04-02T03:28:16Z","RT @MoneyNostra: Ethereum + Front page on CNBC 🤑 Pump $ETH to $10k Mark Cuban🚀 https://t.co/YuwtRX8wTz",50,9
1377825180064616449,"2021-04-02T03:28:16Z","@pifinity if you've got an eth wallet for collectibles I've got an #dogeday nft for you",2,0
1377825146107527169,"2021-04-02T03:28:08Z","RT @CryptoGodJohn: Now its $ETH turn",442,18
1377825143406268422,"2021-04-02T03:28:07Z","RT @westcoastbill: ETH just hit $2000!!!  congrats everyone!!!",2177,169
1377825143020531713,"2021-04-02T03:28:07Z","RT @girlgone_crypto: 60k #bitcoin and 2k $ETH 🔥",2175,221
