"ID","created_at","text","like_count","rt_count"
1376345857285496833,"2021-03-29T01:29:58Z","@NFTclout My first foray into digital generative art, will definitely not be the last.  https://t.co/8jziAedNva  #nft #nftart #nfts #generativeart #illustration #nftcollector #eth #nftart #NFTCommunity #NFTartist #Cryptoart",5,1
1376345851275132928,"2021-03-29T01:29:56Z","💎 Top 10 coins EOY 2022 💎🟩 1. #Bitcoin  ( $BTC ) 2. #Ethereum ( $ETH ) 3. #Uniswap ( $UNI ) 4. #Metamask ( TBD ) 5. #MakerDAO ( $MKR ) 6. #Optimism ( TBD) 7. #AAVE ( $AAVE ) 8. #Chainlink ( $LINK ) 9. #Polygon ( $MATIC ) 10. #BaseProtocol ( $BASE )  👉 Give me yours! 🚀🚀🚀",105,1
1376345850742329344,"2021-03-29T01:29:56Z","I'll send $300 in #ETH or #BTC to one person who retweets this and follows @bud_crypto. Must complete these tasks:  1 - Like/RT his pinned tweet  2 - Must RETWEET &amp; LIKE 4 of his tweets  Ends in 72 hours!",1206,1
1376345835550740481,"2021-03-29T01:29:53Z","Most NFT's issued on ETH and FLOW stores contents on centralized server ( or AWS) not on the Blockchain. So far I found only WAX @WAX_io stores #NFT content on IPFS which is decentralized storage. If NFT issuer goes out of business you will still be able to acces on WAX. https://t.co/c1H2iY5ILC",2,0
1376345832631496704,"2021-03-29T01:29:52Z","@coinbase @CoinbasePro @CoinbaseSupport  -When will you list something of value and real world use cases (#VeChain) instead of a bunch of other #Eth #ERC20 #tokens without much value? https://t.co/cA5gfabXGJ",4,0
1376345821826912260,"2021-03-29T01:29:49Z","💎 Top 10 coins EOY 2022 💎🟩 1. #Bitcoin  ( $BTC ) 2. #Ethereum ( $ETH ) 3. #Uniswap ( $UNI ) 4. #Metamask ( TBD ) 5. #MakerDAO ( $MKR ) 6. #Optimism ( TBD) 7. #AAVE ( $AAVE ) 8. #Chainlink ( $LINK ) 9. #Polygon ( $MATIC ) 10. #BaseProtocol ( $BASE )  👉 Give me yours! 🚀🚀🚀",105,0
1376345810426855424,"2021-03-29T01:29:47Z","Slow 85 | Normal 85 | Fast 94 | Instant 105 👈 current Ethereum gas prices in gwei. DM me a price and I will DM you as soon as gas drops below that price 👍 #Ethereum #GasPrice #ETHGasPrice #ETH",0,0
1376345803330060288,"2021-03-29T01:29:45Z","There’s a 300 INV reward for supplying ETH (including as collateral to borrow DOLA) and an additional 300 INV for borrowing ETH  Which means lending and borrowing ETH have different APYs depending on total borrowed and supplied  Both APYs will be added to the interface soon",83,0
1376345803329916929,"2021-03-29T01:29:45Z","Top 10 coins for April + Targets: $ADA 🎯$3 $CAKE 🎯$50 $BAKE 🎯$5 $CRV 🎯$20 $SXP 🎯$20 #1INCH 🎯$20 $ALPHA 🎯$20 $DODO 🎯$20 $LINA 🎯$1 $REEF 🎯$1  #AltSeason #DeFi $eth #bnb #bsc $xrp $trx $dot $eos $neo $xtz $atom $avax $aave $uni $algo $link $super $ankr $one $ltc $yfi $egld https://t.co/XyQ4pBOWL3",815,0
1376345796040302597,"2021-03-29T01:29:43Z","@tokenames The magic lantern film projector concept logo available on @rariblecom https://t.co/DUL7dTxpwe #NFT #nftcollector #nftart #NFTs #digitalasset #etherium",2,0
1376345793204916227,"2021-03-29T01:29:43Z","RT @MoneyNostra: You receive $10,000 worth of $BASE. 👉 Swap for $ETH or HODL⁉️ https://t.co/wzccrOT7q7",88,0
1376345788163350531,"2021-03-29T01:29:41Z","@catchNFTdrops My first foray into digital generative art, will definitely not be the last.  https://t.co/8jziAedNva  #nft #nftart #nfts #generativeart #illustration #nftcollector #eth #nftart #NFTCommunity #NFTartist #Cryptoart",1,1
1376345772225036289,"2021-03-29T01:29:38Z","The DEX @FinanceChainge is set to launch on the @FUSIONProtocol network with over a million users on the protocols waitlist. This decentralized exchange aims to innovate on traditional models through leveraging the Fusion Network.  #BSC #BTC #ETH #BNB  https://t.co/xx55YiGfm3",21660,1
1376345769901449216,"2021-03-29T01:29:37Z","Join the @Holdefi community in HLD public sale!  #HLD #Holdefi #ETH #BSC #IDO #ICO 👇👇 https://t.co/wEWsExNRKd",0,0
1376345755581964288,"2021-03-29T01:29:34Z","RT @MoneyNostra: 🟩 Price of $ETH end of 2021: 👉 Answer: HODL",64,0
1376345754839617539,"2021-03-29T01:29:33Z","@NFTearth My first foray into digital generative art, will definitely not be the last.  https://t.co/8jziAedNva  #nft #nftart #nfts #generativeart #illustration #nftcollector #eth #nftart #NFTCommunity #NFTartist #Cryptoart",0,0
1376345754227343361,"2021-03-29T01:29:33Z","30 day EVIX: 83.4397 ETH/USD vwap: $1,682.46 04/16 expiry volume: $1,227,913.66 04/30 expiry volume: $5,612,212.22 Current time: 01:29:08",0,0
1376345750779670528,"2021-03-29T01:29:32Z","New #NFT drop! Hidden message about #Bitcoin  #BTC #cryptocurrencies #NFTs #NFTCommunity #nftcollectors #nftart #rarible #opensea #ETH  https://t.co/Pk7qCP29Q2",5,0
1376345725416603655,"2021-03-29T01:29:26Z","💎 Top 10 coins EOY 2022 💎🟩 1. #Bitcoin  ( $BTC ) 2. #Ethereum ( $ETH ) 3. #Uniswap ( $UNI ) 4. #Metamask ( TBD ) 5. #MakerDAO ( $MKR ) 6. #Optimism ( TBD) 7. #AAVE ( $AAVE ) 8. #Chainlink ( $LINK ) 9. #Polygon ( $MATIC ) 10. #BaseProtocol ( $BASE )  👉 Give me yours! 🚀🚀🚀",105,0
1376345723260727297,"2021-03-29T01:29:26Z","RT @cz_binance: #ETH market cap is only 5x of #BNB now.  I need to shill more #BSC projects... https://t.co/i5Ln0oTBNO",6121,0
1376345721360642048,"2021-03-29T01:29:25Z","@maria_solve My first foray into digital generative art, will definitely not be the last.  https://t.co/8jziAedNva  #nft #nftart #nfts #generativeart #illustration #nftcollector #eth #nftart #NFTCommunity #NFTartist #Cryptoart",1,0
1376345717975945217,"2021-03-29T01:29:25Z","🔄 Prices update in $USD (1 hour):  $BTC - 55808.9 $  (+0.2 %) $ETH - 1690.0 $   (+0.3 %) $DOT - 32.24 $    (+0.16 %) $ADA - 1.19 $     (+0.02 %)  #BTC #ETH #DOT #ADA #Crypto #Bitcoin https://t.co/3YkPtUvj57",1,1
1376345709289480192,"2021-03-29T01:29:23Z","$IGG do what you want with this but I feel it means only one thing.... $KLV $ETH $MATIC $ONE $VIPER $QUICK $DMT $ZUT $ZUZ $FET $AXS $SAND $DG $MANA https://t.co/7d7YbtW7La",16,1
1376345708698218499,"2021-03-29T01:29:22Z","Since this the launch of @dypfinance back in Dec 2020 looks like Liquidity Providers have earned $11.4 Million dollars in $ETH just from Staking!  Also the project is paying out is $ETH as well and so far 6.2K $ETH have been rewarded.   #DeFi #Crypto #Cryptocurrency #BitcoinTalk https://t.co/zis10XPcL7",1802,1
1376345707771265031,"2021-03-29T01:29:22Z","@moe_personal @ArtBugboy @PlSSandSHlT Yes most NFT's are ERC20 based. ERC20 is a set of standards that allow developers to create their own tokens built on the Ethereum network. They're still independent from ETH and have nothing to do with mining. Everyone who says that they're ruining the environment is stupid.",0,0
1376345693124751361,"2021-03-29T01:29:19Z","#BTC Price: $55134 #ETH Price: $1682 #LTC Price: $183  Next update in 10 minutes Last updated: 21:29:18.07",0,0
1376345687730704384,"2021-03-29T01:29:17Z","New technomancer in the space @chaweonkoo.  I bought the one that spoke to me and left her first genesis piece up for someone else to collect.  Get it while it's hot. 💀🌹🥀🌹💀  #NFTcollector #NFTCommunity #NFTartists #nft #opensea #ethereum #eth #newart https://t.co/fzeD9VcK0y",6,0
1376345666381746178,"2021-03-29T01:29:12Z","@NFTFix My first foray into digital generative art, will definitely not be the last.  https://t.co/8jziAedNva  #nft #nftart #nfts #generativeart #illustration #nftcollector #eth #nftart #NFTCommunity #NFTartist #Cryptoart",2,1
1376345633259364353,"2021-03-29T01:29:04Z","@knikxknok My first foray into digital generative art, will definitely not be the last.  https://t.co/8jziAedNva  #nft #nftart #nfts #generativeart #illustration #nftcollector #eth #nftart #NFTCommunity #NFTartist #Cryptoart",1,0
1376345627248984066,"2021-03-29T01:29:03Z","Is amazing to see how this project has been out since Dec 2020 and so far Liquidity Providers have earned about 6533.78 $ETH and that is the total value of $10.6 Million dollars. 💪  Also the APY doing 301.35% which is amazing.  #DeFi #UniSwap #BSC #SmartContract #Ethereum https://t.co/9a7rgyoMpE",2385,0
1376345616964521997,"2021-03-29T01:29:01Z","@BillyLuedtke @Bitcoin Are you another eth scammer? Please stop hahahaha",0,0
1376345612040478720,"2021-03-29T01:28:59Z","The DEX @FinanceChainge is set to launch on the @FUSIONProtocol network with over a million users on the protocols waitlist. This decentralized exchange aims to innovate on traditional models through leveraging the Fusion Network.  #BSC #BTC #ETH #BNB  https://t.co/xx55YiGfm3",21660,0
1376345606508195843,"2021-03-29T01:28:58Z","I'll send $300 in #ETH or #BTC to one person who retweets this and follows @bud_crypto. Must complete these tasks:  1 - Like/RT his pinned tweet  2 - Must RETWEET &amp; LIKE 4 of his tweets  Ends in 72 hours!",1206,0
1376345604956246016,"2021-03-29T01:28:58Z","🔶 BlockFi Offers Interest-Earning 🔶 🔸Get up to $250 in #Bitcoin on your first deposit!🔸  🚦 Join: https://t.co/EMFDGJh10K  🌐 Open Link 🌐 Register website - Must lite KYC  🌐 Deposit one crypto 25$ 🌐 Done you get 250$  $BTC $ETH $BNB @CTBott Adrop Avg 100 SPKL 50",42,0
1376345604884955145,"2021-03-29T01:28:58Z","💎 Top 10 coins EOY 2022 💎🟩 1. #Bitcoin  ( $BTC ) 2. #Ethereum ( $ETH ) 3. #Uniswap ( $UNI ) 4. #Metamask ( TBD ) 5. #MakerDAO ( $MKR ) 6. #Optimism ( TBD) 7. #AAVE ( $AAVE ) 8. #Chainlink ( $LINK ) 9. #Polygon ( $MATIC ) 10. #BaseProtocol ( $BASE )  👉 Give me yours! 🚀🚀🚀",105,0
1376345600736722946,"2021-03-29T01:28:57Z","@unborncreate My first foray into digital generative art, will definitely not be the last.  https://t.co/8jziAedNva  #nft #nftart #nfts #generativeart #illustration #nftcollector #eth #nftart #NFTCommunity #NFTartist #Cryptoart",0,0
1376345581103243268,"2021-03-29T01:28:52Z","🎁Competition time!🎁  WIN this 1 of 3 NFT  🍄Entrance of the Eth🍄  ....just....  LIKE✔ SHARE this post ✔ FOLLOW the page ✔  ....and we'll pick a winner in 48hrs 😊💛🐼🙏🎉   Good luck everyone x https://t.co/T38uHnTGmh #NFT #NFTart #Rarible #Kiefmonster #NFTcompetition https://t.co/XN9WLaRZv2",127,0
1376345574836948993,"2021-03-29T01:28:50Z","@boyane_cliff @GalanakisPeter @CaeKai @option_room @Adouble212 I have a question. I'm new to this, but I bought Room and have it in a ROOM/ETH liquidity pool on Uniswap. Can I go to Optionroom and deposit my Room to farm there or so I need to undo that pool and then move it over to Optionroom to farm? Thanks.",0,0
1376345566452576256,"2021-03-29T01:28:48Z","Ethereum is the property rights economy of the internet.  ETH is the reserve asset of this economy.  ETH is ultra sound money.  Nothing else is close.  Timestamp this. Set a reminder. Whatever.   Just don’t act surprised when it becomes obvious to everyone.",610,0
1376345558432948226,"2021-03-29T01:28:47Z","@NFT_Elements The magic lantern film projector concept logo available on @rariblecom https://t.co/DUL7dTxpwe #NFT #nftcollector #nftart #NFTs #digitalasset #etherium",1,0
1376345553697705989,"2021-03-29T01:28:45Z","A Helping Hand - Freshy Minted Genesis Artwork 🌐  Sometimes, helpers need help too.  🙏  Exclusively &amp; First time on @Rariblecom  Only for 0.2 ETH - [ 7 of 7 ]  🚀  Link - ↓↓↓ https://t.co/BYbx0pBHS8  Support is much appreciated ❤️  #NFT #NFTs #NFTartist #NFTart #cryptoart https://t.co/EfhCsjNonG",450,0
1376345550765842434,"2021-03-29T01:28:45Z","Friendly reminder:  Right now, at 100 gwei, $1685 ETH, it costs ~$10 to deposit your ETH onto Loopring L2, and live gas-free.  That deposit *IS* onboarding.  If you've never onboarded to Loopring yet: $10  If you have, and are just depositing more: $10  https://t.co/qRy7TPhGHD 👈",220,0
1376345542402408451,"2021-03-29T01:28:43Z","The absolute worst thing eth could of done was start posting/let other projects say that fixes are coming in a panic to counter BNB and ADAs gains... are then walk it back  They screwed with investors and now they are paying for it.   Where’s those 100x improvements vit?",565,0
1376345536438018055,"2021-03-29T01:28:41Z","@rariblecom I went through the process to mint on your platform. Nothing was actually generated and my ETH is gone. What can I do?",0,0
1376345531979460609,"2021-03-29T01:28:40Z","Making moves! Welcome to the new https://t.co/gEftEhwpui (bookmark it). More updates on the way in the coming weeks as we move to a totally new user-interface. MORE TO COME! ⛓️🌉⛓️🌉⛓️🌉 $ZERO $ETH $AVAX $BSC $DOT #BSC #TRIDEX @OfficialZeroDEX   Read More: https://t.co/xnCTSKNAAT https://t.co/68NLeGcSOk",212,0
1376345518838792195,"2021-03-29T01:28:37Z","RT @BeheadedPunks: Beheaded Punk #028 #NFT sold to @taurianview for 0.04 $eth  https://t.co/CMqrOzAYQL",2,0
1376345518104846341,"2021-03-29T01:28:37Z","🚨 NFT GIVEAWAY 🖼   How to get your  FREE jasper york NFT:   1) Drop your ETH address below👇  2) ❤️ This 3) Retweet ♻️  ✨ First come first serve ✨  Enjoy your jasper ☺️ 💕  #NFTCommunity #nftcollector #NFTartist #NFT #NFTart #NFTgiveaway #crypto #Ethereum #NFThypesquad https://t.co/MayseiqpV9",140,0
1376345511498637317,"2021-03-29T01:28:35Z","#DeFi #BKC #eth2 #BucksCake  ANNOUNCEMENT!  Dear BucksCake's community members!  The exact date of BKC listing on Uniswap set for 04/20/2021!  2 days before it, the exact opening time of the trading pair BKC/ETH on Uniswap...  More at https://t.co/RQPMhjazG2 https://t.co/VjtBbXBA1t",2856,0
1376345506310422529,"2021-03-29T01:28:34Z","ETH annoucements to take wind ouit ADA and BNB caused TONS of people to ad to their eth holding/trade into.  Now people are taking their OG holdings out as well. Hurting new and old holders.  Vitalik is dead silent. No comment. Weak leader. I sold 95% of my eth after this stunt.",445,0
1376345502824853512,"2021-03-29T01:28:33Z","@david_shane @realMeetKevin @kevinolearytv @CathieDWood Now everyone is trying to find the next Eth and Btc...",1,0
1376345501008732160,"2021-03-29T01:28:33Z","Live from New York..                   It’s NFT BOY!!  0.2 ETH @opensea   HARV 外人 @punk_cipher  #NFT #Cryptoart #NFTBOY https://t.co/WhauQf4qTT https://t.co/67etcy3cHc",11,3
1376345496005062657,"2021-03-29T01:28:32Z","#OKEx Earn up to $500 1. Buy crypto 2. Deposit 3. Complete trading milestones  🐰 Join OKEx with link  👉 https://t.co/BlAozkfRa6 to Earn #BTC from easy tasks!  #CTBot Adrop Ram 250 WIN 100 #JoinOKEx #OKEx #OKB #Bitcoin #ETH #DeFi https://t.co/8xgk3Lh3lc",56,3
1376345495967178756,"2021-03-29T01:28:32Z","@AlemayehuGK @Dinkisisa1 That brother was my English teacher in Eth",1,0
1376345494847389698,"2021-03-29T01:28:31Z","Join the @Holdefi community in HLD public sale!  #HLD #Holdefi #ETH #BSC #IDO #ICO 👇👇 https://t.co/qYE9IcnPif",0,0
1376345492603408386,"2021-03-29T01:28:31Z","Borrowed DOLA on your ETH and want to park it?  Deposit on Curve Swaps &amp; earn swap fees  In a few days, you’ll be able to earn:  💸 Interest on your ETH collateral 💸 INV reward for supplying ETH 💸 Curve swap fees 💸 More INV reward for staking DOLA-3CRV  https://t.co/kor5B26hoY",71,0
1376345488534953987,"2021-03-29T01:28:30Z","🔄 Prices update in $EUR (1 hour):  $BTC - 46833.5  € (-1.13 %) $ETH - 1428.69  € (-0.35 %) $DOT - 27.06  € (-1.05 %) $ADA - 1.0  €   (-0.67 %)  #BTC #ETH #DOT #ADA #Crypto #Bitcoin",0,0
1376345459136950276,"2021-03-29T01:28:23Z","yup. $ONE is where it's at.   along with $ALGO. my biggest 2 bags  #ONE #ALGO #HarmonyOne #Harmony #algofam #algousdt #AlgoTrade #crypto #ETH #Ethereum #cryptocurrencies #Altcoins #cryptocurrency #ElonMusk #BTC #bitcoin #StocksToWatch #DeFi #finance #tesla #invest #investments https://t.co/FYcyCEHNuZ",1,0
1376345456976961537,"2021-03-29T01:28:22Z","RT @chainlinkace: 🏆Drop your $ETH address here🏆",937,0
1376345456217837568,"2021-03-29T01:28:22Z","Just listed a unique collection that I love as #NFT 💎available @withFND   Current bid : 0.50 ETH   Link : https://t.co/WyUXYRBmHf  Feel free to retweet 🍺  #nftart #NFTartist #NFTcollectibles #NFTs #cryptoart #nftcollectors #Ethereum #bitcicoin #blockchain https://t.co/U3g3Ue0mNJ",323,0
1376345455420919809,"2021-03-29T01:28:22Z","🔴 Swapped $402K in #SNX for #ETH on #1inch 🐉  🦈 ($3.78M) #0x68E0dd https://t.co/L5nS2OH2hK",0,0
1376345450257788931,"2021-03-29T01:28:21Z","💡 Sold 90%. Hurry up...  BUY EXPER: https://t.co/zujmCvzFLZ  How to buy EXPER TOKEN? 1. Register and Login to https://t.co/uAOFvgdpPx 2. ICO Buy 3. Select ETH or BNB  #binance  #bitcoin  #bnb  #ethereum https://t.co/W5pJ35UTIf",140,0
1376345449431494661,"2021-03-29T01:28:21Z","🔶 BlockFi Offers Interest-Earning 🔶 🔸Get up to $250 in #Bitcoin on your first deposit!🔸  🚦 Join: https://t.co/EMFDGJh10K  🌐 Open Link 🌐 Register website - Must lite KYC  🌐 Deposit one crypto 25$ 🌐 Done you get 250$  $BTC $ETH $BNB @CTBott Adrop Avg 100 SPKL 50",42,0
1376345440396972038,"2021-03-29T01:28:18Z","99.81% Tokens burned at start🔥  https://t.co/2j3J0f7vVe  PANCAKESWAP trade open✅  Marketing start 30.03✅  Website: coming soon. NFT ART / GAMBLING  $ada $gems #bitcoin  #GamblingTwitter   $crypto $eth #CryptoNews #BinanceSmartChain    #BNB  #NFT $btc",0,0
1376345436554993664,"2021-03-29T01:28:17Z","🔴 Swapped $402K in #SNX for #ETH on #1inch 🐉  🦈 ($3.37M) #0x68E0dd https://t.co/L5nS2OH2hK",0,0
1376345434524770307,"2021-03-29T01:28:17Z","Welcome to massive Q DAO airdrop!   1. go now to telegram https://t.co/COyXgODY1z   2. Stay in telegram chat and wait announcement.  3. HOLD this gem until 10x   (soon - QDAO launch cross-chain for BSC, Polkadot and ETH)",4255,0
1376345405898756098,"2021-03-29T01:28:10Z","Beheaded Punk #028 #NFT sold to @taurianview for 0.04 $eth  https://t.co/CMqrOzAYQL",2,1
1376345386630062083,"2021-03-29T01:28:06Z","If you wish you bought more Hex, imagine you didn't buy any like so many Bitcoin maxis 🤣   Hex just keeps making new all time highs and stakers even earn more Hex every day.   #Hex #ETH #BTC #cryptocurrency #memes https://t.co/z1ndPSQoX3",80,1
1376345377750781952,"2021-03-29T01:28:03Z","I keep reading ETH is going to 10k but when?!? WHEN?! 🥲",0,0
1376345352626913281,"2021-03-29T01:27:57Z","@CryptoRanger175 @SaintPepeChad I don’t like price predictions for tokens outside of BTC and ETH, however you can take a look at competitor NFT valuations &amp; value propositions and get an idea on why I’m so bullish!",2,0
1376345338269818881,"2021-03-29T01:27:54Z","$XFT 👀  Good write up here on the world's first Private #Derivatives Platform  TLDR👇 ⏰#Mainnet Launch April 🛠️ Working Product live on Testnet ⛓️Cross chain ($ETH/$DOT/$KSM) 👤 Private 📊Synthetic Asset Trading 💰Token Price Doesn't Impact Platform Users 💵$15M Market Cap https://t.co/2VTPbPpTbK",40,0
1376345331865124865,"2021-03-29T01:27:53Z","KONGSTRONG claims victory with a 1.25 eth bid!!!",13,0
1376345312336433159,"2021-03-29T01:27:48Z","If I told you, then it is true and in fact is very true. The land that is promised has been hidden before your very eyes lift the veil. #Truth #wisdom #april4th #unity #eth #reset",0,0
1376345301141745665,"2021-03-29T01:27:45Z","@HeinousNfts The magic lantern film projector concept logo available on @rariblecom https://t.co/DUL7dTxpwe #NFT #nftcollector #nftart #NFTs #digitalasset #etherium",2,0
1376345277213327362,"2021-03-29T01:27:40Z","$ETH  If the daily candle closes above 2k, it will easily cross 2500$ mark. Keep an eye on it.  Checkout the link in bio for crypto signals  $CREAM $DOT $IDEX #cryptocurrency #bitcoin $UMA 15536 https://t.co/qIihSQzfSY",0,0
1376345267457323009,"2021-03-29T01:27:37Z","@sparkpointio Check $POODL  $POODL comunity grow in 2 weeks to 6200 telegram members @POODLETOKEN And over 7200 holders. What is comming next? 🚀 🐩🌕   $HOGE $PIKA $TOSA $DOGE $BTC $ADA $ETH #safemoon #altcoin #elonmusk #crypto #bitcoin https://t.co/m7hWxf8lE8",7,0
1376345257441439746,"2021-03-29T01:27:35Z","@zmallen8 you’re our first place winner! Dm us! Congrats on ONE FULL #ETH ! https://t.co/1Xw4h40kPo",3,2
1376345224792788995,"2021-03-29T01:27:27Z","Deathpunks Smokey https://t.co/Z8c1ZCU5lB @_DEATH_PUNKS  #digitalart #cryptoart #opensea #punk #collections #blockchain #nft #nfts #punkheads #deathpunks #animation #collectorsitem #visual #ETH #onlineart #crypto #ブロックチーンアート #暗号芸術 https://t.co/Ua1UdCiXX1",15,2
1376345223081627652,"2021-03-29T01:27:27Z","Giving 10,000 $VRA to 1 person if we hit .05 by end of Apr ($500USD)  To enter: 1. Just like and retweet that’s it. 2. I recommend you follow @CryptoWizardd  *sorry for post I took away before had to edit, but 💯 will pay  $VRA $ETH $RSR $OCEAN $SXP $BTC $TEL $ALTS #Giveaway",131,2
1376345220124672004,"2021-03-29T01:27:26Z","This drops later today. Comes with an AR Loop Print &amp; unlocks access to my track VIBRANCY 😎  11 editions .11 $ETH each (if you'd like to reserve one dm me).   Thank you 👽 https://t.co/j1Kqfd6KPL",24,2
1376345220095348737,"2021-03-29T01:27:26Z","3D Punks Stats: 500.48 ETH ($861K) - spent 63 total collectors  Follow my Instagram  https://t.co/NmreJgv7dE  #3dpunks #cryptopunks #cryptoart #nft #nfts #nftart #nftcollector #nftcommunity #punk https://t.co/3UxTCSZ4OO",113,2
1376345205557886977,"2021-03-29T01:27:22Z","Its indeed comical because even Vitalik says the final version of ETH will look like Cosmos ATOM https://t.co/CpPROr7YCc",0,0
1376345193834815496,"2021-03-29T01:27:20Z","@ThetaDiamond Eth sucks balls.",0,0
1376345191620173832,"2021-03-29T01:27:19Z","I have exacly 1 ETH left, who does have #NFT or #NFTs art that I can buy. Needs to look appealing at least.  RT &amp; Follow to see your art! #nftcollector #nftartist #nftart #NFTCommunity",300,0
1376345187836948484,"2021-03-29T01:27:18Z","To celebrate @3DPunks_ #100/100 Auction Current bid at 16 ETH ($27K USD)  I'm giving away 3D Punk #049  Which last sold for 6.97 ETH ($12K USD)  How: - Follow @evankeast + @3DPunks_  - Like + Retweet - Tag a friend - Join the discord: https://t.co/5paneepNDb - Say hi in discord https://t.co/SOy3l78yP1",1043,0
1376345167880458241,"2021-03-29T01:27:13Z","RT @chainlinkace: 🏆Drop your $ETH address here🏆",937,0
1376345142005653504,"2021-03-29T01:27:07Z","One man's journey to settle a lost bet-- that ETH TVL would be 10x LN TVL-- by paying via LN  the pain is exquisite  the irony, though https://t.co/nI9AMSKMIp",51,0
1376345101434150915,"2021-03-29T01:26:58Z","watching the eth/btc chart is like watching paint dry... like fucking do something already. nuke if you're gonna nuke, just hurry up dude 🥱",0,0
1376345099223801856,"2021-03-29T01:26:57Z","Since this the launch of @dypfinance back in Dec 2020 looks like Liquidity Providers have earned $11.4 Million dollars in $ETH just from Staking!  Also the project is paying out is $ETH as well and so far 6.2K $ETH have been rewarded.   #DeFi #Crypto #Cryptocurrency #BitcoinTalk https://t.co/zis10XPcL7",1802,0
1376345073047199750,"2021-03-29T01:26:51Z","RT @MoneyNostra: You receive $10,000 worth of $BASE. 👉 Swap for $ETH or HODL⁉️ https://t.co/wzccrOT7q7",88,0
1376345072078266374,"2021-03-29T01:26:51Z","🔥 WoW!!! $DYP getting listed on @kucoincom !  DYP/USDT &amp; DYP/ETH trading will start tomorrow, March 25th at 10AM UTC! Good job @dypfinance team!  #DeFi #uniswap #Ethereum https://t.co/Rw9qa5l5tA",2226,0
1376345055363952641,"2021-03-29T01:26:47Z","Is amazing to see how this project has been out since Dec 2020 and so far Liquidity Providers have earned about 6533.78 $ETH and that is the total value of $10.6 Million dollars. 💪  Also the APY doing 301.35% which is amazing.  #DeFi #UniSwap #BSC #SmartContract #Ethereum https://t.co/9a7rgyoMpE",2385,0
1376345054491639809,"2021-03-29T01:26:46Z","RT @MoneyNostra: 🟩 Price of $ETH end of 2021: 👉 Answer: HODL",64,0
1376345035654971397,"2021-03-29T01:26:42Z","💎 Top 10 coins EOY 2022 💎🟩 1. #Bitcoin  ( $BTC ) 2. #Ethereum ( $ETH ) 3. #Uniswap ( $UNI ) 4. #Metamask ( TBD ) 5. #MakerDAO ( $MKR ) 6. #Optimism ( TBD) 7. #AAVE ( $AAVE ) 8. #Chainlink ( $LINK ) 9. #Polygon ( $MATIC ) 10. #BaseProtocol ( $BASE )  👉 Give me yours! 🚀🚀🚀",105,0
1376345022421868544,"2021-03-29T01:26:39Z","⚡🔥 EASY $10(Litecoin) Giveaway!  To win: ✔ Tag a friend ✔ Retweet ✔ Follow us Thats it! Good luck! 💖  Rolling in 36 hours!  #goodvibes #goodluck #giveaway #bitcoin #Giveaways  #cryptocurrency #eth #btc #BSC #TRON",332,0
1376345009260175363,"2021-03-29T01:26:36Z","Is amazing to see how this project has been out since Dec 2020 and so far Liquidity Providers have earned about 6533.78 $ETH and that is the total value of $10.6 Million dollars. 💪  Also the APY doing 301.35% which is amazing.  #DeFi #UniSwap #BSC #SmartContract #Ethereum https://t.co/9a7rgyoMpE",2385,0
1376345008610107392,"2021-03-29T01:26:35Z","RT @joshpor21324993: $ONE $BTC $ETH Harmony One Headed for a 40 billion dollar market cap just like $ADA",71,0
1376345006324207619,"2021-03-29T01:26:35Z","@Campos2011 @PartyStockholm @crowage1 @jomilohranch @justpaulinelol @elonmusk Chainlink eth and litecoin boi",0,0
1376344998937956352,"2021-03-29T01:26:33Z","⭐️2K FOLLOWER GIVEAWAY⭐️  👉Enter to WIN a CryptoKaren worth 0.1 ETH!  TO ENTER:  1.Follow Us (+1 pt) 2.Retweet (+1 pt) 3.Tag 3 Friends (+3 pts)  Contest enters TMRW 3/29 at 10am EST! 💖💋💁‍♀️  #nftart #nftcollector #nftcommunity #nfts #pixelart #cryptoart #digitalassets #eth https://t.co/Hx83ppBfn2",165,0
1376344996744290306,"2021-03-29T01:26:33Z","The DEX @FinanceChainge is set to launch on the @FUSIONProtocol network with over a million users on the protocols waitlist. This decentralized exchange aims to innovate on traditional models through leveraging the Fusion Network.  #BSC #BTC #ETH #BNB  https://t.co/xx55YiGfm3",21659,0
1376344996027146240,"2021-03-29T01:26:32Z","Escape Not Found Digital Video Glitch Art March 28, 2021 1 of 1 5 ETH #CryptoArt #NFTArt #NFT #drop #Limited #Edition #opensea #GlitchArt #DailyArt  #collectable #modernart #blackpill #Philosophy #corruption #datamosh #ArtistsOnTwitter #gif #everydayart https://t.co/jV4MoansWR",5,0
