"ID","created_at","text","like_count","rt_count"
1376896992442425344,"2021-03-30T13:59:59Z","The #cryptocurrency #marketcap adds $100 billion in a day as $BTC jumped to $58k, while $ETH at $1,800 surging 7%.  Most of the larger-cap #altcoins are in the green. These #BinanceCoin $BNB – 2% #Cardano $ADA – 1%, #Polkadot $DOT – 4% #Ripple $XRP – 4% #Uniswap $UNI – 1.5% https://t.co/IXZWvBg9sn",4,1
1376896982040543234,"2021-03-30T13:59:56Z","The #Bitcoin price went above the $50,000 level for the first time in 10 days.  @PayPal News Helps $BTC Go Above $59K for First Time Since March 20  https://t.co/sTana6V5py  #BTC #DeFi #bitcoinmining #MiningBTC #DEFI $BTC $ETH",4,3
1376896980358680578,"2021-03-30T13:59:56Z","What an amazing week for adoption. Visa is settling USDC on $ETH and PayPal will enable US customers to checkout with #crypto. And its only Tuesday!   Let's Gooo 🎢 https://t.co/v2W5eVvzHu",734,67
1376896964600729608,"2021-03-30T13:59:52Z","@PeterSchiff Has little to do with inflation, that’s what you fail to comprehend. It’s one attribute of these protocols, but this is a movement towards internet 2.0. Doesn’t matter if it’s BTC, ETH, or next gen blockchains...many will fail but some will change the way industry’s are today.",0,0
1376896961035563012,"2021-03-30T13:59:51Z","@Fiskantes @setanimals @solana @AlamedaResearch Other top ETH defis like 1inch, Dodo also in this category of big FDVs but ppl arent pointing at one investor for that surprisingly. Or saying theyre on borrowed time tho.",2,0
1376896958170865669,"2021-03-30T13:59:50Z","@panekkkk @RyanSAdams I am buying Eth. I am not anti Eth. I buy things with moats. It’s obviously better to be the feudal landlord . I just think it’s less egalitarian.",2,0
1376896948742017028,"2021-03-30T13:59:48Z","@WSBCrypto @LBRYcom Trust me they’ll find a way to call Bitcoin a security, ETH is next",10,0
1376896947093602310,"2021-03-30T13:59:48Z","Time for WitLink Token #Airdrop!  ✔️ Start the Airdrop bot: https://t.co/8HDV9cCJse  Complete the tasks to earn  Get 10 WAI ($2.5) + Get 4 WAI ($1) For Each Valid Refer   #ETH #BTC #WAI #LINK #Airdrops",1478,1424
1376896945248157696,"2021-03-30T13:59:47Z","@ZssBecker Eth is still outperformed by number of coins especially #NFT structure ones like @SuperFarmDAO",1,0
1376896941594968069,"2021-03-30T13:59:47Z","It’s only Tuesday and this week we are already having VISA and PayPal betting on the crypto market.  $BTC and $ETH ATHs imminent, how long do you still want to bearish?",340,40
1376896937392234500,"2021-03-30T13:59:46Z","🦄💎Adonx IEO is LIVE  🏃💨Purchase now before it's too late:   🔥Indoex (No KYC Needed): https://t.co/CNpFV7pYzE 🔥Vindax (6/7th April): https://t.co/d6L036j2lx 🔥Dapp (coming): https://t.co/eftx2R7PgZ  💶ETH ~ 0.0003  💥Bonus: 50%  #btc #eth #bnb #Crypto #IEO #cryptocurrencies https://t.co/2PfyTnaLEn",74,36
1376896926176534529,"2021-03-30T13:59:43Z","DeFi Yield Protocol Buying Competition: $25,000 in USDT to be won! ⬇️  Participate now https://t.co/UNSzLT7MqP  Bonus: 10 people that retweet this tweet and follow @dypfinance will win $250 each in #ETH ! https://t.co/7nB9EqrbHb",1876,2586
1376896923777515520,"2021-03-30T13:59:42Z","What an amazing week for adoption. Visa is settling USDC on $ETH and PayPal will enable US customers to checkout with #crypto. And its only Tuesday!   Let's Gooo 🎢 https://t.co/v2W5eVvzHu",734,67
1376896921495867393,"2021-03-30T13:59:42Z","@RyanSAdams Exactly, and proof of stake isn't inherently capitalistic, in US system you can invest in commodities and short them as a hedge.  You can't hedge against eth if you're staking. Eth killer maxis will say another crypto will take eths place, if eth fails crypto fails",0,0
1376896921155948547,"2021-03-30T13:59:42Z","oh, there's minting fee? oh, using ETH? oh, I can't buy ETH with paypal? oh, I can't buy through wyre? whatever! (╯°□°）╯︵ ┻━┻",0,0
1376896910775181316,"2021-03-30T13:59:39Z","#DeFi #BKC #eth2 #BucksCake #Airdrops  During BucksCake Private Pre-Sale  with our Staking Program🎫  you can get up to 💥 422% APY profit 🛥  Current APY% Rates: ❇️  ETH Staking - 9% APY 🚙 BNB Staking - 10%  APY 🛵 🔥 BKC Staking - 422% APY 🚀  More at https://t.co/RQPMhjazG2 https://t.co/jAz6gHuvbE",1406,1208
1376896910183837697,"2021-03-30T13:59:39Z","Time for WitLink Token #Airdrop!  ✔️ Start the Airdrop bot: https://t.co/8HDV9cCJse  Complete the tasks to earn  Get 10 WAI ($2.5) + Get 4 WAI ($1) For Each Valid Refer   #ETH #BTC #WAI #LINK #Airdrops",1478,1424
1376896909550424068,"2021-03-30T13:59:39Z","@PeterSchiff Paypal now allows you to use BTC, ETH and Litecoin for purchases. No word on when they will allow you to use gold for anything but a paperweight.",0,0
1376896907512061955,"2021-03-30T13:59:38Z","Welcome Andrea Balza! PhD candidate at @RWTH supervised by @Fl0rianWagner working on Geometry-based joint geological-geophysical inversion.She will spend time at @ETH_en,@Fraunhofer_IEG and Geophysica. She is a geophysicist experienced in gravity and magnetic methods. Good luck https://t.co/dVYl236Jbg",44,6
1376896900100722690,"2021-03-30T13:59:37Z","👁“Eyellusion”👁  Available on @KnownOrigin_io   On sale now! 🔻 https://t.co/33Jn3QtVnm  🔺Only 0,3 ETH and offers can also be made💎  #NFT #NFTs #NFTCommunity #knownorign",7,1
1376896897445724164,"2021-03-30T13:59:36Z","All in $ALTS still. TD9 1H&amp;12H combo on $BTC.. Still a chance to slow this beast down🤞 All $ALT charts I'm in still look primed so not cutting any yet.. Will be closely watching the daily close for a convincing $BTC break up to re evaluate some positions $ETH $ELF $BZRX $ALGO 🚀",2,0
1376896889287704577,"2021-03-30T13:59:34Z","@WhitlockJason 🐈‍⬛🪙🍀 🔮💰⚡️✨🚀 #thankyou 4 broadcasting UR frequency  #onelovechallenge #dailycypherstream #stjudes #covid #Blockchain #Bitcoin #LTC #ETH #ADA $AMP https://t.co/PgXQjo8fXV",1,1
1376896886875901955,"2021-03-30T13:59:33Z","Technical indicators of top 10 coins $LINK $ETH $BTC $BNB $USDT $ADA $DOT $XRP $LTC $THETA https://t.co/sbsCHOZD7Q",0,0
1376896885907148801,"2021-03-30T13:59:33Z","@bit_cosby @UpfiringHQ I do think that part of these 760M coins are locked into the smartcontract and can be unlocked only by token holders. The team has already talked about it but yes, we definitely need more explanations. $UPR #BSC $ETH",0,0
1376896882140708864,"2021-03-30T13:59:32Z","Sweet! My #hopper just sold #ETH with 2.87% profit on #gdax! Win! #cryptohopper",0,0
1376896879171002372,"2021-03-30T13:59:32Z","SURPRISE PRIZE 🎉  Since we have been growing so fast, I wanted to add a bonus prize to the giveaway to say thank you to you all  BONUS PRIZE: - 1 CYBERPOWER GAMING COMPUTER ($1500 value) or $1k of $ETH  The winner will get to decide  Drawing all 29 giveaway winners at 6pm PST https://t.co/QdkURu6onz",4002,591
1376896875781967874,"2021-03-30T13:59:31Z","The DEX @FinanceChainge is set to launch on the @FUSIONProtocol network with over a million users on the protocols waitlist. This decentralized exchange aims to innovate on traditional models through leveraging the Fusion Network.  #BSC #BTC #ETH #BNB  https://t.co/xx55YiGfm3",21535,13657
1376896869884780549,"2021-03-30T13:59:29Z","Time for WitLink Token #Airdrop!  ✔️ Start the Airdrop bot: https://t.co/8HDV9cCJse  Complete the tasks to earn  Get 10 WAI ($2.5) + Get 4 WAI ($1) For Each Valid Refer   #ETH #BTC #WAI #LINK #Airdrops",1478,1424
1376896868890861569,"2021-03-30T13:59:29Z","Register for #xinfin #xdc event on APRIL 07! Scaling solution for #ethereum #ETH   https://t.co/tzhJO4q3tn",32,13
1376896861915648009,"2021-03-30T13:59:28Z","&gt; Doji with trendline $eth down https://t.co/mIiycNNbMG",1,0
1376896861278195712,"2021-03-30T13:59:27Z","👀 Recently listed @redditavatars on sale. 👀   Take a look and grab yours! 🌌🎀🌌  #NFT #NFTs #NFTdrop #NFTCommuty #nftcollector #NFTcollectibles #nftcollector #digitalart #opensea #ClassicalMusic $ETH $NFT #redditavatars https://t.co/Lv8DScyshU",3,0
1376896849483812873,"2021-03-30T13:59:25Z","💥 April 1st and the rest of the month will be 🔥  #plot $PLOT #CryptoNews #crypto #cryptocurrency #BTC #bitcoin #holo #holocoin #hot $HOT #HOTCOIN #Altcoins #altcoin #altcoinseason2021 #ALTSEASON #ToTheMoon #Ethereum #eth #polygon #holochain #CryptocurrencyNews  @TryPlotX https://t.co/uoxaosbss1",4,2
1376896845989867520,"2021-03-30T13:59:24Z","Jay Clayton, whose SEC declared #BTC and #ETH are not securities and removed all obstacles to trading them, now works for hedge fund that is betting on #BTC and #ETH.  (Coincidentally, he also sued @Ripple, crashed #XRP and forced its delisting.) https://t.co/W7boQD1zYq",2047,862
1376896844094173185,"2021-03-30T13:59:23Z","@IAMLLUCIANA I bought it almost at the top and eth gas fees were killing me but I hope my first real altcoin pick will pay off",0,0
1376896834120019970,"2021-03-30T13:59:21Z","The #LuxCard Collection market cap is now over 385 Ξ (ETH), which is ~$700,000 USD!🏆🎉   What makes @LuxExpression special? 💎Lux-Token Rewards &amp; Burns🔥 ⚡️Virtual Galleries &amp; Events 💎300+ Card-Holders ⚡️1800+ Community 💎6% Royalty Cap ⚡️Web3 Soon!  👉https://t.co/uWrsflNLCB https://t.co/QtLu7uND0Q",105,58
1376896826318671878,"2021-03-30T13:59:19Z","Ripple/XRP-SEC Defeated In Attempt To Stop XRP Holders,Ripple-Acquisition,PayPal Open Crypto Gates  https://t.co/eoeVD3qTmu  #XRP #BTC #ETH #BCH #LTC #xrpthestandard #ripple #ripplenews #DigitalPerspectives #Crypto #CryptonairesDocumentary https://t.co/u4252pEB2X",62,17
1376896824053788676,"2021-03-30T13:59:19Z","✅ #QSP   more https://t.co/uiyyUUQfuN  #Binance #BTC #Bitcoin #HODL #ALTSEASON #Ethereum #ETH #cryptocurrency #cryptocurrencies #CryptoNews #Litecoin  #AVAX #Cardano #Chainlink  #BigPumpSignal #XTZ #iqoption #binaryoptions #Cash #forex https://t.co/Cy1ql2ucOA",1,0
1376896822032003080,"2021-03-30T13:59:18Z","$COPE-USDC Fusion pool is up and running on Raydium.   COPE rewards for staked LPs will begin shortly to give a chance to get into the pools.  USDC trading pairs for BTC, ETH, SOL, SRM, FTT, YFI, SUSHI also up!   @cyrii_MM https://t.co/LROBquugP5",319,72
1376896782169473028,"2021-03-30T13:59:09Z","🔥 $wasp almost 40 million !! and it's going up !! new record after record! fully decentralized !! what more do u need it's fast cheap and super secure .. damn!! all thanks to #Wanchain the true king! 😲👀💎⏬🥳  $atom $iota $comp $agi $btc $eth $link $rsr $bnb $celr $sushi $uni https://t.co/1kkqXS23OQ",34,10
1376896778830766083,"2021-03-30T13:59:08Z","RT @SoftCryptoFlex: $BNB is going to flip $ETH and there's nothing these crying maxis can do about it",1,1
1376896774493908992,"2021-03-30T13:59:07Z","Why should journey of $HOT end up with TOP 10 of the market?  No mining No fee Instant transaction  #Holochain is not #blockchain. It has superior tech compared to $BTC $ETH $DOT.  Think outside the blocks! https://t.co/JLcOEb3xxX",598,229
1376896767359344647,"2021-03-30T13:59:05Z","What an amazing week for adoption. Visa is settling USDC on $ETH and PayPal will enable US customers to checkout with #crypto. And its only Tuesday!   Let's Gooo 🎢 https://t.co/v2W5eVvzHu",734,67
1376896764918259712,"2021-03-30T13:59:04Z","The first set of Ahegao NFTs sold out in a week, so I've been working on some more which are now live at https://t.co/MAOPR2F1DH  #pixel_dailies #nft #NFTs #nftart #nftartist #crypto #blockchain #eth #ethereum #digitalart #art #value #nftcollector #hentai #ahegao https://t.co/YWPHtqTMQv",78,704
1376896761168494597,"2021-03-30T13:59:04Z","Time for WitLink Token #Airdrop!  ✔️ Start the Airdrop bot: https://t.co/8HDV9cCJse  Complete the tasks to earn  Get 10 WAI ($2.5) + Get 4 WAI ($1) For Each Valid Refer   #ETH #BTC #WAI #LINK #Airdrops",1478,1424
1376896755514679301,"2021-03-30T13:59:02Z","#DeGate unique initial Social Media token offering:📣  To honor contributors to Crypto Assets on social media, DeGate offers an early opportunity to buy DG tokens at a preferential rate. 10 m DG tokens at $0.005  Start ➡️ March 29  https://t.co/5gPWIBwZea  #ETH #BTC #DeFi https://t.co/2qpuVZGJKm",1751,1359
1376896751819427844,"2021-03-30T13:59:01Z","Latest mint! Self-Portrait from the https://t.co/xcqpCCqvkc series-- This t-shirt actually exists.  5 #NFTs available, asking 2Ξ  open to bids! 😉💕  View on Rarible: https://t.co/slDhqEfFeZ  #NFTCommunity #nftartist #ETH #Ethereum #StarWars  @coinkit_ mon 10 100 btc #AED https://t.co/UOZnla16NZ",57,40
1376896745192386568,"2021-03-30T13:59:00Z","The #cryptocurrency #marketcap adds $100 billion in a day as $BTC jumped to $58k, while $ETH at $1,800 surging 7%.  Most of the larger-cap #altcoins are in the green. These #BinanceCoin $BNB – 2% #Cardano $ADA – 1%, #Polkadot $DOT – 4% #Ripple $XRP – 4% #Uniswap $UNI – 1.5% https://t.co/IXZWvBg9sn",4,1
1376896732924100615,"2021-03-30T13:58:57Z","@iamDCinvestor We are the #ETH   Resistance is Futile =^.^=  #CODE  https://t.co/GDUJ38CSLn",0,0
1376896729325387776,"2021-03-30T13:58:56Z","RT @DefiGemHunter: I'm buying $Superb dip!!!  @superbid_io  https://t.co/Lfiz4QSMNE $ETH $BTC $SHFT #Superbid",13,7
1376896720357916672,"2021-03-30T13:58:54Z","The #LuxCard Collection market cap is now over 385 Ξ (ETH), which is ~$700,000 USD!🏆🎉   What makes @LuxExpression special? 💎Lux-Token Rewards &amp; Burns🔥 ⚡️Virtual Galleries &amp; Events 💎300+ Card-Holders ⚡️1800+ Community 💎6% Royalty Cap ⚡️Web3 Soon!  👉https://t.co/uWrsflNLCB https://t.co/QtLu7uND0Q",105,58
1376896718889840651,"2021-03-30T13:58:53Z","RT @ItsCryptoTalk: What’s Your Crypto Of Choice Currently?   Comment If Your Choice Is Not Here.   #BTC #DOGE #SAFEMOON #ETH",89,34
1376896718034325504,"2021-03-30T13:58:53Z","The first set of Ahegao NFTs sold out in a week, so I've been working on some more which are now live at https://t.co/MAOPR2F1DH  #pixel_dailies #nft #NFTs #nftart #nftartist #crypto #blockchain #eth #ethereum #digitalart #art #value #nftcollector #hentai #ahegao https://t.co/YWPHtqTMQv",78,704
1376896715509403658,"2021-03-30T13:58:53Z","#PayPal’s Checkout will allow #BTC, #ETH, #BCH, and #LTC to be seamlessly converted into U.S. #dollars or other fiat currencies when making purchases.   This is a huge step towards crypto adoption and we're excited to see how this will impact the #crypto industry. https://t.co/vS8NhmY5gk",3,1
1376896692566454274,"2021-03-30T13:58:47Z","The DEX @FinanceChainge is set to launch on the @FUSIONProtocol network with over a million users on the protocols waitlist. This decentralized exchange aims to innovate on traditional models through leveraging the Fusion Network.  #BSC #BTC #ETH #BNB  https://t.co/xx55YiGfm3",21535,13657
1376896691262124037,"2021-03-30T13:58:47Z","CRYPTO DROP UPDATE! Crypto News &amp; Price Charts: Cardano ADA, Ethereum ETH, Bitcoin BTC https://t.co/CZWQVfjun3",0,0
1376896685218095110,"2021-03-30T13:58:45Z","@BitcoinTre Run us $ETH",0,0
1376896684358127622,"2021-03-30T13:58:45Z","For those that say $LTC has no utility. Not only does it have utility, but it's not going to cost hundreds of dollars in fees like $ETH 's blockchain either. #Litecoin is going to the moon this summer. Buybsome now before you are fomo'ing in when it's over $500. https://t.co/TzS9sXKP3Z",3,0
1376896681787195393,"2021-03-30T13:58:45Z","i was wondering how i could drop followers when this account has been $eth autism and it's up like 11% last two days then i realize its probably the astolfo cock in my likes lol be calm its a symbol of financial luck",0,0
1376896678272376840,"2021-03-30T13:58:44Z","@theDESK9 @Bamfious @RyanSAdams Facts I’m currently looking to get a good price on an S19 pro... my goal is to have 2 of them by the end of the year... the profits in 3-4 years would be huge if you accumulated every month and moved it into something like #link  Also do you recommend btc over ETH mining?",1,0
1376896673574756357,"2021-03-30T13:58:43Z","Dear investors !   #tacoswap is on 🔥 $ 5 million staked !  It’s just the begining !  What are you waiting for to have your taco and join the adventure!  #tacotothemoon #tacotoken🌶 #defi #cryptocurrency #BinanceSmartChain #eth #btc #tacoswap @exeedme @poolz__ @bepronet",1179,1071
1376896666775609344,"2021-03-30T13:58:41Z","Time for WitLink Token #Airdrop!  ✔️ Start the Airdrop bot: https://t.co/8HDV9cCJse  Complete the tasks to earn  Get 10 WAI ($2.5) + Get 4 WAI ($1) For Each Valid Refer   #ETH #BTC #WAI #LINK #Airdrops",1478,1424
1376896666461204481,"2021-03-30T13:58:41Z","@TexasDefi @RyanSAdams Actually sit down and think about the game theory here. If what you’re saying is true (ETH staking is a free lunch) then WHY AREN’T YOU BUYING ETH? If you think through that question you’ll be one step closer to understanding PoS.",2,0
1376896646152384514,"2021-03-30T13:58:36Z","OMG 😱  Day 1 on CMC   TacoToken🌶  is Top pair on #coinmarketcap    #tacoswaptothemoon #cryptocurrencies #tacoswaptomars #defi #eth #ADA #ethereum #crypto @bepronet @Poolz__ @Xed",1184,1072
1376896645766516736,"2021-03-30T13:58:36Z","@WhitlockJason 🐈‍⬛🪙🍀 🔮💰⚡️✨🚀 #thankyou 4 broadcasting UR frequency  #onelovechallenge #dailycypherstream #stjudes #covid #Blockchain #Bitcoin #LTC #ETH #ADA $AMP https://t.co/PgXQjo8fXV",1,1
1376896638250332167,"2021-03-30T13:58:34Z","@Bancor @opensea The print design is quite ugly... I expected better for a 3 ETH t-shirt :)",0,0
1376896633573543942,"2021-03-30T13:58:33Z","RT @jasonpizzino: HUGE CRYPTO NEWS! VISA PARTNERS WITH CRO + Settles on ETH! DeFi 50% APY!... https://t.co/UVdPdKIhKr https://t.co/RovOOEw6…",22,3
1376896630604001287,"2021-03-30T13:58:32Z","IMPORTANT NOTICE:   When you send $ETH or $USDT to buy $PRIVA on Pre-sale, please also send your Transaction ID (TxID) by using your account at https://t.co/OqxJNfnUuE. You can find your TxID at your withdrawal history on your exchange or wallet. https://t.co/CrlODtEFtv",234,183
1376896605207560193,"2021-03-30T13:58:26Z","🧙RITUAL🧙 &amp; 🏴‍☠️THABU ISLAND🏴‍☠️   AUCTION LIVE @withFND  / 19 Hours LEFT for both.  Both bid at 0.5 ETH by @HarleySwann ⚡⚡⚡  Will you let him win the 2 pieces 1 OF 1 Edition? 👀👀  #NFTCommunity #NFTartists #nftart #cryptoartist #bidwar #conceptart https://t.co/Kf3CKJN3Cf",10,4
1376896603697647617,"2021-03-30T13:58:26Z","At an $80M mcap, $MBX still has A LOT of upside in my opinion (not financial advice). If @Mobie_Pay achieves its' goals, it should be a $1B mcap token.  🔥 $wMBX live today ( $ETH bridge) 💰 Up nearly 100% in 7 days 🚀In price discovery mode 🧠Massive partnerships in the works: https://t.co/iTdIjYb932",75,23
1376896585762758657,"2021-03-30T13:58:22Z","#BTC #ETH #LTC is a great start @Paypal. But don't be sleeping on the #dogecoin ...  The Revolution will be #Decentralized",0,0
1376896585465016320,"2021-03-30T13:58:22Z","What an amazing week for adoption. Visa is settling USDC on $ETH and PayPal will enable US customers to checkout with #crypto. And its only Tuesday!   Let's Gooo 🎢 https://t.co/v2W5eVvzHu",734,67
1376896581551685632,"2021-03-30T13:58:21Z","You can bid on any of these NFTs by going to my OpenSea page, https://t.co/Id67uKCKsg. Opening bid is 1 $ETH for each. https://t.co/JUVHGYvvqb",4,0
1376896565202223107,"2021-03-30T13:58:17Z","I feel like if and when $ETH figures out how to reduce the outrageously high gas fees it’s gonna go Nuclear 💥",1,0
1376896551390486536,"2021-03-30T13:58:14Z","Rebalanced in favor of $SOXL at $34.68 and $ROM at $72.18, hoping I got the timing right  27% $SOXL 25% $ROM 10% $BLOK 10% $ETH 9% $IYW 9% $XLK 7% $XAR 3% $LIT",3,1
1376896542662127621,"2021-03-30T13:58:11Z","COINmetro have  launched  their USD trading pairs on their Margin Trading platform!   BTC/USD  ETH/USD  XCM/USD  XRP/USD US citizens  can now INSTANTLY fund their CoinMetro accounts with USD here https://t.co/JoKIPvl6eU",0,0
1376896534487441409,"2021-03-30T13:58:09Z","Real demand + Killer Tokenomics will breed new parabolic paradigms🔥  This will lead to $QNT exploding🚀  Look at $LUNA for example..  ✅ $UST seeing real demand through protocols.. More $LUNA burnt   ✅ $QNT to see real demand through OVN.. More $QNT locked up on mass  $BTC $ETH https://t.co/GQEvy6Xr1S",166,30
1376896534311227392,"2021-03-30T13:58:09Z","@expl0sev @JRNYcrypto Because ETH will land at $10-$15k this year",0,0
1376896519874355203,"2021-03-30T13:58:06Z","@coinbureau Well visa is supporting payment with Eth blockchain which makes it harder for people who prefer small transaction",0,0
1376896517655646210,"2021-03-30T13:58:05Z","Visa Picks Ethereum Over Facebook Libra to Settle Payments; ETH/USD Up https://t.co/EMBY5QV59G #CryptoCurrency (from Reddit) https://t.co/hyK2skEkvF",1,1
1376896515369746440,"2021-03-30T13:58:05Z","@decryptmedia We are the #ETH   Resistance is Futile =^.^=  #CODE  https://t.co/GDUJ38CSLn",1,0
1376896505064349704,"2021-03-30T13:58:02Z","If you also want to trade #btc #eth #alt on #mxc   https://t.co/SCJUZUgtHR",1,1
1376896503957098499,"2021-03-30T13:58:02Z","What an amazing week for adoption. Visa is settling USDC on $ETH and PayPal will enable US customers to checkout with #crypto. And its only Tuesday!   Let's Gooo 🎢 https://t.co/v2W5eVvzHu",734,67
1376896502447153155,"2021-03-30T13:58:02Z","Ripple/XRP-Congressman Asks DTCC To Settle $1.6Quadrillion With DLT,BIS New CBDC Bridge Document  https://t.co/4pK8dtU0AW  #XRP #BTC #ETH #BCH #LTC #xrpthestandard #ripple #ripplenews #DigitalPerspectives #Crypto #CryptonairesDocumentary https://t.co/sm1dX6kkGC",95,31
1376896492212981764,"2021-03-30T13:57:59Z","“Brooo eth is pumping you missed ouuut hahaha lmao”  *Checks eth chart. Up 8%..2% today... checks XCUR, OGN, Chain, Enj, OVR... all up 20-80%*  My number bigger. You guys are fucking dumb lol.",850,54
1376896490472308738,"2021-03-30T13:57:59Z","@ChrisBlec You play the Eth adversary card so much. That anything that's good for Eth you disagree with.  Honestly your right sometimes but more often than not your wrong.  Which is a failing grade.",0,0
1376896484533227533,"2021-03-30T13:57:58Z","What an amazing week for adoption. Visa is settling USDC on $ETH and PayPal will enable US customers to checkout with #crypto. And its only Tuesday!   Let's Gooo 🎢 https://t.co/v2W5eVvzHu",734,67
1376896482385793027,"2021-03-30T13:57:57Z","RT @TheCryptoCactus: $ETH is undervalued everyday it’s below $10,000 and everyone knows it!",1287,107
1376896479793664004,"2021-03-30T13:57:56Z","eth adress:  0x78234a254FD808Fe53F9461151849Fe126045fA2 https://t.co/BBJmkhAt4v",0,0
1376896475817459718,"2021-03-30T13:57:55Z","What an amazing week for adoption. Visa is settling USDC on $ETH and PayPal will enable US customers to checkout with #crypto. And its only Tuesday!   Let's Gooo 🎢 https://t.co/v2W5eVvzHu",734,67
1376896468582162432,"2021-03-30T13:57:54Z","Time for WitLink Token #Airdrop!  ✔️ Start the Airdrop bot: https://t.co/8HDV9cCJse  Complete the tasks to earn  Get 10 WAI ($2.5) + Get 4 WAI ($1) For Each Valid Refer   #ETH #BTC #WAI #LINK #Airdrops",1478,1424
1376896465772105731,"2021-03-30T13:57:53Z","@ZssBecker Each swipe will absolutely not be its own ethereum transaction. I'm no maxi but I'm not selling any of my ETH",0,0
1376896460990599174,"2021-03-30T13:57:52Z","#NFT  by 0.01 ETH? BELIEVE, IT'S ROLLING NOW!!! https://t.co/xCNangthuB LIKE + RT!!!  #nftcollector #NFT #NFTs #nftart #NFTCommunity #nft #NFTartists #NFTdrop",2,0
1376896460889993217,"2021-03-30T13:57:52Z","What an amazing week for adoption. Visa is settling USDC on $ETH and PayPal will enable US customers to checkout with #crypto. And its only Tuesday!   Let's Gooo 🎢 https://t.co/v2W5eVvzHu",734,67
1376896458541174788,"2021-03-30T13:57:51Z","What an amazing week for adoption. Visa is settling USDC on $ETH and PayPal will enable US customers to checkout with #crypto. And its only Tuesday!   Let's Gooo 🎢 https://t.co/v2W5eVvzHu",734,67
1376896449141645320,"2021-03-30T13:57:49Z","@Shibtoken can you get SHIB listed on KuCoin so I can grab a bunch without having to grab ETH in 4 different places. I’m sure many more people would love $SHIB on #KuCoin",11,4
1376896441835081728,"2021-03-30T13:57:47Z","The DEX @FinanceChainge is set to launch on the @FUSIONProtocol network with over a million users on the protocols waitlist. This decentralized exchange aims to innovate on traditional models through leveraging the Fusion Network.  #BSC #BTC #ETH #BNB  https://t.co/xx55YiGfm3",21535,13657
1376896440048439303,"2021-03-30T13:57:47Z","I'm sharing my exact plan for $BTC, $ETH, $VET, $ADA, etc., in today's newsletter.   It'll be out later today.  Get access here:   https://t.co/dwkv0vxBU6",5758,208
1376896429105446924,"2021-03-30T13:57:44Z","My young and ambitious Human #Neuroimmunology #research Group at @Microbio_ETH is expanding. We are looking for a highly motivated #postdoc to explore autoreactive T cells in #human #neurological disorders. More info here: https://t.co/rsE1LEhJfu #immunology #systemsbiology",15,12
1376896407379001346,"2021-03-30T13:57:39Z","🚨Crypto/Blockchain Community  We run a moderate site using Woocommerce and looking to accept Bitcoin (Wallet to Wallet; Peer to Peer)  Anyone know of any plugins (companies) that are leading in this space?  $eth $btc #Crypto #cryptocurrencies",0,0
1376896402609950721,"2021-03-30T13:57:38Z","@CageLawyers @Wades_ETH @nbatopshot There is no way there won't be a Jordan moment on TS. Willing to take bets.",5,0
