"ID","created_at","text","like_count","rt_count"
1377712368390701056,"2021-04-01T19:59:59Z","🚨 New Drop Alert 🚨  Artist: @heartacheNpaint  Piece: Wings of The Garden I Platform: @withFND  Edition: 1 of 1 💰 Reserve Price: 1.00 ETH ($1,975.41)  Link: https://t.co/j3UmWTo74X  #blackcryptoart #blackart #nft #blacknft #blacknftart #21titles https://t.co/aO5rdtiTxg",3,3
1377712363512684545,"2021-04-01T19:59:58Z","MD+ HAS BEEN LISTED ON UNISWAP AND WILL SEE ANOTHER MOON?! | NEW USER IN... https://t.co/FCqxtsvPFr via @YouTube  #Bitcoin #ETH #DogecoinToTheMoon #SyS #ORN #BNB #Binance #BinanceSmartChain #BTCUSDT #gym",0,2
1377712360903806983,"2021-04-01T19:59:58Z","@doudou_eth @Polkamonorg If you paid with $PMON, you should see your Polkamon in the Collection soon 🙌",4,0
1377712348715188227,"2021-04-01T19:59:55Z","RT @bytemaster7: I love the work that https://t.co/wdK7k9hlcz is doing to bridge ETH and EOS tokens!  #EOS #DeFi",487,125
1377712341685579777,"2021-04-01T19:59:53Z","💧Twinci Airdrop 💧  🏆 Task:          ➕ $15 worth of  TRX                              ➕ $50 worth of TWIN  🔛 Airdrop Link &amp; Information: https://t.co/aV7t49dRDX  #cryptocurrency #Crypto #Bitcoin #Ethereum #ETH #Twinci #TWIN",1336,1777
1377712324795105288,"2021-04-01T19:59:49Z","Place your bids, I’d consider a couple eth!",0,0
1377712311427756034,"2021-04-01T19:59:46Z","Yetubit Partners with Vindax  Exchange for Listing Yetucoin and IEO  We announce to the whole Community our partnership with VinDAX exchange for IEO — Initial Exchange Offering and listing of Yetucoin in 2 pairs:  YETU / BTC YETU / ETH",73,63
1377712306939826177,"2021-04-01T19:59:45Z","💎 AURI SACRA FAMES 💎  ✨ Artwork by @gavriilklimov 💰 Sold to dr_manhattan for 14.5 ETH ($28,208.59)  https://t.co/pRdIUbzssV  #cryptoart #NFT https://t.co/ox0VCreSYI",75,7
1377712303127207937,"2021-04-01T19:59:44Z","@rorenree ETH to $10k confirmed",1,0
1377712297091588099,"2021-04-01T19:59:42Z","Ⓜ️ Win Unique #NFTⓂ️  🎯 Register👉 https://t.co/IEckR49FYj  🔹 Enter Your BEP20 BSC Address 🔹 Enter Your Email  1. Retweet + Like #CTBot Adrop Ram 3 TRX 90 #eth #bnb #bsc #DeFi #nftart #NFTGiveaway #NFTCommunity #NFTartists #NFTs #NFTcollectibles #free #Airdrop #btc #altcoins https://t.co/N6bcD0m8ho",87,85
1377712287583072259,"2021-04-01T19:59:40Z","SOLD / Aquatic Punk #14 - Beard!   Keysersoze quickly snatches Punk number 14 to bring aboard!   Now on the secondary market for 3 ETH!     1 left people!   https://t.co/Temmlu7krT  #nftcollector #nftcollectors #NFTcollectibles #NFTartists #NFTdrop https://t.co/lJcwlEsox1",18,7
1377712285679030274,"2021-04-01T19:59:40Z","Coinbase Is Said to Plan Its Direct Listing in Two Weeks  https://t.co/c9SNnLsQzB  #Bitcoin #Ethereum #elonmusk #tesla #hodl #cardano #ada #defi #paypal #link #nft #dogecoin #doge #eth   Learn about Bitcoin/Crypto and earn $40 to $100+. (See link below)   https://t.co/S9K2p1xbXS https://t.co/SluzxYr96R",1,1
1377712282801745923,"2021-04-01T19:59:39Z","Hendrik Van Crombrugge bought for 0.275 ETH (539.73$) on the secondary market   Season: 2020-2021 Level: 1 Serial: 54/100 Price: 539.73$  ⚽ Sorare: https://t.co/z585D5Ron8  📊: https://t.co/bcsVNnnQ0F  #Sorare #NFT #Ethereum #FantasyFootball",0,0
1377712275734327300,"2021-04-01T19:59:37Z","Liquifi is a new-gen AMM DEX on BSC and ETH.  https://t.co/HyOGgNOVQU  https://t.co/pYiBCtv0eo  https://t.co/UVUoeuH2Ux",0,0
1377712270680195073,"2021-04-01T19:59:36Z","with defi growing more and more I thought about investing in a cryptocurrency such as uniswap. Does it still have room to double or triple ?  Any propositions ? (already have some 1inch). Thanks !  $eth $uni $uni $1inch",0,0
1377712269929418753,"2021-04-01T19:59:36Z","2/2 The Altcoin Market Cap also broke the 700b resistance. Cash will first flow into the top coins and I think $ETH will be a big one - that #Visa deal is huge for #Ethereum in other words, very, very soon #Crypto #Bitcoin #BTC $BTC https://t.co/qCFuZYqtvC",0,0
1377712268213882889,"2021-04-01T19:59:36Z","Here are some fresh news! 🔥   ⭐️ Stats for daily profit are now live. ⭐️ Profit distribution contract is done &amp; will be live this week. ⭐️ New partnership which will greatly benefit VALUE holders + ecosystem will be announced.  1/2  #DeFi #BSC #ETH #YieldFarming https://t.co/ZwMKjHtuUz",95,31
1377712265651220480,"2021-04-01T19:59:35Z","@hyperionsun @sassal0x Because we sold our $ETH for $BTC",0,0
1377712260349485056,"2021-04-01T19:59:34Z","Compound (APR)  noteworthy rate Δ  🔹 $ETH  - B 2.73% S 0.15%  🔹 $USDC - B 10.86% S 8.53%  🔹 $REP  - B 11.99% S 0.00%  🔹 $BAT  - B 6.60% S 0.72%  🔹 $ZRX  - B 7.00% S 0.82% 🔹 $WBTC  - B 2.56% S 0.04% 🔹 $DAI  - B 10.13% S 7.24% 🔹 $USDT  - B 7.34% S 5.58%",0,0
1377712258076266498,"2021-04-01T19:59:33Z","📢AIRDROP📢  Today I will airdrop 50k tokens of my new project $NOPE to the community.  1. Follow @Mr_Chonky 2. Like this tweet 3. Retweet 4. Comment your ETH address below 👇👇👇  to enter the airdrop. https://t.co/heMYCYzBnp",2234,1918
1377712249238925317,"2021-04-01T19:59:31Z","Ethereum should go to $2600 next. Bitcoin is basically dead rn. Alt season. 🚀 $eth",1,0
1377712247682777093,"2021-04-01T19:59:31Z","Send $ETH to $2k 🚀🙏🏼😫",3,0
1377712246781001736,"2021-04-01T19:59:30Z","The original Peewee Longway blue m&amp;m volume 2 cover has been sold as a NFT for 5000 ETH (65 million USD) making it the most valuable piece of crypto art of all time https://t.co/C1HB7uD0gM",1260,318
1377712246219014156,"2021-04-01T19:59:30Z","3 days ETH we need to wait to night https://t.co/D10HgzUhLO",1,0
1377712244629377029,"2021-04-01T19:59:30Z","If #BTC breaks $69,420 in APRIL 2021 I’ll give a random person my R8  Super SIMPLE: Like ✔️ RT ✔️ Follow ✔️ @JBTheCryptoKing  Drop eth addy ✔️ https://t.co/0ZTkU9CUuI",7875,3934
1377712242494431238,"2021-04-01T19:59:29Z","@TheLondonCrypto https://t.co/vjTTKIe01o  👉@Zenon_Network   $ZNN $QSR #BTC $POLS $ADA $ETH - 100% fair launch - L1 dual-ledger infrastructure build from scratch  - Ultra-scalable, fast and secure - Incubator program - Vested partners - $BTC interoperability  - Oracles at the protocol level https://t.co/ivVXDCxxnq",0,0
1377712226350419971,"2021-04-01T19:59:26Z","Thank you again people that are biuying🥰I minted a few new in the yesterday/ Just now! A few more tonight as well  in next few hours ❤️Thank you again for buying!!🥰🥰https://t.co/HaeVoXslPJ #BitTigers #NFTs #NFTCommunity #nftcollector  #ETH.02 https://t.co/979i0WUClU",12,2
1377712224756658176,"2021-04-01T19:59:25Z","💵48,399 #ETH (92,899,494 USD) move from unknown wallet to unknown wallet   Date : 2021-04-01 19:57:59 (GMT 0) Blockchain : #ETHEREUM Symbol : #ETH   Detail: https://t.co/a0s96xqXmD",1,0
1377712224001609729,"2021-04-01T19:59:25Z","This project is very good, good luck sir .. I hope this token will skyrocket to the moon ..  @NendenSetiawa10 @Pa240884 @C_O_B_I_E @blackpeopledata @ianarru  My eth :   0x8dd6dC9C3bF87F397405E55e4FBB9a155d2A598b $FUCO #Ethereum #ERC20 https://t.co/pZza2QMCaO",0,0
1377712222965800961,"2021-04-01T19:59:25Z","💰3,165 #ETH (6,076,586 USD) move from unknown wallet to unknown wallet   Date : 2021-04-01 19:57:59 (GMT 0) Blockchain : #ETHEREUM Symbol : #ETH   Detail: https://t.co/KtgITQY1sY",1,0
1377712222911270916,"2021-04-01T19:59:25Z","RT @Nate_Anderson68: $BNB $LTC $BTA $BTC $ETH $MOCHI $PDAO $SFUND $CHAIN $XCUR $ARGON $JGN COME JOIN $SPUNGE THE NEXT BIG CRYPTO 🔥🔥🔥🔥🔥",4,1
1377712218985365506,"2021-04-01T19:59:24Z","@JBTheCryptoKing Done ✅ here’s my Eth add: 0xF7D823b53c294372e628fFF2339eBb89C2F2c8b4",0,0
1377712212802961412,"2021-04-01T19:59:22Z","💰2,933 #ETH (5,631,423 USD) move from unknown wallet to unknown wallet   Date : 2021-04-01 19:57:59 (GMT 0) Blockchain : #ETHEREUM Symbol : #ETH   Detail: https://t.co/PdYl5xLSb8",1,0
1377712212794601472,"2021-04-01T19:59:22Z","Wix is the biggest player in the website hosting industry with 160 million sites 🤯 They're the 168th most visited site globally according to Alexa rank. Currently valued at 15 Billion dollars 📈🤑  https://t.co/q6JdzC9BUw  #NFTs #opensea #rarible #mintable #superrare $BTC $ETH https://t.co/1JoiK21yR0",1,0
1377712212102541318,"2021-04-01T19:59:22Z","💧Twinci Airdrop 💧  🏆 Task:          ➕ $15 worth of  TRX                              ➕ $50 worth of TWIN  🔛 Airdrop Link &amp; Information: https://t.co/aV7t49dRDX  #cryptocurrency #Crypto #Bitcoin #Ethereum #ETH #Twinci #TWIN",1336,1777
1377712210097668108,"2021-04-01T19:59:22Z","@SudoRootLA Welcome to my pudding portal homie. If price is too high I can go lower. 0.3 ETH I just want people to have some cool art I’ve done. And my kids helped with this one too so we split the ETH. https://t.co/hlLAkg2Sbf https://t.co/MEa9yJdaYr",2,1
1377712206805139462,"2021-04-01T19:59:21Z","#Wootrade x Listings Listing on WOO X means your token is part of a liquidity infrastructure. $BSV $BTC $BNB $BTC $DASH $DODO $DOT $EOS $ETC $ETH $FIL $HT $LINK $LTC $OKB $SUSHI $TRX $UNI $USDT $WOO $XRP $ZEC Drop your favourite token in the comments of the Tweet below 👇 https://t.co/KNMbyPmDiU https://t.co/xsYZNyb02Q",39,6
1377712199276302339,"2021-04-01T19:59:19Z","RT @LeoLemarie1: @mickalamasse1 To the mooon!!!🌶🔥  #tacotoken  #defi #dex #eth #crypto #tacotothemoon",47,39
1377712197636288513,"2021-04-01T19:59:19Z","RT @ThisisNFTs: I have 1 ETH to giveaway to enter just RT this and follow me. I’ll pick one of you tomorrow.",517,518
1377712195039981568,"2021-04-01T19:59:18Z","It was great to be on a panel at @GBA_Blockchain week with @Mashinsky, @mikojava and @EmilieRaffo to discuss ''DeFi after ETH 2.0 - What's next?''   The full video is available here: https://t.co/5YUH7pQ3BL  $ZIL #zilliqa",118,24
1377712193551147011,"2021-04-01T19:59:18Z","@Luke4144 @KingSelf13 @SunofOrion13 It is, it's a double edged sword but for example one could:   1. Sell the image of 3D model as an NFT. (They go for $4,000 or one Eth easily.)  2. Take the money from that and sell branded one of one copies of the actual 3d models.  3. Take the money from both of those flips.",1,0
1377712192175267843,"2021-04-01T19:59:17Z","HOW TO BUY $SQRT :  - Log on to https://t.co/Fxzt9nhM1F - Connect your Metamask  - Use contract address 0xc05cb5f1d51ac23cfe9b4530de72b11ccf4c1377  - Swap ETH for SQRT  - Add the contract address as a new token on metamask  DM us if you need help!  https://t.co/lpvFnCDK6w",41,31
1377712190585638914,"2021-04-01T19:59:17Z","📢AIRDROP📢  Today I will airdrop 50k tokens of my new project $NOPE to the community.  1. Follow @Mr_Chonky 2. Like this tweet 3. Retweet 4. Comment your ETH address below 👇👇👇  to enter the airdrop. https://t.co/heMYCYzBnp",2234,1918
1377712185799925762,"2021-04-01T19:59:16Z","Welcome to our newest members and followers! Join us on Telegram at  https://t.co/MF8aOWtvDA $OMYX $ETH $DOT #Airdrop #Airdrops https://t.co/VfwWp6LvIM",155,126
1377712175985389573,"2021-04-01T19:59:14Z","Kim Geon-Woong bought for 3.539 ETH (6945.85$) by PlantPower on the primary market   Season: 2021-2022 Level: 0 Serial: 1/1 Price: 6945.85$  ⚽ Sorare: https://t.co/rWJWfkIuEP  📊: https://t.co/mXPGLjvyKI  #Sorare #NFT #Ethereum #FantasyFootball",0,0
1377712169459023877,"2021-04-01T19:59:12Z","🥳 $PMON tokens are now trading on @Uniswap!  Token Page: https://t.co/oYxxjSaPlD  $PMON / $ETH Pair: https://t.co/th8seVd4mE https://t.co/Hs7i1fiAm7",956,227
1377712164106948613,"2021-04-01T19:59:11Z","The markets are volatile, but what matters is not the week ahead, but the decade.  Where will Bitcoin be in 2030? $BTC $ETH $OMYX #blockchain https://t.co/OsnIDX2LcB",104,83
1377712163054350341,"2021-04-01T19:59:10Z","#NFTs on #Rewardiqa coming soon ! 🔥🚀🚀🚀👨‍🎨 #NFTCommunity  #nftcollector #NFTdrop #NFTGiveaway #REW #DeFi #BSCPAD #eth #btc #opensea #marketplace #bullrun #BinanceSmartChain https://t.co/Bo1M9Pox2L",820,756
1377712158113402885,"2021-04-01T19:59:09Z","@AdamHODL We have a mutual friend, @ReadyPepe 🤣 He likes $NIM #Nimiq a lot and me too, the team is great, the community is active and the roadmap is incredible.  Also you don't need to pay ETH fees because you can buy @nimiq directly from your bank account, OASIS is revolutionary. https://t.co/yUJokDqtD7",20,1
1377712155299045376,"2021-04-01T19:59:09Z","🚨 🚨 🚨 🚨 🚨 🚨 🚨 🚨 🚨  48,399 #ETH (96,155,448 USD) transferred from unknown wallet to unknown wallet  https://t.co/0WsMU1a6LI",82,8
1377712150509146116,"2021-04-01T19:59:07Z","RT @LilMoonLambo: BREAKING: Coinbase is expected to go public on April 14th   Are you guys ready for $BTC and $ETH all time highs? https://…",2748,503
1377712149728948224,"2021-04-01T19:59:07Z","Building is hard. Building with over 100,000 pairs of eyes pointed at you doesn't make it easier, but it definitely makes it worth the effort. #blockchaintechnology $BSC $ETH $TRON https://t.co/3ekzYtu5x8",177,145
1377712146520408067,"2021-04-01T19:59:07Z","Really think that the power of a decentralized computing paltform on a massive scale has so much potential! ETH smart contracts are allowing new businesses to be formed entirely on a blockchain. That seems absurd to me. ETH to 10k for 1T dollar market cap. Only 5x on price.",0,0
1377712144129482757,"2021-04-01T19:59:06Z","RT @TheCryptoWolfOG: $ETH to $2500 in April or I'm giving away 0.5 $ETH to someone who retweets this.",373,638
1377712139037630464,"2021-04-01T19:59:05Z","💧Twinci Airdrop 💧  🏆 Task:          ➕ $15 worth of  TRX                              ➕ $50 worth of TWIN  🔛 Airdrop Link &amp; Information: https://t.co/aV7t49dRDX  #cryptocurrency #Crypto #Bitcoin #Ethereum #ETH #Twinci #TWIN",1336,1777
1377712138001743877,"2021-04-01T19:59:05Z","🚀New Listing: $BLZ  📊Trading pair: BLZ/USDT  @BluzelleHQ  is a #decentralized data layer for dapps to manage data in a secure, censorship-resistant and highly scalable manner.  👉Details: https://t.co/TBTEl8jCaB  #CoinExListing #Bluzelle #coinex $BTC $ETH https://t.co/YPgtACeEFZ",30,7
1377712135204179971,"2021-04-01T19:59:04Z","Tonight's popular #Raptoreum #Trivia starts at 11pm BST. #Play for #RTM with the #FastestFingers on #Discord and #Telegram https://t.co/7j9wNqkE5h https://t.co/2AyUCIMNd5 #TakePart #Win #Privacy #Blockchain #CompetitionTime #SmartContracts #SmartAssets #SpreadThoseWings #BTC #ETH https://t.co/I5fw6y6xOg",17,8
1377712134805581825,"2021-04-01T19:59:04Z","@mike455mike @nbatopshot @KDTrey5 @TheFirstMint @EvaluateMarket @rohamg @CSURAM88 @BalesFootball @realDockery @ClubTopShot @Wades_ETH @StephSutto @jennifer_sutto @TopShot_SunsFan He's right",2,0
1377712133052456966,"2021-04-01T19:59:03Z","RT @intocryptoverse: Can't wait to see the major influencers begin to back-peddle on their $ETH FUD",1285,77
1377712126811377665,"2021-04-01T19:59:02Z","Better than a paid group?  $Btc $Ftm $Xrp $Doge $Eth $Bnb $Dot $Ltc $Sxp $Link $Enj $Sushi $Atom $Dag $Chz $Uni $Luna $Neo $Cake $Trx $Bake $Ksm $Tvk $Dash $Hot $Ankr  $Dia $Htr $Band $Chr $LPOOL $ORAI $KYL https://t.co/y55W7aAGTj",5,0
1377712123363610628,"2021-04-01T19:59:01Z","Igor Akinfeev bought for 0.29 ETH (564.64$) on the secondary market   Season: 2020-2021 Level: 4 Serial: 52/100 Price: 564.64$  ⚽ Sorare: https://t.co/iJCqEUJFUF  📊: https://t.co/mP5Fef4EK5  #Sorare #NFT #Ethereum #FantasyFootball",0,0
1377712119093792771,"2021-04-01T19:59:00Z","🟢 Swapped $302K in #ETH for #BADGER on #1inch 🐉  🐋 ($9.79M) #0xc0AA80 https://t.co/lRrZbzrvF2",0,0
1377712116476616706,"2021-04-01T19:58:59Z","@Dane38906994 @SkyRank @michael_saylor So I’m literally a poor guy definition of a poor guy. I have invested in crypto bc I believed in the project. I only invested what I could afford to loose. $1,800 is what I could afford to loose. I went with my gut and bought BTC XRP and ETH. That 1,800 is now 7k+",0,0
1377712104891899904,"2021-04-01T19:58:57Z","jims special easter NFT giveaway  just retweet this to enter the chance to be airdropped an nft from my wallet... More retweets more entries make sure youre following me so i can dm the winner  @opensea! #nft #opensea https://t.co/tuQxO6Xign",7,8
1377712101842620417,"2021-04-01T19:58:56Z","Send it already $bnb $eth https://t.co/NKyYj4Kg8o",1,0
1377712101150625793,"2021-04-01T19:58:56Z","@trashstar_eth 200+ sales &amp; 18E traded in the last week!  Consider checking out @redditavatars 🔥🔥🔥  https://t.co/dSyGzXF45a https://t.co/A4O81kvy0x",0,0
1377712101012221954,"2021-04-01T19:58:56Z","@SudoRootLA Selling NFTs for ETH",3,0
1377712099669999622,"2021-04-01T19:58:55Z","Didier Lamkel Ze bought for 0.17 ETH (330.99$) on the secondary market   Season: 2019-2020 Level: 4 Serial: 31/100 Price: 330.99$  ⚽ Sorare: https://t.co/AL0Zz2VnR1  📊: https://t.co/ucjIJGJVpI  #Sorare #NFT #Ethereum #FantasyFootball",0,0
1377712097925206019,"2021-04-01T19:58:55Z","@CryptoChris81 :(  XTK is LP ETH/XTK and it runs for another 5-6 weeks. 6 week holding period per unstake though which a lot of people dont like haha",0,0
1377712092581670925,"2021-04-01T19:58:54Z","If #BTC breaks $69,420 in APRIL 2021 I’ll give a random person my R8  Super SIMPLE: Like ✔️ RT ✔️ Follow ✔️ @JBTheCryptoKing  Drop eth addy ✔️ https://t.co/0ZTkU9CUuI",7875,3934
1377712083131887623,"2021-04-01T19:58:51Z","🔥🔥🔥The first quarterly burn has been completed! In total 3,084,247.29 $uDOOs were burned!  2,783,845.94 $uDOO from staking - https://t.co/v89oJyNKTi   120,879 $uDOO &amp; 2.38 ETH from farming - https://t.co/JGC3BgIIA9   61,732.57 $uDOO from HYPE - fiat conversion  HODL $uDOO https://t.co/VM23NbOBLT",219,148
1377712079533182979,"2021-04-01T19:58:51Z","@LordCatoshi https://t.co/vjTTKIe01o  👉@Zenon_Network   $ZNN $QSR #BTC $POLS $ADA $ETH - 100% fair launch - L1 dual-ledger infrastructure build from scratch  - Ultra-scalable, fast and secure - Incubator program - Vested partners - $BTC interoperability  - Oracles at the protocol level https://t.co/AqchaaFwQf",0,0
1377712078618652673,"2021-04-01T19:58:50Z","🟩 $BASE Will Moon So Hard 💎  Base Protocol will soon be doing a “Power Week” where they drop news every day.  👉 Hold a bag before it begin 😏 📈 My Target: Minimum 20x 🚀🌙  ___________________________ @cctip_com airdrop 0.01 ETH 99999 https://t.co/WPBJ9ZZp9k",155,213
1377712075888340998,"2021-04-01T19:58:50Z","Gas fees this $2500 on y'all heads in short order! $ETH 🤑🤑🤑 https://t.co/Ov2qDFrT4C",0,0
1377712070528020480,"2021-04-01T19:58:48Z","RT @cz_binance: Alright, I have one more tweet people may not like as much, or like a lot. 👇  #BSC comes from #ETH and ...  😂",2045,308
1377712070041427972,"2021-04-01T19:58:48Z","DeriBot Daily Trading Report 31.03.2021 12:00 UTC #Bitcoin Trading Robots Comparison Report  Balance in $BTC:  0.0536 Balance in $USD:  3114.16  #BTC $XRP $AMPL $IOTA $DCT $LTC $OMNI $EOS $ZEC $LEND $COMP $BNB $ETC $TRX $LINK $KNC $WAVES $QTUM $ADA $XLM $ETH $REP $SNX $DAI $ZRX https://t.co/R5fqONxNRD",37,53
1377712063238316040,"2021-04-01T19:58:47Z","jims special easter NFT giveaway  just retweet this to enter the chance to be airdropped an nft from my wallet... More retweets more entries make sure youre following me so i can dm the winner  @opensea! #nft #opensea https://t.co/FlEQrtI2A4",7,8
1377712047547371522,"2021-04-01T19:58:43Z","I dunno what happed a couple of hours ago but $eth is definitely the hero in my portfolio today! https://t.co/cLXBbTGrFp",1,0
1377712045915799560,"2021-04-01T19:58:43Z","$ETH to moon 🚀 huge visa kick off!!!.. Still #ETH undervalue",1,0
1377712039561420800,"2021-04-01T19:58:41Z","$Delta and Delta $rlp APY is Bananas! Check it out on dextools!  https://t.co/UACUO7aa4R  $utu $jup $oce $albt $paid $bnb $eth $btc https://t.co/9kI2rzfD0G",83,36
1377712034205331461,"2021-04-01T19:58:40Z","My collection for sale at @opensea 🏷Prices 0.25  - 10 ETH 💎Clean&amp;stylish photoedits 🛍 Who will take some arts home? 💎Few of gems are still avaliable 🔄 support with RT 🙏😊 https://t.co/lDqcuR5KGa _ #NFT #NFTCommunity #NFTart #cryptoart #NFTartist https://t.co/9Mc1YOIpF7",576,132
1377712032665935872,"2021-04-01T19:58:39Z","RT @CryptoShots: If there is question of  #OkCash  then I will  #Hodl  too 😎  #ok #crypto #bitcoin #eth #ltc https://t.co/WPqSHQqQSI",9,5
1377712032456249354,"2021-04-01T19:58:39Z","@kerneltrader I regret not taking a chunk out of my positions to buy a clown for 4 ETH when I saw there was no Bear Stearns clown mask 2 weeks ago.",0,0
1377712030598230020,"2021-04-01T19:58:39Z","RT @Arthur_0x: $ETH challenging ATH again.  Start of repricing season for the King.",692,57
1377712021425299457,"2021-04-01T19:58:37Z","jims special easter NFT giveaway  just retweet this to enter the chance to be airdropped an nft from my wallet... More retweets more entries make sure youre following me so i can dm the winner  @opensea! #nft #opensea https://t.co/tuQxO6Xign",7,8
1377712019449733130,"2021-04-01T19:58:36Z","@Ledger_Support a friend sent a token ( 4art) to my eth wallet that the ledger doesn’t currently support. Will you guys send it back to the sender? Ty",0,0
1377712018933878790,"2021-04-01T19:58:36Z","RT @ThisisNFTs: I have 1 ETH to giveaway to enter just RT this and follow me. I’ll pick one of you tomorrow.",517,518
1377711991880445952,"2021-04-01T19:58:30Z","The $eth/#btc rocket ready for takeoff 🚀",0,0
1377711991779909636,"2021-04-01T19:58:30Z","The rate that $ALBT are securing partnerships is genuinely impressive..  ✅ $LINK ✅ $QNT ✅ #LSEG ✅ $OCEAN ✅ $PRQ ✅ #API3  ✅ $RAMP ✅ $BMI ✅ $CTK ✅ $INJ ✅ $FRONT ✅ $HOLO ✅ $ORN  Each with individual use cases &amp; contributing to the larger $ALBT ecosystem 🚀  $BTC $ETH https://t.co/PcG9b0uXHW",115,23
1377711988701196288,"2021-04-01T19:58:29Z","It is entirely a false manipulation to make it seem that ETH has demand  The more money grabbing scams running on the ETH platform, the more ETH fees &amp; the more there‘s an illusion of demand  Eth basically reflection the portion of the crypto market cap that is money grabs",5,2
1377711981185138688,"2021-04-01T19:58:27Z","$ETH #ETH #Ethereum   Broke out from its triangle  But it has rallied straight into red resistance (last resistance before new All Time Highs)  And while this resistance could force ETH into a retest of the triangle...  A successful retest would likely result in a break past red https://t.co/bLoHXbIrHl",149,18
1377711975933808640,"2021-04-01T19:58:26Z","RT @CKaradoc: @binance @DeFiInAfrica 1. $BTC, 2. $BNB, 3. $EGLD, 4. $ETH, 5. $CNS",4,1
1377711974931435522,"2021-04-01T19:58:26Z","OK, $ETH is going to 20K. Reload now or die.",0,0
1377711970565038081,"2021-04-01T19:58:25Z","$PHR is a #defi based project this is a bsc #blockchain now bsc project very strong I Hope Many good news coming soon.  For more visit here: https://t.co/fmmq5mN5Ws   #phore #ecommerce #marketplace #sharding #smartcontracts #bitcoin #ethereum #Graphene #Airdrop $BTC $ETH $GFN",1,0
1377711958703497217,"2021-04-01T19:58:22Z","@Ringalls86_eth Get your legacy NFT at https://t.co/e9wjh4ZFCT",0,0
1377711955352420355,"2021-04-01T19:58:21Z","@3xtokenexchange @airdropinspect @DAppJourney @Chiliz @KeepChange_io @SapphireRDC @elonmusk @alex_dreyfus @flipxpress @finance_revo @TrustWalletApp   My Eth wallet address:   0x6E803bA5Fe29cD5E4367184f97cfC6F3F0C03AF1",0,0
1377711952605163530,"2021-04-01T19:58:20Z","If #BTC breaks $69,420 in APRIL 2021 I’ll give a random person my R8  Super SIMPLE: Like ✔️ RT ✔️ Follow ✔️ @JBTheCryptoKing  Drop eth addy ✔️ https://t.co/0ZTkU9CUuI",7875,3934
1377711950482788352,"2021-04-01T19:58:20Z","RT @ThisisNFTs: I have 1 ETH to giveaway to enter just RT this and follow me. I’ll pick one of you tomorrow.",517,518
1377711944937795585,"2021-04-01T19:58:18Z","RT @trashstar_eth: Show me your NFTs 👇",370,45
1377711936398237698,"2021-04-01T19:58:16Z","💧Twinci Airdrop 💧  🏆 Task:          ➕ $15 worth of  TRX                              ➕ $50 worth of TWIN  🔛 Airdrop Link &amp; Information: https://t.co/aV7t49dRDX  #cryptocurrency #Crypto #Bitcoin #Ethereum #ETH #Twinci #TWIN",1336,1777
