"ID","created_at","text","like_count","rt_count"
1374707562113683459,"2021-03-24T12:59:58Z","🔥We have started random global airdrop of 100,000 NFTs to single wallet ETH address 🚀 USDT-NFTs is listed on Uniswap  🚀 The contract address: 0x6599fc3e77cbfa6f6e9cac605a30b1e78827eba0  💰 Holding more NFTs makes you richer  🚀Like、Retweet &amp; Tag 3 friends  #NFTs #NFT #AIRDROP https://t.co/1tf4LcEX3C",1086,943
1374707559005745153,"2021-03-24T12:59:57Z","BNB SMACK ETH - WHY EVERYONE WAS WRONG  6 months ago @cz_binance tweeted my last video.  Since then, $BNB @binance 10x-ed.  Fast forward to today. Was I right or wrong? Time for Episode 2!  Full video 9 min: https://t.co/JeNcXRhNcs https://t.co/eZh0dn8lMO",927,197
1374707556203913219,"2021-03-24T12:59:56Z","RT @CashNCrypto: $150 to one person in 48hrs  Rt &amp; follow me + @domscrypto &amp; @boar_eth",2050,4122
1374707555075690508,"2021-03-24T12:59:56Z","Depositing via Metamask on Demex might cost &gt;100USD in ETH at current gas prices.   But then you can make trades with @SwitcheoNetwork  $SWTH, for constant network fees at a fraction of a cent. Sending an order is FREE.  Swaps on @Uniswap would already cost 40-50USD a trade. 😳",61,17
1374707553662275588,"2021-03-24T12:59:56Z","RT @CashNCrypto: $150 to one person in 48hrs  Rt &amp; follow me + @domscrypto &amp; @boar_eth",2050,4122
1374707551862878213,"2021-03-24T12:59:55Z","RT @CashNCrypto: $150 to one person in 48hrs  Rt &amp; follow me + @domscrypto &amp; @boar_eth",2050,4122
1374707551091187713,"2021-03-24T12:59:55Z","RT @udiWertheimer: Elon sells the best car in the world. keeps revenue 100% in bitcoin  Beeple sells jpeg files, sells every last ETH he re…",2667,228
1374707549384159233,"2021-03-24T12:59:55Z","RT @CashNCrypto: $150 to one person in 48hrs  Rt &amp; follow me + @domscrypto &amp; @boar_eth",2050,4122
1374707548700348426,"2021-03-24T12:59:55Z","@CashNCrypto @domscrypto @boar_eth Done. Wml https://t.co/nM6lwl9fNf",0,0
1374707542539051014,"2021-03-24T12:59:53Z","Had a signal last night for ETH.I placed a buy limit on and it hit. I didn’t send that out because I wasn’t confident in it. And right now I’m not too confident in anything. So bear with me on my trading view of I make som very sudden last minute calls on $NAS $SPX and $XAU https://t.co/BnhvzGbz5Y",0,0
1374707542064984070,"2021-03-24T12:59:53Z","Wow! 20k Followers!😍  Our family is growing exponentially, so to celebrate we're doing a competition! 🎁  ❶ Follow + RT ❷ Tag a friend and tell them what you like best about #ValueDefi  👉After 48h, 20 comments will win 6.8 $gvVALUE-B each!  Good luck frens!🍀  #BSC #ETH #DeFi https://t.co/WHnV5DU7TU",332,220
1374707540798283783,"2021-03-24T12:59:53Z","@CashNCrypto @domscrypto @boar_eth Thank you so much i hope this will be my first win wish me luck 🙏🙌💙 https://t.co/kUBQ9LMVjD",0,0
1374707539733004297,"2021-03-24T12:59:52Z","RT @coinmamba: Damn you $ETH. Dip now and let me long too..",384,14
1374707537497313289,"2021-03-24T12:59:52Z","WARNING🚨   MASSIVE airdrop 🔥   $QDAO is a true💎since 2019, by famous team, just 10 MILLION CAP  1. Go now to Twitter @QDefi  or telegram https://t.co/x0vuSIVfV9   2. Get your free tokens  3. HODL this gem until 10x-20x  (soon - launch cross-chain tool for BSC, DOT and ETH) https://t.co/S3sdpsYnUu",1013,1142
1374707527749791750,"2021-03-24T12:59:50Z","RT @CashNCrypto: $150 to one person in 48hrs  Rt &amp; follow me + @domscrypto &amp; @boar_eth",2050,4122
1374707527263293447,"2021-03-24T12:59:49Z","RT @CashNCrypto: $150 to one person in 48hrs  Rt &amp; follow me + @domscrypto &amp; @boar_eth",2050,4122
1374707526797758469,"2021-03-24T12:59:49Z","RT @DailyDogeUpdate: 🚀 $1000 to anyone who Like, Follow and Retweet 🚀  #Dogecoin #LTC $ETH",1838,1206
1374707525858119682,"2021-03-24T12:59:49Z","@CashNCrypto @domscrypto @boar_eth Doneee! Thank you so much! 🍀🤞🏻🍀 https://t.co/8os5F8KJ5e",0,0
1374707525635829760,"2021-03-24T12:59:49Z","RT @CashNCrypto: $150 to one person in 48hrs  Rt &amp; follow me + @domscrypto &amp; @boar_eth",2050,4122
1374707525141028868,"2021-03-24T12:59:49Z","RT @PeterTarka: Steal alert 🚨 Reserve price 0.5 ETH https://t.co/3udcxcwM5r https://t.co/RULdeK9Sfl",242,26
1374707523945598976,"2021-03-24T12:59:49Z","RT @CashNCrypto: $150 to one person in 48hrs  Rt &amp; follow me + @domscrypto &amp; @boar_eth",2050,4122
1374707523261923329,"2021-03-24T12:59:49Z","RT @CashNCrypto: $150 to one person in 48hrs  Rt &amp; follow me + @domscrypto &amp; @boar_eth",2050,4122
1374707521210908680,"2021-03-24T12:59:48Z","💧Roku Network Airdrop 💧  🏆 Task:          ➕  15 ROK (~$5)  👨‍👩‍👧 Referral:   ➕  3 ROK (~$1)  🔛  Airdrop Link &amp; Information: https://t.co/YhvsOcfEbH  #cryptocurrency #Crypto #Bitcoin  #BSC #BinanceSmartChain #Ethereum #ETH #Airdrop #bounty #ROK #RokuCoin #RokuNetwork",3593,4682
1374707518266613769,"2021-03-24T12:59:47Z","@peter_szilagyi @harmonyprotocol Leave the smart guys alone. That’s what you all do when you get scared of a better project. This one is the best. Focus on fixing your problems. Sold all of my ETH and bought a bag of harmony.",2,0
1374707516756660226,"2021-03-24T12:59:47Z","Buying 2 #NFT artworks under .2 $ETH Shill here cuz all the love you've given me, I wanna share it a little. Rules :  follow me &amp; @pan_danil, RT this and visit AGAH!! Results within 24 Hours!! https://t.co/L0t5oPv7u5",69,21
1374707516341432333,"2021-03-24T12:59:47Z","Price prediction 2021 🚀🚀👇 #BTC                $30,000 #ETH               $1.800 #EGLD           $1.500 #DOT           $350 #UNI           $250 #LUNA      $200 #THETA   $100 #VET      $1 You can add yours! 👇",91,13
1374707509965901830,"2021-03-24T12:59:45Z","RT @CashNCrypto: $150 to one person in 48hrs  Rt &amp; follow me + @domscrypto &amp; @boar_eth",2050,4122
1374707508112060422,"2021-03-24T12:59:45Z","💧Roku Network Airdrop 💧  🏆 Task:          ➕  15 ROK (~$5)  👨‍👩‍👧 Referral:   ➕  3 ROK (~$1)  🔛  Airdrop Link &amp; Information: https://t.co/YhvsOcfEbH  #cryptocurrency #Crypto #Bitcoin  #BSC #BinanceSmartChain #Ethereum #ETH #Airdrop #bounty #ROK #RokuCoin #RokuNetwork",3593,4682
1374707503947218947,"2021-03-24T12:59:44Z","$DAG TO SURPASS $1 GUARANTEED BY TOKENOMICS PAPER  Within Generative Economics the sum is greater than the partsthat is, as more State Channels attract $DAG, the overall value of the network increases  LET THAT SINK IN  $DAG #MILLIONAIRES #CLUB  🔊 $BTC $ETH $XRP $HTR $ADA https://t.co/LXnC5aotKF",59,14
1374707502818938885,"2021-03-24T12:59:44Z","💎 Limited Edition Tomorrow Woman Sketch 💎  ✨ Artwork by @AnthonyAzekwoh 💰 Sold to dolats for 0.4 ETH ($677.81)  https://t.co/TRNehT4WQO  #cryptoart #NFT https://t.co/OErqMN3Lws",6,3
1374707501954957316,"2021-03-24T12:59:43Z","RT @CashNCrypto: $150 to one person in 48hrs  Rt &amp; follow me + @domscrypto &amp; @boar_eth",2050,4122
1374707497664012290,"2021-03-24T12:59:42Z","RT @CashNCrypto: $150 to one person in 48hrs  Rt &amp; follow me + @domscrypto &amp; @boar_eth",2050,4122
1374707497433509888,"2021-03-24T12:59:42Z","@mangomarkets ETH is a shitcoin son",2,0
1374707494480613382,"2021-03-24T12:59:42Z","RT @CashNCrypto: $150 to one person in 48hrs  Rt &amp; follow me + @domscrypto &amp; @boar_eth",2050,4122
1374707491339177986,"2021-03-24T12:59:41Z","💰What’s your #ETH wallet address?  🚀Don’t ask why, just drop it below👇  🚀Like、Retweet &amp; Tag ALL U CAN  🚀 USDT-NFTs has been listed on Uniswap！  🚀 The contract address: 0x6599fc3e77cbfa6f6e9cac605a30b1e78827eba0  #NFTs #NFT #AIRDROP #UNISWAP https://t.co/H29ZBOR0aL",1380,1178
1374707490860929031,"2021-03-24T12:59:41Z","💧Roku Network Airdrop 💧  🏆 Task:          ➕  15 ROK (~$5)  👨‍👩‍👧 Referral:   ➕  3 ROK (~$1)  🔛  Airdrop Link &amp; Information: https://t.co/YhvsOcfEbH  #cryptocurrency #Crypto #Bitcoin  #BSC #BinanceSmartChain #Ethereum #ETH #Airdrop #bounty #ROK #RokuCoin #RokuNetwork",3593,4682
1374707490609315842,"2021-03-24T12:59:41Z","RT @CashNCrypto: $150 to one person in 48hrs  Rt &amp; follow me + @domscrypto &amp; @boar_eth",2050,4122
1374707490047238150,"2021-03-24T12:59:41Z","RT @CashNCrypto: $150 to one person in 48hrs  Rt &amp; follow me + @domscrypto &amp; @boar_eth",2050,4122
1374707488432418816,"2021-03-24T12:59:40Z","📣Considered as the world's leading and most trusted cryptocurrency exchange of today. '' @HuobiGlobal '' 👉Visit https://t.co/jMBg5Aukbd, and start trading now!  $BTC $ETH $XRP $XLM $DOGE $DOT $NEO $ADA $USDT $BNB $ZEC $BTH $BTG $BSV  @bitcoin #bitcoin #trading #token #crypto https://t.co/dr2s9LyBfG",1,0
1374707487631421440,"2021-03-24T12:59:40Z","Today I’ll be minting Artwork I’ve made for High Art Competition, the prizes places will be announced in 2 weeks, I have chance to win 15 000$ .   What you think how many ETH this art deserve? https://t.co/MOZ7lllAgC",82,12
1374707487501324293,"2021-03-24T12:59:40Z","New engineering ways of building a road using robot-assisted arm. The idea originates from a project of the Gramazio Kohler Research lab at @ETH_en .   https://t.co/VUNjG2RIVE #engineering #construction #robotics",0,0
1374707485366358016,"2021-03-24T12:59:39Z","RT @CashNCrypto: $150 to one person in 48hrs  Rt &amp; follow me + @domscrypto &amp; @boar_eth",2050,4122
1374707482010873861,"2021-03-24T12:59:39Z","RT @CashNCrypto: $150 to one person in 48hrs  Rt &amp; follow me + @domscrypto &amp; @boar_eth",2050,4122
1374707481914568709,"2021-03-24T12:59:39Z","RT @PeterTarka: Steal alert 🚨 Reserve price 0.5 ETH https://t.co/3udcxcwM5r https://t.co/RULdeK9Sfl",242,26
1374707479016210433,"2021-03-24T12:59:38Z","WARNING🚨   MASSIVE airdrop 🔥   $QDAO is a true💎since 2019, by famous team, just 10 MILLION CAP  1. Go now to Twitter @QDefi  or telegram https://t.co/x0vuSIVfV9   2. Get your free tokens  3. HODL this gem until 10x-20x  (soon - launch cross-chain tool for BSC, DOT and ETH) https://t.co/S3sdpsYnUu",1013,1142
1374707477627895814,"2021-03-24T12:59:38Z","@CashNCrypto @domscrypto @boar_eth followed &lt;3 hoping!!! 🍀🍀",0,0
1374707474985578501,"2021-03-24T12:59:37Z","This is probably a pretty good project for me and everyone here at the moment #STC #ETH #DEFI #Airdrops https://t.co/N4RR6VZ2Jt",0,0
1374707474981253122,"2021-03-24T12:59:37Z","@CashNCrypto @domscrypto @boar_eth Following already https://t.co/r9hSwnCpa9",0,0
1374707473978781696,"2021-03-24T12:59:37Z","RT @CashNCrypto: $150 to one person in 48hrs  Rt &amp; follow me + @domscrypto &amp; @boar_eth",2050,4122
1374707473706192903,"2021-03-24T12:59:37Z","The DEX @FinanceChainge is set to launch on the @FUSIONProtocol network with over a million users on the protocols waitlist. This decentralized exchange aims to innovate on traditional models through leveraging the Fusion Network.  #BSC #BTC #ETH #BNB  https://t.co/xx55YiGfm3",21105,13409
1374707470946344969,"2021-03-24T12:59:36Z","RT @CashNCrypto: $150 to one person in 48hrs  Rt &amp; follow me + @domscrypto &amp; @boar_eth",2050,4122
1374707469998383106,"2021-03-24T12:59:36Z","RT @CashNCrypto: $150 to one person in 48hrs  Rt &amp; follow me + @domscrypto &amp; @boar_eth",2050,4122
1374707468677304322,"2021-03-24T12:59:36Z","The year is 2032. You stare at your phone hoping your ETH transaction you payed $534 in fees for goes through so the door to your Tesla unlocks.",1355,130
1374707465682448384,"2021-03-24T12:59:35Z","You can now stake ETH/WBTC/USDC/USDT to mint kUSD and earn 20000 $KINE rewards per week: https://t.co/i289Ak6SUo. Also, $KINE is available on #uniswap :https://t.co/7421S6yxTd https://t.co/PsqQ3q3voX",57,13
1374707465418334208,"2021-03-24T12:59:35Z","To celebrate the launch of our project, we are doing our very first #NFTGiveaway 🥳  Yes, 3 Doodes will be given away! To participate:  1. Like 2. Retweet 3. Follow  and drop your ETH address below!  Winners will be announced this Saturday!  #nftart  #NFTs #NFT #nftcollector https://t.co/tlEJEc8EKD",301,195
1374707459193860100,"2021-03-24T12:59:33Z","RT @CashNCrypto: $150 to one person in 48hrs  Rt &amp; follow me + @domscrypto &amp; @boar_eth",2050,4122
1374707457335906305,"2021-03-24T12:59:33Z","In 3 hours we are going to know who is the winner of Edition #2 of my beautiful work 𝙍𝙚𝙙 𝙑𝙚𝙡𝙫𝙚𝙩 🔥🔥  STAY TUNED!  Retweets are appreciated! #cryptoart #cryptoartist #NFT #NFTart #NFTartist #ETH  #digitalart #raredigitalart #Ξ #collectible https://t.co/iY1eKoQ9qk",12,1
1374707456916398087,"2021-03-24T12:59:33Z","RT @CashNCrypto: $150 to one person in 48hrs  Rt &amp; follow me + @domscrypto &amp; @boar_eth",2050,4122
1374707455402205192,"2021-03-24T12:59:32Z","@CashNCrypto @domscrypto @boar_eth ✅Liked ✅Followed ALL ✅Retweeted  Patiently waiting for my perfect time to win your awesome giveaways.  @CryptoSpeed17  @theBitme  @BrissieCrypto  @Airdroptodeals  @JoannaZuhause  @Cryptohayns  @aGraciel7  @AlgericoGio  @AlvinAquino2017  @CryptoJoseph  @CryptoAddict14",0,0
1374707454479454210,"2021-03-24T12:59:32Z","RT @CashNCrypto: $150 to one person in 48hrs  Rt &amp; follow me + @domscrypto &amp; @boar_eth",2050,4122
1374707453443633153,"2021-03-24T12:59:32Z","People said I've been negative lately...So let's give away a THICC Pokemon NFT (valued at about $1000 now, but I think at least $2k in 3 months)  Post your ETH wallet below and your favorite pokemon. Tags/Retweets to friends who like NFTs/Crypto is super appreciated. https://t.co/GHxjLnTcb1",1142,509
1374707453024219136,"2021-03-24T12:59:32Z","This #nft unlocks the entire folder of content from this set! 73 photos/ 4 videos 🖤   Download Metamask wallet- buy ETH- Buy nfts- enjoy content- resell if you want or keep it forever!  https://t.co/UEXwOYB8ZL",8,1
1374707450536943620,"2021-03-24T12:59:31Z","#ProBit Exchange will open up $XDC wallets in 40 minutes, trading kicks off on the 26th with USDT, ETH, and KRW pairs 🎉 @XinFin_Official   https://t.co/ihzoNW8Q6U https://t.co/K4Kw3IsVwz",466,170
1374707449291235329,"2021-03-24T12:59:31Z","RT @vinibo6: Etherium didn’t moved at all, this shart is speaking the trend imo, i see a double top on the daily.",1,1
1374707448980725760,"2021-03-24T12:59:31Z","RT @CashNCrypto: $150 to one person in 48hrs  Rt &amp; follow me + @domscrypto &amp; @boar_eth",2050,4122
1374707446652964865,"2021-03-24T12:59:30Z","WARNING🚨   MASSIVE airdrop 🔥   $QDAO is a true💎since 2019, by famous team, just 10 MILLION CAP  1. Go now to Twitter @QDefi  or telegram https://t.co/x0vuSIVfV9   2. Get your free tokens  3. HODL this gem until 10x-20x  (soon - launch cross-chain tool for BSC, DOT and ETH) https://t.co/S3sdpsYnUu",1013,1142
1374707444832641025,"2021-03-24T12:59:30Z","RT @CashNCrypto: $150 to one person in 48hrs  Rt &amp; follow me + @domscrypto &amp; @boar_eth",2050,4122
1374707442290892802,"2021-03-24T12:59:29Z","RT @CashNCrypto: $150 to one person in 48hrs  Rt &amp; follow me + @domscrypto &amp; @boar_eth",2050,4122
1374707437781979141,"2021-03-24T12:59:28Z","RT @CashNCrypto: $150 to one person in 48hrs  Rt &amp; follow me + @domscrypto &amp; @boar_eth",2050,4122
1374707436070653953,"2021-03-24T12:59:28Z","RT @CashNCrypto: $150 to one person in 48hrs  Rt &amp; follow me + @domscrypto &amp; @boar_eth",2050,4122
1374707433864630274,"2021-03-24T12:59:27Z","Vanilla Network $VNLA trending on @CoinMarketCap! 🔥   We’ve got much more to come with our social betting dApps run on $MATIC network. Visit https://t.co/HFwBoDiynn to learn more.  Less gas ⛽️, more speed 💨 &amp; more play 🏆!  $VNLA $MATIC $ETH https://t.co/IAbxdQ2EJG",37,19
1374707432253890562,"2021-03-24T12:59:27Z","RT @CashNCrypto: $150 to one person in 48hrs  Rt &amp; follow me + @domscrypto &amp; @boar_eth",2050,4122
1374707430441951241,"2021-03-24T12:59:26Z","👀 #Seascape and @PancakeSwap   starts a brand new pool in which users can stake $CAKE to earn $pCWS! #CWS #BSC #NFT #ETH #CRYPTO #Gaming #CryptoNews  #CTBot Adrop RAM 0.5 TRX 40 https://t.co/eIlbgMcX9F",25,22
1374707427241721865,"2021-03-24T12:59:26Z","RT @CashNCrypto: $150 to one person in 48hrs  Rt &amp; follow me + @domscrypto &amp; @boar_eth",2050,4122
1374707426348298245,"2021-03-24T12:59:25Z","RT @CashNCrypto: $150 to one person in 48hrs  Rt &amp; follow me + @domscrypto &amp; @boar_eth",2050,4122
1374707424590970889,"2021-03-24T12:59:25Z","#Constellation $DAG   $LTX $DOT $UNI $XRP $BTC $ETH $DOGE $EOS $IOTA $ADA $REEF $ZEC $TRX $LINK $COTI $OCEAN $BNB $ZCX $DASH $XLM $TEL $RUNE $OCTO $QNT $MTV $BAX $NAX $LYM $CAKE $TRTL $SUSHI https://t.co/UTRu7XWeVI https://t.co/h8PGrLVciH",8,0
1374707423802429442,"2021-03-24T12:59:25Z","RT @CashNCrypto: $150 to one person in 48hrs  Rt &amp; follow me + @domscrypto &amp; @boar_eth",2050,4122
1374707419306098694,"2021-03-24T12:59:24Z","@CashNCrypto @domscrypto @boar_eth Done wml ♥️",0,0
1374707417892712448,"2021-03-24T12:59:23Z","💧Roku Network Airdrop 💧  🏆 Task:          ➕  15 ROK (~$5)  👨‍👩‍👧 Referral:   ➕  3 ROK (~$1)  🔛  Airdrop Link &amp; Information: https://t.co/YhvsOcfEbH  #cryptocurrency #Crypto #Bitcoin  #BSC #BinanceSmartChain #Ethereum #ETH #Airdrop #bounty #ROK #RokuCoin #RokuNetwork",3593,4682
1374707417401880580,"2021-03-24T12:59:23Z","RT @CashNCrypto: $150 to one person in 48hrs  Rt &amp; follow me + @domscrypto &amp; @boar_eth",2050,4122
1374707416147791873,"2021-03-24T12:59:23Z","RT @CashNCrypto: $150 to one person in 48hrs  Rt &amp; follow me + @domscrypto &amp; @boar_eth",2050,4122
1374707412687450119,"2021-03-24T12:59:22Z","Torre I [ROOM#001] by Sofja x astrosuka  1 of 1 • Now Available for Ξ 1.0  🔥 Genesis edition 🔥  https://t.co/NYz5rHciXm  @KnownOrigin_io  Art by @_sofffja x @astrosuka  #cryptoart #NFT #cryptoartist #ETH",17,2
1374707410347130885,"2021-03-24T12:59:22Z","@PancakeSwap 🌶 #tacoswap is about to go viral March 26th 2021! The best DEX with the best REWARD  Deposit ETH &amp; CRD and earn TACO !  TACO 0.01cts ✅ TACO 0.10cts ✅ &gt; GO TO 10$ !!!  Go &gt; #UNISWAP Pair : TACO-ETH Token : #tacoToken  (#TACO) Contract: 0x41c028a4c1f461ebfc3af91619b240004ebad216",10,12
1374707410284257282,"2021-03-24T12:59:22Z","@CashNCrypto @domscrypto @boar_eth Done",0,0
1374707410074492931,"2021-03-24T12:59:22Z","💎 Death Dip 💎  ✨ Artwork by @XCOPYART 💰 Sold to @punk4156 for 1000.0 ETH ($1,733,820.00)  https://t.co/FXegqMqNiY  #cryptoart #NFT https://t.co/oAoD1Hb3te",359,54
1374707406396030977,"2021-03-24T12:59:21Z","RT @volmexfinance: What’s your ETH address?  Don’t ask why, just drop it below 👇",4854,1656
1374707406391836674,"2021-03-24T12:59:21Z","RT @CashNCrypto: $150 to one person in 48hrs  Rt &amp; follow me + @domscrypto &amp; @boar_eth",2050,4122
1374707405628583938,"2021-03-24T12:59:20Z","🌟NFT SHARE🌟  1) Leave your NFTs in the comments 2) Retweet for bigger audience 3) Leave comments and like other artists  Let's go!  #NFT #ETH #cryptoart #digitalart #nftart #nftcollector #nftbastards #NFTCommunity #collectors #rarible #NFTs  #NFTartist",75,19
1374707402956664832,"2021-03-24T12:59:20Z","@CashNCrypto @domscrypto @boar_eth Followings all done tnx",0,0
1374707396853964807,"2021-03-24T12:59:18Z","RT @CashNCrypto: $150 to one person in 48hrs  Rt &amp; follow me + @domscrypto &amp; @boar_eth",2050,4122
1374707396577128449,"2021-03-24T12:59:18Z","@CashNCrypto @domscrypto @boar_eth Wish me luck 🙏",0,0
1374707393938923528,"2021-03-24T12:59:18Z","RT @CashNCrypto: $150 to one person in 48hrs  Rt &amp; follow me + @domscrypto &amp; @boar_eth",2050,4122
1374707391367835654,"2021-03-24T12:59:17Z","WARNING🚨   MASSIVE airdrop 🔥   $QDAO is a true💎since 2019, by famous team, just 10 MILLION CAP  1. Go now to Twitter @QDefi  or telegram https://t.co/x0vuSIVfV9   2. Get your free tokens  3. HODL this gem until 10x-20x  (soon - launch cross-chain tool for BSC, DOT and ETH) https://t.co/S3sdpsYnUu",1010,1142
1374707390273232897,"2021-03-24T12:59:17Z","$CHL as a utility token has the potential to be added on @RobinhoodApp.  https://t.co/wKQpOimrGw  $CHL #CHL $BTC $TLOS $EOS #eosio #telos #bsc #blockchain #btc #eth #eos #telos #tlos #crypto #dapp #gaming #cryptocurrency https://t.co/snaTIzlIUr",33,27
1374707385441398784,"2021-03-24T12:59:16Z","@1inchExchange oh, I can't sell my FNT tokens, because first I need to exchange them for #ETH, and only then exchange a tokens for 1inch. but still there is such a possibility https://t.co/b18UmgMsA4",0,0
1374707383490932740,"2021-03-24T12:59:15Z","💧Roku Network Airdrop 💧  🏆 Task:          ➕  15 ROK (~$5)  👨‍👩‍👧 Referral:   ➕  3 ROK (~$1)  🔛  Airdrop Link &amp; Information: https://t.co/YhvsOcfEbH  #cryptocurrency #Crypto #Bitcoin  #BSC #BinanceSmartChain #Ethereum #ETH #Airdrop #bounty #ROK #RokuCoin #RokuNetwork",3593,4682
1374707381498691586,"2021-03-24T12:59:15Z","Wow! 20k Followers!😍  Our family is growing exponentially, so to celebrate we're doing a competition! 🎁  ❶ Follow + RT ❷ Tag a friend and tell them what you like best about #ValueDefi  👉After 48h, 20 comments will win 6.8 $gvVALUE-B each!  Good luck frens!🍀  #BSC #ETH #DeFi https://t.co/WHnV5DU7TU",332,220
1374707377363066897,"2021-03-24T12:59:14Z","WARNING🚨   MASSIVE airdrop 🔥   $QDAO is a true💎since 2019, by famous team, just 10 MILLION CAP  1. Go now to Twitter @QDefi  or telegram https://t.co/x0vuSIVfV9   2. Get your free tokens  3. HODL this gem until 10x-20x  (soon - launch cross-chain tool for BSC, DOT and ETH) https://t.co/S3sdpsYnUu",1010,1142
1374707377321115653,"2021-03-24T12:59:14Z","WARNING🚨   MASSIVE airdrop 🔥   $QDAO is a true💎since 2019, by famous team, just 10 MILLION CAP  1. Go now to Twitter @QDefi  or telegram https://t.co/x0vuSIVfV9   2. Get your free tokens  3. HODL this gem until 10x-20x  (soon - launch cross-chain tool for BSC, DOT and ETH) https://t.co/S3sdpsYnUu",1010,1142
1374707376960331782,"2021-03-24T12:59:14Z","RT @LayahHeilpern: Why is $ETH still not above 2k?!?!",3262,201
