"ID","created_at","text","like_count","rt_count"
1375319071542161409,"2021-03-26T05:29:53Z","RT @PacoG2021: $eth can't scale 😭 thank God for $one!!!",55,0
1375319061278646273,"2021-03-26T05:29:51Z","BREAKING: in a statement AbiyAhmed released, he said #Eritrea agreed to withdraw its forces immediately. This is antagonistic to what he said to the Eth. Parliament that Eritrean forces will remain in #Tigray for unspecified period. Could be a tactic to ease pressure. @Reuters https://t.co/4w1wwVWD2H",134,0
1375319057604427777,"2021-03-26T05:29:50Z","@GuidoDisalle My first drop (1 ETH): https://t.co/lU2fM2aQzs",0,0
1375319054500691969,"2021-03-26T05:29:49Z","BREAKING: in a statement AbiyAhmed released, he said #Eritrea agreed to withdraw its forces immediately. This is antagonistic to what he said to the Eth. Parliament that Eritrean forces will remain in #Tigray for unspecified period. Could be a tactic to ease pressure. @Reuters https://t.co/4w1wwVWD2H",134,0
1375319052978098176,"2021-03-26T05:29:49Z","BREAKING: in a statement AbiyAhmed released, he said #Eritrea agreed to withdraw its forces immediately. This is antagonistic to what he said to the Eth. Parliament that Eritrean forces will remain in #Tigray for unspecified period. Could be a tactic to ease pressure. @Reuters https://t.co/4w1wwVWD2H",134,0
1375319038449045505,"2021-03-26T05:29:45Z","@Zenon_Network  is out of this world !    $ZNN $QSR $BNB $BTC $ETH https://t.co/YIIcAs5Eys https://t.co/j01fGjeds0",3,1
1375319035777318912,"2021-03-26T05:29:44Z","$dego is waking up again after long negativ trend. If #BTC #Bitcoin holds the party 🥳 will go on. Send dem #altcoins 🔥🚀. Lets have have looo where this can go to 👀✍ ____________________ $dego $slp $axs $chz #Bitcoin #eth #Binance #KuCoin #BinanceSmartChain #bsc #ALTSEASON https://t.co/1ErkXJS6xv",3,0
1375318995247669251,"2021-03-26T05:29:35Z","I will be giving away $1000 $USDT 🎁 to 5 (x200) people who: 1. Follow me 2. Retweet this 3. Like the post  To get double ($400) if you win, tag 2 friends in the comments!  Contest ends on the 25th of March. GL!  ---  #crypto #defi #nfts $btc $eth $doge $cake $uni $ada $dot $luna https://t.co/oT3KA0auWp",651,0
1375318977728049155,"2021-03-26T05:29:31Z","Welcome to massive Q DAO airdrop!   1. go now to telegram https://t.co/COyXgODY1z   2. Stay in telegram chat and wait announcement.  3. HOLD this gem until 10x   (soon - QDAO launch cross-chain for BSC, Polkadot and ETH)",4254,0
1375318975744196610,"2021-03-26T05:29:30Z","30 day EVIX: 104.8682 ETH/USD vwap: $1,623.49 04/16 expiry volume: $1,640,885.14 04/30 expiry volume: $6,739,898.91 Current time: 05:29:07",0,0
1375318968882319362,"2021-03-26T05:29:29Z","BREAKING: in a statement AbiyAhmed released, he said #Eritrea agreed to withdraw its forces immediately. This is antagonistic to what he said to the Eth. Parliament that Eritrean forces will remain in #Tigray for unspecified period. Could be a tactic to ease pressure. @Reuters https://t.co/4w1wwVWD2H",134,0
1375318955733094400,"2021-03-26T05:29:25Z","I am doing the same 100K $VRA from me, when it hits 10 cents for lucky person who 1- ❤ 2- RT 👉 3-follows me 4-follow @verasitytech and 5- follow my favourite project @HailDraconis 🦎 comment below your eth address. Will randomly choose a winner. When VRA hit the 10c mark. 🤑😎 https://t.co/EAi3QMn0Aq",386,0
1375318934753280004,"2021-03-26T05:29:20Z","I am doing the same 100K $VRA from me, when it hits 10 cents for lucky person who 1- ❤ 2- RT 👉 3-follows me 4-follow @verasitytech and 5- follow my favourite project @HailDraconis 🦎 comment below your eth address. Will randomly choose a winner. When VRA hit the 10c mark. 🤑😎 https://t.co/EAi3QMn0Aq",386,0
1375318934077861890,"2021-03-26T05:29:20Z","Leonidas Hadjiloizou  has tweeted that the court has yielded to Ripple's request to compel the securities regulator, the SEC, to produce documentation regarding why it approved Bitcoin and Ethereum as non-securities. https://t.co/olfNeva0Y4",262,0
1375318933960556545,"2021-03-26T05:29:20Z","@Z_cryptoz My first drop (1 ETH): https://t.co/lU2fM2aQzs",1,0
1375318922065367041,"2021-03-26T05:29:17Z","I will be giving away $1000 $USDT 🎁 to 5 (x200) people who: 1. Follow me 2. Retweet this 3. Like the post  To get double ($400) if you win, tag 2 friends in the comments!  Contest ends on the 25th of March. GL!  ---  #crypto #defi #nfts $btc $eth $doge $cake $uni $ada $dot $luna https://t.co/oT3KA0auWp",651,0
1375318920010199040,"2021-03-26T05:29:17Z","New #digitalcurrencyalien #NFT pixel art available on https://t.co/zm1A0zl48c Limited to 1 mint each for 150+ artworks available using $ETH! RT for some free #Bitcoin !!  @coinkit_ com 50 1000 BTC #NFT",207,0
1375318919305555973,"2021-03-26T05:29:17Z","The DEX @FinanceChainge is set to launch on the @FUSIONProtocol network with over a million users on the protocols waitlist. This decentralized exchange aims to innovate on traditional models through leveraging the Fusion Network.  #BSC #BTC #ETH #BNB  https://t.co/xx55YiGfm3",21660,0
1375318919297204225,"2021-03-26T05:29:17Z","$QTUM DONE 68% 👉 Join Channel: https://t.co/Cg2lD5ExP8  $BTC $ETH #NFT $PERL $ENJ $FLOW $THETA #BSC $REEF $LUNA $SAND $AXS $TVK $HOGE $CHZ $STX $ROSE $TROY $ONE $CERL $IRIS $ANC $ADA $DIA $XRP $DOGE $ATOM $LUNA $ZCX $BNB $WABI $LTO $CVC https://t.co/Az42BzveEW",4,0
1375318915857883136,"2021-03-26T05:29:16Z","🔥ALL WORK ON @KnownOrigin_io SOLD OUT🔥  🦄Just ONE 1/1 Available🦄  🍭 Lollipop 2021 Sabet🍭  💎1 of 1 • Now Available for Ξ 25.0💎  ♥️Grateful to all of you who have collected! Time to take a long break.♥️  https://t.co/pNpziEHTTS  #cryptoart #NFT #cryptoartist #ETH",78,0
1375318900276006915,"2021-03-26T05:29:12Z","BUNNEH’s #NFT is a #MentalHealth initiative we created!  Please get involved!! All funds from #BUNNEHs #NFT are being used to fund Mental Health Therapy for a loved one! Contribute to a fantastic cause https://t.co/pDr0GrcdGn  All NFT starting 0.005 $ETH @coinkit_ mon 25 1000 BTC",171,0
1375318887131062274,"2021-03-26T05:29:09Z","RT @QuintenFrancois: This is why $ETH is here to stay... https://t.co/USHKA6o26A",2745,0
1375318884027367425,"2021-03-26T05:29:08Z","#Macrophages in the bone marrow erythroblastic island (EIM) &amp; splenic red pulp (RPM) are required for terminal erythropoiesis &amp; removal of aged erythrocytes. Okreglicka, Kopf @ETH_DBIOL et al. show that EIM &amp; RPM development require both PPARγ and Spi-C https://t.co/twRVipO6si https://t.co/sZtkagOSFB",16,0
1375318876037152770,"2021-03-26T05:29:06Z","I had some ETH sitting around so claimed HypeSneakr #73/10000.  I'm not sure about NFTs but thought this was worth the experiment fee.  @hypesneakrs / https://t.co/Lk1jHkhTf2",9,1
1375318868676157442,"2021-03-26T05:29:05Z","new discord profile pic made by @meluhdeeart   100% worth the commission, you guys should slide in her DMs with some ETH :D https://t.co/rMmgjkQ1sI",19,1
1375318862971867141,"2021-03-26T05:29:03Z","🌋#ATD #Giveaway is on now! @a2dao_ 🌋  10 lucky users will receive $30 each in #ATD ✨  1️⃣Login &amp; Participate ☀️ https://t.co/wrbe0JlJuK   2️⃣Retweet and @ a friend  #DeFi #crypto #ALTSEASON #ETH #NFT https://t.co/oq0O5RbPbj",307,1
1375318844437372930,"2021-03-26T05:28:59Z","#NFT artists I’ve had a few drinks tonight and I’m feeling good, send me your art and I’ll RT all of it. I don’t have much $ETH, so I can’t say I’ll buy it. Who knows maybe your buyer will see. Don’t gotta follow me or nothin, just show me some work you’re proud of.",85,1
1375318834459111425,"2021-03-26T05:28:56Z","@satsdart All those promises Vitalik made, they must be worth at least something. ETH 4.0 fixes this.",0,0
1375318816805302279,"2021-03-26T05:28:52Z","RT @mannersmak_eth: $KLV burn today 🔥",127,0
1375318816624947201,"2021-03-26T05:28:52Z","@nft_bets My first drop (1 ETH): https://t.co/lU2fM2aQzs",2,0
1375318813382639618,"2021-03-26T05:28:51Z","RT @Rob_Gryn: If you were to HODL for 3 years would you choose $10,000 in BNB or ETH?",68,0
1375318811486920705,"2021-03-26T05:28:51Z","BREAKING: in a statement AbiyAhmed released, he said #Eritrea agreed to withdraw its forces immediately. This is antagonistic to what he said to the Eth. Parliament that Eritrean forces will remain in #Tigray for unspecified period. Could be a tactic to ease pressure. @Reuters https://t.co/4w1wwVWD2H",134,0
1375318809213595648,"2021-03-26T05:28:50Z","@johnpetersMD I think you’d have to create a MakersPlace account to download the pdf. Also, they’re hard to find on OpenSea. I listed 2 more I found for 1.5 in another comment under the original post. I think there’s a 2 after that and then the next bump is substantial. Like near 10 ETH.",3,0
1375318806399188995,"2021-03-26T05:28:50Z","The DEX @FinanceChainge is set to launch on the @FUSIONProtocol network with over a million users on the protocols waitlist. This decentralized exchange aims to innovate on traditional models through leveraging the Fusion Network.  #BSC #BTC #ETH #BNB  https://t.co/xx55YiGfm3",21660,0
1375318789521215491,"2021-03-26T05:28:46Z","I'll send $500 in #ETH or #BTC to one person who retweets this and follows @bud_crypto. Must complete these tasks:  1 - Like/RT his pinned tweet  2 - Must RETWEET &amp; LIKE 4 of his tweets  Ends in 72 hours!",1406,0
1375318787436670982,"2021-03-26T05:28:45Z","@ArtVanDlay1 4 Sales already, averaging over 1 ETH, is very good progress already for someone new to the space, just be patient  I generally air on the side of clearing out unsold inventory &amp; not over-minting (see below) but you ultimately know your collector base best https://t.co/cvCxdaTbcd",1,0
1375318783880011777,"2021-03-26T05:28:44Z","BREAKING: in a statement AbiyAhmed released, he said #Eritrea agreed to withdraw its forces immediately. This is antagonistic to what he said to the Eth. Parliament that Eritrean forces will remain in #Tigray for unspecified period. Could be a tactic to ease pressure. @Reuters https://t.co/4w1wwVWD2H",134,0
1375318774019018753,"2021-03-26T05:28:42Z","🚀 Pluto Coin  Airdrop 🚀 Rate: ⭐⭐⭐⭐ ⭐ 🎁 Reward:  8822 PLUT ($1500) 👫 Referral: 40.5 PLUT  ($7)  🤖Start Bot here   https://t.co/x5JZchojO8  ⛂ Join Telegram group and channel. ⛂ Follow twitter &amp; retweet  ⛂ Submit ETH address and details.",6005,0
1375318762216288261,"2021-03-26T05:28:39Z","We are preparing for our #marketing push for $FEG! Please #donate to this address with either #ETH or #BNB to help us out! This is so important guys! I seriously cannot stress enough how important it is that we have big funds!  Address: 0x192525b291A360e7c04b323b6ad174BDc6C97055",423,0
1375318736807284737,"2021-03-26T05:28:33Z","💰 Minted 1.994 #renBTC (105,608.35 USD) on #ETH. Darknodes fee: 0.0050 #BTC (264.02 USD) https://t.co/WMCoAiCNB1",1,0
1375318707698819074,"2021-03-26T05:28:26Z","🔥 New #NFTs art available on @rariblecom 🔥  Diamond Hands  #Ethereum #ETH  #NFT   Discover it here 👇 https://t.co/Ur901dKF9k https://t.co/doGogXRdVq",69,0
1375318707262554118,"2021-03-26T05:28:26Z","We already have more than 800 follomwers! To celebrate this I will launch another #Giveaway #NFT   I will give away 1 #CryptoCheems, the winner will receive a CryptoCheems that costs 0.1 ETH.  Terms:  1. Follow us 2. Retweet  Ends will take place on March 27 at 20:00 EST",69,0
1375318703244509184,"2021-03-26T05:28:25Z","BUNNEH’s #NFT is a #MentalHealth initiative we created!  Please get involved!! All funds from #BUNNEHs #NFT are being used to fund Mental Health Therapy for a loved one! Contribute to a fantastic cause https://t.co/pDr0GrcdGn  All NFT starting 0.005 $ETH @coinkit_ mon 25 1000 BTC",171,0
1375318682000355330,"2021-03-26T05:28:20Z","🏆 Follow us &amp; Retweet this tweet, Specify the ETH address in the tweet comment to get 10 #BIT ($10 worth) or 50 #BIT ($50 worth) #BitScores Airdrop Tokens! 🎁 $250,000 Prize Pool Full rules: https://t.co/N53M5nRXr9  #giveaway #airdrops #bounty #giveaways #defi #eth #btc #airdrop https://t.co/m77hDtRsBv",3577,0
1375318676295933956,"2021-03-26T05:28:19Z","@BigCheds Indeed! no one can save ur back but your wise decisions. I have been trading #crypto with @officialmudrex  They have such great support documents &amp; videos to understand how it works.   It's safe, simple and intuitive!  $BTC $ETH #BTC #ETH #ETHEREUM #BITCOIN #CRYPTO #DOGECOIN https://t.co/kx3rxbJVXq",0,0
1375318676056997892,"2021-03-26T05:28:19Z","RT @scoinaldo: We aren’t finished before $BTC 150k and $ETH 9k.  Good Night 🌙",3062,0
1375318661406265344,"2021-03-26T05:28:15Z","💰8,706 #ETH (13,813,317 USD) move from #gopax to unknown wallet   Date : 2021-03-26 05:26:37 (GMT 0) Blockchain : #ETHEREUM Symbol : #ETH   Detail: https://t.co/3aMp01p2M4",0,0
1375318655945216000,"2021-03-26T05:28:14Z","The easiest alpha in the market today is still the price of $ETH  Most still don’t understand it’s the most credibly neutral and most trustless form of collateral powering the ETH ecosystem   Under-exposed, under-appreciated, and under-estimated describes the current sentiment",0,0
1375318641126768646,"2021-03-26T05:28:10Z","Farming #SISHI starts in 21 #hours. Only Max Supply 21 Mils #SISHI.  TVL before farming: 48,787 $BUSD  Website: https://t.co/XywmL6ov2f  TG- https://t.co/LDjYxqnUUz  #BinanceSmartChain #Binance #ETH #YieldFarming  #DeFi #BTC #crypto https://t.co/aPUctAhDMe",0,0
1375318605328355330,"2021-03-26T05:28:02Z","New #digitalcurrencyalien #NFT pixel art available on https://t.co/zm1A0zl48c Limited to 1 mint each for 150+ artworks available using $ETH! RT for some free #Bitcoin !!  @coinkit_ com 50 1000 BTC #NFT",207,0
1375318595199250432,"2021-03-26T05:27:59Z","@nftool My first drop (1 ETH): https://t.co/lU2fM2aQzs",0,0
1375318582016536576,"2021-03-26T05:27:56Z","🚨  8,706 #ETH (14,126,541 USD) transferred from #Gopax to unknown wallet  https://t.co/nP8iClzIxm",40,2
1375318569156800514,"2021-03-26T05:27:53Z","Ripple Scores Goal: Court Assigns Telephonic Conference on #SEC Documents Regarding #BTC and #ETH  Here comes the 🔥   HODL #XRP!! 📈📈📈 https://t.co/3HjYFhN28R",555,2
1375318566119952388,"2021-03-26T05:27:53Z","New Airdrop: Diamond Crystal (DCT) Reward: 100 DCT ($100) Rate: ⭐️⭐️⭐️⭐️ Focus: Distribution starts after airdrop ends   Bot Airdrop Link: https://t.co/9Qzk47HUKt  #Airdrop #giveaway #BTC #ETH",4033,2
1375318558289272833,"2021-03-26T05:27:51Z","New Airdrop: Diamond Crystal (DCT) Reward: 100 DCT ($100) Rate: ⭐️⭐️⭐️⭐️ Focus: Distribution starts after airdrop ends   Bot Airdrop Link: https://t.co/9Qzk47HUKt  #Airdrop #giveaway #BTC #ETH",4033,2
1375318536969547778,"2021-03-26T05:27:46Z","@elonmusk - new #doge video for - #JonHopkins - #Singularity   🚀🚀🚀🚀  #DogecoinRise #dogecoin $ELON $bELON #ETH #BSC #NFT https://t.co/9seSuwFutX",36,2
1375318524814532608,"2021-03-26T05:27:43Z","#NFTartist share me your art! 7.5 ETH to buy some #NFTs tonight.  1. Follow me 2. Like and retweet 3. Drop your NFTs in the comments, I'll buy your art! #NFTs #nft #nftcollector #nftart #cryptoart #nftcollectors #NFTcollectibles",281,2
1375318522205732867,"2021-03-26T05:27:42Z","🚀 Pluto Coin  Airdrop 🚀 Rate: ⭐⭐⭐⭐ ⭐ 🎁 Reward:  8822 PLUT ($1500) 👫 Referral: 40.5 PLUT  ($7)  🤖Start Bot here   https://t.co/x5JZchojO8  ⛂ Join Telegram group and channel. ⛂ Follow twitter &amp; retweet  ⛂ Submit ETH address and details.",6005,2
1375318519508779008,"2021-03-26T05:27:41Z","@EpikNFT My first drop (1 ETH): https://t.co/lU2fM2aQzs",1,1
1375318510906171392,"2021-03-26T05:27:39Z","$ONT usdt-pair GIVEAWAY.  When it reaches the target (1.4148) before march 27, I will give 100USDT to a random person who 1) follows me 2) likes the tweet and 3) retweets  $BTC #Bitcoin #crypto $eth $ada $doge $link $sxp $fet $reef $vet $alice https://t.co/n0fJr9BIWt",59,1
1375318507366150144,"2021-03-26T05:27:38Z","💰What’s your #ETH wallet address?  🚀Don’t ask why, just drop it below👇  🚀Like、Retweet &amp; Tag ALL U CAN  🚀 USDT-NFTs has been listed on Uniswap！  🚀 The contract address: 0x6599fc3e77cbfa6f6e9cac605a30b1e78827eba0  #NFTs #NFT #AIRDROP #UNISWAP https://t.co/H29ZBOR0aL",1387,1
1375318492543520772,"2021-03-26T05:27:35Z","🏆 Follow us &amp; Retweet this tweet, Specify the ETH address in the tweet comment to get 10 #BIT ($10 worth) or 50 #BIT ($50 worth) #BitScores Airdrop Tokens! 🎁 $250,000 Prize Pool Full rules: https://t.co/N53M5nRXr9  #giveaway #airdrops #bounty #giveaways #defi #eth #btc #airdrop https://t.co/m77hDtRsBv",3577,1
1375318491822051328,"2021-03-26T05:27:35Z","@bbands @BigCheds If you want to be a part of that community that trades smartly then you should be with  @officialmudrex   #algotrading. I have never been more content investing through them.Such deep analysis and models used! If I were you, I'd be smarter!  $BTC $ETH #BTC #ETH #ETHEREUM #BITCOIN https://t.co/K7C0OYYYmF",0,0
1375318489871704064,"2021-03-26T05:27:34Z","@iamwesselart @brain__pudding_ @_loopymoon @clair_voy_ant @JasperAYork @210BIGJAE @GummyLsd @cryptomon_eth @Crypto888crypto @reylarsdam @pepe_relax @Giantsecret @UnemployedAlien @BadlyDrawnSS @WDKPWR @blacknftart @swamp_sludge @icas_artist @elti_uk @nekosmother @CryptoHarambes I am pretty sure I can smell this picture! That looks so good!",6,0
1375318480468201472,"2021-03-26T05:27:32Z","Order successful!  LAND Coordinates: [45, -100] Price: 5,999 $MANA ($5,268.97 USD = 2.9412 $ETH)  Purchased by https://t.co/JziM8AtbZ1 from https://t.co/01I1rkinal  https://t.co/DJRLnkqxWZ #decentraland #land #parcel #estate #mana https://t.co/mnKjpHiOq6",3,0
1375318473509908484,"2021-03-26T05:27:30Z","I imagine a solution might be publishing the NFT owner on the $ELA chain, &amp; manage it via an $ETH side chain smart contract w/DiD integration. Metadata URLs &amp; NFTs (encrypted) would be distributed via hive++ on a multitude of nodes. Scalable, &amp; gives all control to the owner.",5,0
1375318423270535169,"2021-03-26T05:27:18Z","@nftbuyer Have 5 cards 0,06 eth each (no bids just simple trading for 1 time for me - check out:)  Cause i want to create another 5 cards on the next week, its good investing  https://t.co/6C3MiFTJHV",0,0
1375318421081100290,"2021-03-26T05:27:18Z","🚨 NFT GIVEAWAY🚨  I'm giving away one of my new Cryptosaturns!  #04 Culture All you have to do is;   🪐Follow me! 🪐Like! 🪐Retweet!  I'll message the winner asking for their ETH wallet address. Good Luck! #nft #NFTs #nftcollector  #nftgiveaway #nftart #nftartist #cryptoart https://t.co/4d9qMeWwnf",210,0
1375318421051609089,"2021-03-26T05:27:18Z","RT @QuintenFrancois: This is why $ETH is here to stay... https://t.co/USHKA6o26A",2745,0
1375318420519059456,"2021-03-26T05:27:18Z","Ⓜ️#BucksCake Another #Cake #AirdropⓂ️ ✴️ 1.25 BKC ($25) 👨‍👩‍👧‍👧Refer = 0.25 BKC  AAD RATE ⭐️⭐️⭐️ 3/5  Signup in website then show your telegram Bot 👉⚡️1 BKC = ~ $20  👉 https://t.co/0iD2VCh6BX  1. Retweet + Like #CTBot Adrop Ram 2 TRX 80 #btc #eth #bnb #bsc #free #bonus #money #DeFi https://t.co/LWSxyTmLcM",68,0
1375318407462088706,"2021-03-26T05:27:15Z","There’s a 300 INV reward for supplying ETH (including as collateral to borrow DOLA) and an additional 300 INV for borrowing ETH  Which means lending and borrowing ETH have different APYs depending on total borrowed and supplied  Both APYs will be added to the interface soon",83,0
1375318395806216194,"2021-03-26T05:27:12Z","$IGG $MATIC  $CHAIN $ATRI #BTC #ETH  @IG_Galaxy  @Naeem_IGG @Josh_IGG @0xPolygon @sandeepnailwal @ScottDBMe @QuickswapDEX @RealChainGames @atari  IGG 4 Hour chart analysis. Do not miss buying this undervalued low cap gem. Easy 10X candidate. https://t.co/1mr8hLQhNF",61,0
1375318370149675011,"2021-03-26T05:27:06Z","Order successful!  LAND Coordinates: [45, -100] Price: 5,999 $MANA ($5,268.97 USD = 2.9412 $ETH)  Purchased by https://t.co/JziM8AtbZ1 from https://t.co/01I1rkinal  https://t.co/DJRLnkqxWZ #decentraland #land #parcel #estate #mana https://t.co/mnKjpHiOq6",3,1
1375318364625702912,"2021-03-26T05:27:04Z","➡️💰 Deposited 16.15 ETH ($26,196.24) https://t.co/jQFBqsKogD",0,0
1375318352608907269,"2021-03-26T05:27:02Z","I will be giving away $1000 $USDT 🎁 to 5 (x200) people who: 1. Follow me 2. Retweet this 3. Like the post  To get double ($400) if you win, tag 2 friends in the comments!  Contest ends on the 25th of March. GL!  ---  #crypto #defi #nfts $btc $eth $doge $cake $uni $ada $dot $luna https://t.co/oT3KA0auWp",651,0
1375318330744172544,"2021-03-26T05:26:56Z","@gatomercado My first drop (1 ETH): https://t.co/lU2fM2aQzs",0,0
1375318319755001860,"2021-03-26T05:26:54Z","BiKi🤝SAKE  🉑🉑🉑 #SAKE users can now transfer funds onto the $ERC and #BSC smart chain network with BiKi.   🔴Remember to use the new corresponding address when depositing onto and withdrawing from the BSC public chain.  #Cryto #DeFi #Ethereum #ETH #Crytocommuity https://t.co/Up9EwvJqwx",16,0
1375318317678927875,"2021-03-26T05:26:53Z","The account is sponsored by #Maanky 🐵 #BTC #Bitcoin #ETH #FOREX Economic data coming up in the European session https://t.co/VGPtNdvsDh",0,0
1375318309571203072,"2021-03-26T05:26:51Z","Welcome to massive Q DAO airdrop!   1. go now to telegram https://t.co/COyXgODY1z   2. Stay in telegram chat and wait announcement.  3. HOLD this gem until 10x   (soon - QDAO launch cross-chain for BSC, Polkadot and ETH)",4254,0
1375318300037509127,"2021-03-26T05:26:49Z","#DeFi #BKC #eth2 #BucksCake  ANNOUNCEMENT!  Dear BucksCake's community members!  The exact date of BKC listing on Uniswap set for 04/20/2021!  2 days before it, the exact opening time of the trading pair BKC/ETH on Uniswap...  More at https://t.co/RQPMhjazG2 https://t.co/VjtBbXBA1t",2855,0
1375318296220856320,"2021-03-26T05:26:48Z","@MinaTerra1 Have 5 cards 0,06 eth each (no bids just simple trading for 1 time for me - check out:)  Cause i want to create another 5 cards on the next week, its good investing  https://t.co/6C3MiFTJHV",1,0
1375318288712994821,"2021-03-26T05:26:46Z","BREAKING: in a statement AbiyAhmed released, he said #Eritrea agreed to withdraw its forces immediately. This is antagonistic to what he said to the Eth. Parliament that Eritrean forces will remain in #Tigray for unspecified period. Could be a tactic to ease pressure. @Reuters https://t.co/4w1wwVWD2H",134,0
1375318288415272962,"2021-03-26T05:26:46Z","Acquisitions and partnerships are an excellent means of achieving a project’s goal; @autofarmnetwork 's partnerships can help align the project’s goals and objectives in value-driven ways for the platform users.  #BinanceSmartChain #BSC #BTC #ETH #BNB https://t.co/oruZoMR1Oq",95,0
1375318286590570496,"2021-03-26T05:26:46Z","Hurry up or you will reget ! The biggest chance ever on Crypto Market to earn money with ~ Zero Risk 🔥🔥 Stake $BTC - $ETH - $BNB - $BUSD - $USDT and earn crazy High 💪💪💪 and Stable Apy on #LaunchzonepoolX Big thanks to @cz_binance for #Bsc - The best chain on #Defi market! https://t.co/Hs5wVLGe4J",68,0
1375318271860170755,"2021-03-26T05:26:42Z","Just minted the first piece from the POST-HUMAN Serie.  PLUGGED  starting at 0.33333333333333333333333333 ETH  only @withFND! 🌐  https://t.co/USIXdEfK99   #NFT  #cryptoart #cryptoartist",12,0
1375318259445202945,"2021-03-26T05:26:39Z","The @HyruleSwap Transcript from Mar 23rd's AMA is now live on our site.  https://t.co/Vej9vEVooU Hosts @skullkidswap and Great Deku from Hyruleswap, the most advanced yield platform in the Kingdom.  #BinanceSmartChain #BSC #BTC #ETH #Ethereum #BNB",39,0
1375318250024751106,"2021-03-26T05:26:37Z","@elonmusk - new #doge video for - #JonHopkins - #Singularity   🚀🚀🚀🚀  #DogecoinRise #dogecoin $ELON $bELON #ETH #BSC #NFT https://t.co/9seSuwFutX",36,0
1375318248661598209,"2021-03-26T05:26:37Z","The @pepemonfinance Transcript from Mar 23rd's AMA is now live on our site.  https://t.co/Vej9vEDN0k Hosts Pepemon Finance, a digital collectible card game on blockchain owned by players.  #BinanceSmartChain #BSC #BTC #ETH #Ethereum #BNB https://t.co/sBFNca2EtR",36,0
1375318239102787586,"2021-03-26T05:26:35Z","🚨 NFT GIVEAWAY🚨  I'm giving away one of my new Cryptosaturns!  #04 Culture All you have to do is;   🪐Follow me! 🪐Like! 🪐Retweet!  I'll message the winner asking for their ETH wallet address. Good Luck! #nft #NFTs #nftcollector  #nftgiveaway #nftart #nftartist #cryptoart https://t.co/4d9qMeWwnf",210,0
1375318237374713856,"2021-03-26T05:26:34Z","The team has expressed deep sadness in what it believes to be a cutting short of the project’s expectation and short-lived dream. However, it has decided to head for closure as it doesn’t wish to continue its operation. @nyanswop  #BSC #BTC #ETH https://t.co/A5KkiXnGJR",33,0
1375318233276768259,"2021-03-26T05:26:33Z","Like a sleeping giant the Inverse Finance DAO suddenly awakens!   A new proposal squarely aimed at rewarding Curve &amp; Uniswap LPs.   A second incentivizes LPs on Ruler protocol.  A third, passed, queued, is geared towards rewarding ETH lenders and  borrowers on Anchor.  INV 👀 https://t.co/t7vskNuoab",39,0
1375318231473393665,"2021-03-26T05:26:33Z","Wagerr aims to become the hub of all sport-betting activities. Sports lovers worldwide can take on betting using the decentralized application of @wagerrx without compromising quality and their identity.  #BinanceSmartChain #BSC #BTC #ETH #Ethereum #BNB  https://t.co/oxcRXXyrxN",77,0
1375318229439029249,"2021-03-26T05:26:32Z","@JRNYcrypto $INFI got my money bags 💰💰  📢 @InsuredFin's abt to launch the future of digital asset insurance 📢 #DigitalAssets can be stored in a fully insured vault 📢 Rewarded with great deals every allocation private sale deal!  #Bitcoin $NXM $COVER $BTC $ETH",0,0
1375318208857526272,"2021-03-26T05:26:27Z","@ui_crystal Especially Thanks for the opportunity ❤️ Great giveaway project 🥰 I hope $DCT are success and go to the moon 🚀 i think it is one of the best project in the world🤩   ETH Address: 0x7A6195EB099Bb0E9F990204e722A3b12d0B972c5 I have done All rules ✅✅   Good luck 🥰",2,0
1375318205401595906,"2021-03-26T05:26:27Z","The latest social media experiment on the blockchain, Bitclout, has been shrouded with controversies as it started getting into Crypto Twitter’s significant profiles attention in the wrong way.  #BinanceSmartChain #BSC #BTC #ETH #Ethereum #BNB #crypto  https://t.co/Rg3t4Re0fJ",37,0
1375318201282727937,"2021-03-26T05:26:26Z","💎  The Evening Trip 💎  ✨ Artwork by @xsullo 💰 Sold to arlogo for 15.0 ETH ($24,378.75)  https://t.co/alftTKtI32  #cryptoart #NFT https://t.co/41WqA6USm8",22,0
1375318182253244417,"2021-03-26T05:26:21Z","@SPACEO18 Have 5 cards 0,06 eth each (no bids just simple trading for 1 time for me - check out:)  Cause i want to create another 5 cards on the next week, its good investing  https://t.co/6C3MiFTJHV",0,0
1375318180629934084,"2021-03-26T05:26:21Z","#Going to bed at 10pm tonight. Trying something new. Hope you all had a #great day!  https://t.co/dtWVdWoFvC #ETH #smartcontracts #CATX",0,0
1375318176246886401,"2021-03-26T05:26:20Z","50% of DEGO/ETH Liquidity injected by the team is removed in accordance with Liquidity Migration Proposal.  https://t.co/mLwYjmx9Tt DEGO/BNB Liquidity be enhanced on #Pancakeswap by 8th April   #BSC @cz_binance @binance @BinanceChain @PancakeSwap https://t.co/IvODcqzPkW",169,0
1375318174695055362,"2021-03-26T05:26:19Z","There has been a proliferation of yield farming and launchpad platforms. It has become harder to see focused projects like @polarisdefi whose delivery is aimed at the quality output of its products and features.  #BSC #BTC #ETH #BNB #Bitcoin #DeFi #Crypto https://t.co/LLPLb2Q0cL",52,0
