"ID","created_at","text","like_count","rt_count"
1377183885147037699,"2021-03-31T08:59:59Z","The DEX @FinanceChainge is set to launch on the @FUSIONProtocol network with over a million users on the protocols waitlist. This decentralized exchange aims to innovate on traditional models through leveraging the Fusion Network.  #BSC #BTC #ETH #BNB  https://t.co/xx55YiGfm3",21535,13658
1377183883339309062,"2021-03-31T08:59:59Z","The #Secretary of DOS is outspoken against #Ethiopia and Prime Minister Abiy. What can that accomplish now? Can it bring #peace in Tigray? @POTUS @KamalaHarris @SecBlinken @CoryBooker @SenatorLeahy @BernieSanders @MarkWarner @RonWyden #UnityForEthiopia",11,12
1377183873746919431,"2021-03-31T08:59:56Z","DCT TOKEN Airdrop Medium Star Claim 1 DCT ($ 100) + 0.045 DCT ($ 10) for each referral you make.   Steps  💎  Join channel and group  💎  Follow twitter, like and retweet pinned message   💎  Submit eth wallet address (ERC-20) Participate now Airdrop link: https://t.co/L24stp8tVI https://t.co/CVYQyLAWwU",8692,8870
1377183865190588419,"2021-03-31T08:59:54Z","The DEX @FinanceChainge is set to launch on the @FUSIONProtocol network with over a million users on the protocols waitlist. This decentralized exchange aims to innovate on traditional models through leveraging the Fusion Network.  #BSC #BTC #ETH #BNB  https://t.co/xx55YiGfm3",21535,13658
1377183852481769475,"2021-03-31T08:59:51Z","Why vilify #Amhara? Does Sec Blinken know that terrorist #TPLF took land &amp; redrew the regional maps, in late 1980s killing thousands of Amhara’s by #ethnic cleansing. @POTUS @KamalaHarris @SecBlinken @ChrisCoonsCMUNC @Timkaine @SenMarkey @SenToddYoung #UnityForEthiopia",10,11
1377183847192743941,"2021-03-31T08:59:50Z","RT @QuintenFrancois: $ETH to $2500 in April or I'm giving away 0.3 $ETH to someone who retweets this.",4150,6184
1377183845867343872,"2021-03-31T08:59:50Z","Didn’t #TPLF take fertile farmlands of Amhara by genocide in the so called #Western Tigray? Where are the DOS, DODI, CIA, US diplomats in Addis? @POTUS @KamalaHarris @SecBlinken @ChrisCoonsCMUNC @Timkaine @SenMarkey @SenToddYoung @ChrisVanHolen #UnityForEthiopia",10,11
1377183844915277827,"2021-03-31T08:59:50Z","@cz_binance  #FREEcoin still remains the highest in terms of holders wallets in BSC, supported with a large community, and also available on ETH and TRX chains. FREEcoin is also a low cost and ideal start up crypto for all. LOOK into #FREEcoin and feel it's power! @FREEcoin_Rumo https://t.co/r1tDlJRbNZ",29,18
1377183839798239234,"2021-03-31T08:59:48Z","There are little tricks and #TPLF propaganda that mesmerized the US policy makers for a while now since November 2021. #ENDF prevented the destruction of a nation by #TPLF. Friends do not feed lies. #TPLF fed lies to the US and the US bought it. @POTUS @VP #UnityForEthiopia",20,19
1377183833758429193,"2021-03-31T08:59:47Z","RT @crypto_birb: $ETH bull market canceled",393,10
1377183819598495749,"2021-03-31T08:59:44Z","#EU &amp; #US should not abandon Ethiopia with hopeful 120 million people. #TPLF is dead &amp; buried. We must forge ahead a prosperous &amp; stable #HOA free from terrorists that want to destabilize Ethiopia from Western Capitals. US and EU must say no. @POTUS @VP #UnityForEthiopia",11,11
1377183818675720193,"2021-03-31T08:59:43Z","@cryptocevo I would probably be punished today for selling my ETH",1,0
1377183809582505986,"2021-03-31T08:59:41Z","The first exchange for #Tenset  token is here! We've just added an ETH/10set pair on #Uniswap  with a total of 2 mln$ liquidity. With  Guys... IT'S BEGAN 🔥🔥🔥🔥🔥🔥  ⬇️ Instructional Video. How to buy #10set on Uniswap  https://t.co/oQDPDLZjYz",351,127
1377183808819109893,"2021-03-31T08:59:41Z","The unfortunate conflict in Tigray is the making of #TerroristTplf. It attacked the #Divisions of N. Command of Ethiopia. It attacked #Eritrea to externalize the war in #HOA. It killed Eritreans. No benefit #EU sanctioning #Eritrea @StateDept @POTUS @SecBlinken #UnityForEthiopia",15,14
1377183807858561027,"2021-03-31T08:59:41Z","The DEX @FinanceChainge is set to launch on the @FUSIONProtocol network with over a million users on the protocols waitlist. This decentralized exchange aims to innovate on traditional models through leveraging the Fusion Network.  #BSC #BTC #ETH #BNB  https://t.co/xx55YiGfm3",21535,13658
1377183802770907141,"2021-03-31T08:59:40Z","#EU and #US must help with the elections in Ethiopia. They must stop the hate speech by #TPLF and #OLF terrorists. Then everybody benefits with prosperous and stable #Ethiopia. @POTUS @KamalaHarris @SecBlinken @ChrisCoonsCMUNC @SenToddYoung @ChrisVanHolen #UnityForEthiopia",11,10
1377183801525202948,"2021-03-31T08:59:39Z","Sigchains + Mobile Wallet = Easy Crypto and Send $NXS Fee: 0  Fee #ETH and #BTC...: ... Find the difference 😉 @NXSCommunity 🛰🛰🛰 https://t.co/71VrcUlTbw",72,26
1377183792608075781,"2021-03-31T08:59:37Z","@crypto_birb well the man isn't wrong about it. its very unlikely to happen and bull market doesn't depend on ETH but Bitcoin.",2,0
1377183779945504775,"2021-03-31T08:59:34Z","DCT TOKEN Airdrop Medium Star Claim 1 DCT ($ 100) + 0.045 DCT ($ 10) for each referral you make.   Steps  💎  Join channel and group  💎  Follow twitter, like and retweet pinned message   💎  Submit eth wallet address (ERC-20) Participate now Airdrop link: https://t.co/L24stp8tVI https://t.co/CVYQyLAWwU",8692,8870
1377183769958907911,"2021-03-31T08:59:32Z","#DeGate unique initial Social Media token offering:📣  To honor contributors to Crypto Assets on social media, DeGate offers an early opportunity to buy DG tokens at a preferential rate. 10 m DG tokens at $0.005  Start ➡️ March 29  https://t.co/5gPWIBwZea  #ETH #BTC #DeFi https://t.co/2qpuVZGJKm",1751,1359
1377183755861827587,"2021-03-31T08:59:28Z","DCT TOKEN Airdrop Medium Star Claim 1 DCT ($ 100) + 0.045 DCT ($ 10) for each referral you make.   Steps  💎  Join channel and group  💎  Follow twitter, like and retweet pinned message   💎  Submit eth wallet address (ERC-20) Participate now Airdrop link: https://t.co/L24stp8tVI https://t.co/CVYQyLAWwU",8692,8870
1377183742578487303,"2021-03-31T08:59:25Z","All aboard the $XDC moon ship! R3 Corda bridge complete! #XDC #XRP #ETH https://t.co/DRPzAThpgj via @YouTube  Big shout out to David for his great videos!!  #WeAreXDC",26,7
1377183713935564804,"2021-03-31T08:59:18Z","RT @QuintenFrancois: $ETH to $2500 in April or I'm giving away 0.3 $ETH to someone who retweets this.",4150,6184
1377183707048468487,"2021-03-31T08:59:17Z","We promise the comfort of our clothes. #anmazingfactory #kurti #Textile #quote #photo #WandaVision #ETH #Reliance #WINTER #snow #style #lifestyle #Livestream #XboxSeriesX #FPL #inspiration #Apple #Twitter #instagram #WhatsApp #tuesdaymotivations #onlineclasses #Trending #COVID https://t.co/CsCqODURpm",4,6
1377183704951349251,"2021-03-31T08:59:16Z","#EU and #US must support the Africa solution for GERD. @POTUS @KamalaHarris @SecBlinken @ChrisCoonsCMUNC @SenToddYoung @RonWyden @ChrisVanHolen @Timkaine @SenMarkey @CoryBooker @SenatorLeahy @BernieSanders @RepSaraJacobs @RepCicilline #UnityForEthiopia",11,10
1377183702376050694,"2021-03-31T08:59:16Z","🔥 The Membrana #Giveaway | Rules 🔥 =   - Step 1: Like &amp; Retweet + tag 3-5 People! - Step 2: Follow @MBN_global  - Step 3: Join https://t.co/gRf7daTz3A - Step 4: Send Proof!   Prize = 100$ in #BTC or #ETH  31/03, we will announce the winner!",1328,1434
1377183695069532162,"2021-03-31T08:59:14Z","#Humanitarian agencies are more in the news and rumor mills than helping in the humanitarian assistance. 70% of the humanitarian aid is done by #Ethiopia even when #TPLF is cutting telephone cables in Tigray. @POTUS @KamalaHarris @SecBlinken @ChrisCoonsCMUNC #UnityForEthiopia",12,12
1377183688400588807,"2021-03-31T08:59:12Z","Amb. Linda Thomas- Greenfield, speak the truth worthy of the US chair. Disguised #TPLF terrorists were shooting at ENDF, the #humanitarian drivers were encouraging this madness. @USAmbUN @POTUS @KamalaHarris @SecBlinken @ChrisCoonsCMUNC @StateDept #UnityForEthiopia",11,12
1377183686366359555,"2021-03-31T08:59:12Z","@mbsjq Hi! I shill only if asked. But I did received to under my posts nfts without asking 🤦🏼‍♀️... I'm not a collector yet because I don't have eth. I can understand the need and urgency instead.",0,0
1377183659766149129,"2021-03-31T08:59:05Z","Amb. Linda Thomas-Greenfield, the #TPLF mercenaries were also cutting cables &amp; looting medicines agitated by Alula Solomon in DC. Know thy fact. Take a refresher in diplomacy. @USAmbUN @POTUS @KamalaHarris @SecBlinken @ChrisCoonsCMUNC @StateDept #UnityForEthiopia",14,15
1377183653176832002,"2021-03-31T08:59:04Z","Humanitarian agencies on the ground are using aid as a weapon. Purposely help TPLF fugitives! America should know better the fact that humanitarian agencies are infiltrated by #terrorist TPLF. #UnityForEthiopia @Refugees @UNSCouncil @MSF @StateDept",12,13
1377183651427852289,"2021-03-31T08:59:03Z","Starlet by Cyber Shakti  1 of 1 • Now Available for Ξ 1.0  https://t.co/KWAOrSGZiv  @KnownOrigin_io  Art by @cybershakti  #cryptoart #NFT #cryptoartist #ETH https://t.co/VB82ifKWhg",22,3
1377183645039878145,"2021-03-31T08:59:02Z","🎉 SMARTX Airdrop 💖 Reward: Daily Free Earning  Don't skip Any Task Follow @AirdropsBoY  Create/Copy Coral wallet https://t.co/jQ12qLenWe  Submit Wallet https://t.co/g76SKNstF4 ✅Enter Ref cod✅  f1bjvk  ✅ Mendotry✅  @cctip_io draw 0.00001 ETH 199 @ctbot adrop avg 10 CTR 150 https://t.co/3RwmukWz87",26,58
1377183639461490691,"2021-03-31T08:59:01Z","RT @CryptoSait: $Btc $eth $flow $front $rdnr $chz $link $bnb $npxs $Hot $btt $dent $sashimi https://t.co/skEUiztyYR",54,3
1377183634969403394,"2021-03-31T08:59:00Z","#Egyptians and the #Sudanese scientists have proven that #GERD has no disadvantage to both countries. @joebiden @KamalaHarris @SecBlinken @StateDept @RepKarenBass @CoryBooker @SenRubioPress @RepMalinowski @SenatorRisch @ChrisVanHollen #UnityForEthiopia #SupportEthiopia",10,10
1377183628598243331,"2021-03-31T08:58:58Z","#Eritrean and #Ethiopian people have a bright future. Soon they #liberalize trade and build their #economies. @joebiden @KamalaHarris @SecBlinken @StateDept @RepKarenBass @CoryBooker @SenRubioPress @RepMalinowski @SenatorRisch @ChrisVanHollen #UnityForEthiopia #SupportEthiopia",14,16
1377183627566481417,"2021-03-31T08:58:58Z","@IAmRipoff #WeAgree $QNT $ETH $XRP $BTC",1,0
1377183627339952137,"2021-03-31T08:58:58Z","Which one of you whales decided to dump the daylight outta $ETH and $BTC today 😒😒😒  Jokes aside, DO NOT PANIC SELL, I repeat. DO NOT PANIC SELL!!!!  If you panic sell, you will open up another opportunity for the whales to repeat it again!!!",1,1
1377183623128829953,"2021-03-31T08:58:57Z","DCT TOKEN Airdrop Medium Star Claim 1 DCT ($ 100) + 0.045 DCT ($ 10) for each referral you make.   Steps  💎  Join channel and group  💎  Follow twitter, like and retweet pinned message   💎  Submit eth wallet address (ERC-20) Participate now Airdrop link: https://t.co/L24stp8tVI https://t.co/CVYQyLAWwU",8692,8870
1377183610466275335,"2021-03-31T08:58:54Z","It is the 10,000 #notorious criminals who were intentionally released from the Tigray #prison by the #TPLF, who created the #humanitarian crisis in the #Tigray region. @joebiden @KamalaHarris @SecBlinken @RepKarenBass @USAmbUN @ChrisCoonsCMUNC #UnityForEthiopia #SupportEthiopia",19,17
1377183604392951808,"2021-03-31T08:58:52Z","We all know that #homeoffice can sometimes be boring. But we have a fun way around it!   On Thursday, 15/4, at 18:30,  join @AV_ETH Events for an #online #gamenight.   Suggested games include #AmongUs, #codenames, #pictionary and more!   Register here: https://t.co/BOc4f9OpE5 https://t.co/aNj73V1078",2,0
1377183600878096389,"2021-03-31T08:58:51Z","$Btc $eth $flow $front $rdnr $chz $link $bnb $npxs $Hot $btt $dent $sashimi https://t.co/skEUiztyYR",54,3
1377183593529667590,"2021-03-31T08:58:50Z","Considering staking your ETH?   Use @CurveFinance to stake with Lido for a ~2% discount.  Adding to this, pool your tokens to earn 4.49% in base CRV + 10.23-25.58% in LP rewards + 15.51% in LDO rewards.  All while earning Eth2 staking rewards and maintaining exposure to ETH 🏝️ https://t.co/Tg3NPiPK3n",95,15
1377183591990358018,"2021-03-31T08:58:49Z","#GERD is the hope and dream of a hundred million #Ethiopians and several #African countries. Such a splendid hope cannot be extinguished by anyone. @joebiden @KamalaHarris @SecBlinken @RepKarenBass @USAmbUN @ChrisCoonsCMUNC @StateDept #UnityForEthiopia #SupportEthiopia",18,23
1377183585044590599,"2021-03-31T08:58:48Z","#Deep fake videos, #face swap, #synthetic media, #fake voice recording &amp; news stamps that are produced by z #TPLF diaspora desperados are means of disinformation to deceive the #US Gov, #EU, &amp; #Western media. @JoeBiden @KamalaHarris @SecBlinken #UnityForEthiopia #SupportEthiopia",19,20
1377183567998902273,"2021-03-31T08:58:44Z","🔸 New Listing🔸   #BKEX will list #DRYCAKE @DryCakeSwap🚀 🚀  - Trading pair: DRYCAKE/USDT - Trading time: 20:00 on Mar 29 (UTC+8)  🔹 🔹 More details: https://t.co/kC2IIebfTT  #Bitcoin #ETH #BKK #Blockchain https://t.co/w8CHyKXaUD",2449,3535
1377183559530639362,"2021-03-31T08:58:42Z","The #TPLF massacred thousands of the #Amhara people and buried them in #Wolkit-Tsegede-Tselemt and #Miacadra mass graves. @JoeBiden @KamalaHarris @SecBlinken @ChrisCoonsCMUNC @SenRubioPress @RepMalinowski @SenatorRisch @ChrisVanHollen #UnityForEthiopia #SupportEthiopia",19,22
1377183553469915147,"2021-03-31T08:58:40Z","We denounce gov, Inter'l agencies &amp; media outlets who echo &amp; influence their policies based on z covert &amp; overt and disinformation of the TPLF cadres, paid lobbyists, fake journalists, &amp; infamous foreign loyalists who miss the #TPLF. @POTUS @VP #UnityForEthiopia #SupportEthiopia",18,23
1377183551469154310,"2021-03-31T08:58:40Z","@mdudas @antiprosynth Why not just make a new Eth Address each time, takes less than 10 seconds.",1,0
1377183549447565313,"2021-03-31T08:58:39Z","RT @QuintenFrancois: $ETH to $2500 in April or I'm giving away 0.3 $ETH to someone who retweets this.",4150,6184
1377183542908612609,"2021-03-31T08:58:38Z","@blindclassic_ Could be a nice play that. Im still chilling in all my spot alt bags and have my ETH long going, may cut that if we go any deeper tho",1,0
1377183536264847361,"2021-03-31T08:58:36Z","What happened to the 'outstanding partnership' between US &amp; #Ethiopia? We put up with authoritarian #TPLF for 27 years. Now Ethiopia is reforming, let's find new ways of working together @POTUS &amp; @KamalaHarris. But first: #SupportEthiopia #UnityForEthiopia https://t.co/VOJ3eooKj5",21,25
1377183530459918338,"2021-03-31T08:58:35Z","We are seeing a new wave of ethnic-based attacks across #Ethiopia following @SecBlinken's irresponsible statements targeting #Amhara|s. Among those massacred in the #AmharaGenocide are innocent women and children. @POTUS @VP @ChrisCoonsCMUNC #UnityForEthiopia",24,26
1377183525531623426,"2021-03-31T08:58:33Z","New Airdrop: Diamond Crystal (DCT) Reward: 100 DCT ($100) Rate: ⭐️⭐️⭐️⭐️ Focus: Distribution starts after airdrop ends   Bot Airdrop Link: https://t.co/9Qzk47HUKt  #Airdrop #giveaway #BTC #ETH",3979,4240
1377183512114065410,"2021-03-31T08:58:30Z","The #TPLF check all criteria for war criminals. #MaikadraMassacre, female ENDF soldiers raped with objects, PoWs mistreated. Please accept a balanced POV from #Ethiopia|ns appalled by disinformation circulating. #UnityForEthiopia @TomTugendhat @SarahChampionMP",20,23
1377183510947975172,"2021-03-31T08:58:30Z","#NFTs on #Rewardiqa coming soon ! 🔥🚀🚀🚀👨‍🎨 #NFTCommunity  #nftcollector #NFTdrop #NFTGiveaway #REW #DeFi #BSCPAD #eth #btc #opensea #marketplace #bullrun #BinanceSmartChain https://t.co/Bo1M9Pox2L",820,756
1377183508959911938,"2021-03-31T08:58:30Z","New Airdrop: Diamond Crystal (DCT) Reward: 100 DCT ($100) Rate: ⭐️⭐️⭐️⭐️ Focus: Distribution starts after airdrop ends   Bot Airdrop Link: https://t.co/9Qzk47HUKt  #Airdrop #giveaway #BTC #ETH",3979,4240
1377183505503821829,"2021-03-31T08:58:29Z","Remember when @SecDef Lloyd Austin said 'we demand the right to protect our troops' after missile strikes in #Iraq? Every state has a responsibility to protect its army, including #Ethiopia! T #TPLF attacked, Ethiopia responded. @POTUS #SupportEthiopia #UnityForEthiopia",20,28
1377183502450388992,"2021-03-31T08:58:28Z","RT @QuintenFrancois: $ETH to $2500 in April or I'm giving away 0.3 $ETH to someone who retweets this.",4150,6184
1377183493990481922,"2021-03-31T08:58:26Z","T-minus 1 hour for our @ChainLinkGod NFT raffle! Only 100 minted👉2-hour window👉1 LINK cost to enter 🚀🚀🚀https://t.co/DXIkP5Kc16 #chainlink $LINK + $TLR #NFTs -- Look alive marines! raffle proceeds will go design a PAMP-worthy @SergeyNazarov NFT for the #LINK community!",90,14
1377183480971333632,"2021-03-31T08:58:23Z","Exclusive: Visa moves to allow payment settlements using cryptocurrency https://t.co/dyvxRrJIqG   #blockchain #crypto #btc #eth #payments #transaction #partner #money #movement #ecosystem #treasury #infrastructure #platform #dollar #currency #fintech #milestone #stablecoin",1,1
1377183480610615300,"2021-03-31T08:58:23Z","Be aware of the disinformation spread by #TPLF's political supporters. They are against reforms in #Ethiopia hence the coup. Here they claim Boko Haram victims as massacre victims in #Tigray. @ChrisCoonsCMUNC #SupportEthiopia #UnityForEthiopia https://t.co/wvnb8KNHej",20,24
1377183477154553867,"2021-03-31T08:58:22Z","@trustwalletweb @Cryptop007 @sazzy921 @THE_FREE_COIN I have been charged the ETH fee and the coins is there in er20. Does This means that the transaction was not successful and the coins returned?",0,0
1377183469730627590,"2021-03-31T08:58:20Z","Neeva Defi Airdrop Platform: ETH  Reward: 0.5 NVA ($10) Referral Reward: 0.1 NVA ($2) Complete all tasks  Distribution: June 1, 2021  1. Retweet + Like  #CTBot Adrop Ram 500 GO 40 https://t.co/S4BN0iZJPe",37,41
1377183467742535685,"2021-03-31T08:58:20Z","@Tyler10502 @binance For visa to use eth it needs an oracle like link.",1,0
1377183465225916419,"2021-03-31T08:58:19Z","@TR_myFF @Prof_Tekkers Nice. The ETH should be very manageable with a common GK",1,0
1377183456745058311,"2021-03-31T08:58:17Z","@haydentiff @HammerToe @_REIGNMAN_ @JoelKatz @GenoTac @WolfsburgMK1 Wait you want a BTC or ETH transaction on a trustless ledger? Why even? Yearn let's you on ramp fiat and swap directly Into liquidity pool and zap pairs. Similar to flr finance just more expensive. BC POW You want to transact any asset on a hyper/ overledger? -thats the xrpl dex",0,0
1377183447345549322,"2021-03-31T08:58:15Z","Top 5 Mentions Updated Every 5 Minutes   Start Time: Wed Mar 31 2021 09:33:14 GMT+0300 (GMT+03:00)   (BETA STAGE)  1- $ETH==&gt;513  2- $BNB==&gt;221  3- $XRP==&gt;153  4- $AMB==&gt;141  5- $HBAR==&gt;133  - $Bitcoin #Bitcoin $Crypto #Crypto $Altcoin #Altcoin -",0,0
1377183439745478659,"2021-03-31T08:58:13Z","Elliott Wave analysis, midweek review and month-end wrap up on BTC, ETH,... https://t.co/eWiF2JHXPe via @YouTube",0,0
1377183436356558856,"2021-03-31T08:58:12Z","Number 3/5 of the Horizons collection is up! #nftart #NFTartist #nftcollector #NFT #NFTCommunity #cryptoart #nftartists #nftart #NFTartwork #ETH   https://t.co/5wn4sjA6WC",6,3
1377183429377187842,"2021-03-31T08:58:11Z","@kokokocrypto Exclusive NFT Drop  My first NFT series MUSIC SHRINE Exclusively available on  @withfoundation  -- https://t.co/FW77JToQqO  Music Shrine is an abstract series that is a tribute paid to different music artists in the industry.  #cryptoart #NFTs #nftart #nftcollectors #eth #music https://t.co/rvBEX1rNRW",0,0
1377183427665874949,"2021-03-31T08:58:10Z","📢Scam Alert! ‼️Please be aware of scams‼️ There are fake groups, channels, and liquidity pools. We have not listed on Uniswap yet.   Here are our token information: HECO COOK: https://t.co/J5yvSaAENm BSC COOK: https://t.co/LL95w5pjvs ETH COOK: https://t.co/J23u3olh3N",245,152
1377183420174921735,"2021-03-31T08:58:08Z","Western media is not talking about TPLF corruption!Ethiopia’s hydropower project, the Grand Ethiopian Renaissance Dam was a theft scheme under #TPLF and now a unifying factor after the democratic change! @AJEnglish @cnni @BBCWorld @washingtonpost @VOAAmharic @VOANews",20,24
1377183418589405185,"2021-03-31T08:58:08Z","RT @AmeerRosic: If you are long ETH. https://t.co/jgSGJmOUCH",21,1
1377183412251807745,"2021-03-31T08:58:06Z","RT @QuintenFrancois: $ETH to $2500 in April or I'm giving away 0.3 $ETH to someone who retweets this.",4150,6184
1377183405528379397,"2021-03-31T08:58:05Z","📢 $ONX celebrates its new design!   Go to https://t.co/kvpB173eZq and check it out🎉  More news is coming, stay tuned!  $DEFI $ETH $AETH $ANKR $SUSHI $BOND https://t.co/7S3IKSL0Zi",81,21
1377183404890877952,"2021-03-31T08:58:05Z","1,111 is LIVE! https://t.co/4dfbDWhCkH  1,111 unique animated NFTs with varying levels of rarity are up for grabs while supplies last. Some for $ETH and some for $SMOL. RT and tag 3 friends to be entered to win 1 of the 1,1111 after the sale is over!  #nftcollector https://t.co/w91KkK8Yih",172,133
1377183402558779401,"2021-03-31T08:58:04Z","The DEX @FinanceChainge is set to launch on the @FUSIONProtocol network with over a million users on the protocols waitlist. This decentralized exchange aims to innovate on traditional models through leveraging the Fusion Network.  #BSC #BTC #ETH #BNB  https://t.co/xx55YiGfm3",21535,13658
1377183399593451521,"2021-03-31T08:58:03Z","The #UK needs to respect sovereignty of #Ethiopia &amp; acknowledge its own role in nurturing TPLF impunity. Most, if not all, of Ethiopia's current problems stem from 3-decades of state capture, terror and misrule! #SupportEthiopia @UKParliament #UnityForEthiopia",27,34
1377183399471837190,"2021-03-31T08:58:03Z","RT @Anthony00439858: Claim free ETH every 30 mins  https://t.co/ZwjU3cDVT7  1. Retweet + Like  #CTBot Adrop Ram 0.3 DOGE 55",28,32
1377183397404020739,"2021-03-31T08:58:03Z","Every 🐻from April onwards waiting for their buy orders to fill. Where is the next bull trap at you say? $200k? Have fun staying poor 🚬 #Crypto $BTC  $ETH $Ocean $link $TRB $AST $Wabi $RSR $Ada $Dot https://t.co/tplq4rCyRu",4,0
1377183392265953280,"2021-03-31T08:58:02Z","💧YetuBit Airdrop 2nd Round💧  🏆 Task:          ➕  25 YETU (~$20)  👨‍👩‍👧 Referral:   ➕  5 YETU (~$4)  🔛  Airdrop Link &amp; Information: https://t.co/ZoGw3AR71I  #cryptocurrency #Crypto #Bitcoin  #BSC #BinanceSmartChain #Ethereum #ETH #Airdrop #bounty #YetuBit #YetuSwap #YETU",4426,5632
1377183385236303875,"2021-03-31T08:58:00Z","The a, b, and c of the Tigray conflict in Ethiopia is that TPLF had provoked it! @CNNPolitics @CNN Report the truth please! @nimaelbagir #UnityForEthiopia",24,26
1377183383869124608,"2021-03-31T08:58:00Z","@girlgone_crypto Since I am stocking on up $NGM anyway, I decided to stake it on @AscendEX_Global.  It would be a shame to miss on some passive income opportunity while waiting for my favorite #altcoin moons which is about to happen as some exciting things like #ETH bridge and #Uniswap are ahead! https://t.co/MtnYG3rdwq",6,5
1377183370396889088,"2021-03-31T08:57:56Z","Did @nimaelbagir report about MaiKadra at all? 1300 plus massacred by TPLF! @cnni #UnityForEthiopia Interviewing TPLF criminals hiding in refugee camps is in Sudan is easy!",19,24
1377183363304284161,"2021-03-31T08:57:55Z","RT @NFTipsy: #NFTartist selling their #NFTs below 0.3 #ETH shill your stull!!! 🔥 Follow &amp; 🔥 RT 🔥 I will retweet your #cryptoart 🔥 Let’s gro…",151,48
1377183354064228356,"2021-03-31T08:57:53Z","The ones asking for unhindered humanitarian access to #Tigray  @AmnestyEARO @hrw  where are you now?  of-course you were shouting to rescue  #TPLF &amp;  orchestrate your cheap political agenda NOT the people!!! Int community is watching ... #UnityForEthiopia https://t.co/uqJloj3tKq",13,17
1377183352034258945,"2021-03-31T08:57:52Z","HAWT. With my partnership with @illuviumio I can give away 100 HOLOGRAPHIC Scoot Scarabok NFTs.  Similar ones have gone for 5 eth to 50 eth.  How to get -Post your ETH address + BATTLE SCOOT! below -Retweet/tag a friend -Follow @illuviumio and join their discord in bio https://t.co/xcCVVW6KdR",2754,2661
1377183322388930564,"2021-03-31T08:57:45Z","RT @Anthony00439858: Claim free ETH every 30 mins  https://t.co/ZwjU3cDVT7  1. Retweet + Like  #CTBot Adrop Ram 0.3 DOGE 55",28,32
1377183311500484608,"2021-03-31T08:57:42Z","Slow 153 | Normal 161 | Fast 168 | Instant 181 👈 current Ethereum gas prices in gwei. DM me a price and I will DM you as soon as gas drops below that price 👍 #Ethereum #GasPrice #ETHGasPrice #ETH",0,1
1377183307390091276,"2021-03-31T08:57:41Z","First thing I bought after making some money through NFT is this Wacom Cintiq!!! I literally bought this with ETH as well from @jackmaschka  Can’t wait to create more! https://t.co/tIn7xIdsa5",242,7
1377183305414569986,"2021-03-31T08:57:41Z","DCT TOKEN Airdrop Medium Star Claim 1 DCT ($ 100) + 0.045 DCT ($ 10) for each referral you make.   Steps  💎  Join channel and group  💎  Follow twitter, like and retweet pinned message   💎  Submit eth wallet address (ERC-20) Participate now Airdrop link: https://t.co/L24stp8tVI https://t.co/CVYQyLAWwU",8692,8870
1377183299508994054,"2021-03-31T08:57:40Z","RT @zhusu: Next key lvls are 72k / 100k on $BTC  And 2.5k / 4k on $ETH",3569,435
1377183295402745862,"2021-03-31T08:57:39Z","Layer2 is online now，a Milestone for YFX! BTC_USDT (USDT settlement), ETH_USD (USDC settlement) trading pairs open!#DeFi #Ethereum #Bitcoin #cryptocurrency #Blockchain https://t.co/aPyHmsoidO",93,89
1377183278516424712,"2021-03-31T08:57:35Z","$troy will be 200 sats by April 31st, bookmark this tweet🚀🤷‍♂️😘.      $btc $eth $matic $pond $fet $sxp $vet $sys",6,1
1377183266810159147,"2021-03-31T08:57:32Z","RT @NotAugChe: $matic   credit to whoever made this.   $vet $ada $dot $eth https://t.co/7Kq6N1QoUj",52,13
1377183260053151757,"2021-03-31T08:57:30Z","Time for WitLink Token #Airdrop!  ✔️ Start the Airdrop bot: https://t.co/8HDV9cCJse  Complete the tasks to earn  Get 10 WAI ($2.5) + Get 4 WAI ($1) For Each Valid Refer   #ETH #BTC #WAI #LINK #Airdrops",1478,1424
1377183244316069891,"2021-03-31T08:57:26Z","🥳200$ #giveaway paid in $BNB 🎁4 winners ( 50$ each )  ✅RT, Like and Tag 3 friends ✅Join discord: https://t.co/35loidugH9 ✅Verify at discord, post proof here  ⏳Ends in 4 days!  #bitcoin $BTC $ETH $DOT $ADA $SPI $GSPI @300Token https://t.co/FaTN8bD15F",1097,900
1377183241870876672,"2021-03-31T08:57:26Z","#NFTs on #Rewardiqa coming soon ! 🔥🚀🚀🚀👨‍🎨 #NFTCommunity  #nftcollector #NFTdrop #NFTGiveaway #REW #DeFi #BSCPAD #eth #btc #opensea #marketplace #bullrun #BinanceSmartChain https://t.co/Bo1M9Pox2L",820,756
1377183230785318915,"2021-03-31T08:57:23Z","RT @QuintenFrancois: $ETH to $2500 in April or I'm giving away 0.3 $ETH to someone who retweets this.",4150,6184
