"ID","created_at","text","like_count","rt_count"
1377168774755876872,"2021-03-31T07:59:57Z","@nftdaze CyberRexes is a set of 10.000 unique 1/1 Rexes with different levels of rarity.   Price 0.01 ETH   Each Rex can be assigned a unique name by the buyer for additional scarcity.  Mint yours at our website: ( limit 20 per tx ) Website: https://t.co/TpFjqFiN3K https://t.co/FB74Pdt0jH",0,0
1377168767856246788,"2021-03-31T07:59:55Z","RT @QuintenFrancois: $ETH to $2500 in April or I'm giving away 0.3 $ETH to someone who retweets this.",4150,6184
1377168766199468037,"2021-03-31T07:59:55Z","HAWT. With my partnership with @illuviumio I can give away 100 HOLOGRAPHIC Scoot Scarabok NFTs.  Similar ones have gone for 5 eth to 50 eth.  How to get -Post your ETH address + BATTLE SCOOT! below -Retweet/tag a friend -Follow @illuviumio and join their discord in bio https://t.co/xcCVVW6KdR",2754,2661
1377168765754822662,"2021-03-31T07:59:54Z","@Undyingtmlg I invested about 3 years ago and have made big profit. Lost a metric shit ton in the beginning but I’ve seen my eth grow by at least 250%. Use an app called Luno, top security and good service",1,0
1377168760977547264,"2021-03-31T07:59:53Z","The first exchange for #Tenset  token is here! We've just added an ETH/10set pair on #Uniswap  with a total of 2 mln$ liquidity. With  Guys... IT'S BEGAN 🔥🔥🔥🔥🔥🔥  ⬇️ Instructional Video. How to buy #10set on Uniswap  https://t.co/oQDPDLZjYz",351,127
1377168759543132161,"2021-03-31T07:59:53Z","The DEX @FinanceChainge is set to launch on the @FUSIONProtocol network with over a million users on the protocols waitlist. This decentralized exchange aims to innovate on traditional models through leveraging the Fusion Network.  #BSC #BTC #ETH #BNB  https://t.co/xx55YiGfm3",21535,13658
1377168749690691586,"2021-03-31T07:59:51Z","After an awesome weekend of profits where we recovered all lost profits from previous #BTC DIP and even gained a good... https://t.co/DUmfT8GSN7 #eth #cryptotrading #bitcoinnews #bitcoin https://t.co/HbWFrrx1N9",0,0
1377168745014063117,"2021-03-31T07:59:50Z","@scoinaldo ETH $5000 next month 1 where is that kind of tweet.  ? Waiting mate.. need one for today",0,0
1377168741566308358,"2021-03-31T07:59:49Z","@latokens How can I retrieve my ETH deposited and did not reflect in my account?",0,0
1377168739183960064,"2021-03-31T07:59:48Z","ETH Spinoff @MithrasTechnol1 completes seed #investment round https://t.co/jTTCK1ck7I | The Swiss Startup News channel https://t.co/K8mQ8btYuz https://t.co/98XZJTll2V",3,0
1377168726588416001,"2021-03-31T07:59:45Z","@TaughtbyThierry You have to decide; are you trading ETH or buying NFTs. You can't do both at the same time. If you try to catch two rabbits, you'll catch neither. If you're in NFTs for the long term, the entry price is a minor concern as no one knows the price of ETH at your exit point. JMHO",0,0
1377168723488862214,"2021-03-31T07:59:44Z","@bitcoinpanda69 Many people think that there can be more than one platform and have both eth and a few eth killers..",1,0
1377168714710228997,"2021-03-31T07:59:42Z","DCT TOKEN Airdrop Medium Star Claim 1 DCT ($ 100) + 0.045 DCT ($ 10) for each referral you make.   Steps  💎  Join channel and group  💎  Follow twitter, like and retweet pinned message   💎  Submit eth wallet address (ERC-20) Participate now Airdrop link: https://t.co/L24stp8tVI https://t.co/CVYQyLAWwU",8692,8870
1377168711031775233,"2021-03-31T07:59:41Z","RT @QuintenFrancois: $ETH to $2500 in April or I'm giving away 0.3 $ETH to someone who retweets this.",4150,6184
1377168686121766928,"2021-03-31T07:59:35Z","#NFTs on #Rewardiqa coming soon ! 🔥🚀🚀🚀👨‍🎨 #NFTCommunity  #nftcollector #NFTdrop #NFTGiveaway #REW #DeFi #BSCPAD #eth #btc #opensea #marketplace #bullrun #BinanceSmartChain https://t.co/Bo1M9Pox2L",820,756
1377168677154394120,"2021-03-31T07:59:33Z","RT @QuintenFrancois: $ETH to $2500 in April or I'm giving away 0.3 $ETH to someone who retweets this.",4150,6184
1377168673488596992,"2021-03-31T07:59:32Z","Top 10:  1 $BTC 2 $ETH  3 $BNB - centralised ETH copypaste 4 $USDT - literal scam 5 $ADA - ghost chain 6 $DOT - hype chain 7 $XRP - lol 8 $UNI 9 $THETA - literal who 10 $LTC - founder sold boomer scam   11 $LINK - literally enabler of coming 4th industrial revolution   crypto yes",478,51
1377168652617715714,"2021-03-31T07:59:27Z","The first exchange for #Tenset  token is here! We've just added an ETH/10set pair on #Uniswap  with a total of 2 mln$ liquidity. With  Guys... IT'S BEGAN 🔥🔥🔥🔥🔥🔥  ⬇️ Instructional Video. How to buy #10set on Uniswap  https://t.co/oQDPDLZjYz",351,127
1377168650721849352,"2021-03-31T07:59:27Z","RT @bigchiefcrypto: Update #ETH https://t.co/aw7qIAHS8F",6,1
1377168649060982787,"2021-03-31T07:59:27Z","🔥 WoW!!! $DYP getting listed on @kucoincom !  DYP/USDT &amp; DYP/ETH trading will start tomorrow, March 25th at 10AM UTC! Good job @dypfinance team!  #DeFi #uniswap #Ethereum https://t.co/Rw9qa5l5tA",2228,2352
1377168640714305546,"2021-03-31T07:59:25Z","The DEX @FinanceChainge is set to launch on the @FUSIONProtocol network with over a million users on the protocols waitlist. This decentralized exchange aims to innovate on traditional models through leveraging the Fusion Network.  #BSC #BTC #ETH #BNB  https://t.co/xx55YiGfm3",21535,13658
1377168630207578113,"2021-03-31T07:59:22Z","what is this. Hold the rug! #eth, #BTC https://t.co/xsnYGcRtCC",1,0
1377168620233519104,"2021-03-31T07:59:20Z","The DEX @FinanceChainge is set to launch on the @FUSIONProtocol network with over a million users on the protocols waitlist. This decentralized exchange aims to innovate on traditional models through leveraging the Fusion Network.  #BSC #BTC #ETH #BNB  https://t.co/xx55YiGfm3",21535,13658
1377168603926077443,"2021-03-31T07:59:16Z","Slow 153 | Normal 168 | Fast 177 | Instant 178 👈 current Ethereum gas prices in gwei. DM me a price and I will DM you as soon as gas drops below that price 👍 #Ethereum #GasPrice #ETHGasPrice #ETH",0,1
1377168596518899712,"2021-03-31T07:59:14Z","RT @crypto_birb: $ETH will easily do 10k until 2021 ends imo",2045,176
1377168593830301705,"2021-03-31T07:59:13Z","Friends,   If you have not yet researched, then DYOR  Join TNDR-BUSD LP in Rain Farms with  2545% APR  or in Cloud Pool you can stake $TNDR and earn the same with 812% APR @thunder_swap   Hit the lucky link to join 👇  https://t.co/D0tVNNkKry  @cctip_com airdrop 0.0002 ETH 110",46,70
1377168593398366209,"2021-03-31T07:59:13Z","https://t.co/sG6dX3ingI  This NFT 1/10 giveaway in 24 hours! 💥💥💥  Price 0.3 ETH =$ 550 !!!  🤝🤝🤝Follow me +@CryptoClownNft  👍 like  💪retweet   🤝two friends+ comment with your ETH wallet adress. 🙏🙏🙏 I wish everyone good luck   #NFTartist #rarible #nft https://t.co/4k1FIGVhZc",232,197
1377168592022609933,"2021-03-31T07:59:13Z","Did you like the $btc Darth Maul, anon? You’ll see more of them because this bubble is about to burst and your crypto guru knows it. $eth $crypto https://t.co/lEUz3RqbXs",0,0
1377168589531144195,"2021-03-31T07:59:12Z","🌋#ATD #Giveaway is on now! @a2dao_ 🌋  10 lucky users will receive $30 each in #ATD ✨  1️⃣Login &amp; Participate ☀️ https://t.co/wrbe0JlJuK   2️⃣Retweet and @ a friend  #DeFi #crypto #ALTSEASON #ETH #NFT https://t.co/oq0O5RbPbj",304,717
1377168586062450691,"2021-03-31T07:59:12Z","Eth should be at 2k what’s taking so long?",1,0
1377168581587181568,"2021-03-31T07:59:11Z","Uniswap $ETH $ALTS $BTC  Treemap Release Live :)  -Instantly Track  Liquidity, Tx count, Trade Volume and price changes over different time intervals for uniswap tokens and pairs  -Execute your Uniswap Ticket directly from the platform   Link: https://t.co/fOIkcfO2BH https://t.co/IBdxry2BRp",517,98
1377168579775275009,"2021-03-31T07:59:10Z","Is amazing to see how this project has been out since Dec 2020 and so far Liquidity Providers have earned about 6533.78 $ETH and that is the total value of $10.6 Million dollars. 💪  Also the APY doing 301.35% which is amazing.  #DeFi #UniSwap #BSC #SmartContract #Ethereum https://t.co/9a7rgyoMpE",2385,2476
1377168566919684101,"2021-03-31T07:59:07Z","To answer the “and what about ETH” questions... Original protocols with real cash flows and moats have a shot. There will be some fantastic value play opportunities in the next bear.",68,2
1377168565887934464,"2021-03-31T07:59:07Z","RT @QuintenFrancois: $ETH to $2500 in April or I'm giving away 0.3 $ETH to someone who retweets this.",4150,6184
1377168556958224385,"2021-03-31T07:59:05Z","@A21Crypto “The Proverbial King's Crown ”  for sale on @withFND! 🌐  Reserve Price is 0.50 ETH. https://t.co/PEpKIQ6DfD https://t.co/ZB5rmX0t9w https://t.co/d1BBAjBiH4",0,0
1377168539711250436,"2021-03-31T07:59:01Z","RT @DZN_Dynasty: Who's ready for a new dynasty?   #DZN #BSC #BinanceSmartChain #Crypto #Defi #BNB #BTC #Binance #NFT #NFTs #ETH https://t.c…",20,5
1377168536875888642,"2021-03-31T07:59:00Z","DCT TOKEN Airdrop Medium Star Claim 1 DCT ($ 100) + 0.045 DCT ($ 10) for each referral you make.   Steps  💎  Join channel and group  💎  Follow twitter, like and retweet pinned message   💎  Submit eth wallet address (ERC-20) Participate now Airdrop link: https://t.co/L24stp8tVI https://t.co/CVYQyLAWwU",8692,8870
1377168530840297484,"2021-03-31T07:58:58Z","🔥New Listing @a2dao_ 🔥  #ATD trading will be enabled on https://t.co/8kWqgEeplL 😎  👉Trade: https://t.co/ExhZLJsBuu 👉Details: https://t.co/wHKyoIXPWV  #DeFi #crypto #ALTSEASON #ETH #NFT https://t.co/UjKmwZhqea",253,658
1377168520434262021,"2021-03-31T07:58:56Z","RT @QuintenFrancois: $ETH to $2500 in April or I'm giving away 0.3 $ETH to someone who retweets this.",4150,6184
1377168516638404608,"2021-03-31T07:58:55Z","HAWT. With my partnership with @illuviumio I can give away 100 HOLOGRAPHIC Scoot Scarabok NFTs.  Similar ones have gone for 5 eth to 50 eth.  How to get -Post your ETH address + BATTLE SCOOT! below -Retweet/tag a friend -Follow @illuviumio and join their discord in bio https://t.co/xcCVVW6KdR",2754,2661
1377168513459126274,"2021-03-31T07:58:54Z","#ChillBill #NFT Giveaway at 💯 retweets.  Comment RANCH to Enter! #ETH #Bitcoin #nftcollector #NFTCommunity #cryptoartist https://t.co/4xBmdSNPZM",26,20
1377168510267236355,"2021-03-31T07:58:54Z","Morning @cloudwhiteNFT @EddOpensea  @dan_OpenSea  @joshuawu0   Someone duplicated my collection some hours ago and scammed 1,5 ETH in total to several people, thankfully was reported and taken down.  Could you please verify mine so we don't go through this situation again?  Thx",25,16
1377168481813098501,"2021-03-31T07:58:47Z","ETH/USD | $ETHUSD | $ETH $USD Ethereum chart Long or short it with BTC on Trade8 https://t.co/j9HQE3BnKI",0,0
1377168474145914880,"2021-03-31T07:58:45Z","Uhm, $BTC is melting pretty fast here and $ETH is coming down with it. Let's see if shitcoins can stand their ground or what... a correction here might be in the cards",2,0
1377168472736587779,"2021-03-31T07:58:45Z","What's interesting is that the VSYS swap smart contracts are twins, which is AMM the other is the Order book. So the DEX on VSYS can be Uniswap style and also Serum style. With the bridges to ETH and Solana, it will support 90% of tokens you are playing right now. Cool???😎",28,8
1377168472178749442,"2021-03-31T07:58:44Z","🏆 Follow us &amp; Retweet this tweet, Specify the ETH address in the tweet comment to get 10 #BIT ($10 worth) or 50 #BIT ($50 worth) #BitScores Airdrop Tokens! 🎁 $250,000 Prize Pool Full rules: https://t.co/N53M5nRXr9  #giveaway #airdrops #bounty #giveaways #defi #eth #btc #airdrop https://t.co/m77hDtRsBv",3545,3597
1377168469272133637,"2021-03-31T07:58:44Z","Join the @Holdefi community! Learn more about $HLD Token!  #HLD #Holdefi #ETH #BSC #IDO #ICO 👇👇 https://t.co/yUwBKjVsL1",0,0
1377168464171786242,"2021-03-31T07:58:43Z","The first exchange for #Tenset  token is here! We've just added an ETH/10set pair on #Uniswap  with a total of 2 mln$ liquidity. With  Guys... IT'S BEGAN 🔥🔥🔥🔥🔥🔥  ⬇️ Instructional Video. How to buy #10set on Uniswap  https://t.co/oQDPDLZjYz",351,127
1377168442692755456,"2021-03-31T07:58:37Z","It really is developer caprice that sets the monetary policy in Ethereum. Here's the governance flow chart (source https://t.co/U5xxv06lt3). There's no voting or ratification process; it's just an all core devs phone call followed by here's a new hard-fork, take it or leave it. https://t.co/fnRbAiiLUk https://t.co/YEq505bb0w",14,3
1377168429187129346,"2021-03-31T07:58:34Z","RT @scoinaldo: $ETH to 3k USD in April or I’ll delete this tweet.",3154,229
1377168420291014659,"2021-03-31T07:58:32Z","@Angrymikko @Procreate Yeah its called sidechains.  I won't mint Art in ETH chain, its gassy and i respect the pollution needs of suppression.  Sidechains forever!  ETH is not worthy for the art of the people, it takes 200 just to mint an NFT now.  UNACCEPTABLE!!!! :P @Angrymikko",0,0
1377168408630886400,"2021-03-31T07:58:29Z","@CryptoDelphi These coins aren’t competing and aren’t related and have different markets. Eth can’t do what xrp and xlm do. And xrp/xlm can’t do what eth does (smart contracts). Xrp and xlm are 1/2 in their market with no competition. Eth is losing it’s grip on smart contract market very fast",0,0
1377168407682932743,"2021-03-31T07:58:29Z","1 Bitcoin ( #BTC ) Dollar: 59,346.48$   1 Bitcoin Cash ( #BCH ) Dollar: 5,30.25$   1 Ethereum ( #ETH ) Dollar: 1,845.74$   1 Ripple ( #XRP ) Dollar: 0.55873$   Date: 31 Mar 2021 7:46  #Bitcoin #Ethereum #cryptocurrency #crypto #altcoin #Blockchain #Ripple",1,1
1377168394928025604,"2021-03-31T07:58:26Z","DCT TOKEN Airdrop Medium Star Claim 1 DCT ($ 100) + 0.045 DCT ($ 10) for each referral you make.   Steps  💎  Join channel and group  💎  Follow twitter, like and retweet pinned message   💎  Submit eth wallet address (ERC-20) Participate now Airdrop link: https://t.co/L24stp8tVI https://t.co/CVYQyLAWwU",8692,8870
1377168371528032262,"2021-03-31T07:58:20Z","They didn’t approve our idea 💡 for unblocking the Suez Canal! 🤪 #nft #art #cryptoart #I #raredigitalart #ethereum #blockchain #fantasyart #nftartist #animation #nftart #blockchain #crypto #bitcoin #design #digitalillustration #artist #artwork #eth  https://t.co/oAtCMsJ9h3",1,2
1377168350518775816,"2021-03-31T07:58:15Z","Sunning in the desert  White pencil on black paper Now available @rariblecom here:  https://t.co/eaoZnZDLtX  #nft #nfts #nftart #nftartist #procreate #nftcollectors #NFTdrop #nftcollector #NFTCommunity #Cryptoart #cryptoartist #rarible #Ethereum #ETH https://t.co/3l0O6p9FLr",49,13
1377168347863769094,"2021-03-31T07:58:15Z","Top 5 Mentions Updated Every 5 Minutes   Start Time: Wed Mar 31 2021 09:33:14 GMT+0300 (GMT+03:00)   (BETA STAGE)  1- $ETH==&gt;281  2- $BNB==&gt;146  3- $HBAR==&gt;126  4- $AMB==&gt;97  5- $XRP==&gt;87  - $Bitcoin #Bitcoin $Crypto #Crypto $Altcoin #Altcoin -",0,0
1377168345703673859,"2021-03-31T07:58:14Z","Note to myself:  Go to @AaveAave &amp; borrow stables Buy $ETH  Go to @feiprotocol &amp; and buy $FEI at genesis  In a week+  Sell $FEI for stables   Go to @AaveAave &amp; repay the loan with stables",3,0
1377168343585550339,"2021-03-31T07:58:14Z","Updated my porfolio 😜😍 $roya #maxithings $btc $eth #freelo https://t.co/NHrb3NmXnY",4,0
1377168336820129803,"2021-03-31T07:58:12Z","RT @QuintenFrancois: $ETH to $2500 in April or I'm giving away 0.3 $ETH to someone who retweets this.",4150,6184
1377168334546894850,"2021-03-31T07:58:12Z","RT @QuintenFrancois: $ETH to $2500 in April or I'm giving away 0.3 $ETH to someone who retweets this.",4150,6184
1377168323490717701,"2021-03-31T07:58:09Z","DCT TOKEN Airdrop Medium Star Claim 1 DCT ($ 100) + 0.045 DCT ($ 10) for each referral you make.   Steps  💎  Join channel and group  💎  Follow twitter, like and retweet pinned message   💎  Submit eth wallet address (ERC-20) Participate now Airdrop link: https://t.co/L24stp8tVI https://t.co/CVYQyLAWwU",8692,8870
1377168322882510848,"2021-03-31T07:58:09Z","RT @Kcryptooo: Swapped some of my ETH for $RSR today. Entry at $0.95!  My first bag of $RSR. https://t.co/zTmkBRgnTt",108,4
1377168313072033795,"2021-03-31T07:58:07Z","TA: Ethereum Bulls Keeps Pushing, Why Rally Isn’t Over Yet https://t.co/CVP13hwHZt #Bitcoin  #Cryptocurrency #FinTech",0,0
1377168296420671490,"2021-03-31T07:58:03Z","Time for WitLink Token #Airdrop!  ✔️ Start the Airdrop bot: https://t.co/8HDV9cCJse  Complete the tasks to earn  Get 10 WAI ($2.5) + Get 4 WAI ($1) For Each Valid Refer   #ETH #BTC #WAI #LINK #Airdrops",1478,1424
1377168286899597313,"2021-03-31T07:58:00Z","RT @QuintenFrancois: $ETH to $2500 in April or I'm giving away 0.3 $ETH to someone who retweets this.",4150,6184
1377168284735315971,"2021-03-31T07:58:00Z","@Jordzlreid LINK/ETH is on the floor so LINK will be a vehicle to make us more ETH 💪",2,0
1377168279869919238,"2021-03-31T07:57:59Z","Prediction of money for the Future of Bitcoin, ETH, XRP, and LTC. Trade with  https://t.co/NaLgQ8sYer     to know the progress of Cryprone and do fast movements for maximum results https://t.co/VLPPeL6rwW",0,0
1377168273477828616,"2021-03-31T07:57:57Z","$DGCL previews of tomorrow one-click-#NFT platform and marketplace launch.  - Own fractions of high valued #NFT - One-Click-Deployment of #NFT marketplace - Loans against #NFT for $DGCL $USDT $ETH - COO launched Pokemon Go Japan - Multiple artists signed and @KittiesBalls https://t.co/vA8pmQxiYa",46,21
1377168262593581063,"2021-03-31T07:57:55Z","$SOUL Roadmap to $10+  #NFT #blockchain #crypto $KCAL $ETH $BTC $BNB $NEO $DANK $ENJ $FLOW $WAX $CHZ $BONDLY $RARI $MEME $TVK $PHA $MANA $HOT $ERN $SPI $OGN $MTL $WAXP $RFOX $RARI $UOS $REVV $COS $DEGO $XED $AXS $FTX $BNB $HOGE $PLAY $KIMCHI $HOGL $DOT $UNI $DOGE $SOL $KSM $CAKE https://t.co/jzuMu6qm5w",49,15
1377168249712877574,"2021-03-31T07:57:51Z","New Airdrop: Diamond Crystal (DCT) Reward: 100 DCT ($100) Rate: ⭐️⭐️⭐️⭐️ Focus: Distribution starts after airdrop ends   Bot Airdrop Link: https://t.co/9Qzk47HUKt  #Airdrop #giveaway #BTC #ETH",3979,4240
1377168248597213184,"2021-03-31T07:57:51Z","Good morning 🔥🔥. Tail City current bid is 0.77 ETH on @withFND  ! 15H until auction is over! https://t.co/X1yw7E9SgE  #cryptoartist #NFTCommunity #NFTartist #withFND #nftcollectors #ETH",8,2
1377168244566450180,"2021-03-31T07:57:50Z","Twitter accounts saying I have 5 ETH to spend, show me your art is the modern equivalent of saying dance monkey, dance + attaching a monetary value like this looks shady af.  Artists deserve respectful engagement, not endless shills to boost one individual's follower count",564,88
1377168242540617729,"2021-03-31T07:57:50Z","RT @QuintenFrancois: $ETH to $2500 in April or I'm giving away 0.3 $ETH to someone who retweets this.",4150,6184
1377168240099483654,"2021-03-31T07:57:49Z","❗️#NFTGiveaway #CryptoCrawlerz ❗️  LIKE + RETWEET + FOLLOW @cryptocrawlerz TO ENTER 🐛🦋🐝💚  🐞(1) WINNER WILL RECEIVE (1) SERIES 02 / #003 / 'SCARLETT' 🐞  WINNER TBA 3/31 🔥  VIEW / PURCHASE ON @rariblecom 👇👇👇👇  https://t.co/skWtkNgWpu  #NFT $ETH #NFTCommunity #Cryptoart https://t.co/Ju1eycLJqY",225,153
1377168237041840131,"2021-03-31T07:57:48Z","🔴 Few hours until start of the HLD public sale 🔴  Dear Contributors, Be ready for take off🥳🥳  #HLD #Holdefi #BSC #ETH #IDO   To see what you need to do, Check this link:  https://t.co/ZzcFsjziOL",44,24
1377168233388679170,"2021-03-31T07:57:48Z","💧YetuBit Airdrop 2nd Round💧  🏆 Task:          ➕  25 YETU (~$20)  👨‍👩‍👧 Referral:   ➕  5 YETU (~$4)  🔛  Airdrop Link &amp; Information: https://t.co/ZoGw3AR71I  #cryptocurrency #Crypto #Bitcoin  #BSC #BinanceSmartChain #Ethereum #ETH #Airdrop #bounty #YetuBit #YetuSwap #YETU",4426,5632
1377168214170329089,"2021-03-31T07:57:43Z","RT @ProBit_Exchange: #DFI will be listed on #ProBitExchange March 31 with an ETH market @defiqa3 #DeFi  https://t.co/2ZqO1n8Ezf https://t.c…",574,472
1377168213981626374,"2021-03-31T07:57:43Z","@latokens @YVSFinance @PointPay1 @TenupNation TENUP deserves to be listed as it is the hardwork of a committed team from Pakistan with limited resources but great resolve &amp; relentless efforts for crypto and blockchain as a technology. It is so advance and upto date, It has a masternode technology which even ETH doesn't have.",0,0
1377168210441596928,"2021-03-31T07:57:42Z","Wills in our generation are going to look like.   I, Dr. Scar Face give all my possession in BTC to my daughter.   All my possession in ETH to my son.  My extended family gets all my Doge Coin.  My wife gets my USDT wallet.   Donate all my BNB to charity.   Peace ✌️",1,0
1377168189403004931,"2021-03-31T07:57:37Z","RT @QuintenFrancois: $ETH to $2500 in April or I'm giving away 0.3 $ETH to someone who retweets this.",4150,6184
1377168179387006983,"2021-03-31T07:57:35Z","Have you ever imagined you can sell your high school pokemon card or your first Instagram post or a tweet in thousands or even a million dollars?  Get a glimpse of what is NFT?  #NFT #altcoin $BTC $ETH $ADA #BTC #ETH #nonfungibletokens   https://t.co/I6Bxm65zfy https://t.co/52h2ACrWqM",5,3
1377168175402348544,"2021-03-31T07:57:34Z","Layer2 is online now，a Milestone for YFX! BTC_USDT (USDT settlement), ETH_USD (USDC settlement) trading pairs open!#DeFi #Ethereum #Bitcoin #cryptocurrency #Blockchain https://t.co/aPyHmsoidO",93,89
1377168171338100741,"2021-03-31T07:57:33Z","RT @NFTipsy: #NFTartist selling their #NFTs below 0.3 #ETH shill your stull!!! 🔥 Follow &amp; 🔥 RT 🔥 I will retweet your #cryptoart 🔥 Let’s gro…",151,48
1377168167324188679,"2021-03-31T07:57:32Z","RT @QuintenFrancois: $ETH to $2500 in April or I'm giving away 0.3 $ETH to someone who retweets this.",4150,6184
1377168155240357889,"2021-03-31T07:57:29Z","Genuinely curious if Art Twitter is going to boycott Paypal now..??? This is exponentially more environmentally damaging than NFTs because not only is Ethereum supported, but so is Bitcoin, which has 4x the emissions of ETH. What alternative platforms can independent artists use? https://t.co/zek7xyXwqL",1602,473
1377168151389949958,"2021-03-31T07:57:28Z","🚨 Ethie - Black Edition sold for 3.5 ETH ($6,483.01 USD) 🚨    #ProjectSenpai #NFT #cryptoart   https://t.co/pkeLxUTArW",0,0
1377168147795517441,"2021-03-31T07:57:27Z","Beginning April 1st at 00:00 UTC — in 24 hours — we will be giving away $100 a day until we launch our presale on #bsc.   Rules are simple: Follow us and #Retweet any of our tweets from that day. We will choose one winner each day and send them $100 in $ETH. Good luck! https://t.co/XwxcRi05c1",381,463
1377168131647447041,"2021-03-31T07:57:23Z","🦄 @JulSwap has confirmed to release #NFT card with Usage from its staking event in #JulWallet.   Meanwhile, the article by @JustLiquidity states that JulWallet supports both ERC721 tokens on #ETH &amp; BSC and ERC1155 tokens on BSC.  Receiving #NFTs on #BSC? You can do it! https://t.co/9crAMsjMzm",397,105
1377168117290262531,"2021-03-31T07:57:20Z","Genuinely curious if Art Twitter is going to boycott Paypal now..??? This is exponentially more environmentally damaging than NFTs because not only is Ethereum supported, but so is Bitcoin, which has 4x the emissions of ETH. What alternative platforms can independent artists use? https://t.co/zek7xyXwqL",1602,473
1377168115532853249,"2021-03-31T07:57:19Z","RT @MoneyNostra: 🟩 Drop your $ETH wallet 👇",366,159
1377168105084837891,"2021-03-31T07:57:17Z","Get ready to participate in the new IDO platform. You can get $ BNB if you want to. $BNB $BUSD $ETH $USDT $BETH $DOT $ADA. The show will premiere on April 4th. Take advantage of your good fortune. #BSCXHeroes #LaunchZone https://t.co/mtS3UJ5Yiz",0,0
1377168103788843016,"2021-03-31T07:57:17Z","Do you know you can:   - Track your Liquidity performance. - Calculate your IL. - Simply contributes to different liquidity across diverse chain with a few clicks. - Become a pro member and have access to premium features on @ApyVision  #DeFi #Crypto #ETH",5,2
1377168099258949640,"2021-03-31T07:57:16Z","#DeFi #BKC #eth2 #BucksCake  ANNOUNCEMENT!  Dear BucksCake's community members!  The exact date of BKC listing on Uniswap set for 04/20/2021!  2 days before it, the exact opening time of the trading pair BKC/ETH on Uniswap...  More at https://t.co/RQPMhjazG2 https://t.co/VjtBbXBA1t",2829,2636
1377168091453394951,"2021-03-31T07:57:14Z","🌋#ATD #Giveaway is on now! @a2dao_ 🌋  10 lucky users will receive $30 each in #ATD ✨  1️⃣Login &amp; Participate ☀️ https://t.co/wrbe0JlJuK   2️⃣Retweet and @ a friend  #DeFi #crypto #ALTSEASON #ETH #NFT https://t.co/oq0O5RbPbj",304,717
1377168075187871744,"2021-03-31T07:57:10Z","Hey @justinsuntron ...you are the only person on this piece that I know would collect it.  Vitalik and Brad Garlinghouse won't collect it Not sure about Charles Hokinson &amp; Dan Larimer I Priced it at 1000 ETH even before JUST NFT fund was launched https://t.co/vmWafwwpTW",0,1
1377168068418306058,"2021-03-31T07:57:08Z","RT @CryptoMichNL: I think $ETH at $5,000 and $LINK at $50+ are inevitable.",2960,242
1377168065591275520,"2021-03-31T07:57:08Z","DCT TOKEN Airdrop Medium Star Claim 1 DCT ($ 100) + 0.045 DCT ($ 10) for each referral you make.   Steps  💎  Join channel and group  💎  Follow twitter, like and retweet pinned message   💎  Submit eth wallet address (ERC-20) Participate now Airdrop link: https://t.co/L24stp8tVI https://t.co/CVYQyLAWwU",8692,8870
1377168065255727107,"2021-03-31T07:57:07Z","🔥New Listing @a2dao_ 🔥  #ATD trading will be enabled on https://t.co/8kWqgEeplL 😎  👉Trade: https://t.co/ExhZLJsBuu 👉Details: https://t.co/wHKyoIXPWV  #DeFi #crypto #ALTSEASON #ETH #NFT https://t.co/UjKmwZhqea",253,658
1377168057936715777,"2021-03-31T07:57:06Z","@RichardHeartWin the scammer is at it again...creating an ETH Fork called #PulseChain to protect those that invested in #Hex from high ETH fees...when he could just walk away with his billions.   If you had any question about this man's integrity...this should put it to rest!",141,28
