"ID","created_at","text","like_count","rt_count"
1374858562296369155,"2021-03-24T22:59:59Z","You can now buy a #Tesla car with #Bitcoin   “Nothing is stronger than habit” @DavosCryptos   $BTC $ETH #TSLA #Cryptocurrency https://t.co/L0UpN4xTtm",675,790
1374858553047965698,"2021-03-24T22:59:57Z","Second #NFT drop is now LIVE! 🙌💚🥳 These three plus one more are all on auction starting at .3 eth! The prices from last drop were also lowered! ~ Go check em out at https://t.co/HG6pSs0r3k! #nftart #nftdrop #NFTCommunity #cannabiscommunity #cannabisnft https://t.co/AVNlOuNreN",20,4
1374858548211933187,"2021-03-24T22:59:56Z","RT @CashNCrypto: $150 to one person in 48hrs  Rt &amp; follow me + @domscrypto &amp; @boar_eth",2050,4122
1374858545644982273,"2021-03-24T22:59:55Z","Blockchain Event Horizon  Noscaler maximalist: No, no, it cannot be.. [insert dogma]  Today's chains - Smart contract call &gt; $25 - Data &gt; $1,000,000/GB  Internet Computer ∞ - Smart contract call &lt; $0.05 - Data &lt; $5/GB/year  🚀 Scalable ETH &amp; IC dapps soon https://t.co/ujtdx027qO",191,51
1374858544437100547,"2021-03-24T22:59:55Z","🚨NEW PIXO SKINS ALERT🚨   👻*PixoSkins #23👻  🏷 NOW AVAILABLE ON OPENSEA !  🚨 LISTED AT 0.1 ETH 🚨   YOU CAN BUY ME HERE 🥺👉🏻 https://t.co/Glye9Jo5Xo #NFTs #nftart #nftcollector #cryptocurrencies #Crypto #NFTCommunity @opensea #opensea #Foundation",1,0
1374858542826536967,"2021-03-24T22:59:54Z","wooww New collector make a new bid @TaneleerTivan 2.60 ETH",0,0
1374858538179174405,"2021-03-24T22:59:53Z","RT @DailyDogeUpdate: 🚀 $1000 to anyone who Like, Follow and Retweet 🚀  #Dogecoin #LTC $ETH",1838,1206
1374858531636142085,"2021-03-24T22:59:52Z","#586 from over #1000 😉 are you waiting till top 100? $DBC babbbyyyyy  $eth $klv $cvc $enj $doge $ada $kcs $bnb $rdd $dgb $dot $mana $trx $xlm $ocn $luna $dash $atom $ltc $eos $neo $mhc $chr $dock $vra $ftm $iotx $mwap $go $xrm $zec $tel $btc #alts $dbc #ai https://t.co/d4xsiSqLzt",8,4
1374858521121071107,"2021-03-24T22:59:49Z","Just when you thought it couldn’t get better then @safemoon   Checkout @Infinite_Divs   https://t.co/Zr5riK6Ad9  $1.03 🤯 . . #pancakeswap #SAFEMOON $ID #ElonMusk #infinitedivs $BTC #HEX $ETH #BNB #bsc  #SHIB #NFTCommunity #crypto #starlink #trump #CancelCulture #doge #jongoranje https://t.co/s7GBjpRM94",13,10
1374858520030416897,"2021-03-24T22:59:49Z","RT @graphlinq_proto: Follow our roadmap &amp; progress in real time: https://t.co/78hpUQNEk5  #graphlinq #DeFi #glqroadmap #blockchain #crypto…",62,19
1374858514686824451,"2021-03-24T22:59:48Z","@nftbuyer 🕺🕺 Price : 0.012 ETH https://t.co/GWaUHftLFV",2,0
1374858513739096065,"2021-03-24T22:59:47Z","➡️ 💸 Withdrawal for 28.08 ETH ($44,502.55) https://t.co/7N7u7yBtDE",0,0
1374858513709678592,"2021-03-24T22:59:47Z","➡️ 💸 Withdrawal for 16.87 ETH ($26,744.42) https://t.co/7N7u7yBtDE",0,0
1374858492432019457,"2021-03-24T22:59:42Z","People said I've been negative lately...So let's give away a THICC Pokemon NFT (valued at about $1000 now, but I think at least $2k in 3 months)  Post your ETH wallet below and your favorite pokemon. Tags/Retweets to friends who like NFTs/Crypto is super appreciated. https://t.co/GHxjLnTcb1",1142,509
1374858489038663680,"2021-03-24T22:59:42Z","Hey guys, I'll have an announcement.  👇SEND YOUR #NFT I spend 1.6 Eth I have allocated a budget of 1.4 Eth.  I want to add pieces of talents to my collection.  Could you please share your works? And RETWEET! Thank you!  #NFT #NFTcollectors #NFTs #NFTcommunity #NFTart https://t.co/mOYVDhlgvt",120,48
1374858484521521156,"2021-03-24T22:59:41Z","The Pickers family now counts over 25k players🎉  To celebrate this milestone, we are giving away $50 of ETH and 3 exclusive #NFTs  How to join? ► Follow @CryptoPickHQ ► Like &amp; Retweet ► Tag 2 friends ► Comment your CryptoPick username below  🎁8 winners -⌛️Ends in 48H https://t.co/ItWwew1yv2",282,218
1374858479870042116,"2021-03-24T22:59:39Z","Check out this 5 minute candle for #nimiq/#USDT, #BTC,#etherium   Those bearish #Bots just got #REKT. The only way now for #Nim is #moon https://t.co/1NPqG67tmL",70,23
1374858479404376067,"2021-03-24T22:59:39Z","@eip1559 NFT/Defi but not Eth Is the new Blockchain but not Btc",1,1
1374858454960115725,"2021-03-24T22:59:33Z","@Halcyon00564227 @bradmillscan @rleshner @nic__carter @lalleclausen @stephendpalley Same.  Bought my first BTC in 2013. Sold my last BTC for ETH in 2016.  Never looked back.",4,0
1374858443845070849,"2021-03-24T22:59:31Z","Another day, another day $VET is holding up very strong against $BTC in a sea of red! Upwards trend line trajectory still in play 🔥  $ETH $ADA $BNB $DOT $LINK https://t.co/haMhNe1dsS",4,0
1374858443220156416,"2021-03-24T22:59:31Z","What’s happening? Why are mostly all crypto down? #BTC #BITCOIN #ETH #Ethereum #XRP #XRPCommunity #neo #LINK #Litecoin #IOST #btt #KuCoin #cryptocurrencies https://t.co/lZXv2oMNQv",2,0
1374858441672417284,"2021-03-24T22:59:30Z","RT @CashNCrypto: $150 to one person in 48hrs  Rt &amp; follow me + @domscrypto &amp; @boar_eth",2050,4122
1374858437918650373,"2021-03-24T22:59:29Z","Thank you to all my @3DPunks_ collectors.  9 days ago, the first 3D Punk sold.   Collectors have spent 256.8 ETH ($436K USD) - I am truly humbled ❤️   3D Punks only 100 different Punks. The last 5 3D Punks are on auction for 12 hours, 1 per 12 hours.   https://t.co/eoPEfw8wJv",73,21
1374858433439088641,"2021-03-24T22:59:28Z","I just changed the price to 0.12 ETH because I want you guys to have this one! so share this tweet till everyone can see this. I LOVE YOU GUYS MORE THAN MONEY! ❤️❤️❤️ https://t.co/per9k88dGy",41,16
1374858432713535492,"2021-03-24T22:59:28Z","The DEX @FinanceChainge is set to launch on the @FUSIONProtocol network with over a million users on the protocols waitlist. This decentralized exchange aims to innovate on traditional models through leveraging the Fusion Network.  #BSC #BTC #ETH #BNB  https://t.co/xx55YiGfm3",21105,13409
1374858431614554114,"2021-03-24T22:59:28Z","@MuseumofCrypto @XCOPYART @basileus_eth @Coldie @2Yeahyeah @web3brett What's mean?",0,0
1374858428267470850,"2021-03-24T22:59:27Z","@CryptoOnce None today, but ain't tripping ! 🕺🕺 Price : 0.012 ETH https://t.co/GWaUHftLFV",0,0
1374858426090590209,"2021-03-24T22:59:27Z","I’ve just partnered with @chrixmorix to launch exclusive NFTs of his illustrations. I never thought I’d be adding “art dealer” to my resume! https://t.co/DZYQdP65Cl #nft #nfts #eth",5,2
1374858413516189701,"2021-03-24T22:59:24Z","@basedkarbon Just mkt bought a bunch of eth, pray for my soul",1,0
1374858406171922432,"2021-03-24T22:59:22Z","The DEX @FinanceChainge is set to launch on the @FUSIONProtocol network with over a million users on the protocols waitlist. This decentralized exchange aims to innovate on traditional models through leveraging the Fusion Network.  #BSC #BTC #ETH #BNB  https://t.co/xx55YiGfm3",21105,13409
1374858405064626182,"2021-03-24T22:59:22Z","#BTCUSDT broke down the red support line.  #Bitcoin #BTC $BTC #ethereum #ETH #ETHUSDT $btc #BTCUSDT #cryptocurrency #market #altcoins #Binance https://t.co/4gpu9Q2Oxf",8,3
1374858395182850049,"2021-03-24T22:59:19Z","Bull is coming for you and your friends :) @cz_binance @elonmusk @michael_saylor #bitcoin #Binance #BTC #Ethereum #ETH #Ripple #vechain #LitecoinFam #altcoins #altcoin #Crypto #cryptocurrency #cryptocurrencies #HODL $btc $eth $ltc $xrp $eos $xlm $ada $dent $nuls $sxp $ont $amb https://t.co/vULsqvpkZi",6,1
1374858390929862656,"2021-03-24T22:59:18Z","RT @kerneltrader: I’m very long $eth  Like giga fkn long  Please be the bottom https://t.co/hMS9uU7mLF",102,2
1374858381559668745,"2021-03-24T22:59:16Z","This morning I was @clubhouse in @sabet room, he supported me in an epiphany.  I’m holding back.  Time Traveler 5 of 5 .4 Eth  My new work will be my experiences with meditation and astral experiences❤️🙏🧘  @JRArtSpace_NFT  #NFTcollectibles #NFTs #NFTartist #NFTs https://t.co/w5yFI99zcH",33,7
1374858377805844482,"2021-03-24T22:59:15Z","Rafael Borré bought for 0.249 ETH (400.67$) by Spalato on the primary market   Season: 2020-2021 Level: 0 Serial: 45/100 Price: 400.67$  ⚽ Sorare: https://t.co/ArvWVyUOYU  📊: https://t.co/ml8acYrlsC  #Sorare #NFT #Ethereum #FantasyFootball",0,0
1374858373804519430,"2021-03-24T22:59:14Z","wooww Ner collector make a new bid @TaneleerTivan 2.60 ETH @NFTgirl",1,0
1374858370990157831,"2021-03-24T22:59:13Z","Look at the #attached #pic. Then tweet @elonmusk to ask him when... We need an answer so I can #complete the #Infographics. This is a lot of Utility for $FREE coin and the list continues to grow.  #FREE #Tesla #TeslaModel3 $BTC #BinanceNeedsFREEcoin #BSC #BTC #BNB #ETH https://t.co/J0g4C5yni7",123,52
1374858358319050753,"2021-03-24T22:59:10Z","@tim34839917 @AriDavidPaul @MalwareTechBlog It’s not dead yet but mankind sure is trying. I mean I’ve had people try to debate that mining crypto is like “banking natural resources”. Uhm...yeah sorry but no, that Eth wallet can’t be exchanged for the carbon footprint you used to mine it; that argument is invalid 🤷‍♂️",0,0
1374858351947972613,"2021-03-24T22:59:09Z","@BobAmorMusic @opensea A friend and I turned a historic day of Bitcoin trading into a song by letting the trend line affect the music flow!  0.1 ETH on: https://t.co/0TGIAfc5s8  🔈 Sound on for a quick preview! 🔈 https://t.co/fNwR31yA15",1,0
1374858350479937539,"2021-03-24T22:59:09Z","The DEX @FinanceChainge is set to launch on the @FUSIONProtocol network with over a million users on the protocols waitlist. This decentralized exchange aims to innovate on traditional models through leveraging the Fusion Network.  #BSC #BTC #ETH #BNB  https://t.co/xx55YiGfm3",21105,13409
1374858349456453632,"2021-03-24T22:59:08Z","When I see the top two #crypto coins are actually the top two and both of them are technically crap, i am not surprised this planet is going down the toilet, how can this inspire anyone, there are far better coins in the market yet people keep buying #bitcoin and #eth 🤷🏻‍♂️ https://t.co/c2cyqRj2jI",52,3
1374858349418840066,"2021-03-24T22:59:08Z","Dries Mertens bought for 0.99 ETH (1619.10$) on the secondary market   Season: 2019-2020 Level: 7 Serial: 4/10 Price: 1619.10$  ⚽ Sorare: https://t.co/ZbyGpUSwZ0  📊: https://t.co/l5AC7XXeML  #Sorare #NFT #Ethereum #FantasyFootball",0,0
1374858341831340041,"2021-03-24T22:59:06Z","@PennyMcStacks Turtle #006 - #010 have arrived on the #ETH blockchain  Turtle #001 - #005 all sold out within the first 24h  Collect before they're gone👀  PRICE: Ξ0.03  https://t.co/vTp3YV6C1r",0,0
1374858335300780041,"2021-03-24T22:59:05Z","💧Roku Network Airdrop 💧  🏆 Task:          ➕  15 ROK (~$5)  👨‍👩‍👧 Referral:   ➕  3 ROK (~$1)  🔛  Airdrop Link &amp; Information: https://t.co/YhvsOcfEbH  #cryptocurrency #Crypto #Bitcoin  #BSC #BinanceSmartChain #Ethereum #ETH #Airdrop #bounty #ROK #RokuCoin #RokuNetwork",3593,4682
1374858331475603458,"2021-03-24T22:59:04Z","Huge CONGRATS to the one and only @XCOPYART who just broke the All-Time sale record on SR 💎  “Death Dip”, SR token #14, just sold to collector @punk4156 for 1000 ETH ($1.73M USD) 💎 Congrats to jmahhh for the sale!   Link: https://t.co/4B4Mppib6I https://t.co/OJ3JNTvJ9x",556,81
1374858327256010754,"2021-03-24T22:59:03Z","BUYING ETH",0,0
1374858326366953473,"2021-03-24T22:59:03Z","Eth below $1600, asian session starting in an hour. 👀 📉📉",0,0
1374858324538236935,"2021-03-24T22:59:02Z","@antiprosynth @sassal0x ETH has awful marketing.  They need to market like btc.",0,0
1374858318829604866,"2021-03-24T22:59:01Z","@SaffironDark @scottmelker I received 30 ETH, thank you very much",0,0
1374858316426272768,"2021-03-24T22:59:00Z","RT @sof1azara03: $60 or 840rb Giveaway ✨  Rt and follow @domscrypto + @boar_eth + me  End : 48 hours.✨",1030,2331
1374858307823927302,"2021-03-24T22:58:58Z","$eth aint even dip that far below my average",1,0
1374858302413234181,"2021-03-24T22:58:57Z","@DetectorEU @coogshouse32 @Dmitriy46008360 @photo_pac @thesupreezyyyy @nioctibb @zibin if we are rational the NPXS or New PUNDI X will, i'm pretty sure, never passed BTC or ETH.  So as today NPXS can not go over 0.71$, this with be equal to ETH, so PUNDI X as today can't go over 710$  which is great",1,0
1374858299162648582,"2021-03-24T22:58:56Z","💎 SCARY-MOSH 💎  ✨ Artwork by @yusaymon 💰 Sold to arte for 2.75 ETH ($4,432.94)  https://t.co/4seig3OWfp  #cryptoart #NFT https://t.co/XP8glnoiyN",5,1
1374858289754873856,"2021-03-24T22:58:54Z","RT @CryptosNBA: If $eGLD would reach even half of the current MC of #ETH the price would be $5.800. Mind you, we're still early.",37,11
1374858285719769088,"2021-03-24T22:58:53Z","RT @CashNCrypto: $150 to one person in 48hrs  Rt &amp; follow me + @domscrypto &amp; @boar_eth",2050,4122
1374858261585879042,"2021-03-24T22:58:47Z","Too expensive for my taste ... @kevinroose 1.34 ETH .... why not sync up with @JeffCMays so he can explain @RepMyBlock and you can explains to him @AbolishBtLicnse?   I am about to turn more than 5000 sigs for @PaperboyPrince and 3000 for myself and 2200 (50 short) @panfornyc.",3,1
1374858248814272512,"2021-03-24T22:58:44Z","Bull is coming for you and your friends :) @cz_binance @elonmusk @michael_saylor #bitcoin #Binance #BTC #Ethereum #ETH #Ripple #vechain #LitecoinFam #altcoins #altcoin #Crypto #cryptocurrency #cryptocurrencies #HODL $btc $eth $ltc $xrp $eos $xlm $ada $dent $nuls $sxp $ont $amb https://t.co/vULsqvpkZi",6,1
1374858246784081921,"2021-03-24T22:58:44Z","@davidgokhshtein So many people have this backward. They sell when everyone else is selling (taking a huge loss), and buy when everyone else is buying (jumping in at ATH). Be a smart investor. When there is blood in the streets, accumulate. #Crypto $BTC $CNS $CNR $GRT $GLQ $ETH",17,8
1374858242065584129,"2021-03-24T22:58:43Z","We are preparing for our #marketing push for $FEG! Please #donate to this address with either #ETH or #BNB to help us out! This is so important guys! I seriously cannot stress enough how important it is that we have big funds!  Address: 0x192525b291A360e7c04b323b6ad174BDc6C97055",422,152
1374858226731253761,"2021-03-24T22:58:39Z","Been screaming about this gem since the beginning for months now  $VRX is on the left, $AVAX on the right  Don't be shaken out,  5000$ incoming  🚀  Buy $VRX NOW!  Only 47.5k max supply, 60% staked! Game changing coin🔥  #bitcoin $btc $eth  $spi $chain $umx $cfi $ern $lpt $rfr https://t.co/VJheZrWKaa",2435,3576
1374858225971912705,"2021-03-24T22:58:39Z","Day to day the markets are scary  Year to year the markets are consistent  Decade to decade the markets are wealth makers  #bitcoin #crypto #dogecoin #hogecoin #spacedoge #ETH #markets",2,0
1374858224294318093,"2021-03-24T22:58:38Z","Top 5 Mentions Updated Every 3 Minutes : Thu Mar 25 2021 00:55:37 GMT+0300 (GMT+03:00)   (BETA STAGE)  1- $ETH==&gt;190  2- $XRP==&gt;82  3- $BNB==&gt;62  4- $DOT==&gt;50  5- $LTC==&gt;46",0,0
1374858223015002112,"2021-03-24T22:58:38Z","@CashNCrypto @domscrypto @boar_eth wish me luck",0,0
1374858220628537347,"2021-03-24T22:58:38Z","🔸 New Listing🔸   #BKEX will list #DRYCAKE @DryCakeSwap🚀 🚀  - Trading pair: DRYCAKE/USDT - Trading time: 20:00 on Mar 29 (UTC+8)  🔹 🔹 More details: https://t.co/kC2IIebfTT  #Bitcoin #ETH #BKK #Blockchain https://t.co/w8CHyKXaUD",3142,4397
1374858220548853763,"2021-03-24T22:58:38Z","People said I've been negative lately...So let's give away a THICC Pokemon NFT (valued at about $1000 now, but I think at least $2k in 3 months)  Post your ETH wallet below and your favorite pokemon. Tags/Retweets to friends who like NFTs/Crypto is super appreciated. https://t.co/GHxjLnTcb1",1142,509
1374858212739051520,"2021-03-24T22:58:36Z","Fidelity, one of the biggest investment banks in America files for a #bitcoin ETF... and this is the reaction? Fucking market manipulation just knocked out everyone’s stop orders and yea it is going to skyrocket now they’re done $BTC $ETH",1,0
1374858209677123586,"2021-03-24T22:58:35Z","@JRNYcrypto @davidmatt2001 Huge discounts today gonna load up on btc ada eth.",1,0
1374858205059235842,"2021-03-24T22:58:34Z","Yari Verschaeren bought for 0.24 ETH (392.51$) on the secondary market   Season: 2020-2021 Level: 4 Serial: 14/100 Price: 392.51$  ⚽ Sorare: https://t.co/52SrvgmnkZ  📊: https://t.co/k7uRFV8mMI  #Sorare #NFT #Ethereum #FantasyFootball",0,0
1374858191960432641,"2021-03-24T22:58:31Z","RT @XRP_intel: Gas fees are nuts. Fuck, how do y’all use eth and not be pissed?",321,16
1374858181352951809,"2021-03-24T22:58:28Z","People said I've been negative lately...So let's give away a THICC Pokemon NFT (valued at about $1000 now, but I think at least $2k in 3 months)  Post your ETH wallet below and your favorite pokemon. Tags/Retweets to friends who like NFTs/Crypto is super appreciated. https://t.co/GHxjLnTcb1",1142,509
1374858180564451328,"2021-03-24T22:58:28Z","📌 The TokenKennel #Giveaway | Rules 📌 =   - Step 1: Like &amp; Retweet + tag 3-5 People! - Step 2: Follow @KennelToken &amp; @__Bullish__ - Step 3: Join https://t.co/1wcwTits9h - Step 4: Send Proof!   Prize = 100$ in #BTC or #ETH  06/04, we will announce the winner! 🎁",1814,2129
1374858177636937729,"2021-03-24T22:58:27Z","@iamDCinvestor ETH is on sale",11,0
1374858171689402368,"2021-03-24T22:58:26Z","💎 SCAR-CITY 💎  ✨ Artwork by @yusaymon 💰 Sold to arte for 2.6 ETH ($4,191.15)  https://t.co/2F7Czxeo55  #cryptoart #NFT https://t.co/Hjv6aIEnSn",11,1
1374858163179057152,"2021-03-24T22:58:24Z","@The_Ethusiast @ParanoiArt2292 HOW ABOUT SECOND?! Price : 0.012 ETH https://t.co/GWaUHftLFV",0,0
1374858157986471936,"2021-03-24T22:58:23Z","RT @IncomeSharks: $ETH bouncing already. https://t.co/PzTBG9YCUF",89,6
1374858148201299970,"2021-03-24T22:58:20Z","RT @Lionel46294550: @ShakoDoggo No what the hell is happening with btc and eth, XRP didn’t do anything but follow them https://t.co/avgG7Y8…",11,1
1374858145550409731,"2021-03-24T22:58:20Z","RT @CashNCrypto: $150 to one person in 48hrs  Rt &amp; follow me + @domscrypto &amp; @boar_eth",2050,4122
1374858126860513282,"2021-03-24T22:58:15Z","@weijie_eth @hermez_network My first tx was in batch 84! (2021 vintage OG). Included the #eth1 mainnet `forgeBatch(...)` tx - https://t.co/Vn170ZExa2 https://t.co/SeDf2diqim",2,0
1374858101589876738,"2021-03-24T22:58:09Z","You can now buy a #Tesla car with #Bitcoin   “Nothing is stronger than habit” @DavosCryptos   $BTC $ETH #TSLA #Cryptocurrency https://t.co/L0UpN4xTtm",675,790
1374858097206861826,"2021-03-24T22:58:08Z","@nftartistss @CypherBearsNFT LEMME ACT UP YESSIR Price : 0.012 ETH https://t.co/GWaUHftLFV",1,0
1374858088847712257,"2021-03-24T22:58:06Z","The year is 2032. You stare at your phone hoping your ETH transaction you payed $534 in fees for goes through so the door to your Tesla unlocks.",1355,130
1374858081046249474,"2021-03-24T22:58:04Z","@JRNYcrypto Yes, eth fees robbed me thousands of dollars.. not able to trade small caps.. ❤️ bsc.. having fun in trading  #SAFEMOON #safestar #safebtc now🔥🔥🔥",2,1
1374858071512649729,"2021-03-24T22:58:02Z","@RyanWalkinshaw @Ethermark1 @nic__carter @lalleclausen @stephendpalley dude quit being an eth maxi.  Send me some data to prove your point instead of ad hominem attacks.",0,0
1374858069490958337,"2021-03-24T22:58:02Z","Pundi X Daily Update! Turkey Currency Crash Causes 566% Rise in Bitcoin https://t.co/GmTuDxP19N @YouTube #investing #entrepreneur #cryptonews #invest #business #eth #bitcointrading #forextrader #litecoin #bitcoincash #trader #bitcoinprice #investor #forextrading #bhfyp #Holocoin",11,3
1374858068832423941,"2021-03-24T22:58:01Z","@WinstonOnoWales Bro I’m just trying to get eth/btc back to .1 so I can flip it all into orange coin  Might even go full maxi after that",1,0
1374858066970165248,"2021-03-24T22:58:01Z","And you are still not buying $ZNN ?  Generational wealth is in front of you, wake up. @Zenon_Network   The picture speaks for it self.   🚨 DYOR more than ever.  📲 https://t.co/wD8WFG9dR7  #BTC  #DeFi $ETH $DOT $DOGE $ADA $LINK $UNI $BNB $KAI $HTR https://t.co/GtuWIg1fia",21,1
1374858063442677762,"2021-03-24T22:58:00Z","$DYP liquidity providers earned 6,401.87 #Ethereum worth $10,769,945 since launch!  Earn up to 303.11% APY 💰  If you want to start earning #ETH you just need to join one of our liquidity pools: DYP-ETH, DYP-WBTC, DYP-USDC, and DYP-USDT https://t.co/zxyI0V2tnr  #DeFi #uniswap https://t.co/G1k8VLAekB",430,380
1374858057000353794,"2021-03-24T22:57:59Z","How is ethbtc still at 0.03 after all the talking Eth heads we have?",1,1
1374858054991192067,"2021-03-24T22:57:58Z","@PennyMcStacks REAL ASF!! Price : 0.012 ETH https://t.co/GWaUHftLFV",0,0
1374858048552853512,"2021-03-24T22:57:57Z","#Sponsored  😍The #DeFi Yield Protocol is developing a unique platform: Anyone can provide #liquidity &amp; be rewarded for the first time with #Ethereum  🤑6,366.95 #ETH worth $10,869,776.32 paid to the #liquidityproviders since launch  Check https://t.co/ftVaR00xr3 for details!! https://t.co/BvE29pWtpX",487,388
1374858045570871296,"2021-03-24T22:57:56Z","New https://t.co/vCNztATkNg App users can now enjoy 0% credit/debit card fees for the first 30 days! Buy #Bitcoin, #ETH, and 80+ coins at true cost.   Get started nowֱ👉 https://t.co/CTAAzyeaM0 https://t.co/wmYAMwNIc9",1800,469
1374858043058454528,"2021-03-24T22:57:55Z","💥@circuitsofvalue has just finished the contract code for trading one #NFT for another NFT on any $ETH based network!  #AMA @ https://t.co/eMxDD2FPeN  Mar 26th @ 20:00 UTC   $COVAL on #Uniswap👉🏼https://t.co/jMk9f4spnW  https://t.co/fFfuyvS6kb  https://t.co/hBtOFE0RDV https://t.co/iGdjIRNoaY",36,18
1374858037932875776,"2021-03-24T22:57:54Z","🔥 We are thrilled to announce $DYP listing on @kucoincom !  🔷 DYP/USDT &amp; DYP/ETH trading will start tomorrow, March 25th at 10AM UTC!  🔸 Stay tuned: More News and Activities TBA!  ✅ More News at: https://t.co/7xB73Xen1N https://t.co/uQ3Q5sPpq3",564,461
1374858024662224901,"2021-03-24T22:57:51Z","STC one of the respective thought is for Unprivileged Children in the world. STC 20% of total profit goes to STC special fund for Safe the Children forum. #STC $STC #ETH #DEFI #DONATION",2176,2142
1374858018781757440,"2021-03-24T22:57:49Z","🔥 WoW!!! $DYP getting listed on @kucoincom !  DYP/USDT &amp; DYP/ETH trading will start tomorrow, March 25th at 10AM UTC! Good job @dypfinance team!  #DeFi #uniswap #Ethereum https://t.co/Rw9qa5l5tA",2211,2334
1374858012028858369,"2021-03-24T22:57:48Z","@KevinSvenson_ Dump eth at 1790 looking good",0,0
1374858010649059335,"2021-03-24T22:57:48Z","This is such an amazing buy the dip opportunity rn imo. DYOR, but people will be looking back and wishing they would have bought. Im sure as shit buying #ETH rn.",4,0
1374858004579950601,"2021-03-24T22:57:46Z","03/24/21 UPDATE: Net Assets Under Management, Holdings per Share, and Market Price per Share for our Investment Products.  Total AUM: $42.9 billion  $BTC $BCH $ETH $ETC $ZEN $LTC $XLM $ZEC $BAT $LINK $MANA $FIL $LPT https://t.co/j4g2xJJDNE",324,72
1374858000159043584,"2021-03-24T22:57:45Z","@NFTZebras YESSIR Price : 0.012 ETH https://t.co/GWaUHftLFV",1,0
1374857999961972738,"2021-03-24T22:57:45Z","USD value of #ETH goes up and down, but the amount of Eth I hold is always increasing over time. The latter is more important in the long run. So many great things in the coming months.",3,1
