"ID","created_at","text","like_count","rt_count"
1374579220890849280,"2021-03-24T04:29:59Z","📌 The TokenKennel #Giveaway | Rules 📌 =   - Step 1: Like &amp; Retweet + tag 3-5 People! - Step 2: Follow @KennelToken &amp; @__Bullish__ - Step 3: Join https://t.co/1wcwTits9h - Step 4: Send Proof!   Prize = 100$ in #BTC or #ETH  06/04, we will announce the winner! 🎁",1814,2129
1374579208228196353,"2021-03-24T04:29:56Z","💧Roku Network Airdrop 💧  🏆 Task:          ➕  15 ROK (~$5)  👨‍👩‍👧 Referral:   ➕  3 ROK (~$1)  🔛  Airdrop Link &amp; Information: https://t.co/YhvsOcfEbH  #cryptocurrency #Crypto #Bitcoin  #BSC #BinanceSmartChain #Ethereum #ETH #Airdrop #bounty #ROK #RokuCoin #RokuNetwork",3593,4682
1374579205694922752,"2021-03-24T04:29:55Z","Optimism for scalability, ETH 2.0, Polygon growing daily, Uniswap V3, Balancer V2, Kyber V3, Synthetix V2, etc etc etc   Don't bet against #ethereum",822,114
1374579204780621827,"2021-03-24T04:29:55Z","🎊Total Value Locked(TVL) in #TRON #DeFi Exceeded $6.2 Billion.  🚀As of 20:30, Feb 21, 2021(HKT), the total value locked in #JustStable, #JustLend, #JustSwap, #JustBTC/ETH/LTC, Total #TRX Frozen, SR Total Votes already exceeded $6.2 Billion.  🙌Thanks to all the users. https://t.co/8e49guWnSk",1912,1066
1374579183486070788,"2021-03-24T04:29:50Z","💧Roku Network Airdrop 💧  🏆 Task:          ➕  15 ROK (~$5)  👨‍👩‍👧 Referral:   ➕  3 ROK (~$1)  🔛  Airdrop Link &amp; Information: https://t.co/YhvsOcfEbH  #cryptocurrency #Crypto #Bitcoin  #BSC #BinanceSmartChain #Ethereum #ETH #Airdrop #bounty #ROK #RokuCoin #RokuNetwork",3593,4682
1374579166893473792,"2021-03-24T04:29:46Z","Springing (0.2 ETH) :: #NFTCommunity #NFT #NFTs #NFTArtist #cryptoart #blockchain #NFTCollectors #NFTCollector #glitch #bofa https://t.co/HuLapUx5HK",3,1
1374579165458927619,"2021-03-24T04:29:46Z","💎 VEGAS CORRUPTED (RED SOLES/SOULS) 💎  ✨ Artwork by @missalsimpson 💰 Sold to @CollinsCustomIP for 2.3 ETH ($3,866.18)  https://t.co/JixxxPaRJy  #cryptoart #NFT https://t.co/rYzWKoEeXv",8,1
1374579123834740742,"2021-03-24T04:29:36Z","30 day EVIX: 96.2145 ETH/USD vwap: $1,681.08 04/09 expiry volume: $2,829,027.78 04/30 expiry volume: $7,403,096.42 Current time: 04:29:08",1,0
1374579122861604867,"2021-03-24T04:29:35Z","@bjorn_eth Alexa play fifa 15 soundtrack",2,0
1374579112098996226,"2021-03-24T04:29:33Z","🔥We have started random global airdrop of 100,000 NFTs to single wallet ETH address 🚀 USDT-NFTs is listed on Uniswap  🚀 The contract address: 0x6599fc3e77cbfa6f6e9cac605a30b1e78827eba0  💰 Holding more NFTs makes you richer  🚀Like、Retweet &amp; Tag 3 friends  #NFTs #NFT #AIRDROP https://t.co/1tf4LcEX3C",1086,943
1374579108588363776,"2021-03-24T04:29:32Z","RT @volmexfinance: What’s your ETH address?  Don’t ask why, just drop it below 👇",4854,1656
1374579086610300937,"2021-03-24T04:29:27Z","The largest cross-border arbitrage seen by @CrossCoinCo at 04:28 UTC: buy #ETH for USD on Bitstamp, then transfer it to Bithumb and sell it for KRW. The arbitrage spread is 5.8%.  More: https://t.co/xEpwOSyFhm",1,0
1374579085721153538,"2021-03-24T04:29:27Z","The largest exchange premiums &amp; discounts seen by @CrossCoinCo at 04:28 UTC: #ETH vs KRW on Bithumb is trading at a 5.8% premium to USD markets; no exchanges are trading at a discount to USD markets. Visit: https://t.co/xEpwOSyFhm",1,0
1374579083644870660,"2021-03-24T04:29:26Z","💧Roku Network Airdrop 💧  🏆 Task:          ➕  15 ROK (~$5)  👨‍👩‍👧 Referral:   ➕  3 ROK (~$1)  🔛  Airdrop Link &amp; Information: https://t.co/YhvsOcfEbH  #cryptocurrency #Crypto #Bitcoin  #BSC #BinanceSmartChain #Ethereum #ETH #Airdrop #bounty #ROK #RokuCoin #RokuNetwork",3593,4682
1374579077495939072,"2021-03-24T04:29:25Z","🚨@Hexologist31 is Streaming 📡 now   Come watch today’s Episode of HEX NEWS LIVE ! 🥼 https://t.co/Fb1O3TwCcx ___________________________ #Crypto #Cryptocurrency #BTC #DeFi #ETH #HEX https://t.co/OgaV1Jg1xN",11,2
1374579072878178305,"2021-03-24T04:29:24Z","The Binance Smart Chain has experienced rapid growth in the last six months. This can be attributed to a plethora of things such as the DeFi boom or the extreme transaction fees on the Ethereum network.  #BinanceSmartChain #BSC #BTC #ETH #Ethereum #BNB  https://t.co/CPE62tRvOb",895,207
1374579066599186434,"2021-03-24T04:29:22Z","💧DogeSwap Airdrop💧  🏆 Task:          ➕   7 DOG  👨‍👩‍👧 Referral:     ➕   2 DOG  🔛  Airdrop Link &amp; Information: https://t.co/3rlt9kiu64  #cryptocurrency #Crypto #Bitcoin  #DogeSwap #Ethereum #ETH #Airdrop #bounty #Doge #AirdropStario",3945,5026
1374579063235473410,"2021-03-24T04:29:21Z","RT @AbiWolcoff: @dixon_eth @rariblecom You better keep on dropping these bombs once I get my sales, i have to get a piece from you https://…",2,1
1374579049201233922,"2021-03-24T04:29:18Z","RSI Bull Div + Candle Bull alert 🚨 on the 4H for $USDT pairs:  $ETH $LUNA $GRT $LIT https://t.co/wXvvEpqMQM",2,0
1374579040741384195,"2021-03-24T04:29:16Z","💧Roku Network Airdrop 💧  🏆 Task:          ➕  15 ROK (~$5)  👨‍👩‍👧 Referral:   ➕  3 ROK (~$1)  🔛  Airdrop Link &amp; Information: https://t.co/YhvsOcfEbH  #cryptocurrency #Crypto #Bitcoin  #BSC #BinanceSmartChain #Ethereum #ETH #Airdrop #bounty #ROK #RokuCoin #RokuNetwork",3593,4682
1374579038656753665,"2021-03-24T04:29:15Z","Lead dev wants less ETH and more ONFT for payment. Bullish.🚀📈",118,19
1374579011855159298,"2021-03-24T04:29:09Z","Worrying that @beeple immediately converted his $69M of $Eth into USDC and says NFT's are a bubble. Seems he doesn't even value Eth at this price.  https://t.co/G6YVbyQhJc",1,0
1374578998878027778,"2021-03-24T04:29:06Z",". @dego_finance start the liquidity migration at 12:00 PM (UTC) on the 25th of March by removing the corresponding portion of core’s team liquidity from DEGO/ETH pair on #Uniswap then inject equal worth of liquidity onto #Pancakeswap, DEGO/BNB pair will be enhanced. #BSC $DEGO https://t.co/YS8DbEKFxX",33,10
1374578996873072643,"2021-03-24T04:29:05Z","RT @DailyDogeUpdate: 🚀 $1000 to anyone who Like, Follow and Retweet 🚀  #Dogecoin #LTC $ETH",1838,1206
1374578975607980034,"2021-03-24T04:29:00Z","📌 The TokenKennel #Giveaway | Rules 📌 =   - Step 1: Like &amp; Retweet + tag 3-5 People! - Step 2: Follow @KennelToken &amp; @__Bullish__ - Step 3: Join https://t.co/1wcwTits9h - Step 4: Send Proof!   Prize = 100$ in #BTC or #ETH  06/04, we will announce the winner! 🎁",1814,2129
1374578968041558022,"2021-03-24T04:28:59Z","Oh wow. Only 16 #HashBullz left at 0.02 ETH! Yeeeeehaw Crypto Cowboys and Cowgirls! Dem bulls are running. Strap on yer spurz!  #NFTs #nftart #NFTartist #NFTcollector #PixelArt #NFTcollection #cryptoart #cryptoartist  https://t.co/6PU6A2VXna",9,3
1374578954577739786,"2021-03-24T04:28:55Z","🚀 Safe The Children  🔷 Token Symbol : STC  🔷 Contract: https://t.co/nk3qsF2PJV  🔷 Website: https://t.co/4y0g7dqswM  🔷 Whitepaper: https://t.co/PHPZI4dbyR  🔷 Presentation Video : https://t.co/Mycfov12IU  #Safe_Childrens #Bitcoin  #Binance #BinanceSmartChain #DEFI  #BTC #ETH",13977,13664
1374578929944596484,"2021-03-24T04:28:49Z","📌 The TokenKennel #Giveaway | Rules 📌 =   - Step 1: Like &amp; Retweet + tag 3-5 People! - Step 2: Follow @KennelToken &amp; @__Bullish__ - Step 3: Join https://t.co/1wcwTits9h - Step 4: Send Proof!   Prize = 100$ in #BTC or #ETH  06/04, we will announce the winner! 🎁",1814,2129
1374578927524589569,"2021-03-24T04:28:49Z","@Galaxy2Galaxy5 @RAbdiAnalyst Do you think the $30B TPLF stole could get you access to the Hague? Eth will prosecute the Mai Kadra genocide terrorists while you’re waiting for Hague. And those who massacred the ENDF for the most part have been decimated in the Tigray mountains. Love your delusional fantasy.",0,0
1374578923468582919,"2021-03-24T04:28:48Z","💧Roku Network Airdrop 💧  🏆 Task:          ➕  15 ROK (~$5)  👨‍👩‍👧 Referral:   ➕  3 ROK (~$1)  🔛  Airdrop Link &amp; Information: https://t.co/YhvsOcfEbH  #cryptocurrency #Crypto #Bitcoin  #BSC #BinanceSmartChain #Ethereum #ETH #Airdrop #bounty #ROK #RokuCoin #RokuNetwork",3593,4682
1374578922235383809,"2021-03-24T04:28:48Z","💧Roku Network Airdrop 💧  🏆 Task:          ➕  15 ROK (~$5)  👨‍👩‍👧 Referral:   ➕  3 ROK (~$1)  🔛  Airdrop Link &amp; Information: https://t.co/YhvsOcfEbH  #cryptocurrency #Crypto #Bitcoin  #BSC #BinanceSmartChain #Ethereum #ETH #Airdrop #bounty #ROK #RokuCoin #RokuNetwork",3593,4682
1374578917344940032,"2021-03-24T04:28:46Z","Axie #253371 was sold for 0.536 ETH ($897.21). Buyer: 0x83addb..., seller: 0x2c340c... 🔥 Congrats to the new owner! Tx: https://t.co/92vdlALn7j #AxieInfinity #NFT #Ethereum #Play2Earn https://t.co/R4Qqz3OXta",1,0
1374578912467038209,"2021-03-24T04:28:45Z","Attention Fake #NFTCollectors: We have new piece, inspired by ETH you pretend spend for Follows and Likes.   It is call “I Am Fake Bitch”  Please DM for buy, have ETH ready.   #NFTCommunity #NFTartists #NFTcollectibles #nftcollector #NFT #NFTs #cryptoart #NFTartist #cryptopunks https://t.co/oPr3pdHJPG",4,1
1374578904237678595,"2021-03-24T04:28:43Z","Just released a new #CryptoArt piece on @opensea.   Auction ends in 4 days   Bidding starts at 1 ETH   #NFTDrop https://t.co/nxDrWEwrqM  #NFT #nftcollector #NFTCommunity #cryptoart #japanese #mythology #anime #auction #biddingwar #bid #NFTartist #photography #ai #datasets",29,8
1374578901876273152,"2021-03-24T04:28:43Z","The DEX @FinanceChainge is set to launch on the @FUSIONProtocol network with over a million users on the protocols waitlist. This decentralized exchange aims to innovate on traditional models through leveraging the Fusion Network.  #BSC #BTC #ETH #BNB  https://t.co/xx55YiGfm3",21105,13409
1374578892644749314,"2021-03-24T04:28:41Z","The time for $drgn has come, stop sleeping on this beast!  Patents, millions of tx’s, adoption, LFG!  $btc, $icx, $eth, #btc, #eth, #drgn, #icx @HuwhyteBoy @graphitezor @BinanceUS @Gemini @BES6935 @tomasico82 @XaidinCrypto @647_6733 @treyrutledge3 @CloudFaceUSA @j0j0r0 @elonmusk https://t.co/j8WDNxBkj5",66,39
1374578888374894593,"2021-03-24T04:28:40Z","@Immutable not so much a question of safety but a question of opportunity. will these sidechains have liquidity, will they have lasting power of eth, will they have the development in smartcontracts for lending/collateral use of NFT's? gas free instant trades, why use another chain",0,0
1374578888299311106,"2021-03-24T04:28:40Z","No need to spend your own money to trade #cryptocurrency. Over 10K users won crypto rewards on @latokens last week. It's the best way to join the financial revolution. Start by earning a share of $100K in CLIQ airdrop: https://t.co/2ddbP4Bi53 #Bitcoin #ETH #Citi #AON #LATOKEN",0,0
1374578885107478532,"2021-03-24T04:28:39Z","🔥We have started random global airdrop of 100,000 NFTs to single wallet ETH address 🚀 USDT-NFTs is listed on Uniswap  🚀 The contract address: 0x6599fc3e77cbfa6f6e9cac605a30b1e78827eba0  💰 Holding more NFTs makes you richer  🚀Like、Retweet &amp; Tag 3 friends  #NFTs #NFT #AIRDROP https://t.co/1tf4LcEX3C",1086,943
1374578868254744578,"2021-03-24T04:28:35Z","The DEX @FinanceChainge is set to launch on the @FUSIONProtocol network with over a million users on the protocols waitlist. This decentralized exchange aims to innovate on traditional models through leveraging the Fusion Network.  #BSC #BTC #ETH #BNB  https://t.co/xx55YiGfm3",21105,13409
1374578862592421898,"2021-03-24T04:28:33Z","RT @WhaleTrades: 📈💶$1,005,416 $ETH LONGED @$1688.8 [24/03/21 04:19:21] 🏪FTX | ETH-PERP  🗣️Bitcoin is the real Bitcoin",4,1
1374578861132947457,"2021-03-24T04:28:33Z","💧Roku Network Airdrop 💧  🏆 Task:          ➕  15 ROK (~$5)  👨‍👩‍👧 Referral:   ➕  3 ROK (~$1)  🔛  Airdrop Link &amp; Information: https://t.co/YhvsOcfEbH  #cryptocurrency #Crypto #Bitcoin  #BSC #BinanceSmartChain #Ethereum #ETH #Airdrop #bounty #ROK #RokuCoin #RokuNetwork",3593,4682
1374578858675044355,"2021-03-24T04:28:33Z","FOMPOUND token sale will be live on the 28th of March and the sale will go on over a fixed period of time.   The maximum Fompound supply is 1 million FOMP   The minimum cap to participate in the token sale is 0.1 ETH and max 20 ETH https://t.co/CnYfG7C3Gw https://t.co/IQdoIFSFNa",0,0
1374578852643540997,"2021-03-24T04:28:31Z","Something tells me that @investvoyager $VGX / $BQX and @CelsiusNetwork $CEL should EXPECT a FLOOD of new users who will be transferring their BTC and ETH from BlockFi  BEFORE APRIL 1ST... the email was sent this evening, and I just made the transfer! https://t.co/Gasbq5VKA7",96,12
1374578850684825602,"2021-03-24T04:28:31Z","🔥We have started random global airdrop of 100,000 NFTs to single wallet ETH address 🚀 USDT-NFTs is listed on Uniswap  🚀 The contract address: 0x6599fc3e77cbfa6f6e9cac605a30b1e78827eba0  💰 Holding more NFTs makes you richer  🚀Like、Retweet &amp; Tag 3 friends  #NFTs #NFT #AIRDROP https://t.co/1tf4LcEX3C",1086,943
1374578848059170816,"2021-03-24T04:28:30Z","⚡stXYM™ Updates It's now on the testnet! If you'd like to see how you can trade or provide liquidity, checkout this guide. Do note that testnet is an emulation and the testnet ETH or stXYM is not transferrable to the mainnet. https://t.co/u4q5SeJkBz",14,4
1374578847476236288,"2021-03-24T04:28:30Z","I know this might sound crazy, but, look at the slope of volume.  If this trend keeps up, are we not going to stop til $100Trilly total market cap?  LFG!  $BTC $ETH $LINK $BNT $CRAPDANO https://t.co/tXgHjQ7ukz",1,0
1374578845194481670,"2021-03-24T04:28:29Z","💧Roku Network Airdrop 💧  🏆 Task:          ➕  15 ROK (~$5)  👨‍👩‍👧 Referral:   ➕  3 ROK (~$1)  🔛  Airdrop Link &amp; Information: https://t.co/YhvsOcfEbH  #cryptocurrency #Crypto #Bitcoin  #BSC #BinanceSmartChain #Ethereum #ETH #Airdrop #bounty #ROK #RokuCoin #RokuNetwork",3593,4682
1374578843785236481,"2021-03-24T04:28:29Z","789 was created for 100 $MANA ($91.49 USD = 0.0542 $ETH) by https://t.co/RlbJyXdKWp https://t.co/O1r04cP16u #decentraland #names #avatar https://t.co/wTNHX2SJKT",3,1
1374578840312381441,"2021-03-24T04:28:28Z","Elaine was created for 100 $MANA ($91.49 USD = 0.0542 $ETH) by https://t.co/dZS6OAv6zU https://t.co/xVatKoiSAc #decentraland #names #avatar https://t.co/FIGkxcxAJU",3,1
1374578837179174914,"2021-03-24T04:28:27Z","RT @decryptmedia: Beeple Immediately Changed His $53 Million NFT Takings From ETH to USD  ► https://t.co/CEO2CraPY2 https://t.co/u4vN4ZyJ8A",133,25
1374578836851937282,"2021-03-24T04:28:27Z","📈💶$1,507,380 $ETH LONGED @$1688.1 [24/03/21 04:19:14] 🏪FTX | ETH-PERP  🗣️if you don’t like that you don’t like NBA basketball! - TraderJames13",4,1
1374578835241324544,"2021-03-24T04:28:27Z","https://t.co/NUjvlsSRbt  This NFT 1/24 giveaway in 24 hours!💥💥💥  Price 0.57 ETH =$950 !!!  🤝🤝🤝Follow me + @NOFF31497209  👍 like  💪 retweet   🤝two friends+ comment with your ETH wallet adress. 🙏🙏🙏 I wish everyone good luck   #NFTartist #rarible #nft  #cryptoart https://t.co/osNE5jYqMb",289,205
1374578820490043395,"2021-03-24T04:28:23Z","@ETH_Nation lol the bes sir",1,0
1374578812793495552,"2021-03-24T04:28:22Z","RT @WenBenko: $ETH  Looking like it's gonna be a fun week coming.  Exposure on ✌️ https://t.co/Pilc8YGtbp",101,8
1374578812084649986,"2021-03-24T04:28:21Z","$BTC under $60k is a steal  $ETH under $2k is a steal  $DOT under $40 is a steal  $LINK under $30 is a steal  $VET under $0.10 is a steal  $MATIC under $0.40 is a steal  -&gt; in a few years, we'll look back at current prices and be happy we were invested below those prices.",13,3
1374578801888272389,"2021-03-24T04:28:19Z","Good morning friends!  I specialise in making claymation based stop-motion #NFTs.   This is my first creation Find Your Mind which is listed on Foundation for 0.2 Eth https://t.co/ys3vWGJrtD  Thankyou so much for viewing. 👏  #nft #nftartist #claymation #animation #nftcommunity https://t.co/feqqQKnbG2",13,3
1374578769659359235,"2021-03-24T04:28:11Z","@danheld @Yuchian_Ci Would be really interesting to calculate TAM for all things ETH to provide a comparison to TAM for BTC.",0,0
1374578766563921920,"2021-03-24T04:28:11Z","Halloween Event Bundle was purchased for 0.0300 $ETH ($53.74 USD = 0.0300 $ETH) by https://t.co/13DwwupJps from https://t.co/M8Tfu5blg4 https://t.co/4T6eVjfyN4 #decentraland #wearables",2,2
1374578734062211077,"2021-03-24T04:28:03Z","@news_of_bsc @BinanceChain @cz_binance #BSC has made #ETH look like an old and neglected blockchain. Is the Ethirium still a thing? Lol $BNB $BSCX https://t.co/AHqZsbNLHb",126,76
1374578731986022401,"2021-03-24T04:28:02Z","The DEX @FinanceChainge is set to launch on the @FUSIONProtocol network with over a million users on the protocols waitlist. This decentralized exchange aims to innovate on traditional models through leveraging the Fusion Network.  #BSC #BTC #ETH #BNB  https://t.co/xx55YiGfm3",21105,13409
1374578725535195138,"2021-03-24T04:28:01Z","The DEX @FinanceChainge is set to launch on the @FUSIONProtocol network with over a million users on the protocols waitlist. This decentralized exchange aims to innovate on traditional models through leveraging the Fusion Network.  #BSC #BTC #ETH #BNB  https://t.co/xx55YiGfm3",21105,13409
1374578705381531650,"2021-03-24T04:27:56Z","Found SUSHI in a wallet.   Costs $6 to transfer it.    I have $4 of ETH in the Wallet.   Costs me $17 to transfer $ETH from exchange to wallet   It's costing me $23 to transfer $SUSHI plus the #Ethereum I have to buy.   Ethereum is stupid, high tx fees are stupid, &amp; we're stupid.",230,31
1374578682585550848,"2021-03-24T04:27:51Z","Great writeup on $VNLA. They chose to build on $MATIC to avoid the terrible $ETH fees. The first deflationary staking coin, it continues to burn 5% on every transaction until only 100,000 coins are left. That means every bet or trade lowers supply.  https://t.co/QdUpHPYa1V",83,17
1374578664201887752,"2021-03-24T04:27:46Z","Bitcoin Confidential invites everyone to participate in the Meme Tournament, which starts today!  https://t.co/J4I9ir4lTE  @coinkit_ give 1000 1 $SMART  @btconfidential $BC #memes #crypto #cryptocurrency #blockchain #bitcoin #BTC #eth #ada #binance #altcoin #blogger #bullrun",98,154
1374578661307805697,"2021-03-24T04:27:45Z","Crypto fees (avg) &amp; stats for the past 24 hours: -&gt; #Bitcoin: $14.16/tx paid in fees -&gt; #Ethereum: $16.75/tx paid in fees -&gt; #Litecoin: $0.034/tx paid in fees -&gt; #Nano: $0.00/tx paid in fees $BTC $ETH $LTC $NANO https://t.co/PcLal6TBMv",25,2
1374578639568662534,"2021-03-24T04:27:40Z","$LINK of it like this:  1. $BTC is powered by math etc 2. $ETH is powered by use case, adoption etc 3. $ADA is powered by hopes and dreams . . . . . 9. $LINK 'powers' everything that's taken serious in crypto  What's that... Like what you ask?  Well let's start with this ⤵️ https://t.co/MulUILeQuQ",84,16
1374578636246847488,"2021-03-24T04:27:39Z","NFTs are cool but suggesting that they're somehow more accessible to view than just looking at images on the internet is uhh, not true.   They're also generally not intuitive to collect. Setting up a wallet, bidding, paying gas fees - you need some ETH experience to own NFTs. https://t.co/E8h9fSJFnN",2,0
1374578617653456896,"2021-03-24T04:27:35Z","RT @Anthony00439858: Claim your free ETH  Claim every 30 mins  https://t.co/ZwjU3cVwKF  1. Retweet + Like  #CTBot Adrop Ram 20.6 GO 17",15,13
1374578605095677958,"2021-03-24T04:27:32Z","💧Roku Network Airdrop 💧  🏆 Task:          ➕  15 ROK (~$5)  👨‍👩‍👧 Referral:   ➕  3 ROK (~$1)  🔛  Airdrop Link &amp; Information: https://t.co/YhvsOcfEbH  #cryptocurrency #Crypto #Bitcoin  #BSC #BinanceSmartChain #Ethereum #ETH #Airdrop #bounty #ROK #RokuCoin #RokuNetwork",3593,4682
1374578589341937664,"2021-03-24T04:27:28Z","@sof1azara03 @domscrypto @boar_eth Following",0,0
1374578580554850306,"2021-03-24T04:27:26Z","thoughts on $btc pa- last retrace from support was not that impressive . not gonna add more. will wait for options expiry on 26 and then buy the dip if it gives below 50k. will update in 2-3 days. also update some charts today. $btc $eth $ada $bnb $dot $xrp $uni $ltc $link $bch https://t.co/WYiHgIOwDO",9,2
1374578579351035905,"2021-03-24T04:27:26Z","📌 The TokenKennel #Giveaway | Rules 📌 =   - Step 1: Like &amp; Retweet + tag 3-5 People! - Step 2: Follow @KennelToken &amp; @__Bullish__ - Step 3: Join https://t.co/1wcwTits9h - Step 4: Send Proof!   Prize = 100$ in #BTC or #ETH  06/04, we will announce the winner! 🎁",1814,2129
1374578571600031745,"2021-03-24T04:27:24Z","RT @sof1azara03: $60 or 840rb Giveaway ✨  Rt and follow @domscrypto + @boar_eth + me  End : 48 hours.✨",1030,2331
1374578556685148160,"2021-03-24T04:27:21Z","https://t.co/NUjvlsSRbt  This NFT 1/24 giveaway in 24 hours!💥💥💥  Price 0.57 ETH =$950 !!!  🤝🤝🤝Follow me + @NOFF31497209  👍 like  💪 retweet   🤝two friends+ comment with your ETH wallet adress. 🙏🙏🙏 I wish everyone good luck   #NFTartist #rarible #nft  #cryptoart https://t.co/osNE5jYqMb",289,205
1374578533117267968,"2021-03-24T04:27:15Z","Get ETH, USDC, TKP by doing RiveMont Bounty💰  👉 https://t.co/eWO63JCIVu  #crypto #bounty #earnonline $eth $USDC $TKP $RVMT #bountystakestrading #RiveMont",421,29
1374578512993034240,"2021-03-24T04:27:10Z","🌈New Drop🌈 The Third Eye #04 - 10/10 Edition  ⭐️Just 5 available 1 of 10 = 0.5 ETH⭐️  💙Ou now on @opensea 🐋  #nft #nfts #nftcollectors #nftcollector  @beats_wtf @cpike992 @markdono @sabet @NiwinEth @JRArtSpace_NFT @RutledgeMj   https://t.co/l6wLV35UBM",201,22
1374578494043131907,"2021-03-24T04:27:06Z","The European Union investigating #Holochain for it's DLT's. Link to 20 min vid below. If you want a link to the website hmu in comments. @elonmusk #blockchain #invest #investing #tech #technology #BTT #Bitcoin #eth #xrp #crypto #cryptocurrency #EOS  https://t.co/nimic4hpMk",56,18
1374578480789168130,"2021-03-24T04:27:02Z","Investing 101... Buy what will become scarce.  $eth $dot $ada $ltc $bnb $xtz $ocean $link $luna $theta $eos $xlm $xem $aave $snx $xrp $uni $vet $cro $doge $trx $sol https://t.co/68woxSGYiq",3,1
1374578474069848068,"2021-03-24T04:27:01Z","@ETH_Nation si amigo firs lvl!  how bout is this:  “BURY MI WITH MY MONIES”",1,0
1374578473155526659,"2021-03-24T04:27:01Z","📌 The TokenKennel #Giveaway | Rules 📌 =   - Step 1: Like &amp; Retweet + tag 3-5 People! - Step 2: Follow @KennelToken &amp; @__Bullish__ - Step 3: Join https://t.co/1wcwTits9h - Step 4: Send Proof!   Prize = 100$ in #BTC or #ETH  06/04, we will announce the winner! 🎁",1814,2129
1374578472971087872,"2021-03-24T04:27:01Z","🔄 Prices update in $USD (1 hour):  $BTC - 54277.1 $  (+0.17 %) $ETH - 1678.51 $  (+0.12 %) $DOT - 34.39 $    (+1.35 %) $ADA - 1.11 $     (+0.37 %)  #BTC #ETH #DOT #ADA #Crypto #Bitcoin",0,0
1374578471528108038,"2021-03-24T04:27:00Z","💧Roku Network Airdrop 💧  🏆 Task:          ➕  15 ROK (~$5)  👨‍👩‍👧 Referral:   ➕  3 ROK (~$1)  🔛  Airdrop Link &amp; Information: https://t.co/YhvsOcfEbH  #cryptocurrency #Crypto #Bitcoin  #BSC #BinanceSmartChain #Ethereum #ETH #Airdrop #bounty #ROK #RokuCoin #RokuNetwork",3593,4682
1374578471091937283,"2021-03-24T04:27:00Z","@cz_binance is the real GOD of #Defi.  #BSC is number one and #ETH is obsolete.    The $BSCX community will be delighted to get listed on the #Binance   Follow GOD and we can be rich!! $BNB Lead, $BSCX will follow!! https://t.co/yCd2nMFLis",185,105
1374578469267378177,"2021-03-24T04:27:00Z","The Binance Smart Chain has experienced rapid growth in the last six months. This can be attributed to a plethora of things such as the DeFi boom or the extreme transaction fees on the Ethereum network.  #BinanceSmartChain #BSC #BTC #ETH #Ethereum #BNB  https://t.co/CPE62tRvOb",895,207
1374578459117301761,"2021-03-24T04:26:57Z","📌 The TokenKennel #Giveaway | Rules 📌 =   - Step 1: Like &amp; Retweet + tag 3-5 People! - Step 2: Follow @KennelToken &amp; @__Bullish__ - Step 3: Join https://t.co/1wcwTits9h - Step 4: Send Proof!   Prize = 100$ in #BTC or #ETH  06/04, we will announce the winner! 🎁",1814,2129
1374578456705441794,"2021-03-24T04:26:57Z","🚀 Safe The Children  🔷 Token Symbol : STC  🔷 Contract: https://t.co/nk3qsF2PJV  🔷 Website: https://t.co/4y0g7dqswM  🔷 Whitepaper: https://t.co/PHPZI4dbyR  🔷 Presentation Video : https://t.co/Mycfov12IU  #Safe_Childrens #Bitcoin  #Binance #BinanceSmartChain #DEFI  #BTC #ETH",13977,13664
1374578456122507266,"2021-03-24T04:26:57Z","No need to spend your own money to trade #cryptocurrency. Over 10K users won crypto rewards on @latokens last week. It's the best way to join the financial revolution. Start by earning a share of $100K in CLIQ airdrop: https://t.co/hu8mTVCTKt #Bitcoin #ETH #Citi #AON #LATOKEN",0,0
1374578442562248704,"2021-03-24T04:26:53Z","thoughts on $btc pa- last retrace from support was not that impressive . not gonna add more. will wait for options expiry on 26 and then buy the dip if it gives below 50k. will update in 2-3 days. also update some charts today. $btc $eth $ada $bnb $dot $xrp $uni $ltc $link $bch https://t.co/WYiHgIOwDO",9,2
1374578440423178241,"2021-03-24T04:26:53Z","💧Roku Network Airdrop 💧  🏆 Task:          ➕  15 ROK (~$5)  👨‍👩‍👧 Referral:   ➕  3 ROK (~$1)  🔛  Airdrop Link &amp; Information: https://t.co/YhvsOcfEbH  #cryptocurrency #Crypto #Bitcoin  #BSC #BinanceSmartChain #Ethereum #ETH #Airdrop #bounty #ROK #RokuCoin #RokuNetwork",3593,4682
1374578433909518340,"2021-03-24T04:26:51Z","🤯 4 Haskmasks and punks finger paintings commissioned yesterday. You are amazing! Keili can't wait to show them to you. Contact me now to get your nft collectible painted in a beautiful and unique way, It will come to life, promise. ❤️ Discount on 1+ orders. @larvalabs #nftart https://t.co/OfMBxEyGzB",18,6
1374578408135520256,"2021-03-24T04:26:45Z","💧Roku Network Airdrop 💧  🏆 Task:          ➕  15 ROK (~$5)  👨‍👩‍👧 Referral:   ➕  3 ROK (~$1)  🔛  Airdrop Link &amp; Information: https://t.co/YhvsOcfEbH  #cryptocurrency #Crypto #Bitcoin  #BSC #BinanceSmartChain #Ethereum #ETH #Airdrop #bounty #ROK #RokuCoin #RokuNetwork",3593,4682
1374578407430881280,"2021-03-24T04:26:45Z","💧Roku Network Airdrop 💧  🏆 Task:          ➕  15 ROK (~$5)  👨‍👩‍👧 Referral:   ➕  3 ROK (~$1)  🔛  Airdrop Link &amp; Information: https://t.co/YhvsOcfEbH  #cryptocurrency #Crypto #Bitcoin  #BSC #BinanceSmartChain #Ethereum #ETH #Airdrop #bounty #ROK #RokuCoin #RokuNetwork",3593,4682
1374578391010136065,"2021-03-24T04:26:41Z","I AM SECRETLY A VERY FAMOUS ARTIST   MY FACE WILL BE REVEALED AFTER $1M OF NFT SALES.  THE PRICE FLOOR IS NOW AT 1 ETH. NO MORE WORK LISTED BELOW 1 ETH.  WORKS AVAILABLE IN THE GALLERY FOR AS LOW AS .03 ETH  GIT SUM  https://t.co/sQy6SEJcGL",16,6
1374578387122016257,"2021-03-24T04:26:40Z","RT @Coin98Analytics: Which blockchain do you like most now? Tell us the reasons  $SOL $ATOM $DOT $AVAX $BNB $ETH https://t.co/iAxxRr7LSQ",739,145
1374578382546083842,"2021-03-24T04:26:39Z","@UniswapD $DRC (Digital Reserve Currency)🤑 will not regret! - 1️⃣ billion INDIVISIBLE tokens 🔥 -  Use case: Store Of Value, key to Digital Reserve Platform with MAGIC vaults (BTC, ETH, gold, fiat) 💎 - Digital Reserve launched✔️  -No pre-mine, no team tokens 👊🏻 https://t.co/Ei7CxiWE61 https://t.co/rJjhg1Ll4P",7,1
1374578372303593473,"2021-03-24T04:26:37Z","Found SUSHI in a wallet.   Costs $6 to transfer it.    I have $4 of ETH in the Wallet.   Costs me $17 to transfer $ETH from exchange to wallet   It's costing me $23 to transfer $SUSHI plus the #Ethereum I have to buy.   Ethereum is stupid, high tx fees are stupid, &amp; we're stupid.",230,31
1374578366007762944,"2021-03-24T04:26:35Z","Went to buy some server stuff today and they asked me for all sorts of personal information. I asked then why they didn't just accept BTC or Ethereum yet? The people looked at me like I was  speaking a foreign language. These people hadn't even heard of BTC or ETH. WTF.",1,0
1374578351323676680,"2021-03-24T04:26:32Z","What @VitalikButerin is doing in the below video is much more of an “offering” of a security than any specific sale of #XRP that I’m aware of - (although I’m not aware of all #XRP sales).   The transfer of 500k #ETH sold to @novogratz that Vitalik publicly stated SAVED the https://t.co/xyx1aPHVB0",670,191
1374578350266544133,"2021-03-24T04:26:31Z","📌 The TokenKennel #Giveaway | Rules 📌 =   - Step 1: Like &amp; Retweet + tag 3-5 People! - Step 2: Follow @KennelToken &amp; @__Bullish__ - Step 3: Join https://t.co/1wcwTits9h - Step 4: Send Proof!   Prize = 100$ in #BTC or #ETH  06/04, we will announce the winner! 🎁",1814,2129
