"ID","created_at","text","like_count","rt_count"
1377546270613647361,"2021-04-01T08:59:59Z","Meet 'The Guest' 1/1.  Available on Rarible very soon.  Links in bio. (as usual Twitters compression rates rob the detail).  Buy if you like it, RT if you don't. #NFT #NFTs #nftcollectors #NFTCommunity #NFTartists #nftart #NFTshill #nftdrop #drop #eth #astronaut #ToTheMoon https://t.co/DZaIPNVqzA",7,3
1377546251043012611,"2021-04-01T08:59:54Z","Believe #kicktoken $kick #kick 🔥  https://t.co/G7CB5XiqBD #Bitcoin #cyrpto $xrp #BTC $eth $hot $link $doge $chz $trx $xlm $bnb $nft $ltc $defi $xvg $comp $twt $uni $defi $bat $sushi $ren $enj $grt $lrc $bal $mana $btt #Ethereum #uniswap #SushiSwap #CryptoNews #Binance #Coinbase https://t.co/PCxTocO0vN",13,4
1377546247612022786,"2021-04-01T08:59:53Z","RT @_Peculium: The $PCL token is skyrocketing! Still +20% until the #ATH!  👉https://t.co/L8RkTIMsZg  #Peculium #saieve #AI #token #btc #eth…",24,16
1377546245883957249,"2021-04-01T08:59:53Z","QDAO Airdrop Platform: ETH  Reward: 0.02 QDAO Referral Reward: 0.001 QDAO Complete all tasks  1. Retweet + Like  #CTBot Adrop Ram 500 TATM 35 https://t.co/yRJ2kiWT2b",38,39
1377546240255217665,"2021-04-01T08:59:51Z","Would be a great April Fools' joke if both $ETH and $BTC break ATH today and go parabolic",1,0
1377546225235468289,"2021-04-01T08:59:48Z","$SIN  Sint Token (SIN) - Codebase Upgrade - 30/04/2021  https://t.co/Ii2wAmujJQ  $EVENTS $XVG $XRP $ADA $BTC $ETH $LEND $REQ $XLM $NEO",1,0
1377546208986636291,"2021-04-01T08:59:44Z","$EDDA Super Rare #NFT just sold for 6.5 ETH on  @opensea @EDDASWAP @TheMehulPatel   You can get these #NFTs for FREE if you stake your $EDDA tokens.   @EDDASWAP   https://t.co/PT1uuqW5f3 https://t.co/PT1uuqW5f3",223,218
1377546198161195009,"2021-04-01T08:59:41Z","🟢 Swapped $292K in #ETH for #AAVE on #1inch 🐉  🐬 ($678K) #0xF9A957 https://t.co/HR58kY6R5J",0,0
1377546189839724544,"2021-04-01T08:59:39Z","We have a postdoc opportunity in animal movement and forest regeneration in tropical landscapes. This is a collaborative project with Crowther Lab, ETH and Max-Planck Institute for Animal Behavior. Photo: C Ziegler  https://t.co/hyiBCHEEv3  Get in touch if you are interested https://t.co/OM4DiYoCwp",162,179
1377546185133547526,"2021-04-01T08:59:38Z","My predictions for 2021  #btc $80000  $ETH $5000  $BCH $3000  $RSR 1$  $LINK $50  $UNI $20  $DOT $30  $LRC $5  $JUL $150  $DMG $5  $AGI $3  $FRM $3  $YFDAI $10k  Lets see how close I get. What are you buying?",39,8
1377546180347957248,"2021-04-01T08:59:37Z","Just starting w this @SuperRare singing 🎶 slow gun thanks to @basileus_eth. I hold it close to my heart, let this be a case study of patience and goal setting 🌜🌞 Best feedback, reach &amp; response so far + SR front page 🌌🥳 #nfts #nft #artnft #cryptoart #cryptoartist #nftartist https://t.co/sai40tWVRF",6,0
1377546166825480197,"2021-04-01T08:59:34Z","New Airdrop: Diamond Crystal (DCT) Reward: 100 DCT ($100) Rate: ⭐️⭐️⭐️⭐️ Focus: Distribution starts after airdrop ends   Bot Airdrop Link: https://t.co/9Qzk47HUKt  #Airdrop #giveaway #BTC #ETH",3978,4239
1377546165906980871,"2021-04-01T08:59:34Z","$ETH  The king of $ALTS has broken out and retested this descending wedge.  It has never been a matter of if, but the answer to when is now.  Let's go #CryptoFam!  $VET #VeChain #VeFam #VET #VTHO #AltSeason https://t.co/OtBNolhPeq https://t.co/uybV9VbfzY",64,5
1377546161511403521,"2021-04-01T08:59:33Z","RT @davidgokhshtein: Brad talking about the SEC case and #Bitcoin.   Just withdraw this damn case and give clarity.   $BTC $ETH $XRP   http…",630,151
1377546161150693376,"2021-04-01T08:59:33Z","@SimonDixonTwitt For #HEX that's great news. I'm glad you finally a HEXICAN my brother. Congratulations BOOM 💥💥💥💥💥 #bft #bnk2thefuture #btc #bnb #eth #ltc #Filecoin #bch #usdc #usdt #link #ada #xlm #cel https://t.co/smC8eQKrSC",4,1
1377546160655728641,"2021-04-01T08:59:32Z","@iamjosephyoung @CryptoMessiah it doesnt matter that much anymore as there is a lot of eth liquidity in defi. Maybe this chart should include LP positions in uni and sushi",1,0
1377546147070283777,"2021-04-01T08:59:29Z","The first Super Rare NFT on EDDASwap just sold on opensea for 6.5 ETH ($12,500)!   20/25 remain to be redeemed on EDDASwap! Don’t miss out on life changing opportunities 👀  https://t.co/IoTpiNWTZd",250,251
1377546141059870725,"2021-04-01T08:59:28Z","$EDDA Super Rare #NFT just sold for 6.5 ETH on  @opensea @EDDASWAP @TheMehulPatel   You can get these #NFTs for FREE if you stake your $EDDA tokens.   @EDDASWAP   https://t.co/PT1uuqW5f3 https://t.co/PT1uuqW5f3",223,218
1377546136223899650,"2021-04-01T08:59:27Z","@rocielart @MadBoogieArt I think there might be a setting to only allow ETH bids! I might enable that for the next drop. Also, I talked to MP on discord, that’s how I clarified how the fiat payments work. I will keep waiting and when it all arrives for the first time I’ll be much more chill. ^^ &lt;3",1,0
1377546134726541318,"2021-04-01T08:59:26Z","#Altcoinparty 🔥  - $ETH | $BTC Breaking up ✔️  - $BTC.D Breaking down✔️  - Total Altcoin market cap Breaking up✔️  - $ALT perp Breaking up✔️  - $Defi perp Breaking up✔️  - $ALT.D Breaking up✔️  - April 2017 bullmarket #Bitcoin &amp; Altcoins got send together✔️ https://t.co/qFJCIfPS4a",260,55
1377546133455650820,"2021-04-01T08:59:26Z","The first Super Rare NFT on EDDASwap just sold on opensea for 6.5 ETH ($12,500)!   20/25 remain to be redeemed on EDDASwap! Don’t miss out on life changing opportunities 👀  https://t.co/IoTpiNWTZd",250,251
1377546130427314179,"2021-04-01T08:59:25Z","That feeling when fundamental metrics and relative market cap are literally reversed.  Ethereum even settles more ETH (over $13b/day) than Bitcoin settles BTC (less than $12b/day).  And to top it all off, transacting ETH on Ethereum is cheaper than transacting BTC on Bitcoin.  🤯 https://t.co/nsYFOPr3GQ",339,83
1377546121015394307,"2021-04-01T08:59:23Z","Within 3 weeks we got Chrysalis live on the #IOTA network. Which will trigger a whole lot of news and upgrades. Be sure to be educated before this. Could be the smartest thing you have ever done!   #Bitcoin #BTC #Ethereum #Tron #ETH #Litecoin #Bitcoincash #Chainlink #Cardano #ADA",171,38
1377546116871360512,"2021-04-01T08:59:22Z","#Altcoinparty 🔥  - $ETH | $BTC Breaking up ✔️  - $BTC.D Breaking down✔️  - Total Altcoin market cap Breaking up✔️  - $ALT perp Breaking up✔️  - $Defi perp Breaking up✔️  - $ALT.D Breaking up✔️  - April 2017 bullmarket #Bitcoin &amp; Altcoins got send together✔️ https://t.co/qFJCIfPS4a",260,55
1377546112731553793,"2021-04-01T08:59:21Z","💧Fly Amanita Airdrop 💧  🏆 Task:          ➕ $5 worth of FLY  👨‍👩‍👧 Referral:   ➕ $0.5 worth of FLY  🔛Airdrop Link &amp; Information: https://t.co/Teh5tZDNPE  #cryptocurrency #Crypto #Bitcoin #Ethereum #ETH #Airdrop #bounty #FlyAmanita #FLY",1469,1809
1377546102132576256,"2021-04-01T08:59:18Z","#NFTs on #Rewardiqa coming soon ! 🔥🚀🚀🚀👨‍🎨 #NFTCommunity  #nftcollector #NFTdrop #NFTGiveaway #REW #DeFi #BSCPAD #eth #btc #opensea #marketplace #bullrun #BinanceSmartChain https://t.co/Bo1M9Pox2L",820,756
1377546097317527552,"2021-04-01T08:59:17Z","@CryptoSAfrica @FinanceGhost @rebeltrader Eth miners suggesting strikes🤣. The beauty of #bitcoin is that it takes the human factor out - there is no manipulation, no change - #bitcoin is certainty in terms of what it says it is and does. Eth, by its very nature, cannot claim to be decentralised or certain.",0,0
1377546091994955781,"2021-04-01T08:59:16Z","@ledgerstatus @ethereum It's pretty obvious open source code from @PancakeSwap will be forked big time and many newbie burns fingers there. But as you can see not even these shit coins touches eth network no more.... Just too expensive R. I. P @ethereum",0,0
1377546090208190464,"2021-04-01T08:59:16Z","Nicolao Dumitru bought for 0.184 ETH (354.51$) by DeliiO on the primary market   Season: 2021-2022 Level: 0 Serial: 1/10 Price: 354.51$  ⚽ Sorare: https://t.co/NMhmyAqUpm  📊: https://t.co/rt7MbV0UrB  #Sorare #NFT #Ethereum #FantasyFootball",0,0
1377546090178703363,"2021-04-01T08:59:16Z","The first Super Rare NFT on EDDASwap just sold on opensea for 6.5 ETH ($12,500)!   20/25 remain to be redeemed on EDDASwap! Don’t miss out on life changing opportunities 👀  https://t.co/IoTpiNWTZd",250,251
1377546089792954368,"2021-04-01T08:59:16Z","reason why $HTML never got visibility despite of good tech is because only 8 address holding 50% of the supply which is 50Bio.... so no way this will be listed in any big exchange.  @Poloniex @BittrexExchange $btc $eth $chz $trx $xvg https://t.co/9op8obvAT6 https://t.co/r6bVDCEn77",2,0
1377546089537155074,"2021-04-01T08:59:15Z","🔥🔥Win Free NFT!🔥🔥 #NFTGIVEAWAY   Candies For A Friend | Price 0.1 ETH https://t.co/iYfwyphIB1  Steps: 1️⃣ FOLLOW  @lieboutree   2️⃣ LIKE &amp; RETWEET 3️⃣ TAG 2 FRIENDS ON COMMENTS  Good luck! Winner will be anounced 10.04 #NFT #NFTcollectors #nftart #cryptoart  #rarible @rariblecom https://t.co/0SuipbfNnO",153,88
1377546081685303299,"2021-04-01T08:59:14Z","Crypto Planet Live week Fortune and The Future Of Cryptocurrency $BTC $ETH $FIL $TRX https://t.co/fQqopufaUV",3,0
1377546071132504066,"2021-04-01T08:59:11Z","@Ty_Fregz Why my bro and please tell me you bought eth after selling bnb?!?",0,0
1377546070654324736,"2021-04-01T08:59:11Z","Come on in, this is a very good project. Don't miss this opportunity, friends !!! User Telegram:  @Ariqsp2  tag 3 friends; @Rasa_Gurih @SuaraCantik @Ggiittaa2  Address #eth; 0xc646D3e6370C657aD01319A7609210AEF1a61aC3  #DOTLearnAndEarn https://t.co/kDuVJVSFSo",0,0
1377546070633324545,"2021-04-01T08:59:11Z","$TRX is up 27% today.   What is going on @justinsuntron ?  What if the Tron Platform takes a big portion of the NFT market in the next 12 months because of the cheap gas fee to create on #TRON  rather than ETH.  Create NFT on Tron = $.50 gas fee Create NFT on ETH = $45 gas fee https://t.co/RhBPuDebam",391,92
1377546064669110275,"2021-04-01T08:59:10Z","Looking for #NFTs that don't do rainbows and sunshine under .5 ETH!  If you're an unknown #NFT artist, follow the steps.  1. Follow me 2. Like and retweet 3. Link to your work in the comments.  #nft  #NFTs #NFTartist #nftart #cryptoart #nftcollectors #nftcollector #Ethereum #ETH",13,4
1377546059564642306,"2021-04-01T08:59:08Z","$SYS  Syscoin (SYS) - Syscoin 4.2 (LUX) Launch - 30/04/2021  https://t.co/fsoOHyUo1a  $EVENTS $XVG $XRP $ADA $BTC $ETH $LEND $REQ $XLM $NEO",2,0
1377546044305633283,"2021-04-01T08:59:05Z","🚘 $1.2 Million &amp; Tesla Giveaway ‼️  $BASE Protocol &amp; @Tesla have pooled over $1.2M USD for a 24h Giveaway MARATHON.  32 $ETH Airdropped every hour for the next 24 hours‼️  ⭐️ The final draw: ONE WALLET WIN A #TESLA CYBERTRUCK 🛻🚀  👉 Comment Ethereum address, Follow &amp; RT! https://t.co/n1tHCrucKk",169,176
1377546032859480064,"2021-04-01T08:59:02Z","We're doing a GIVEAWAY: 3 random people that like and retweet this post will get 5 billion $SPMK. Worth around 0.7 ETH right now. #SpaceMonkey is a memecoin, where 3% of every transaction is burned and another 3% is distributed to all holders. Both fees will be increased slowly. https://t.co/VBvTznxCd7",112,82
1377546030565130243,"2021-04-01T08:59:01Z","@elonmusk @waitbutwhy Eth market cap at 800T",0,0
1377546021337632769,"2021-04-01T08:58:59Z","It's crazy how people think 3-5 years in trading is a long time to get rich but don't think 40 years at a job is a long time to stay broke  We are in a once in a lifetime market 🔥  The financial system is being revolutionized..  April is here..  *Initiate Bull Run*  $BTC $ETH https://t.co/fR8BuiTp5U",289,53
1377546002551410688,"2021-04-01T08:58:55Z","ETH is moving; Clearly entering new era of altcoin bullishness for CRYPTOCAP:BTC.D by Ian_Carsen #BTC https://t.co/fj0UZCcaJt https://t.co/rzFYcrOWgK",0,0
1377545997363019780,"2021-04-01T08:58:53Z","You can get the first original comic pdf NFT for 1 ETH on the MakersPlace secondary. It’s called “Death” by Jose Delbo. Most people don’t realize it’s a 40+ page pdf download after you buy. They think it’s just a b&amp;w drawing of a skeleton. Only 250 copies. https://t.co/h2BtLjm26L https://t.co/xg4zmLLBze",107,13
1377545985711169539,"2021-04-01T08:58:51Z","BLING 🤑 ROO  Roo #038 has hopped onto the #ETH #Blockchain &amp; is now minted via @OpenSea.   Price:  Ξ0.015  Total Supply: 888  https://t.co/KyaFfCviCe  #Roos #nftcollectors #NFT #NFTs #crypto #pixelart #NFTcommunity #NFTart #RoosNFT #Australia #straya #kangaroos #niftythekangaroo https://t.co/HE6phAEamI",5,1
1377545975061876746,"2021-04-01T08:58:48Z","POO DROP... sorry.. ROOO DROP!!  Roo #039 has hopped onto the #ETH #Blockchain &amp; is now minted via @OpenSea.   Price:  Ξ0.015  Total Supply: 888  https://t.co/KyaFfCviCe  #Roos #nftcollectors #NFT #NFTs #crypto #pixelart #NFTcommunity #NFTart #RoosNFT #Australia #straya #kangaroo https://t.co/c7AGriSlZt",5,3
1377545975019999237,"2021-04-01T08:58:48Z","@R4ZE_Network Come on in, this is a very good project. Don't miss this opportunity, friends !!! User Telegram:  @Ariqsp2  tag 3 friends; @Rasa_Gurih @SuaraCantik @Ggiittaa2  Address #eth; 0xc646D3e6370C657aD01319A7609210AEF1a61aC3  #DOTLearnAndEarn",0,0
1377545971177910274,"2021-04-01T08:58:47Z","The first Super Rare NFT on EDDASwap just sold on opensea for 6.5 ETH ($12,500)!   20/25 remain to be redeemed on EDDASwap! Don’t miss out on life changing opportunities 👀  https://t.co/IoTpiNWTZd",250,251
1377545950542057479,"2021-04-01T08:58:42Z","🎉The circulation of #ETH on #TRON(#ETHTRON) reached 60,000.  💁‍♂️#ETHTRON is a #TRC20 token based on TRON which injects #Ethereum’s value to the TRON network. Its advantages lie in reliability&amp; efficiency. Easy conversion of Ethereum into TRC20 assets with guaranteed acceptance. https://t.co/Ba8NZboKJa",3337,1524
1377545938890321920,"2021-04-01T08:58:40Z","The first set of Ahegao NFTs sold out in a week, so I've been working on some more which are now live at https://t.co/MAOPR2F1DH  #pixel_dailies #nft #NFTs #nftart #nftartist #crypto #blockchain #eth #ethereum #digitalart #art #value #nftcollector #hentai #ahegao https://t.co/YWPHtqTMQv",78,704
1377545931948752899,"2021-04-01T08:58:38Z","$ETH  The king of $ALTS has broken out and retested this descending wedge.  It has never been a matter of if, but the answer to when is now.  Let's go #CryptoFam!  $VET #VeChain #VeFam #VET #VTHO #AltSeason https://t.co/OtBNolhPeq https://t.co/uybV9VbfzY",64,5
1377545930648518657,"2021-04-01T08:58:38Z","RT @ibenedictfuc12: my first drop #NFT on @withFND! 🌐 #digitalart #cryptoart #NFTartist  price 0.419 ETH https://t.co/i6SZlcEQic https://t.…",194,68
1377545921987153920,"2021-04-01T08:58:36Z","💧YetuBit Airdrop 2nd Round💧  🏆 Task:          ➕  25 YETU (~$20)  👨‍👩‍👧 Referral:   ➕  5 YETU (~$4)  🔛  Airdrop Link &amp; Information: https://t.co/ZoGw3AR71I  #cryptocurrency #Crypto #Bitcoin  #BSC #BinanceSmartChain #Ethereum #ETH #Airdrop #bounty #YetuBit #YetuSwap #YETU",4424,5629
1377545904584978434,"2021-04-01T08:58:31Z","@Wades_ETH Thank you for sharing",3,0
1377545899841314819,"2021-04-01T08:58:30Z","To sell my art faster and send invites to the community, I lower the price of my art just to cover the costs.  Up to 0.25 eth  If you want to get an invite faster, help with RT https://t.co/yI9vNnDcFH  #nftcollectors #nftart #NFTCommunity #FoundationInvite #withfoundation https://t.co/sbBC1aj83z",145,68
1377545893977620480,"2021-04-01T08:58:29Z","QDAO Airdrop Platform: ETH  Reward: 0.02 QDAO Referral Reward: 0.001 QDAO Complete all tasks  1. Retweet + Like  #CTBot Adrop Ram 500 TATM 35 https://t.co/yRJ2kiWT2b",38,39
1377545882845896711,"2021-04-01T08:58:26Z","RT @QuintenFrancois: $ETH to $2500 in April or I'm giving away 0.3 $ETH to someone who retweets this.",4150,6184
1377545882338435075,"2021-04-01T08:58:26Z","@sassal0x Please study the tokenomics properly. I feel sometimes you're not aware of what you're saying.   By this tweet you mean ETH has a FDV of infinity ?",0,0
1377545880639787011,"2021-04-01T08:58:26Z","GOOD NEWS $PFI holders!  Trading pairs for $PFI @protocolfinance on @DigiFinex will be changed from #ETH to #USDT today!  @coinkit_ mon 20 30 $btc",28,45
1377545879494647813,"2021-04-01T08:58:25Z","@IAMLLUCIANA Sold KSM and ETH for investing in govt t bonds",10,0
1377545871504605191,"2021-04-01T08:58:23Z","#NFTCollectors I want to show you my collection of Goblin Punks which has just started its existence. The price for each goblin is 0.01 ETH, which means that you can buy absolutely any goblin at an affordable price for your collection. https://t.co/XXoF9shDbT #NFT #NFTCommunity",1,0
1377545844887412745,"2021-04-01T08:58:17Z","@DesignsSeeks @TheCryptoAliens @thelgndryizzy @HashBastardsNFT Hey there! DM option isn't available. But my ETH is   0x68372a4d01e4261a5d60d81eabff6f712d09b7bd",2,0
1377545820183035904,"2021-04-01T08:58:11Z","RT @stocktalkweekly: $BTC #Bitcoin $59,350 $ETH $1,965  $NCTY $CAN $MARA $RIOT $EBON $SOS $LGHL $BTBT all green in premarket trading",52,10
1377545817079177217,"2021-04-01T08:58:11Z","DCT TOKEN Airdrop Medium Star Claim 1 DCT ($ 100) + 0.045 DCT ($ 10) for each referral you make.   Steps  💎  Join channel and group  💎  Follow twitter, like and retweet pinned message   💎  Submit eth wallet address (ERC-20) Participate now Airdrop link: https://t.co/L24stp8tVI https://t.co/CVYQyLAWwU",8621,8870
1377545808673861632,"2021-04-01T08:58:09Z","$EDDA Super Rare #NFT just sold for 6.5 ETH on  @opensea @EDDASWAP @TheMehulPatel   You can get these #NFTs for FREE if you stake your $EDDA tokens.   @EDDASWAP   https://t.co/PT1uuqW5f3 https://t.co/PT1uuqW5f3",223,218
1377545801166172162,"2021-04-01T08:58:07Z","@buzzcoins_ Buzzing great ETH Address 0x45CC7e625664E0290beFC7CE91F3a9BC3ea6e0Ec",0,0
1377545795583508488,"2021-04-01T08:58:05Z","RT @MCudera: 10 000 holders on $FEG #ETH. 🦍🚀🤩 #FEG #FEGEx #FEGtrack #altcoins #altseason @Uniswap @1inchExchange https://t.co/xUyQTd4HUm",76,30
1377545793142464513,"2021-04-01T08:58:05Z","RT @stocktalkweekly: $BTC #Bitcoin $59,350 $ETH $1,965  $NCTY $CAN $MARA $RIOT $EBON $SOS $LGHL $BTBT all green in premarket trading",52,10
1377545792009818115,"2021-04-01T08:58:05Z","$EDDA Super Rare #NFT just sold for 6.5 ETH on  @opensea @EDDASWAP @TheMehulPatel   You can get these #NFTs for FREE if you stake your $EDDA tokens.   @EDDASWAP   https://t.co/PT1uuqW5f3 https://t.co/PT1uuqW5f3",223,218
1377545791456313350,"2021-04-01T08:58:04Z","Yes...@Visa  $USDC settlement on @StellarOrg. Tony Rose is absolutely right! Settling on #Eth is cool but does not unlock macro payments due to high fees #StellarFamily #XLM h/t thangnd217 #stellarglobal https://t.co/xJx1WGlZrO",156,42
1377545778244198401,"2021-04-01T08:58:01Z","The #Airdrop still a live, grab it now, make sure you do all task to get the tokens/coins,   @_Oneec @goodsince82 @sky_blue   #bnb #Bitcoin #eth #BinanceSmartChain #ETHEREUM #DOTLearnAndEarn https://t.co/N2Qnf0HC56",0,0
1377545772925919234,"2021-04-01T08:58:00Z","You can use cryptocurrency to help Julian. The @couragefound's #Assange fund accepts various #crypto -  #BTC #etherium #Zcash  Other options to be added soon.   https://t.co/k5h9uSC0ha https://t.co/WTx6wx6Or1",81,53
1377545766906957824,"2021-04-01T08:57:59Z","You can use cryptocurrency to help Julian. The @couragefound's #Assange fund accepts various #crypto -  #BTC #etherium #Zcash  Other options to be added soon.   https://t.co/k5h9uSC0ha https://t.co/WTx6wx6Or1",81,53
1377545742689046529,"2021-04-01T08:57:53Z","1/ #topshotbeta Back in the day most of us in alpha/beta kept massive spreadsheets.  Inventory, sales (no other way as there wasn't any sales history), what you were offering for sale via discord etc.   Here I was working on value of packs and odds... https://t.co/HmcoQB45r7",79,7
1377545740512194561,"2021-04-01T08:57:52Z","ETH is moving; Clearly entering new era of altcoin bullishness - #BTC.D chart https://t.co/yb7WUuM2xV",0,0
1377545728365621252,"2021-04-01T08:57:49Z","How can you look at this chart and not be bullish   $ETH has been consolidating for 3 months, when volume expansion comes, and it will, it will be glorious https://t.co/omb9S0lzji",5,1
1377545727501537282,"2021-04-01T08:57:49Z","$NBS update. It gives +20% profit after my call. I am waiting the main target. For more follow and join my telegram https://t.co/B6ClnBaxuR #btc #bitcoin #BNB #doge #eth #ALTSEASON #altcoin #Binance #btt #holo #dent #XTZ #xrp #xlm #trx #doge #eth #ltc #bch #link https://t.co/qwsTFavo18",2,0
1377545710153912322,"2021-04-01T08:57:45Z","$BURST  Burst (BURST) - Major Update - 24/04/2021  https://t.co/eJYMkdS1C0  $EVENTS $XVG $XRP $ADA $BTC $ETH $LEND $REQ $XLM $NEO",18,10
1377545707666690051,"2021-04-01T08:57:44Z","BTC and ETH coupling is so annoying, they just can't be separated, like bro, pick your won path. Lol! https://t.co/DnK5PDAiIj",0,0
1377545703132692480,"2021-04-01T08:57:43Z","Slow 180 | Normal 190 | Fast 194 | Instant 207 👈 current Ethereum gas prices in gwei. DM me a price and I will DM you as soon as gas drops below that price 👍 #Ethereum #GasPrice #ETHGasPrice #ETH",0,0
1377545696409178112,"2021-04-01T08:57:42Z","searching for love   now sitting at 2 ETH --   a self portrait that has an original song that i made over It -it describes a time in my life where i was losing many friends from a lot of situations.   the collector will receive a 1/1 vinyl record that includes unreleased songs https://t.co/uPjGqYEAlX",184,44
1377545694957821952,"2021-04-01T08:57:41Z","❗️@Insur_Ace $INSUR has been listed in Huobi   Huobi Inno Hub has listed InsurAce (INSUR) under INSUR/USDT, INSUR/BTC, and INSUR/ETH trading pairs on April 1st, 7:00 AM UTC. Withdrawals to start on April 2nd, 2:00 AM UTC.  👉 https://t.co/UdwGqn0G5V https://t.co/R5m1WB70we",24,11
1377545693817081857,"2021-04-01T08:57:41Z","$ETH  If the daily candle closes above 2k, it will easily cross 2500$ mark. Keep an eye on it.  Checkout the link in bio for crypto signals  $BRD $DOGE $BCPT #cryptocurrency #bitcoin $STMX 36976 https://t.co/wxayM2TK3R",1,0
1377545690826608641,"2021-04-01T08:57:40Z","Small cup and handle to big cup and candle = great start to the moooon!!! $swrv $altszn $eth $defi $usdt $btc @cz_binance @binance @HuobiGlobal @OKEx https://t.co/B0vmWThHVX",2,0
1377545689169715203,"2021-04-01T08:57:40Z","The first set of Ahegao NFTs sold out in a week, so I've been working on some more which are now live at https://t.co/MAOPR2F1DH  #pixel_dailies #nft #NFTs #nftart #nftartist #crypto #blockchain #eth #ethereum #digitalart #art #value #nftcollector #hentai #ahegao https://t.co/YWPHtqTMQv",78,704
1377545680110018560,"2021-04-01T08:57:38Z","@MartiniGuyYT update eth?",0,0
1377545679380172803,"2021-04-01T08:57:38Z","LMAO 🤣🤣   You know what: I got a #bridge to sell as well.   It's called The #ZIL &lt; &gt; #ETH Bridge. This one is not a joke though. It's a very serious bridge. 😉   Maybe you should look into it? @JohnCleese 🍻 Cheers!    🔽 @MemesZil https://t.co/CCsnsGNCwq https://t.co/jT3EKXXwlc",59,13
1377545674317725699,"2021-04-01T08:57:36Z","Join guys @EthBal  @eth_jar  @Akuabdul2  #DOTLearnAndEarn https://t.co/5ckwI56ACi",0,0
1377545672774324225,"2021-04-01T08:57:36Z","🎉The circulation of #ETH on #TRON(#ETHTRON) reached 60,000.  💁‍♂️#ETHTRON is a #TRC20 token based on TRON which injects #Ethereum’s value to the TRON network. Its advantages lie in reliability&amp; efficiency. Easy conversion of Ethereum into TRC20 assets with guaranteed acceptance. https://t.co/Ba8NZboKJa",3337,1524
1377545665950142468,"2021-04-01T08:57:34Z","🔥🔥🔥The first quarterly burn has been completed! In total 3,084,247.29 $uDOOs were burned!  2,783,845.94 $uDOO from staking - https://t.co/v89oJyNKTi   120,879 $uDOO &amp; 2.38 ETH from farming - https://t.co/JGC3BgIIA9   61,732.57 $uDOO from HYPE - fiat conversion  HODL $uDOO https://t.co/VM23NbOBLT",219,148
1377545658215763969,"2021-04-01T08:57:33Z","@MartinaTomsic @TheMoonCarl @YouTube @TeamYouTube We the people are in dyer need or decentralized internet EIP 1559 and THETA!  Bitcoin did it for gold, now we need it for apps and video content. NOT to mention broadband expansion (THETA) (ETH 3.0)",0,0
1377545649504182273,"2021-04-01T08:57:31Z","I hate eth gas fees as f!",0,0
1377545647759364096,"2021-04-01T08:57:30Z","@R4ZE_Network Join guys @EthBal  @eth_jar  @Akuabdul2  #DOTLearnAndEarn",0,0
1377545615186423811,"2021-04-01T08:57:22Z","Are we gonna get $BTC and $ETH over $60k and $2k or what???",1,0
1377545609893318658,"2021-04-01T08:57:21Z","$EDDA Super Rare #NFT just sold for 6.5 ETH on  @opensea @EDDASWAP @TheMehulPatel   You can get these #NFTs for FREE if you stake your $EDDA tokens.   @EDDASWAP   https://t.co/PT1uuqW5f3 https://t.co/PT1uuqW5f3",223,218
1377545599050866688,"2021-04-01T08:57:19Z","⚒ Liquifi - a new-gen AMM DEX on BSC and ETH 💣 Feature - solved price slippage and best exchange rates, even in small pools ⚖ Independent Audit - the main guarantor of your investment 📄✅ https://t.co/sLxcGI3kjy",0,0
1377545594214944769,"2021-04-01T08:57:17Z","Just sold my GF for $ETH...might become a regular cuckholder",1,0
1377545587369897984,"2021-04-01T08:57:16Z","8 000 000 $ to boost the DEFI adoption on @stratisplatform locked in DAO. $strax have several companies interested already. Newest partner announcement coming. Developers in C# will be attracted to the platform and this week we will know how quick! $doge $ada $matic $eth",39,16
1377545587046879234,"2021-04-01T08:57:16Z","#NFT GIVEAWAY TIME.  We need to show the pink planets some love 💕🪐  Choose a planet from the pink planet pack: https://t.co/Celd4Gy2W9 and we'll give away ALL FOUR FOR FREE (gas included) worth 0.4 ETH / $740.  To enter simply follow, like, and retweet!  #NFTArt #FourInThePink https://t.co/YSCNoXAt6x",219,158
1377545585985642499,"2021-04-01T08:57:15Z","RT @KoroushAK: One of these days $ETH is going to surge past $2000.  In retrospect, it will look like it was inevitable.",966,70
