"ID","created_at","text","like_count","rt_count"
1375334187595534337,"2021-03-26T06:29:57Z","BUNNEH’s #NFT is a #MentalHealth initiative we created!  Please get involved!! All funds from #BUNNEHs #NFT are being used to fund Mental Health Therapy for a loved one! Contribute to a fantastic cause https://t.co/pDr0GrcdGn  All NFT starting 0.005 $ETH @coinkit_ mon 25 1000 BTC",171,0
1375334183699148800,"2021-03-26T06:29:56Z","RT @bigpeyYT: Alonzo is coming....  2021 just keeps getting better.   $ADA #Cardano $ETH https://t.co/eahktWEpKh",296,0
1375334158868877312,"2021-03-26T06:29:50Z","@TonyBullruno $POODL $DeFi $Memes $ETH he’s gonna buy 40ETH if this gets 400 likes",9,1
1375334155639132162,"2021-03-26T06:29:49Z","#CoinInn #Airdrops  THINGS TO DO: -register https://t.co/o7VvqIKX60 -RT&amp;TAG 3 firends -comment your #Coininn #BTC wallet address we will select 10 luck winners 20€ each one special winner for 50€ if you are in the #telegram group https://t.co/OrtTBnXWke #ETH #Giveaways #Bitcoin",156,1
1375334138887208962,"2021-03-26T06:29:45Z","💎 The Avalanche 💎  ✨ Artwork by @osinachiart 💰 Sold to diptychdipshit for 25.0 ETH ($40,520.25)  https://t.co/ldfWAO2O7Q  #cryptoart #NFT https://t.co/PwoDD5ls9v",26,1
1375334133174427648,"2021-03-26T06:29:44Z","$ETH #gas prices are almost half what they were a day ago!!!! #NFTCommunity  Mint your #NFTs now. #NFTCommunity",4,1
1375334118884511745,"2021-03-26T06:29:41Z","RT @AztecGoldHero: What is dead may never die, but rises again, harder and stronger.  $btc $eth $waves $xrp $nav $atom $xlm #cryptocurren…",89,1
1375334104590209027,"2021-03-26T06:29:37Z","New #digitalcurrencyalien #NFT pixel art available on https://t.co/zm1A0zl48c Limited to 1 mint each for 150+ artworks available using $ETH! RT for some free #Bitcoin !!  @coinkit_ com 50 1000 BTC #NFT",207,1
1375334086567399424,"2021-03-26T06:29:33Z","The DEX @FinanceChainge is set to launch on the @FUSIONProtocol network with over a million users on the protocols waitlist. This decentralized exchange aims to innovate on traditional models through leveraging the Fusion Network.  #BSC #BTC #ETH #BNB  #CTBot Adrop Avg 1.5 TRX 30 https://t.co/zP8GNRGqu4",33,1
1375334085258846209,"2021-03-26T06:29:33Z","Oh, hi, I am Wilba. Adventure lie'eth yonder!  Day 24,  a rainy day, I walk to painted. I steal a gnat mound for treasure hunting. I fall in love with 3 hanging vine to get 3 hedges. https://t.co/xGrT3FAR7f",0,0
1375334080175169539,"2021-03-26T06:29:31Z","@b_doc12 @brain__pudding_ @_loopymoon @clair_voy_ant @JasperAYork @210BIGJAE @GummyLsd @cryptomon_eth @Crypto888crypto @reylarsdam @pepe_relax @Giantsecret @UnemployedAlien @BadlyDrawnSS @WDKPWR @blacknftart @swamp_sludge @icas_artist @elti_uk @nekosmother @CryptoHarambes Looks gorgeous! :) lots of love in her",4,0
1375334077008519169,"2021-03-26T06:29:31Z","Did you know that paying in cryptocurrency will entitle you to a discounted rate? Pay for the course either in SRK, SFUEL, ETH, BNB, or FIAT (PH Peso or US Dollar).  Get massive discounts by availing our Early Bird Rate! Enroll here: https://t.co/TzJtGBIh9W.  #BDB #SparkLearn https://t.co/HMDb2bhyDF",124,0
1375334071434235910,"2021-03-26T06:29:29Z","$DYP liquidity providers earned 5,970.84 #ethereum worth $10,700,060 since launch!  Join one of their liquidity pools and earn up to 295.02% APY 💰  #defi #uniswap #eth https://t.co/lKbf20w2sm",1795,0
1375334068229931008,"2021-03-26T06:29:28Z","Kardiachain is inspiring a new generation of #blockchain developers and #crypto #startups. 27th March CEO Tri Pham webinar with the students of FUNIX.   Also, $kai is preparing for the next leg up. 🔥🚀🔥  #bitcoin $eth $tfuel #altcoins #ethereum $btc $link $ada $bat $theta https://t.co/xAlMLnE1lf",25,0
1375334062773133317,"2021-03-26T06:29:27Z","30 day EVIX: 103.5838 ETH/USD vwap: $1,618.17 04/16 expiry volume: $1,555,911.79 04/30 expiry volume: $8,320,533.87 Current time: 06:29:05",0,0
1375334060269002754,"2021-03-26T06:29:27Z","Welcome to massive Q DAO airdrop!   1. go now to telegram https://t.co/COyXgODY1z   2. Stay in telegram chat and wait announcement.  3. HOLD this gem until 10x   (soon - QDAO launch cross-chain for BSC, Polkadot and ETH)",4254,0
1375334058532597760,"2021-03-26T06:29:26Z","New Airdrop: Diamond Crystal (DCT) Reward: 100 DCT ($100) Rate: ⭐️⭐️⭐️⭐️ Focus: Distribution starts after airdrop ends   Bot Airdrop Link: https://t.co/9Qzk47HUKt  #Airdrop #giveaway #BTC #ETH",4033,0
1375334054762065920,"2021-03-26T06:29:25Z","Looks like $KAI is bored of the #BTC &amp; $ETH bear movements and just wants to pump to new ATH's.. Silently creeping back up on the 4H 🧐🤫🤭 https://t.co/zrnSIAzp92",59,0
1375334053365178372,"2021-03-26T06:29:25Z","Big news and Big step forward for the P2P web: Holo Limited was granted a US patent for the rrDHT networking innovations within #Holochain  rrDHT is a peer-to-peer networking design implemented in #Holochain  #btc #eth #xrp #link #ada #bnb #eos #ltc #trx #dogecoin #xlm https://t.co/s6eSUDpd3M",48,0
1375334050802626562,"2021-03-26T06:29:24Z","#CoinInn #Airdrops  THINGS TO DO: -register https://t.co/o7VvqIKX60 -RT&amp;TAG 3 firends -comment your #Coininn #BTC wallet address we will select 10 luck winners 20€ each one special winner for 50€ if you are in the #telegram group https://t.co/OrtTBnXWke #ETH #Giveaways #Bitcoin",156,0
1375334043592482818,"2021-03-26T06:29:23Z","The good thing about @dypfinance Anti-Manipulation system is that it prevents the Liquidity providers to Sell $DYP instead they are earning $ETH as staking rewards 🧠  #DYP #ETH #Ethereum #SmartContract #DeFi https://t.co/yt6C9Vehln",1905,0
1375334028467859457,"2021-03-26T06:29:19Z","NFT GIVEAWAY 14  i pick 1 person, i pay gas $15  requirement 1 POST your rarible url 2 RETWEET&amp;LIKE 3 FOLLOW twitter 4 FOLLOW rarible https://t.co/yw4UotXwyP optional 5 TAG friends  sell the cards for&gt;0.05 eth  #NFTartists  #NFTs  #Rarible #Opensea #SuperRare #nft  @rariblecom https://t.co/eBVzzoHtMe",52,0
1375334027536703492,"2021-03-26T06:29:19Z","RT @DailyDogeUpdate: If $DOGE goes over 0.6$ this month I’ll give EVERYONE who retweets this $100! 🎁  #Dogecoin #LTC #ETH",139,0
1375334027352281089,"2021-03-26T06:29:19Z","My new art available on @withFND https://t.co/qYdhLvpmkX  @MansaMusaNFT @leokcheng @euwyn @cdixon @CryptoJack2 @naiefk11142 @kyawsoulwing @nchequeiq @adamlisagor @_other_world_0 @iconow_net https://t.co/n54iI20JQk",9,0
1375334025410142212,"2021-03-26T06:29:18Z","Freshly minted and currently available for bidding at @withFND ! Reserve price starts at 0.2 ETH #NFTs #NFTCommunity #nftcollectors #NFTartist #NFTDROPS https://t.co/JhqkMOzdrV",55,0
1375334024642580484,"2021-03-26T06:29:18Z","@PaperHandsGreen Obviously $ONE. Harmony one. Its gonna be the next ETH in next bull run",2,0
1375334022998544387,"2021-03-26T06:29:18Z","@SGglobalnetwork Earn money for mahala by clicking on the link...no joining fees or no making of payments ever!!!  Let's make money guys; My ETH value grew from R62k to over R90k in just a few days, the easiest few thousand rands you'll ever make 💰 💰 💰💰 💰 💰  https://t.co/R3eHDhlbnP",0,0
1375334015612293123,"2021-03-26T06:29:16Z","Since this the launch of @dypfinance back in Dec 2020 looks like Liquidity Providers have earned $11.4 Million dollars in $ETH just from Staking!  Also the project is paying out is $ETH as well and so far 6.2K $ETH have been rewarded.   #DeFi #Crypto #Cryptocurrency #BitcoinTalk https://t.co/zis10XPcL7",1802,0
1375334005927632900,"2021-03-26T06:29:14Z","Brazilian Stablecoin Giveaway Platform: ETH  1000 people will be selected randomly  To join. Follow @brazilian_Scoin, like &amp; retweet they post, then comments your ERC20 address there!  1. Retweet + Like  #CTBot Adrop Ram 500 TATM 35",41,0
1375334001620049920,"2021-03-26T06:29:13Z","Welcome to massive Q DAO airdrop!   1. go now to telegram https://t.co/COyXgODY1z   2. Stay in telegram chat and wait announcement.  3. HOLD this gem until 10x   (soon - QDAO launch cross-chain for BSC, Polkadot and ETH)",4254,0
1375333998386290690,"2021-03-26T06:29:12Z","Today,Binance registration is ONLINE! We JUST checked! https://t.co/VL0IqipF5A #BTC #BCC #ETH #ETZ #VEN #TNT #LTC #NEO",0,0
1375333977419087873,"2021-03-26T06:29:07Z","Light at the end of ETH’s tunnel  Going to wait a bit but finally seeing something that could actually turn bullish over BTC  Feels like forever",1122,0
1375333973484662784,"2021-03-26T06:29:06Z","New #digitalcurrencyalien #NFT pixel art available on https://t.co/zm1A0zl48c Limited to 1 mint each for 150+ artworks available using $ETH! RT for some free #Bitcoin !!  @coinkit_ com 50 1000 BTC #NFT",207,0
1375333969898700801,"2021-03-26T06:29:05Z","BUNNEH’s #NFT is a #MentalHealth initiative we created!  Please get involved!! All funds from #BUNNEHs #NFT are being used to fund Mental Health Therapy for a loved one! Contribute to a fantastic cause https://t.co/pDr0GrcdGn  All NFT starting 0.005 $ETH @coinkit_ mon 25 1000 BTC",171,0
1375333969797914624,"2021-03-26T06:29:05Z","🔥 WoW!!! $DYP getting listed on @kucoincom !  DYP/USDT &amp; DYP/ETH trading will start tomorrow, March 25th at 10AM UTC! Good job @dypfinance team!  #DeFi #uniswap #Ethereum https://t.co/Rw9qa5l5tA",2225,0
1375333965762990081,"2021-03-26T06:29:04Z","For Tuesday, March 30th /3-7pm  Rent Assistance Pop Up in District F, in partnership with:  AFL-CIO  Eth Rho Sigma / Phi Beta Sigma Theta Chi /Omega Psi Phi Houston Urban League PVAMU-CODE Betterment Project Alief ISD Heads Up Houston   English/Spanish/Urdu/Swahili/Vietnamese* https://t.co/6hmvZuTVNs",12,0
1375333962197790725,"2021-03-26T06:29:03Z","Join, invest and make money. Take the opportunity. This is the best project by best team live in cryptoworld that offers big profits to all&amp; have a great future.Join fast.Visit https://t.co/iXU22sMMjm https://t.co/6xTopLiKqg #blockchain #Graphene #Airdrop $BTC $ETH $GFN $PHR",1,0
1375333956913033217,"2021-03-26T06:29:02Z","🚀 Safe The Children  🔷 Token Symbol : STC  🔷 Contract: https://t.co/nk3qsF2PJV  🔷 Website: https://t.co/4y0g7dqswM  🔷 Whitepaper: https://t.co/PHPZI4dbyR  🔷 Presentation Video : https://t.co/Mycfov12IU  #Safe_Childrens #Bitcoin  #Binance #BinanceSmartChain #DEFI  #BTC #ETH",14722,0
1375333954446839811,"2021-03-26T06:29:01Z","Punk 1552 bought for 22.5 ETH ($36,172.80 USD) by 0xd0fee4 from 0xabf107. https://t.co/DM535JzTnX #cryptopunks #ethereum https://t.co/uLSXytBeB7",12,0
1375333954258051076,"2021-03-26T06:29:01Z","The DEX @FinanceChainge is set to launch on the @FUSIONProtocol network with over a million users on the protocols waitlist. This decentralized exchange aims to innovate on traditional models through leveraging the Fusion Network.  #BSC #BTC #ETH #BNB  #CTBot Adrop Avg 1.5 TRX 30 https://t.co/zP8GNRGqu4",33,0
1375333952991363072,"2021-03-26T06:29:01Z","@CashNCrypto @domscrypto @boar_eth Goodluck ✨",0,0
1375333942967029762,"2021-03-26T06:28:59Z","RT @LinleyHermance: Lets get this #cryptocurrency #ALTSEASON started. #vtho #cro #xrp #eth #chz #utk #stmx #npxs #enj #coti #audio #ada htt…",2,0
1375333935027216392,"2021-03-26T06:28:57Z","🔥 New #NFTs art available on @rariblecom 🔥  Diamond Hands  #Ethereum #ETH  #NFT   Discover it here 👇 https://t.co/Ur901dKF9k https://t.co/doGogXRdVq",69,0
1375333934410653698,"2021-03-26T06:28:57Z","@BeachBabya10 @dirtroad405 Earn money for mahala by clicking on the link...no joining fees or no making of payments ever!!!  Let's make money guys; My ETH value grew from R62k to over R90k in just a few days, the easiest few thousand rands you'll ever make 💰 💰 💰💰 💰 💰  https://t.co/R3eHDhlbnP",0,0
1375333933794004996,"2021-03-26T06:28:56Z","Welcome to massive Q DAO airdrop!   1. go now to telegram https://t.co/COyXgODY1z   2. Stay in telegram chat and wait announcement.  3. HOLD this gem until 10x   (soon - QDAO launch cross-chain for BSC, Polkadot and ETH)",4254,0
1375333925426454529,"2021-03-26T06:28:54Z","Here you go @mitchliu we surpassed 30k $theta edge nodes. $tfuel $btc $eth $ada $dot $link $ltc $bch $xrp $xlm $xtz $trx $dgb https://t.co/mePL4Sml2k",159,0
1375333923425644544,"2021-03-26T06:28:54Z","WARNING! MASSIVE airdrop🚨   $QDAO is a true 💎since 2019, by famous team, just 10 MILLION CAP  1. Go now to Twitter @QDefi  or telegram https://t.co/x0vuSIVfV9   2. Get your free tokens  3. HODL this gem until 10x-20x🚀  (soon - launch cross-chain tool for BSC, DOT and ETH) https://t.co/QV8KvEnydw",584,0
1375333912767959040,"2021-03-26T06:28:51Z","-The #CryptoCats devs rejected the older(1st deployed) contracts found by the #NFT community  - The community decided to build their own UI after getting kicked off @opensea  -In less than 48hrs, the 1st deployed CryptoCats have done 200 ETH+ in volume.   The market has spoken 🔥 https://t.co/DPNVAVeOvE",31,0
1375333906925293568,"2021-03-26T06:28:50Z","If you had $10,000 which coin would you drop it on?   $BTC $ETH $ADA $RVN or something else? 💎  Top 3 coins I pick will get $100 $USDT each 💵 Follow and RT 🌟  Comment down below 👇",111,0
1375333903242719235,"2021-03-26T06:28:49Z","I'll send $500 in #ETH or #BTC to one person who retweets this and follows @bud_crypto. Must complete these tasks:  1 - Like/RT his pinned tweet  2 - Must RETWEET &amp; LIKE 4 of his tweets  Ends in 72 hours!",1406,0
1375333896401911812,"2021-03-26T06:28:48Z","@WabisuCollector Would like to invite you to purchase a collection of Smileys. Only 0.05 ETH a piece https://t.co/5yUneeGuQy   Also started a new collection Cryptoobies which is on auction from 0.1 ETH a bid https://t.co/odv1LDMf1y  And this is my latest NFT https://t.co/MmAqilpjip #NFT #NFTs",3,1
1375333894606647296,"2021-03-26T06:28:47Z","New #digitalcurrencyalien #NFT pixel art available on https://t.co/zm1A0zl48c Limited to 1 mint each for 150+ artworks available using $ETH! RT for some free #Bitcoin !!  @coinkit_ com 50 1000 BTC #NFT",207,1
1375333865322016774,"2021-03-26T06:28:40Z","🚨 #NFT giveaway alert! We’re giving away our first 3 tokens to 3 lucky people! Our NFTs are #phygital meaning theyre attached to their physical counterpart 👀  To enter: Tag a friend and retweet Follow  #crypto #bitcoin #eth $uni #opensea #hash #art #defi $ern $meme $eth $dao https://t.co/eyJwU98d6K",21,1
1375333855696093186,"2021-03-26T06:28:38Z","💧Bitcoin Asset Airdrop💧  🏆 Task:          ➕ 1 BTA   🔛  Airdrop Link &amp; Information: https://t.co/WSXvQoY5Kb  #cryptocurrency #Crypto #Bitcoin  #BSC #BinanceSmartChain #Ethereum #ETH #Airdrop #bounty #BitcoinAsset #BTA",1252,1
1375333852068085763,"2021-03-26T06:28:37Z","RT @NFT_Flipper: Pink Neighborhood - The Protector by @GhisleriFilippo  1 of 1 On @rariblecom for 0.3 ETH  https://t.co/zrJrtoaCVr",74,1
1375333849526267905,"2021-03-26T06:28:36Z","@beaniemaxi @WAX_io Haha, even tho there are a lot of excellent projects on ETH, WAX &gt; ETH tbh.",0,0
1375333838897831939,"2021-03-26T06:28:34Z","New Drop !!! Reserve price 0.60 ETH Bidding started now !!! . . #NFT #NFTs #nftcollector #NFT #blockchain #Ethereum   Check out this artwork by Paschamo on @withFND! 🌐 @unblockgallery   https://t.co/We6XmtMNjt https://t.co/L9V2CJpuOQ",49,0
1375333832870617095,"2021-03-26T06:28:32Z","RT @hallmonitor19: Buy the dip!  $BTC $ETH $TRDL $RAINI",3,0
1375333827481120768,"2021-03-26T06:28:31Z","RT @x_eightynine: Just got a 1000 $eth from a recent #nft resale.  Spending it all on #cryptoartists   Just post your work and retweet.  /s",354,0
1375333822334648323,"2021-03-26T06:28:30Z","BREAKING: in a statement AbiyAhmed released, he said #Eritrea agreed to withdraw its forces immediately. This is antagonistic to what he said to the Eth. Parliament that Eritrean forces will remain in #Tigray for unspecified period. Could be a tactic to ease pressure. @Reuters https://t.co/4w1wwVWD2H",134,0
1375333816370294784,"2021-03-26T06:28:28Z","Isn’t It Satisfying Knowing That #Xrp has Absolutely No Negative Affect To It’s Market Or Competitors? Apart From It’s Unique Potential To Outperfom The Rest? #BTC &amp; #ETH Are Beginning To Rust. Ladies And Gentlemen — We Are Quantum. #xrpcommmunity🃏",288,0
1375333813996318721,"2021-03-26T06:28:28Z","@TrustWalletApp Probably some TWT and ETH",0,0
1375333803787481088,"2021-03-26T06:28:25Z","@QuintenFrancois I don’t get one thing  We are in the era of innovation and we are so obsessive with Eth  I think there shouldn’t be rigid belief we should open to innovations as newbie small investor my most investment in ether but let’s embrace open to others innovative projects",3,0
1375333793486225409,"2021-03-26T06:28:23Z","👀Watching #Ethereum - What do you think we'll see in the next 24 hours? #ETH 🚀",1,0
1375333790885670923,"2021-03-26T06:28:22Z","New #digitalcurrencyalien #NFT pixel art available on https://t.co/zm1A0zl48c Limited to 1 mint each for 150+ artworks available using $ETH! RT for some free #Bitcoin !!  @coinkit_ com 50 1000 BTC #NFT",207,0
1375333786917826564,"2021-03-26T06:28:21Z","#blockchain #cryptocurrency #defi #phore #ecommerce #marketplace #sharding #smartcontracts #crypto #bitcoin #ethereum #Graphene #Airdrop $BTC $ETH $GFN $PHR  Phore is a great project that make user earn reward by participation in the Phore network, similar to interest.",1,0
1375333781482188803,"2021-03-26T06:28:20Z","@auzziejlee u should impact your feet on some grass !!! $ETH $BTC $FEMBOY $DASH $DTHD",3,0
1375333772019724290,"2021-03-26T06:28:18Z","RT @CryptoBoss1984: $ETH / BTC Livermore speculative Chart, the bounce will be epic https://t.co/HRsrOgivgG",288,0
1375333770270752770,"2021-03-26T06:28:17Z","We are hiring! Senior Lecturer at ETH NADEL - Center for Development and Cooperation, 80%, starting September 2021. To find out more about the position and how to apply, please visit https://t.co/ViJqOxKJOx #internationalcooperation #development #teaching #opportunity https://t.co/GLhXalzmgP",16,10
1375333761244557314,"2021-03-26T06:28:15Z","....Random but one thing about me is I will never go against th Grain ie Wheat, I'll go against the Tares tho even when others cant see (it) Lol....Rabbi's word is LAW and anyBody against Eth thats still Breathing Already got a Foot in the Lake of Fire 🔥, Misery loves Company🤔",34,10
1375333758182756354,"2021-03-26T06:28:15Z","Btw today's Cryptocurrency Rates: COSMO/USDT: $0.00042 (↓ 38%) COSMO/ETH: $0.00043 (↓ 34%)  COSMO price: $0.00043 (↓ 35%)  Money bagFully diluted market cap: $1,835,272.79",2,10
1375333744018530308,"2021-03-26T06:28:11Z","🔸 New Listing🔸   #BKEX will list #DRYCAKE @DryCakeSwap🚀 🚀  - Trading pair: DRYCAKE/USDT - Trading time: 20:00 on Mar 29 (UTC+8)  🔹 🔹 More details: https://t.co/kC2IIebfTT  #Bitcoin #ETH #BKK #Blockchain https://t.co/w8CHyKXaUD",2480,10
1375333740264652800,"2021-03-26T06:28:10Z","https://t.co/FwgyBrvYUq a BSC-customized fork of Tornado.  I just aped. I'm bullish in this one. Privacy coin for BSC. If you like tornado for ETH and enjoyed its massive growth. A good entry is right now. You'll thank me in April https://t.co/zIFNRhzfEZ #BSC #BNB #DeFi",14,10
1375333739371237376,"2021-03-26T06:28:10Z","🚀 Safe The Children  🔷 Token Symbol : STC  🔷 Contract: https://t.co/nk3qsF2PJV  🔷 Website: https://t.co/4y0g7dqswM  🔷 Whitepaper: https://t.co/PHPZI4dbyR  🔷 Presentation Video : https://t.co/Mycfov12IU  #Safe_Childrens #Bitcoin  #Binance #BinanceSmartChain #DEFI  #BTC #ETH",14722,10
1375333738586902529,"2021-03-26T06:28:10Z","@bignftcollector @CollabPunks When astronomers first see a nebula, they are innoted by their first impression.  #NebulaViolet by: @juanrfarias   0x02DDB2eB335b745c282d84d8FBcbbe67267b541d  #NFTs #nftart #NFTCommunity #NFTartist #nftcollector #opensea #ETH #cryptoart #Wax  https://t.co/TVZ4jx1ZOl",3,10
1375333726054273025,"2021-03-26T06:28:07Z","Welcome to massive Q DAO airdrop!   1. go now to telegram https://t.co/COyXgODY1z   2. Stay in telegram chat and wait announcement.  3. HOLD this gem until 10x   (soon - QDAO launch cross-chain for BSC, Polkadot and ETH)",4254,10
1375333724116541442,"2021-03-26T06:28:06Z","@CashNCrypto @domscrypto @boar_eth Doneee",0,0
1375333719033135104,"2021-03-26T06:28:05Z","@DefizeProtocol A very nice project and an amazing team. All task done. @RafsanFaisal @shafi_ghaderi @Tobheey . ETH: 0x3FAa9716C36C0F9cf8545198A98684cE040a7aDd",1,0
1375333709839147010,"2021-03-26T06:28:03Z","#CoinInn #Airdrops  THINGS TO DO: -register https://t.co/o7VvqIKX60 -RT&amp;TAG 3 firends -comment your #Coininn #BTC wallet address we will select 10 luck winners 20€ each one special winner for 50€ if you are in the #telegram group https://t.co/OrtTBnXWke #ETH #Giveaways #Bitcoin",156,0
1375333698661445635,"2021-03-26T06:28:00Z","What are your expectations for the effect of the #SuezBLOCKED incident on the #cryptocurrencies /#blockchain? @sentosumosaba @britishgirlxrp @galgitron @JoelKatz @BitrueOfficial @UpholdInc @krakenfx @elonmusk #xrp #XRPcommunity #bitcoin #eth #ltc #dogecoin #ADA #XDC #VET #btr",1,0
1375333680680345601,"2021-03-26T06:27:56Z","After you try to use #BSC , you will hate to use #ETH due to high gas fee. You will never go back to Eth. Eth price shall go below $500 when more and more token move to #bsc gradually. Lol.",0,0
1375333675429097476,"2021-03-26T06:27:55Z","Welcome to massive Q DAO airdrop!   1. go now to telegram https://t.co/COyXgODY1z   2. Stay in telegram chat and wait announcement.  3. HOLD this gem until 10x   (soon - QDAO launch cross-chain for BSC, Polkadot and ETH)",4254,0
1375333667485200396,"2021-03-26T06:27:53Z","New website  https://t.co/FN8muIQxBY   #bisqa #3dart #animation #loop #cinema4d  #digitalart #digitalartist #nfts  #superrare #niftygateway #rarible #makerspace #opensea #withfoundation #ethereum #eth #makersplace #render #mdcommunity #thegraphicspr0ject #sandiego #abstractart",2,0
1375333665710964737,"2021-03-26T06:27:53Z","Binance - Volume changed on Ontology (ETH/ONT)! Price: $0.00077700 (+0.39%), Volume: +45.63%, Mentions Daily Change: -40.00% https://t.co/xg09DOGLhb",0,0
1375333661642350594,"2021-03-26T06:27:52Z","The DEX @FinanceChainge is set to launch on the @FUSIONProtocol network with over a million users on the protocols waitlist. This decentralized exchange aims to innovate on traditional models through leveraging the Fusion Network.  #BSC #BTC #ETH #BNB  https://t.co/xx55YiGfm3",21660,0
1375333660979732480,"2021-03-26T06:27:51Z","The DEX @FinanceChainge is set to launch on the @FUSIONProtocol network with over a million users on the protocols waitlist. This decentralized exchange aims to innovate on traditional models through leveraging the Fusion Network.  #BSC #BTC #ETH #BNB  https://t.co/xx55YiGfm3",21660,0
1375333657523654656,"2021-03-26T06:27:51Z","🚨DO NOT FALL FOR SCAMS🚨  $EBOX token is not  trading anywhere at the moment-official contract address will only be posted on our  channels as following🤝  Official $EBOX Contract Address:   0x33840024177a7daca3468912363bed8b425015c5  Decimals: 18   Ticker: EBOX  #staysafe #ETH",234,0
1375333645133606914,"2021-03-26T06:27:48Z","@Plutoinfotoken Nice  Eth address : 0x83D2dd141C04D357370D046AFcdC788b39279788",0,0
1375333643602776065,"2021-03-26T06:27:47Z","Welcome to massive Q DAO airdrop!   1. go now to telegram https://t.co/COyXgODY1z   2. Stay in telegram chat and wait announcement.  3. HOLD this gem until 10x   (soon - QDAO launch cross-chain for BSC, Polkadot and ETH)",4254,0
1375333633427349506,"2021-03-26T06:27:45Z","New #digitalcurrencyalien #NFT pixel art available on https://t.co/zm1A0zl48c Limited to 1 mint each for 150+ artworks available using $ETH! RT for some free #Bitcoin !!  @coinkit_ com 50 1000 BTC #NFT",207,0
1375333620836040706,"2021-03-26T06:27:42Z","If you had $10,000 which coin would you drop it on?   $BTC $ETH $ADA $RVN or something else? 💎  Top 3 coins I pick will get $100 $USDT each 💵 Follow and RT 🌟  Comment down below 👇",111,0
1375333615236751361,"2021-03-26T06:27:40Z","Isn’t It Satisfying Knowing That #Xrp has Absolutely No Negative Affect To It’s Market Or Competitors? Apart From It’s Unique Potential To Outperfom The Rest? #BTC &amp; #ETH Are Beginning To Rust. Ladies And Gentlemen — We Are Quantum. #xrpcommmunity🃏",288,0
1375333614083305475,"2021-03-26T06:27:40Z","Aircoins (AIRx) now available on #CoinMarketCap  https://t.co/yq9NxjFWiS  To celebrate we are giving away $200 in #ETH and $200 In #BNB   To enter contest tag #BSC and #CMC   Two lucky winners will be selected March 28th 9am EST. #AIRx is both on #BSC &amp; #ETH networks!🎉🥳📸📱🥂💥 https://t.co/k1ytohl9Fa",479,0
1375333602246815749,"2021-03-26T06:27:37Z","#CoinInn #Airdrops  THINGS TO DO: -register https://t.co/o7VvqIKX60 -RT&amp;TAG 3 firends -comment your #Coininn #BTC wallet address we will select 10 luck winners 20€ each one special winner for 50€ if you are in the #telegram group https://t.co/OrtTBnXWke #ETH #Giveaways #Bitcoin",156,0
1375333601680711685,"2021-03-26T06:27:37Z","RT @scoinaldo: We aren’t finished before $BTC 150k and $ETH 9k.  Good Night 🌙",3062,0
1375333596806922240,"2021-03-26T06:27:36Z","@ui_crystal Thanks for the opportunity, Great giveaway project 🥰 I hope $DCT are success and go to the moon 🚀 i think it is one of the best project in the world🤩   ETH Address: 0xaD79BF6816F4909dED9A77e525D9fC29D1EFea26  I have done All rules ✅✅   Good luck 🥰",0,0
1375333572870086661,"2021-03-26T06:27:30Z","BUNNEH’s #NFT is a #MentalHealth initiative we created!  Please get involved!! All funds from #BUNNEHs #NFT are being used to fund Mental Health Therapy for a loved one! Contribute to a fantastic cause https://t.co/pDr0GrcdGn  All NFT starting 0.005 $ETH @coinkit_ mon 25 1000 BTC",171,0
1375333568835158016,"2021-03-26T06:27:29Z","🔥We have started random global airdrop of 100,000 NFTs to single wallet ETH address 🚀 USDT-NFTs is listed on Uniswap  🚀 The contract address: 0x6599fc3e77cbfa6f6e9cac605a30b1e78827eba0  💰 Holding more NFTs makes you richer  🚀Like、Retweet &amp; Tag 3 friends  #NFTs #NFT #AIRDROP https://t.co/1tf4LcEX3C",1096,0
1375333552720609280,"2021-03-26T06:27:26Z","No need to spend your own money to trade #cryptocurrency. Over 10K users won crypto rewards on @latokens last week. It's the best way to join the financial revolution. Start by earning a share of $100K in CLIQ airdrop: https://t.co/OkCB2zmCAQ #Bitcoin #ETH #Citi #AON #LATOKEN",0,0
1375333549662892038,"2021-03-26T06:27:25Z","BUNNEH’s #NFT is a #MentalHealth initiative we created!  Please get involved!! All funds from #BUNNEHs #NFT are being used to fund Mental Health Therapy for a loved one! Contribute to a fantastic cause https://t.co/pDr0GrcdGn  All NFT starting 0.005 $ETH @coinkit_ mon 25 1000 BTC",171,0
