"ID","created_at","text","like_count","rt_count"
1376474209388527616,"2021-03-29T09:59:59Z","This is huge. This is insane. @ethereum you better get strapped in! $ETH https://t.co/lqUMlZ70Uo",0,0
1376474190509793288,"2021-03-29T09:59:55Z","#MXCExchange will list $TOWER and Launch the 43rd Session MX DeFi - Stake $USDT, $MX, $BTC, $ETH to Earn Yield $TOWER.  ▶️Follow @MXC_Exchange &amp; @TowerToken  ▶️Like, RT &amp; Tag 3 friends ▶️Comment  🏆10 ppl * 125 $TOWER  More info about the listing: https://t.co/VqsPboXOb5 https://t.co/6RZ4gmWYtY",998,0
1376474190258302976,"2021-03-29T09:59:55Z","These are the fundamentals to invest in a project that will go from 0.05$ to 0.50$ 🤑 $UBXT it is 😎💎🔥🔥  $ada $fet $luna $link $uni $inj $vra $ubx $coti $theta $eth  #btc   @kucoincom   👇  https://t.co/UXYJhjH4qt https://t.co/vOrNQk3gT9",18,0
1376474176538705921,"2021-03-29T09:59:51Z","#BTC Price: $57765 #ETH Price: $1761 #LTC Price: $195  Next update in 10 minutes Last updated: 5:59:51.05",1,0
1376474166782795777,"2021-03-29T09:59:49Z","#BreakingNews Things are moving rather quickly in the crypto world.  #Crypto #Cryptocurrency #CryptoNews #BlockChain #BlockChainTechnology #ETH #Ethereun #VisaCreditCard #Visa https://t.co/LqvuOBuYZM",1,0
1376474157161062405,"2021-03-29T09:59:47Z","Optimism (#ETH's solution to its scalability issue) has been delayed again until July, just like $ETH 2.0, just like every solution developed by Ethereum.  You guys think my memes are just mockery lmao, they're not, they're a parody of reality.  Read: https://t.co/te9wIY3RaK",30,0
1376474143844139013,"2021-03-29T09:59:44Z","$egld   Faster transaction than $eth  Better staking rewards than $polka  Faster moving and delivering than $ada   Coolest CEO with @beniaminmincu",107,0
1376474142069948422,"2021-03-29T09:59:43Z","Together with the fact that:   - Amount of $ETH locked in DeFi growing - Most of NFT transactions and minting on ETH - Amount of $ETH locked in ETH2.0 growing - EIP-1559 upcoming, increasing the scarcity",11,0
1376474140119552000,"2021-03-29T09:59:43Z","👇🏾 pictures speaks a lot! የ ሁለት አለም ሰዎች!!! @DahlaKib @NeaminZeleke @iyoba4u @NoRoom4FakeNews @daynachew @UnityForEthio @eth_first1 https://t.co/i1XwtnEGlS",201,0
1376474138391556096,"2021-03-29T09:59:42Z","70k ?? Incoming king is making move $btc for life $btc $eth $ltc $eos $link $dot $neo $avax $hbar $vet $grt $trx $reef $bnb $qtum $omg $drep #btc #altcoin #BTC #kingmove #tothemoon #Altseason2021 #btcseason   Hit that follow button not to miss our tips they are wealth making...",2,0
1376474137607041026,"2021-03-29T09:59:42Z","Welcome to massive Q DAO airdrop!   1. go now to telegram https://t.co/COyXgODY1z   2. Stay in telegram chat and wait announcement.  3. HOLD this gem until 10x   (soon - QDAO launch cross-chain for BSC, Polkadot and ETH)",4254,0
1376474136508211208,"2021-03-29T09:59:42Z","RT @ElCrypto8: $TOSA ready for liftoff, lots of news coming this week $TOSA $BTC $ETH $POODL $HOGE $GRUMPY https://t.co/cGJ3zBkOuj",18,0
1376474120968404994,"2021-03-29T09:59:38Z","@binance @Conflux_Network When Will you list #spc #spacechain. you are still not aware of the existence of this project. Very interesting... #btc #ETH",1,0
1376474106657439745,"2021-03-29T09:59:35Z","Hi guys!🥰❤ Interest to my collection grow faster then I could imagine! I work at new drops, but now I want to get ur attention to this piece! 🔥It's the only piece left under 0.5 ETH in my collection 😉Who will grab it? https://t.co/JGjJ91Ykj1 #NFTCommunity #NFTs #nftart #NFT https://t.co/mChLCqfpEf",49,0
1376474092103143428,"2021-03-29T09:59:31Z","⚡️New #FlashLoan 1 $ETH to 0x50a5564fdd33f1a074c4aabeecfb17fcd156ac2b  https://t.co/3jW9oZ54BI",0,0
1376474080849715202,"2021-03-29T09:59:29Z","I'll send $300 in #ETH or #BTC to one person who retweets this and follows @bud_crypto. Must complete these tasks:  1 - Like/RT his pinned tweet  2 - Must RETWEET &amp; LIKE 4 of his tweets  Ends in 72 hours!",1206,0
1376474073732014085,"2021-03-29T09:59:27Z","Glad to see that $YFDAI on the list.😃  Their social activity is very strong 💪  If you don't own any #YfDAI then now might be the great time to  think about getting some because this project is going to be massive.🚀🚀🚀  @YfdaiF #ETH #DeFi https://t.co/I14dXUoq0Z",61,0
1376474072054263808,"2021-03-29T09:59:27Z","🔥HOT🔥 - $100 in Cryptocurrency | Giveaway!  To win: ✔ Follow us &amp; @MatrixAINetwork ✔ Tag a friend ✔ Retweet ✔ Join: https://t.co/R9H48O8Tq3 Thats it! Good luck! 💖 Rolling in 24 hours!  #goodvibes #goodluck #giveaway #bitcoin #Giveaways  #cryptocurrency #eth #btc #BSC #TRON https://t.co/0Eju3gcguv",306,0
1376474061597892610,"2021-03-29T09:59:24Z","Because CHUBBIE #0 is currently over 30ETH, we will giveaway CHUBBIES #5537 and #1963 (Both Shinies ~$1,500 each)   -to ONE person that retweets this tweet and follows!  Current bid: 69.69 ETH  CHUBBIE #0: https://t.co/NfK8fP1uZP https://t.co/DsIqf9abnz",613,0
1376474050311172096,"2021-03-29T09:59:21Z","AI ART FACE on @opensea! #nft #opensea https://t.co/WivL05fHuo  #freenft #nftart #nft #cryptoart #crypto #eth #ethereum #superrare #rarible #opensea #openseaio #art #nftcollector #nftcollectors #rari #flow #erc721 #nftartist #blockchain",5,0
1376474050021711874,"2021-03-29T09:59:21Z","$30 ETH giveaway! 🧨  - Retweet + follow me &amp; @bcgamewin    - Tag your mates   - Winner rolled 48hrs! GLHF!🤞  - comment:  https://t.co/Wr9AS7cu8e  #giveaway",61,0
1376474047563849730,"2021-03-29T09:59:21Z","NeosVR is utilizing NFTs on top of already dealing in ETH as a craptocurrency. I am so disappointed with this. Not even going to bother supporting the platform after this. https://t.co/90oGpgxMWY",12,0
1376474045248573444,"2021-03-29T09:59:20Z","Let's Go!!! Time for the real alt-coin season to begin!   $ETH $USDC #Visa #altseason https://t.co/9ZYgy18GAD",1,1
1376474036235030529,"2021-03-29T09:59:18Z","Are you also trading one of the top 4 assets on Bitpanda today?   1️⃣  $BTC 2️⃣  $ETH 3️⃣  $BEST 4️⃣  $BTT  Let us know below 👇 https://t.co/9zLW8Vlatv",482,1
1376474035530305539,"2021-03-29T09:59:18Z","The good thing about @dypfinance Anti-Manipulation system is that it prevents the Liquidity providers to Sell $DYP instead they are earning $ETH as staking rewards 🧠  #DYP #ETH #Ethereum #SmartContract #DeFi https://t.co/yt6C9Vehln",1905,1
1376474034192347138,"2021-03-29T09:59:18Z","unfortunately, You Can NOT buy 👉 NEOMU But you can buy  👉 ART of NEOMU #nft #nfts #nftart #nftarts #nftcollector #opensea #etherium #NFTCommunity  https://t.co/vAhkiGfqRH",14,1
1376474030153334786,"2021-03-29T09:59:17Z","RT @galaxyBTC: $ETH will turn from annoying it doesn't pump to annoying I don't have more real quick.  Have a great week. https://t.co/…",1057,1
1376474029582913540,"2021-03-29T09:59:16Z","Where was z UN/HRW &amp;women's rights advocates when z innocent Eth'n women were coercing to sell their sexual favors 2 official “bigshots” in exchange 4 safety for 3 decades,while they r exaggerating z disinformation of the hyperbolic experts &amp; TPLF lobbyists.#UN #UK #AU #Blinken",19,1
1376474028282540033,"2021-03-29T09:59:16Z","@Visa now lets you settle payments using $USDC on the $ETH blockchain.   Mass adoption just entered the building.",0,0
1376474022985170944,"2021-03-29T09:59:15Z","$POODL AND $HOGE UNITE!!  $GRUMPY  #bitcoin  #btc  #cryptocurrency #price #blockchain #time #crypto #money #news #coinbase #usd #buying #eth #ada",57,0
1376474021106188288,"2021-03-29T09:59:14Z","MyEtherWallet is still safe to use and will remain one of the most popular ETH management platforms, but it’s important for users to understand the risks of inputting their private keys or passwords into any centralized website.   #Defi https:// #MustHaveCrypto https://t.co/GiPcPUB8of",0,0
1376474016106606598,"2021-03-29T09:59:13Z","@cryptodude999 Because the news from visa to allow usdc payement via etherium blockchain",0,0
1376474013216743428,"2021-03-29T09:59:13Z","🔥HOT🔥 - $100 in Cryptocurrency | Giveaway!  To win: ✔ Follow us &amp; @MatrixAINetwork ✔ Tag a friend ✔ Retweet ✔ Join: https://t.co/R9H48O8Tq3 Thats it! Good luck! 💖 Rolling in 24 hours!  #goodvibes #goodluck #giveaway #bitcoin #Giveaways  #cryptocurrency #eth #btc #BSC #TRON https://t.co/0Eju3gcguv",306,590
1376474005738299394,"2021-03-29T09:59:11Z","I just listed “Inglorious” for sale on @withFND !🌐  https://t.co/kUPcS07tiA   #nft #nftcollectors #nftcommunity #nftart #NFTartists  #NFTs #foundationapp #withFND #elonmusk #ETH  #art #NFTdrop #digitalart #3dart #gold",10,2
1376474003506749441,"2021-03-29T09:59:10Z","Since this the launch of @dypfinance back in Dec 2020 looks like Liquidity Providers have earned $11.4 Million dollars in $ETH just from Staking!  Also the project is paying out is $ETH as well and so far 6.2K $ETH have been rewarded.   #DeFi #Crypto #Cryptocurrency #BitcoinTalk https://t.co/zis10XPcL7",1802,2
1376473997525794822,"2021-03-29T09:59:09Z","$VID #VideoCoin about to breakout!  Have you fastened your seat belts?  $1 incoming Let's goo 🚀🚀🚀  $btc $eth $dot $ada $storj #videocoin $vid $theta $fil  $LVP #btc #CloudComputing #aws #googlecloud #Azure #filecoin #cdn @storjproject #crypto #cryptonews #dCDN #transcode #mux https://t.co/P8GLd0W46L",45,2
1376473989602680832,"2021-03-29T09:59:07Z","RT @hiddensmallalts: $ETH Inverse Head and Shoulders pattern. Target cca 1920  #ethereum #cryptotrading #cryptotrader #charts #trading http…",3,2
1376473984456404994,"2021-03-29T09:59:06Z","HOLY SHIT. I woke up to THIS! Fuck. @blockomoco started two auctions on Unbroken and M.O.T.H.E.R my genesis piece! Thank you for starting out my journey on @withFND ! 🔥❤️🚀 current bids are both at 1 Ξ https://t.co/CatmznQvko",340,2
1376473983961460737,"2021-03-29T09:59:06Z","RT @intocryptoverse: $ETH under $2k will be only a distant dream in a few years",2303,2
1376473977644855296,"2021-03-29T09:59:04Z","Happy to share that Flashpen will be presented at IEEEVR. We bring high-fidelity pen input into #VR, ideal to write on several surfaces while being immersed.  https://t.co/IIv5Pn4OiK More infos: https://t.co/RkUYEif9xv @IEEEVR @ETH_en @CSatETH https://t.co/7rQATWzBWO",25,2
1376473974318657537,"2021-03-29T09:59:03Z","RT @zetta_icarus: @binance Join the miners of #bsc defi ! https://t.co/PlHwGyJmZL  You can start mining ETH on #bsc today 👀",121,2
1376473974239068161,"2021-03-29T09:59:03Z","I Fucked myself : A Thread. Don't ask me how, but a few weeks ago I fucked up, and I now have 0 $ETH (prev 1.3) and 0  $ADA (prev 1600) left. Sold my $VET at $0.52 because I was getting tired of it not doing anything after hodling for years. 2 days later it pumps to $0.93.",0,0
1376473973039374342,"2021-03-29T09:59:03Z","🔥MINT ALERT🔥  ETHER BAE 🧂🥩  Reserve Price 0.33 ETH   👉https://t.co/I1T8Yek8dk   on @withFND! 🌐  #NFT #NFTcollector #NFTart #NFTartist #NFTart #Cryptoartist #Cryptoart https://t.co/GYWxb7HUXg",48,0
1376473971722452992,"2021-03-29T09:59:03Z","Talking about global adoption and growth 😉  Breaking: Visa said it will be using the #Ethereum blockchain to allow payment settlements using cryptocurrency.  https://t.co/iQWmaAuYpP  $BOLT $ZIL $ETH $CUDOS $BMI #Blockchain #Crypto #Cryptocurrency #Bitcoin",12,0
1376473969688158214,"2021-03-29T09:59:02Z","The DEX @FinanceChainge is set to launch on the @FUSIONProtocol network with over a million users on the protocols waitlist. This decentralized exchange aims to innovate on traditional models through leveraging the Fusion Network.  #BSC #BTC #ETH #BNB  https://t.co/xx55YiGfm3",21659,0
1376473965279899648,"2021-03-29T09:59:01Z","Glad to see that $YFDAI on the list.😃  Their social activity is very strong 💪  If you don't own any #YfDAI then now might be the great time to  think about getting some because this project is going to be massive.🚀🚀🚀  @YfdaiF #ETH #DeFi https://t.co/I14dXUoq0Z",61,0
1376473955498856448,"2021-03-29T09:58:59Z","RT @diamondhandzz: $ubx is one of the cheapest coins on #kucoin Buy now before it goes up  $btc $ada $eth $dot $vra $tel",11,0
1376473951640068097,"2021-03-29T09:58:58Z","$DYP liquidity providers earned 5,970.84 #ethereum worth $10,700,060 since launch!  Join one of their liquidity pools and earn up to 295.02% APY 💰  #defi #uniswap #eth https://t.co/lKbf20w2sm",1795,0
1376473949446504448,"2021-03-29T09:58:57Z","RT @zetta_icarus: @binance Join the miners of #bsc defi ! https://t.co/PlHwGyJmZL  You can start mining ETH on #bsc today 👀",121,0
1376473943339540484,"2021-03-29T09:58:56Z","ANNOUCEMENT  REMIX INITIAL ROUND 1 - PRESALE   ⚡️TOKEN Bonus = 10% 🙍🏽‍♂️Referral Bonus = 5% 💰Payment Methods: BNB, USDT, ETH  Visit https://t.co/HUHdctVVSm to Enter PRESALE ROUND 1  ➡️ PRESALE ROUND 1 ends on 20th March 2021 15:00(UTC) #presale #rmx #remix #BinanceSmartChain #BSC https://t.co/dPz6FNVPGI",925,0
1376473936158814214,"2021-03-29T09:58:54Z","The good thing about @dypfinance Anti-Manipulation system is that it prevents the Liquidity providers to Sell $DYP instead they are earning $ETH as staking rewards 🧠  #DYP #ETH #Ethereum #SmartContract #DeFi https://t.co/yt6C9Vehln",1905,0
1376473931717226499,"2021-03-29T09:58:53Z","@Dora_Yool Dreaming Alien⭐️ only on @withFND 1/1  Reserve price 0.4 ETH  https://t.co/5rgZARrCPo  #nftart #nftdrop #nftartist #nftcollectors #cryptoart",3,0
1376473931289292804,"2021-03-29T09:58:53Z","Glad to see that $YFDAI on the list.😃  Their social activity is very strong 💪  If you don't own any #YfDAI then now might be the great time to  think about getting some because this project is going to be massive.🚀🚀🚀  @YfdaiF #ETH #DeFi https://t.co/I14dXUoq0Z",61,0
1376473927040561154,"2021-03-29T09:58:52Z","RT @intocryptoverse: $ETH under $2k will be only a distant dream in a few years",2303,0
1376473925450752002,"2021-03-29T09:58:52Z","RT @The_NFT_Hub: 🎁Drop your $ETH address below🎁",1165,0
1376473924532330497,"2021-03-29T09:58:51Z","RT @scoinaldo: What an opening on the weekly.  Total crypto mcap about to go absolutely nuts.  $BTC $ETH https://t.co/aEcIY2cu0F",335,0
1376473924003762176,"2021-03-29T09:58:51Z","Since this the launch of @dypfinance back in Dec 2020 looks like Liquidity Providers have earned $11.4 Million dollars in $ETH just from Staking!  Also the project is paying out is $ETH as well and so far 6.2K $ETH have been rewarded.   #DeFi #Crypto #Cryptocurrency #BitcoinTalk https://t.co/zis10XPcL7",1802,0
1376473915522973696,"2021-03-29T09:58:49Z","@thetamind37 @tokensFA @UniswapD @def_unto @TheLongCorn @OffshiftXFT @1inchExchange @HavenXHV for example, if a whale transfers money to another whale in traditional money markets... you don't know about it.  On ETH, anyone can track dox and track their wallet, net-worth, and know exactly how much they are spending and where.  They can then front-run transactions etc.",2,0
1376473909315264512,"2021-03-29T09:58:48Z","@GalakticFunk NEW ROO DROP!🇦🇺🦘  Roo #008 has hopped onto the #ETH #Blockchain &amp; is now minted via @OpenSea.   Price:  Ξ0.015  Total Supply: 888  https://t.co/KyaFfCviCe  #Roos #nftcollectors #NFT #NFTs #crypto #pixelart #NFTcommunity #NFTart #RoosNFT https://t.co/jyepv11ELd",3,0
1376473907264421889,"2021-03-29T09:58:47Z","$NFY STAKING VAULT APY : 102.07%  $NFY/ $ETH LP STAKING VAULT APY : 471.48%  Total of 13003 #NFY are staked which equates to 20.03% of circulating supply!  @NFYFinance quietly working on some big things! The time to accumulate under $300 is running out!  https://t.co/QWm95PiPQO",39,17
1376473901446754309,"2021-03-29T09:58:46Z","Join the @Holdefi community in HLD public sale!  #HLD #Holdefi #ETH #BSC #IDO #ICO 👇👇 https://t.co/BUGnNQ6idB",0,0
1376473894396162050,"2021-03-29T09:58:44Z","IMPORTANT NOTICE:   When you send $ETH or $USDT to buy $PRIVA on Pre-sale, please also send your Transaction ID (TxID) by using your account at https://t.co/OqxJNfnUuE. You can find your TxID at your withdrawal history on your exchange or wallet. https://t.co/CrlODtEFtv",236,0
1376473892055879680,"2021-03-29T09:58:44Z","$AKRO I can see a lot new people at https://t.co/QeYBXaBhGj, yes staking is 38%, if you need any help with the staking, let me know. I will help you all.   #DeFi #cryptocurrencies #CryptoNews #crypto #cryptocurrency #bitcoin #btc #Ethereum #ETH https://t.co/KQ51Hc07y7",30,0
1376473888666775553,"2021-03-29T09:58:43Z","🚀 Pluto Coin  Airdrop 🚀 Rate: ⭐⭐⭐⭐ ⭐ 🎁 Reward:  8822 PLUT ($1500) 👫 Referral: 40.5 PLUT  ($7)  🤖Start Bot here   https://t.co/x5JZchojO8  ⛂ Join Telegram group and channel. ⛂ Follow twitter &amp; retweet  ⛂ Submit ETH address and details.",6005,0
1376473887022706688,"2021-03-29T09:58:42Z","RT @antiprosynth: @markets On #Ethereum ⟠ $ETH.  @SayEthereum 😘",66,0
1376473886313840640,"2021-03-29T09:58:42Z","RT @ElCrypto8: $TOSA ready for liftoff, lots of news coming this week $TOSA $BTC $ETH $POODL $HOGE $GRUMPY https://t.co/cGJ3zBkOuj",18,0
1376473882014650368,"2021-03-29T09:58:41Z","$neo Chinese Ethereum $eth but even better",2,0
1376473879573594112,"2021-03-29T09:58:41Z","@markets On #Ethereum ⟠ $ETH.  @SayEthereum 😘",66,5
1376473872820752389,"2021-03-29T09:58:39Z","@punk_family @CyberColection Dreaming Alien⭐️ only on @withFND 1/1  Reserve price 0.4 ETH  https://t.co/5rgZARrCPo  #nftart #nftdrop #nftartist #nftcollectors #cryptoart",0,0
1376473869280755717,"2021-03-29T09:58:38Z","RT @The_NFT_Hub: 🎁Drop your $ETH address below🎁",1165,0
1376473861818961928,"2021-03-29T09:58:36Z","listed “Penrose | Impossible Loop” for sale on  @withFND  Check it out → https://t.co/gaAPXiri24  Reserve Price 0.35 ETH  #NFTArt #b3d #NFT #cryptoartist #cryptoart #nftcollectors  #NFTCommunity #NFTs #NFTartists https://t.co/quQykpCjng",99,0
1376473860565049346,"2021-03-29T09:58:36Z","RT @BullishKid: Where are your $ETH killers now working with VISA?",1099,0
1376473842474946560,"2021-03-29T09:58:32Z","⚡🔥 EASY $10(Litecoin) Giveaway!  To win: ✔ Tag a friend ✔ Retweet ✔ Follow us Thats it! Good luck! 💖  Rolling in 36 hours!  #goodvibes #goodluck #giveaway #bitcoin #Giveaways  #cryptocurrency #eth #btc #BSC #TRON",332,0
1376473842076413953,"2021-03-29T09:58:32Z","Join the @Holdefi community in HLD public sale!  #HLD #Holdefi #ETH #BSC #IDO #ICO 👇👇 https://t.co/hAO1QVZ8mv",0,0
1376473837852884998,"2021-03-29T09:58:31Z","There’s a 300 INV reward for supplying ETH (including as collateral to borrow DOLA) and an additional 300 INV for borrowing ETH  Which means lending and borrowing ETH have different APYs depending on total borrowed and supplied  Both APYs will be added to the interface soon",83,0
1376473836053524482,"2021-03-29T09:58:30Z","🕒 @KyberDAO BRR-19 ends in less than 8 Days! If you have staked $KNC in the previous Epoch, vote at https://t.co/RgL5UeEN02 to be eligible for your full reward in the next Epoch.   Over $7 Million in $ETH rewards have been distributed to voters! #DeFi #DAO https://t.co/itcKrgxV1M",46,0
1376473835554414594,"2021-03-29T09:58:30Z","@The_NFT_Hub 0x59c2f0f93C271286aA328Cf854Dc897f4f855153 ETH wallet. I hope I haven't missed out.",0,0
1376473834019151875,"2021-03-29T09:58:30Z","Hi I've created my own collections on [Opensea] So it would be a HUGE pleasure to me that if you come and see my very NFT Art. retweet pls :)  Available on https://t.co/Tvk25rp3pD #nft #nfts #nftart #nftarts #keii #nftcollector #opensea #etherium #NFTCommunity",27,0
1376473827719454720,"2021-03-29T09:58:28Z","The DEX @FinanceChainge is set to launch on the @FUSIONProtocol network with over a million users on the protocols waitlist. This decentralized exchange aims to innovate on traditional models through leveraging the Fusion Network.  #BSC #BTC #ETH #BNB  https://t.co/xx55YiGfm3",21659,0
1376473825261539330,"2021-03-29T09:58:28Z","$AKRO I can see a lot new people at https://t.co/QeYBXaBhGj, yes staking is 38%, if you need any help with the staking, let me know. I will help you all.   #DeFi #cryptocurrencies #CryptoNews #crypto #cryptocurrency #bitcoin #btc #Ethereum #ETH https://t.co/KQ51Hc07y7",30,0
1376473821692239884,"2021-03-29T09:58:27Z","RT @intocryptoverse: $ETH under $2k will be only a distant dream in a few years",2303,0
1376473819381182464,"2021-03-29T09:58:26Z","Talking about global adoption and growth 😉  Breaking: Visa said it will be using the #Ethereum blockchain to allow payment settlements using cryptocurrency.  https://t.co/iQWmaAuYpP  $BOLT $ZIL $ETH $CUDOS $BMI #Blockchain #Crypto #Cryptocurrency #Bitcoin",12,5
1376473818697437184,"2021-03-29T09:58:26Z","@MartinFuerth @Visa #visa = 1700 tx / second #eth 1.0 = 30 tx / second  🤔🤔 see the problem?  $Algo approaching 1000 tx / second i think",5,0
1376473813089710081,"2021-03-29T09:58:25Z","RT @NFTFusion: What’s your ETH address?  No questions, just drop it below 👇 #NFT #NFTs",1953,0
1376473808106758145,"2021-03-29T09:58:24Z","I'll send $300 in #ETH or #BTC to one person who retweets this and follows @bud_crypto. Must complete these tasks:  1 - Like/RT his pinned tweet  2 - Must RETWEET &amp; LIKE 4 of his tweets  Ends in 72 hours!",1206,0
1376473805208625153,"2021-03-29T09:58:23Z","RT @galaxyBTC: $ETH will turn from annoying it doesn't pump to annoying I don't have more real quick.  Have a great week. https://t.co/…",1057,0
1376473801555386373,"2021-03-29T09:58:22Z","@aarvantOFRE @Rossa774 @Richard95229638 @BillyLuedtke @tezos 2) you are doing it on purpose with malicious intent because you can't accept tezos is way better for nft than eth right now.",2,1
1376473798124433410,"2021-03-29T09:58:21Z","$TOSA ready for liftoff, lots of news coming this week $TOSA $BTC $ETH $POODL $HOGE $GRUMPY https://t.co/cGJ3zBkOuj",18,10
1376473792944369667,"2021-03-29T09:58:20Z","@TeddyCleps @Visa Please sirs stop tweeting about ETH coins, maxis are seething",1,0
1376473787387023360,"2021-03-29T09:58:19Z","🔥 #ODDZ #Giveaway is Now On! @oddz_finance 🔥  10 lucky users will receive $30 each in #ODDZ 😗  1️⃣Login &amp; Participate   https://t.co/81bh5CpMnK  2️⃣Retweet and @ a friend  Share with your friends &amp; get more rewards 💌  #Ethereum #ETH #cryptogiveaway https://t.co/M7MxexMYji",265,0
1376473782219468801,"2021-03-29T09:58:17Z","Are you also trading one of the top 4 assets on Bitpanda today?   1️⃣  $BTC 2️⃣  $ETH 3️⃣  $BEST 4️⃣  $BTT  Let us know below 👇 https://t.co/9zLW8Vlatv",482,0
1376473774564990982,"2021-03-29T09:58:16Z","Daily $FET @Fetch_ai tidbit: #AutonomousAgentOracles incoming 🌚🌚🌚🌚🌚🌚🌚🌚🌚🌚🌚🌚 #NextGenerationOracle  $Fet $Link $Trb $Orai $Band #Api3 #OracleJunky #crypto #btc #eth https://t.co/XmF3mGGXo5",180,0
1376473767065554944,"2021-03-29T09:58:14Z","RT @TheADAApe: Has anyone tried turning #ethereum off and turning it back on again? $ETH",242,0
1376473763206823936,"2021-03-29T09:58:13Z","$AKRO I can see a lot new people at https://t.co/QeYBXaBhGj, yes staking is 38%, if you need any help with the staking, let me know. I will help you all.   #DeFi #cryptocurrencies #CryptoNews #crypto #cryptocurrency #bitcoin #btc #Ethereum #ETH https://t.co/KQ51Hc07y7",30,6
1376473763148103686,"2021-03-29T09:58:13Z","I spy something will happen with #ETH Check it out at https://t.co/r2SlwLhq5T",0,0
1376473760149209089,"2021-03-29T09:58:12Z","RT @scoinaldo: What an opening on the weekly.  Total crypto mcap about to go absolutely nuts.  $BTC $ETH https://t.co/aEcIY2cu0F",335,0
1376473752351858688,"2021-03-29T09:58:10Z","The first set of Ahegao NFTs sold out in a week, so I've been working on some more which are now live at https://t.co/MAOPR2F1DH  #pixel_dailies #nft #NFTs #nftart #nftartist #crypto #blockchain #eth #ethereum #digitalart #art #value #nftcollector #hentai #ahegao https://t.co/YWPHtqTMQv",78,0
1376473728255688708,"2021-03-29T09:58:05Z","@cstrader13 What do you think? Both ETh and btc can be rejected here?",1,0
1376473701445627906,"2021-03-29T09:57:58Z","The DEX @FinanceChainge is set to launch on the @FUSIONProtocol network with over a million users on the protocols waitlist. This decentralized exchange aims to innovate on traditional models through leveraging the Fusion Network.  #BSC #BTC #ETH #BNB  https://t.co/xx55YiGfm3",21659,0
1376473687608549376,"2021-03-29T09:57:55Z","Welcome to massive Q DAO airdrop!   1. go now to telegram https://t.co/COyXgODY1z   2. Stay in telegram chat and wait announcement.  3. HOLD this gem until 10x   (soon - QDAO launch cross-chain for BSC, Polkadot and ETH)",4254,0
