"ID","created_at","text","like_count","rt_count"
1377614220972322817,"2021-04-01T13:29:59Z","Rules of the Game: - Will ETH be above or below this price from a screenshot? - Contest ends on Friday, 48 hour mark from the time of posting. - Comment your answers below, we’ll select 3 winners at random. https://t.co/zZJgBNUHhb",45,12
1377614213804290049,"2021-04-01T13:29:58Z","@CelsiusNetwork Why has my ETH back loan been sitting in pending for months?",1,0
1377614209970757640,"2021-04-01T13:29:57Z","💎 Nightshift - Ep #1 - The Genesis 💎  ✨ Artwork by @waarpdesign 💰 Sold to @dicey_apple for 7.0 ETH ($13,530.51)  https://t.co/Rv2DkPeEQL  #cryptoart #NFT https://t.co/ALvxEBCJP4",9,2
1377614208746029068,"2021-04-01T13:29:56Z","Go get some $DRC, we are heading beyond the moon. -SoV - Indivisibility - 100% decentralized - fund hedging - no inflation - @DRCToken #eth #btc #ltc #bnb #trx #snt #xrp #link #bsv #bch #doge #crypto #Decentralization #community https://t.co/iXKd0Wai5S https://t.co/zanv4FNts0",16,4
1377614207932375047,"2021-04-01T13:29:56Z","Anyone Genuinely interested in sorare?  I can help you get a team ready for the weekend for as little as a £300 investment!  This team will be able to compete to win you 0.02 ETH(£27) each week and the. You can then go for card rewards in the future.  Message me 📩 https://t.co/soZZDEpVty",3,2
1377614206975893505,"2021-04-01T13:29:56Z","Hello dear people ! It's a great day for me, i will be dropping my very first collection of NFT's on @withFND  this week &lt;3&lt;3 &lt;3&lt;3  #nftart #share #cryptoart #NFTcollector #NFTs #drop #cryptoartist #NFTArtists #NFTCommunity #ETH #NFTcollectors #cryptoartist https://t.co/m42hTRyVrL",10,6
1377614192518307848,"2021-04-01T13:29:52Z","This is the Thusrday before good Friday! You can't make this up... 🤣🤣🤣🤣🤣 It will a great Friday! $TRX $NEO $VET $VTHO $MANA $ETH $DGB $GME $BTC https://t.co/1UHJT3DQKD",0,0
1377614189972365325,"2021-04-01T13:29:52Z","🔄 Prices update in $USD (1 hour):  $BTC - 58936.7 $  (+0.48 %) $ETH - 1932.12 $  (+0.51 %) $DOT - 38.01 $    (+0.07 %) $ADA - 1.19 $     (+0.11 %)  #BTC #ETH #DOT #ADA #Crypto #Bitcoin",1,1
1377614185614471170,"2021-04-01T13:29:51Z","Glad to announce that @BitKeepOS  reached a strategic Partnership with @JustLiquidity @JulSwap .  Julswap is the first @BinanceChain  Dex fully integrated and deployed in Bitkeep Wallet.  User can now trade,track,favorite Julswap pairs.  #julswap #juld #julb #bnb #BSC #btc #eth https://t.co/nvEpaZd4tn",1298,817
1377614167394385920,"2021-04-01T13:29:46Z","Looking for ALT to buy? Go get $DRC, and enjoy the appreciation ride... Indivisible token, a SoV, 100% decentralized, 100% community driven, opportunity to avoid market volatility by hedging fund. https://t.co/iXKd0Wai5S @DRCToken #eth #btc #ltc #bnb #trx https://t.co/U7TsAcpq2g",21,11
1377614162268975105,"2021-04-01T13:29:45Z","Which token has the strongest community? 💪🏻♥️   #Crypto #CryptoNews #FegEx #bnb #bnb #Binance #ETH $GOLD $TRY #DeFi #Altcoins #altcoinseason2021 @FEGtoken",349,132
1377614149371449346,"2021-04-01T13:29:42Z","'Singularity'✨Now Available at @withFND Edition 1/1 . Collect this NFT here &gt;&gt; https://t.co/xukdFDRSTh . #cryptoart #nftart #c4d #digitalart #blockchain #NFT #3dart #rare #space #blackhole #eth #ethereum #NFTs #eventhorizon #singularity https://t.co/rCjnDRIm55",43,11
1377614147651788803,"2021-04-01T13:29:42Z","RT @IAMLLUCIANA: Sold all my $ETH, $KSM, $HTR FOR $ADA",1791,78
1377614139003187211,"2021-04-01T13:29:40Z","💧Twinci Airdrop 💧  🏆 Task:          ➕ $15 worth of  TRX                              ➕ $50 worth of TWIN  🔛 Airdrop Link &amp; Information: https://t.co/aV7t49dRDX  #cryptocurrency #Crypto #Bitcoin #Ethereum #ETH #Twinci #TWIN",1336,1777
1377614112188985362,"2021-04-01T13:29:33Z","Glad to announce that @BitKeepOS  reached a strategic Partnership with @JustLiquidity @JulSwap .  Julswap is the first @BinanceChain  Dex fully integrated and deployed in Bitkeep Wallet.  User can now trade,track,favorite Julswap pairs.  #julswap #juld #julb #bnb #BSC #btc #eth https://t.co/nvEpaZd4tn",1298,817
1377614102701432841,"2021-04-01T13:29:31Z","@hunternicholass I bought it months ago and it has only done poorly so far. Looking forward to that changing because I'm tired of seeing a negative symbol in the return column on ETH.",1,0
1377614098502934533,"2021-04-01T13:29:30Z","This Boss just exchanged 1900 $ETH for nearly 62 $BTC. While I like Jason, this was the wrong move IMO. Had he held off he would have much more #bitcoin in the month(s) to come  Let’s see if I’m right... https://t.co/zjwsnyU2O2",83,20
1377614090521116674,"2021-04-01T13:29:28Z","It's the end of the month so the @SuperRare numbers are official now.  $29.6M monthly volume $3.7M monthly revenue 2,609 monthly active collectors 3,179 monthly artworks sold 6.52 ETH average artwork price  🤯📈🚀💎  https://t.co/0SyQJI1BpX https://t.co/P6tFAS4nnv",224,35
1377614081079844869,"2021-04-01T13:29:26Z","30 day EVIX: 90.6830 ETH/USD vwap: $1,932.13 04/30 expiry volume: $8,908,323.59 05/28 expiry volume: $9,454,523.62 Current time: 13:29:04",0,0
1377614080173871105,"2021-04-01T13:29:26Z","$XTZ/BTC just breakout the long term downtrend since August 2020  👉 Join Channel: https:https://t.co/RhbRCy7EkI  $BTC $ETH #NFT $PERL $ENJ $FLOW $THETA #BSC  $REEF $LUNA $SAND $AXS $TVK $HOGE $CHZ $STX $ROSE $TROY $ONE $CERL $IRIS $ANC $ADA $DIA $XRP $DOGE $ATOM $LUNA $ZCX $BNB https://t.co/dFwnDR7w9A",0,0
1377614065607004160,"2021-04-01T13:29:22Z","RT @TheCryptoWolfOG: $ETH to $2500 in April or I'm giving away 0.5 $ETH to someone who retweets this.",373,638
1377614065036582913,"2021-04-01T13:29:22Z","RELEASE（REL）price today is $0.00011412 with a 24-hour trading volume of $208,861. REL price is up 11.3% in the last 24 hours.   #coingecko https://t.co/S5ogVsejSM  #REL $REL #BTC #ETH #USDT #bitcoin #Cryptocurrency #Investor #token #Coin #HotBit #AzBit #CoinsBit #Uniswap",98,43
1377614064478720001,"2021-04-01T13:29:22Z","Please ReTweet if you find value in my content!  10000% Profit #Altcoin Picks! You must hold these 3 #altcoins! Altcoin Season is HERE! Insane altcoin pumps coming soon!  $BEL $ANKR $LINK $ETH $OMG $THETA  https://t.co/Aqf0sHjOXe",109,44
1377614061987192834,"2021-04-01T13:29:21Z","@ZssBecker Even though the only chain visa picked to have crypto merchant payments is eth. Eth is a terrible project and their platform sucks.",0,0
1377614061924401155,"2021-04-01T13:29:21Z","@rotmaximalist If anyone is gracious for the work being done, please support the #ROTTENSWAP sponsored digital artists by picking up one of our #NFTs  If $ETH is not your cup of tea, #NFTs to come on #Harmony $ONE blockchain soon!  https://t.co/XlFYO2b1j5",2,1
1377614061869883395,"2021-04-01T13:29:21Z","@UnbiasedJesseR Either... or... 😉  Token:  GLYPH token $GLY (soon on #uniswap), join at Discord via the following invite and get familiar with us   https://t.co/4IGwgL2uPR  Coin:  @ElectraProtocol $XEP  #logistics #SupplyChain #erc20 #transport #eth #XEP #shipping",1,1
1377614058677956609,"2021-04-01T13:29:21Z","DCT TOKEN Airdrop Medium Star Claim 1 DCT ($ 100) + 0.045 DCT ($ 10) for each referral you make.   Steps  💎  Join channel and group  💎  Follow twitter, like and retweet pinned message   💎  Submit eth wallet address (ERC-20) Participate now Airdrop link: https://t.co/L24stp8tVI https://t.co/CVYQyLAWwU",8620,8869
1377614054634754057,"2021-04-01T13:29:20Z","Innovative automated World-class crypto trading bot platform https://t.co/ElNRyH6n9G #btc #bitcoin #usd # #암호화폐 #암호화폐거래소 #투자 #재테크 #금융 #비트코인 #bitcoin #btc #이더리움 #ethereum #eth #crypto #cryptocurrency #gate #gateio #gatekr #gatechain",0,0
1377614049941282818,"2021-04-01T13:29:18Z","@realbanxo @dixon_eth @TalithaKingArt No more motivation for NFT. Here's my artwork anyway. #NFTartist #nftcollectors https://t.co/xyH32Ob0pe",1,0
1377614048628518917,"2021-04-01T13:29:18Z","this instant confirmation on solana is insane  raydium pretty easy to use  transactions are dirty cheap  love it already, all the uniswap stuff should be ported off eth onto solana asap",139,11
1377614047194066966,"2021-04-01T13:29:18Z","Check out the new update of #Duckdice  - Play with #BTC #ETH #LTC #XRP #USDT #Dogecoins  and many more - Faucet up-to $0.35 per claim - Chat rains  Join =&gt; https://t.co/2Pf0qTyrdQ  #blockchain #retweet #Bitcoin #Crypto #cryptocurrency #Ethereum #dogecoin  #Binance #rakeback https://t.co/KNZ0cHh0eV",2,2
1377614040617385995,"2021-04-01T13:29:16Z","💧Twinci Airdrop 💧  🏆 Task:          ➕ $15 worth of  TRX                              ➕ $50 worth of TWIN  🔛 Airdrop Link &amp; Information: https://t.co/aV7t49dRDX  #cryptocurrency #Crypto #Bitcoin #Ethereum #ETH #Twinci #TWIN",1336,1777
1377614034535657474,"2021-04-01T13:29:15Z","100 eth and I'll do a feet reveal 👀",0,0
1377614034481074181,"2021-04-01T13:29:15Z","RT @certik_io: What projects do you think we should audit next👀  Mention them in reply! ⚡  #Security #infosec #DeFi #BSC  #ETH #cryptotwitt…",153,44
1377614034242011144,"2021-04-01T13:29:15Z","Due to the rise in ETH, I decided to make a small discount on my artwork so it's still can be affordable to anyone interested in bionic design. Feel free to visit the page and see it   https://t.co/oTjpa5Ng6J  #NFTs #NFT #nftart #nftcollectors #DigitalArtist #rarible",26,7
1377614027090755587,"2021-04-01T13:29:13Z","I think I'm getting this crypto thing now.  I sold my first NFT for $1.54 and linked an Ethereum wallet to the site.  But now I see the Ethereum network is charging $24 for a transaction.  So muh 0.009 ETH just vanishes into the ether (muh puns) along with muh NFT. https://t.co/SszppyXLsN",96,4
1377614024154615809,"2021-04-01T13:29:12Z","https://t.co/TSMUVpgEHU  NFT 1/100 giveaway in 24 hours! 💥💥💥  Price 0.055 ETH =$ 105 !!!  🤝🤝🤝Follow me +@rathzthemonk  👍 like  💪retweet   🤝two friends+ comment with your ETH wallet adress. 🙏🙏🙏 I wish everyone good luck   #NFTartist #rarible #nft https://t.co/wkEAXgWE8s",153,127
1377614019075440642,"2021-04-01T13:29:11Z","All 3 Algos are long now. We have a long weekend coming. Be ready for a big move when the stock market is closed. We going to fuck up some suits. To the moon !#btc #eth",4,0
1377614008073777159,"2021-04-01T13:29:09Z","I am irresponsibly long on Eth rn 🤡🙏",0,0
1377614003522928643,"2021-04-01T13:29:07Z","The tokenomics of $BSCX makes our token become the store of value and the new asset class of the crypto industry. Together with $BTC, $BNB, and $ETH, our token will change the traditional finance completely. $BSCX will be the gateway for everyone to access #DeFi!   #BankOnBSCX https://t.co/SvGpwfLEWS",1221,901
1377613998368129025,"2021-04-01T13:29:06Z","@Tamvfx Hey, my first NFT available on @rariblecom  0,05 ETH  🥰🙏💫 https://t.co/4egNJwjsT4",0,0
1377613995310526466,"2021-04-01T13:29:05Z","$UNL update: This is getting hot.. lower high all the month, good consolidation.. ok now Targets.   1- 4700$ 2- 7656$  💎Supply: 500 🔥Mcap: 1.6M  Telegram: https://t.co/uVBFtCvNua  $BTC $ETH $BNB $ADA $DOT $SPI $GSPI @300Token https://t.co/sZXRgcyQnM",42,31
1377613991766294529,"2021-04-01T13:29:05Z","@frombroke2bags Fuck that bro. I’ll just cry @ you to give me some free $ETH",3,0
1377613989912449032,"2021-04-01T13:29:04Z","I'm not really a crypto guy, but I like the look of $ETH... just thought I'd let y'all know lol https://t.co/bC6NHlxGfa",0,0
1377613985978146826,"2021-04-01T13:29:03Z","@blknoiz06 Less than 4% of the total supply is in circulation - FDV bigger than ETH. Obviously salty to miss it but this can’t end well when token unlocks begin.",3,0
1377613973747474434,"2021-04-01T13:29:00Z","Place your bets Digitexers! 🎲 Will the price of $ETH be above or below $1,860 this Friday 17:00 UTC? Each guess adds 100 $DGTX to the total prize pool. Tag your friends &amp; invite them to play. There’s no limit on the grand prize — how big will it get? 🤩💫 #BEinITtoWINit #Digitex https://t.co/F9ZQLUgr1P",139,57
1377613942839709697,"2021-04-01T13:28:53Z","No hint of bearish traditions returning to Bitcoin markets this year as 2021 bucks the trend for March to bring serious downside. Will Q2 deliver on expectations?  https://t.co/1VZO0gVLjo  #Bitcoin #Ethereum #BTC #ETH",0,0
1377613928700739586,"2021-04-01T13:28:50Z","Let’s all help each other grow together. Less toxicity and tribalism, more rationality and friendship. We’re still very early considering most people don’t know even know how to use this stuff or what it is. #ADA #ETH #BTC",1,1
1377613907829866498,"2021-04-01T13:28:45Z","@TheCryptoDaddi $btc dominance close to falling below the trendline while $eth is picking up steam and the overall MC is flirting with $2T. We might all need pinched *very* soon.",3,2
1377613900020072452,"2021-04-01T13:28:43Z","#NFT GIVEAWAY TIME.  We need to show the pink planets some love 💕🪐  Choose a planet from the pink planet pack: https://t.co/Celd4Gy2W9 and we'll give away ALL FOUR FOR FREE (gas included) worth 0.4 ETH / $740.  To enter simply follow, like, and retweet!  #NFTArt #FourInThePink https://t.co/YSCNoXAt6x",219,158
1377613893804040195,"2021-04-01T13:28:41Z","Win Legendary REKT #NFT worth ETH!  To Win #Giveaway You Must:    1.) Follow @degenasaurus   2.) Retweet the tweet below!  3.) OPTIONAL -&gt; Join discord: https://t.co/Qh7e67iJcc  NFT here: https://t.co/nYmGoLu8UW   Degenasaur wish luck!! Big love huumans  @coinkit_ mon 75 800 BTC https://t.co/d9bqWm9iCy",153,730
1377613888401776640,"2021-04-01T13:28:40Z","@CRYPTOVENTURES4 @PhysalisFinance @Aryasakti80 @artbymartisha @PabloASXcobar @AlphaCryptOmega @andreabonac_art @AdamHODL @withFND @coinkit_ Space Temple MONA PIXEL Etherium Galaxy edition @itsjinibib @disneymom1126 @kaytakaofficial  I wish everyone good luck🎉🥰",1,0
1377613885281210368,"2021-04-01T13:28:39Z","We're doing a GIVEAWAY: 3 random people that like and retweet this post will get 5 billion $SPMK. Worth around 0.7 ETH right now. #SpaceMonkey is a memecoin, where 3% of every transaction is burned and another 3% is distributed to all holders. Both fees will be increased slowly. https://t.co/VBvTznxCd7",112,82
1377613880088748035,"2021-04-01T13:28:38Z","@spalei @ETH_en @ETH_DCHAB Thank you Shubhendu!",1,0
1377613864875925504,"2021-04-01T13:28:34Z","Post-Doctoral Researcher in Systems and Software Security https://t.co/chlMou52iI",0,0
1377613864519544846,"2021-04-01T13:28:34Z","@anklovee @L3gacyHD Hey, my first NFT available on @rariblecom  0,05 ETH  🥰🙏💫 https://t.co/4egNJwjsT4",0,0
1377613859851227139,"2021-04-01T13:28:33Z","@TenseT_io Wish I had the $ETH to invest",0,0
1377613857993207813,"2021-04-01T13:28:33Z","@StockInMyWays Okay, these praying just sank me a couple hunnit—— holy F —- oh wait :( ps: my doge went 1200 red to green: my 3 eth’s worth an extra 2 grand ——- only 2500 in btc after selling 1000 today to buy more eth—-",1,0
1377613832894488583,"2021-04-01T13:28:27Z","@dogeallnight $Doge/$ETH/$BITCOIN/$DOT$BPX/$BITPAX/$XRP/$ADA/$TRX.  Register to get free $15. Open Trading Account. https://t.co/NNtnH6q6JT",0,0
1377613823620870151,"2021-04-01T13:28:25Z","'Singularity'✨Now Available at @withFND Edition 1/1 . Collect this NFT here &gt;&gt; https://t.co/xukdFDRSTh . #cryptoart #nftart #c4d #digitalart #blockchain #NFT #3dart #rare #space #blackhole #eth #ethereum #NFTs #eventhorizon #singularity https://t.co/rCjnDRIm55",43,11
1377613819950870528,"2021-04-01T13:28:24Z","@PhoreCrypto supports a variety of applications and ventures which accord a growing range of capabilities including: Reliable &amp; Quick Transactions it's Fast, scalable, secure, and reliable transactions.  #Bitcoin #Phore $BTC $ETH  $PHR https://t.co/yd6zBf2kpi",0,0
1377613815848824837,"2021-04-01T13:28:23Z","Time to send $EOS to $8   👉 Join Channel: https:https://t.co/RhbRCy7EkI  $BTC $ETH #NFT $PERL $ENJ $FLOW $THETA #BSC  $REEF $LUNA $SAND $AXS $TVK $HOGE $CHZ $STX $ROSE $TROY $ONE $CERL $IRIS $ANC $ADA $DIA $XRP $DOGE $ATOM $LUNA $ZCX $BNB $WABI $LTO $CVC https://t.co/wHdsKmEqy4",1,1
1377613809897119751,"2021-04-01T13:28:21Z","Many #cocoa farmers live in poverty – yet the fairly traded chocolate bunny often stays on the shelves. We should pay more attention to origin when buying #chocolate, believes Isabel Günther (@Guenther_ETH). #Zukunftsblog #sustainability #fairtrade https://t.co/PPMti1SfR5",30,9
1377613805102923777,"2021-04-01T13:28:20Z","Did you think Tocotoco was just a bird? Now you see the truth.😏😏😏  🥸0.2 eth 🥸Only 1 copy  Available here👇 https://t.co/AeaI98IrC5 https://t.co/rPtTsIPptC",35,14
1377613802418679811,"2021-04-01T13:28:19Z","#NFT GIVEAWAY TIME.  We need to show the pink planets some love 💕🪐  Choose a planet from the pink planet pack: https://t.co/Celd4Gy2W9 and we'll give away ALL FOUR FOR FREE (gas included) worth 0.4 ETH / $740.  To enter simply follow, like, and retweet!  #NFTArt #FourInThePink https://t.co/YSCNoXAt6x",219,158
1377613800321519621,"2021-04-01T13:28:19Z","RT @Wangarian1: Young, dumb and longing $ETH",604,38
1377613784399876108,"2021-04-01T13:28:15Z","Many #cocoa farmers live in poverty – yet the fairly traded chocolate bunny often stays on the shelves. We should pay more attention to origin when buying #chocolate, believes Isabel Günther (@Guenther_ETH). #Zukunftsblog #sustainability #fairtrade https://t.co/PPMti1SfR5",30,9
1377613783032549380,"2021-04-01T13:28:15Z","RT @TrustlessState: Roses are red Violets are blue  I don't have enough $ETH and neither do you!",167,13
1377613775436648454,"2021-04-01T13:28:13Z","@EpikNFT @L3gacyHD Hey, my first NFT available on @rariblecom  0,05 ETH  🥰🙏💫 https://t.co/4egNJwjsT4",1,0
1377613762274951169,"2021-04-01T13:28:10Z","💧Twinci Airdrop 💧  🏆 Task:          ➕ $15 worth of  TRX                              ➕ $50 worth of TWIN  🔛 Airdrop Link &amp; Information: https://t.co/aV7t49dRDX  #cryptocurrency #Crypto #Bitcoin #Ethereum #ETH #Twinci #TWIN",1336,1777
1377613751889752066,"2021-04-01T13:28:07Z","@NFTs_Group @IvyKn  @yuyu_0330_ @Li70510868  thank you NFTs Group My ETH address:0x59c8EBb8AD2a06C8F93AC5f75D6509cdC90adC03",0,0
1377613749629112325,"2021-04-01T13:28:07Z","RT @1MillionTokens: $GSPI will be listed on @kucoincom in about 12 Min..  What do you think it will happen after that?   $SPI $BTC $ETH $DO…",32,21
1377613741701787648,"2021-04-01T13:28:05Z","this instant confirmation on solana is insane  raydium pretty easy to use  transactions are dirty cheap  love it already, all the uniswap stuff should be ported off eth onto solana asap",139,11
1377613732122099714,"2021-04-01T13:28:03Z","Signal 678928 01-Apr 13:28 UTC  DOGE/ETH at HUOBI  Buy: 0.00002814 - 0.00003368 Ask: 0.00003200 Target 1: 0.00003891 Target 2: 0.00004475 Target 3: 0.00005018 Stop loss: 0.00002648 Type: SHORT TERM  #Cryptocurrencies #Trading",0,0
1377613731241295880,"2021-04-01T13:28:03Z","Id pay someone in VET, or ETH to do my last two college courses for me....",1,0
1377613724366815234,"2021-04-01T13:28:01Z","Once $ETH breaks out to new All Time Highs...  What do you think will happen to other Altcoins?  https://t.co/vm4Yejc0AD https://t.co/OEXw5n6Ztf",378,69
1377613724199043074,"2021-04-01T13:28:01Z","🥳200$ #giveaway paid in $BNB 🎁4 winners ( 50$ each )  ✅RT, Like and Tag 3 friends ✅Join discord: https://t.co/35loidugH9 ✅Verify at discord, post proof here  ⏳Ends in 4 days!  #bitcoin $BTC $ETH $DOT $ADA $SPI $GSPI @300Token https://t.co/FaTN8bD15F",1098,900
1377613723066580997,"2021-04-01T13:28:01Z","@ethmoonbags @bri_man940 @BAthe3rd @udiWertheimer Well you originally claimed that BTC price is manipulated via tether, so that would mean ETH price would also be manipulated via tether.",0,0
1377613722567467012,"2021-04-01T13:28:00Z","@CoinTakip8 @Eljaboom #ETH @ 2.5K before.",1,0
1377613717190361091,"2021-04-01T13:27:59Z","Hi new followers! 👋 If you're not following my instagram, that's a great place to find some more work and see some process as well 😊 https://t.co/BjEx2143zH #nft #nfts #NFTcollector #cryptoart #eth #ethereum https://t.co/oGXY6roCv5",10,1
1377613711070920705,"2021-04-01T13:27:58Z","@Arinabbart @L3gacyHD Hey, my first NFT available on @rariblecom  0,05 ETH  🥰🙏💫 https://t.co/4egNJwjsT4",0,0
1377613699804971009,"2021-04-01T13:27:55Z","Collect Limited Edition #NFT Sneakers. The exclusive drop is this Friday @ Midnight EST. 🔥🔥🔥  Join our discord to get notified: https://t.co/6wphmfylNx  🚨Only accepting the next 100 people🚨  #nftart #cryptoart #eth  #rarible #opensea #NBATopShot #nftcollector #NiftySneaks https://t.co/D0LlkM10JY",652,522
1377613696420114437,"2021-04-01T13:27:54Z","@dirtyydoge @elonmusk #NDAX is the number one #Dogecoin trading exchange in #Canada!   Providing investors with trading tutorials, live charts to buy #DOGE &amp; securely move to external wallets.  Get instantly verified at https://t.co/fG2an3AoYD use the #interac deposit feature &amp; receive $10! #DOT #ETH",0,0
1377613694549454848,"2021-04-01T13:27:54Z","@NFTs_Group @IvyKn  @yuyu_0330_ @Li70510868  thank you NFTs Group My ETH address:0x59c8EBb8AD2a06C8F93AC5f75D6509cdC90adC03",0,0
1377613693408702470,"2021-04-01T13:27:53Z","Collect DAO Airdrop Platform: ETH  Reward: 0.1 CDAO ($4.5) Referral Reward: 0.02 CDAO ($1) Complete all tasks  1. Retweet + Like  #CTBot Adrop Ram 500 TATM 35 https://t.co/T4leXfRxtA",32,36
1377613692007759872,"2021-04-01T13:27:53Z","$XVG +34% from entry!   👉 Join Channel: https:https://t.co/RhbRCy7EkI  $BTC $ETH #NFT $PERL $ENJ $FLOW $THETA #BSC  $REEF $LUNA $SAND $AXS $TVK $HOGE $CHZ $STX $ROSE $TROY $ONE $CERL $IRIS $ANC $ADA $DIA $XRP $DOGE $ATOM $LUNA $ZCX $BNB $WABI $LTO $CVC https://t.co/4njyE9wZ74",0,1
1377613689365352456,"2021-04-01T13:27:53Z","@CaptvArt I have 1000000000000000000000000000000000000000000000000000000000000000000000000000000000000000000000000000000000000000 ETH to spend on NFTs LOL",3,0
1377613684592238593,"2021-04-01T13:27:51Z","@MikeBenchCapon A quick look only brought up “dhimma”, a loan word from Arabic. It also kind of looks like eth is an unpopular starting phoneme beyond English!",1,1
1377613680817405955,"2021-04-01T13:27:50Z","@DE_BOTHA Hey, my first NFT available on @rariblecom  0,05 ETH  🥰🙏💫 https://t.co/4egNJwjsT4",0,0
1377613663251628032,"2021-04-01T13:27:46Z","Who fucking cares when you do not buy my coin? Because the holder of the coin is stronk! We need believer not fudder $link $rune $eth $vet #crypto",1,0
1377613657215995911,"2021-04-01T13:27:45Z","RT @bitcoin_brown: $ETH IS NOT GOING TO STOP.",66,8
1377613654074478592,"2021-04-01T13:27:44Z","@BillyM2k @elonmusk #DogeDay/$Doge/$ETH/$BITCOIN/$DOT$BPX/$BITPAX/$XRP/$ADA/$TRX.  Register to get free $15. Open Trading Account. https://t.co/NNtnH6q6JT",0,0
1377613653462167559,"2021-04-01T13:27:44Z","March... GameStop $GME: +87% Ethereum $ETH: +34% Bitcoin $BTC: +30% AMC $AMC: +27% Dow $DIA: +7% S&amp;P 500 $SPY: +4.5% Nasdaq 100: +1.7% Gold $GLD: -1% Bonds $AGG: -1% 20+ Treasuries $TLT: -5% ARK Innovation $ARKK: -8% SPACs $SPAK: -12% ViacomCBS $VIAC: -30% Volatility $VIX: -31%",1363,286
1377613652757413888,"2021-04-01T13:27:44Z","I hold eth because i'm SUPER smart and not a scammer. Eth is the future.",2,0
1377613639662895104,"2021-04-01T13:27:41Z","💧Fly Amanita Airdrop 💧  🏆 Task:          ➕ $5 worth of FLY  👨‍👩‍👧 Referral:   ➕ $0.5 worth of FLY  🔛Airdrop Link &amp; Information: https://t.co/Teh5tZDNPE  #cryptocurrency #Crypto #Bitcoin #Ethereum #ETH #Airdrop #bounty #FlyAmanita #FLY",1469,1809
1377613637477670917,"2021-04-01T13:27:40Z","RT @TheCryptoWolfOG: $ETH to $2500 in April or I'm giving away 0.5 $ETH to someone who retweets this.",373,638
1377613621073739795,"2021-04-01T13:27:36Z","$RUNE $ETH  @EthanCa61110045 https://t.co/Rmrc8Nrp6j",2,0
1377613615532896258,"2021-04-01T13:27:35Z","Buying $SXP here. Target 75%  👉 Join Channel: https:https://t.co/3HvJsvA2LI  $BTC $ETH #NFT $PERL $ENJ $FLOW $THETA #BSC  $REEF $LUNA $SAND $AXS $TVK $HOGE $CHZ $STX $ROSE $TROY $ONE $CERL $IRIS $ANC $ADA $DIA $XRP $DOGE $ATOM $LUNA $ZCX $BNB $WABI $LTO $CVC https://t.co/6TEr7yxlFl",0,1
1377613610847981578,"2021-04-01T13:27:34Z","So, scared money is out of $BLES while smart money came in and accumulated. I've seen 20, 30, even 50 ETH buys yesterday from big wallets. They are not dumb, you are because you sold and gave them a discount. My $63 from the future is still alive. https://t.co/jLQRR7QN7a",35,6
1377613606162993154,"2021-04-01T13:27:33Z","Single Mystic Axie #1268 was sold for 25 ETH ($47895.81). Buyer: 0xe38171..., seller: 0x3f86f1... 🔥 Congrats to the new owner! Tx: https://t.co/RV5udV9uxd #AxieInfinity #NFT #Ethereum #Play2Earn https://t.co/YwSJUwsP0u",58,13
