"ID","created_at","text","like_count","rt_count"
1377840713820372994,"2021-04-02T04:29:59Z","Coinomy's community is expanding! Today we've launched an official Telegram group for our Chinese users.  https://t.co/73ZHR6yJWi $OMYX $ETH $TRON $BNB $BTC #Cryptocurrency https://t.co/DSJWjQstHf",85,90
1377840709361876993,"2021-04-02T04:29:58Z","Last chance to enter this #IGGiveaway 👇  The 50,000 $IGG prize is currently worth $70 👀  #IGG #ETH #MATIC #IGGALAXY #PoweredbyPolygon #gaming #esports #crypto #altcoins #uniswap https://t.co/59ObeRmelD",61,28
1377840696460255234,"2021-04-02T04:29:55Z","When you look how much Tezos $XTZ offers when compared to the other top cryptos $ADA $DOT $BNB $ETH you can immediately see how undervalued it is. Even if you don't think #Tezos is superior (I say it is), that spells growth opportunity. Watch the sleeping giant come awake soon. https://t.co/erdDbJlAoa",52,18
1377840685764730882,"2021-04-02T04:29:53Z","$AAVE $ADA $ALGO $ATOM $BCH $BNB $BSV $BTC $BTT $CAKE $COMP $DOT $ELGD $ETH $GRT $IOTA $KSM $LINK $LTC $LUNA $MATIC $THETA $UMA $UNI $VET $ZIL  $ICX: this tweet below is just made to please MIN, so that he can lick his balls.. so no need to take such fuck tweets seriously... https://t.co/p9Zrt9LRSg",0,0
1377840683692785664,"2021-04-02T04:29:52Z","@saf_coin Good Project  My ETH adress  0xd5A81e3977b2E430863d75F8368b740a9d10489C",0,0
1377840683143331846,"2021-04-02T04:29:52Z","#N3challenge #N3challengeDay4  Buy &gt;=1  #NEO and share it on daily basis with community.  Challenge days: 21.   Bought 1 #NEO this morning on #Bitpanda with #EUR  💚💚💚   #ChallengeAccepted  #NEO $NEO #NeoN3 #N3 #GAS $GAS  #FLM $FLM #Bitpanda  #BTC  #Binance #ETH https://t.co/iVEBtzf42o",11,6
1377840677493604353,"2021-04-02T04:29:51Z","$ETH took off🌙 https://t.co/7bu5eNpNIJ https://t.co/qKn3jtkAdr",1,0
1377840675673149441,"2021-04-02T04:29:50Z","RT @foosgonewild: CURRENT HIGHEST BID IS AT 1.5 ETH",102,12
1377840669511839750,"2021-04-02T04:29:49Z","I just minted my first Blockchain Kicks #NFT's the Ethereal Kicks  This is a limited edition collection of 100 only. Each NFT  comes with a custom hand printed pair made in your size with a QR code that links to the token ID on chain. $eth #Ethereum   https://t.co/FookIfzdfM https://t.co/f0aDt5wWXn",574,80
1377840655246917632,"2021-04-02T04:29:45Z","Here is a detailed guide on how to participate in the #NFT Brawl.  For More: https://t.co/mj6VtXGKuI How to play:  https://t.co/fy3RWWXxEs  $pCWS $CWS #BSC #NFTBrawl #Gaming #ETH    #CTBot Adrop RAM 1.5 TRX 45 https://t.co/0iVQQC8dhp",52,49
1377840651585212419,"2021-04-02T04:29:45Z","Within 3 weeks we got Chrysalis live on the #IOTA network. Which will trigger a whole lot of news and upgrades. Be sure to be educated before this. Could be the smartest thing you have ever done!   #Bitcoin #BTC #Ethereum #Tron #ETH #Litecoin #Bitcoincash #Chainlink #Cardano #ADA",171,38
1377840643398062080,"2021-04-02T04:29:43Z","Good Morning ☕ especially to $eth holders 🆙",3,0
1377840636678832129,"2021-04-02T04:29:41Z","If #BTC breaks $69,420 in APRIL 2021 I’ll give a random person my R8  Super SIMPLE: Like ✔️ RT ✔️ Follow ✔️ @JBTheCryptoKing  Drop eth addy ✔️ https://t.co/0ZTkU9CUuI",7875,3934
1377840634229354500,"2021-04-02T04:29:40Z","Come join the $PEECH FAM before the giveaway / burn event on April 10th where one lucky wallet or several wallets could split up to 10 billion PEECH!!!!   @AmandaCerny  @cousincrypt0  @davidgokhshtein    $doge $hoge $froge $chonk $eth $btc $poodl $kong $grumpy https://t.co/4KkcwpMgrw https://t.co/VAIqClsF24",26,10
1377840614511902720,"2021-04-02T04:29:36Z","https://t.co/al9RySuORD dropped the price in hopes to find collectors of #2D #NFTs .025 #ETH #nftcollector #NFTCommunity #NFTartist #nftart #NFTartists #aMAZEinNFTs #ArtMaze #Maze #handdrawn #puzzle #gamechangingthefuture #MachG #artist #TokenizetheArts @rariblecom #Rarible",5,0
1377840613748568070,"2021-04-02T04:29:36Z","anyone else notice hm eth been booming just wow",2,0
1377840600733507586,"2021-04-02T04:29:32Z","A big chance in a billion! Price: \220234.0 (2021/04/02 13:22) #ETH #ethereum",0,0
1377840599689162755,"2021-04-02T04:29:32Z","@JRNYcrypto Im selling my eth  hope you did.   .  You moron.   Provide decent content not only shit you get kick backs off.   This guys the next bit boy.   Useless content.",0,0
1377840582106701825,"2021-04-02T04:29:28Z","30 day EVIX: 92.8160 ETH/USD vwap: $1,991.25 04/30 expiry volume: $7,295,055.08 05/28 expiry volume: $7,071,580.78 Current time: 04:29:06",0,0
1377840575617982467,"2021-04-02T04:29:26Z","RT @TheCryptoWolfOG: $ETH to $2500 in April or I'm giving away 0.5 $ETH to someone who retweets this.",373,638
1377840568357638146,"2021-04-02T04:29:25Z","#DeFi #BKC #eth2 #BucksCake  ANNOUNCEMENT!  Dear BucksCake's community members!  The exact date of BKC listing on Uniswap set for 04/20/2021!  2 days before it, the exact opening time of the trading pair BKC/ETH on Uniswap...  More at https://t.co/RQPMhjazG2 https://t.co/VjtBbXBA1t",2828,2634
1377840566730383360,"2021-04-02T04:29:24Z","@TimHickson1 A good example of how NFTs can work: A project I follow raised money to get listed on a crypto exchange by creating 40 limited NFTs for .5 ETH ($800). Holders of the NFT then get a payout of the currency after a certain amount of time. Sold out in 10hrs, got listed this week.",0,0
1377840561927958531,"2021-04-02T04:29:23Z","If #BTC breaks $69,420 in APRIL 2021 I’ll give a random person my R8  Super SIMPLE: Like ✔️ RT ✔️ Follow ✔️ @JBTheCryptoKing  Drop eth addy ✔️ https://t.co/0ZTkU9CUuI",7875,3934
1377840560430518282,"2021-04-02T04:29:23Z","@mesh_eth That's not a moon yet, it was literally here about 4 weeks ago",0,0
1377840555980390405,"2021-04-02T04:29:22Z","RT @RobertCow_: ATTENTION!! NFT ARTISTS AND CRYPTO PEOPLE!!! Post your ETH address, don’t ask why!!! FAST!! Max retweet!",138,61
1377840537764421632,"2021-04-02T04:29:17Z","💧Poplink Oracles Airdrop 💧  🏆 Task:          ➕  50 POPO (~$50)  👨‍👩‍👧 Referral:  ➕  15 POPO (~$15)  🔛  Airdrop Link &amp; Information: https://t.co/DS6g34KhFp  #cryptocurrency #Crypto #Bitcoin  #BSC #BinanceSmartChain #Ethereum #ETH #Airdrop #bounty #POPO #Poplink",6694,8521
1377840524858699779,"2021-04-02T04:29:14Z","If only David tasted this $PEECH!!  $doge $hoge $btc $eth $alts $grumpy $kong $pipi $pundix $meme  @LoganPaul @justinbieber @AmandaCerny https://t.co/kbWB6k1A7q",8,3
1377840513462595584,"2021-04-02T04:29:12Z","@Eeshkakkar444 @nbatopshot @KDTrey5 @TheFirstMint @EvaluateMarket @rohamg @CSURAM88 @BalesFootball @realDockery @ClubTopShot @Wades_ETH @DanVerno @pranksyNFT @Bimasharp Yes, let's get @pranksyNFT in the giveaway!  I can't wait to get my @nftboxes!",1,0
1377840509494910983,"2021-04-02T04:29:11Z","@SisterSquad3DFS @staystacced @TheFirstMint @Wades_ETH @mbl267_NFT @jonboybeats @LuckyTraderHQ @OwnTheMomentNFT @MomentRanks @economist @topshotanalytix Good to know, ty!",0,0
1377840502981029889,"2021-04-02T04:29:09Z","I got some #ETH and I want to support aspiring artists. I can't afford to buy something expensive yet, but I'm sure you have something to offer me! Leave your #NFT here and I will consider it for purchase. RT your work so other #nftcollector can see it too. #NFTartist #nftart",450,89
1377840492734345218,"2021-04-02T04:29:07Z","ALPHA - BNB LINK - BNB USDC - BUSD BUNNY - BNB UST - BUSD SUSHI - ETH COMP - ETH  =&gt; the above pools have been added to https://t.co/aHNJef50HT  HIGH YIELD! Do it now!   #DeFi #BSC $BSCX https://t.co/DfIFCYAncU",525,311
1377840484551290880,"2021-04-02T04:29:05Z","400k $ETH flowed out from Coinbase a few days ago.   Speculative guess, institutions are now buying $ETH.  https://t.co/ix1AV5IFOm https://t.co/cYaaHkBgFf",2952,547
1377840464468926466,"2021-04-02T04:29:00Z","💧Twinci Airdrop 💧  🏆 Task:          ➕ $15 worth of  TRX                              ➕ $50 worth of TWIN  🔛 Airdrop Link &amp; Information: https://t.co/aV7t49dRDX  #cryptocurrency #Crypto #Bitcoin #Ethereum #ETH #Twinci #TWIN",1336,1777
1377840446492250113,"2021-04-02T04:28:56Z","$ETH            vs         $2,000     ( •_•)                            ( ง )=o                      (x_x )     /︶\                                _/￣|__",5098,613
1377840444630044674,"2021-04-02T04:28:55Z","Stanislav Iljutcenko bought for 0.55 ETH (1095.98$) by Tonysports on the primary market   Season: 2021-2022 Level: 0 Serial: 5/100 Price: 1095.98$  ⚽ Sorare: https://t.co/XrQ4f0xPF9  📊: https://t.co/aRVSytYEL0  #Sorare #NFT #Ethereum #FantasyFootball",0,0
1377840430667141125,"2021-04-02T04:28:52Z","Lots of backend work going today!   The future of $PEECH is looking juicy!  Get in now before April 10th 🚀  $doge $hoge $btc $grumpy $kong $eth  @AmandaCerny  @justinbieber  @chancetherapper  @elonmusk  @HiRezTheRapper https://t.co/PnKES63zkG",13,8
1377840428918132739,"2021-04-02T04:28:51Z","@Wades_ETH @SisterSquad3DFS @HolligerAndrew @staystacced @TheFirstMint @mbl267_NFT @jonboybeats @LuckyTraderHQ @OwnTheMomentNFT @MomentRanks @economist @topshotanalytix Would be cool if there was a dm system to make these type of offers and give the platform a social media element",2,0
1377840424207876101,"2021-04-02T04:28:50Z","ETHEREUM $3500 + Check Out This 5-Year ETH Pattern No-One Talks About (... https://t.co/J75MMLr9uh via @YouTube https://t.co/Bz1WaXct4D",23,0
1377840419787001860,"2021-04-02T04:28:49Z","@liquifiorg  it's good project with eth and bsc . Keep support and i hope received pool airdrop https://t.co/KSrv3xiVOc https://t.co/FkBgLtUM2S https://t.co/P1xm3NYhfn",0,0
1377840413164339201,"2021-04-02T04:28:48Z","ETH Daily Technical Outlook: ETHBTC is finally moving bullish as mentioned and now it is confirmed as bullish above 0.0320 BTC. A further upside move from here is very likely unless we see any major drop in Bitcoin. I aim to scalp $ETH tomorrow 🤔 https://t.co/9BNmG3Z5AR",65,18
1377840410656010245,"2021-04-02T04:28:47Z","Crypto art is a bubble. Art existing as an NFT does not make it so valuable that people are suddenly willing to drop thousands on one piece of art. It’s more that people bought a bunch of ETH 6 years ago when it was only a few dollars, and finally have the opportunity to spend it",272,25
1377840410614194181,"2021-04-02T04:28:47Z","I get that people are excited about #bitcoin #etherium and so many alt coins... but there’s a reason “buy the dip” comes out of every coin holders mouth daily 😂 wait for a dip!",5,1
1377840382831165442,"2021-04-02T04:28:40Z","RT @IamCryptoWolf: $ETH to $2500+ programmed.",1154,91
1377840377122684930,"2021-04-02T04:28:39Z","RT @Peach_Finance: How about a juicy $PEECH while you watch $eth crash that mark??? https://t.co/poAIno7oKV",9,1
1377840370416033793,"2021-04-02T04:28:38Z","400k $ETH flowed out from Coinbase a few days ago.   Speculative guess, institutions are now buying $ETH.  https://t.co/ix1AV5IFOm https://t.co/cYaaHkBgFf",2952,547
1377840349608095745,"2021-04-02T04:28:33Z","RT @LilMoonLambo: BREAKING: Coinbase is expected to go public on April 14th   Are you guys ready for $BTC and $ETH all time highs? https://…",2748,503
1377840342305738753,"2021-04-02T04:28:31Z","Post photos. Make money. Maintain ownership.  Join the  Relica  revolution and experience an exciting new photo sharing platform built on #Bitcoin where you generate income from your content. https://t.co/PXuopmZiic  #Relica #BSV #Bitcoin #Photos  @cctip_com draw 0.00069 ETH 150",52,88
1377840341315903488,"2021-04-02T04:28:31Z","#Ripple Scores Goal: Court Assigns Telephonic Conference On SEC Documents Regarding $BTC And $ETH  Sarah Netburn, the U.S. Magistrate Judge, has ruled that, on Tuesday, April 6 at 2:00 PM, @Ripple Labs and the SEC will take part in a discovery conference https://t.co/h2CVrNLlzN",381,106
1377840340971950081,"2021-04-02T04:28:30Z","You think you know your #blockchain tech⁉️  ➡️DCRM, USAN , CROSSCHAIN, TIMELOCK, FRC758⬅️  #FSN $CHNG $ETH $ADA $BNB $DOT $XRP $LTC $LINK $UNI $XEM $DOGE $AAVE $CRO $SOL $EOS $TRX $VET $HT $ALGO $GRT $EGLD $FIL $AVAX $FTM $VGX $CEL $REN $OKB $ICX $CHSB $BNT $DGB $VET #DeFi https://t.co/ZgQmeG2JMi",20,3
1377840339633930240,"2021-04-02T04:28:30Z","Massive outflow of $ETH from exchanges https://t.co/6ybzSn5h6X via @ki_young_ju",0,0
1377840338870603776,"2021-04-02T04:28:30Z","$ETH            vs         $2,000     ( •_•)                          (•_• )     ( ง )ง                          ୧( ୧ )    /︶\                              /︶\",12645,1704
1377840319790727170,"2021-04-02T04:28:25Z","1/1 ‘Skuly 01’ now available on @rariblecom for 0.5 ETH! 💀 https://t.co/kidUyEaeR7  #NFT #NFTCommunity #NFTcollectibles #cryptoart https://t.co/HX7EX42MZl",78,22
1377840315755864066,"2021-04-02T04:28:24Z","💧Twinci Airdrop 💧  🏆 Task:          ➕ $15 worth of  TRX                              ➕ $50 worth of TWIN  🔛 Airdrop Link &amp; Information: https://t.co/aV7t49dRDX  #cryptocurrency #Crypto #Bitcoin #Ethereum #ETH #Twinci #TWIN",1336,1777
1377840311951618048,"2021-04-02T04:28:24Z","I just minted my first Blockchain Kicks #NFT's the Ethereal Kicks  This is a limited edition collection of 100 only. Each NFT  comes with a custom hand printed pair made in your size with a QR code that links to the token ID on chain. $eth #Ethereum   https://t.co/FookIfzdfM https://t.co/f0aDt5wWXn",574,80
1377840305387364352,"2021-04-02T04:28:22Z","💧Fly Amanita Airdrop 💧  🏆 Task:          ➕ $5 worth of FLY  👨‍👩‍👧 Referral:   ➕ $0.5 worth of FLY  🔛Airdrop Link &amp; Information: https://t.co/Teh5tZDNPE  #cryptocurrency #Crypto #Bitcoin #Ethereum #ETH #Airdrop #bounty #FlyAmanita #FLY",1468,1809
1377840300471812096,"2021-04-02T04:28:21Z","@opensea it seems you do not support data:uri protocol for tokenURI. Any way to get it working ? that's what https://t.co/zC86IUE2uE uses and I currently need to add specimen to the logo image to not confuse users. Thanks",8,3
1377840299570044930,"2021-04-02T04:28:21Z","RT @intocryptoverse: $BTC $ETH $LINK $ADA and $DOT are too risky NOT to hold.",3237,336
1377840298433253378,"2021-04-02T04:28:20Z","@dharmatography I'm a huge believer in $ETH mid- to long-term, I just think it makes sense to lighten up after a strong run like this recently.",1,0
1377840286571712515,"2021-04-02T04:28:18Z","400k $ETH flowed out from Coinbase a few days ago.   Speculative guess, institutions are now buying $ETH.  https://t.co/ix1AV5IFOm https://t.co/cYaaHkBgFf",2952,547
1377840284797636609,"2021-04-02T04:28:17Z","400k $ETH flowed out from Coinbase a few days ago.   Speculative guess, institutions are now buying $ETH.  https://t.co/ix1AV5IFOm https://t.co/cYaaHkBgFf",2952,547
1377840283132571650,"2021-04-02T04:28:17Z","@An0nym0usNobody @opensea only 1 eth?",1,0
1377840266506162176,"2021-04-02T04:28:13Z","RT @Benaskren: 🔥🔥🔥ETH back at $2,000!!! What a day.",789,39
1377840246801326083,"2021-04-02T04:28:08Z","Today is a Pinnacle day for all #Ethereum holders.  Today we reached new heights..📈  Comment Below Your Price Prediction for #ETH By The End Of 2021 🪙 @coinkit_ mon 10 100 BTC https://t.co/appEdWy8hN",169,125
1377840246235271169,"2021-04-02T04:28:08Z","$one last chance, this $one dip is a gift from god. 🙏  $one will be $1 in April !   #FREEMONEY #god #pray #ineednewteeth #dentalplan #one   $dent $vra $kcs $btc $eth @harmonyprotocol @stse   💰🎉🪐🔮💳 https://t.co/gSy315fvj3",3,0
1377840242045030400,"2021-04-02T04:28:07Z","@FlyingCryptos Man you need your YouTube channel. You’re missing out on money. You are calling everything. With Bitcoin and ETH of course. People like diversity",0,0
1377840240031764483,"2021-04-02T04:28:06Z","RT @cryptorecruitr: $2,000 ETH reminds me of $1.50 ADA https://t.co/9TbVCY6i4j",315,15
1377840223632064515,"2021-04-02T04:28:03Z","Buy $REN at here 105% soon 🚀 👉 Join Channel: https://t.co/Cg2lD5ExP8  $BTC $ETH #NFT $PERL $ENJ $FLOW $THETA #BSC  $REEF $LUNA $SAND $AXS $TVK $HOGE $CHZ $STX $ROSE $TROY $ONE $CERL $IRIS $ANC $ADA $DIA $XRP $DOGE $ATOM $LUNA $ZCX $BNB $WABI $LTO $CVC https://t.co/MdQWmqdJXE",10,1
1377840215084081154,"2021-04-02T04:28:00Z","@Bitcoinomist #ETH  Goodluck everyone☘️☘️☘️☘️",0,0
1377840213922226177,"2021-04-02T04:28:00Z","Shark Tank star Mark Cuban compared smart contracts to the internet boom and said ETH is “the closest we have to a true currency.” https://t.co/VK7QnOPpxb",277,56
1377840211665723396,"2021-04-02T04:28:00Z","@d0h0k1 @anchor_protocol you get a higher rate on FTX. no Defi risk no ETH gas fees",2,0
1377840196339736576,"2021-04-02T04:27:56Z","RT @_mike_nolan_: $APL = $1 this coin is so undervalued.  $trx $ada $btc $eth $dot $hoge $doge @elonmusk",8,5
1377840186961195009,"2021-04-02T04:27:54Z","If #BTC breaks $69,420 in APRIL 2021 I’ll give a random person my R8  Super SIMPLE: Like ✔️ RT ✔️ Follow ✔️ @JBTheCryptoKing  Drop eth addy ✔️ https://t.co/0ZTkU9CUuI",7875,3934
1377840172331585537,"2021-04-02T04:27:50Z","$hot $holo.nauts gooood morning.  We hold like a beast. THATS WE ARE!  #HOT #HOLO #HOLOCHAIN #HOLOPORT #HOLOFUEL #CRYPTO #CRYPTOCURRENCY #BTC #BITCOIN $ETH #ETH #ETHEREUM",12,1
1377840170704179200,"2021-04-02T04:27:50Z","RT @nishoutofwater: So $eth did hit 2k yesterday (for the US) 😉 #cryptocurrency",10,1
1377840137799938056,"2021-04-02T04:27:42Z","RT @girlgone_crypto: 60k #bitcoin and 2k $ETH 🔥",2175,221
1377840120959799301,"2021-04-02T04:27:38Z","Anyswap currently have 205 live bridged tokens across 10 chains including BSC, ETH, Polygon, Houbi, Fusion, Fantom…… $ANY $FSN $ARMOR $BADGER $SFI $MIR https://t.co/lYcUVK6yWy",19,3
1377840115733692417,"2021-04-02T04:27:37Z","@saf_coin My ETH addess 0xB0FABe7f73B8F86f8FEbaE64aecD95358469b94c",0,0
1377840113498128389,"2021-04-02T04:27:36Z","RT @CryptoKaren888: #defi #liquiditylockers #yieldfarming #ILO #eth #bsc #xDai #matic #UniSwap $Cake 🥞 $HNY 🍯 $Quick $JulD $Sushi 🍣  $UNCX…",12,2
1377840101045178370,"2021-04-02T04:27:33Z","🚨🚨 Walkinggg sold for 5.21 ETH ($10,428.96 USD) 🚨🚨    #Rarible #NFT #cryptoart   https://t.co/kySzGFauF1",1,0
1377840092937605122,"2021-04-02T04:27:31Z","400k $ETH flowed out from Coinbase a few days ago.   Speculative guess, institutions are now buying $ETH.  https://t.co/ix1AV5IFOm https://t.co/cYaaHkBgFf",2952,547
1377840091880636416,"2021-04-02T04:27:31Z","@saf_coin Top top My ETH 0x57eA4d06d5EaE155B49aF484DD3E5BCdeA83aB29",0,0
1377840086704910340,"2021-04-02T04:27:30Z","Hacking groups are becoming more and more commonplace. Here’s a list of the most notorious hacking groups of all time and what makes them so infamous.  Find out more. https://t.co/U2YNKzH0dM  #Crypto #Blockchain $BTC $ETH $KEY https://t.co/V3LYAwr8Zc",72,12
1377840082737070080,"2021-04-02T04:27:29Z","Damn! Bitcoin touched $60,200 and $ETH touched $2,010. We are in for a fucking bullish weekend!! 😤😤😤🚀🚀🚀🔥🔥🔥",22,2
1377840074918785026,"2021-04-02T04:27:27Z","Hey Twitterverse, what's driving the surge in #Bitcoin #ETH #dogecoin and others ? Thoughts?",0,0
1377840069680066567,"2021-04-02T04:27:26Z","ETH gonna hit 2k huh",1,0
1377840061614452738,"2021-04-02T04:27:24Z","Cliq DAO Airdrop Officially Launched Fill this Form https://t.co/AFdBErdRVn to Get 500 CLQ Tokens Worth $50 USD  Don't Miss this chance  Token Distribution April 2021 Month End. #BSC $BNB $ETH $BTC  #Bitcoin #BinanceSmartChain #BNB #cryptocurrency #crypto #NFTs #Airdrops #Airdrop https://t.co/8whsgLzhEl",530,426
1377840057864712196,"2021-04-02T04:27:23Z","💧Twinci Airdrop 💧  🏆 Task:          ➕ $15 worth of  TRX                              ➕ $50 worth of TWIN  🔛 Airdrop Link &amp; Information: https://t.co/aV7t49dRDX  #cryptocurrency #Crypto #Bitcoin #Ethereum #ETH #Twinci #TWIN",1336,1777
1377840056640053248,"2021-04-02T04:27:23Z","RT @sassal0x: $ETH is now 20% of the way to $10,000.",1477,132
1377840054924673024,"2021-04-02T04:27:22Z","Eth pushing on 2k, but the real story is bsc taking off in price, users and projects.  Just in time for alienworlds crosschain quests! :)  $TLM #NFTS",11,2
1377840047177625600,"2021-04-02T04:27:20Z","RT @jackbutcher: Reply🪙 &amp; RT to scratch.  (Winner will need an ETH wallet) https://t.co/A47BDcJpVd",651,836
1377840041653862401,"2021-04-02T04:27:19Z","(Crypto Tech Special)  Bitcoin (BTC), Litecoin (LTC), Ethereum (ETH) Outlook: Resistance in Focus after Bounces  #Bitcoin #Litecoin #Ethereum $BTCUSD $LTCUSD $ETHUSD   https://t.co/2f3fTMqIOA https://t.co/WY4e6w4nyz",13,7
1377840036406730752,"2021-04-02T04:27:18Z","Digital Art 1/5 most influential people in the crypto. #NFTs $eth @VitalikButerin https://t.co/K1ZdJkrJWb $btc $bnb @binance https://t.co/NFQqJtpSK4",3,0
1377840034666082305,"2021-04-02T04:27:17Z","RT @JRNYcrypto: $60k #Bitcoin and $2k $ETH 👀",1935,149
1377840031830790146,"2021-04-02T04:27:17Z","🔒 MakerDAO Vault #14106 closed: 🤝 475.51k DAI paid back 💰 791.25 ETH withdrawn https://t.co/ITqd0Z1Xa0",0,0
1377840029863608322,"2021-04-02T04:27:16Z","If #BTC breaks $69,420 in APRIL 2021 I’ll give a random person my R8  Super SIMPLE: Like ✔️ RT ✔️ Follow ✔️ @JBTheCryptoKing  Drop eth addy ✔️ https://t.co/0ZTkU9CUuI",7875,3934
1377840023299571715,"2021-04-02T04:27:15Z","Understanding context before you make a decision is powerful shit.  1) We have $BTC looking to make a move above 60k. 2) $Riot just broke past a huge area of resistance.  3) Biden announcing another 2T stimulus bill = anti-inflation assets like $BTC will pump.  $mara $sos $eth https://t.co/10ufkIEXOD",1,1
1377840012591435777,"2021-04-02T04:27:12Z","400k $ETH flowed out from Coinbase a few days ago.   Speculative guess, institutions are now buying $ETH.  https://t.co/ix1AV5IFOm https://t.co/cYaaHkBgFf",2952,547
1377840003867242501,"2021-04-02T04:27:10Z","RT @OKEx: Happy $2,000 $ETH everybody 🚀🚀 https://t.co/LEIaJOJ9d4",202,45
1377839981222301697,"2021-04-02T04:27:05Z","#ZEC $ZEC   Already mentioned about it $BTC $ETH $XRP $USDT $BCH $LTC $EOS $BNB $BSV $XLM $ADA $TRX $XMR $XTZ $LINK https://t.co/3vViAXKzZj",0,0
1377839954613559297,"2021-04-02T04:26:58Z","👀 Genesis INVISIROO  #R000 has hopped onto the #ETH #Blockchain &amp; is now minted via @OpenSea.   Price:  Ξ0.5  Total Supply: 888  https://t.co/yvY5AG79ay  #nftcollectors #NFT #NFTs #pixelart #NFTcommunity #NFTart https://t.co/V9xH7jqciO",4,1
