"ID","created_at","text","like_count","rt_count"
1376496855324954625,"2021-03-29T11:29:59Z","RT @CSN2021: What do y’all want to learned about Crypto?  $Doge $BTC $ADA $TRX $ETH $LTC $Nano",3,0
1376496853282340867,"2021-03-29T11:29:58Z","#BTC Price: $57609 #ETH Price: $1762 #LTC Price: $194  Next update in 10 minutes Last updated: 7:29:58.01",0,0
1376496848765132800,"2021-03-29T11:29:57Z","@davidiach Just wonder why they choose usdc on eth and not xlm blockchain to reduce cost and increase settlement speed",0,0
1376496845887791104,"2021-03-29T11:29:56Z","@TheChartWitcher More bullish ETH",0,0
1376496844876972033,"2021-03-29T11:29:56Z","Only 3️⃣ days until the genesis launch of $SEFI, native governance token for @secret_swap and Secret #DeFi.  Today’s fact: bridges beyond $ETH and #BSC are already in development, including to the $DOT ecosystem and $XMR - plus #IBC will help Secret support the whole @cosmos 🌌 https://t.co/kSnXmayvxe",232,0
1376496840825184271,"2021-03-29T11:29:55Z","$QUICK  I got a bag on this zone.   DEX on Polygon (ex Matic) Network. Team continuously building.   Liquidity is being added every day and several projects are moving to L2 solutions.  Fees are... well... Fees?? 😂  $ETH #L2 $MATIC https://t.co/4VCwNf3yFl",5,0
1376496840447819780,"2021-03-29T11:29:55Z","$STRAX $USDT $BTC It has formed a beautiful iH&amp;S on 1/4hr TF. Waiting for breakout!🔥🚀 $eth $link $dot $etc $atom $band $algo $xrp $waves #bitcoin #crypto https://t.co/t6JAdtfvp4",25,0
1376496835628576770,"2021-03-29T11:29:54Z","Its incredible that Western Media ignores TPLF's criminal acts but amplifies #TPLF lies with diligence! Do not gloss over the truth! TPLF shot 23 deadly missiles @ z Eritrean capital Asmara! #UnityForeri&amp; Eth @UNSCouncil @EU_Commission  What is the sanction about?  @StateDept",69,0
1376496829462941697,"2021-03-29T11:29:52Z","#pond #Crypto #cryptocurrency #BTC   #Bitcoin  #Ethereum #eth $pond coin on its way to $1 dollar, get in before it’s too late. follow and retweet for more recommendations",2,0
1376496826514354177,"2021-03-29T11:29:52Z","Because CHUBBIE #0 is currently over 30ETH, we will giveaway CHUBBIES #5537 and #1963 (Both Shinies ~$1,500 each)   -to ONE person that retweets this tweet and follows!  Current bid: 69.69 ETH  CHUBBIE #0: https://t.co/NfK8fP1uZP https://t.co/DsIqf9abnz",613,0
1376496811838468099,"2021-03-29T11:29:48Z","RT @davidiach: Just so you know, Visa will need to buy $ETH to pay for transaction fees.",2333,0
1376496810823450626,"2021-03-29T11:29:48Z","RT @davidiach: Just so you know, Visa will need to buy $ETH to pay for transaction fees.",2333,0
1376496810819260419,"2021-03-29T11:29:48Z","#Memecoins are serious investment! Are you agree? Tell us about your favourite #memecoin in comments! $BAN $MONA $WOW $DOGE $TRTL  @bananocoin @tcejorpniocanom @W0wn3r0 @dogecoin @_turtlecoin #Crypto #DEX #ETH #blockchain #BTCUSD https://t.co/rCIUcopwjo",70,0
1376496809770676224,"2021-03-29T11:29:48Z","In all honesty though I think the eventual $ETH pump will be monstrous and it will catch a lot of people unaware.",26,0
1376496809514782726,"2021-03-29T11:29:48Z","@tanya_4d Hey Tanya, Here's my piece on @withFND  The Concert Reserve set at 0.2 eth https://t.co/saL8H16RhE https://t.co/3JoDWN0WRr",4,1
1376496803776970753,"2021-03-29T11:29:46Z","0x7163b9a3149548Bc7Fb3f509714bD012604CC103 ETH https://t.co/dtYxzx1lZL",0,0
1376496802011045890,"2021-03-29T11:29:46Z","🎁Huge Giveaway!🎁  1x @PlasmaAIO beta key 1x @MooseAlertsCA Monthly 1x @TrinityProxies 1GB Resi 1x @SneakerPings Monthly 1x @studiobreit $100 ETH cash prize  🚨Rules🚨 -Follow all accounts✅ -Retweet🔁 -Tag a friend👥  Ends in 48 hours, good luck!🍀 https://t.co/RsyBvTzUU0",391,0
1376496794096431106,"2021-03-29T11:29:44Z","Good (implicit) review of the state-of-the-art on Ethereum L2 vs Lightning.  Eric lost the bet because it was denominated in dollar terms and BTC rose in price.  But it’d be good to see the base unit result. That is, what was the relative increase of BTC into LN vs ETH into L2? https://t.co/pAfAKjVla2",126,0
1376496791496048642,"2021-03-29T11:29:43Z","@dixon_eth @blockomoco @withFND Congrats bro🔥",0,0
1376496791458209794,"2021-03-29T11:29:43Z","REAKING: Visa has become the first major payment network to incorporate a digital dollar (USDC) into their network and settle transactions in the new system, rather than the old banking system.  ETH going to 8K USD , Mark my word !  #Ethereum #BTC",3,3
1376496789122129921,"2021-03-29T11:29:43Z","@poplink16 #POPO #ETH #BTC good project @Maximix14 @lactum6 @rebiscooll",0,0
1376496788140556290,"2021-03-29T11:29:43Z","@his_eth Each star is a paintdrop 🌌  https://t.co/ZKpfyLgBjN https://t.co/KVUbhhvlkw https://t.co/27zwPjwGVJ",0,0
1376496786727071746,"2021-03-29T11:29:42Z","@samconnerone @Visa Etherium?",1,0
1376496777772212224,"2021-03-29T11:29:40Z","Who will be responsible the the ETH fees Visa?",1,0
1376496759724183560,"2021-03-29T11:29:36Z","Guess what! OVR will also move to Optimism! It will be possible to trade on Uniswap V3 with very low slippage – thanks to concentrated liquidity and gas fees, same for bidding for OVRLands.  Read the full article here: https://t.co/UQGE3TWPaU  #NFT #ETH #blockchain https://t.co/yYGlNDOgv5",127,0
1376496758935613440,"2021-03-29T11:29:36Z","Hey you...📢  We've extended our @Bitcointalk Signature Campaign!💪  1⃣Earn $PHR💰 2⃣Hold in your #Phore wallet 3⃣Get #Graphene for FREE🚀  👇View the campaign👇 https://t.co/4p3gjxUkfG  #Bitcoin #Ethereum $BTC $ETH $GFN #cryptocurrency #Airdrop @GetGraphene https://t.co/3XjSXsjOuK",75,0
1376496754925785091,"2021-03-29T11:29:35Z","RT @zetta_icarus: @binance Join the miners of #bsc defi ! https://t.co/PlHwGyJmZL  You can start mining ETH on #bsc today 👀",121,0
1376496739109179392,"2021-03-29T11:29:31Z","Join the @Holdefi community in HLD public sale!  #HLD #Holdefi #ETH #BSC #IDO #ICO 👇👇 https://t.co/E7iMnkSFaU",0,0
1376496738735915010,"2021-03-29T11:29:31Z","30 day EVIX: 84.6877 ETH/USD vwap: $1,766.24 04/16 expiry volume: $1,263,991.91 04/30 expiry volume: $5,790,483.14 Current time: 11:29:05",0,0
1376496735359442950,"2021-03-29T11:29:30Z","Compound (APR)  noteworthy rate Δ  🔹 $ETH  - B 2.79% S 0.17%  🔹 $USDC - B 11.54% S 9.12%  🔹 $REP  - B 11.99% S 0.00%  🔹 $BAT  - B 6.60% S 0.72%  🔹 $ZRX  - B 6.92% S 0.80% 🔹 $WBTC  - B 2.40% S 0.02% 🔹 $DAI  - B 10.31% S 7.38% 🔹 $USDT  - B 22.44% S 19.45%",0,0
1376496725712510981,"2021-03-29T11:29:28Z","listed “Penrose | Impossible Loop” for sale on  @withFND  Check it out → https://t.co/gaAPXiri24  Reserve Price 0.35 ETH  #NFTArt #b3d #NFT #cryptoartist #cryptoart #nftcollectors  #NFTCommunity #NFTs #NFTartists https://t.co/quQykpCjng",99,0
1376496722537443329,"2021-03-29T11:29:27Z","This skull key is protected behind an impenatrable chamber and is a code away from being unlocked. The prize is minted as an @enjin NFT and is currently worth over $20K in backed value. Do you have the skill to recover the key from @SpacePirate_io? https://t.co/wW6pCOlM7z https://t.co/p5kVAiJUOU",168,0
1376496721228881921,"2021-03-29T11:29:27Z","@scottmelker Thanks to ETH lol",0,0
1376496710671863812,"2021-03-29T11:29:24Z","The first #NFTart from CryptoAnimeNFT series is now minted and available on #Rarible: ETH GIRL 01 https://t.co/QvOOfL6Tbp? #rarible #ethereum #nonfungible #digitalasset #nft via @rariblecom",54,0
1376496706942996487,"2021-03-29T11:29:23Z","@sassal0x Will be even more annoying to see btc price appreciation… but not eth as normies buy the wrong news.",0,0
1376496701335334914,"2021-03-29T11:29:22Z","🚀 Pluto Coin  Airdrop 🚀 Rate: ⭐⭐⭐⭐ ⭐ 🎁 Reward:  8822 PLUT ($1500) 👫 Referral: 40.5 PLUT  ($7)  🤖Start Bot here   https://t.co/x5JZchojO8  ⛂ Join Telegram group and channel. ⛂ Follow twitter &amp; retweet  ⛂ Submit ETH address and details.",6005,0
1376496696243281931,"2021-03-29T11:29:21Z","I'm sharing my exact plan for $BTC, $ETH, $VET, $ADA, etc., in today's newsletter.   It'll be out later today.  Get access here:   https://t.co/dwkv0vxBU6",5770,0
1376496696214044675,"2021-03-29T11:29:21Z","Yippieeee!!! Out for sale now via @rariblecom   https://t.co/yyn5UrfxRa?   #rarible #ethereum #nonfungible #digitalasset #nft #art #token #eth #digitalart #childrensbook #Bitcoin #Motivation #archillect #nftcollector   Check it out :D https://t.co/rtRXCyGHKM",8,2
1376496692552466437,"2021-03-29T11:29:20Z","The first #NFTart from CryptoAnimeNFT series is now minted and available on #Rarible: ETH GIRL 01 https://t.co/QvOOfL6Tbp? #rarible #ethereum #nonfungible #digitalasset #nft via @rariblecom https://t.co/1EpO5DeiLY",69,2
1376496691227070472,"2021-03-29T11:29:19Z","⚔️ Legends Of Cryptonia 16 - Cardano #NFT   Sold today for 0,15 ETH ($264,39) by a vendor on secondary market 🔥  Originally listed for 0,05 ETH ($91,13) 👁️  https://t.co/uKfWCfEKtW https://t.co/Si0dqYI3qs",5,2
1376496684629381121,"2021-03-29T11:29:18Z","@NFTZebras @radster1975 ThePhotographer.eth https://t.co/BM0uyzS4l4  @macnamara89 @msirach3 @Airdroppers1 https://t.co/gyqyRoNRfl",1,0
1376496683765276679,"2021-03-29T11:29:18Z","🚀 Pluto Coin  Airdrop 🚀 Rate: ⭐⭐⭐⭐ ⭐ 🎁 Reward:  8822 PLUT ($1500) 👫 Referral: 40.5 PLUT  ($7)  🤖Start Bot here   https://t.co/x5JZchojO8  ⛂ Join Telegram group and channel. ⛂ Follow twitter &amp; retweet  ⛂ Submit ETH address and details.",6005,0
1376496681328406532,"2021-03-29T11:29:17Z","🏆 Follow us &amp; Retweet this tweet, Specify the ETH address in the tweet comment to get 10 #BIT ($10 worth) or 50 #BIT ($50 worth) #BitScores Airdrop Tokens! 🎁 $250,000 Prize Pool Full rules: https://t.co/N53M5nRXr9  #giveaway #airdrops #bounty #giveaways #defi #eth #btc #airdrop https://t.co/m77hDtRsBv",3577,0
1376496678128087044,"2021-03-29T11:29:16Z","🧡💛💚💙 $TOMO is only going to fly about shoulder height to peak over the window. but its 5x on btc, so we'll take it  the tomosexual guys have been building a solid chain and are inter-operable with ETH... also scales well. @TomoChainPR has a prophecy to fulfill  believe!!  🔮 https://t.co/qjxOlBmhMD",12,0
1376496676328796162,"2021-03-29T11:29:16Z","🔥 Rewardiqa Airdrop 🎁 Reward: 15 REW 232$ ✅ Market: Finexbox  🕹️ Join Airdrop Bot👉  https://t.co/EKxR2nK1Yy  ‼️ Task... 🔹 Join Telegram 🔹 Follow Twitter  🔹 Submit ERC-20 ETH Address https://t.co/A2SkGreuro",5,0
1376496671643828227,"2021-03-29T11:29:15Z","Guess what! OVR will also move to Optimism! It will be possible to trade on Uniswap V3 with very low slippage – thanks to concentrated liquidity and gas fees, same for bidding for OVRLands.  Read the full article here: https://t.co/UQGE3TWPaU  #NFT #ETH #blockchain https://t.co/yYGlNDOgv5",127,24
1376496666367426562,"2021-03-29T11:29:13Z","Its incredible that Western Media ignores TPLF's criminal acts but amplifies #TPLF lies with diligence! Do not gloss over the truth! TPLF shot 23 deadly missiles @ z Eritrean capital Asmara! #UnityForeri&amp; Eth @UNSCouncil @EU_Commission  What is the sanction about?  @StateDept",69,24
1376496665784295426,"2021-03-29T11:29:13Z","Official Announcement! #ESR whitepaper for the $HPB #blockchain to be shared on April 19th!! - Mark the date in your calendars people! #crypto #Eth #BTC #BNB #Dapp https://t.co/rr14REJZ18",23,24
1376496657794236421,"2021-03-29T11:29:11Z","Ethereum Classic's design makes a calculated tradeoff between performance and security. In other words, ETC is inefficient, but highly secure.  In fact, much more secure than your devices or online services.  What Is Ethereum Classic? by @CryptoEtherplan https://t.co/sh7dozsDiw",131,24
1376496624877273094,"2021-03-29T11:29:04Z","RT @LisaNEdwards: $ETH chart as explained on @Hardforkers tonight https://t.co/zJFR1Pqmid 🤘🤓✌️ https://t.co/MsqzmkWQAY",82,24
1376496613603082240,"2021-03-29T11:29:01Z","CryptoAnime #NFT #giveaway!  To be eligible to participate in this #NFTgiveaway you must:  1) Follow us, like our last 3 tweets and retweet them. 2) Tag 3 friends in the comments of this tweet 3) Post your $ETH #Ethereum address in comments  We'll pick a lucky winner on 15 April! https://t.co/OixVzImfrn",143,24
1376496613535928320,"2021-03-29T11:29:01Z","Shill your art! Ill buy the top 5 most liked and retweeted. Just follow, like, and RT also.  #nft #nftart #nftartist #opensea #mintable #superrare #niftygateway #eth #ethereum #cryptoart #cryptoartist #nfts #nftcommunity #nftcollector #NFTartists",158,24
1376496608653811716,"2021-03-29T11:29:00Z","Its incredible that Western Media ignores TPLF's criminal acts but amplifies #TPLF lies with diligence! Do not gloss over the truth! TPLF shot 23 deadly missiles @ z Eritrean capital Asmara! #UnityForeri&amp; Eth @UNSCouncil @EU_Commission  What is the sanction about?  @StateDept",69,24
1376496607454183424,"2021-03-29T11:28:59Z","Are you also trading one of the top 4 assets on Bitpanda today?   1️⃣  $BTC 2️⃣  $ETH 3️⃣  $BEST 4️⃣  $BTT  Let us know below 👇 https://t.co/9zLW8Vlatv",482,24
1376496595559153664,"2021-03-29T11:28:57Z","@Poloniex $KIN has a triving ecosystem (most used cryptocurrency in consumer apps), SEC Clarity, only 3 coins have been named not a security by the SEC: BTC, ETH and $KIN. Growing and active community, ranked 9 on Reddits most active communities for Finance and Business. +5223% this year!",5,0
1376496586608406530,"2021-03-29T11:28:54Z","While Eth 2.0 is prioritizing its Proof-of-Stake chain merge, Polkadot is moving to become a sharded multi-chain ecosystem. https://t.co/cDokdKg2TY",243,0
1376496577800458243,"2021-03-29T11:28:52Z","@sillytuna When withdrawing USDC from Nifty Gateway to Gemini they automatically convert it to ETH for European / UK accounts",2,0
1376496576772763650,"2021-03-29T11:28:52Z","Which will produce the biggest gains in 2021?  $AVAX $DEXTF $HTR $ZIL $ZERO $BONDLY $PKF $LUNA $QNT $RSR $OCEAN $REN $RUNE $BTC $ETH $TRB $KSM $RFOX $ORAI $SHR $ERN $VET $XED $SUPER $DOT $LINK $POLK $MATIC $QUICK #L2 #altcoin #altcoinseason",11,2
1376496571391619074,"2021-03-29T11:28:51Z","My first ever #NFT sale on Rarible! 🥳🥳🥳 Thank you @dikparkes !!! 9 IceBox ETH still available for 0.035 ETH #NFTs #nftcollector #NFTCommunity https://t.co/xUTXffayPO https://t.co/W3s7rQi984",35,2
1376496568078016517,"2021-03-29T11:28:50Z","Airdrops will be distributed shortly. Please note that there will be a delay due to the busy ETH transaction⛽️ And we have a big announcement to make after launch. Stay tuned to Twitter tomorrow!👀",41,2
1376496567838863366,"2021-03-29T11:28:50Z","❓ Magic Balancer is Rebalance Protocol in ETH and BSC Chain.   Every rebalance $MGB token price can raise up to %2. This can be happens every hour up to 24 times a day!  📈 After 1 week Presale end 1 $MGB worth of $4000 for this mechanism.  #MGB #DeFi #Rebalance",329,2
1376496559840391170,"2021-03-29T11:28:48Z","🚀 Pluto Coin  Airdrop 🚀 Rate: ⭐⭐⭐⭐ ⭐ 🎁 Reward:  8822 PLUT ($1500) 👫 Referral: 40.5 PLUT  ($7)  🤖Start Bot here   https://t.co/x5JZchojO8  ⛂ Join Telegram group and channel. ⛂ Follow twitter &amp; retweet  ⛂ Submit ETH address and details.",6005,2
1376496548515737606,"2021-03-29T11:28:45Z","100 followers giveaway!  Choosing 4 winners for $25 each!  paying in any stable coins (USD,USDT,UST)  Simply follow @KatanaSlayerx , like &amp; retweet to enter!  $VRA $CAKE $WOO $BNB $ETH $SENT $BTC #bitcoin",63,2
1376496548410953728,"2021-03-29T11:28:45Z","We will start dumping soon #btc #bitcoin #usd #crypto #cryptocurrency #market #token #blockchain #tether #usdt #BTCUSDT #altcoins #xrp #eth #ltc #forex #trading #DXY #link #iota #Ethereum #litecoin care",3,1
1376496547261788161,"2021-03-29T11:28:45Z","@genesis_vision Best social trading platform to date. https://t.co/NHI0CEmDMR  $GVT $BNB $BTC $ETH",12,7
1376496542073380867,"2021-03-29T11:28:44Z","🏆 The days of pure speculation are over  🔷 If you build on $dag, the whole $dag ecosystem benefits from it  🏆Capital injection lifts all boates in the ecosystem  🔷 $eth has only fee utility  🏆 $dag is breakthrough tech  Only question remains: When @Grayscale ?  $ocean $noia https://t.co/qX3DYaS77R https://t.co/Yw3KOLuinj",30,7
1376496540097728516,"2021-03-29T11:28:43Z","Marketing blockchain, defi, NFT &amp; tech startups, Quotidian supports brands in building valuable connections with niche audiences. Let's chat!  Testimonials: https://t.co/bDdLCBkR1x  🛠️🛠️🛠️🛠️🛠️🛠️🛠️🛠️🛠️🛠️🛠️🛠️🛠️🛠️🛠️ #BTC #ETH #BSC #crypto #blockchain #defi #NFT #NFTs #tech #startups https://t.co/8YS4T3mCQN",5,7
1376496536671166464,"2021-03-29T11:28:43Z","🎁Competition time!🎁  WIN this 1 of 3 NFT  🍄Entrance of the Eth🍄  ....just....  LIKE✔ SHARE this post ✔ FOLLOW the page ✔  ....and we'll pick a winner in 48hrs 😊💛🐼🙏🎉   Good luck everyone x https://t.co/T38uHnTGmh #NFT #NFTart #Rarible #Kiefmonster #NFTcompetition https://t.co/XN9WLaRZv2",127,7
1376496534024560640,"2021-03-29T11:28:42Z","RT @NFTFusion: What’s your ETH address?  No questions, just drop it below 👇 #NFT #NFTs",1953,7
1376496533898723330,"2021-03-29T11:28:42Z","RT @scoinaldo: What an opening on the weekly.  Total crypto mcap about to go absolutely nuts.  $BTC $ETH https://t.co/aEcIY2cu0F",335,7
1376496528559312898,"2021-03-29T11:28:41Z","@bitfinex 1. XMR 2. BTC 3. ETH Not taking into account gov / corp ststablecoins.",1,0
1376496525107470342,"2021-03-29T11:28:40Z","@smeddysays @dodgerfan511 @burntboi Arbing will entail interacting with ETH smart contracts. So, you’ll just need to have your RSR stored at a wallet address that you can control with Metamask, or equivalents. With most hardware wallets like the Ledger you can directly interact with smart contracts",3,0
1376496514294513669,"2021-03-29T11:28:37Z","@apes_crypto @opensea @msirach3 @macnamara89 @Airdroppers1  ThePhotographer.eth https://t.co/BM0uyzS4l4  0x8615593F2b34626e69F476Ac418596aE08178f5e https://t.co/6VbCGfQtkD",2,0
1376496510746177541,"2021-03-29T11:28:36Z","RT @ScottZILWarrior: Ok the time has come  Lets send #ETH to $2000+  Just in time for the launch of $10SET @TenseT_io  Like this tweet to s…",618,0
1376496509986947072,"2021-03-29T11:28:36Z","Join the @Holdefi community in HLD public sale!  #HLD #Holdefi #ETH #BSC #IDO #ICO 👇👇 https://t.co/mZcpRLLqi1",0,0
1376496507118092294,"2021-03-29T11:28:36Z","RT @NFTFusion: What’s your ETH address?  No questions, just drop it below 👇 #NFT #NFTs",1953,0
1376496504890777603,"2021-03-29T11:28:35Z","Save your ETH by paying gas in stablecoins with @biconomy Forward! Try testnet for https://t.co/lw46SsRGQu now.” 0xebF980c3A80F6291Fc1B28eBcE55521c2FA4E7cc https://t.co/eQSVr3RcH9",0,0
1376496502764232709,"2021-03-29T11:28:34Z","🔥HOT🔥 - $100 in Cryptocurrency | Giveaway!  To win: ✔ Follow us &amp; @MatrixAINetwork ✔ Tag a friend ✔ Retweet ✔ Join: https://t.co/R9H48O8Tq3 Thats it! Good luck! 💖 Rolling in 24 hours!  #goodvibes #goodluck #giveaway #bitcoin #Giveaways  #cryptocurrency #eth #btc #BSC #TRON https://t.co/0Eju3gcguv",306,0
1376496490323959809,"2021-03-29T11:28:32Z","💧Roku Network Airdrop 💧  🏆 Task:          ➕  15 ROK (~$5)  👨‍👩‍👧 Referral:   ➕  3 ROK (~$1)  🔛  Airdrop Link &amp; Information: https://t.co/YhvsOcfEbH  #cryptocurrency #Crypto #Bitcoin  #BSC #BinanceSmartChain #Ethereum #ETH #Airdrop #bounty #ROK #RokuCoin #RokuNetwork",3811,0
1376496481998372866,"2021-03-29T11:28:30Z","RT @MoneyNostra: Ethereum breaking out of its inverse head &amp; shoulder.  🟩🟩🟩🟩🟩🟩🟩🟩🟩🟩 TO THE MOON $ETH 🌙 🚀 https://t.co/W7qohvWnyx",52,0
1376496479724916737,"2021-03-29T11:28:29Z","Hello world! I've just created my 2nd collections on [Opensea] So it would be a thrilled moment to me that if you come and see my NFT Art. retweet pls :)  Available on https://t.co/7spgzrmYlu  #nft #nfts #nftart #nftarts #byeongsam #nftcollector #opensea #etherium #NFTCommunity",41,0
1376496466835947526,"2021-03-29T11:28:26Z","RT @NFTFusion: What’s your ETH address?  No questions, just drop it below 👇 #NFT #NFTs",1953,0
1376496464386535424,"2021-03-29T11:28:25Z","GAS IS UNDER 100 GWEI! $eth  ⛽️ Gas prices are low = #NFTs are on sale    💰 Promote your #NFTdrops in the comments below. If you RT &amp; Follow I will ❤️ your last 5 posts!!   👀 TAG AN #NFTARTIST FRIEND  #nft #nftart #nftcommunity #nftcollector #cryptoart",125,0
1376496454966116354,"2021-03-29T11:28:23Z","Because CHUBBIE #0 is currently over 30ETH, we will giveaway CHUBBIES #5537 and #1963 (Both Shinies ~$1,500 each)   -to ONE person that retweets this tweet and follows!  Current bid: 69.69 ETH  CHUBBIE #0: https://t.co/NfK8fP1uZP https://t.co/DsIqf9abnz",613,0
1376496454064214017,"2021-03-29T11:28:23Z","#MXCExchange will list $TOWER and Launch the 43rd Session MX DeFi - Stake $USDT, $MX, $BTC, $ETH to Earn Yield $TOWER.  ▶️Follow @MXC_Exchange &amp; @TowerToken  ▶️Like, RT &amp; Tag 3 friends ▶️Comment  🏆10 ppl * 125 $TOWER  More info about the listing: https://t.co/VqsPboXOb5 https://t.co/6RZ4gmWYtY",998,0
1376496444761313286,"2021-03-29T11:28:21Z","RT @SecretBanker1: Visa will now accept #Ethereum  Where next for #ETH?",1,0
1376496444199247874,"2021-03-29T11:28:21Z","Ethereum Classic's design makes a calculated tradeoff between performance and security. In other words, ETC is inefficient, but highly secure.  In fact, much more secure than your devices or online services.  What Is Ethereum Classic? by @CryptoEtherplan https://t.co/sh7dozsDiw",131,0
1376496431595315209,"2021-03-29T11:28:18Z","RT @zetta_icarus: @binance Join the miners of #bsc defi ! https://t.co/PlHwGyJmZL  You can start mining ETH on #bsc today 👀",121,0
1376496419582926848,"2021-03-29T11:28:15Z","RT @ElCrypto8: $TOSA ready for liftoff, lots of news coming this week $TOSA $BTC $ETH $POODL $HOGE $GRUMPY https://t.co/cGJ3zBkOuj",18,0
1376496383646003201,"2021-03-29T11:28:06Z","RT @TylerDurden: So @Visa are using the ETH blockchain to settle payments.  Looking forward to paying $3 for coffee + $900 gas fee and wait…",9326,0
1376496382698217479,"2021-03-29T11:28:06Z","RT @NFTFusion: What’s your ETH address?  No questions, just drop it below 👇 #NFT #NFTs",1953,0
1376496378474606599,"2021-03-29T11:28:05Z","@Timccopeland @decryptmedia hmm something bigger, I'll text you when we flip all but btc and eth and set sail for world domination",1,0
1376496377258213380,"2021-03-29T11:28:05Z",".@AlchemixFi $ALCX is one of these mind-blowing projects only possible in DeFi. Self-repaying loans with no risk of liquidation. It also is my favorite yield farm right now. 👇",296,0
1376496375232348161,"2021-03-29T11:28:04Z","Save your ETH by paying gas in stablecoins with @biconomy Forward! Try testnet for https://t.co/sPBn3NLtJ0 now. 0x7273324D0b51002D98103fac6DA00CA3e4aB8BAe https://t.co/1YYj4rbGXA",0,0
1376496372912779267,"2021-03-29T11:28:04Z","RT @CryptoMaestro: BTC pumping on news that Visa using ETH for transaction settlement",869,0
1376496371734224897,"2021-03-29T11:28:03Z","RT @ElCrypto8: $TOSA ready for liftoff, lots of news coming this week $TOSA $BTC $ETH $POODL $HOGE $GRUMPY https://t.co/cGJ3zBkOuj",18,0
1376496370568339457,"2021-03-29T11:28:03Z","GET IN ON $PXP presale!!! Price automatically increases 50% in 3 days! Looking like the next $eRSDL/ $Aave #Crypto #cryptocurrency   Sign up here⬇️🚀🚀 https://t.co/J9V7TnKZwu  $LINK $BTC $ETH $QNT $DENT $eRSDL $ALBT $wCRES $LPL Pls use my referral code! $PXP will 100x !🚀🚀🚀",10,0
1376496366600421381,"2021-03-29T11:28:02Z","🏆 The days of pure speculation are over  🔷 If you build on $dag, the whole $dag ecosystem benefits from it  🏆Capital injection lifts all boates in the ecosystem  🔷 $eth has only fee utility  🏆 $dag is breakthrough tech  Only question remains: When @Grayscale ?  $ocean $noia https://t.co/qX3DYaS77R https://t.co/Yw3KOLuinj",30,0
1376496366315204609,"2021-03-29T11:28:02Z","$ETH network might be used for @Visa payment settlements under the brand name $USDC.  Hope they don't make such mistake like using PriVaTe bLoCkcHain",360,0
1376496354701291520,"2021-03-29T11:27:59Z","🚀 #NFT GIVEAWAY 🚀  PRIZE: ONE 3D BASTARD PUNK (0.5 ETH) + $150 ETH  HOW TO ENTER: 💎 LIKE AND RETWEET THIS POST 💎 FOLLOW  @3DBastardPunks 💎 TAG 3 CRYPTO FRIENDS  🏆 WINNER ANNOUNCED ON: APRIL 1ST  2021 🏆  JOIN OUR DISCORD ➡️ https://t.co/sxvENo2kFT https://t.co/uqXTkHnds7",399,0
