"ID","created_at","text","like_count","rt_count"
1375998567509204997,"2021-03-28T02:29:57Z","Only few hours left until the wall street bets pump!  Join the pump: https://t.co/E1coG8LUFM https://t.co/5SojxIcoVW  #Bitcoin #BTC #Crypto $Bitcoin #Bitcoin $ETH #ETH $Ethereum #Ethereum $BTC #BNB $BNB #Binance",0,0
1375998562648002560,"2021-03-28T02:29:56Z","To celebrate @3DPunks_ #100/100 Auction Current bid at 16 ETH ($27K USD)  I'm giving away 3D Punk #049  Which last sold for 6.97 ETH ($12K USD)  How: - Follow @evankeast + @3DPunks_  - Like + Retweet - Tag a friend - Join the discord: https://t.co/5paneepNDb - Say hi in discord https://t.co/SOy3l78yP1",1043,0
1375998545719930887,"2021-03-28T02:29:52Z","Opposites Attract. Tomorrow:  *sound on*  #19 The Desert 15/15 @ 0.7 ETH (6-7p EST window)  #20 The Mountain 1/1 24hr Auction ending 6p EST Monday (Buy-It-Now: 20 ETH) https://t.co/LFFwDyy9MS",160,0
1375998539617071105,"2021-03-28T02:29:51Z","Welcome to massive Q DAO airdrop!   1. go now to telegram https://t.co/COyXgODY1z   2. Stay in telegram chat and wait announcement.  3. HOLD this gem until 10x   (soon - QDAO launch cross-chain for BSC, Polkadot and ETH)",4254,0
1375998533799661577,"2021-03-28T02:29:49Z","RT @The_NFT_Hub: 🎁Drop your $ETH address below🎁",1165,0
1375998528737181696,"2021-03-28T02:29:48Z","@TheCryptoLark Stacs2.0 is already here... move on ada or eth. Eth2.0 is a mirage",1,0
1375998527818457091,"2021-03-28T02:29:48Z","#ICON ( $ICX) is a South Korean crypto. Many call it the “South Korean Ethereum”. They do the same thing as #ETH, but have a more ambitious goal. Their focus is connecting all the #blockchains in the world to form a network of #blockchains. Lets go $ICX to 30$ @helloiconworld https://t.co/9z4BVXVX9o",132,0
1375998520147070978,"2021-03-28T02:29:46Z","RT @DailyDogeUpdate: If $DOGE goes over 0.6$ this month I’ll give EVERYONE who retweets this $100! 🎁  #Dogecoin #LTC #ETH",139,0
1375998517823541250,"2021-03-28T02:29:46Z","To celebrate @3DPunks_ #100/100 Auction Current bid at 16 ETH ($27K USD)  I'm giving away 3D Punk #049  Which last sold for 6.97 ETH ($12K USD)  How: - Follow @evankeast + @3DPunks_  - Like + Retweet - Tag a friend - Join the discord: https://t.co/5paneepNDb - Say hi in discord https://t.co/SOy3l78yP1",1043,0
1375998517068632068,"2021-03-28T02:29:45Z","RT @crypto_birb: $BTC 90k $ETH 5k coming soon https://t.co/kKro6dgdJL",2404,0
1375998502937882624,"2021-03-28T02:29:42Z","Only few hours left until the wall street bets pump!  Join the pump: https://t.co/hmsB2bRgKA https://t.co/Q7WULsRmOF  #Bitcoin #BTC #Crypto $Bitcoin #Bitcoin $ETH #ETH $Ethereum #Ethereum $BTC #BNB $BNB #Binance",1,0
1375998496000466950,"2021-03-28T02:29:40Z","Hello, World! I’m thrilled to be able to share this Artwork with you for the first time.  Keep in touch 👀 @opensea https://t.co/ukT0Y7gFkD  #nft #nfts #nftart #nftarts #nftcollector #opensea #etherium #NFTCommunity https://t.co/0rnH9XEIYB",57,0
1375998495962898434,"2021-03-28T02:29:40Z","@swoop_4ART The first piece of my new ALPHABET collection @opensea  !  D is a 1/1 Edition Min bid 0.05 ETH 3 days left  👀  Link in bio https://t.co/uGaFfuwkTp",4,0
1375998462894825473,"2021-03-28T02:29:33Z","Only few hours left until the wall street bets pump!  Join the pump: https://t.co/hmsB2bRgKA https://t.co/Q7WULsRmOF  #Bitcoin #BTC #Crypto $Bitcoin #Bitcoin $ETH #ETH $Ethereum #Ethereum $BTC #BNB $BNB #Binance",1,1
1375998461829640193,"2021-03-28T02:29:32Z","🔄 Prices update in $USD (1 hour):  $BTC - 55799.6 $  (-0.43 %) $ETH - 1706.79 $  (-0.22 %) $DOT - 32.73 $    (-0.43 %) $ADA - 1.18 $     (+0.09 %)  #BTC #ETH #DOT #ADA #Crypto #Bitcoin",0,0
1375998461250789377,"2021-03-28T02:29:32Z","30 day EVIX: 87.5480 ETH/USD vwap: $1,707.23 04/16 expiry volume: $1,610,515.59 04/30 expiry volume: $7,392,743.63 Current time: 02:29:08",0,0
1375998449552924675,"2021-03-28T02:29:29Z","Launching MASK OFF, a rare and exclusive #NFTdrop from myself &amp; @joshCparsons available now on @withFND at a 0.4 $ETH reserve. 💯  Music by EXUMGOD!   ↳ https://t.co/kH35ZMeYlV  #Ethereum #NFTs @FeltZine https://t.co/0JNLWOD1Y6",207,0
1375998444578373633,"2021-03-28T02:29:28Z","@CryptoIRELAND1 Quality Tokens will move over from ETH to ADA as it transit. That’s just enough for good volume and traffic. Already prepared with Alonzo Hard fork combinator is happening on #Cardano, July 2021. Babel fee structure treats those tokens as first-class citizens with the lowest fee. https://t.co/CCq8jnvyZV",4,0
1375998437510930437,"2021-03-28T02:29:26Z","🥇 We are https://t.co/w9DE49pwCm 🚀  👨‍🌾 @GoldFarmIO is a cross-chain DeFi FaaS protocol designed to bring utility to any token by turning it into an NFT farm with no code required on both BSC and ETH blockchains.  🔥 Max Supply: 1000000 $GOLD  Learn:  https://t.co/4nxZBcfdJO https://t.co/C90UElVsdw",247,0
1375998435665575944,"2021-03-28T02:29:26Z","@AltcoinDailyio Shit this is like benjamin button, born old as fuck to die as a baby, $ETH, and $BTC are already getting outperformed by newer projects such as $AVAX due to its superior performance and efficiency.  The slow giants can't even compete with the Avalanche platform and consensus.👇 https://t.co/Z68WeBE4iU",13,0
1375998425049665539,"2021-03-28T02:29:24Z","@TheArcticAngel @One_Might_4_ALL @shyuhree did you know that NFTs account for 3% of etheriums power, etherium accounting for 0.2% of all global emissions? did you know that regardless of the buying and selling of NFTs, that power level remains the same?",0,0
1375998398235545607,"2021-03-28T02:29:17Z","Do you have money just sitting there in #stablecoins like #USDC or #BUSD? You could be early huge passive income by lending on FTX!   Register here and start earning now: https://t.co/SzgbT2Ypee  $BTC $ETH $BNB $CAKE $CRV $ADA $FTT $USDT $USDC  @coinkit_ mon 0.25 225 $TRX https://t.co/fO3EDM60eG",74,0
1375998392145387524,"2021-03-28T02:29:16Z","@MeanHash I'm with you, I have 3 bags of alt coins and none are on the ETH network.",0,0
1375998371576578048,"2021-03-28T02:29:11Z","What a great way to end the night, just got an offer of 0.3 ETH by @k2h4real for Livin’ on a Knife Edge!   #nft   https://t.co/51tyRo5Q8T",4,0
1375998371370967041,"2021-03-28T02:29:11Z","@DefizeProtocol Thank you for the opportunity❤️ great giveaway project❤️ i think it is one of the best project in the world, legend of the world  ETH address: 0xFb9bd2Ac0291E4d5eDb3eC1C64341Ffb3Ed9e6E6 Thank you so much ❤️",0,0
1375998355080310784,"2021-03-28T02:29:07Z","Only few hours left until the wall street bets pump!  Join the pump: https://t.co/NcETTBBaET https://t.co/qlANG9yRNY  #Bitcoin #BTC #Crypto $Bitcoin #Bitcoin $ETH #ETH $Ethereum #Ethereum $BTC #BNB $BNB #Binance",0,0
1375998354119884805,"2021-03-28T02:29:07Z","💧YetuBit Airdrop 2nd Round💧  🏆 Task:          ➕  25 YETU (~$20)  👨‍👩‍👧 Referral:   ➕  5 YETU (~$4)  🔛  Airdrop Link &amp; Information: https://t.co/ZoGw3AR71I  #cryptocurrency #Crypto #Bitcoin  #BSC #BinanceSmartChain #Ethereum #ETH #Airdrop #bounty #YetuBit #YetuSwap #YETU",4530,0
1375998352152748032,"2021-03-28T02:29:06Z","2 days, 2 incredible updates at @DEXToolsApp, with our version 1.9.1:  -Chart candles normalization.📈 -Pair explorer improvements (stable/eth, volume, chart display, etc).  🛠️ -New Backend Upgrade. 💻 -General fixes.  Now $DEXT is faster than ever. Are you ready for V2?   🔥🔥 https://t.co/IlnpXH9Hut",115,0
1375998351313887232,"2021-03-28T02:29:06Z","Win Degenasaur #042 #NFT worth ETH! --&gt; https://t.co/l37pUrR6Y3   1.) RT this tweet   2.) Follow @degenasaurus  3.) Comment + tag 3 friends  OPTIONAL extra chance to Win! -&gt; 4.) Join discord post username twitter comp: https://t.co/Ewmuzju2wL  4.) Win randomly Sat 3rd April! https://t.co/eyLZUL4bFz",306,0
1375998321647616001,"2021-03-28T02:28:59Z",".444 $ETH bid so far 🔥 https://t.co/6xX9aiTknZ https://t.co/ataTIxQQz8",3,0
1375998320066375689,"2021-03-28T02:28:58Z","RT @Gfilche: Yo @elonmusk why not add pay in Ethereum too? $ETH @WholeMarsBlog",441,0
1375998304006369288,"2021-03-28T02:28:55Z","Welcome to massive Q DAO airdrop!   1. go now to telegram https://t.co/COyXgODY1z   2. Stay in telegram chat and wait announcement.  3. HOLD this gem until 10x   (soon - QDAO launch cross-chain for BSC, Polkadot and ETH)",4254,0
1375998300361351168,"2021-03-28T02:28:54Z","@verge_tokens 0x2c8ae866484a63fa00646977dc283c3c5e6e5cdf  Does it matter if your coin can be held in the wallet?? Or just the eth address? https://t.co/TgE8YRPdPf",0,0
1375998292761341956,"2021-03-28T02:28:52Z","@ctdartproject Just released my second drop called Wonder for 0.04 ETH on rarible! It's apart of an 8 piece series I'm releasing :)) It's about finding spirituality in life, and paying homage to the world above. &gt;&gt; https://t.co/xlIqSq1M6c https://t.co/Dys6Wj9DgG",0,0
1375998291352158209,"2021-03-28T02:28:52Z","30 minutes left in auction - Current bid 0.1 $eth   Cheaper than our normal animated astro punks 🤯 This one is the best and most rare yet #100 🚀  Special Edition - Astro Punk #100 - Marz Apollo  https://t.co/lELfyxAbWN  #nft #nftcollectors #nfts #NFTcollectibles #nftdrop https://t.co/g5jVgSM2rt",6,0
1375998271173238784,"2021-03-28T02:28:47Z","ETH2x-FLI grants exposure to leveraged $ETH without the stress of managing a CDP.  Apparently, that solution is growing in popularity. https://t.co/u0Otpi9qaV",28,1
1375998270649069572,"2021-03-28T02:28:47Z","Giveaway Time!! We're giving away CryptoFreak #201, a Rocking Rockstar worth .2 ETH ($400), to enter:  - Follow @digirocksnft  - Retweet this post - Tag 2 friends  Winner will be chosen at 9PM EST on Sunday (03/28) #NFT #Giveaway #Cryptoart #cryptofreaks #digirocks https://t.co/68WpYRcql7",221,1
1375998270242091008,"2021-03-28T02:28:47Z","Most crypto teams lost bearing during market downturns, can't find $dcr after the 2017 downturn. I can sell all...expect $eth $btc, should own some $bnb as well https://t.co/myxxN7kANH",0,0
1375998262969270272,"2021-03-28T02:28:45Z","@crypt0natrix Runs to see if mine sold for 6.9 ETH (ups price)",3,0
1375998244614983680,"2021-03-28T02:28:40Z","To celebrate @3DPunks_ #100/100 Auction Current bid at 16 ETH ($27K USD)  I'm giving away 3D Punk #049  Which last sold for 6.97 ETH ($12K USD)  How: - Follow @evankeast + @3DPunks_  - Like + Retweet - Tag a friend - Join the discord: https://t.co/5paneepNDb - Say hi in discord https://t.co/SOy3l78yP1",1043,0
1375998235890704389,"2021-03-28T02:28:38Z","Welcome to massive Q DAO airdrop!   1. go now to telegram https://t.co/COyXgODY1z   2. Stay in telegram chat and wait announcement.  3. HOLD this gem until 10x   (soon - QDAO launch cross-chain for BSC, Polkadot and ETH)",4254,0
1375998226646458371,"2021-03-28T02:28:36Z","Tired of your exchange going down?  Trade #Crypto &amp; stocks anywhere in the world on FTX The easiest deposit methods available &amp; near instant KYC!  Trade here with a 5% lifetime fee discount: https://t.co/SzgbT2Ypee  $BTC $ETH $BNB $CAKE $CRV $ADA $FTT  @coinkit_ mon 0.2 200 $TRX",55,0
1375998209487605761,"2021-03-28T02:28:32Z","Do you have money just sitting there in #stablecoins like #USDC or #BUSD? You could be early huge passive income by lending on FTX!   Register here and start earning now: https://t.co/SzgbT2Ypee  $BTC $ETH $BNB $CAKE $CRV $ADA $FTT $USDT $USDC  @coinkit_ mon 0.25 225 $TRX https://t.co/fO3EDM60eG",74,0
1375998205658165248,"2021-03-28T02:28:31Z","🥇 We are https://t.co/w9DE49pwCm 🚀  👨‍🌾 @GoldFarmIO is a cross-chain DeFi FaaS protocol designed to bring utility to any token by turning it into an NFT farm with no code required on both BSC and ETH blockchains.  🔥 Max Supply: 1000000 $GOLD  Learn:  https://t.co/4nxZBcfdJO https://t.co/C90UElVsdw",247,0
1375998191124934659,"2021-03-28T02:28:28Z","Let's compare the $eGLD network's power consumption to that of Btc and eth (lower levels).  It's plain to see which one is the least wasteful!  Which would Mother 🌎 choose? https://t.co/3VRiH7Dwjz",253,0
1375998181033476097,"2021-03-28T02:28:25Z","Only few hours left until the wall street bets pump!  Join the pump: https://t.co/I8k5RRzOaD https://t.co/9eSa3q22tb  #Bitcoin #BTC #Crypto $Bitcoin #Bitcoin $ETH #ETH $Ethereum #Ethereum $BTC #BNB $BNB #Binance",0,0
1375998173357862914,"2021-03-28T02:28:23Z","Do you have money just sitting there in #stablecoins like #USDC or #BUSD? You could be early huge passive income by lending on FTX!   Register here and start earning now: https://t.co/SzgbT2Ypee  $BTC $ETH $BNB $CAKE $CRV $ADA $FTT $USDT $USDC  @coinkit_ mon 0.25 225 $TRX https://t.co/fO3EDM60eG",74,0
1375998173110484994,"2021-03-28T02:28:23Z","He's a boy!  Excited to announce that my wife gave birth to an healthy baby boy yesterday!  As my first gift to him, I just got him an ETH wallet &amp; @ensdomains to unveil his name and to set him on a path in the blockchain space   oreoluwa.eth is live!",168,16
1375998142638825473,"2021-03-28T02:28:16Z","They have no idea... $HTR  #eth #Ethereum $eth $btc #Bitcoin #crypto #defi $ada $avax  #Blockchain",6,0
1375998138541019138,"2021-03-28T02:28:15Z","Here is the list of pairs that will be available tomorrow:  $ETH-wBTC $UNI-ETH $ETH-USDC $ERN-ETH $LINK-ETH $1INCH-ETH $MATIC-ETH $AAVE-ETH $MKR-ETH $DEXM-ETH https://t.co/PxEATNRvnN",84,0
1375998123806445569,"2021-03-28T02:28:12Z","Good bye old friends, $BTC $ETH $REN $WAN $LINK $AAVE $ALGO $UTK https://t.co/vvPzDL2LUo",1,0
1375998106819514370,"2021-03-28T02:28:08Z","Okay, #NFT makers! Show me your BEST work, I will RT my favorites. 🤝🤝🤝  Retweet to spread the message!    #NFTs #ETH #cryptoart #nftart #nftcollector #NFTcollection #nftbastards #NFTCommunity",173,0
1375998104298778624,"2021-03-28T02:28:07Z","$10 - Shiny Reshiram GX (Hidden Fates) Also accept BIT or ETH as payment. Price includes shipping.  #pokemon #BIT #ETH  Take: https://t.co/K458vQITpa  @HobbyConnector https://t.co/oqp6VSXwYh",0,1
1375998095608045571,"2021-03-28T02:28:05Z","Only few hours left until the « today we push » Binance +1000% Push!  Join the push: https://t.co/hlbWl8G6OZ https://t.co/dOzUkZizHa  #Bitcoin #BTC #Crypto $Bitcoin #Bitcoin $ETH #ETH $Ethereum #Ethereum $BTC #BNB $BNB #Binance",0,0
1375998079736893440,"2021-03-28T02:28:01Z","#Bluesky Buzz - Bluesky's recent acquisition of GPU #mining assets comes came at a perfect time, allowing them diversify our focus to #Ethereum (ETH). Overall, the company has been seeing positive results with a primary focus on #Bitcoin.",18,0
1375998075878002688,"2021-03-28T02:28:00Z","Our esteemed ‘Crypto heroes’! Created by selecting 11 people from ‘Persona Exchange’ to commemorate the historic moment of bitcoin's best price break! Let's go higher! 🚀🚀🚀 https://t.co/aVed6FgQJd $BTC $DOGE $BNB $DOT $TRX $ETH $LTC $BCH https://t.co/uI0UtfNErC",45,0
1375998056307380225,"2021-03-28T02:27:56Z","@dope_stock I just released this one for 0.04 ETH on rarible, I think it would look nice on a hypothetical wall lmao https://t.co/xlIqSq1M6c https://t.co/bk9B0esRxE",1,0
1375998035851890692,"2021-03-28T02:27:51Z","@Rare_NFTs Just spent that gas monies , made my first #eth name , cash me out 🤑 https://t.co/PXrGEPbSIF?",0,0
1375998033683345410,"2021-03-28T02:27:50Z","I was as bout to tweet the same thing. #IOTA will be ETH's best friend soon. ETH smart contracts running in parallel on the Tangle. Fast, secure and feeless unless smart contracts impose a fee. https://t.co/jQbSrFZzkt",85,9
1375997992163889155,"2021-03-28T02:27:40Z","Happy Sunday Everyone!!🙌  I have deposited 5.5 ETH to buy some #NFTs tonight.   1. Follow me 2. Like and retweet 3. Drop your NFTs in the comments, I'll buy your art! #NFTs #nft #nftcollector #nftart #cryptoart #nftcollectors #NFTcollectibles #NFTartist",214,9
1375997974765953032,"2021-03-28T02:27:36Z","RT @The_NFT_Hub: 🎁Drop your $ETH address below🎁",1165,9
1375997971989291014,"2021-03-28T02:27:35Z","The DEX @FinanceChainge is set to launch on the @FUSIONProtocol network with over a million users on the protocols waitlist. This decentralized exchange aims to innovate on traditional models through leveraging the Fusion Network.  #BSC #BTC #ETH #BNB  https://t.co/xx55YiGfm3",21659,9
1375997967853883399,"2021-03-28T02:27:34Z","RT @da13thsun: My Mindset is Always a Chosen Few will make eth through to Th End 13Love https://t.co/08OtQgzviU",56,9
1375997954784432129,"2021-03-28T02:27:31Z","1/ A friend was asking me for altcoin recommendations. I suggested @thorchain_org $RUNE, which is one of my largest holdings outside of BTC. Here's why 👇",269,9
1375997949096816640,"2021-03-28T02:27:30Z","Yooo !! $DYP trading is now live on #KuCoin!🚀  ☆ DYP/USDT: https://t.co/3R7KC2Vfy6 ◇ DYP/ETH: https://t.co/AkCQ30DqAq  You can find out more about @dypfinance in #KuCoinCryptoGem card  Join @dypfinance telegram growing community for latest updates  https://t.co/B5yzhwGqg8 https://t.co/vuTbQ7D1gn",220,9
1375997941215752198,"2021-03-28T02:27:28Z","@RZ39210954 @TheCryptoLark ETH 2.0 needs to solve scalability issue.",1,0
1375997938569207810,"2021-03-28T02:27:28Z","It’s official I hate $eth, you were suppose to do something. https://t.co/ZsXEriVB7t",2,0
1375997878972350465,"2021-03-28T02:27:13Z","Do you have money just sitting there in #stablecoins like #USDC or #BUSD? You could be early huge passive income by lending on FTX!   Register here and start earning now: https://t.co/SzgbT2Ypee  $BTC $ETH $BNB $CAKE $CRV $ADA $FTT $USDT $USDC  @coinkit_ mon 0.25 225 $TRX https://t.co/fO3EDM60eG",74,0
1375997877416169473,"2021-03-28T02:27:13Z","@SunnyPahoujaDDS I do the same with #btc #dot and #eth.",1,0
1375997864124514304,"2021-03-28T02:27:10Z","@rickytheirish With 1k USDT I'd be able to live my dream and open up a restaurant on the blockchain. Not just any restaurant, but one that is delivers on every chain, ETH, BSC, and even TRON! My dreams of feeding hungry farmers, miners, and traders of all kinds will finally come true.",0,0
1375997857845583876,"2021-03-28T02:27:08Z","Welcome to massive Q DAO airdrop!   1. go now to telegram https://t.co/COyXgODY1z   2. Stay in telegram chat and wait announcement.  3. HOLD this gem until 10x   (soon - QDAO launch cross-chain for BSC, Polkadot and ETH)",4254,0
1375997851013050369,"2021-03-28T02:27:07Z","Event rules:  🔹Once you buy our ETH, LTC wealth management product(regardless of amount), you will receive 300 ONE in your account❗️ 🔹Trader who invest the largest amount in  ETH, LTC wealth management products (greater than 0.2 ETH, 2LTC) will get 2000 ONE to their account ‼️ https://t.co/x0sd2Ath1v",11,0
1375997849603776516,"2021-03-28T02:27:06Z","🚨 #NFT giveaway alert! We’re giving away our first 3 tokens to 3 lucky people! Our NFTs are #phygital meaning theyre attached to their physical counterpart 👀  To enter: Tag a friend and retweet Follow  #crypto #bitcoin #eth $uni #opensea #hash #art #defi $ern $meme $eth $dao https://t.co/eyJwU98d6K",21,0
1375997848827752451,"2021-03-28T02:27:06Z","RT @davidgokhshtein: I send you 1 $ETH - what are you buying this weekend on the market?  Comment below.",1058,0
1375997841454301185,"2021-03-28T02:27:04Z","@swoop_4ART What could be better than the beautiful streets and people of Havana? Or handpainted digital watercolors? And getting a piece that will obviously become 20 bazillion ETH in a few weeks. Get em now! If not check out my RT for other artists. https://t.co/tlKcNQvBej",1,0
1375997836546965504,"2021-03-28T02:27:03Z","The DEX @FinanceChainge is set to launch on the @FUSIONProtocol network with over a million users on the protocols waitlist. This decentralized exchange aims to innovate on traditional models through leveraging the Fusion Network.  #BSC #BTC #ETH #BNB  https://t.co/xx55YiGfm3",21659,0
1375997830549041154,"2021-03-28T02:27:02Z","@johnmorganFL Quality Tokens will move over from ETH to ADA as it transit. That’s just enough for good volume and traffic. Already prepared with Alonzo Hard fork combinator is happening on #Cardano, July 2021. Babel fee structure treats those tokens as first-class citizens with the lowest fee. https://t.co/vB09031JzC",1,0
1375997821095194630,"2021-03-28T02:27:00Z","Only few hours left until the wall street bets pump!  Join the pump: https://t.co/hcZ5mNOCfr https://t.co/EaGrb1tAiM  #Bitcoin #BTC #Crypto $Bitcoin #Bitcoin $ETH #ETH $Ethereum #Ethereum $BTC #BNB $BNB #Binance",0,0
1375997815453855745,"2021-03-28T02:26:58Z","Me and Eth just bought DS’s for nostalgia, way too excited",3,0
1375997798454190081,"2021-03-28T02:26:54Z","The DEX @FinanceChainge is set to launch on the @FUSIONProtocol network with over a million users on the protocols waitlist. This decentralized exchange aims to innovate on traditional models through leveraging the Fusion Network.  #BSC #BTC #ETH #BNB  https://t.co/xx55YiGfm3",21659,0
1375997798097780736,"2021-03-28T02:26:54Z","@swoop_4ART The first piece of my new ALPHABET collection @opensea  !  D is a 1/1 Edition Min bid 0.05 ETH 3 days left  👀  Link in bio https://t.co/uGaFfuwkTp",4,0
1375997795446837248,"2021-03-28T02:26:53Z","@TryPlotX Here is mine $CATE of https://t.co/TGjAfnOuoj already listed in @Uniswap @CoinMarketCap @coingecko   💥100,000 #CATE  will be rewarded monthly to those that provide liquidity to the $CATE-$ETH Uniswap pool.  Join 🔥 https://t.co/5TJ7rg4pPw  $CATE $ETH #DeFi #BLOCKCHAIN",1,0
1375997770381729794,"2021-03-28T02:26:47Z","Less than 2 weeks left to enter!  Without a doubt, winners will be impressed 🤖🧐  #nft $bles $ern $eth $uni #opensea $rari $nfy https://t.co/cvW3e0OptW",3,0
1375997770214039554,"2021-03-28T02:26:47Z","Dreams2Reality was created for 100 $MANA ($95.66 USD = 0.0559 $ETH) by https://t.co/NbC95urDnD https://t.co/vcDJZyMiRd #decentraland #names #avatar https://t.co/H598dWDpB1",6,2
1375997754313433098,"2021-03-28T02:26:44Z","My portfolio is $BTC, $ETH, and $ALGO.   This power tetrahedron makes money while I sleep. 😏",3,0
1375997747636015106,"2021-03-28T02:26:42Z","Win #NFT worth ETH!  To WIN #Giveaway You MUST:    1.) Follow @degenasaurus   2.) Retweet the tweet BELOW ⬇️ + comment it  3.) OPTION -&gt; Join discord: https://t.co/alAVVDlyQu  NFT: https://t.co/l37pUrR6Y3  Wish luck!! 🦖♥️🛸👫  @coinkit_ mon 45 2000 BTC  https://t.co/wFeOut8N85",310,0
1375997745933193216,"2021-03-28T02:26:42Z","Only few hours left until the wall street bets pump!  Join the pump: https://t.co/UyvMzPL5TJ https://t.co/JXJm6hA6s0  #Bitcoin #BTC #Crypto $Bitcoin #Bitcoin $ETH #ETH $Ethereum #Ethereum $BTC #BNB $BNB #Binance",0,0
1375997742984609794,"2021-03-28T02:26:41Z","The 3rd $DRC Digital Reserve Vault has been chosen by the community!  The 3rd Vault will contain the following allocations:  $FARM 35%  $MPH 35% $ETH 30%.  The vault will be worked on and released promptly.",131,0
1375997742552506371,"2021-03-28T02:26:41Z","No need to spend your own money to trade #cryptocurrency. Over 10K users won crypto rewards on @latokens last week. It's the best way to join the financial revolution. Start by earning a share of $100K in CLIQ airdrop: https://t.co/dET5N0DAYo #Bitcoin #ETH #Citi #AON #LATOKEN",0,0
1375997734444957697,"2021-03-28T02:26:39Z","🥇 We are https://t.co/w9DE49pwCm 🚀  👨‍🌾 @GoldFarmIO is a cross-chain DeFi FaaS protocol designed to bring utility to any token by turning it into an NFT farm with no code required on both BSC and ETH blockchains.  🔥 Max Supply: 1000000 $GOLD  Learn:  https://t.co/4nxZBcfdJO https://t.co/C90UElVsdw",247,0
1375997723594395649,"2021-03-28T02:26:36Z","DROPPED PRICE ☔️  Lowered my reserve to .6 ETH! Anyone wanna believe in this sad boy? 💔   https://t.co/3uAyVSi2E4   #NFT #nftcollector #nftart #cryptoartist #Crypto #NFTcollectibles #Ethereum https://t.co/LydcqFB8Wt",35,0
1375997720721297414,"2021-03-28T02:26:36Z","Check out my BULLISH STOCK movie on THETA TV https://t.co/egPIJ4T5Mz   #theta #thetacoin #thetatoken #tfuel #youtubeshorts  🚀 #Crypto #Bitcoin #XRP #DOGE #ETH #BNB #BTT #cryptocurrencies  #criptomonedas #Binance #XLM #Uniswap #MIOTA #dogecoin #thetatoken #cryptotrading",1,0
1375997717944676355,"2021-03-28T02:26:35Z","Amazing! Thank you @DRCToken team! We have been longtime friends with the @88mphapp $MPH project, so swimming in the same pool with them and $ETH is the perfect combo.  Special thanks to one of our CMs JB87 who helped collaborate with the $DRC community  https://t.co/LvZW05xQVC",99,0
1375997715214139393,"2021-03-28T02:26:34Z","$ETH  If the daily candle closes above 2k, it will easily cross 2500$ mark. Keep an eye on it.  Checkout the link in bio for crypto signals  #CRYPTO #chainlink #huobi #bitcoin #kucoin #bitfinex 99114 https://t.co/tHPDJQnup0",0,0
1375997706603130882,"2021-03-28T02:26:32Z","RT @highrewardcoin: ETHEREUM NOT SCALING…. Ethereum News Today That ETH Holders Must Know! https://t.co/tWwtAOKHSz",0,0
1375997706275938307,"2021-03-28T02:26:32Z","RT @highrewardcoin: ETHEREUM NOT SCALING…. Ethereum News Today That ETH Holders Must Know! https://t.co/tWwtAOKHSz",0,0
1375997702639558656,"2021-03-28T02:26:31Z","YOU DONT WAIT TO BUY #BITCOIN AND #ETHEREUM YOU BUY #BTC AND #ETH THEN WAIT. ⏰⏱️🕰️⏲️⏳  Did you BUY THE DIP today? Full speed ahead. 🚀 #BULLISH #BUYTHEDIP   @coinkit_ mon 10 575 BTC https://t.co/uyMyR0TR0a",142,0
1375997687649173506,"2021-03-28T02:26:28Z","Do you have money just sitting there in #stablecoins like #USDC or #BUSD? You could be early huge passive income by lending on FTX!   Register here and start earning now: https://t.co/SzgbT2Ypee  $BTC $ETH $BNB $CAKE $CRV $ADA $FTT $USDT $USDC  @coinkit_ mon 0.25 225 $TRX https://t.co/fO3EDM60eG",74,0
1375997685782749186,"2021-03-28T02:26:27Z","🌹🖤Contest🖤🌹 Taking #opensource #digitalphotography to a new level with @WidmerLuiz  5 people in the #nft #cryptoart community can win 0.006 #ethereum  🖤Scan image to enter the #Discord 🌹 And post your $eth address in the #contest channel for a chance to win. https://t.co/2YcvqHqsu9",34,0
1375997672079904771,"2021-03-28T02:26:24Z","RT @The_NFT_Hub: 🎁Drop your $ETH address below🎁",1165,0
