"ID","created_at","text","like_count","rt_count"
1374722662547722242,"2021-03-24T13:59:58Z","@Wizebaba Earn money for mahala by clicking on the link...no joining fees or no making of payments ever!!!  Let's make money guys; My ETH value grew from R62k to over R90k in just a few days, the easiest few thousand rands you'll ever make 💰 💰 💰💰 💰 💰  https://t.co/R3eHDhlbnP",0,0
1374722662178586632,"2021-03-24T13:59:58Z","1 gif to describe trading crypto 👇 $eth https://t.co/SgdadehhdR https://t.co/cZaYJCheq6",47,11
1374722661041852418,"2021-03-24T13:59:58Z","The good thing about @dypfinance Anti-Manipulation system is that it prevents the Liquidity providers to Sell $DYP instead they are earning $ETH as staking rewards 🧠  #DYP #ETH #Ethereum #SmartContract #DeFi https://t.co/yt6C9Vehln",1895,1969
1374722659053895689,"2021-03-24T13:59:57Z","6th #GIVEAWAY : Tester Opportunity &amp; #NFT  Looking for another 50 Testers using  #Uniswap #Sushiswap #Pancakeswap #Autofarm #Venus  to join new DeFi product testing &amp; get NFT!   1. RT &amp; Follow  2. Comment your BSC address 3. Join https://t.co/pap2QqUzA8  #Defi #BSC #ETH #Airdrop https://t.co/FPEMjr9YZk",190,195
1374722654779891715,"2021-03-24T13:59:56Z","I'https://t.co/9lv9qhcUo5 away a million. Drop you wallet address below. Like, Follow, retweet.  Chainlink #Chainlink $Link #bitcoin btc #btc #eth $eth $eth #usdt $usdt #ada $ada #cardano #bnb $bnb #crypto #blockchain",634,438
1374722653257297921,"2021-03-24T13:59:56Z","WARNING🚨   MASSIVE airdrop 🔥   $QDAO is a true💎since 2019, by famous team, just 10 MILLION CAP  1. Go now to Twitter @QDefi  or telegram https://t.co/x0vuSIVfV9   2. Get your free tokens  3. HODL this gem until 10x-20x  (soon - launch cross-chain tool for BSC, DOT and ETH) https://t.co/S3sdpsYnUu",1010,1142
1374722648761106439,"2021-03-24T13:59:55Z","$ETH is a better stablecoin than $USDT right now.",9,0
1374722646647005188,"2021-03-24T13:59:54Z","RT @volmexfinance: What’s your ETH address?  Don’t ask why, just drop it below 👇",4854,1656
1374722646009475072,"2021-03-24T13:59:54Z","RT @volmexfinance: What’s your ETH address?  Don’t ask why, just drop it below 👇",4854,1656
1374722645506224130,"2021-03-24T13:59:54Z","I'll send $500 in #ETH or #BTC to one person who retweets this and follows @bud_crypto. Must complete these tasks:  1 - Like/RT his pinned tweet  2 - Must RETWEET &amp; LIKE 4 of his tweets  Ends in 72 hours!",1402,1861
1374722641664245762,"2021-03-24T13:59:53Z","Since this the launch of @dypfinance back in Dec 2020 looks like Liquidity Providers have earned $11.4 Million dollars in $ETH just from Staking!  Also the project is paying out is $ETH as well and so far 6.2K $ETH have been rewarded.   #DeFi #Crypto #Cryptocurrency #BitcoinTalk https://t.co/zis10XPcL7",1784,1888
1374722638719901699,"2021-03-24T13:59:52Z","RT @EIonMuskerino: Stop trying to make Etherium happen, it's not gonna happen.",1192,103
1374722636543053831,"2021-03-24T13:59:52Z","RT @johnchamp03: @SimonYuSEA The eth cost of staking stormx is quite expensive. Hope you guys move over to cardano when their eth converter…",13,1
1374722635808919552,"2021-03-24T13:59:52Z","The fact that the @dypfinance  Smart Contract can automatically sell $DYP in exchange for $ETH and $BNB for Liquidity providers is amazing and what's really more amazing is the Gas Fees on the BSC Network. 🚀  #DeFi #SmartContract #DYP #BSC #BinanceSmartChain https://t.co/B7tdHv5qXT",1094,1108
1374722635175755779,"2021-03-24T13:59:51Z","People ask me, what token gives you the most stable #passiveincome? Blue chip defi? Eth?   Nope, it's #Pepemon  100%+ APR since release all while breaking new ATH after new ATH  🚀Stake your $PPBLZ 🚀Generate 19 x $PPDEX per year per $PPBLZ staked 🚀LP or single asset  ??? PROFIT https://t.co/ejNxBwTHh7",17,4
1374722631828713473,"2021-03-24T13:59:51Z","RT @BitAliens: What's your ETH address?  Don't ask why, just drop it below and RT 😉👽  https://t.co/htrPiAQfY2",144,143
1374722630528471048,"2021-03-24T13:59:50Z","We're excited to launch one of our most anticipated features on mainnet: Infura Transactions!   Our on-chain flow now lets you pay your ITX fees using $ETH, no credit card needed.  Here's how to get started: https://t.co/2nkUmzuaSd",369,57
1374722628779270147,"2021-03-24T13:59:50Z","RT @CashNCrypto: $150 to one person in 48hrs  Rt &amp; follow me + @domscrypto &amp; @boar_eth",2050,4122
1374722623771271173,"2021-03-24T13:59:49Z","$DYP liquidity providers earned 6,401.87 #Ethereum worth $10,769,945 since launch!  Earn up to 303.11% APY 💰  If you want to start earning #ETH you just need to join one of our liquidity pools: DYP-ETH, DYP-WBTC, DYP-USDC, and DYP-USDT https://t.co/zxyI0V2tnr  #DeFi #uniswap https://t.co/G1k8VLAekB",430,380
1374722615080845316,"2021-03-24T13:59:47Z","Punk 4564 bought for 21.5 ETH ($37,226.39 USD) by 0x603e3f from 0xabf107. https://t.co/eNDTKboZ7v #cryptopunks #ethereum https://t.co/aneua6feqU",6,1
1374722614543982607,"2021-03-24T13:59:47Z","web: https://t.co/MU8XrOtfWW  buy: https://t.co/AOZ5EP7Tfh  $btc $eth $doge $bnb $swap $pols $cake $sushi $enj $crv $oly $uni $xrp $ltc $spi $umx $dot $ada $YFI $BAO $nfy $ern $1inch $chz $trx $bondly $uncx $reef $ocean $paint $mph $om https://t.co/bMLJh7ssrn",1,0
1374722613298167812,"2021-03-24T13:59:46Z","WARNING🚨   MASSIVE airdrop 🔥   $QDAO is a true💎since 2019, by famous team, just 10 MILLION CAP  1. Go now to Twitter @QDefi  or telegram https://t.co/x0vuSIVfV9   2. Get your free tokens  3. HODL this gem until 10x-20x  (soon - launch cross-chain tool for BSC, DOT and ETH) https://t.co/S3sdpsYnUu",1010,1142
1374722611133911040,"2021-03-24T13:59:46Z","#Sponsored  😍The #DeFi Yield Protocol is developing a unique platform: Anyone can provide #liquidity &amp; be rewarded for the first time with #Ethereum  🤑6,366.95 #ETH worth $10,869,776.32 paid to the #liquidityproviders since launch  Check https://t.co/ftVaR00xr3 for details!! https://t.co/BvE29pWtpX",487,388
1374722605853327363,"2021-03-24T13:59:45Z","🌋#ATD #Giveaway is on now! @a2dao_ 🌋  10 lucky users will receive $30 each in #ATD ✨  1️⃣Login &amp; Participate ☀️ https://t.co/wrbe0JlJuK   2️⃣Retweet and @ a friend  #DeFi #crypto #ALTSEASON #ETH #NFT https://t.co/oq0O5RbPbj",295,703
1374722604221669380,"2021-03-24T13:59:44Z","RT @sof1azara03: $60 or 840rb Giveaway ✨  Rt and follow @domscrypto + @boar_eth + me  End : 48 hours.✨",1030,2331
1374722600149000193,"2021-03-24T13:59:43Z","🔥 We are thrilled to announce $DYP listing on @kucoincom !  🔷 DYP/USDT &amp; DYP/ETH trading will start tomorrow, March 25th at 10AM UTC!  🔸 Stay tuned: More News and Activities TBA!  ✅ More News at: https://t.co/7xB73Xen1N https://t.co/uQ3Q5sPpq3",564,461
1374722599150833664,"2021-03-24T13:59:43Z","💧Roku Network Airdrop 💧  🏆 Task:          ➕  15 ROK (~$5)  👨‍👩‍👧 Referral:   ➕  3 ROK (~$1)  🔛  Airdrop Link &amp; Information: https://t.co/YhvsOcfEbH  #cryptocurrency #Crypto #Bitcoin  #BSC #BinanceSmartChain #Ethereum #ETH #Airdrop #bounty #ROK #RokuCoin #RokuNetwork",3593,4682
1374722598748131329,"2021-03-24T13:59:43Z","RT @DailyDogeUpdate: 🚀 $1000 to anyone who Like, Follow and Retweet 🚀  #Dogecoin #LTC $ETH",1838,1206
1374722594633515012,"2021-03-24T13:59:42Z","🔥 WoW!!! $DYP getting listed on @kucoincom !  DYP/USDT &amp; DYP/ETH trading will start tomorrow, March 25th at 10AM UTC! Good job @dypfinance team!  #DeFi #uniswap #Ethereum https://t.co/Rw9qa5l5tA",2211,2334
1374722594625224705,"2021-03-24T13:59:42Z","🔥We have started random global airdrop of 100,000 NFTs to single wallet ETH address 🚀 USDT-NFTs is listed on Uniswap  🚀 The contract address: 0x6599fc3e77cbfa6f6e9cac605a30b1e78827eba0  💰 Holding more NFTs makes you richer  🚀Like、Retweet &amp; Tag 3 friends  #NFTs #NFT #AIRDROP https://t.co/CMUC0Q0TXd",848,741
1374722593274597380,"2021-03-24T13:59:42Z","@ponymasta @PhantasmaChain @ghostmarketio Yes, the teams core wallet is called the Poltergeist wallet.. Its AWESOME! Most complex wallet ive ever used, but easy to use.. Has interoperability between blockchains within the wallet.. NEO, ETH, and SOUL.. Stake your Soul and earn $KCAL which is also exploding in price.",2,1
1374722585267687425,"2021-03-24T13:59:40Z","📌 The TokenKennel #Giveaway | Rules 📌 =   - Step 1: Like &amp; Retweet + tag 3-5 People! - Step 2: Follow @KennelToken &amp; @__Bullish__ - Step 3: Join https://t.co/1wcwTits9h - Step 4: Send Proof!   Prize = 100$ in #BTC or #ETH  06/04, we will announce the winner! 🎁",1814,2129
1374722580255363072,"2021-03-24T13:59:38Z","🔥 WoW!!! $DYP getting listed on @kucoincom !  DYP/USDT &amp; DYP/ETH trading will start tomorrow, March 25th at 10AM UTC! Good job @dypfinance team!  #DeFi #uniswap #Ethereum https://t.co/Rw9qa5l5tA",2211,2334
1374722576451305475,"2021-03-24T13:59:37Z","New textbook on designing safer and more sustainable chemicals https://t.co/NIT04sGD6h #LCA #riskassessment #chemicals #safety @ETH_en",5,1
1374722575729889283,"2021-03-24T13:59:37Z","$VIDT surpassed 100k documents in March and still 7 days to go.  At this time the next token burn of 20% used vidt will be about 58500 VIDT on april 1st and a buyback of 10%( 29500 vidt)  @VIDT_Datalink has strong and deflationafy Tokenomics   $btc #nft $eth $chz $thetha $bnb https://t.co/HH8vYXqxhq",32,13
1374722571271294976,"2021-03-24T13:59:36Z","RT @ShardiB2: $ETH  S/R test... need this to hold https://t.co/YYzni0YtL1",68,2
1374722569564270593,"2021-03-24T13:59:36Z","Why do I buy $VVT?  🔸Real World Business 🔸Enormous Market Potential 🔸Unique Selling Proposition 🔸Patent Pending AI 🔸Sustainable Income Model 🔸Strong and Experienced Team 🔸Strong Partners like @IndonesiaGaruda 🔸Low Mcap of $5M  #crypto #altcoin #Ethereum $ETH $FRM $MRPH",30,10
1374722564061155338,"2021-03-24T13:59:35Z","The DEX @FinanceChainge is set to launch on the @FUSIONProtocol network with over a million users on the protocols waitlist. This decentralized exchange aims to innovate on traditional models through leveraging the Fusion Network.  #BSC #BTC #ETH #BNB  https://t.co/xx55YiGfm3",21105,13409
1374722562589069312,"2021-03-24T13:59:34Z","RT @dixon_eth: Check actual gas prices here Thank me later 🚀 RT this for the #nft family https://t.co/WjDabWjsJf https://t.co/AVpr9rVfhV",278,83
1374722559850074119,"2021-03-24T13:59:34Z","#cryptocurrencies #CryptocurrencyNews #CryptoNews #Cryptocurrency #RETWEET #Bitcoin #Binance #btc #ThetaNetwork #Ethereum #Coinbase #trending #ada #xrp #doge #link $hot $btc $eth #eth $ada #dot #DotCoin #vid $vid",0,0
1374722556834451465,"2021-03-24T13:59:33Z","💧Roku Network Airdrop 💧  🏆 Task:          ➕  15 ROK (~$5)  👨‍👩‍👧 Referral:   ➕  3 ROK (~$1)  🔛  Airdrop Link &amp; Information: https://t.co/YhvsOcfEbH  #cryptocurrency #Crypto #Bitcoin  #BSC #BinanceSmartChain #Ethereum #ETH #Airdrop #bounty #ROK #RokuCoin #RokuNetwork",3593,4682
1374722547707678723,"2021-03-24T13:59:31Z","Good morning #NFTcommunity! Our #BitBikers are ready to hit the #NFT Highway this morning looking for adventure with a new #NFTfam! Most all series 1 are available for .1 ETH or under today! Like/RT this today for a chance to be gifted a BitBiker tomorrow! https://t.co/5XS57vrhLe https://t.co/8fqZv7DPCc",8,5
1374722547690860560,"2021-03-24T13:59:31Z","I'll send $500 in #ETH or #BTC to one person who retweets this and follows @bud_crypto. Must complete these tasks:  1 - Like/RT his pinned tweet  2 - Must RETWEET &amp; LIKE 4 of his tweets  Ends in 72 hours!",1402,1861
1374722547208519682,"2021-03-24T13:59:31Z","I'll send $500 in #ETH or #BTC to one person who retweets this and follows @bud_crypto. Must complete these tasks:  1 - Like/RT his pinned tweet  2 - Must RETWEET &amp; LIKE 4 of his tweets  Ends in 72 hours!",1402,1861
1374722545455226891,"2021-03-24T13:59:30Z","🚀 Safe The Children  🔷 Token Symbol : STC  🔷 Contract: https://t.co/nk3qsF2PJV  🔷 Website: https://t.co/4y0g7dqswM  🔷 Whitepaper: https://t.co/PHPZI4dbyR  🔷 Presentation Video : https://t.co/Mycfov12IU  #Safe_Childrens #Bitcoin  #Binance #BinanceSmartChain #DEFI  #BTC #ETH",13976,13663
1374722538144686085,"2021-03-24T13:59:28Z","@sylthadeal1 @EIonMuskerino @SmindCrypto No, it's clearly spelled Etherium",21,0
1374722534780727300,"2021-03-24T13:59:28Z","WARNING🚨   MASSIVE airdrop 🔥   $QDAO is a true💎since 2019, by famous team, just 10 MILLION CAP  1. Go now to Twitter @QDefi  or telegram https://t.co/x0vuSIVfV9   2. Get your free tokens  3. HODL this gem until 10x-20x  (soon - launch cross-chain tool for BSC, DOT and ETH) https://t.co/S3sdpsYnUu",1010,1142
1374722531345760258,"2021-03-24T13:59:27Z","💎My first Drop on  @withFND  «BIKER DOGE» To the moon through space and time☄️  Reserve price: 0.4 ETH  Link: https://t.co/nrKgnLZkxT  #dogetothemoon #NFT #ETH #cryptoart #nftart #nftcollector #nftbastards #NFTCommunity #Foundation #withFND #doge #dogecoin https://t.co/uSD7KwAbd0",63,21
1374722525616336896,"2021-03-24T13:59:25Z","People said I've been negative lately...So let's give away a THICC Pokemon NFT (valued at about $1000 now, but I think at least $2k in 3 months)  Post your ETH wallet below and your favorite pokemon. Tags/Retweets to friends who like NFTs/Crypto is super appreciated. https://t.co/GHxjLnTcb1",1142,509
1374722525196738563,"2021-03-24T13:59:25Z","$icx and $vet never disappoint :) lets goooooo. $btc $eth $ltc #coinbase #bitcoin #tesla $tsla https://t.co/o3ouslmqVr",4,0
1374722522181038080,"2021-03-24T13:59:25Z","https://t.co/dj7DkIUm3T $4900  Premium #Domainname #ForSale   #Crypto365 #shop #BitcoinAsset #Analytics #AI #BigData #5G #AR #Robotics #ML #IoT #store #tesla #NFT  #futureofwork #Crypto #cryptocurrencies #fintech #Blockchain #LIVE #Bitcoin #LTC #ETH  #technology #LINK #Metaverse https://t.co/Wl7hLA0hZq",3,6
1374722514916548614,"2021-03-24T13:59:23Z","WARNING🚨   MASSIVE airdrop 🔥   $QDAO is a true💎since 2019, by famous team, just 10 MILLION CAP  1. Go now to Twitter @QDefi  or telegram https://t.co/x0vuSIVfV9   2. Get your free tokens  3. HODL this gem until 10x-20x  (soon - launch cross-chain tool for BSC, DOT and ETH) https://t.co/S3sdpsYnUu",1010,1142
1374722502627262468,"2021-03-24T13:59:20Z","RT @CashNCrypto: $150 to one person in 48hrs  Rt &amp; follow me + @domscrypto &amp; @boar_eth",2050,4122
1374722501771673605,"2021-03-24T13:59:20Z","🔥New Listing @a2dao_ 🔥  #ATD trading will be enabled on https://t.co/8kWqgEeplL 😎  👉Trade: https://t.co/ExhZLJsBuu 👉Details: https://t.co/wHKyoIXPWV  #DeFi #crypto #ALTSEASON #ETH #NFT https://t.co/UjKmwZhqea",244,642
1374722496906231814,"2021-03-24T13:59:19Z","The DEX @FinanceChainge is set to launch on the @FUSIONProtocol network with over a million users on the protocols waitlist. This decentralized exchange aims to innovate on traditional models through leveraging the Fusion Network.  #BSC #BTC #ETH #BNB  https://t.co/xx55YiGfm3",21105,13409
1374722495614361607,"2021-03-24T13:59:18Z","The DEX @FinanceChainge is set to launch on the @FUSIONProtocol network with over a million users on the protocols waitlist. This decentralized exchange aims to innovate on traditional models through leveraging the Fusion Network.  #BSC #BTC #ETH #BNB  https://t.co/xx55YiGfm3",21105,13409
1374722491235536905,"2021-03-24T13:59:17Z","We celebrate this beautiful day with a #CryptoGiveaway 🙌  Win 1x$10 #ETH (ends in 48H)  1.Follow @vgaClassicsNFT  @CryptoSoltan @CRAFTW3RK @Crypto_Moonboys   2.LIKE+RT  3.Tag 3 Friends  #Crypto #ETH #Giveaway #cryptocurrency #rarible #NFTs #retrogames #RETROGAMING #Collectibles",33,25
1374722490514165761,"2021-03-24T13:59:17Z","3 years ago, i opined that Proof of Stake &amp; fee burn would turn $ETH into the world's best programmable SoV asset  watching a dynamic economy evolve on #Ethereum since then has only reaffirmed my view  EIP-1559 in July, then 100% focus on PoS merge 🚀  https://t.co/lWS3pnzcI6",110,13
1374722481425121282,"2021-03-24T13:59:15Z","RT @udiWertheimer: Elon sells the best car in the world. keeps revenue 100% in bitcoin  Beeple sells jpeg files, sells every last ETH he re…",2667,228
1374722479965442049,"2021-03-24T13:59:14Z","RT @volmexfinance: What’s your ETH address?  Don’t ask why, just drop it below 👇",4854,1656
1374722475666280448,"2021-03-24T13:59:13Z","🔥 WoW!!! $DYP getting listed on @kucoincom !  DYP/USDT &amp; DYP/ETH trading will start tomorrow, March 25th at 10AM UTC! Good job @dypfinance team!  #DeFi #uniswap #Ethereum https://t.co/Rw9qa5l5tA",2211,2334
1374722468217290754,"2021-03-24T13:59:12Z","The DEX @FinanceChainge is set to launch on the @FUSIONProtocol network with over a million users on the protocols waitlist. This decentralized exchange aims to innovate on traditional models through leveraging the Fusion Network.  #BSC #BTC #ETH #BNB  https://t.co/xx55YiGfm3",21105,13409
1374722467923513345,"2021-03-24T13:59:12Z","RT @CashNCrypto: $150 to one person in 48hrs  Rt &amp; follow me + @domscrypto &amp; @boar_eth",2050,4122
1374722456808648711,"2021-03-24T13:59:09Z","$ADA in accumulative process? Like it! #crypto #bitcoin #cryptocurrency #blockchain #btc #ethereum #forex #money #trading #bitcoinmining #cryptocurrencies #bitcoinnews #cryptotrading #bitcoins #investment #investing #entrepreneur #cryptonews #invest #business #eth https://t.co/p4tb9Z4VQe",0,1
1374722453771980803,"2021-03-24T13:59:08Z","$VIDT surpassed 100k documents in March and still 7 days to go.  At this time the next token burn of 20% used vidt will be about 58500 VIDT on april 1st and a buyback of 10%( 29500 vidt)  @VIDT_Datalink has strong and deflationafy Tokenomics   $btc #nft $eth $chz $thetha $bnb https://t.co/HH8vYXqxhq",32,13
1374722450538131456,"2021-03-24T13:59:07Z","RT @CashNCrypto: $150 to one person in 48hrs  Rt &amp; follow me + @domscrypto &amp; @boar_eth",2050,4122
1374722447199600641,"2021-03-24T13:59:07Z","I reentered the market an hour ago.....💪😎 $BTC $ETH $LTC #Wyckoff   Join https://t.co/6K31zWALWs to get them real time. https://t.co/YCEeuN41QP",71,10
1374722444297113606,"2021-03-24T13:59:06Z","@dz but imagine an artist living in a third world with a valueless currency getting paid in ETH for their work. The implications are so much bigger than the current narrative.",0,0
1374722438777430016,"2021-03-24T13:59:05Z","It is very easy to get into the crypto space now. I literally bought $eth with Apple pay a few days ago before I minted my NFT",0,0
1374722437888286724,"2021-03-24T13:59:04Z","@IOHK_Charles This is embarrassing, suggest you make a pg2 to include successfully executed #rugpull's.  Just bend the knee and build a bridge to $ETH   @VitalikButerin #chicocrypto",0,0
1374722436780994560,"2021-03-24T13:59:04Z","🔥I will give $80USDT to 3 Random Followers who retweet this tweet in 24 hours 💰Just Like and Retweet 💰Follow @NFTs_Group  💰Turn notifications on🔔 💰Tag Your 5 Friends + #NFTs 🚀Good luck The more you share, the more likely you win. Let's play!  Leave your ETH wallet address https://t.co/MOwBkJ2nCC",871,783
1374722434314559488,"2021-03-24T13:59:04Z","You can now buy a #Tesla car with #Bitcoin   “Nothing is stronger than habit” @DavosCryptos   $BTC $ETH #TSLA #Cryptocurrency https://t.co/L0UpN4xTtm",675,790
1374722421446557697,"2021-03-24T13:59:01Z","@FreedomGoats @TheCryptoDaddi @Uniswap @coingecko @defi_labs_ Looks like for selling it wants you to put slippage at 7% for MWs.This is because of the burn and gold allocation fee. Its always easiest to go from MWs to eth/weth. going from mws to other tokens may require higher slippage. For Pria there shouldn't be a slippage issue",0,0
1374722413997531136,"2021-03-24T13:58:59Z","Wow! 20k Followers!😍  Our family is growing exponentially, so to celebrate we're doing a competition! 🎁  ❶ Follow + RT ❷ Tag a friend and tell them what you like best about #ValueDefi  👉After 48h, 20 comments will win 6.8 $gvVALUE-B each!  Good luck frens!🍀  #BSC #ETH #DeFi https://t.co/WHnV5DU7TU",332,220
1374722412705579016,"2021-03-24T13:58:58Z","I will be giving away $1000 $USDT 🎁 to 5 (x200) people who: 1. Follow me 2. Retweet this 3. Like the post  To get double ($400) if you win, tag 2 friends in the comments!  Contest ends on the 25th of March. GL!  ---  #crypto #defi #nfts $btc $eth $doge $cake $uni $ada $dot $luna https://t.co/oT3KA0auWp",641,612
1374722406112243712,"2021-03-24T13:58:57Z","💧Roku Network Airdrop 💧  🏆 Task:          ➕  15 ROK (~$5)  👨‍👩‍👧 Referral:   ➕  3 ROK (~$1)  🔛  Airdrop Link &amp; Information: https://t.co/YhvsOcfEbH  #cryptocurrency #Crypto #Bitcoin  #BSC #BinanceSmartChain #Ethereum #ETH #Airdrop #bounty #ROK #RokuCoin #RokuNetwork",3593,4682
1374722405235589120,"2021-03-24T13:58:57Z","@justinsuntron @Poloniex Offcorse you will, you sold us bilions of shit coin with 0 use case and with the money you  bought btc and eth",0,0
1374722404560343041,"2021-03-24T13:58:57Z","@NFTDaily @VIDT_Datalink @dego_finance @D_Treasureland @VIDT_Datalink   Once vidt breaks resistance it will fly to the moon with its #nft usecase + data verification of multi billion $ companies like IBM, Krohne, Siemens.. $vidt is so undervalued and ready to moon Low marketcap and low supply also with 50 million coins. $btc $eth https://t.co/ZzT3SINL8r",24,4
1374722401708171274,"2021-03-24T13:58:56Z","@audisouthafrica Earn money for mahala by clicking on the link...no joining fees or no making of payments ever!!!  Let's make money guys; My ETH value grew from R62k to over R90k in just a few days, the easiest few thousand rands you'll ever make 💰 💰 💰💰 💰 💰  https://t.co/R3eHDhlbnP",0,0
1374722401251037187,"2021-03-24T13:58:56Z","https://t.co/29c1Y7s2iZ  $SCRT Secret Network is the gem that people are very slowly paying attention to. BUT I'll double down and say it is massively undervalued and under appreciated.  #DeFi #Altseason2021 #eth #ATOM $dot #sefi",23,3
1374722396167503872,"2021-03-24T13:58:55Z","$VIDT surpassed 100k documents in March and still 7 days to go.  At this time the next token burn of 20% used vidt will be about 58500 VIDT on april 1st and a buyback of 10%( 29500 vidt)  @VIDT_Datalink has strong and deflationafy Tokenomics   $btc #nft $eth $chz $thetha $bnb https://t.co/HH8vYXqxhq",32,13
1374722392585502726,"2021-03-24T13:58:54Z","Only other coin that has the same amount of power and use as $LINK is $ETH. But in all honestly think it will be replaced by $link.....",0,0
1374722383848730624,"2021-03-24T13:58:52Z","📌 The TokenKennel #Giveaway | Rules 📌 =   - Step 1: Like &amp; Retweet + tag 3-5 People! - Step 2: Follow @KennelToken &amp; @__Bullish__ - Step 3: Join https://t.co/1wcwTits9h - Step 4: Send Proof!   Prize = 100$ in #BTC or #ETH  06/04, we will announce the winner! 🎁",1814,2129
1374722383550898178,"2021-03-24T13:58:52Z","RT @volmexfinance: What’s your ETH address?  Don’t ask why, just drop it below 👇",4854,1656
1374722375208603655,"2021-03-24T13:58:50Z","SHILL ME MY ART and get a chance to win it! 😎  Rules: like + RT + comment with screenshot/title of my #NFTart you like.  If this gets to 100 retweets, I'll extract one or more winners (for up to 1 ETH value).  Links to my NFTs on top of my site. https://t.co/0lMXrPNLjI",72,46
1374722369709821954,"2021-03-24T13:58:48Z","Descending triangle broke LFG! Time to fly $PIKA #PIKA Fam!  $FEG $POODL $SLOTH $RHINO $ETH $ALT $GRUMPY $SCAT $RAINI $CHIN $FET $DOGE $HOGE $KONG $FROGE $WOLFY $BUNNY $OGN $ONT $ZEC $DASH $ADA $RVN $KANGAL $RFI $RFIII $ADA  https://t.co/QmQtJFtlAd!",8,3
1374722368635957248,"2021-03-24T13:58:48Z","RT @CashNCrypto: $150 to one person in 48hrs  Rt &amp; follow me + @domscrypto &amp; @boar_eth",2050,4122
1374722362818490368,"2021-03-24T13:58:47Z","https://t.co/dj7DkIUm3T $4900  Premium #Domainname #ForSale   #Crypto365 #shop #BitcoinAsset #Analytics #AI #BigData #5G #AR #Robotics #ML #IoT #store #tesla #NFT  #futureofwork #Crypto #cryptocurrencies #fintech #Blockchain #LIVE #Bitcoin #LTC #ETH  #technology #LINK #Metaverse https://t.co/Wl7hLA0hZq",3,6
1374722347085623309,"2021-03-24T13:58:43Z","WARNING🚨   MASSIVE airdrop 🔥   $QDAO is a true💎since 2019, by famous team, just 10 MILLION CAP  1. Go now to Twitter @QDefi  or telegram https://t.co/x0vuSIVfV9   2. Get your free tokens  3. HODL this gem until 10x-20x  (soon - launch cross-chain tool for BSC, DOT and ETH) https://t.co/S3sdpsYnUu",1010,1142
1374722346607640592,"2021-03-24T13:58:43Z","$VIDT surpassed 100k documents in March and still 7 days to go.  At this time the next token burn of 20% used vidt will be about 58500 VIDT on april 1st and a buyback of 10%( 29500 vidt)  @VIDT_Datalink has strong and deflationafy Tokenomics   $btc #nft $eth $chz $thetha $bnb https://t.co/HH8vYXqxhq",32,13
1374722345449951232,"2021-03-24T13:58:42Z","The Binance Smart Chain has experienced rapid growth in the last six months. This can be attributed to a plethora of things such as the DeFi boom or the extreme transaction fees on the Ethereum network.  #BinanceSmartChain #BSC #BTC #ETH #Ethereum #BNB  https://t.co/CPE62tRvOb",895,207
1374722329113022470,"2021-03-24T13:58:39Z","🔥🔥Friends, I'm glad to tell you that @CryptoClownNft and I are making a giveaway.🔥🔥  #3 - BOZO the cryptoclown - will be a gift for the winner!  1. Follow me and @CryptoClownNft 2.RT this tweet 3. Comment on your ETH address.  1 winner  Giveaway ends on March 25 https://t.co/SN2LHZmcSI",159,123
1374722329079545859,"2021-03-24T13:58:39Z","RT @CashNCrypto: $150 to one person in 48hrs  Rt &amp; follow me + @domscrypto &amp; @boar_eth",2050,4122
1374722323857633280,"2021-03-24T13:58:37Z","In the recent market dump, ETH has shed almost $41 billion from its all time high to the current price of $1,682.  $EDDA has only shed around $6 million from its all time high to the current price of $4,455.  Which do you think will recover and hit an ATH faster?   Hint: $EDDA 🥷",241,218
1374722321840152581,"2021-03-24T13:58:37Z","In the recent market dump, ETH has shed almost $41 billion from its all time high to the current price of $1,682.  $EDDA has only shed around $6 million from its all time high to the current price of $4,455.  Which do you think will recover and hit an ATH faster?   Hint: $EDDA 🥷",241,218
1374722321689104384,"2021-03-24T13:58:37Z","The DEX @FinanceChainge is set to launch on the @FUSIONProtocol network with over a million users on the protocols waitlist. This decentralized exchange aims to innovate on traditional models through leveraging the Fusion Network.  #BSC #BTC #ETH #BNB  https://t.co/xx55YiGfm3",21105,13409
1374722320670031873,"2021-03-24T13:58:37Z","RT @DailyDogeUpdate: 🚀 $1000 to anyone who Like, Follow and Retweet 🚀  #Dogecoin #LTC $ETH",1838,1206
1374722309123047424,"2021-03-24T13:58:34Z","💧YetuBit Airdrop 2nd Round💧  🏆 Task:          ➕  25 YETU (~$20)  👨‍👩‍👧 Referral:   ➕  5 YETU (~$4)  🔛  Airdrop Link &amp; Information: https://t.co/ZoGw3AR71I  #cryptocurrency #Crypto #Bitcoin  #BSC #BinanceSmartChain #Ethereum #ETH #Airdrop #bounty #YetuBit #YetuSwap #YETU",4309,5495
1374722294199709696,"2021-03-24T13:58:30Z","RT @CashNCrypto: $150 to one person in 48hrs  Rt &amp; follow me + @domscrypto &amp; @boar_eth",2050,4122
1374722292396126210,"2021-03-24T13:58:30Z","#RelistXRP #XRP #XRPCommunity #0doubt #ripple  Lawyer John Danton: Vitalik Buterin Offered ETH as a Security than Any Specific Sale of XRP https://t.co/REvzR9z2Fl via @HeraldSheets1",127,43
