"ID","created_at","text","like_count","rt_count"
1376232611098599426,"2021-03-28T17:59:58Z","Is amazing to see how this project has been out since Dec 2020 and so far Liquidity Providers have earned about 6533.78 $ETH and that is the total value of $10.6 Million dollars. 💪  Also the APY doing 301.35% which is amazing.  #DeFi #UniSwap #BSC #SmartContract #Ethereum https://t.co/9a7rgyoMpE",2385,0
1376232609622069249,"2021-03-28T17:59:57Z","🎁Huge Giveaway!🎁  1x @PlasmaAIO beta key 1x @MooseAlertsCA Monthly 1x @TrinityProxies 1GB Resi 1x @SneakerPings Monthly 1x @studiobreit $100 ETH cash prize  🚨Rules🚨 -Follow all accounts✅ -Retweet🔁 -Tag a friend👥  Ends in 48 hours, good luck!🍀 https://t.co/RsyBvTzUU0",391,0
1376232607759921158,"2021-03-28T17:59:57Z","SUPER SUNDAY FUNDAY #IGGiveaway! 👽  50,000 IGG to be won (~$50) 🤑  To enter: 🔹Follow @IG_Galaxy  🔹Like &amp; RT  🔹Tag 3 people below.. $IGG 🔹Join our official Telegram Group 👇  https://t.co/XYuvAoufKe  #IGG #MATIC #ETH #altcoins #uniswap #cryptocurrencies #esports",159,0
1376232606694572036,"2021-03-28T17:59:57Z","@hoosiers713 @PlungeFather @Wades_ETH I signed up after hearing about it from @ShaanVP &amp; @theSamParr podcast  https://t.co/8kup0rkHxQ",3,0
1376232601116147713,"2021-03-28T17:59:55Z","@TheMoonSurf $vxv vectorspace ai  So what's $vxv ? It's the Google for AI analysis of natural language data.  $alts $defi $dot $ltc $eth $bnb $btc $om $rfuel $ksm $gvt $sky $xvg $trx $rsr $link $ada $eos $aave $neo $zil $comp $icx $sol $tomo $kai $pols $maha $bondly  https://t.co/CikIgSzk28 https://t.co/eKY9dYV4mE",1,0
1376232599430004738,"2021-03-28T17:59:55Z","@iamDCinvestor @RyanSAdams What does cardano being 4 months away from smart contracts have to do with ETH being older ? Makes no sense. Its like saying that just couse cola is older than Pepsi then Pepsi wont be sucsessful. Own both snd drink both",0,0
1376232589858594818,"2021-03-28T17:59:53Z","I have 53 cents USD worth of ETH left &amp; I've never been happier! I've bought Art with the proceeds of my sales &amp; helped artists with minting costs. This is what it is all about imho  Artists supporting Artists Friends supporting Friends Collectors supporting Collectors ❤️❤️❤️❤️❤️",180,0
1376232582103240704,"2021-03-28T17:59:51Z","Only 3️⃣ days until the genesis launch of $SEFI, native governance token for @secret_swap and Secret #DeFi.  Today’s fact: bridges beyond $ETH and #BSC are already in development, including to the $DOT ecosystem and $XMR - plus #IBC will help Secret support the whole @cosmos 🌌 https://t.co/kSnXmayvxe",232,0
1376232579313983491,"2021-03-28T17:59:50Z","I'll send $300 in #ETH or #BTC to one person who retweets this and follows @bud_crypto. Must complete these tasks:  1 - Like/RT his pinned tweet  2 - Must RETWEET &amp; LIKE 4 of his tweets  Ends in 72 hours!",1206,0
1376232577791451136,"2021-03-28T17:59:50Z","RT @intocryptoverse: Who was buying $ETH at &lt;$200?",3499,0
1376232577284108288,"2021-03-28T17:59:50Z","I guess when you Block your users from Fi nancial freedom they move over to @CelsiusNetwork without even waiting for April 1 when @Blockfi rates drop by up to 90% for #BTC and #ETH holders.  The only place to #Unbankyourself is https://t.co/LkcaI0RpM9",608,0
1376232572204638209,"2021-03-28T17:59:49Z","I'll send $300 in #ETH or #BTC to one person who retweets this and follows @bud_crypto. Must complete these tasks:  1 - Like/RT his pinned tweet  2 - Must RETWEET &amp; LIKE 4 of his tweets  Ends in 72 hours!",1206,0
1376232569012912130,"2021-03-28T17:59:48Z","To celebrate @3DPunks_ #100/100 Auction Current bid at 16 ETH ($27K USD)  I'm giving away 3D Punk #049  Which last sold for 6.97 ETH ($12K USD)  How: - Follow @evankeast + @3DPunks_  - Like + Retweet - Tag a friend - Join the discord: https://t.co/5paneepNDb - Say hi in discord https://t.co/SOy3l78yP1",1043,0
1376232555406589952,"2021-03-28T17:59:45Z","@cryptattoo @JukikCryptofans @rocketbotpro Gift 0.5 ETH    https://t.co/gnY8Xfp881",0,0
1376232548347568133,"2021-03-28T17:59:43Z","@POODLETOKEN This pic is all i need to say about $POODL   #HOODLTHEPOODL $hoge $doge $froge $shib $feg $btc $eth $wern $tosa $pika $pipi #crypto #doge https://t.co/rjfYkpyUR8",9,0
1376232547479285761,"2021-03-28T17:59:43Z","Is amazing to see how this project has been out since Dec 2020 and so far Liquidity Providers have earned about 6533.78 $ETH and that is the total value of $10.6 Million dollars. 💪  Also the APY doing 301.35% which is amazing.  #DeFi #UniSwap #BSC #SmartContract #Ethereum https://t.co/9a7rgyoMpE",2385,0
1376232537815678978,"2021-03-28T17:59:40Z","🎁Competition time!🎁  WIN this 1 of 3 NFT  🍄Entrance of the Eth🍄  ....just....  LIKE✔ SHARE this post ✔ FOLLOW the page ✔  ....and we'll pick a winner in 48hrs 😊💛🐼🙏🎉   Good luck everyone x https://t.co/T38uHnTGmh #NFT #NFTart #Rarible #Kiefmonster #NFTcompetition https://t.co/XN9WLaRZv2",127,0
1376232537664675843,"2021-03-28T17:59:40Z","American Pool Party,  My first animated #NFT is now minted and listed on  @withFND  for a reserved price of 0.33 ETH. 1/1 available Any kind of support is appreciated :) Link: https://t.co/xusqCDZVzW  #NFT #NFTs #NFTartist #nftcollector #nftcollectors #nftart https://t.co/WYhceLGt7v",63,0
1376232531222278148,"2021-03-28T17:59:39Z","@Toprak3d 🍀Hits From The Bong🍀 🚨One Day Left on @opensea🚨 10/11 Available Unique Characters  Starting at 0.02 ETH! Place your bid or share! Love y'all! #nft #nfts #collectibles #opensea #nftcollector #nftcollectors #collection #criptoart #ETH #Auction  https://t.co/FuRRI0sU5E https://t.co/Mew0YR9AoR",4,0
1376232530219786244,"2021-03-28T17:59:39Z","#NPXS $NPXS #PundiX  #BTC #ETH #USDT #XRP #LTC https://t.co/S5AMjEDNgh",3,1
1376232526121943042,"2021-03-28T17:59:38Z","🚀 #NFT GIVEAWAY 🚀  PRIZE: ONE 3D BASTARD PUNK (0.5 ETH) + $150 ETH  HOW TO ENTER: 💎 LIKE AND RETWEET THIS POST 💎 FOLLOW  @3DBastardPunks 💎 TAG 3 CRYPTO FRIENDS  🏆 WINNER ANNOUNCED ON: APRIL 1ST  2021 🏆  JOIN OUR DISCORD ➡️ https://t.co/sxvENo2kFT https://t.co/uqXTkHnds7",399,1
1376232520220430338,"2021-03-28T17:59:36Z","🎁🎁  AIRDROP  Starts Soon 🎁🎁   We are giving 10,000 users 10,000   YearnCasino -YRNC-    Join the IEO  and grab it while it's still cheap https://t.co/sigigs6qZE   To Join the Airdrop   ✅ Retweet  ✅ Retweet Pinned Tweet  ✅ Follow us ✅ common wallet address  #Airdrop #eth https://t.co/LE1TgGDmxp",139,1
1376232515396984833,"2021-03-28T17:59:35Z","Recently the price of #ETH is way👆&amp; @beeple just blew the doors off #NFTverse with a record-breaking $69M auction sale at @ChristiesInc. To 🥂, the Stag Beeple 2020 FULL MFKN PACKAGE of 5 pieces has been temporarily reduced to a meme-y 1,420.69ETH 🤌💎  https://t.co/wfVX0AyvLV",39,1
1376232502428327939,"2021-03-28T17:59:32Z","Sign up with this link on BlockZone and win STPT (just for registering 370 STPT) https://t.co/br7LIFP1eE  #dogecoin $doge $eth #defi #earn",0,0
1376232502143094787,"2021-03-28T17:59:32Z","What cryptocurrency exchanges and wallets do you use and recommend? 🧐  Let us know below👇   $IGG #IGG #MATIC #ETH #BNB #BSC #altcoins #esports #gaming #cryptocurrencies #DeFi #NFTs",100,0
1376232500029194244,"2021-03-28T17:59:31Z","Ethereum is the property rights economy of the internet.  ETH is the reserve asset of this economy.  ETH is ultra sound money.  Nothing else is close.  Timestamp this. Set a reminder. Whatever.   Just don’t act surprised when it becomes obvious to everyone.",610,0
1376232498334556160,"2021-03-28T17:59:31Z","Trying to make #ETH transaction https://t.co/cavgbQS8QU",0,0
1376232489505677320,"2021-03-28T17:59:29Z","@EpikNFT AND NOW.. #014 already SOLD..   #012 #013 is available at #opensea with low prices https://t.co/5cwNZpADYk  #NFTCollectors #NFTs #crypto #cryptoart #nftart #nftdrop #nftcommunity #eth #pixelart #NFTartist #NFT   https://t.co/eEXN5YGTSE",1,0
1376232485902684163,"2021-03-28T17:59:28Z","🎁Huge Giveaway!🎁  1x @PlasmaAIO beta key 1x @MooseAlertsCA Monthly 1x @TrinityProxies 1GB Resi 1x @SneakerPings Monthly 1x @studiobreit $100 ETH cash prize  🚨Rules🚨 -Follow all accounts✅ -Retweet🔁 -Tag a friend👥  Ends in 48 hours, good luck!🍀 https://t.co/RsyBvTzUU0",391,0
1376232482446536704,"2021-03-28T17:59:27Z","$ONE has consolidated and found support at 16¢ which has become a launchpad 🚀 sending price higher to test ATHS. We will see 25¢ + very soon.  $BTC $ETH $ONE $AAVE $VIPER $COMP $VRA $LABS $SOL $FTM $SUPER #cryptocurrency #crypto #altcoin #Altseason2021 #bitcoin",23,0
1376232481217671168,"2021-03-28T17:59:27Z","I'll send $300 in #ETH or #BTC to one person who retweets this and follows @bud_crypto. Must complete these tasks:  1 - Like/RT his pinned tweet  2 - Must RETWEET &amp; LIKE 4 of his tweets  Ends in 72 hours!",1206,0
1376232472283860994,"2021-03-28T17:59:25Z","I'm giving away 100 $sxp in 3 days to a random person.   To qualify: like, retweet &amp; follow me.  $btc $eth $dot $matic $ada $link $sxp $trx $rsr $vet $reef $tvk $bnb $cake",335,0
1376232463475765248,"2021-03-28T17:59:23Z","🎁Huge Giveaway!🎁  1x @PlasmaAIO beta key 1x @MooseAlertsCA Monthly 1x @TrinityProxies 1GB Resi 1x @SneakerPings Monthly 1x @studiobreit $100 ETH cash prize  🚨Rules🚨 -Follow all accounts✅ -Retweet🔁 -Tag a friend👥  Ends in 48 hours, good luck!🍀 https://t.co/RsyBvTzUU0",391,0
1376232462469173249,"2021-03-28T17:59:22Z","🎁Huge Giveaway!🎁  1x @PlasmaAIO beta key 1x @MooseAlertsCA Monthly 1x @TrinityProxies 1GB Resi 1x @SneakerPings Monthly 1x @studiobreit $100 ETH cash prize  🚨Rules🚨 -Follow all accounts✅ -Retweet🔁 -Tag a friend👥  Ends in 48 hours, good luck!🍀 https://t.co/RsyBvTzUU0",391,0
1376232459407269890,"2021-03-28T17:59:22Z","@JunkoSu22993224 For all of those who think ETH is dead...aaand that Chainlink will not move..problem is..people are complaining about 2 weeks price movement..that’s not investing..Open Your eyes,was great to buy a Bitcoin at the top of bull run in 2017😑 https://t.co/3MWyNYoK44",4,1
1376232454730711044,"2021-03-28T17:59:21Z","RT @tokenstate: ETH at $10,000 really does look conservative when you consider the tsunamis coming this year. 👀 https://t.co/EWISGzNNqK",573,1
1376232451463340035,"2021-03-28T17:59:20Z","🎁Huge Giveaway!🎁  1x @PlasmaAIO beta key 1x @MooseAlertsCA Monthly 1x @TrinityProxies 1GB Resi 1x @SneakerPings Monthly 1x @studiobreit $100 ETH cash prize  🚨Rules🚨 -Follow all accounts✅ -Retweet🔁 -Tag a friend👥  Ends in 48 hours, good luck!🍀 https://t.co/RsyBvTzUU0",391,1
1376232450712539142,"2021-03-28T17:59:20Z","🎁Huge Giveaway!🎁  1x @PlasmaAIO beta key 1x @MooseAlertsCA Monthly 1x @TrinityProxies 1GB Resi 1x @SneakerPings Monthly 1x @studiobreit $100 ETH cash prize  🚨Rules🚨 -Follow all accounts✅ -Retweet🔁 -Tag a friend👥  Ends in 48 hours, good luck!🍀 https://t.co/RsyBvTzUU0",391,1
1376232443905122307,"2021-03-28T17:59:18Z","Meet DeLorean!🏎️🎸🌩️ Hurry to buy!  https://t.co/lrs4DmdpIL  One of the cars can be yours for free in 24 hours!  🙌follow me 👍like  🖖retweet  🤝🤝2 friends+ comment with your ETH wallet address.  I wish everyone good luck! #NFTs #NFT #NFTartist #nftart #nft_ru #NFTcollectibles https://t.co/3TgmokUlYK",186,1
1376232439585071112,"2021-03-28T17:59:17Z","✳️ @OBORTECHhub is a fully digital ecosystem for supply chain  ✳️ Early investors can purchase #OBOT token on @ProBit_Exchange  with a guaranteed 12% bonus for #PROB and 10% for #BTC, #ETH, #USDT, and #XRP token holders  📰 INFO https://t.co/mB2xmfKkmk #SCN1 https://t.co/l2mKBbnMgH",130,1
1376232435323609089,"2021-03-28T17:59:16Z","🤗 #XYM Lock &amp; Earn has launched at https://t.co/8kWqgEeplL @NEMofficial 🤗  💎Token: #XYM 💎Term: 7 days 💎Zero handling fee &amp; estimated annualized yield of 100%  👉Earn now: https://t.co/yAwwBIBTkA 👉Details: https://t.co/d1rkGcbUBU  #ALTSEASON #Altseason2021 #BTC #ETH https://t.co/OqLaEsRKWT",564,1
1376232434132344835,"2021-03-28T17:59:16Z","Ethereum is the property rights economy of the internet.  ETH is the reserve asset of this economy.  ETH is ultra sound money.  Nothing else is close.  Timestamp this. Set a reminder. Whatever.   Just don’t act surprised when it becomes obvious to everyone.",610,1
1376232429225148418,"2021-03-28T17:59:14Z","Always great to have a look @YouTube and find a vid about @TheLTONetwork  All credits to the person who made it. Thank you for your #support😇  $lto #ltonetwork #lto #BTC #ATH #cryptonews #cryptocurrencies #cryptocurrency #eth #crypto #Binance #BNB  https://t.co/lMphelDbur",42,1
1376232424171012104,"2021-03-28T17:59:13Z","◾Freedom Is Slavery - 0.333 ETH◾  Second artwork from the 1984 triptych is now available on  @withFND  1/1 edition 5000 x 6250 px 300 dpi  https://t.co/ypBuaLhhPA  #NFTCommunity #NFTartists #nftcollector #nft #Foundation https://t.co/fTODL3NHKs",110,1
1376232421159501827,"2021-03-28T17:59:13Z","@EpikNFT all prices are DOWN!!  just check and grab one of them. they are still waiting for owners!!  prices are between Ξ0,01 and Ξ0,02  https://t.co/RrHo1N81U1  #NFTCollectors #NFTs #cryptoart #nftart #nftdrop #nftcommunity #eth #pixelart #NFTartists   https://t.co/Mn00Jr1zk7",2,1
1376232418403831811,"2021-03-28T17:59:12Z","🎁Huge Giveaway!🎁  1x @PlasmaAIO beta key 1x @MooseAlertsCA Monthly 1x @TrinityProxies 1GB Resi 1x @SneakerPings Monthly 1x @studiobreit $100 ETH cash prize  🚨Rules🚨 -Follow all accounts✅ -Retweet🔁 -Tag a friend👥  Ends in 48 hours, good luck!🍀 https://t.co/RsyBvTzUU0",391,1
1376232417627934720,"2021-03-28T17:59:12Z","🚀 #NFT GIVEAWAY 🚀  PRIZE: ONE 3D BASTARD PUNK (0.5 ETH) + $150 ETH  HOW TO ENTER: 💎 LIKE AND RETWEET THIS POST 💎 FOLLOW  @3DBastardPunks 💎 TAG 3 CRYPTO FRIENDS  🏆 WINNER ANNOUNCED ON: APRIL 1ST  2021 🏆  JOIN OUR DISCORD ➡️ https://t.co/sxvENo2kFT https://t.co/uqXTkHnds7",399,1
1376232411780947971,"2021-03-28T17:59:10Z","Learn about #moon token from @reddit  @MoonsReddit reward point system is gonna be huge.  TIPPING, proposals, burning mechanism on membership, trade.  It's crazy just watch this video, You'll die to buy some  Click on the link  🧞🔮  https://t.co/Iy1b2YXoeX  🧞🔮  #Ethereum #ETH https://t.co/zO5eX4qGo9",8,1
1376232405179236353,"2021-03-28T17:59:09Z","🎁Huge Giveaway!🎁  1x @PlasmaAIO beta key 1x @MooseAlertsCA Monthly 1x @TrinityProxies 1GB Resi 1x @SneakerPings Monthly 1x @studiobreit $100 ETH cash prize  🚨Rules🚨 -Follow all accounts✅ -Retweet🔁 -Tag a friend👥  Ends in 48 hours, good luck!🍀 https://t.co/RsyBvTzUU0",391,1
1376232404197634052,"2021-03-28T17:59:08Z","🎁Huge Giveaway!🎁  1x @PlasmaAIO beta key 1x @MooseAlertsCA Monthly 1x @TrinityProxies 1GB Resi 1x @SneakerPings Monthly 1x @studiobreit $100 ETH cash prize  🚨Rules🚨 -Follow all accounts✅ -Retweet🔁 -Tag a friend👥  Ends in 48 hours, good luck!🍀 https://t.co/RsyBvTzUU0",391,1
1376232398975856640,"2021-03-28T17:59:07Z","🚨🚨 MEGA 4/20 MOMENT GIVEAWAY 🚨🚨  Details in the image below. Follow @TheeHustleHouse as he will be dropping the free NFT tickets on his twitter.   RT This And Follow: @KennethBosak @CryptoStache @riceboy42069 @grantpat @Topshotbabe @Wades_ETH @TheeHustleHouse @NBATopShotEast https://t.co/XLoOTQUQg3",135,1
1376232397633585152,"2021-03-28T17:59:07Z","RT @crypto_birb: $BTC 90k $ETH 5k coming soon https://t.co/kKro6dgdJL",2404,1
1376232396903825413,"2021-03-28T17:59:07Z","@Pima4life @Missing_Link @tehmattrix  2) add some ETH to your normal meta mask wallet that you will use as your capital to farm.   3) go to https://t.co/Si78vAGkq4 and use the bridge from ETH to one. Select metamask to ethere... https://t.co/Yxzw3NAVYY",0,0
1376232396794826757,"2021-03-28T17:59:07Z","🔥🔥🔥🔥🔥  New ID Announcement   https://t.co/ryFL9chElR  🔥🔥🔥🔥🔥  #infinitedivs #bsc #bitcoin #ETH $BTC $ETH $cake $BNB  #cryptocurrencies #Crypto $Uni #DeFi #BNB $ID https://t.co/GhJVf67fC8",14,0
1376232386736840704,"2021-03-28T17:59:04Z","#Arrano Trade Analytics report #23  A MUST know if you're in crypto  The Report covers a chart of Top 10 Cryptos in order of their market cap.   The King, #Bitcoin $BTC is ruling the market with $1.01 T, $ETH at 199 b , $BNB at $42 , $ADA , $DOT $XRP $UNI $LTC $LINK.   $ANDX $ANO https://t.co/CirLAnY4ha",2600,0
1376232377836527620,"2021-03-28T17:59:02Z","Order successful!  LAND Coordinates: [58, -79] Price: 1.5000 $WETH ($2,555.79 USD = 1.5000 $ETH)  Purchased by https://t.co/535xovc8pc from https://t.co/rlqdpoLskk  https://t.co/PIvA7GEg5f #decentraland #land #parcel #estate #mana https://t.co/OaXvFa0LaM",5,1
1376232374183325703,"2021-03-28T17:59:01Z","If you want to invest in one of the OG projects in the space check the current @artblocks_io drop! It is taking a bit longer than usually to sell off so you can just use standard gas and get a piece of history for less than 0.2 ETH, fees included!!! https://t.co/YJR8IbW3SA",9,1
1376232362007220231,"2021-03-28T17:58:58Z","I'll send $300 in #ETH or #BTC to one person who retweets this and follows @bud_crypto. Must complete these tasks:  1 - Like/RT his pinned tweet  2 - Must RETWEET &amp; LIKE 4 of his tweets  Ends in 72 hours!",1206,1
1376232361482805248,"2021-03-28T17:58:58Z","🚀 Pluto Coin  Airdrop 🚀 Rate: ⭐⭐⭐⭐ ⭐ 🎁 Reward:  8822 PLUT ($1500) 👫 Referral: 40.5 PLUT  ($7)  🤖Start Bot here   https://t.co/x5JZchojO8  ⛂ Join Telegram group and channel. ⛂ Follow twitter &amp; retweet  ⛂ Submit ETH address and details.",6005,1
1376232357913522177,"2021-03-28T17:58:57Z","🎁Huge Giveaway!🎁  1x @PlasmaAIO beta key 1x @MooseAlertsCA Monthly 1x @TrinityProxies 1GB Resi 1x @SneakerPings Monthly 1x @studiobreit $100 ETH cash prize  🚨Rules🚨 -Follow all accounts✅ -Retweet🔁 -Tag a friend👥  Ends in 48 hours, good luck!🍀 https://t.co/RsyBvTzUU0",391,1
1376232357804584963,"2021-03-28T17:58:57Z","🎁Huge Giveaway!🎁  1x @PlasmaAIO beta key 1x @MooseAlertsCA Monthly 1x @TrinityProxies 1GB Resi 1x @SneakerPings Monthly 1x @studiobreit $100 ETH cash prize  🚨Rules🚨 -Follow all accounts✅ -Retweet🔁 -Tag a friend👥  Ends in 48 hours, good luck!🍀 https://t.co/RsyBvTzUU0",391,1
1376232350309183493,"2021-03-28T17:58:56Z","🚨🚨 MEGA 4/20 MOMENT GIVEAWAY 🚨🚨  Details in the image below. Follow @TheeHustleHouse as he will be dropping the free NFT tickets on his twitter.   RT This And Follow: @KennethBosak @CryptoStache @riceboy42069 @grantpat @Topshotbabe @Wades_ETH @TheeHustleHouse @NBATopShotEast https://t.co/XLoOTQUQg3",135,1
1376232347754971136,"2021-03-28T17:58:55Z","Last summer, I told my parents I was going to buy ETH Boy from @trevorjonesart. They asked about the size of the painting. I responded “You’ll love this. No physical dimensions. It’s a jpg.” My mom thought I was the dumbest person alive...even before she knew it cost six figures.",580,1
1376232346433822723,"2021-03-28T17:58:55Z","CRYPTO NEWS - SELLING ETH, Buying Hidden Gems https://t.co/Ke1hpoqHCs via @YouTube",0,0
1376232343975948291,"2021-03-28T17:58:54Z","@WormsNFT ❝ NEO SAMURAI ❞ Reserve price: 0.5 ETH   1x1 animated edition 1200x1500px  ▲●■  Make the first BID👇🏻👇🏻 https://t.co/iYSxs5Jzax https://t.co/HrfFX6Jfzh",0,0
1376232343212593153,"2021-03-28T17:58:54Z","@Uniswap gas fee very high. ETH2.0 must come now. Pla help @ethereum @VitalikButerin $ETH To the moon. Fucking ETH miners",0,0
1376232342935773184,"2021-03-28T17:58:54Z","Only 3️⃣ days until the genesis launch of $SEFI, native governance token for @secret_swap and Secret #DeFi.  Today’s fact: bridges beyond $ETH and #BSC are already in development, including to the $DOT ecosystem and $XMR - plus #IBC will help Secret support the whole @cosmos 🌌 https://t.co/kSnXmayvxe",232,0
1376232340515651593,"2021-03-28T17:58:53Z","🎁Huge Giveaway!🎁  1x @PlasmaAIO beta key 1x @MooseAlertsCA Monthly 1x @TrinityProxies 1GB Resi 1x @SneakerPings Monthly 1x @studiobreit $100 ETH cash prize  🚨Rules🚨 -Follow all accounts✅ -Retweet🔁 -Tag a friend👥  Ends in 48 hours, good luck!🍀 https://t.co/RsyBvTzUU0",391,0
1376232337688649731,"2021-03-28T17:58:53Z","The first #NFTart from CryptoAnimeNFT series is now minted and available on #Rarible: ETH GIRL 01 https://t.co/QvOOfL6Tbp? #rarible #ethereum #nonfungible #digitalasset #nft via @rariblecom",54,0
1376232327244828672,"2021-03-28T17:58:50Z","@victorialamar $vxv vectorspace ai  So what's $vxv ? It's the Google for AI analysis of natural language data.  $alts $defi $dot $ltc $eth $bnb $btc $om $rfuel $ksm $gvt $sky $xvg $trx $rsr $link $ada $eos $aave $neo $zil $comp $icx $sol $tomo $kai $pols $maha $bondly  https://t.co/CikIgSzk28 https://t.co/jwSsTtEBZI",2,0
1376232323948158976,"2021-03-28T17:58:49Z","#BTC Price: $55825 #ETH Price: $1702 #LTC Price: $185  Next update in 10 minutes Last updated: 13:58:49.04",0,0
1376232322719158276,"2021-03-28T17:58:49Z","@thepinklmnd New Drop - Happiness is... Collection - Only 10 of Each! #rarible #opensea #cryptoart #nonfungible #digitalasset #nft #nftart #nftcollectors #nftcollector #artist #BTC #NFTcollectibles #NFTCommunity #Happiness #NFTs #NFTartists #digitalart #ETH #Ethereum 🔗https://t.co/UqZskSsR9r https://t.co/j6n171xwOC",4,0
1376232320898859015,"2021-03-28T17:58:49Z","@Paddy_Stash What is your method of doing so??? coinbase btc or eth to kucoin tel, binance btc or eth to kucoin tel???",0,0
1376232317069500421,"2021-03-28T17:58:48Z","🎁Huge Giveaway!🎁  1x @PlasmaAIO beta key 1x @MooseAlertsCA Monthly 1x @TrinityProxies 1GB Resi 1x @SneakerPings Monthly 1x @studiobreit $100 ETH cash prize  🚨Rules🚨 -Follow all accounts✅ -Retweet🔁 -Tag a friend👥  Ends in 48 hours, good luck!🍀 https://t.co/RsyBvTzUU0",391,0
1376232315379191811,"2021-03-28T17:58:47Z","The first #NFTart from CryptoAnimeNFT series is now minted and available on #Rarible: ETH GIRL 01 https://t.co/QvOOfL6Tbp? #rarible #ethereum #nonfungible #digitalasset #nft via @rariblecom https://t.co/1EpO5DeiLY",69,0
1376232301277896709,"2021-03-28T17:58:44Z","RT @TimpersHD: NOOO @Loopifyyy with the 3.4343 ETH!! Thank you SOOO much!! ❤️❤️😭 I'm speechless wow https://t.co/wrgoxGCV6T https://t.co/24…",214,0
1376232297800798213,"2021-03-28T17:58:43Z","RT @Jimmy_Wojeca: $RSR reclaimed first position in Google Play store in #Venezuela $BTC $ETH $ALTS https://t.co/G5W4gQgJeh",270,0
1376232297742098446,"2021-03-28T17:58:43Z","🎁Huge Giveaway!🎁  1x @PlasmaAIO beta key 1x @MooseAlertsCA Monthly 1x @TrinityProxies 1GB Resi 1x @SneakerPings Monthly 1x @studiobreit $100 ETH cash prize  🚨Rules🚨 -Follow all accounts✅ -Retweet🔁 -Tag a friend👥  Ends in 48 hours, good luck!🍀 https://t.co/RsyBvTzUU0",391,0
1376232295900848137,"2021-03-28T17:58:43Z","RT @NiftyReport: #cryptopunks floor price falling rather quickly. Now at 17 ETH. https://t.co/4uHffVH0Be",182,0
1376232295338627073,"2021-03-28T17:58:43Z","RT @attorney: Winner is @Pritti_puppet - message me your eth address",2,0
1376232290720841729,"2021-03-28T17:58:41Z","🎁Huge Giveaway!🎁  1x @PlasmaAIO beta key 1x @MooseAlertsCA Monthly 1x @TrinityProxies 1GB Resi 1x @SneakerPings Monthly 1x @studiobreit $100 ETH cash prize  🚨Rules🚨 -Follow all accounts✅ -Retweet🔁 -Tag a friend👥  Ends in 48 hours, good luck!🍀 https://t.co/RsyBvTzUU0",391,0
1376232289680699398,"2021-03-28T17:58:41Z","Let me get this: 1- #Eth runs on a poor technology resulting very high gas consumption for transactions (which is good for my region tbh) 2- #Ada is still a concept 3- #dogecoin is a meme Yet all have a higher market cap than #ZIL !!  It is inevitable for #Zilliqa 🚀",90,23
1376232284630646785,"2021-03-28T17:58:40Z","🎁Huge Giveaway!🎁  1x @PlasmaAIO beta key 1x @MooseAlertsCA Monthly 1x @TrinityProxies 1GB Resi 1x @SneakerPings Monthly 1x @studiobreit $100 ETH cash prize  🚨Rules🚨 -Follow all accounts✅ -Retweet🔁 -Tag a friend👥  Ends in 48 hours, good luck!🍀 https://t.co/RsyBvTzUU0",391,23
1376232279341723648,"2021-03-28T17:58:39Z","🎁Huge Giveaway!🎁  1x @PlasmaAIO beta key 1x @MooseAlertsCA Monthly 1x @TrinityProxies 1GB Resi 1x @SneakerPings Monthly 1x @studiobreit $100 ETH cash prize  🚨Rules🚨 -Follow all accounts✅ -Retweet🔁 -Tag a friend👥  Ends in 48 hours, good luck!🍀 https://t.co/RsyBvTzUU0",391,23
1376232278528045060,"2021-03-28T17:58:39Z","🚨🚨 MEGA 4/20 MOMENT GIVEAWAY 🚨🚨  Details in the image below. Follow @TheeHustleHouse as he will be dropping the free NFT tickets on his twitter.   RT This And Follow: @KennethBosak @CryptoStache @riceboy42069 @grantpat @Topshotbabe @Wades_ETH @TheeHustleHouse @NBATopShotEast https://t.co/XLoOTQUQg3",135,23
1376232277156450306,"2021-03-28T17:58:38Z","Meet DeLorean!🏎️🎸🌩️ Hurry to buy!  https://t.co/lrs4DmdpIL  One of the cars can be yours for free in 24 hours!  🙌follow me 👍like  🖖retweet  🤝🤝2 friends+ comment with your ETH wallet address.  I wish everyone good luck! #NFTs #NFT #NFTartist #nftart #nft_ru #NFTcollectibles https://t.co/3TgmokUlYK",186,23
1376232275315093504,"2021-03-28T17:58:38Z","🎁Huge Giveaway!🎁  1x @PlasmaAIO beta key 1x @MooseAlertsCA Monthly 1x @TrinityProxies 1GB Resi 1x @SneakerPings Monthly 1x @studiobreit $100 ETH cash prize  🚨Rules🚨 -Follow all accounts✅ -Retweet🔁 -Tag a friend👥  Ends in 48 hours, good luck!🍀 https://t.co/RsyBvTzUU0",391,23
1376232267484368897,"2021-03-28T17:58:36Z","🎁Huge Giveaway!🎁  1x @PlasmaAIO beta key 1x @MooseAlertsCA Monthly 1x @TrinityProxies 1GB Resi 1x @SneakerPings Monthly 1x @studiobreit $100 ETH cash prize  🚨Rules🚨 -Follow all accounts✅ -Retweet🔁 -Tag a friend👥  Ends in 48 hours, good luck!🍀 https://t.co/RsyBvTzUU0",391,23
1376232261062959105,"2021-03-28T17:58:34Z","🎁Huge Giveaway!🎁  1x @PlasmaAIO beta key 1x @MooseAlertsCA Monthly 1x @TrinityProxies 1GB Resi 1x @SneakerPings Monthly 1x @studiobreit $100 ETH cash prize  🚨Rules🚨 -Follow all accounts✅ -Retweet🔁 -Tag a friend👥  Ends in 48 hours, good luck!🍀 https://t.co/RsyBvTzUU0",391,23
1376232260077191168,"2021-03-28T17:58:34Z","RT @Jimmy_Wojeca: $RSR reclaimed first position in Google Play store in #Venezuela $BTC $ETH $ALTS https://t.co/G5W4gQgJeh",270,23
1376232259884351494,"2021-03-28T17:58:34Z","CryptoAnime #NFT #giveaway!  To be eligible to participate in this #NFTgiveaway you must:  1) Follow us, like our last 3 tweets and retweet them. 2) Tag 3 friends in the comments of this tweet 3) Post your $ETH #Ethereum address in comments  We'll pick a lucky winner on 15 April! https://t.co/OixVzImfrn",143,23
1376232255962628102,"2021-03-28T17:58:33Z","🎁Huge Giveaway!🎁  1x @PlasmaAIO beta key 1x @MooseAlertsCA Monthly 1x @TrinityProxies 1GB Resi 1x @SneakerPings Monthly 1x @studiobreit $100 ETH cash prize  🚨Rules🚨 -Follow all accounts✅ -Retweet🔁 -Tag a friend👥  Ends in 48 hours, good luck!🍀 https://t.co/RsyBvTzUU0",391,23
1376232252347199489,"2021-03-28T17:58:32Z","Just started minting some experiments and rarities only on @rariblecom, Relic is the first one, check it out here: https://t.co/Y0rcMejbzr #cryptoart #nft #eth https://t.co/aABr5lucY4",6,23
1376232248979128329,"2021-03-28T17:58:31Z","@cryptofrog202 Fucking wasn't able to buy... had a fat stack of ETh ready to pay 1k USD in gas with 49% slippage and I was only shown Error on uniswap my metamask never popped fuck offff",1,0
1376232248475799571,"2021-03-28T17:58:31Z","Only 3️⃣ days until the genesis launch of $SEFI, native governance token for @secret_swap and Secret #DeFi.  Today’s fact: bridges beyond $ETH and #BSC are already in development, including to the $DOT ecosystem and $XMR - plus #IBC will help Secret support the whole @cosmos 🌌 https://t.co/kSnXmayvxe",232,0
1376232248098267145,"2021-03-28T17:58:31Z","Bring it on !! This $POODL is going top the top 🔥  $HOGE $DOGE $GRUMPY  #bitcoin  #btc  #cryptocurrency #price #blockchain #time #crypto #money #news #coinbase #usd #buying #eth #ada https://t.co/d78lPGIoLZ",23,0
1376232247511121921,"2021-03-28T17:58:31Z","🎁Huge Giveaway!🎁  1x @PlasmaAIO beta key 1x @MooseAlertsCA Monthly 1x @TrinityProxies 1GB Resi 1x @SneakerPings Monthly 1x @studiobreit $100 ETH cash prize  🚨Rules🚨 -Follow all accounts✅ -Retweet🔁 -Tag a friend👥  Ends in 48 hours, good luck!🍀 https://t.co/RsyBvTzUU0",391,0
1376232242222149635,"2021-03-28T17:58:30Z","🎁Huge Giveaway!🎁  1x @PlasmaAIO beta key 1x @MooseAlertsCA Monthly 1x @TrinityProxies 1GB Resi 1x @SneakerPings Monthly 1x @studiobreit $100 ETH cash prize  🚨Rules🚨 -Follow all accounts✅ -Retweet🔁 -Tag a friend👥  Ends in 48 hours, good luck!🍀 https://t.co/RsyBvTzUU0",391,0
1376232240904957952,"2021-03-28T17:58:30Z","🎁Huge Giveaway!🎁  1x @PlasmaAIO beta key 1x @MooseAlertsCA Monthly 1x @TrinityProxies 1GB Resi 1x @SneakerPings Monthly 1x @studiobreit $100 ETH cash prize  🚨Rules🚨 -Follow all accounts✅ -Retweet🔁 -Tag a friend👥  Ends in 48 hours, good luck!🍀 https://t.co/RsyBvTzUU0",391,0
1376232237549514753,"2021-03-28T17:58:29Z","🎁Huge Giveaway!🎁  1x @PlasmaAIO beta key 1x @MooseAlertsCA Monthly 1x @TrinityProxies 1GB Resi 1x @SneakerPings Monthly 1x @studiobreit $100 ETH cash prize  🚨Rules🚨 -Follow all accounts✅ -Retweet🔁 -Tag a friend👥  Ends in 48 hours, good luck!🍀 https://t.co/RsyBvTzUU0",391,0
