"ID","created_at","text","like_count","rt_count"
1377848256164552704,"2021-04-02T04:59:58Z","If #BTC breaks $69,420 in APRIL 2021 I’ll give a random person my R8  Super SIMPLE: Like ✔️ RT ✔️ Follow ✔️ @JBTheCryptoKing  Drop eth addy ✔️ https://t.co/0ZTkU9CUuI",7875,3934
1377848243795681280,"2021-04-02T04:59:55Z","$ETH            vs         $2,000     ( •_•)                            ( ง )=o                      (x_x )     /︶\                                _/￣|__",5098,613
1377848237831372801,"2021-04-02T04:59:53Z","If #BTC breaks $69,420 in APRIL 2021 I’ll give a random person my R8  Super SIMPLE: Like ✔️ RT ✔️ Follow ✔️ @JBTheCryptoKing  Drop eth addy ✔️ https://t.co/0ZTkU9CUuI",7875,3934
1377848215089729537,"2021-04-02T04:59:48Z","RT @intocryptoverse: $2k $ETH",1899,131
1377848192281219073,"2021-04-02T04:59:42Z","Hey! For this week I have already bought CryptoArts for 4 ETH, but this is not enough !? Offer me your art: 1. Follow me 2. Like and retweet 3. Leave your art in the comment!  #nft #defi #NFTs #NFTartist #nftart #cryptoart #nftcollectors #nftcollector #Ethereum #bitcoin #crypto https://t.co/3HYNtONY8A",607,261
1377848184718860290,"2021-04-02T04:59:41Z","RT @flurtft: @binance scoreboard eth: 1 $2000: 0 🔥🔥🔥🚀🚀🚀",15,5
1377848182441271296,"2021-04-02T04:59:40Z","💧Twinci Airdrop 💧  🏆 Task:          ➕ $15 worth of  TRX                              ➕ $50 worth of TWIN  🔛 Airdrop Link &amp; Information: https://t.co/aV7t49dRDX  #cryptocurrency #Crypto #Bitcoin #Ethereum #ETH #Twinci #TWIN",1336,1777
1377848177563295746,"2021-04-02T04:59:39Z","$ETH            vs         $2,000     ( •_•)                            ( ง )=o                      (x_x )     /︶\                                _/￣|__",5098,613
1377848163269279751,"2021-04-02T04:59:35Z","If #BTC breaks $69,420 in APRIL 2021 I’ll give a random person my R8  Super SIMPLE: Like ✔️ RT ✔️ Follow ✔️ @JBTheCryptoKing  Drop eth addy ✔️ https://t.co/0ZTkU9CUuI",7875,3934
1377848160228270080,"2021-04-02T04:59:35Z","#Binance Adds New Trading Pairs:  🔸 $NAV/ $ETH @Navcoin  🔸 $RVN/ $TRY @Ravencoin  🔸 $THETA/ $EUR @Theta_Network  🔸 $XVG/ $BUSD @vergecurrency   https://t.co/uHjlEnLPAS",987,283
1377848153823662082,"2021-04-02T04:59:33Z","Today is my birthday and I decided drop first NFTart on  @withFND  Available 0.15 (ETH)  Hope you guys support me and my first daughter will say Hi around next week I'm very appreciate it   #NFT #nftart #nftcollector #NFTs #NFTcollection #NFTCommunity   https://t.co/kc9KwdL1yq https://t.co/tPGtIDFb94",7,1
1377848141467246592,"2021-04-02T04:59:30Z","An 11 ETH bid as come in for the 1 of 1 Frank Sinatra NFT!  The winner will also receive an exclusive physical print!  Bid here: https://t.co/sGg66vPIa1",82,16
1377848135968522240,"2021-04-02T04:59:29Z","Mark Cuban owns 30% ETH because it’s ‘closest to a true currency’ https://t.co/ARQMGb0wG5",0,0
1377848131182755841,"2021-04-02T04:59:28Z","$ETH            vs         $2,000     ( •_•)                          (•_• )     ( ง )ง                          ୧( ୧ )    /︶\                              /︶\",12645,1704
1377848129265967106,"2021-04-02T04:59:27Z","RT @JRNYcrypto: $60k #Bitcoin and $2k $ETH 👀",1935,149
1377848117219848202,"2021-04-02T04:59:24Z","$ETH            vs         $2,000     ( •_•)                            ( ง )=o                      (x_x )     /︶\                                _/￣|__",5098,613
1377848109913538561,"2021-04-02T04:59:23Z","RT @PeterLBrandt: There is no better day of the year to announce that I am going 10X my entire net worth into $ETH https://t.co/E3SSVQxDvE",1519,115
1377848103794061314,"2021-04-02T04:59:21Z","xSigma is a decentralized exchange for stablecoin swaps backed by a NASDAQ-listed corporation. In the first month since it was launched the DEX reached an impressive $112 million in total trading volume.  ##Bitcoin ##BTC ##ETH ##Ethereum #cryptocurrency https://t.co/5BCO2Hy5vO",0,0
1377848093656281089,"2021-04-02T04:59:19Z","RT @iamDCinvestor: if you guys could do everyone a solid and remove your $2k sell orders, it would really help me out  sincerely,  $ETH",510,24
1377848092846874626,"2021-04-02T04:59:19Z","@helloluis @MyCurioCards @travisformayor @adamamcbride @MadBitcoins Hi! I was not able to ask this question last Wednesday on the Bloom Live Session. What is your stance on Jimmy Song's comment about NFTs going bust once Eth collapses? https://t.co/dH2NmiCULy and https://t.co/gceZRWGtuS.  I would love to fully dive into NFTs that is why I ask...",0,0
1377848091366203392,"2021-04-02T04:59:18Z","Just dropped 'The Flirt' on @opensea. 😘https://t.co/pGnbZRLRLX #NFTdrops #NFTs #NFT #nftart #NFTCommunity #TheFlirt #BobbiBillard #NFTcollectibles #NFTartist #NFTmodel #cryptoart #ETH #DigitalArtist #digitalart #raredigitalart #ArtistOnTwitter #artwork #cryptoartist #artoftheday",23,6
1377848084953247746,"2021-04-02T04:59:17Z","ALERT!!🚨 #ETHEREUM BREAKING $2,000!!!!!!!!! 🚨 ⚠️  In Todays Video: -  $150,000 #Bitcoin PROFIT SO FAR!!!! -  BEST  #ALTCOINS 2021!!! -  #CRYPTO NEWS -  #ETH #BTC &amp; #ALTCOINS PRICE ANALYSIS  💰 WATCH THIS VIDEO 💰  ⬇️ LINK BELOW ⬇️ https://t.co/2AJZDXEHvB https://t.co/whX51YWoNg",76,19
1377848061481738240,"2021-04-02T04:59:11Z","$ETH            vs         $2,000     ( •_•)                            ( ง )=o                      (x_x )     /︶\                                _/￣|__",5098,613
1377848056519950342,"2021-04-02T04:59:10Z","💧Twinci Airdrop 💧  🏆 Task:          ➕ $15 worth of  TRX                              ➕ $50 worth of TWIN  🔛 Airdrop Link &amp; Information: https://t.co/aV7t49dRDX  #cryptocurrency #Crypto #Bitcoin #Ethereum #ETH #Twinci #TWIN",1336,1777
1377848048215228417,"2021-04-02T04:59:08Z","📣 #BCN1 Daily Digest 04/01/2021  📌 @TenseT_io developed Second-generation ETF  📌 @astronauttoken implemented KYC  📌 @Moma_Finance introduced Lending Pool  📌 @YIELDapp launced YLD_ETH SushiSwap Onsen Pool  📌 @saffronfinance_ Weekly Update https://t.co/rwhAuJNgyC",142,135
1377848046529167361,"2021-04-02T04:59:08Z","RT @MarketRebels: Mark Cuban: I own a lot of $ETH because I think it’s the closest to a true currency",773,97
1377848042053902337,"2021-04-02T04:59:07Z","400k $ETH flowed out from Coinbase a few days ago.   Speculative guess, institutions are now buying $ETH.  https://t.co/ix1AV5IFOm https://t.co/cYaaHkBgFf",2952,547
1377848027453419523,"2021-04-02T04:59:03Z","TosDis $DIS Microcap Gem 💎  $BTC $ETH $BNB $LINK $DOT $ADA https://t.co/9f1iGElmfY",1,0
1377848016682516496,"2021-04-02T04:59:01Z","I figured it’s about time that I share my #NFT artwork with the world. The first of many now available on @rariblecom  “For the Taste of It” https://t.co/zWQOe7imF5 🔥 #NFT #nftcollector #NFTcollectibles #NFTartist #nftart #cryptoartist $ETH https://t.co/Q5Xw4Hn35s",6,0
1377848015751241730,"2021-04-02T04:59:00Z","If #BTC breaks $69,420 in APRIL 2021 I’ll give a random person my R8  Super SIMPLE: Like ✔️ RT ✔️ Follow ✔️ @JBTheCryptoKing  Drop eth addy ✔️ https://t.co/0ZTkU9CUuI",7875,3934
1377848013754802177,"2021-04-02T04:59:00Z","RT @CryptoWizardd: This is it... majors start to move. Thats what we need for a real take off 👀🚀  $ETH $LTC $BNB  #Altseason2021",676,65
1377847999783702531,"2021-04-02T04:58:56Z","Someone called my crypto art 'OG'.  Proud of that.  Amazing to look back at this article about the top crypto art .. and there I am:  https://t.co/6hau55ol1R  #bitcoin #BTC #Ethereum #ETH @TopShotFanatic #NFT #Art #crypto",9,4
1377847970368868352,"2021-04-02T04:58:49Z","The whole market looks really good.  #btc $eth $dot all look great.  #bnb star performer in the top 10, but it's just still the most underpriced and has a major breakout underway. https://t.co/wNHPvEZidH",33,2
1377847968078852096,"2021-04-02T04:58:49Z","If #BTC breaks $69,420 in APRIL 2021 I’ll give a random person my R8  Super SIMPLE: Like ✔️ RT ✔️ Follow ✔️ @JBTheCryptoKing  Drop eth addy ✔️ https://t.co/0ZTkU9CUuI",7875,3934
1377847967693029376,"2021-04-02T04:58:49Z","$ETH            vs         $2,000     ( •_•)                            ( ง )=o                      (x_x )     /︶\                                _/￣|__",5098,613
1377847963834269696,"2021-04-02T04:58:48Z","(Crypto Tech Special)  Bitcoin (BTC), Litecoin (LTC), Ethereum (ETH) Outlook: Resistance in Focus after Bounces  #Bitcoin #Litecoin #Ethereum $BTCUSD $LTCUSD $ETHUSD   https://t.co/2f3fTMqIOA https://t.co/WY4e6w4nyz",13,7
1377847960248184834,"2021-04-02T04:58:47Z","$ETH            vs         $2,000     ( •_•)                          (•_• )     ( ง )ง                          ୧( ୧ )    /︶\                              /︶\",12645,1704
1377847941902315524,"2021-04-02T04:58:43Z","🟢 Swapped $497K in #USDC for #ETH on #1inch 🐉  🐬 ($1.09M) #0x7329c9 https://t.co/xBJpBTLByl",0,0
1377847934595784706,"2021-04-02T04:58:41Z","RT @sassal0x: $ETH is now 20% of the way to $10,000.",1477,132
1377847930850316288,"2021-04-02T04:58:40Z","500,000,000 SAFE BLUE MOON #AirDrop   First 500 people  🌕FLOW @safebluemoon  🌕RETWEET  🌕TAG 3 Friends 🌕Join us https://t.co/a7nRTdwNlS 🌕 Fill The Form https://t.co/sCVvLPP7Ih  #Airdrop #airdropalert #Airdrops #SAFEMOON #bsc #btc #bnb #eth #dot #cryptocurrencies #ToTheMoon https://t.co/DLTpF75hky",327,280
1377847928946057216,"2021-04-02T04:58:40Z","@CryptoGPO @FEGtoken @AltcoinDailyio FegEx is live and cheaper. Soon will have ETH/BNB Bridge, Staking, Pools, https://t.co/fIFASwLmhB (which has some interesting ties to Uniswap...just cheaper)",0,0
1377847916568645635,"2021-04-02T04:58:37Z","RT @sassal0x: I'm probably late to this but the top trending article on CNBC right now is @mcuban saying that $ETH is money 🔥 https://t.co/…",623,61
1377847911292284936,"2021-04-02T04:58:35Z","Biding on “TimeSpace” has been kicked off at .7 eth  @withFND #nft  Huge shout out to @coryvanlew   https://t.co/8lSPa44iZj",19,3
1377847907676659712,"2021-04-02T04:58:35Z","&gt;NFTs trending &gt;clicks on it out of curiousity &gt;all desperate techbros trying to make a quick buck and peddling it like a ponzi scheme. no artists worth their salt lurking &gt;buying artwork for 1 eth! show me you work! &gt;tfw 1 eth = 2kusd, but this guy is paying in funny money",1,0
1377847901359984641,"2021-04-02T04:58:33Z","Ethereum.  I own a lot of Ethereum because I think it’s the closest to a true currency - Mark Cuban.  ETH and DeFi will be on fire in Q2 2021.",1883,232
1377847888500334593,"2021-04-02T04:58:30Z","We will randomly collect ETH wallet addresses every day and arrange to send the airdrops of 100,000 NFTs until the end of Q2. Those who haven't received NFTs don't need to worry, because it will always be your turn. https://t.co/3APkHz0uO3",888,664
1377847886768005120,"2021-04-02T04:58:30Z","Announcement   At the time of launching ADONX, we had referenced its price against ETH. However, ETH value has risen very sharply. We at Adonx have decided to reference token value to USDT, the new price is $.20. People who have already bought will be compensated accordingly. https://t.co/KNRWA0d1kS",109,61
1377847883702099973,"2021-04-02T04:58:29Z","$AAVE $ADA $ALGO $ATOM $BCH $BNB $BSV $BTC $BTT $CAKE $COMP $DOGE $DOT $ELGD $ETH $IOTA $KSM $LINK $LTC $LUNA $MATIC $SUSHI $THETA $UMA $UNI $VET $ZIL  See the moron trying to project power...local shitcoin $ICX needs global coins like $DOT.. SOONER U ACCEPT, NICER IT WOULD BE. https://t.co/0sRoqpVXbs",0,0
1377847878002081792,"2021-04-02T04:58:27Z","How is eth going to go up to 1999 and then drop like that. Playing with my feeling man",1,0
1377847873883099138,"2021-04-02T04:58:26Z","@RyanSAdams #Ethereum #ETH and it’s culture: like central banking, a dictatorship and centralized authority, A Premine , rich get richer, no transparency, no monetary policy, promoting scams and Ponzis , house of cards with so  many token layers , a blockchain that can be manipulated .",0,0
1377847869504245760,"2021-04-02T04:58:25Z","Tada we warn about it $eos $link $dot $qtum $band $xlm $xrp $fil $mana $eth $bnb #eos #alts #Altseason2021   Don't miss our tips it is unwealthy for you... https://t.co/d7SVdZPZ5J",1,1
1377847863003152386,"2021-04-02T04:58:24Z","RT @QuintenFrancois: $ETH to $2500 in April or I'm giving away 0.3 $ETH to someone who retweets this.",4150,6184
1377847862835351552,"2021-04-02T04:58:24Z","400k $ETH flowed out from Coinbase a few days ago.   Speculative guess, institutions are now buying $ETH.  https://t.co/ix1AV5IFOm https://t.co/cYaaHkBgFf",2952,547
1377847850277597185,"2021-04-02T04:58:21Z","If #BTC breaks $69,420 in APRIL 2021 I’ll give a random person my R8  Super SIMPLE: Like ✔️ RT ✔️ Follow ✔️ @JBTheCryptoKing  Drop eth addy ✔️ https://t.co/0ZTkU9CUuI",7875,3934
1377847834687406085,"2021-04-02T04:58:17Z","@saf_coin Saf Gona 💥 Boom   My Eth Address  0x2040c047915BB9346332352921B38f6B81FCdE0E",0,0
1377847816576360448,"2021-04-02T04:58:13Z","$MBL done 131% Buy at 0.027$ target 0.05$ 👉 Join Channel: https://t.co/Cg2lD5ExP8  $BTC $ETH #NFT $PERL $ENJ $FLOW $THETA #BSC  $REEF $LUNA $SAND $AXS $TVK $HOGE $CHZ $STX $ROSE $TROY $ONE $CERL $IRIS $ANC $ADA $DIA $XRP $DOGE $ATOM $LUNA $ZCX $BNB $WABI $LTO $CVC https://t.co/QdQIT65A8Y",1,1
1377847808296902661,"2021-04-02T04:58:11Z","@bosses_da @CryptoFinally $Lina It's Crazy Ecosystem with fantastic Product and Service.   I think LINA will be pass SNX bcz SNX using ETH network only and currently the ETH gas fees is tooooo high.  But LINA have Cross chain technology with BCS network. So Gas fee is Lower then ETH network.  LINA  best🚀",2,1
1377847798217986048,"2021-04-02T04:58:08Z","After 6 weeks of consoldiation. $BTC dom is breaking down. This next leg is in area where the rallies should see over-extensions on the way up (aka most selling too soon)   $ETH $SOL $LTC https://t.co/r501fgm9DU",108,13
1377847784842297344,"2021-04-02T04:58:05Z","RT @Coin98Analytics: Top coins are getting the most attention on Twitter now.  $BTC $DOGE $ETH $CAKE $POLS $RARI $ADA $LINK $BNB $MANA http…",761,181
1377847780400459781,"2021-04-02T04:58:04Z","RT @girlgone_crypto: 60k #bitcoin and 2k $ETH 🔥",2175,221
1377847774603960323,"2021-04-02T04:58:03Z","#Nessie #608 has emerged from the depths of Loch Ness and is now minted on the #ETH blockchain via @opensea  PRICE: Ξ0.085  https://t.co/1CcjgrNAUO  #Nessies #NFT #NFTs #NFTCommunity #Crypto #ETH #CryptoPunks #DigitalArt https://t.co/4bZxDWTZzv",34,8
1377847771500253184,"2021-04-02T04:58:02Z","@westcoastbill @tyler This is amazing #ETH in 60 days has 51%  $DAG has 526% in that same time🤔 and will 50x from here. @Conste11ation has solved scalability and eliminated fees with is revolutionary #L_0  $npxs $eth $ada $ankr $klv $hot $icx  $duck $core $xmr $ogn $skl $one $vra  $rari $zec https://t.co/ubgWPbMJig",23,6
1377847769948418051,"2021-04-02T04:58:02Z","@SisterSquad3DFS @staystacced @TheFirstMint @Wades_ETH @mbl267_NFT @jonboybeats @LuckyTraderHQ @OwnTheMomentNFT @MomentRanks @topshotanalytix The MGLEs are coveted though, so I’d expect collectors to pay a premium for these two particular moments over similar options. If the KD moment did rise in price due to unexpected scarcity, these moments would likely track those gains as well.",2,0
1377847759512891393,"2021-04-02T04:57:59Z","RT @CryptProfit: We're goint to break the last ATH #BTC #BNB #ETH #LINK #EOS #XTZ #ADA",2,1
1377847749383614466,"2021-04-02T04:57:57Z","$ETH/USD  Still moving literally almost 1:1 to $BTC before its $20k breakout   Fractal aside, $2,500 is just the UPPER RANGE of this consolidation  The real breakout happens after we get above that 😳 https://t.co/HOc8YoFnpz https://t.co/xRnS5OxK7p",19,3
1377847748926394372,"2021-04-02T04:57:57Z","apart from that.. I personally think april should be a red month for btc overall... if we are going according to history or whatever u younglings call it...  Sideways/chop is probably the best for you alts  Eth tho..",5,0
1377847748091858945,"2021-04-02T04:57:56Z","Dont be too excited there is still another dumb coming for a big move stay cautious....NOT INVESTMENT ADVICE $BTC $ETH $DOT $LINK",1,0
1377847741875957763,"2021-04-02T04:57:55Z","|￣￣￣￣￣￣￣￣￣￣￣￣￣|    $ETH is back over $2,000 |＿＿＿＿＿＿＿＿＿＿＿＿＿|                      (\__/)  ||                      (•ㅅ•) ||                      / 　 づ",1556,185
1377847732996612100,"2021-04-02T04:57:53Z","|￣￣￣￣￣￣￣￣￣￣￣￣￣|    $ETH is back over $2,000 |＿＿＿＿＿＿＿＿＿＿＿＿＿|                      (\__/)  ||                      (•ㅅ•) ||                      / 　 づ",1556,185
1377847710464802817,"2021-04-02T04:57:48Z","$ETH            vs         $2,000     ( •_•)                            ( ง )=o                      (x_x )     /︶\                                _/￣|__",5098,613
1377847700117422081,"2021-04-02T04:57:45Z","$ETH            vs         $2,000     ( •_•)                          (•_• )     ( ง )ง                          ୧( ୧ )    /︶\                              /︶\",12645,1704
1377847698892595202,"2021-04-02T04:57:45Z","💧Twinci Airdrop 💧  🏆 Task:          ➕ $15 worth of  TRX                              ➕ $50 worth of TWIN  🔛 Airdrop Link &amp; Information: https://t.co/aV7t49dRDX  #cryptocurrency #Crypto #Bitcoin #Ethereum #ETH #Twinci #TWIN",1336,1777
1377847692001427456,"2021-04-02T04:57:43Z","RT @LilMoonLambo: $ETH JUST BROKE $2,000 🚀🚀🚀  https://t.co/5PYqIhetPY",221,30
1377847692001374209,"2021-04-02T04:57:43Z","If #BTC breaks $69,420 in APRIL 2021 I’ll give a random person my R8  Super SIMPLE: Like ✔️ RT ✔️ Follow ✔️ @JBTheCryptoKing  Drop eth addy ✔️ https://t.co/0ZTkU9CUuI",7875,3934
1377847680257384448,"2021-04-02T04:57:40Z","@DonCryptoDraper Sold all my $BTC 2 days ago for $ETH and still with my $DOT and some other $ALTS bag, I’m ready for what’s coming, now or never!  😌🚀",3,0
1377847675920523265,"2021-04-02T04:57:39Z","If #BTC breaks $69,420 in APRIL 2021 I’ll give a random person my R8  Super SIMPLE: Like ✔️ RT ✔️ Follow ✔️ @JBTheCryptoKing  Drop eth addy ✔️ https://t.co/0ZTkU9CUuI",7875,3934
1377847675559763970,"2021-04-02T04:57:39Z","RT @JLHeartsCrypto: $ETH in BUY ALL DIPS MODE. It's a good mode. https://t.co/sG9TjOX9gX",6,2
1377847673433251849,"2021-04-02T04:57:39Z","#xrp eth is going to make a new ATH and rise to 5000$ soon. Look at #XRP it’s gonna be epic!",27,1
1377847671604584452,"2021-04-02T04:57:38Z","@ApexDsgn That was good! But you should definitely come check us out over at @GoldmemeNFT this is no joke! Giveaway for $1500 in eth 👀🔥",0,0
1377847664755236864,"2021-04-02T04:57:37Z","RT @westcoastbill: ETH just hit $2000!!!  congrats everyone!!!",2177,169
1377847658551840768,"2021-04-02T04:57:35Z","Coin98Analytics: Top coins are getting the most attention on Twitter now.  $BTC $DOGE $ETH $CAKE $POLS $RARI $ADA $LINK $BNB $MANA https://t.co/SQm6Zd8aI4",2,0
1377847633536933892,"2021-04-02T04:57:29Z","Top coins are getting the most attention on Twitter now.  $BTC $DOGE $ETH $CAKE $POLS $RARI $ADA $LINK $BNB $MANA https://t.co/C4h2fKbC3G",761,181
1377847628071727107,"2021-04-02T04:57:28Z","I have 0 ETH to spend on #NFTART today but I am giving away bunch of #CBANotShots #Cat #Basketball #NFT cards today! Drop your WAX wallet and retweet. https://t.co/Beqsw0nPUO https://t.co/8vn3K6Ftnl",95,102
1377847611223375873,"2021-04-02T04:57:24Z","🚀 Compound position Boosted  🏦 27.93k DAI borrowed 💵💵 📈 14.01 ETH bought 💳 https://t.co/AYWRUP4XOV",0,0
1377847607062487044,"2021-04-02T04:57:23Z","Don't be a fool this April 1st Get in on our...  🚀Pre-sale in April #giveaways! 🌟20 x (100 #POPO) (worth$100)random winners   ✅RT and like this Tweet ✅TAG 3 Friends ✅Comment with Link and #ETH Wallet address #POPO #Poplink 🚀🚀🚀 https://t.co/PZv72o1Mxx",1028,810
1377847597340053506,"2021-04-02T04:57:21Z","Buy $ETH. https://t.co/bRWH0M6z7a",1,0
1377847590746644481,"2021-04-02T04:57:19Z","@Bitcoinomist $ETH BABY!",0,0
1377847580101644288,"2021-04-02T04:57:16Z","#Neo retest 55$ again again again.  120 $ soon 😎  #Binance #BITCOIN #eth #ethereum #tron #trx #doge #dogecoin",2,0
1377847578843250688,"2021-04-02T04:57:16Z","Nothing to see here. Just a $1b institutional purchase of $eth #ethereum. Can it scale ? https://t.co/PaVUhaa2SW",2,0
1377847570798673922,"2021-04-02T04:57:14Z","Gonna spend about 0.1 ETH on starting bid on someone's art work. might do it randomly from my feeds but if you want you can drop your NFT link below and I might pick it from the comments.  I also will retweet the bests 🔥 #NFT #NFTs #NFTCommunity #nftcollectors https://t.co/EcC5gnWvAF",5,3
1377847558928805890,"2021-04-02T04:57:11Z","Why so much action when I’m asleep 😅 $ETH - $2k $BTC - $60k ... LFG 🚀🚀🚀",1,0
1377847548996558851,"2021-04-02T04:57:09Z","400k $ETH flowed out from Coinbase a few days ago.   Speculative guess, institutions are now buying $ETH.  https://t.co/ix1AV5IFOm https://t.co/cYaaHkBgFf",2952,547
1377847541656608769,"2021-04-02T04:57:07Z","@binance #Fnt is gold 😎 feb price 0.00000045 #eth now is 0.00000133 eth    FALCON IS ERC1155  HAVE two coin ( #FNT , #FNC ) IF HODL YOU REceived  40% per years  Tested Fnc wallet 😍 #yourchoice $defi $fnt $prvicy #farming #ntf #voucher  @Falcon_SBS",0,0
1377847539194490888,"2021-04-02T04:57:07Z","Announcement   At the time of launching ADONX, we had referenced its price against ETH. However, ETH value has risen very sharply. We at Adonx have decided to reference token value to USDT, the new price is $.20. People who have already bought will be compensated accordingly. https://t.co/KNRWA0d1kS",109,61
1377847534891249668,"2021-04-02T04:57:06Z","Sold for 5 eth omfg thank you guys soo much this is incredible. I’ll be returning the favor and buying some awesome art from you guys very soon! 😭😁😁 https://t.co/5Lul293sZD",106,6
1377847524619337728,"2021-04-02T04:57:03Z","🐾Join our growing communities 🐾  Telegram: https://t.co/Rlmsb1kAoM Discord: https://t.co/COIEOjQLYB Blog: https://t.co/Jrwwdohmad Forum: https://t.co/o9rQOrigRo Governance (ETH): https://t.co/AOmG6209ZW Governance (BSC): https://t.co/A35ASkXXlf  $KANGAL #bsc #BinanceSmartChain",47,22
1377847521947512832,"2021-04-02T04:57:03Z","RT @binancian: #BNB #BTC Shorts are getting liquidated left and right while #ETH liquidating Long positions 🤦🏻‍♂️🤷🏻‍♂️ https://t.co/L74PJL8…",13,4
1377847518399242243,"2021-04-02T04:57:02Z","Ethereum.  I own a lot of Ethereum because I think it’s the closest to a true currency - Mark Cuban.  ETH and DeFi will be on fire in Q2 2021.",1883,232
1377847496332967941,"2021-04-02T04:56:56Z","RT @iamjosephyoung: $ETH $2,000.  That's all.",1549,130
1377847478163283968,"2021-04-02T04:56:52Z","If #BTC breaks $69,420 in APRIL 2021 I’ll give a random person my R8  Super SIMPLE: Like ✔️ RT ✔️ Follow ✔️ @JBTheCryptoKing  Drop eth addy ✔️ https://t.co/0ZTkU9CUuI",7875,3934
