"ID","created_at","text","like_count","rt_count"
1376519502372855819,"2021-03-29T12:59:58Z","💧Roku Network Airdrop 💧  🏆 Task:          ➕  15 ROK (~$5)  👨‍👩‍👧 Referral:   ➕  3 ROK (~$1)  🔛  Airdrop Link &amp; Information: https://t.co/YhvsOcfEbH  #cryptocurrency #Crypto #Bitcoin  #BSC #BinanceSmartChain #Ethereum #ETH #Airdrop #bounty #ROK #RokuCoin #RokuNetwork",3811,1
1376519499008987138,"2021-03-29T12:59:57Z","💧Poplink Oracles Airdrop 💧  🏆 Task:          ➕  50 POPO (~$50)  👨‍👩‍👧 Referral:  ➕  15 POPO (~$15)  🔛  Airdrop Link &amp; Information: https://t.co/DS6g34KhFp  #cryptocurrency #Crypto #Bitcoin  #BSC #BinanceSmartChain #Ethereum #ETH #Airdrop #bounty #POPO #Poplink",6787,1
1376519476951269378,"2021-03-29T12:59:52Z","@WalshWealthVC  @CryptoGodJohn   WE LONGED $YFI  ENTRY: $33,600(DCA)  @tmv_crypto  GAVE the ENTRY in the Discord Group  Entry Shared For 100% Transparency  SIGNUPS RE-OPEN IN 1 HOUR!  https://t.co/oLrmU3NIDI  #Bitcoin  $BTC $ETH  $LINK $XRP  $LTC https://t.co/CQSib6Gudv",2,0
1376519470185844736,"2021-03-29T12:59:50Z","@MultigrainB @HaruTheNinja78 @TylerDurden @Visa ETH 2.0 will be released too late. $Matic #Polygon already works perfect as layer 2. So that will be used soon i think ( and will be used forever).",9,3
1376519466750672897,"2021-03-29T12:59:50Z","💧DogeSwap Airdrop💧  🏆 Task:          ➕   7 DOG  👨‍👩‍👧 Referral:     ➕   2 DOG  🔛  Airdrop Link &amp; Information: https://t.co/3rlt9kiu64  #cryptocurrency #Crypto #Bitcoin  #DogeSwap #Ethereum #ETH #Airdrop #bounty #Doge #AirdropStario",4198,3
1376519457682546701,"2021-03-29T12:59:47Z","The DEX @FinanceChainge is set to launch on the @FUSIONProtocol network with over a million users on the protocols waitlist. This decentralized exchange aims to innovate on traditional models through leveraging the Fusion Network.  #BSC #BTC #ETH #BNB  https://t.co/xx55YiGfm3",21659,3
1376519457401618440,"2021-03-29T12:59:47Z","🤑One of the biggest flips in the history of #digital assets on🤑 @SuperRare  🔥From .7 #Eth to 1000 Eth in 3 Years🚀🚀  Congratulations @XCOPYART 🎉 &amp; @punk4156 🤩  #NFT #NFTs #blockchain #Crypto #art #cryptoart  https://t.co/JlcYOxAd5K https://t.co/3o7dOKbOB4",121,3
1376519456294244359,"2021-03-29T12:59:47Z","CMON BRO I JUST NEED 200 MORE USD -&gt; ETH BRO PLEASE BRO CMON BRO !!!",7,1
1376519453152710659,"2021-03-29T12:59:46Z","💧Roku Network Airdrop 💧  🏆 Task:          ➕  15 ROK (~$5)  👨‍👩‍👧 Referral:   ➕  3 ROK (~$1)  🔛  Airdrop Link &amp; Information: https://t.co/YhvsOcfEbH  #cryptocurrency #Crypto #Bitcoin  #BSC #BinanceSmartChain #Ethereum #ETH #Airdrop #bounty #ROK #RokuCoin #RokuNetwork",3811,1
1376519449679958028,"2021-03-29T12:59:45Z","RT @zetta_icarus: Perfect time to buy some $ZETH and start mining that $ETH 💫⛏️  https://t.co/WQqTbUhBFe  #BSC",155,1
1376519439089336324,"2021-03-29T12:59:43Z","@Fxhedgers Bitcoin (BTC) and Ethereum (ETH) Pop 4% as Visa (V) Says Will Allow Payment Settlements Using Cryptocurrency https://t.co/wuf92A2CCl via @Street_Insider (BTC/USD $58K)",0,0
1376519432529403912,"2021-03-29T12:59:41Z","Visa Picks Ethereum Over Facebook Libra to Settle Payments; ETH/USD Up  #crypto.com #ethbtc #ethereum #ethusd #stablecoin #tether #usdc... https://t.co/fMf6zmJlxU",15,0
1376519432521056258,"2021-03-29T12:59:41Z","@ngonart Happiness is... Collection - Only 10 of Each! #rarible #opensea #cryptoart #nonfungible #digitalasset #nft #nftart #nftcollectors #nftcollector #artist #BTC #NFTcollectibles #NFTCommunity #Happiness #NFTs #NFTartists #digitalart #ETH #Ethereum #Bitcoin  🔗https://t.co/UqZskSsR9r https://t.co/pX7zKSr3fv",5,0
1376519430457335813,"2021-03-29T12:59:41Z","🎁 Defiqa (DFI) Airdrop : 💰 Reward : 3 DFI ($45) 👥 Referral : 0.6 ($9) 🏛 Market : Listed on Probit soon  🎇 Start Bot : https://t.co/DZUjqnJLgA  ➡️ Join Telegram Group &amp; Channel ➡️ Follow Twitter &amp; Reweet post ➡️ Subscribe YouTube ➡️ Submit ETH address ✅ Done",0,0
1376519426166595585,"2021-03-29T12:59:40Z","RT @Anthony00439858: Claim free ETH every 30 mins  https://t.co/ZwjU3cDVT7  1. Retweet + Like  #CTBot Adrop Ram 0.19 TRX 35",35,0
1376519420995010566,"2021-03-29T12:59:39Z","RT @zetta_icarus: Perfect time to buy some $ZETH and start mining that $ETH 💫⛏️  https://t.co/WQqTbUhBFe  #BSC",155,0
1376519416658206722,"2021-03-29T12:59:38Z","RT @NFTFusion: What’s your ETH address?  No questions, just drop it below 👇 #NFT #NFTs",1953,0
1376519414456016901,"2021-03-29T12:59:37Z","@ayodhya_refugee @RokoMijicUK Or maybe Roko will skip straight to Eth maximalism? 🤭",0,0
1376519409884270596,"2021-03-29T12:59:36Z","💧Roku Network Airdrop 💧  🏆 Task:          ➕  15 ROK (~$5)  👨‍👩‍👧 Referral:   ➕  3 ROK (~$1)  🔛  Airdrop Link &amp; Information: https://t.co/YhvsOcfEbH  #cryptocurrency #Crypto #Bitcoin  #BSC #BinanceSmartChain #Ethereum #ETH #Airdrop #bounty #ROK #RokuCoin #RokuNetwork",3811,0
1376519406813995012,"2021-03-29T12:59:35Z","I'm sharing my exact plan for $BTC, $ETH, $VET, $ADA, etc., in today's newsletter.   It'll be out later today.  Get access here:   https://t.co/dwkv0vxBU6",5770,0
1376519399776002051,"2021-03-29T12:59:34Z","register to minds....post anything you want and earn eth and token.....  1. Retweet + Like  #CTBot Adrop Ram 100 TATM 10 https://t.co/e9kxlak8Bo",12,0
1376519395749548043,"2021-03-29T12:59:33Z","@WalshWealthVC  @CryptoGodJohn   WE LONGED $ETH  ENTRY: $1710(DCA)  @Shourya_34 Gave the ENTRY in the Discord Group  Entry Shared For 100% Transparency  SIGNUPS RE-OPEN IN 1 HOUR!  https://t.co/oLrmU3NIDI  #Bitcoin  $BTC $ETH  $LINK $XRP  $LTC https://t.co/LPHKFr3PF1",3,0
1376519384206745607,"2021-03-29T12:59:30Z","🚀 Pluto Coin  Airdrop 🚀 Rate: ⭐⭐⭐⭐ ⭐ 🎁 Reward:  8822 PLUT ($1500) 👫 Referral: 40.5 PLUT  ($7)  🤖Start Bot here   https://t.co/x5JZchojO8  ⛂ Join Telegram group and channel. ⛂ Follow twitter &amp; retweet  ⛂ Submit ETH address and details.",6005,0
1376519383963594756,"2021-03-29T12:59:30Z","@Snarrrky CyberRexes is a set of 10.000 unique 1/1 Rexes with different levels of rarity.   Price 0.01 ETH   Each Rex can be assigned a unique name by the buyer for additional scarcity.  Mint yours at our website: ( limit 20 per tx ) https://t.co/IOjL6qNx7K https://t.co/wl98KZO4PF",1,1
1376519383783198727,"2021-03-29T12:59:30Z","RT @intocryptoverse: $ETH under $2k will be only a distant dream in a few years",2303,1
1376519381774131201,"2021-03-29T12:59:29Z","RT @TeddyCleps: ethereum wants to takeover the world and you know it.  $ETH https://t.co/1HTcDtQjWT",389,1
1376519377516965892,"2021-03-29T12:59:28Z","RT @MacroCRG: Send the $ETH. https://t.co/Fs1sRggKWh",532,1
1376519366884397061,"2021-03-29T12:59:26Z","@CathieDWood Bitcoin (BTC) and Ethereum (ETH) Pop 4% as Visa (V) Says Will Allow Payment Settlements Using Cryptocurrency https://t.co/wuf92A2CCl via @Street_Insider (BTC/USD $58K)",0,0
1376519357606604804,"2021-03-29T12:59:24Z","The #bistroo stickers and GIF's over at @GIPHY passed 1 million views!🚀Type in Bistroo on your GIF keyboard or sticker section and try them yourself!  $BIST #UnleashTheBist #Token #ERC20 $ETH $BTC #cryptocurrencies https://t.co/MTLinBVyoW",47,0
1376519356012756998,"2021-03-29T12:59:23Z","RT @undercoverBobo: Yep, I'm expecting April to be all about alts $eth https://t.co/9UbbeOTq1f",0,0
1376519354330779650,"2021-03-29T12:59:23Z","$FLM Moving to 98 Cent target!  Follow for more analysis.🥳  #FLM #FLMUSDT #flamingo   #NEO #DeFi #cryptocurrency #CryptoNews #ICX #STORJ #ANKR #CELR #XVS #SAND #ETH #BTC #bitcoin #altcoin #trading #Holochain #ADA #BTT https://t.co/wpmGzOLAf2",8,1
1376519350287491076,"2021-03-29T12:59:22Z","@WalshWealthVC  @CryptoGodJohn   WE LONGED $IOTA  ENTRY: $1.40(DCA)  @CryptoAmaru  Our Rising Star Shared the Setup in the Discord  Entry Shared For 100% Transparency  SIGNUPS RE-OPEN IN 1 HOUR!  https://t.co/oLrmU3NIDI  #Bitcoin  $BTC $ETH  $LINK $XRP  $LTC https://t.co/XmXRjmilFB",1,0
1376519345661116418,"2021-03-29T12:59:21Z","💧Roku Network Airdrop 💧  🏆 Task:          ➕  15 ROK (~$5)  👨‍👩‍👧 Referral:   ➕  3 ROK (~$1)  🔛  Airdrop Link &amp; Information: https://t.co/YhvsOcfEbH  #cryptocurrency #Crypto #Bitcoin  #BSC #BinanceSmartChain #Ethereum #ETH #Airdrop #bounty #ROK #RokuCoin #RokuNetwork",3811,0
1376519342322409472,"2021-03-29T12:59:20Z","🚀Over 5K $CWS spent in #NFT Brawl in just 4 days!  💰These $CWS will later be redistributed to the community via our #Paywave function.  🍻You can't afford to miss out! Join the movement! https://t.co/jGrQgKkFRF   #BSC #CWS #NFT #ETH #Gaming  #CTBot Adrop RAM 0.5 TRX 40 https://t.co/GwCTO8XPWR",43,0
1376519342011994119,"2021-03-29T12:59:20Z","Hey :) My second minting! This Piece for Orchestra has an insteresting story. so check this out~! and retweet pls :) hope you enjoy it.  Available on https://t.co/nxnOxf9656  #nft #nfts #nftart #nftarts #seo_bobin #nftcollector #opensea #etherium #NFTCommunity",37,0
1376519337809379334,"2021-03-29T12:59:19Z","@cryptl_eth @doodleguydraws @rariblecom I am very happy, and no they are never for sale. ❤💙💜 🤣",2,0
1376519336236511233,"2021-03-29T12:59:18Z","💧Roku Network Airdrop 💧  🏆 Task:          ➕  15 ROK (~$5)  👨‍👩‍👧 Referral:   ➕  3 ROK (~$1)  🔛  Airdrop Link &amp; Information: https://t.co/YhvsOcfEbH  #cryptocurrency #Crypto #Bitcoin  #BSC #BinanceSmartChain #Ethereum #ETH #Airdrop #bounty #ROK #RokuCoin #RokuNetwork",3811,0
1376519333740969988,"2021-03-29T12:59:18Z","Here are the $bnb and $cake #Giveaway winners!   @CryptoTankGirl 10 cake  @lechcrypto .5 bnb  @CKinofler 10 cake  @simonedawndk .5 bnb   Congrats! DM here or on telegram to claim your prize and help show some love and retweet! 🙏🏻  $libra $bsc $eth $btc $uni $sushi $dot $dew",7,0
1376519330830016514,"2021-03-29T12:59:17Z","RT @CryptoBethany: Imagine if @Mastercard just chose #BinanceSmartChain + $bnb  And was instantly faster &amp; better than whatever @Visa is do…",185,0
1376519325457190920,"2021-03-29T12:59:16Z","In reality, $BNB Binance smart chain community are just trying to bite the hand that feed them which is $ETH , We don,t need all these, Live and let Live. The blockchain space is bigger than any of us. I respect all ecosystem.  $CAKE $HOT $OMI $ZERO $BSC #VISA #Ethereum",12,0
1376519324215676932,"2021-03-29T12:59:16Z","RT @WhaleTrades: 📈💶$1,000,561 $ETH LONGED @$1781.3 [29/03/21 12:53:58] 🏪FTX | ETH-PERP  🗣️*primal screams of agony* - IronMan4Eva",6,0
1376519323108380674,"2021-03-29T12:59:15Z","RT @MacroCRG: Send the $ETH. https://t.co/Fs1sRggKWh",532,0
1376519320470048773,"2021-03-29T12:59:15Z","in some realism, this probably didn't do much more damage than ETH already was gonna do, environment wise. (that's not an excuse - we need to stop using this shit!) so in the end a bunch of dumbasses got scammed and for the outsiders it's really funny, and...that's it i think",0,0
1376519316447760392,"2021-03-29T12:59:14Z","💧DogeSwap Airdrop💧  🏆 Task:          ➕   7 DOG  👨‍👩‍👧 Referral:     ➕   2 DOG  🔛  Airdrop Link &amp; Information: https://t.co/3rlt9kiu64  #cryptocurrency #Crypto #Bitcoin  #DogeSwap #Ethereum #ETH #Airdrop #bounty #Doge #AirdropStario",4198,0
1376519309338497028,"2021-03-29T12:59:12Z","Looks like settlement on ETH ... for now. Must be batch settlement.",0,0
1376519308000497669,"2021-03-29T12:59:12Z","@ARKInvest Bitcoin (BTC) and Ethereum (ETH) Pop 4% as Visa (V) Says Will Allow Payment Settlements Using Cryptocurrency https://t.co/wuf92A2CCl via @Street_Insider (BTC/USD $58K)",0,0
1376519301839130625,"2021-03-29T12:59:10Z","#11: Purple ETH https://t.co/TM51vqOP4L",0,0
1376519293161107460,"2021-03-29T12:59:08Z","Visa Picks #ethereum Over Facebook Libra to Settle Payments; ETH/USD Up #cryptocom #ethbtc #crypto.com #ethusd #stablecoin #tether #USDC #visa https://t.co/vDqarkYT07 https://t.co/mhetFsCGae",1,0
1376519289470091270,"2021-03-29T12:59:07Z","Waiting $eth https://t.co/PTiAUa1mts",0,0
1376519276715200516,"2021-03-29T12:59:04Z","Well done, Metroids!  Our social ranking from @LunarCRUSH is now in the top 150 of all #crypto projects in the world. Keep the momentum going by telling others how excited you are about #Metrix! Let's make this an incredible year together.  $MRX #altcoins #socialmedia $btc $eth https://t.co/ZHb78vdBhZ",104,0
1376519272814555138,"2021-03-29T12:59:03Z","My crypto bags by weight, DYOR:  $BTC $ETH $FTT $SOL $LINK $SUSHI $RAY $SRM",3,0
1376519270637608966,"2021-03-29T12:59:03Z","Visa Picks Ethereum Over Facebook Libra to Settle Payments; ETH/USD Up https://t.co/4Smo6PvrkB https://t.co/YBof7Gq7Jz",0,1
1376519267420528641,"2021-03-29T12:59:02Z","Get ready for $xdce total burn.  Now the #xinfin team will announce one by one BIG news about $xdc #xdc after 31th march!  #bitcoin #eth #xrp #xlm #bnb #cardano #trx #doge #usdt #crypto #visa #corda",107,24
1376519267412176902,"2021-03-29T12:59:02Z","#Ethereum #cryptocom #ethbtc #ethereum Visa Picks Ethereum Over Facebook Libra to Settle Payments; ETH/USD Up https://t.co/vOdIuJlDzb",0,0
1376519266652942337,"2021-03-29T12:59:02Z","💧Nodeseeds @Airdrop 💧  🏆 Task:          ➕  $100 worth of ETH for 6 participants.  🔛  Airdrop Link &amp; Information: https://t.co/t88VoRiI8w  #cryptocurrency #Bitcoin #Crypto #Ethereum #ETH #Airdrop #bounty #NDS #Nodeseeds #DEFI #Presale",1193,0
1376519265931644937,"2021-03-29T12:59:02Z","NFT GIVEAWAY !!! This #NFT - The Revenant Earth https://t.co/7rC7rt3M0h  One Winner (choose randomly)  1. Like and Retweet this post end this post https://t.co/wHixuZeqFq 2. Follow @dayman_nft 3. Mark 3 friends and write your eth wallet   #nft #cryptoart #Ethereum #giveaway #nfts https://t.co/v38zZYtLL4",75,0
1376519258478411778,"2021-03-29T12:59:00Z","1️⃣ Reasons why I'm bullish on $SWTH:  Switcheo's Tradehub is connecting many blockchain through @PolyNetwork2 cross chain solution.   A few of the chains: $ETH, #BSC, #NEO, #Zilliqa   @demexchange is Switcheo's front end UI that runs on Tradehub   #Blockchain #DeFi https://t.co/O8yGQI50xF",101,0
1376519257899499529,"2021-03-29T12:59:00Z","💧Poplink Oracles Airdrop 💧  🏆 Task:          ➕  50 POPO (~$50)  👨‍👩‍👧 Referral:  ➕  15 POPO (~$15)  🔛  Airdrop Link &amp; Information: https://t.co/DS6g34KhFp  #cryptocurrency #Crypto #Bitcoin  #BSC #BinanceSmartChain #Ethereum #ETH #Airdrop #bounty #POPO #Poplink",6787,0
1376519256267923458,"2021-03-29T12:58:59Z","RT @Udhin8887: Join the @Holdefi community in HLD public sale!  #HLD #Holdefi #ETH #BSC #IDO #ICO 👇👇 https://t.co/0czyLUT9gN",1,0
1376519253214560262,"2021-03-29T12:58:59Z","@RyanSAdams If it cost 19$ (mean) and 9$ (median) to transact using ETH (and it cost the same for BTC - 20$ and 10$) it can not be sound money. With sound money you can transact with a negligible cost even very small amount.",1,1
1376519249171263496,"2021-03-29T12:58:58Z","@zerohedge Bitcoin (BTC) and Ethereum (ETH) Pop 4% as Visa (V) Says Will Allow Payment Settlements Using Cryptocurrency https://t.co/wuf92A2CCl via @Street_Insider (BTC/USD $58K)",0,0
1376519248634290180,"2021-03-29T12:58:58Z","RT @TrippyOneCrypto: @binance Customers in line waiting for the guy using $ETH to buy groceries. https://t.co/JYJo4eNK3V",69,0
1376519246063230978,"2021-03-29T12:58:57Z","RT @antiprosynth: @APompliano Yes, on #Ethereum ⟠ $ETH, the universal value settlement layer of the internet.",514,0
1376519245018767363,"2021-03-29T12:58:57Z","💧Roku Network Airdrop 💧  🏆 Task:          ➕  15 ROK (~$5)  👨‍👩‍👧 Referral:   ➕  3 ROK (~$1)  🔛  Airdrop Link &amp; Information: https://t.co/YhvsOcfEbH  #cryptocurrency #Crypto #Bitcoin  #BSC #BinanceSmartChain #Ethereum #ETH #Airdrop #bounty #ROK #RokuCoin #RokuNetwork",3811,0
1376519244708450306,"2021-03-29T12:58:57Z","AUDIO / ETH Liquidity Pool @1inchExchange   Available NOW .... APY 130%   $ 450 K  Liquidity in 5 DAYS  !!   1Inch better deal ;)    ( $AUDIO  / $ETH )   @1inchExchange  @AudiusProject   =&gt;   https://t.co/gfN23XY5FC            #Ethereum  #AUDIO #audius #DeFi #apy #1inch  #uniswap https://t.co/fTzpv6wkQE",0,0
1376519243345240066,"2021-03-29T12:58:56Z","💧Roku Network Airdrop 💧  🏆 Task:          ➕  15 ROK (~$5)  👨‍👩‍👧 Referral:   ➕  3 ROK (~$1)  🔛  Airdrop Link &amp; Information: https://t.co/YhvsOcfEbH  #cryptocurrency #Crypto #Bitcoin  #BSC #BinanceSmartChain #Ethereum #ETH #Airdrop #bounty #ROK #RokuCoin #RokuNetwork",3811,0
1376519242409984001,"2021-03-29T12:58:56Z","@eth_classic @CryptoEtherplan @PoloSupport @hitbtc When will the wallet problems go away?",1,1
1376519227608199180,"2021-03-29T12:58:53Z","🔥HOT🔥 - $100 in Cryptocurrency | Giveaway!  To win: ✔ Follow us &amp; @MatrixAINetwork ✔ Tag a friend ✔ Retweet ✔ Join: https://t.co/R9H48O8Tq3 Thats it! Good luck! 💖 Rolling in 24 hours!  #goodvibes #goodluck #giveaway #bitcoin #Giveaways  #cryptocurrency #eth #btc #BSC #TRON https://t.co/0Eju3gcguv",306,1
1376519225901219841,"2021-03-29T12:58:52Z","@udiWertheimer what a sad eth simp. Most everyone acknowledges that alts are shitcoins for pumping and dumping on noobs during bull markets but eth maxis really believe it’s something more?!? Wont video games have their own NFTs? Pretty much the biggest pro argument I’ve heard",0,0
1376519220226367488,"2021-03-29T12:58:51Z","A lot of maxis suggesting the $ETH $VISA integration will be a flop due to fees.  What they fail to realize is that simple payment settlements that are abstracted away from a user are the easiest thing to throw on any L2 rollup.   That is technology that we have right now.",394,0
1376519217747480576,"2021-03-29T12:58:50Z","What a week. How nice is that 7d chart though? $KICK #KickEcosystem @KickEcosystem @kickexcom  @CoinMarketCap  #kicktoken #kick #ALTSEASON #hodl #BTC$eth $hot $link $doge $xtz $ada $zec $matic $trx $xlm $dgb $bnb $xem $ltc $eos $xvg $comp  $stpt $perl $bch $uni $sushi $bat $zrx https://t.co/XqFoBa9w6P",17,0
1376519216501825536,"2021-03-29T12:58:50Z","@CryptoBethany Visa why did they choose eth",0,0
1376519212290686983,"2021-03-29T12:58:49Z","RT @davidiach: Just so you know, Visa will need to buy $ETH to pay for transaction fees.",2333,0
1376519211154075649,"2021-03-29T12:58:49Z","RT @IAMLLUCIANA: $ETH IS KING",237,0
1376519209530851328,"2021-03-29T12:58:48Z","RT @mrpapawheelie: So if @Visa is using $ETH $USDC and @0xPolygon scales this along with lowering the fees... probably nothing $MATIC",228,0
1376519206053715972,"2021-03-29T12:58:47Z","Plinko Challenge!  Get the third best payout with any ball (red, blue, yellow, and green) 15 times, then post all BetIDs on this thread: https://t.co/ffqhhGESrm  Good luck!  #gambling #challenge #crypto #plinko #casino #bitcoin #ethereum $BTC $DOGE $ETH $DASH",2,0
1376519202975010818,"2021-03-29T12:58:47Z","Join the @Holdefi community in HLD public sale!  #HLD #Holdefi #ETH #BSC #IDO #ICO 👇👇 https://t.co/0czyLUT9gN",1,1
1376519200580239364,"2021-03-29T12:58:46Z","RT @_Man_WithNoName: Eth is the Eth killer, Send It 🚀 #Ethereum https://t.co/KSni3yMN9c",135,1
1376519199359692801,"2021-03-29T12:58:46Z","| Trend Smasher | https://t.co/PWrlNTvPsg  $ZUZ vs $ETH the price action has recently turned bullish on the Trend Smasher Algorithm. This indicator is one of my favorites and it is confirming our bullish outlook.  (5/7) https://t.co/IJLPBm43A1",4,0
1376519194909364227,"2021-03-29T12:58:45Z","Welcome to massive Q DAO airdrop!   1. go now to telegram https://t.co/COyXgODY1z   2. Stay in telegram chat and wait announcement.  3. HOLD this gem until 10x   (soon - QDAO launch cross-chain for BSC, Polkadot and ETH)",4254,0
1376519190262251525,"2021-03-29T12:58:44Z","$ETH - Update  Following the plan! Buy when everyone is panicking. https://t.co/srFKxsofH4",1,0
1376519185308688392,"2021-03-29T12:58:42Z","RT @TylerDurden: So @Visa are using the ETH blockchain to settle payments.  Looking forward to paying $3 for coffee + $900 gas fee and wait…",9326,0
1376519180615184392,"2021-03-29T12:58:41Z","#MXCExchange will list $TOWER and Launch the 43rd Session MX DeFi - Stake $USDT, $MX, $BTC, $ETH to Earn Yield $TOWER.  ▶️Follow @MXC_Exchange &amp; @TowerToken  ▶️Like, RT &amp; Tag 3 friends ▶️Comment  🏆10 ppl * 125 $TOWER  More info about the listing: https://t.co/VqsPboXOb5 https://t.co/6RZ4gmWYtY",998,0
1376519172872605699,"2021-03-29T12:58:39Z","Show me 👀 something 🔥🔥!!! Drop your #nfts and check out everyone else’s art!!  Like ❤️/ RT 🔁 / Grow  #nfts #nft #eth #btc  #ada #defi        🎆🏞🌁🎇🌄🌅🎑🏙🌆🌌🌉🎆🌫🏞",176,0
1376519170058248201,"2021-03-29T12:58:39Z","Ever try swapping from BTC to ETH without using a centralized exchange? It's nearly impossible.   And the future is only becoming more multi-chain than before  Thorchain enables liquid, cross-chain swaps with NATIVE assets.   Not wrapped. No wBTC or BTCB or solETH  Bullish $RUNE",175,0
1376519158418972684,"2021-03-29T12:58:36Z","@maxkeiser Don’t give a shit about your view on Eth, but that video is fucking hilarious 😂",1,0
1376519154950283274,"2021-03-29T12:58:35Z","RT @krugman25: Visa is buying $ETH and the market is only up 90 dollars. This is a crime.   $ETH to $3,000 post-haste!",1041,0
1376519153570488320,"2021-03-29T12:58:35Z","RT @NFTFusion: What’s your ETH address?  No questions, just drop it below 👇 #NFT #NFTs",1953,0
1376519136893882372,"2021-03-29T12:58:31Z","Because CHUBBIE #0 is currently over 30ETH, we will giveaway CHUBBIES #5537 and #1963 (Both Shinies ~$1,500 each)   -to ONE person that retweets this tweet and follows!  Current bid: 69.69 ETH  CHUBBIE #0: https://t.co/NfK8fP1uZP https://t.co/DsIqf9abnz",613,0
1376519136633884677,"2021-03-29T12:58:31Z","Feeling pretty good huh?  I told you it would all be fine.    Now we feast.    Glad I rolled a bunch of #alts profits into $BTC and $ETH last night before I went to sleep.  LFG!!!!!!! https://t.co/ITC4DaGnT2",156,0
1376519136046678017,"2021-03-29T12:58:31Z","Friend- Would you want to go back in time at buy #bitcoin at 0.007 cents? Me- No need! Buy #Telcoin now.   $Tel will bank hundred millions of unbanked. Catch it before it’s too late. 🚀🚀🚀 Giving it three rockets now lol...  $aave $dent $xrp $eth $npxs $ada $ksm $doge $zil https://t.co/JX58IaUzKI https://t.co/FARUEpNYFf",15,0
1376519135488835591,"2021-03-29T12:58:31Z","*Teleports behind you*  I heard you sold the majority of your eth holdings. https://t.co/5BkJPQi71t",5,1
1376519133068673028,"2021-03-29T12:58:30Z","Visa Picks Ethereum Over Facebook Libra to Settle Payments; ETH/USD Up  #crypto.com #ethbtc #ethereum #ethusd #stablecoin #tether #usdc... https://t.co/fMf6zmJlxU",15,5
1376519127003754498,"2021-03-29T12:58:29Z","🚀 Pluto Coin  Airdrop 🚀 Rate: ⭐⭐⭐⭐ ⭐ 🎁 Reward:  8822 PLUT ($1500) 👫 Referral: 40.5 PLUT  ($7)  🤖Start Bot here   https://t.co/x5JZchojO8  ⛂ Join Telegram group and channel. ⛂ Follow twitter &amp; retweet  ⛂ Submit ETH address and details.",6005,5
1376519121605513218,"2021-03-29T12:58:27Z","Visa $V announced today it will allow the use of a USD stable coin backed by the U.S Dollar in order to settle transactions over the Ethereum $ETH blockchain https://t.co/zmmONQpWe4",22,5
1376519106329935880,"2021-03-29T12:58:24Z","Hey :) My second minting! This Piece for Orchestra has an insteresting story. so check this out~! and retweet pls :) hope you enjoy it.  Available on https://t.co/nxnOxf9656  #nft #nfts #nftart #nftarts #seo_bobin #nftcollector #opensea #etherium #NFTCommunity",37,5
1376519104216014851,"2021-03-29T12:58:23Z","RT @NFTFusion: What’s your ETH address?  No questions, just drop it below 👇 #NFT #NFTs",1953,5
1376519099661103104,"2021-03-29T12:58:22Z","i have currently like 2 wip #collectible projects, that i don't know where to mint :D  one might go to @opensea   ..and other one for #tezos platform. what do you think ?  i guess there are still many people that won't move from  #eth $eth huh ?  where would u like my #NFTs more?",25,5
1376519098230833156,"2021-03-29T12:58:22Z","RT @NFTFusion: What’s your ETH address?  No questions, just drop it below 👇 #NFT #NFTs",1953,5
1376519089615671306,"2021-03-29T12:58:20Z","Check out this digital art my wife made.  If there's interest, I'll commission some $ADA and $ALGO art.  I'm immortalizing her work as NFT's.  Currently using ETH but will ultimately switch from that, as you'd expect. https://t.co/M2Mi0XNIOO",1,0
