"ID","created_at","text","like_count","rt_count"
1375779625813561347,"2021-03-27T11:59:58Z","No need to spend your own money to trade #cryptocurrency. Over 10K users won crypto rewards on @latokens last week. It's the best way to join the financial revolution. Start by earning a share of $100K in CLIQ airdrop: https://t.co/ctZNk92wn6 #Bitcoin #ETH #Citi #AON #LATOKEN",0,0
1375779623267528713,"2021-03-27T11:59:57Z","STC one of the respective thought is for Unprivileged Children in the world. STC 20% of total profit goes to STC special fund for Safe the Children forum. #STC $STC #ETH #DEFI #DONATION",2306,0
1375779612400181253,"2021-03-27T11:59:55Z","We've crossed 1 million USD in liquidity on our DMT/ETH pair across @Uniswap and @QuickswapDEX ! 🎉🚀  Quickswap: 700K in liquidity  Uniswap: 480K in liquidity   $DMT",20,3
1375779610957389825,"2021-03-27T11:59:54Z","No need to spend your own money to trade #cryptocurrency. Over 10K users won crypto rewards on @latokens last week. It's the best way to join the financial revolution. Start by earning a share of $100K in CLIQ airdrop: https://t.co/ehTCVK0J4c #Bitcoin #ETH #Citi #AON #LATOKEN",0,0
1375779610114326529,"2021-03-27T11:59:54Z","Hi @Exeedme @Poolz__ @bepronet   What do you think about we organise  a pool Crypto party all together on #tacoswap   Join us : https://t.co/3GeT48f0tm  #crypto #defi #dex #eth #tacoswaptothemoon #tacotoken🌶",1218,0
1375779608818147328,"2021-03-27T11:59:54Z","No need to spend your own money to trade #cryptocurrency. Over 10K users won crypto rewards on @latokens last week. It's the best way to join the financial revolution. Start by earning a share of $100K in CLIQ airdrop: https://t.co/KNE54mi28M #Bitcoin #ETH #Citi #AON #LATOKEN",0,0
1375779608369463298,"2021-03-27T11:59:54Z","The weekend has arrived and I’ll be loading up my wallet with tons of #ETH!  I want more #NFTs today. If you’re an #NFT artist or have a collection...  Link me your work!  #nftcollector #NFTCommunity #NFTcollectibles #NFTartist",91,0
1375779606263816193,"2021-03-27T11:59:53Z","RT @4Tendies: Do you load up on solid projects when the market is down? Or do you not like money? $eRSDL #crypto #eth https://t.co/nnoK5qnS…",29,0
1375779601964744708,"2021-03-27T11:59:52Z","@tokenmetricsinc $ETH but that's about to change on the 8th of April. I'll be buying double bags of #XFAI's $XFIT in the world's first liquidity generation event. Huge VC backing,  meticulous and well-rounded team that births unique ideas.",1,0
1375779595841011719,"2021-03-27T11:59:51Z","@tokenmetricsinc $JULD &amp; $LEAD. But planning to sell some of it and diversify to $NFTT as soon as launches. IDO will be on @dao_duck 🐥  💟 @TechNFTT is launching the infrastructure that will bring the #NFTmarket into its second major epoch.  @beeple @lindsaylohan  $NFTT $DUCK $ETH $INFI #BTC https://t.co/nvuweCdJn3",0,0
1375779592493957122,"2021-03-27T11:59:50Z","Goldkey Finance ETH Airdrop Platform: ETH  Reward: the GKEY token that you received has a random value 1 - 100 USDT Complete all tasks  1. Retweet + Like  #CTBot Adrop Ram 500 GO 40 https://t.co/i0o3yX0uAm",35,0
1375779592401690629,"2021-03-27T11:59:50Z","🔸 New Listing🔸   #BKEX will list #DRYCAKE @DryCakeSwap🚀 🚀  - Trading pair: DRYCAKE/USDT - Trading time: 20:00 on Mar 29 (UTC+8)  🔹 🔹 More details: https://t.co/kC2IIebfTT  #Bitcoin #ETH #BKK #Blockchain https://t.co/w8CHyKXaUD",2480,0
1375779589914386435,"2021-03-27T11:59:49Z","The Road to mass adoption.  #Wolfystreetets $WOLFY  $LINK $HTR $DOT $ADA $KYL $ENJ $ETH $CELL $LABS $COVAL $NFY $DOGE $CHZ $THETA $AVAX $GHST https://t.co/51f9odSSPm",30,0
1375779588954013703,"2021-03-27T11:59:49Z","Hi @Exeedme @Poolz__ @bepronet   What do you think about we organise  a pool Crypto party all together on #tacoswap   Join us : https://t.co/3GeT48f0tm  #crypto #defi #dex #eth #tacoswaptothemoon #tacotoken🌶",1218,0
1375779581366517762,"2021-03-27T11:59:47Z","Goldkey Finance ETH Airdrop Platform: ETH  Reward: the GKEY token that you received has a random value 1 - 100 USDT Complete all tasks  1. Retweet + Like  #CTBot Adrop Ram 500 GO 40 https://t.co/i0o3yX0uAm",35,0
1375779580397633539,"2021-03-27T11:59:47Z","*** GIVEAWAY ***  LIKE 👍 and RETWEET 🔁 this tweet for a chance to win a huge, fat altseason with green candles that will blow you away! $BTC $ETH $LINK $ADA $VET https://t.co/3SlSYcLS7c",480,0
1375779575741878275,"2021-03-27T11:59:46Z","Staking is the great way of benefit for token holders and Stake STC and get the special reward offer for holders. Exchange &amp; personal wallet holder both can stake their STC. #STC #ETH #DEFI #Airdrop https://t.co/FnLcxxCPa5",0,0
1375779573716152320,"2021-03-27T11:59:45Z","Punk 8781 bought for 23 ETH ($38,803.99 USD) by 0xe907c9 from 0x1455f0. https://t.co/4SjOWxhxBs #cryptopunks #ethereum https://t.co/R2MxOpQDrJ",7,1
1375779561179385856,"2021-03-27T11:59:42Z","*** GIVEAWAY ***  LIKE 👍 and RETWEET 🔁 this tweet for a chance to win a huge, fat altseason with green candles that will blow you away! $BTC $ETH $LINK $ADA $VET https://t.co/3SlSYcLS7c",480,1
1375779558482317316,"2021-03-27T11:59:42Z","Goldkey Finance ETH Airdrop Platform: ETH  Reward: the GKEY token that you received has a random value 1 - 100 USDT Complete all tasks  1. Retweet + Like  #CTBot Adrop Ram 500 GO 40 https://t.co/i0o3yX0uAm",35,1
1375779546537033728,"2021-03-27T11:59:39Z","🔸 New Listing🔸   #BKEX will list #DRYCAKE @DryCakeSwap🚀 🚀  - Trading pair: DRYCAKE/USDT - Trading time: 20:00 on Mar 29 (UTC+8)  🔹 🔹 More details: https://t.co/kC2IIebfTT  #Bitcoin #ETH #BKK #Blockchain https://t.co/w8CHyKXaUD",2480,1
1375779543164854274,"2021-03-27T11:59:38Z","Hi @Exeedme @Poolz__ @bepronet   What do you think about we organise  a pool Crypto party all together on #tacoswap   Join us : https://t.co/3GeT48f0tm  #crypto #defi #dex #eth #tacoswaptothemoon #tacotoken🌶",1218,1
1375779541591814146,"2021-03-27T11:59:38Z","Is amazing to see how this project has been out since Dec 2020 and so far Liquidity Providers have earned about 6533.78 $ETH and that is the total value of $10.6 Million dollars. 💪  Also the APY doing 301.35% which is amazing.  #DeFi #UniSwap #BSC #SmartContract #Ethereum https://t.co/9a7rgyoMpE",2385,1
1375779539444326401,"2021-03-27T11:59:37Z","Welcome to massive Q DAO airdrop!   1. go now to telegram https://t.co/COyXgODY1z   2. Stay in telegram chat and wait announcement.  3. HOLD this gem until 10x   (soon - QDAO launch cross-chain for BSC, Polkadot and ETH)",4254,1
1375779538093940738,"2021-03-27T11:59:37Z","STC one of the respective thought is for Unprivileged Children in the world. STC 20% of total profit goes to STC special fund for Safe the Children forum. #STC $STC #ETH #DEFI #DONATION",2306,1
1375779524076572684,"2021-03-27T11:59:33Z","Hi @Exeedme @Poolz__ @bepronet   What do you think about we organise  a pool Crypto party all together on #tacoswap   Join us : https://t.co/3GeT48f0tm  #crypto #defi #dex #eth #tacoswaptothemoon #tacotoken🌶",1218,1
1375779521668976645,"2021-03-27T11:59:33Z","The DEX @FinanceChainge is set to launch on the @FUSIONProtocol network with over a million users on the protocols waitlist. This decentralized exchange aims to innovate on traditional models through leveraging the Fusion Network.  #BSC #BTC #ETH #BNB  https://t.co/xx55YiGfm3",21659,1
1375779510101012483,"2021-03-27T11:59:30Z","🚀 Airdrop: 1SG Token 💰 Value: $300 👥 Referral: $3 💸 100+1 tokens (1SG) ⏰ 2 min Telegram BOT https://t.co/f01NGvjO5F 🔹Join Telegram group &amp; Ch 🔹Follow on Twitter &amp; retweet 🔹Subscribe to Youtube Ch 🔹Submit your ETH wallet address Distribution on 16-May-21",0,0
1375779504568758285,"2021-03-27T11:59:29Z","I'll send $500 in #ETH or #BTC to one person who retweets this and follows @bud_crypto. Must complete these tasks:  1 - Like/RT his pinned tweet  2 - Must RETWEET &amp; LIKE 4 of his tweets  Ends in 72 hours!",1406,0
1375779503708987395,"2021-03-27T11:59:29Z","Hi @Exeedme @Poolz__ @bepronet   What do you think about we organise  a pool Crypto party all together on #tacoswap   Join us : https://t.co/3GeT48f0tm  #crypto #defi #dex #eth #tacoswaptothemoon #tacotoken🌶",1218,0
1375779494070530051,"2021-03-27T11:59:26Z","No need to spend your own money to trade #cryptocurrency. Over 10K users won crypto rewards on @latokens last week. It's the best way to join the financial revolution. Start by earning a share of $100K in CLIQ airdrop: https://t.co/JRImopJdaE #Bitcoin #ETH #Citi #AON #LATOKEN",1,0
1375779478555738112,"2021-03-27T11:59:23Z","Hello @Poolz__ community !  After @bepronet ,  Tomorow #tacoswap Dex open a new pool for poolz token owner.   You will have more rewards than uniswap !  See you tomorow ! Welcome !  #poolz #uniswap #DeFi #ETH #Crypto #bepronet #liberezcrypto4youOFF #tacoswap",1209,0
1375779473962897409,"2021-03-27T11:59:21Z","No need to spend your own money to trade #cryptocurrency. Over 10K users won crypto rewards on @latokens last week. It's the best way to join the financial revolution. Start by earning a share of $100K in CLIQ airdrop: https://t.co/qEHbwjFPMo #Bitcoin #ETH #Citi #AON #LATOKEN",0,0
1375779472465518598,"2021-03-27T11:59:21Z","@compusophy Astro Chill - Available on @withFND  👨🏻‍🚀  Use headphone for the best experience!! Reserve Price: 0.5 ETH  Check out - https://t.co/6Nkl8HojMJ",1,0
1375779471513448448,"2021-03-27T11:59:21Z","💧Poplink Oracles Airdrop 💧  🏆 Task:          ➕  50 POPO (~$50)  👨‍👩‍👧 Referral:  ➕  15 POPO (~$15)  🔛  Airdrop Link &amp; Information: https://t.co/DS6g34KhFp  #cryptocurrency #Crypto #Bitcoin  #BSC #BinanceSmartChain #Ethereum #ETH #Airdrop #bounty #POPO #Poplink",6788,0
1375779468694888448,"2021-03-27T11:59:20Z","The DEX @FinanceChainge is set to launch on the @FUSIONProtocol network with over a million users on the protocols waitlist. This decentralized exchange aims to innovate on traditional models through leveraging the Fusion Network.  #BSC #BTC #ETH #BNB  https://t.co/xx55YiGfm3",21659,0
1375779458792230912,"2021-03-27T11:59:18Z","#tofudefi #tofu #trx #defi #btc #eth TOFU is Defi cost-effective infrastructure uniting two great blockchain platforms.  https://t.co/lDWsiJyL6a",0,0
1375779456049164289,"2021-03-27T11:59:17Z","RT @DailyDogeUpdate: If $DOGE goes over 0.6$ this month I’ll give EVERYONE who retweets this $100! 🎁  #Dogecoin #LTC #ETH",139,0
1375779455629725701,"2021-03-27T11:59:17Z","The weekend has arrived and I’ll be loading up my wallet with tons of #ETH!  I want more #NFTs today. If you’re an #NFT artist or have a collection...  Link me your work!  #nftcollector #NFTCommunity #NFTcollectibles #NFTartist",91,0
1375779449946312704,"2021-03-27T11:59:16Z","$EPS has single handedly brought the attention of ETH whales to BSC.  Several people who swore to never touch BSC are now in.   Ideology matters but money matters just more.  $CRV might fuel more such products across chains.   Happy to be a $veCRV holder https://t.co/xPmscriUvj",3,0
1375779446632906762,"2021-03-27T11:59:15Z","Wow, the Vanilla Movement is happening! 🔥  Make sure you take time out for loved ones over the weekend, and keep safe.  Our team and community are available 24/7, so please visit our telegram if you have any questions at all:  https://t.co/OZIT9nCYMb  $VNLA $MATIC $ETH",35,0
1375779440375005186,"2021-03-27T11:59:13Z","$GVT  🚀  - Defi platform release 31Mar - Limited supply of 4.4 million - Starting to gain the attention  💎  #BTC #ETH #BNB https://t.co/k7l3YBUa1z",24,0
1375779438395277323,"2021-03-27T11:59:13Z","In a single transaction..  ✅ Purchase an asset using $BTC  ✅ Register using $XRP  ✅ Insure using $ETH   Where else is this even remotely possible?  #Overledger allows this NOW! ✅  By making Multichain possible, $QNT ushers in a new age of #Blockchain/#DLT adoption..  #crypto https://t.co/nHXecoa4bW",113,0
1375779437887770625,"2021-03-27T11:59:13Z","RT @AltstreetBet: $ETH, Few months later in hindsight you'll think this level was obvious buy.   3 0 0 0 $ https://t.co/D48qqGYgut",328,0
1375779436503556096,"2021-03-27T11:59:13Z","💧Poplink Oracles Airdrop 💧  🏆 Task:          ➕  50 POPO (~$50)  👨‍👩‍👧 Referral:  ➕  15 POPO (~$15)  🔛  Airdrop Link &amp; Information: https://t.co/DS6g34KhFp  #cryptocurrency #Crypto #Bitcoin  #BSC #BinanceSmartChain #Ethereum #ETH #Airdrop #bounty #POPO #Poplink",6788,0
1375779430581288968,"2021-03-27T11:59:11Z","As of March 27, 2021 at 03:59PM, 1 ETH equals 1700.79 USD. Start invest now with https://t.co/gcyeFnWQim #investing #passiveincome $btc $ETM $eth #bitcoin #ethereum #ethersmart #investmentfunds",1,0
1375779424877035520,"2021-03-27T11:59:10Z","@Abuamerican Salam wa alaikoem, which apps do you use to buy btc, eth.. etc?",23,1
1375779411702726656,"2021-03-27T11:59:07Z","Win #NFT worth ETH!  To WIN #Giveaway You MUST:    1.) Follow @degenasaurus   2.) Retweet the tweet BELOW ⬇️ + comment it  3.) OPTION -&gt; Join discord: https://t.co/alAVVDlyQu  NFT: https://t.co/l37pUrR6Y3  Wish luck!! 🦖♥️🛸👫  @coinkit_ mon 45 2000 BTC  https://t.co/wFeOut8N85",310,1
1375779399354712069,"2021-03-27T11:59:04Z","If you’re looking for somewhere to invest and make x100-x500 in a week. $POODL is at an amazing point to buy in! $POODL is special offer at the moment and it will not last! Get in before it’s too late!💪🏻🚀 $DOGE $TOSA $HOGE $KONG $PIPI $SAFE $BTC $ETH $FOX $ADA $XRP $HHOG https://t.co/QAcrV6JGs2",97,1
1375779395193995265,"2021-03-27T11:59:03Z","🔥 FIRST BID IS IN  = 5 ETH 🔥🔥  ⚡️20% Of this piece will go to the #NFTRANCH Donation!   ☺️Loving Unity 2020 Sabet  1 of 1 Available on @withFND = Current bid 5 ETH  🏓Bid Now! @WhaleShark_Pro @whale_community  #nft #FoundationInvite #foundationapp https://t.co/gYStiF4jsq",65,1
1375779379436007431,"2021-03-27T11:58:59Z","@mickalamasse1 @Exeedme @Poolz__ @bepronet With pleasure ! on #tacoswap   Join us : https://t.co/HKQLXcjMhA  #crypto #defi #dex #eth #tacoswaptothemoon #tacotoken🌶",13,1
1375779377431121921,"2021-03-27T11:58:58Z","I was going to try one of those NFT things. I went to Rarible and at first is like $7 (on Eth) Ok, so I bought some but then after that they charge like $50 more.  OpenSea is the same but at least they tell you right away   Not for me I guess It was going to be this one https://t.co/N1G0m0MJNI",307,1
1375779376600645633,"2021-03-27T11:58:58Z","Hi @Exeedme @Poolz__ @bepronet   What do you think about we organise  a pool Crypto party all together on #tacoswap   Join us : https://t.co/3GeT48f0tm  #crypto #defi #dex #eth #tacoswaptothemoon #tacotoken🌶",1218,1
1375779367188578305,"2021-03-27T11:58:56Z","*** GIVEAWAY ***  LIKE 👍 and RETWEET 🔁 this tweet for a chance to win a huge, fat altseason with green candles that will blow you away! $BTC $ETH $LINK $ADA $VET https://t.co/3SlSYcLS7c",480,1
1375779349744377856,"2021-03-27T11:58:52Z","ANNOUCEMENT  REMIX INITIAL ROUND 1 - PRESALE   ⚡️TOKEN Bonus = 10% 🙍🏽‍♂️Referral Bonus = 5% 💰Payment Methods: BNB, USDT, ETH  Visit https://t.co/HUHdctVVSm to Enter PRESALE ROUND 1  ➡️ PRESALE ROUND 1 ends on 20th March 2021 15:00(UTC) #presale #rmx #remix #BinanceSmartChain #BSC https://t.co/dPz6FNVPGI",926,1
1375779348444155905,"2021-03-27T11:58:52Z","Win #NFT worth ETH!  To WIN #Giveaway You MUST:    1.) Follow @degenasaurus   2.) Retweet the tweet BELOW ⬇️ + comment it  3.) OPTION -&gt; Join discord: https://t.co/alAVVDlyQu  NFT: https://t.co/l37pUrR6Y3  Wish luck!! 🦖♥️🛸👫  @coinkit_ mon 45 2000 BTC  https://t.co/wFeOut8N85",310,1
1375779347148193792,"2021-03-27T11:58:51Z","I'm looking for a cool #NFTs to start my collection ✨ 3d animation only please ☝🏻 I saw a lot of nice artworks yesterday, but pieces that I really like costs too much haha 🥲  Send me your work below, retweet and follow ☑️ I wanna find some under 2 ETH😌   #nftcollector #NFT",139,1
1375779346019799045,"2021-03-27T11:58:51Z","Goldkey Finance ETH Airdrop Platform: ETH  Reward: the GKEY token that you received has a random value 1 - 100 USDT Complete all tasks  1. Retweet + Like  #CTBot Adrop Ram 500 GO 40 https://t.co/i0o3yX0uAm",35,1
1375779335488090114,"2021-03-27T11:58:48Z","Hi @Exeedme @Poolz__ @bepronet   What do you think about we organise  a pool Crypto party all together on #tacoswap   Join us : https://t.co/3GeT48f0tm  #crypto #defi #dex #eth #tacoswaptothemoon #tacotoken🌶",1218,1
1375779334112301063,"2021-03-27T11:58:48Z","$POODL AND $HOGE IS COMING FOR YOU $DOGE  $GRUMPY  #bitcoin #btc #cryptocurrency #price #blockchain #time #crypto #money #news #coinbase #usd #buying #eth #ada",96,1
1375779316747878402,"2021-03-27T11:58:44Z","Retirement Planning in 2021 #kicktoken $kick #kick   #Bitcoin #cyrpto $xrp #BTC $eth $hot $link $doge $chz $trx $xlm $bnb $nft $ltc $defi $xvg $comp $twt $uni $defi $bat $sushi $ren $enj $grt $lrc $bal $mana $btt #Ethereum #uniswap #SushiSwap #CryptoNews #Binance #Coinbase $usdt https://t.co/ozz95GwuQJ",20,1
1375779316588404736,"2021-03-27T11:58:44Z","No need to spend your own money to trade #cryptocurrency. Over 10K users won crypto rewards on @latokens last week. It's the best way to join the financial revolution. Start by earning a share of $100K in CLIQ airdrop: https://t.co/3N3hFp8Tc9 #Bitcoin #ETH #Citi #AON #LATOKEN",0,0
1375779311555252224,"2021-03-27T11:58:43Z","Win #NFT worth ETH!  To WIN #Giveaway You MUST:    1.) Follow @degenasaurus   2.) Retweet the tweet BELOW ⬇️ + comment it  3.) OPTION -&gt; Join discord: https://t.co/alAVVDlyQu  NFT: https://t.co/l37pUrR6Y3  Wish luck!! 🦖♥️🛸👫  @coinkit_ mon 45 2000 BTC  https://t.co/wFeOut8N85",310,0
1375779310804537344,"2021-03-27T11:58:43Z","Hello @Poolz__ community !  After @bepronet ,  Tomorow #tacoswap Dex open a new pool for poolz token owner.   You will have more rewards than uniswap !  See you tomorow ! Welcome !  #poolz #uniswap #DeFi #ETH #Crypto #bepronet #liberezcrypto4youOFF #tacoswap",1209,0
1375779303086952453,"2021-03-27T11:58:41Z","◽️ $LUNA 2021 Price Prediction Chart  This was created two months ago &amp; we are already ahead of schedule..  Apr - $14 May - $21 Jun - $31 Jul - $46 Aug - $66 Sep - $91 Oct - $125 Nov - $166 Dec - $216  This is due to burnt $LUNA &amp; its reducing circ supply 🔥  $UST $ANC $BTC $ETH https://t.co/fYagNobXQj",294,0
1375779296652840961,"2021-03-27T11:58:39Z","RT @cryptunez: the slower $ETH pumps, the longer the bull market lasts.",1521,0
1375779295986126850,"2021-03-27T11:58:39Z","Hi @Exeedme @Poolz__ @bepronet   What do you think about we organise  a pool Crypto party all together on #tacoswap   Join us : https://t.co/3GeT48f0tm  #crypto #defi #dex #eth #tacoswaptothemoon #tacotoken🌶",1218,0
1375779289669439491,"2021-03-27T11:58:38Z","@Tweetybirdpaul High transaction throughput - in one year has cleared more transactions than all of these + ETH combined",0,0
1375779277417943041,"2021-03-27T11:58:35Z","$HH is the token for https://t.co/Mn4xHN5Pbl  A non-custodial neobank.  Alpha App is live on Android/Apple  USDC savings accounts are live  Soon MasterCard, IBAN, gasless transactions, rebranding and much much more!  $ETH $TKN $wCRES $CRO $BNB $PLU #DeFI #Banking",30,0
1375779274137960451,"2021-03-27T11:58:34Z","Hi @Exeedme @Poolz__ @bepronet   What do you think about we organise  a pool Crypto party all together on #tacoswap   Join us : https://t.co/3GeT48f0tm  #crypto #defi #dex #eth #tacoswaptothemoon #tacotoken🌶",1218,0
1375779271596183557,"2021-03-27T11:58:33Z","Hi @Exeedme @Poolz__ @bepronet   What do you think about we organise  a pool Crypto party all together on #tacoswap   Join us : https://t.co/3GeT48f0tm  #crypto #defi #dex #eth #tacoswaptothemoon #tacotoken🌶",1218,0
1375779270652534787,"2021-03-27T11:58:33Z","Welcome to massive Q DAO airdrop!   1. go now to telegram https://t.co/COyXgODY1z   2. Stay in telegram chat and wait announcement.  3. HOLD this gem until 10x   (soon - QDAO launch cross-chain for BSC, Polkadot and ETH)",4254,0
1375779265027964930,"2021-03-27T11:58:32Z","1/1 The 7th Twitter Campaign organised by #UnityForEthiopia @UnityForEthio themed  The Truth Defends Ethiopia on 28/3/21, let all of us stand together to make our voice heard for our country #Ethiopia @iyoba4u @EACC_EAN @DeaconYoseph @Qale23 @ams_kas @TagelLeraseh https://t.co/bDwYC2J2X8",317,0
1375779264671387648,"2021-03-27T11:58:32Z","@tokenmetricsinc It might be surprise to some, but my biggest #crypto bag now is a small cap #DeFi gem $NGM!  Despite its small cap, @emoney_com has great fundamentals making it a perfect #HODL capable of making x100!   #ETH bridge will be launched on April 7th and I suggest everyone to buy some! https://t.co/lrTafHmi43",1,0
1375779262024798210,"2021-03-27T11:58:31Z","IMPORTANT NOTICE:   When you send $ETH or $USDT to buy $PRIVA on Pre-sale, please also send your Transaction ID (TxID) by using your account at https://t.co/OqxJNfnUuE. You can find your TxID at your withdrawal history on your exchange or wallet. https://t.co/CrlODtEFtv",236,186
1375779258371469324,"2021-03-27T11:58:30Z","80 Countries Included ✅ 365 Day Validity ✅  1 World 1 Operator 1 Gigabyte  1 Price  #eSIM #DENT $DENT #ETH #Apple #Android #Samsung #Travel #testimonials https://t.co/dIZVK8nodv",139,186
1375779255452372993,"2021-03-27T11:58:29Z","@mickalamasse1 @Exeedme @Poolz__ @bepronet Hi @Exeedme @Poolz__ @bepronet   What do you think about we organise  a pool Crypto party all together on #tacoswap   Join us : https://t.co/cecjcgIcKx  #crypto #defi #dex #eth #tacoswaptothemoon #tacotoken🌶",40,186
1375779247726428162,"2021-03-27T11:58:28Z","The CyberCore has just been forged.  1 of 1 • On sale from 1st Apr, 8:10 pm  https://t.co/alFXDIZLn9  @KnownOrigin_io #cryptoart #NFT #cryptoartist #ETH https://t.co/EAhKcZWDC7",14,186
1375779235885842438,"2021-03-27T11:58:25Z","*** GIVEAWAY ***  LIKE 👍 and RETWEET 🔁 this tweet for a chance to win a huge, fat altseason with green candles that will blow you away! $BTC $ETH $LINK $ADA $VET https://t.co/3SlSYcLS7c",480,186
1375779230982623233,"2021-03-27T11:58:24Z","🔥We have started random global airdrop of 100,000 NFTs to single wallet ETH address 🚀 USDT-NFTs is listed on Uniswap  🚀 The contract address: 0x6599fc3e77cbfa6f6e9cac605a30b1e78827eba0  💰 Holding more NFTs makes you richer  🚀Like、Retweet &amp; Tag 3 friends  #NFTs #NFT #AIRDROP https://t.co/CMUC0Q0TXd",854,186
1375779224389349376,"2021-03-27T11:58:22Z","@mickalamasse1 @Exeedme @Poolz__ @bepronet Come on @exeedme @poolz__ @bepronet  #cryptocurrency  #defi #dex #eth #tacoswaptothemoon #tacotoken🌶🌶🌶",21,186
1375779219767226371,"2021-03-27T11:58:21Z","@mickalamasse1 @Exeedme @Poolz__ @bepronet With pleasure ! on #tacoswap   Join us : https://t.co/HKQLXcjMhA  #crypto #defi #dex #eth #tacoswaptothemoon #tacotoken🌶",13,186
1375779211412189191,"2021-03-27T11:58:19Z","#BTC Price: $54499 #ETH Price: $1685 #LTC Price: $181  Next update in 10 minutes Last updated: 7:58:19.01",0,0
1375779201878528001,"2021-03-27T11:58:17Z","🚀 Safe The Children  🔷 Token Symbol : STC  🔷 Contract: https://t.co/nk3qsF2PJV  🔷 Website: https://t.co/4y0g7dqswM  🔷 Whitepaper: https://t.co/PHPZI4dbyR  🔷 Presentation Video : https://t.co/Mycfov12IU  #Safe_Childrens #Bitcoin  #Binance #BinanceSmartChain #DEFI  #BTC #ETH",14721,0
1375779196677554177,"2021-03-27T11:58:15Z","#DeFi #BKC #eth2 #BucksCake  ANNOUNCEMENT!  Dear BucksCake's community members!  The exact date of BKC listing on Uniswap set for 04/20/2021!  2 days before it, the exact opening time of the trading pair BKC/ETH on Uniswap...  More at https://t.co/RQPMhjazG2 https://t.co/VjtBbXBA1t",2855,0
1375779185394806788,"2021-03-27T11:58:13Z","Very interesting positive outlook on the future direction on the crypto industry #STC #ETH #DEFI #Airdrops https://t.co/qIztJ0rCjX",0,0
1375779184715333632,"2021-03-27T11:58:13Z","🚀 Safe The Children  🔷 Token Symbol : STC  🔷 Contract: https://t.co/nk3qsF2PJV  🔷 Website: https://t.co/4y0g7dqswM  🔷 Whitepaper: https://t.co/PHPZI4dbyR  🔷 Presentation Video : https://t.co/Mycfov12IU  #Safe_Childrens #Bitcoin  #Binance #BinanceSmartChain #DEFI  #BTC #ETH",14721,0
1375779183700361224,"2021-03-27T11:58:12Z","awesome, thank you  @GunawanJarwi   @CBaoor   @JillianCraig19   @AlimGregorious   @georges_smith35  0x94bf625A16e696cBb6aC776d498435782b37AF88  #STC #ETH #DEFI #Airdrops https://t.co/CrrTLKyD0g",0,0
1375779182643458049,"2021-03-27T11:58:12Z","Who else has the problem of diversification, not on purpose, but on interest in so many projects? Coins decending in position size. Any recommendations? Thx.  $eth $vet $vra $coti $atom $lto $link $ocean $dag $orn $utk $scrt $grt $soul $ftm $neo $dent $senso $qsp $nuls",2,0
1375779181016051723,"2021-03-27T11:58:12Z","@mickalamasse1 @Exeedme @Poolz__ @bepronet Join our pool Crypto party !!!! 😍🌶🚀 We are a big, French and friendly community ➡️ https://t.co/RjVs91LFok  #dex #DeFi #tacoswap #Crypto #Ethereum #tacoToken #Binance #eth @Exeedme @Poolz__ @bepronet",20,0
1375779178423877635,"2021-03-27T11:58:11Z","STC one of the respective thought is for Unprivileged Children in the world. STC 20% of total profit goes to STC special fund for Safe the Children forum. #STC $STC #ETH #DEFI #DONATION",2306,0
1375779172916686850,"2021-03-27T11:58:10Z","New Airdrop: Diamond Crystal (DCT) Reward: 100 DCT ($100) Rate: ⭐️⭐️⭐️⭐️ Focus: Distribution starts after airdrop ends   Bot Airdrop Link: https://t.co/9Qzk47HUKt  #Airdrop #giveaway #BTC #ETH",4033,0
1375779171700473862,"2021-03-27T11:58:09Z","Hi @Exeedme @Poolz__ @bepronet   What do you think about we organise  a pool Crypto party all together on #tacoswap   Join us : https://t.co/3GeT48f0tm  #crypto #defi #dex #eth #tacoswaptothemoon #tacotoken🌶",1218,0
1375779170517663744,"2021-03-27T11:58:09Z","🔥 FIRST BID IS IN  = 5 ETH 🔥🔥  ⚡️20% Of this piece will go to the #NFTRANCH Donation!   ☺️Loving Unity 2020 Sabet  1 of 1 Available on @withFND = Current bid 5 ETH  🏓Bid Now! @WhaleShark_Pro @whale_community  #nft #FoundationInvite #foundationapp https://t.co/gYStiF4jsq",65,0
1375779165765525506,"2021-03-27T11:58:08Z","Hi @Exeedme @Poolz__ @bepronet   What do you think about we organise  a pool Crypto party all together on #tacoswap   Join us : https://t.co/sFu9uOLRHL  #crypto #defi #dex #eth #tacoswaptothemoon #tacotoken🌶 https://t.co/aasV7AVtWP",8,0
1375779160593928194,"2021-03-27T11:58:07Z","Who else has the problem of diversification, not on purpose, but on interest in so many projects? Coins decending in position size. Any recommendations? Thx.  $eth $vet $vra $coti $atom $lto $link $ocean $dag $orn $utk $scrt $grt $soul $ftm $neo $dent $senso $qsp $nuls",2,0
1375779152511533057,"2021-03-27T11:58:05Z","*** GIVEAWAY ***  LIKE 👍 and RETWEET 🔁 this tweet for a chance to win a huge, fat altseason with green candles that will blow you away! $BTC $ETH $LINK $ADA $VET https://t.co/3SlSYcLS7c",480,0
1375779151957884930,"2021-03-27T11:58:05Z","*** GIVEAWAY ***  LIKE 👍 and RETWEET 🔁 this tweet for a chance to win a huge, fat altseason with green candles that will blow you away! $BTC $ETH $LINK $ADA $VET https://t.co/3SlSYcLS7c",480,0
1375779147285336066,"2021-03-27T11:58:04Z","BKC is a #DeFi protocol that aims to maximize the value of the ETH ecosystem for everyone with access to the Internet #BKC is unique in providing a completely secure and transparent experience backed by smart contracts and a powerful token system. #eth2 #airdrops  @bucks_cake",0,0
1375779142436843521,"2021-03-27T11:58:02Z","Perspective.  Global wealth is approx $400 trillion.  US wealth $140tr.  Crypto wealth is $1.5-2 tr.   so like 35-50bps.     This will grow to 1-2 percent in a year or two.  That’s 3-4 times.   Just musing.  $BTC $ETH $LUNA $GLXY.",1557,0
