"ID","created_at","text","like_count","rt_count"
1378067196262420491,"2021-04-02T19:29:57Z","Hmmm, wonder what cryptocurrencies are trending right now... Let me check:  1. $ONE /harmony (20.87%) 2. $BTC /bitcoin (17.38%) 3. $ETH /ethereum (6.32%) 4. $DOGE /dogecoin (4.07%) 5. $ADA /cardano (3.87%)",1,0
1378067190679756804,"2021-04-02T19:29:56Z","Yo 💎 🔥 $ZARD 🔥  JUST BUY AND DON'T ASK WHY !  You'll find out later  $CGG $aioz $CONV $Marsh $TIDAL $SHFT $CATE 💎  $BNB #BTC #ETH $DOT $Ada $pmon $URQA $SHOPX $DELTA $BLES $cook $rage $labs $uni  $super $LTC $icx $matic $hot $ksm $DCTD #BINANCE #Huobi #altcoins $ERN $xtk $vet https://t.co/muEkFUYfQn",10,6
1378067190646255625,"2021-04-02T19:29:56Z","@theAngieTaylor @basileus_eth @EclecticMethod @money_alotta Love your outfit!",2,0
1378067190017048580,"2021-04-02T19:29:56Z","$ETH hits an 'all-time high.' $BTC remains stuck at 59k. Favorite altcoins moving forward... $XLM and $THETA. Favorite lowcaps. #Safemoon and $HOGL https://t.co/1NNvBurbvA",6,0
1378067187492134921,"2021-04-02T19:29:55Z","RT @Crypto_Stoners: OMG !!! #CryptoStoner #69 Crypto Cobain sold on the secondary market for 1 ETH !!!! 🤯 #nftcollector on 🔥 https://t.co/X…",26,3
1378067184006664193,"2021-04-02T19:29:54Z","@mickalamasse1 @chainlink @bepronet @Poolz__ March 22nd, I have staked my UniV2LP from ETH - @bepronet on @Tacoswap_io with a 445% #APY! Join, good APYs  #yieldfarm #DeX #poolparty🌶🌶🌶🌶🌶🌶🌶🌶🌶🌶🌶🌶🌶🌶🌶🌶🌶🌶🌶🌶 #tacoswap #tacoToken WELECOME TO POOL FRENCH DIFY 🌶🌶🌶🌶🌶🌶🌶🌶🌶",37,34
1378067176037449728,"2021-04-02T19:29:52Z","@coinyon @austingriffith I DEMAND THAT @beeple BUYS ALL THE ETH BACK RIGHT NOW!",2,0
1378067170224132101,"2021-04-02T19:29:51Z","RT @backbooked: not sure why, but $ETH feels this way https://t.co/bbmsQJb02d",402,34
1378067169548804102,"2021-04-02T19:29:51Z","The next bags I am calling is $AIOZ $SHOPX these two have the craziest potential on gains. If you see a nice dip don’t hesitate to ape anon. $ETH $BTC  #Bitcoin #ALTSEASON #Ethereum",6,1
1378067169464967170,"2021-04-02T19:29:51Z","@maxdesalle I still have a decent position in ETH, and I do wish that it is successful along with its competitors, however trying to downplay the Gas Problem is...stupid...",0,0
1378067159771910144,"2021-04-02T19:29:48Z","⚡🔥 EASY $90 $CUE or Litecoin Giveaway!  To win: ✔ Tag a friend ✔ Retweet ✔ Follow us &amp; @cueprotocol Thats it! Good luck! 💖  Rolling in 24 hours!  #goodvibes #goodluck #giveaway #bitcoin #Giveaways  #cryptocurrency #eth #btc #BSC #TRON",504,1089
1378067157053935616,"2021-04-02T19:29:48Z","Thank you to the unknown collector who just bought my piece for 1.859 ETH ❗️❗️❗️🤯   If you see this, contact me if you want the physical work! https://t.co/FrYM2ZoZdT",8,2
1378067154801659911,"2021-04-02T19:29:47Z","RT @DLinkbull: $BTC $ETH $LINK $?",81,5
1378067154273189888,"2021-04-02T19:29:47Z","RT @Number8_88: @LBRYcom Everybody laughed when they went after $XRP.   Did you really think the Sec would stop? $eth is next. https://t.co…",123,26
1378067153849552903,"2021-04-02T19:29:47Z","Price analysis 4/2: BTC, ETH, BNB, ADA, DOT, XRP, UNI, LTC, LINK, THETA Select altcoins could rally higher if Bitcoin and Ethereum hold on to their recent gains.  https://t.co/HeWZvivMW5",0,0
1378067152897380352,"2021-04-02T19:29:47Z","#KNITFINANCE  Teams Up With @API3DAO  to Enable Multi-Chain Real-World Asset Tokenization #KnitDeFi  #CTBot Adrop Avg 0.0001 ETH 65 https://t.co/GGqWlCkcCQ",63,69
1378067147360993280,"2021-04-02T19:29:45Z","Exciting times at #APL, with numerous huge exchanges and product completions coming, this pump doesn't look like it stopping.  DYOR but I'm not putting my money anywhere else 🚀🚀💰💰  #XRP #ADA #ETH #BTC #trx #link https://t.co/N6yQld17vj",40,20
1378067144336883712,"2021-04-02T19:29:45Z","@digitalartchick Real collectors send their eth to everybody",1,0
1378067141677694981,"2021-04-02T19:29:44Z","RT @FlipperOmi: $OMI @Uniswap pooled tokens now at 212,719,805 wOMI and 971.473 ETH with total liquidity at $3,884,009. Price of $wOMI at 0…",48,12
1378067138905182209,"2021-04-02T19:29:43Z","$ETH would look great in $SHOP treasury IMO :) https://t.co/Va4At9LxUz",0,1
1378067135377727488,"2021-04-02T19:29:42Z","RT @theAngieTaylor: @basileus_eth @EclecticMethod I'm between @SnottySnake and @money_alotta ♥️🧷♥️ https://t.co/Vt7N7FF1Mh",7,2
1378067132634836993,"2021-04-02T19:29:42Z","Chart comparing #Bitcoin #Etheruem #XRP #BitcoinCash #BitcoinSV #Litecoin #EOS #BNB #tezos #XLM #Cardano #chainlink #monero #Tron #HEX #BTC #ETH #BCH #BSV #LTC #XTZ #ADA #LINK #XMR #TRX $BTC $ETH $XRP $BCH $BSV $LTC $EOS $BNB $XTZ $XLM $ADA $LINK $XMR $TRX https://t.co/HR3lox5t1A https://t.co/2DysAzsqhb",187,61
1378067130676080643,"2021-04-02T19:29:41Z","⛷️Hold up, I hit the slopes for the morning and come back to see $ETH trending on Cappy for the first time?   Looks like FinTwit found something to do when stock markets are closed? 🤣  👉https://t.co/VnUKqbTr0u https://t.co/ERgxtUon22",10,2
1378067130080489478,"2021-04-02T19:29:41Z","500,000,000 SAFE BLUE MOON #AirDrop   First 500 people  🌕FLOW @safebluemoon  🌕RETWEET  🌕TAG 3 Friends 🌕Join us https://t.co/a7nRTdwNlS 🌕 Fill The Form https://t.co/sCVvLPP7Ih  #Airdrop #airdropalert #Airdrops #SAFEMOON #bsc #btc #bnb #eth #dot #cryptocurrencies #ToTheMoon https://t.co/DLTpF75hky",327,280
1378067121876434946,"2021-04-02T19:29:39Z","RT @bitcoinbella_: I know it's crazy, but you can like and hold BTC and ETH at the same time!  Wild, I know.",207,11
1378067120727068672,"2021-04-02T19:29:39Z","8888 $ARMOR 🛡️ GIVEAWAY 💰  ✔️ Like  ✔️ RT ✔️ Follow @ArmorFI ✔️ Comment ETH address  ❓ Win 8888 $ARMOR ⁉️  Meme by #ArmorKnight pad @123456 for @ArmorFi https://t.co/LMueKXzPJo",638,508
1378067120194514944,"2021-04-02T19:29:39Z","If you’re interested in a print shoot me a dm! I accept ETH as well ;) https://t.co/fnnTf9HPJN https://t.co/Wf2F2zfebq",17,1
1378067115865952256,"2021-04-02T19:29:38Z","Good bye old friends, $BTC $ETH $REN $WAN $LINK $AAVE $ALGO $UTK https://t.co/gdi8nAZnjZ",0,0
1378067115266179074,"2021-04-02T19:29:38Z","just added Show 102: Edan Yago - Sovryn by Crypto Voices https://t.co/fr11GNGz5L #DeFi #BTC #ETH #BITCOIN #CRYPTO",0,0
1378067111562579969,"2021-04-02T19:29:37Z","@RyanSAdams @antiprosynth ETH is competing to stay alive.  Crazy high gas fees.  And let's not forget that better versions like Polkadot, Tezos and Kadena are coming to eat its lunch.",2,1
1378067106718052355,"2021-04-02T19:29:36Z","🎉 LET THE PARTY BEGIN, WELCOME TO Q2 🎉  1. $BTC dropped below 60% dominance  2. #ALTs bouncing from bottoms on the BTC pair 3. $ETH surpassing ATH's 4. $VISA, $PYPL News https://t.co/RiVEWprFJS https://t.co/21a9Yje0Qk",4,3
1378067104138674181,"2021-04-02T19:29:35Z","Nice 🚨🚨 $btc #btc #eth $eth #dash #atom #eos #ada #doge #hot #sxp #ATH https://t.co/llEvdCrXn5",0,0
1378067103836672006,"2021-04-02T19:29:35Z","As a reminder;  #Ethereum started 2017 at $10.   It started in 2018 at $1,000.   Those are the possibilities a bull market can bring.   If $ETH really starts to run, it's a matter of time until we'll be seeing $5,000+.",1056,109
1378067103492751360,"2021-04-02T19:29:35Z","@mickalamasse1 @chainlink @bepronet @Poolz__ March 22nd, I have staked my UniV2LP from ETH - @bepronet on @Tacoswap_io with a 445% #APY! Join, good APYs Go!!! #yieldfarm #DeX #poolparty",28,24
1378067101081071620,"2021-04-02T19:29:34Z","@TArkaiser For sure. I’ve seen moon targets and think we have further to go but I sold a ton of $ETH around the previous ATH to pay off the bag despite feeling we’d continue. Better safe than stupid. This kind of thing is why we’ll get rich and keep it.",1,0
1378067099785035778,"2021-04-02T19:29:34Z","$cns volume is much higher than $bepro was at more than double the price.   If this volume is remotely sustained for 3 days we will hit 0.01 #centric $btc $btt $#ALTSEASON #altcoins @Altcoinbuzznews @TheGemHunters @gem_detecter @gem_insider @lawrenzoosei #GemRadar #BTC #ETH https://t.co/XrrCfsSFvo",6,4
1378067097113276423,"2021-04-02T19:29:33Z","https://t.co/Q5C1IbSs13  My pool now has $3M of $RGT demanding $2M of $DAI  Borrow $DAI up to 75% of your $RGT deposit $RGT can't be shorted here, fuck off shorters  OR Supply $DAI at the current return of 150% Following me, you simply win  $RGT @RariCapital 🕳️ $ETH #ETHEREUM🌛 https://t.co/zV4zoDK7T0",93,10
1378067091794898948,"2021-04-02T19:29:32Z","Think. A coin is called the google of crypto. and you don't buy it? the Thinkers will be rewarded 📈🚀 The Graph $GRT is the Google of #Crypto #bitcoin #Ethereum $btc $eth",0,0
1378067087751532549,"2021-04-02T19:29:31Z","RT @Cointelegraph: New all-time highs imminent for ETH? Ethereum options traders are turning increasingly bullish. https://t.co/hf7FjysRcM",121,33
1378067078817669126,"2021-04-02T19:29:29Z","'ALLURE' 1/1 OUT NOW on @withFND  0.5 ETH Reserve ➡️ https://t.co/xokn5Zswg2  #nft #nftart #nftcollector #nftcommunity #cryptoart https://t.co/DOa3XGJS4u",80,21
1378067077043486724,"2021-04-02T19:29:29Z","RT @Mounia_NL: New $ETH ATH!!! 👏  We all know what comes next 😏",175,22
1378067075810332675,"2021-04-02T19:29:28Z","Trade ($GHD) staking BNB Earn GHD #BSC https://t.co/AOeD1UPU09  PancakeSwap  🈁 You Can Trade From Here: https://t.co/KpAq1epIFn  #Binance #BinanceSmartChain #Binance #BTC #ETH #CryptoNews https://t.co/exKp16Am8M",1416,1878
1378067073893556224,"2021-04-02T19:29:28Z","@PennyMcStacks Patience. (0.50 ETH) /ˈpeɪʃ(ə)ns/ (noun) The capacity to accept or tolerate delay. https://t.co/xsLwxokaBa https://t.co/pIa8H3hNQy",1,1
1378067070202621953,"2021-04-02T19:29:27Z","@cburniske They aren't silent at all. At least not in my timeline. Also, 58% dominance means #Bitcoin is still worth more than all competitors including $eth, $xrp, $dot and all the recent hot shit _combined_",0,0
1378067069288218625,"2021-04-02T19:29:27Z","@tokenames @MasksPoly 🐣 It's Ξaster chicky!  This card provides you extra reborn ability. Put your grudges aside and enjoy life every day! +1 Eth to your pocket after every good deed! 🐥 https://t.co/szTNw2skZX https://t.co/NeYzlbNj0v",0,0
1378067068596191235,"2021-04-02T19:29:27Z","30 day EVIX: 91.5084 ETH/USD vwap: $2,056.91 04/30 expiry volume: $8,420,168.75 05/28 expiry volume: $10,511,986.11 Current time: 19:29:05",0,0
1378067059876106245,"2021-04-02T19:29:24Z","Is amazing to see how this project has been out since Dec 2020 and so far Liquidity Providers have earned about 6533.78 $ETH and that is the total value of $10.6 Million dollars. 💪  Also the APY doing 301.35% which is amazing.  #DeFi #UniSwap #BSC #SmartContract #Ethereum https://t.co/9a7rgyoMpE",2385,2476
1378067059754565634,"2021-04-02T19:29:24Z","@tryShowtime To be honest, I have several 1 ETH artworks, but majority is below.   Making Art and Storytelling with help of Artificial Intelligence - even in creative collaboration with #AI. That's why every piece is unique, and with unlockable contents digging deeper. https://t.co/XaUZP2qUdG https://t.co/TsincXZPom",0,1
1378067046982955010,"2021-04-02T19:29:21Z","RT @flurtft: 💜 $200 in $ETH to someone who retweets this 💜 #Ethereum #ETH #giveaway",3113,6140
1378067046408196096,"2021-04-02T19:29:21Z","Trade ($GHD) staking BNB Earn GHD #BSC https://t.co/AOeD1UPU09  PancakeSwap  🈁 You Can Trade From Here: https://t.co/KpAq1epIFn  #Binance #BinanceSmartChain #Binance #BTC #ETH #CryptoNews https://t.co/exKp16Am8M",1416,1878
1378067041626824704,"2021-04-02T19:29:20Z","$PIVX 7-day report (March 26th - April 1st, 2021)  Average Daily Volume (7-day)$12.1M.  Average Marketcap (7-day) $105M Average USD Price for the Week $1.80  Top 3 Exchanges (By volume)🏦 1 @binance (PIVX/BTC) 2 @binance (PIVX/ETH) 3 @kucoincom (PIVX/BTC)  https://t.co/0tkxvvcPry",48,10
1378067039487598593,"2021-04-02T19:29:20Z","@danheld Now eth is gonna smack your maxiness l, better take a break and go on vacation while eth/btc moons.",0,0
1378067035893215238,"2021-04-02T19:29:19Z","$cns volume is much higher than $bepro was at more than double the price.   If this volume is remotely sustained for 3 days we will hit 0.01 #centric $btc $btt $#ALTSEASON #altcoins @Altcoinbuzznews @TheGemHunters @gem_detecter @gem_insider @lawrenzoosei #GemRadar #BTC #ETH https://t.co/XrrCfsSFvo",6,4
1378067034701975558,"2021-04-02T19:29:18Z","Want to Learn #DeFi the cheap, fast, and easy way?  Trade #BTC $ETH $LTC $WAVES on the @Waves_Exchange #DEX.  Or start #YieldFarming $SWOP on @Swopfi with $USDN $USDC $USDT $NSBT #BTC #ETH #WAVES for high #APY %  Easy signup: https://t.co/ivYIhHRhfj  @coinkit_ mon 5 400 $TZC https://t.co/sMRCgqWT23",141,353
1378067032625790980,"2021-04-02T19:29:18Z","#KNITFINANCE  Teams Up With @API3DAO  to Enable Multi-Chain Real-World Asset Tokenization #KnitDeFi  #CTBot Adrop Avg 0.0001 ETH 65 https://t.co/GGqWlCkcCQ",63,69
1378067028435726337,"2021-04-02T19:29:17Z","@mickalamasse1 @chainlink @bepronet @Poolz__ wake up tacoswap it’s time to put a strong pool on your dex. 🌶🌶🌶🚀🚀🚀🚀🚀 March 22nd, I have staked my UniV2LP from ETH - @bepronet on @Tacoswap_io with a 445% #APY! Join, good APYs  #yieldfarm #DeX #poolparty",3,2
1378067019313127424,"2021-04-02T19:29:15Z","Time for WitLink Token #Airdrop!  ✔️ Start the Airdrop bot: https://t.co/8HDV9cCJse  Complete the tasks to earn  Get 10 WAI ($2.5) + Get 4 WAI ($1) For Each Valid Refer   #ETH #BTC #WAI #LINK #Airdrops",1478,1424
1378067019107549187,"2021-04-02T19:29:15Z","#BLANKETH - Heading to the accumulation zone.  An important buying opportunity ahead. Range is 0.0018-0.0015 ETH.   TP1 will be once more hit, leave moon bag.  $BLANK is one of the most private, non-custodial #Ethereum wallets.  #Trading #Crypto #Bitcoin #ETH @BlankWallet https://t.co/Vwga9c4q8c",9,5
1378067015500369924,"2021-04-02T19:29:14Z","$DYP staking dApp with it's unique mechanism is coming to #BinanceSmartChain!   They will have 3 different pools: DYP-WBNB, DYP-ETH, and DYP-BUSD  AND 3 different types of rewards: WBNB/ETH/DYP, the users will be able to choose!   @BinanceChain @PancakeSwap #BSC $DYP https://t.co/gZzESsBBlT",2050,2055
1378067010798510080,"2021-04-02T19:29:13Z","is that hot?  #bitcoin #eth #ethereum https://t.co/N7rYxB8rO9",1,0
1378067003748052994,"2021-04-02T19:29:11Z","More drops this evening. Still at 0.04 $eth these won't be around for much longer 🚀 #nft #nfts #NFTcollectibles https://t.co/mX8qcSqyle",8,2
1378067003206815745,"2021-04-02T19:29:11Z","Eggdrop#5 -🥚🥚🥚🥚🥚  To celebrate ATH of ETH at $2k we will give away a NFTamagotchi Egg when we achieve 2k followers  To participate: - Retweet this message - Tag 3 friends  #Airdrop #Eggdrop #NFT #Eggdrop #giveaway",78,93
1378066995128770562,"2021-04-02T19:29:09Z","We are excited to announce a Strategic Partnership with @hedgeyfinance 🚀🚀🚀  @Modefi_Official's Aggregated Oracle will provide their Decentralized Options platform with trustless and secure pricing feeds!  #ETH #DeFi $ETH $MOD $PAR #Oracle $LINK $TRB https://t.co/lvqAKeFdHv",271,113
1378066995053137922,"2021-04-02T19:29:09Z","I'll send $300 in #ETH or #BTC to one person who retweets this and follows @bud_crypto. Must complete these tasks:  1 - Like/RT his pinned tweet  2 - Must RETWEET &amp; LIKE 4 of his tweets  Ends in 72 hours!",1128,1614
1378066993543270403,"2021-04-02T19:29:09Z","#NFTs and #ethereum #eth solve some of the problems that exist in the internet today. As it becomes more digital, there's a need to replicate the properties of physical items; uniqueness and proof of ownership &amp; birth   #blockchain #CryptoNews Solution: $SOS #DigitalAssetExchange https://t.co/seP7xdimpY",16,4
1378066991802687497,"2021-04-02T19:29:08Z","@at_mwagner Wag! You need a Cryptonaut in your NFT collection! Only .2 ETH! Help support us!  https://t.co/jwIwqw1D0V",1,0
1378066988539510784,"2021-04-02T19:29:07Z","@nothanks_b @brick_owens @IIICapital Hmmmm, well as I remember ath for ETH was about 750... x 3 ... what is today’s price again? Pretty close to 3x I think. 😂🤷‍♂️",0,0
1378066988044537857,"2021-04-02T19:29:07Z","Meet Batman Tumbler! Hurry to buy!  https://t.co/93zStPO8w9  One of the ships can be yours for free in 24 hours!  🙌follow me ❤️like  🖖retweet  ✌️2 friends+ comment with your ETH wallet address.  I wish everyone good luck! #NFTs #NFT #NFTartist #nftart #nft_ru #NFTcollectibles https://t.co/hhxOGyiuWq",197,140
1378066985263583232,"2021-04-02T19:29:07Z","RT @Phoenix_Ash3s: $eth everything under 2K is fud🤙🔥",12,1
1378066982101192707,"2021-04-02T19:29:06Z","and for those paying attention... One sneaky little VMPR PVNK's price has been dropped to 0.00 eth ! 🧐",1,0
1378066980461219840,"2021-04-02T19:29:06Z","ArtBlock is launching soon! In celebration, we are giving away several exclusive NFTs. To participate, make sure to be one of our first 2000 followers &amp; like + retweet this post!   #ArtBlock #NFT #cryptoart #art #digitalart #NFTCommunity",64,39
1378066978414284800,"2021-04-02T19:29:05Z","liquidity is the scaling that matters the most when you're creating the world's decentralized digital economy  all of the other scaling we need (transactions, etc.) will follow because of it, and the ingenuity of free market L2 protocol development  #Ethereum $ETH https://t.co/pBQZvOPefW",48,8
1378066968666865665,"2021-04-02T19:29:03Z","#KNITFINANCE  Teams Up With @API3DAO  to Enable Multi-Chain Real-World Asset Tokenization #KnitDeFi  #CTBot Adrop Avg 0.0001 ETH 65 https://t.co/GGqWlCkcCQ",63,69
1378066963998642176,"2021-04-02T19:29:02Z","#Safemoon exploded big time! #bitcoin $BTC #Ethereum $ETH",2,0
1378066955006001155,"2021-04-02T19:28:59Z","⛷️Hold up, I hit the slopes for the morning and come back to see $ETH trending on Cappy for the first time?   Looks like FinTwit found something to do when stock markets are closed? 🤣  👉https://t.co/VnUKqbTr0u https://t.co/ERgxtUon22",10,2
1378066948739670016,"2021-04-02T19:28:58Z","#KNITFINANCE  Teams Up With @API3DAO  to Enable Multi-Chain Real-World Asset Tokenization #KnitDeFi  #CTBot Adrop Avg 0.0001 ETH 65 https://t.co/GGqWlCkcCQ",63,69
1378066941034827782,"2021-04-02T19:28:56Z","Want the next FILECOIN? Are you looking for a cheap, sleeper coin? Take a look at SIACOIN, Wont have to move much for you to make money. FILECOIN and SIA both in storage. #SIACOIN #ada #cardano #eth #btc #Filecoin #fil",32,11
1378066938757316610,"2021-04-02T19:28:56Z","@radiostarkiller @Aro_op And if they were someone who can't pay bills and need every bit of money because otherwise they would need to stop drawing for a living, i could see it, but man, someone just paid 3 ETH (around 6K USD) for Yueko's drawing, and, no matter how much she say it, nobody will pay even&gt;",0,0
1378066929005527043,"2021-04-02T19:28:53Z","@dixon_eth @withFND Beautiful 💚 Go for it! 🌿",1,0
1378066923833982982,"2021-04-02T19:28:52Z","There will never be #trust in cryptocurrencies until a substantial percentage of the world population will stop selling #cryptocurrencies for #fiat and start selling fiat for cryptocurrencies!   #BTC #ETH #XRP #blockchain",0,0
1378066919111204871,"2021-04-02T19:28:51Z","@tryShowtime All of my pieces are less than 1 ETH. So everything is a steal. But the one on the spotlight is my favourite.   I think one should certainly check other pieces at https://t.co/RFyfS39vA2 https://t.co/2dYjTNOxQr",2,1
1378066913708834818,"2021-04-02T19:28:50Z","@DosRivers Not yet sir .. but im surely gonna think so after you send me some eth. 🔥 no offense sir ..",0,0
1378066910659534848,"2021-04-02T19:28:49Z","@NFT_us 🙌 Hand drawn with graphite pencils ✏️ 🕰️ 60hrs work to complete. 📽️ Slightly animated for barely perceptible cloud and hair movement  An absolutely stunning piece. And at 0.05 ETH, it won't break the bank.   https://t.co/f0HGsFt7iV",0,0
1378066910512869378,"2021-04-02T19:28:49Z","🚨@superhexwin has posted a new video on Youtube !   “How to Buy &amp; Stake HEX w/ Metamask Mobile App“ ⏱️(3 min) 📺: https://t.co/05UdI1ekyF __________________________ #Crypto #Cryptocurrency #BTC #DeFi #ETH #HEX https://t.co/QSZuMsQEBp",0,0
1378066906763177987,"2021-04-02T19:28:48Z","Want to Learn #DeFi the cheap, fast, and easy way?  Trade #BTC $ETH $LTC $WAVES on the @Waves_Exchange #DEX.  Or start #YieldFarming $SWOP on @Swopfi with $USDN $USDC $USDT $NSBT #BTC #ETH #WAVES for high #APY %  Easy signup: https://t.co/ivYIhHRhfj  @coinkit_ mon 5 400 $TZC https://t.co/sMRCgqWT23",141,353
1378066905894944778,"2021-04-02T19:28:48Z","@nic__carter @ceterispar1bus Also don’t think the significant increase in the ethbtc cross over the last year means “death of btc”. Fun to celebrate when right on trades and dunk on people telling you to short the bottom / hosting “death of eth, breaking below .03” parties on Clubhouse",0,0
1378066903424499714,"2021-04-02T19:28:47Z","⚡Price dropped ⚡ HARVEST available on @withFND! 🌐 #nft #nftcollector #NFTartists #eth #Ethereum #NFTCommuty #strss893 @3fmusic @Crypto888crypto @MantaXR . https://t.co/tVU5vXLiUx",19,10
1378066896583598082,"2021-04-02T19:28:46Z","#NFTs are here to stay... -@garyvee  95% of the projects are extremely vulnerable... -(also) @garyvee   The truth is often nuanced, layered, and/or paradoxical.   Happy Monday!  #NFT #NFTArt #Blockchain #ETH #Crypto #CryptoArt #Entrepreneur https://t.co/72oIUS5Jfg",12,5
1378066896495505412,"2021-04-02T19:28:46Z","500,000,000 SAFE BLUE MOON #AirDrop   First 500 people  🌕FLOW @safebluemoon  🌕RETWEET  🌕TAG 3 Friends 🌕Join us https://t.co/a7nRTdwNlS 🌕 Fill The Form https://t.co/sCVvLPP7Ih  #Airdrop #airdropalert #Airdrops #SAFEMOON #bsc #btc #bnb #eth #dot #cryptocurrencies #ToTheMoon https://t.co/DLTpF75hky",327,280
1378066896231227402,"2021-04-02T19:28:45Z","RT @tomuky: 🎯 $ETH to $5,000 within 50 days https://t.co/4aUmHx1OZS",1742,225
1378066891298639872,"2021-04-02T19:28:44Z","RT @whale_alert: 🚨 🚨  12,000 #ETH (24,626,276 USD) transferred from unknown wallet to unknown wallet  https://t.co/7qwyaDzBX9",44,5
1378066887611940865,"2021-04-02T19:28:43Z","According to a recent research note by JPMorgan, institutional investors have withdrawn about $20 billion from their gold investments since mid-October and during the same time frame, institutional inflows into Bitcoin (BTC) have increased by $7 billion.  https://t.co/ws1ayUIThS https://t.co/MAyk2cgWA5",0,0
1378066881920200706,"2021-04-02T19:28:42Z","Hi #Cryptonians,  we #giveaway for the  #holidays 300$ in $GCX to two of you each! 🕊️🕊️🕊️ Just do this: - Followus - Retweet and like - Tag friends much as possible  ⏲️Ends in 48 hours⏲️ ♥️ #StaySafe! ♥️ #Crypto #Blockchain #BTC #Space #BNB  #Mars #TWT #Airdrop #GCX #ETH #Easter",318,299
1378066878178934785,"2021-04-02T19:28:41Z","RT @General_Oluchi: ETH, BCH, GRT, CVC, EOS, SNX are all on 🔥!   Hope you are trading and making money? Don’t get left behind.",280,73
1378066876819902464,"2021-04-02T19:28:41Z","RT @QuintenFrancois: $ETH is going to $10k this cycle and there is absolutely nothing you can do about it.",2081,172
1378066871652646915,"2021-04-02T19:28:40Z","Ethereum $10,000 prediction? WRONG approach guys!   ETH can go to $30,000, or to $300.  Here we combine 3 indicators you can actually monitor, 5 scenarios.  This is only the trailer. Full video on YT: https://t.co/TZlqAGLE5S  If you found this useful, pls RT (and sub on YT)! 🙏🏻 https://t.co/d5IP5oikUj",98,18
1378066860067938311,"2021-04-02T19:28:37Z","💎 Capital #1 with GAN Generated Paintings 💎  ✨ Artwork by @TheMarjan 💰 Sold to 0x_nft for 8.0 ETH ($16,529.76)  https://t.co/D66uJ7ILZf  #cryptoart #NFT https://t.co/uGuvboEaZQ",5,2
1378066853017305093,"2021-04-02T19:28:35Z","RT @QuintenFrancois: We should have recognized the bottom signal...  $ETH https://t.co/VDTcwniugt",322,25
1378066845979316230,"2021-04-02T19:28:33Z","We are thinking about doing some kind of giveaway? Should we? They would be in the form of real NFTs #NFTs $pmon #crypto #giveaway #polkamon #BSC #eth You decide below!",50,16
1378066838106554370,"2021-04-02T19:28:32Z","@WiseNed_Be @econoar @mcuban He's a wise guy. He'll find his way to $wise. True #defi backed by #eth",1,0
