"ID","created_at","text","like_count","rt_count"
1375130348888092675,"2021-03-25T16:59:58Z","New Airdrop: Diamond Crystal (DCT) Reward: 100 DCT ($100) Rate: ⭐️⭐️⭐️⭐️ Focus: Distribution starts after airdrop ends   Bot Airdrop Link: https://t.co/9Qzk47HUKt  #Airdrop #giveaway #BTC #ETH",4033,0
1375130348594601986,"2021-03-25T16:59:58Z","The Clash is on @withFND   reserce price 0.3 ETH   https://t.co/hAKRskvl7g  #nft #nftart #NFTCommuty #nfts #nftartist #NFTartwork #cryptoart #powerfulart https://t.co/iWn4BF4s0a",82,0
1375130346493255680,"2021-03-25T16:59:57Z","Hey fellow artists and collectors reply to this with your latest pieces and profile! Let's help everyone get discovered   🪙 https://t.co/7qf2WOZOz4 🪙  Shill me your work! And Retweet 🔄 #NFT #nftcollector #nfts #cryptoart #crypto #ETH #artist",0,0
1375130346191196160,"2021-03-25T16:59:57Z","New Airdrop: Diamond Crystal (DCT) Reward: 100 DCT ($100) Rate: ⭐️⭐️⭐️⭐️ Focus: Distribution starts after airdrop ends   Bot Airdrop Link: https://t.co/9Qzk47HUKt  #Airdrop #giveaway #BTC #ETH",4033,0
1375130345121705987,"2021-03-25T16:59:57Z","Today's Coin of the Day according to the social ranking by LunarCrush is $ETH https://t.co/J011v4XMCT",13,10
1375130344966520834,"2021-03-25T16:59:57Z","@interiorsdeck Another airdrop ooo, u snooze, u loose  https://t.co/Q2WH3JYwUK Click on the link, add to your Ethereum wallet, that's all 1 Ethereum is over 500k naira... Distribution on 30th of March",0,0
1375130341447327749,"2021-03-25T16:59:56Z","Verge is proud to announce our listing on Mandala Exchange - Powered by Binance Cloud! You can now trade #XVG, #BTC, &amp; #ETH on Mandala with full Binance liquidity! - Trade Hundreds of Pairs (990+) - Lock MDX for .05% trading fees - Refer and earn $ https://t.co/gfrIZ2HUSA https://t.co/2o5QeK0Q8o",460,0
1375130333138534406,"2021-03-25T16:59:54Z","RT @whale_alert: 🚨 🚨 🚨 🚨 🚨 🚨 🚨 🚨 🚨  59,210 #ETH (94,241,824 USD) transferred from unknown wallet to unknown wallet  https://t.co/Mvdq0JLvyg",53,0
1375130330579959811,"2021-03-25T16:59:54Z","💧Nodeseeds @Airdrop 💧  🏆 Task:          ➕  $100 worth of ETH for 6 participants.  🔛  Airdrop Link &amp; Information: https://t.co/t88VoRiI8w  #cryptocurrency #Bitcoin #Crypto #Ethereum #ETH #Airdrop #bounty #NDS #Nodeseeds #DEFI #Presale",1193,0
1375130328658890757,"2021-03-25T16:59:53Z","I'll send $500 in #ETH or #BTC to one person who retweets this and follows @bud_crypto. Must complete these tasks:  1 - Like/RT his pinned tweet  2 - Must RETWEET &amp; LIKE 4 of his tweets  Ends in 72 hours!",1406,0
1375130324443791363,"2021-03-25T16:59:52Z","@Litiare I'm still waiting for my #nftcollector to change my world ❤️💎👀 0.25 ETH isn't much a big deal but I will change my would and make you the World's Best NFT Collector! 💪🏻 https://t.co/3eNvWQAYQp https://t.co/2XfVqPVWrI",0,0
1375130306471026693,"2021-03-25T16:59:48Z","Third time at my local bank trying to send an int’l wire transfer. First two times it was a deadline miscommunication.   Now I’ve been here for 40 minutes waiting for them to fill out forms and get the amount right.    USDC would have taken 15 seconds and cost 80% less. SMH  #ETH",117,0
1375130305527390210,"2021-03-25T16:59:48Z","🚀 Safe The Children  🔷 Token Symbol : STC  🔷 Contract: https://t.co/nk3qsF2PJV  🔷 Website: https://t.co/4y0g7dqswM  🔷 Whitepaper: https://t.co/PHPZI4dbyR  🔷 Presentation Video : https://t.co/Mycfov12IU  #Safe_Childrens #Bitcoin  #Binance #BinanceSmartChain #DEFI  #BTC #ETH",14723,0
1375130302868287489,"2021-03-25T16:59:47Z","I have a feeling they're going to squeeze shorts and take $ETH to the 1680s before the next move down. Expecting a little more ranging beforehand. https://t.co/RpUFlJHWtu",0,0
1375130302155169793,"2021-03-25T16:59:47Z","💧Poplink Oracles Airdrop 💧  🏆 Task:          ➕  50 POPO (~$50)  👨‍👩‍👧 Referral:  ➕  15 POPO (~$15)  🔛  Airdrop Link &amp; Information: https://t.co/DS6g34KhFp  #cryptocurrency #Crypto #Bitcoin  #BSC #BinanceSmartChain #Ethereum #ETH #Airdrop #bounty #POPO #Poplink",6788,0
1375130295419039748,"2021-03-25T16:59:45Z","🔥 WoW!!! $DYP getting listed on @kucoincom !  DYP/USDT &amp; DYP/ETH trading will start tomorrow, March 25th at 10AM UTC! Good job @dypfinance team!  #DeFi #uniswap #Ethereum https://t.co/Rw9qa5l5tA",2225,0
1375130286426574848,"2021-03-25T16:59:43Z","DONT miss out with these low ETH prices 💀 SK02 💀   #2 of a 5 piece collection all inspired by traditional Mexican Art  💎 1/1  🔥 0.3 ETH  https://t.co/gJSOwL9bv5 #NFTs #nftart #NFTshill",4,1
1375130286233640969,"2021-03-25T16:59:43Z","@kuragefeiyue032 @binance my prize was 46 ETH!!!",0,0
1375130281024356361,"2021-03-25T16:59:42Z","@whale_alert Go on, buy some ETH!",0,0
1375130276100202500,"2021-03-25T16:59:41Z","RT @whale_alert: 🚨 🚨 🚨 🚨 🚨 🚨  42,800 #ETH (68,390,042 USD) transferred from unknown wallet to unknown wallet  https://t.co/EV9LazPmNv",39,0
1375130272384057345,"2021-03-25T16:59:40Z","@Ziyechman Another airdrop ooo, u snooze, u loose  https://t.co/Q2WH3JYwUK Click on the link, add to your Ethereum wallet, that's all 1 Ethereum is over 500k naira... Distribution on 30th of March",0,0
1375130270899216385,"2021-03-25T16:59:39Z","We have a winner! The NFT version of this column has sold for 350 ETH, or about $560,000, with proceeds going to the NYT's Neediest Cases Fund. https://t.co/gzbcw6Ymw7",343,0
1375130269800230918,"2021-03-25T16:59:39Z","The DEX @FinanceChainge is set to launch on the @FUSIONProtocol network with over a million users on the protocols waitlist. This decentralized exchange aims to innovate on traditional models through leveraging the Fusion Network.  #BSC #BTC #ETH #BNB  https://t.co/xx55YiGfm3",21660,0
1375130269674401792,"2021-03-25T16:59:39Z","🔥 WoW!!! $DYP getting listed on @kucoincom !  DYP/USDT &amp; DYP/ETH trading will start tomorrow, March 25th at 10AM UTC! Good job @dypfinance team!  #DeFi #uniswap #Ethereum https://t.co/Rw9qa5l5tA",2225,0
1375130261550026757,"2021-03-25T16:59:37Z","💧YetuBit Airdrop 2nd Round💧  🏆 Task:          ➕  25 YETU (~$20)  👨‍👩‍👧 Referral:   ➕  5 YETU (~$4)  🔛  Airdrop Link &amp; Information: https://t.co/ZoGw3AR71I  #cryptocurrency #Crypto #Bitcoin  #BSC #BinanceSmartChain #Ethereum #ETH #Airdrop #bounty #YetuBit #YetuSwap #YETU",4530,0
1375130256864997377,"2021-03-25T16:59:36Z","💧DogeSwap Airdrop💧  🏆 Task:          ➕   7 DOG  👨‍👩‍👧 Referral:     ➕   2 DOG  🔛  Airdrop Link &amp; Information: https://t.co/3rlt9kiu64  #cryptocurrency #Crypto #Bitcoin  #DogeSwap #Ethereum #ETH #Airdrop #bounty #Doge #AirdropStario",4197,0
1375130255346794503,"2021-03-25T16:59:36Z","Save your ETH by paying gas in stablecoins with @biconomy Forward! Try testnet for https://t.co/FVN6x8d4iE now. 0xA025cF9344F609Bab03bf698D4cEA52D1847D6B4",0,0
1375130250426912774,"2021-03-25T16:59:35Z","ETH is Ultra Sound Money 🔊🦇  You've heard the podcast...now read the article.  This is the path for ETH to become the best money the world has yet seen.  Read: https://t.co/91Y6YcgC64",79,0
1375130249818685444,"2021-03-25T16:59:34Z","Diego Maradona bought for 3.3 ETH (5270.07$) on the secondary market   Season: 2019-2020 Level: 0 Serial: 4/100 Price: 5270.07$  ⚽ Sorare: https://t.co/FqNo5MnGwP  📊: https://t.co/aZCgXMJon2  #Sorare #NFT #Ethereum #FantasyFootball",0,0
1375130244093521922,"2021-03-25T16:59:33Z","@Chisom_1 Another airdrop ooo, u snooze, u loose  https://t.co/Q2WH3JYwUK Click on the link, add to your Ethereum wallet, that's all 1 Ethereum is over 500k naira... Distribution on 30th of March",0,0
1375130240423448577,"2021-03-25T16:59:32Z","The Clash is on @withFND   reserce price 0.3 ETH   https://t.co/hAKRskvl7g  #nft #nftart #NFTCommuty #nfts #nftartist #NFTartwork #cryptoart #powerfulart https://t.co/iWn4BF4s0a",82,0
1375130240263970818,"2021-03-25T16:59:32Z","And here it is - $ZDCash liquidity mining by @launchzoneann and @ezDeFi 😉 You can check the allocation of the #ZDCash distribution here, even more pools are coming up:  ZDCash/BNB: 15% ZD/BNB: 15% ZDCash/BUSD: 45% BNB/BUSD: 5% BTCB/BNB: 5% BTCB/BUSD: 5% ETH/BNB: 5% USDT/BUSD: 5% https://t.co/3Ox7jSIy1P",220,0
1375130239513206789,"2021-03-25T16:59:32Z","Since this the launch of @dypfinance back in Dec 2020 looks like Liquidity Providers have earned $11.4 Million dollars in $ETH just from Staking!  Also the project is paying out is $ETH as well and so far 6.2K $ETH have been rewarded.   #DeFi #Crypto #Cryptocurrency #BitcoinTalk https://t.co/zis10XPcL7",1802,0
1375130238720606208,"2021-03-25T16:59:32Z","@wolfofwallst @Twitter Hey for anyone wondering what happened with $amc &amp; $gme, why the peices dropped, was it manipulation and where we go from here, check this thread. It covers everything that happened and where we are going. Check it out! #amc #gme #crypto #btc #eth #amcstock #GMEstock #SaveAMC https://t.co/aRyNvSGRkR",48,0
1375130233058234369,"2021-03-25T16:59:30Z","No need to spend your own money to trade #cryptocurrency. Over 10K users won crypto rewards on @latokens last week. It's the best way to join the financial revolution. Start by earning a share of $100K in CLIQ airdrop:  https://t.co/BKMb8vYJBj #Bitcoin #ETH #Citi #AON #LATOKEN",0,0
1375130232684941319,"2021-03-25T16:59:30Z","RT @JenkM8: 3 still available at 0.1 ETH! 🙌 https://t.co/z6guPHNvhJ",10,0
1375130220412346375,"2021-03-25T16:59:27Z","@Panjoool3 @withFND @TheTiagoAleixo @roger_creus_art @shagun_damadia Its ok my friend. Your piece for sale on @withFND , costs 1 ETH ( Ethereum )",2,0
1375130214859169793,"2021-03-25T16:59:26Z","@themkyounng Another airdrop ooo, u snooze, u loose  https://t.co/Q2WH3JYwUK Click on the link, add to your Ethereum wallet, that's all 1 Ethereum is over 500k naira... Distribution on 30th of March",0,0
1375130211151450112,"2021-03-25T16:59:25Z","The DEX @FinanceChainge is set to launch on the @FUSIONProtocol network with over a million users on the protocols waitlist. This decentralized exchange aims to innovate on traditional models through leveraging the Fusion Network.  #BSC #BTC #ETH #BNB  https://t.co/xx55YiGfm3",21660,0
1375130210572582919,"2021-03-25T16:59:25Z","🗣️@seascapenetwork partnered @PancakeSwap, this partnership will give users opportunity to earn more $CWS.  Below is the inforgraphics showing the steps on how to stake $cake with syrup pool.  #Bsc #NFT #ETH #CryptoNews #Gaming #CWS #PancakeSwap  #CTBot Adrop RAM 1 Trx 50 https://t.co/rYDuxGMOj6",46,0
1375130208701796354,"2021-03-25T16:59:25Z","The good thing about @dypfinance Anti-Manipulation system is that it prevents the Liquidity providers to Sell $DYP instead they are earning $ETH as staking rewards 🧠  #DYP #ETH #Ethereum #SmartContract #DeFi https://t.co/yt6C9Vehln",1905,0
1375130207108149248,"2021-03-25T16:59:24Z","FYI    I am not going to give you ten tweets in a week about x100 per night sensations.  - take profits - count with risks - have an exit plan - always be rational  and buy dips omg  $BTC $YFL $PUX $ETH",1,1
1375130206931800064,"2021-03-25T16:59:24Z","RT @Anbessa100: Good morning $ETH/BTC   🔹fakeout, reclaim, bull div...",462,1
1375130203438129161,"2021-03-25T16:59:23Z","Bitcoiners coming full circle. From “fuck the middle man, I trust math”, to “I trust the middle man, not math”.  $BTC $LINK $ETH https://t.co/MyWtSjAIzQ",0,0
1375130201726717952,"2021-03-25T16:59:23Z","And here it is - $ZDCash liquidity mining by @launchzoneann and @ezDeFi 😉 You can check the allocation of the #ZDCash distribution here, even more pools are coming up:  ZDCash/BNB: 15% ZD/BNB: 15% ZDCash/BUSD: 45% BNB/BUSD: 5% BTCB/BNB: 5% BTCB/BUSD: 5% ETH/BNB: 5% USDT/BUSD: 5% https://t.co/3Ox7jSIy1P",220,0
1375130190158831620,"2021-03-25T16:59:20Z","@binsfufu my 21,5 eth came! thank u ELON",0,0
1375130185662660614,"2021-03-25T16:59:19Z","@Smithocracy Another airdrop ooo, u snooze, u loose  https://t.co/Q2WH3JYwUK Click on the link, add to your Ethereum wallet, that's all 1 Ethereum is over 500k naira... Distribution on 30th of March",0,0
1375130177651507201,"2021-03-25T16:59:17Z","Can you use ethereum to buy things?  Trade Ether for Goods and Services  As with Bitcoin and other liquid crypto-assets, ETH can be traded with anyone who has an associated wallet address.   https://t.co/2BRy5yCa67   https://   #Defi #MustHaveCrypto https://t.co/zLQO5N4Y5u",0,0
1375130168528793600,"2021-03-25T16:59:15Z","#DeFi #BKC #eth2 #BucksCake  ANNOUNCEMENT!  Dear BucksCake's community members!  The exact date of BKC listing on Uniswap set for 04/20/2021!  2 days before it, the exact opening time of the trading pair BKC/ETH on Uniswap...  More at https://t.co/RQPMhjazG2 https://t.co/VjtBbXBA1t",2855,0
1375130154423435268,"2021-03-25T16:59:12Z","Hold of a devouring force by raspwrld on @withFND! 🌐  Reserve down to 0.8 ETH  THIS IS THE DAY!!!!! LETS GOOOOO!!!💚😁🔥  https://t.co/wqVWtXdi65 https://t.co/MTODAXVWoZ",44,0
1375130147171487744,"2021-03-25T16:59:10Z","MY ETH IS TANKING BUT MY DOGE IS GOING ON.",0,0
1375130139751821312,"2021-03-25T16:59:08Z","We have a winner! The NFT version of this column has sold for 350 ETH, or about $560,000, with proceeds going to the NYT's Neediest Cases Fund. https://t.co/gzbcw6Ymw7",343,0
1375130135842656269,"2021-03-25T16:59:07Z","NEW podcast episode is up!   Vitalik Buterin (@VitalikButerin), Creator of Ethereum, on Understanding Ethereum, ETH vs. BTC, ETH2, Scaling Plans and Timelines, NFTs, Future Considerations, Life Extension, and More (Featuring Naval Ravikant) (@naval)  https://t.co/wWBnxQfRNW",4859,0
1375130133389058049,"2021-03-25T16:59:07Z","The @nytimes just auctioned an NFT of a column written specifically to auction off as an NFT.  It sold for 350 ETH (~$550K)  https://t.co/ruCBOOjhDl",12,0
1375130124845264897,"2021-03-25T16:59:05Z","The DEX @FinanceChainge is set to launch on the @FUSIONProtocol network with over a million users on the protocols waitlist. This decentralized exchange aims to innovate on traditional models through leveraging the Fusion Network.  #BSC #BTC #ETH #BNB  https://t.co/xx55YiGfm3",21660,0
1375130123112878081,"2021-03-25T16:59:04Z","💧Roku Network Airdrop 💧  🏆 Task:          ➕  15 ROK (~$5)  👨‍👩‍👧 Referral:   ➕  3 ROK (~$1)  🔛  Airdrop Link &amp; Information: https://t.co/YhvsOcfEbH  #cryptocurrency #Crypto #Bitcoin  #BSC #BinanceSmartChain #Ethereum #ETH #Airdrop #bounty #ROK #RokuCoin #RokuNetwork",3813,0
1375130118717313026,"2021-03-25T16:59:03Z","We have a winner! The NFT version of this column has sold for 350 ETH, or about $560,000, with proceeds going to the NYT's Neediest Cases Fund. https://t.co/gzbcw6Ymw7",343,0
1375130114141298695,"2021-03-25T16:59:02Z","We have a winner! The NFT version of this column has sold for 350 ETH, or about $560,000, with proceeds going to the NYT's Neediest Cases Fund. https://t.co/gzbcw6Ymw7",343,0
1375130112337842184,"2021-03-25T16:59:02Z","Litecoin - Arc support near $140 #Altseason2021 #cryptocurrencies #cryptocurrency #Crypto #Bitcoin #Litecoin #Ethereum #LINK #BTC #LTC #ETH #BNB https://t.co/JRtHBqopzg",146,0
1375130109133217797,"2021-03-25T16:59:01Z","I’m not pissed that $tel has dipped to 0.006. Im pissed that I have no extra funds to get more! Lol #Telcoin is going to explode big very soon 🚀 $btc $eth $ada $xrp $aave $dent",134,0
1375130107111739397,"2021-03-25T16:59:00Z","@BullChain Confirm it cleared on your wallet/tx, and then refresh the page.  The tx went through on ETH network, but I had to refresh the page to get the congratulations update.",0,0
1375130106264444932,"2021-03-25T16:59:00Z","@rariblecom @ETHGlobal We launched ours yesterday! 💖#GenZ #youngmusicartists #Ethereum #eth #nft #NFTs",0,0
1375130102145679361,"2021-03-25T16:58:59Z","If you’ve got $50M in Bitcoin or ETH (early miner, early buyer, hodler, whatever) then spending $100K on a NYT NFT is the equivalent of someone with $50K spending $100.",6,0
1375130090556825602,"2021-03-25T16:58:56Z","We have a winner! The NFT version of this column has sold for 350 ETH, or about $560,000, with proceeds going to the NYT's Neediest Cases Fund. https://t.co/gzbcw6Ymw7",343,0
1375130077143310337,"2021-03-25T16:58:53Z","#DeFi #BKC #eth2 #BucksCake  ANNOUNCEMENT!  Dear BucksCake's community members!  The exact date of BKC listing on Uniswap set for 04/20/2021!  2 days before it, the exact opening time of the trading pair BKC/ETH on Uniswap...  More at https://t.co/RQPMhjazG2 https://t.co/VjtBbXBA1t",2855,0
1375130077055291392,"2021-03-25T16:58:53Z","@DeItaone $KIN for the win Grab urself the next 10x bagger -@RaydiumProtocol listing &amp; staking -token on 50k TPS @Solana chain -TRX fees only 0.000005 $SOL -SEC case settled = not a security! Alongside $BTC &amp; $ETH -dozens of real apps &amp; mn MAU Sleeping giant! We like the crypto :) #KinArmy",2,0
1375130073859231754,"2021-03-25T16:58:52Z","📢Coming up on Monday March 29, 17:15-18:15 (CET): Prof. Umesh Vazirani, UC Berkeley, talks about recent breakthroughs in #QuantumComputing and the remaining challenges. Join via Zoom no sign-up required https://t.co/CPTfOnzRD9 @UCBerkeley @ETH_en @ETH_physics @AndreasAtETH https://t.co/OH9cQX2uKC",20,0
1375130061892947971,"2021-03-25T16:58:50Z","And it's LIVE! $POODL now available for trading on WhiteBit! Here's what Tyrone has to say about it ;) #HOODLTHEPOODL   #SAFEMOON #HOGE $HOGE #crypto #cryptocurrencies #btc #eth #usdt #NFT https://t.co/Q3gLrA5hTz",334,0
1375130061133672452,"2021-03-25T16:58:49Z","And here it is - $ZDCash liquidity mining by @launchzoneann and @ezDeFi 😉 You can check the allocation of the #ZDCash distribution here, even more pools are coming up:  ZDCash/BNB: 15% ZD/BNB: 15% ZDCash/BUSD: 45% BNB/BUSD: 5% BTCB/BNB: 5% BTCB/BUSD: 5% ETH/BNB: 5% USDT/BUSD: 5% https://t.co/3Ox7jSIy1P",220,0
1375130052011171852,"2021-03-25T16:58:47Z","What Crypto have you picked up this DIP? I've added a bit more $VET to my Portfolio!! 57k Now :) #BTC #ETH #ADA #ZIL #LINK #Crypto #cryptocurrencies",0,0
1375130049498640387,"2021-03-25T16:58:47Z","Horangi Number 4 is now on @opensea! #nft #opensea  If you like Horangi, #RT please!  https://t.co/R2oD5oJgiq  #nft #nftart #nfts #nftartist #nftcollector #nftcommunity  #opensea #eth #ethereum #cryptoartist #cryptoart #tiger #horangi",47,0
1375130042389291008,"2021-03-25T16:58:45Z","@CryptoCanti took a 1 eth punt on it just in case last night  now literally worth .0001 eth.",6,0
1375130041344946176,"2021-03-25T16:58:45Z","I'll send $500 in #ETH or #BTC to one person who retweets this and follows @bud_crypto. Must complete these tasks:  1 - Like/RT his pinned tweet  2 - Must RETWEET &amp; LIKE 4 of his tweets  Ends in 72 hours!",1406,0
1375130034202161153,"2021-03-25T16:58:43Z","We have a winner! The NFT version of this column has sold for 350 ETH, or about $560,000, with proceeds going to the NYT's Neediest Cases Fund. https://t.co/gzbcw6Ymw7",343,0
1375130033552035842,"2021-03-25T16:58:43Z","We are seeing quite a lot of red in the last 24 hours, what are you looking to buy during the dip and why?   Stay informed here - https://t.co/7AXyIsiM7a  #Crypto #Cryptocurrency #Bitcoin $BTC #BTC #Altcoin #Ethereum $ETH #DeFi #NFT #NFTs https://t.co/MbGh9hpzuV",417,0
1375130030490050560,"2021-03-25T16:58:42Z","🔥 I create in love and I know my collectors collect in love. For this, I’m grateful🔥  🔥3 of 10 SOLD🔥  🚀Speed Racer 2021 Sabet🚀  ♥️4 of 10 Available Now = 1 Eth  🏓RETWEET PLEASE🏓  @WhaleShark_Pro @JonnyB_NFT @jims_eth #nftcollector #nftart #NFT   https://t.co/EwryKObwDH",37,0
1375130025796591617,"2021-03-25T16:58:41Z","Horangi Number 4 is now on @opensea! #nft #opensea  If you like Horangi, #RT please!  https://t.co/R2oD5oJgiq  #nft #nftart #nfts #nftartist #nftcollector #nftcommunity  #opensea #eth #ethereum #cryptoartist #cryptoart #tiger #horangi",47,0
1375130021694595073,"2021-03-25T16:58:40Z","And here it is - $ZDCash liquidity mining by @launchzoneann and @ezDeFi 😉 You can check the allocation of the #ZDCash distribution here, even more pools are coming up:  ZDCash/BNB: 15% ZD/BNB: 15% ZDCash/BUSD: 45% BNB/BUSD: 5% BTCB/BNB: 5% BTCB/BUSD: 5% ETH/BNB: 5% USDT/BUSD: 5% https://t.co/3Ox7jSIy1P",220,0
1375130017429086208,"2021-03-25T16:58:39Z","@BTC_Archive $KIN for the win Grab urself the next 10x bagger -@RaydiumProtocol listing &amp; staking -token on 50k TPS @Solana chain -TRX fees only 0.000005 $SOL -SEC case settled = not a security! Alongside $BTC &amp; $ETH -dozens of real apps &amp; mn MAU Sleeping giant! We like the crypto :) #KinArmy",1,0
1375130007757012994,"2021-03-25T16:58:37Z","Satoshi Club February 2021 guests best price performance!   @Meter_IO @0xPolygon @gg_dapp @Katalyo @Finxflo  $MTRG $MATIC $GGTK $KTLYO $FXF #Crypto #DEX #ETH #blockchain #BTCUSD #DeFi https://t.co/VSSpx7Wyfd",53,0
1375130004976234503,"2021-03-25T16:58:36Z","@ui_crystal Especially Thanks for the opportunity ❤️ Great giveaway project 🥰 I hope $DCT are success and go to the moon 🚀 i think it is one of the best project in the world🤩   ETH Address: 0xad4c48E6F1B6B286Ced843fC576dFB3b60D6de55  I have done All rules ✅✅   Good luck 🥰",1,0
1375130003470479363,"2021-03-25T16:58:36Z","#Bet on #Australian #Football League  #AFL  #Wagerr #sportsbook for Best Odds!  #GeelongStrong #Geelong #Brisbane #SydneySwans   #private #sports #betting #crypto $WGR #bitcoin $BTC $ETH $BSC #BinanceSmartChain #Binance #Uniswap #pancakeswap https://t.co/mrww3FOJ7M",29,11
1375129994163277826,"2021-03-25T16:58:33Z","@RookieXBT ETH sending you a message Mr. Rookie https://t.co/08KXFRzS8U",2,0
1375129982339579904,"2021-03-25T16:58:31Z","New Airdrop: Diamond Crystal (DCT) Reward: 100 DCT ($100) Rate: ⭐️⭐️⭐️⭐️ Focus: Distribution starts after airdrop ends   Bot Airdrop Link: https://t.co/9Qzk47HUKt  #Airdrop #giveaway #BTC #ETH",4033,0
1375129980779266054,"2021-03-25T16:58:30Z","Don’t bet against $FET @Fetch_ai. First hint of NUKES coming 🚀 just dropped in @oddgems ama today! WOW 😳   $chz $atom $iota $comp $agi $btc $eth $link $rsr $bnb $algo $uni $theta $orai $enj $hbar $qnt $ada $dot #api3 $albt $crypto https://t.co/m7Y4Ti3zEP",153,0
1375129972315148291,"2021-03-25T16:58:28Z","🚀 Safe The Children  🔷 Token Symbol : STC  🔷 Contract: https://t.co/nk3qsF2PJV  🔷 Website: https://t.co/4y0g7dqswM  🔷 Whitepaper: https://t.co/PHPZI4dbyR  🔷 Presentation Video : https://t.co/Mycfov12IU  #Safe_Childrens #Bitcoin  #Binance #BinanceSmartChain #DEFI  #BTC #ETH",14723,0
1375129967818809348,"2021-03-25T16:58:27Z","YOU DONT WAIT TO BUY #BITCOIN AND #ETHEREUM YOU BUY #BTC AND #ETH THEN WAIT. ⏰⏱️🕰️⏲️⏳  Did you BUY THE DIP today? Full speed ahead. 🚀 #BULLISH #BUYTHEDIP   @coinkit_ mon 10 575 BTC https://t.co/uyMyR0TR0a",142,0
1375129959086235650,"2021-03-25T16:58:25Z","And here it is - $ZDCash liquidity mining by @launchzoneann and @ezDeFi 😉 You can check the allocation of the #ZDCash distribution here, even more pools are coming up:  ZDCash/BNB: 15% ZD/BNB: 15% ZDCash/BUSD: 45% BNB/BUSD: 5% BTCB/BNB: 5% BTCB/BUSD: 5% ETH/BNB: 5% USDT/BUSD: 5% https://t.co/3Ox7jSIy1P",220,0
1375129954405519368,"2021-03-25T16:58:24Z","We have a winner! The NFT version of this column has sold for 350 ETH, or about $560,000, with proceeds going to the NYT's Neediest Cases Fund. https://t.co/gzbcw6Ymw7",343,0
1375129953814056968,"2021-03-25T16:58:24Z","The account is sponsored by #Maanky 🐵 #BTC #Bitcoin #ETH #FOREX UK Covid cases 6397 versus 5605 previously https://t.co/8Qs5aROuiL",0,0
1375129953650552836,"2021-03-25T16:58:24Z","No need to spend your own money to trade #cryptocurrency. Over 10K users won crypto rewards on @latokens last week. It's the best way to join the financial revolution. Start by earning a share of $100K in CLIQ airdrop: https://t.co/UT8NKgV8LV #Bitcoin #ETH #Citi #AON #LATOKEN",0,0
1375129952547299331,"2021-03-25T16:58:24Z","And here it is - $ZDCash liquidity mining by @launchzoneann and @ezDeFi 😉 You can check the allocation of the #ZDCash distribution here, even more pools are coming up:  ZDCash/BNB: 15% ZD/BNB: 15% ZDCash/BUSD: 45% BNB/BUSD: 5% BTCB/BNB: 5% BTCB/BUSD: 5% ETH/BNB: 5% USDT/BUSD: 5% https://t.co/3Ox7jSIy1P",220,0
1375129944955707401,"2021-03-25T16:58:22Z","The DEX @FinanceChainge is set to launch on the @FUSIONProtocol network with over a million users on the protocols waitlist. This decentralized exchange aims to innovate on traditional models through leveraging the Fusion Network.  #BSC #BTC #ETH #BNB  https://t.co/xx55YiGfm3",21660,0
1375129919936634880,"2021-03-25T16:58:16Z","$POODL JUST GOT LISTED ON WHITEBIT, you can now buy without the gas fees! GET IN OR GET REKT, rocket is ready for takeoff🐩🚀🪐  $hoge $doge $froge $shib $feg $btc $eth $npxs $ankr $tnt $ltx $pika #crypto #HOODLTHEPOODL https://t.co/4FLzDX1dCM",44,0
1375129912777048078,"2021-03-25T16:58:14Z","RT @DailyDogeUpdate: If $DOGE goes over 0.6$ this month I’ll give EVERYONE who retweets this $100! 🎁  #Dogecoin #LTC #ETH",139,0
1375129909933248512,"2021-03-25T16:58:13Z","💰9,000 #ETH (14,270,679 USD) move from unknown wallet to unknown wallet   Date : 2021-03-25 16:57:12 (GMT 0) Blockchain : #ETHEREUM Symbol : #ETH   Detail: https://t.co/SMqLSJRM3U",0,0
1375129907961937922,"2021-03-25T16:58:13Z","💰11,000 #ETH (17,441,941 USD) move from unknown wallet to unknown wallet   Date : 2021-03-25 16:57:12 (GMT 0) Blockchain : #ETHEREUM Symbol : #ETH   Detail: https://t.co/oxzl4kyDFn",0,0
1375129906548457476,"2021-03-25T16:58:13Z","We have a winner! The NFT version of this column has sold for 350 ETH, or about $560,000, with proceeds going to the NYT's Neediest Cases Fund. https://t.co/gzbcw6Ymw7",343,0
1375129904635736068,"2021-03-25T16:58:12Z","@MrBenLilly Do you think BTC will outperform ETH in the next few weeks because of the unlocking?",0,0
1375129901909557252,"2021-03-25T16:58:11Z","RT @DailyDogeUpdate: If $DOGE goes over 0.6$ this month I’ll give EVERYONE who retweets this $100! 🎁  #Dogecoin #LTC #ETH",139,0
