"ID","created_at","text","like_count","rt_count"
1374518822535761920,"2021-03-24T00:29:59Z","📌 The TokenKennel #Giveaway | Rules 📌 =   - Step 1: Like &amp; Retweet + tag 3-5 People! - Step 2: Follow @KennelToken &amp; @__Bullish__ - Step 3: Join https://t.co/1wcwTits9h - Step 4: Send Proof!   Prize = 100$ in #BTC or #ETH  06/04, we will announce the winner! 🎁",1814,2129
1374518814851747841,"2021-03-24T00:29:57Z","📈💶$1,000,843 $ETH LONGED @$1659.0 [24/03/21 00:29:57] 🏪FTX | ETH-PERP  🗣️We’re all getting russian mail bride girlfriends! - RNR_0",4,0
1374518804969967617,"2021-03-24T00:29:55Z","🤑 🔥👉 https://t.co/GydSZXKIno  66.520 AMA = 1 ETH  #AmazonCoin #amazon #crypto #cryptocurrency #art #cryptoart #nft #nfts #fintech #cryptonews #defi #blockchain #token #tokensale #ico #ieo #iot #ai #ethereum #wallstreetbets #wsb #eth #altcoin #doge #dogecoin $btc #btc #bitcoin https://t.co/IsGge6Qqw3",3,0
1374518804483502083,"2021-03-24T00:29:54Z","📈💶$1,000,541 $ETH LONGED @$1658.5 [24/03/21 00:29:54] 🏪FTX | ETH-PERP  🗣️Ain’t no cure for stupid! - MossMiners",5,0
1374518802109501447,"2021-03-24T00:29:54Z","🔥We have started random global airdrop of 100,000 NFTs to single wallet ETH address 🚀 USDT-NFTs is listed on Uniswap  🚀 The contract address: 0x6599fc3e77cbfa6f6e9cac605a30b1e78827eba0  💰 Holding more NFTs makes you richer  🚀Like、Retweet &amp; Tag 3 friends  #NFTs #NFT #AIRDROP https://t.co/1tf4LcEX3C",1086,943
1374518743070502917,"2021-03-24T00:29:40Z","30 day EVIX: 95.5435 ETH/USD vwap: $1,655.59 04/09 expiry volume: $2,737,692.89 04/30 expiry volume: $7,680,989.03 Current time: 00:29:12",0,0
1374518739043983363,"2021-03-24T00:29:39Z","1/ Earn free #crypto while you read &amp; write about it on @publish0x! Claim FREE #Ethereum #Ampleforth &amp; $FARM tips every day  ⏰LIMITED TIME: $ETH $AMPL withdrawals to @kucoincom get a 10% bonus for the next 2 weeks!  https://t.co/5ubrW3rZ2C #Airdrops #ETH @coinkit_ mon 5 30 btc",9,26
1374518737005514762,"2021-03-24T00:29:38Z","The DEX @FinanceChainge is set to launch on the @FUSIONProtocol network with over a million users on the protocols waitlist. This decentralized exchange aims to innovate on traditional models through leveraging the Fusion Network.  #BSC #BTC #ETH #BNB  https://t.co/xx55YiGfm3",21105,13409
1374518733633245197,"2021-03-24T00:29:38Z","📌 The TokenKennel #Giveaway | Rules 📌 =   - Step 1: Like &amp; Retweet + tag 3-5 People! - Step 2: Follow @KennelToken &amp; @__Bullish__ - Step 3: Join https://t.co/1wcwTits9h - Step 4: Send Proof!   Prize = 100$ in #BTC or #ETH  06/04, we will announce the winner! 🎁",1814,2129
1374518718265401352,"2021-03-24T00:29:34Z","#DWBroodle  Newest #Drop!  Ursula's Heiress :: =.1 #ETH  Description:  Ursula's Heiress and #Queen to the underwater Seas.  #Rarity 1 of 1- No more #NFT copies will be made.  https://t.co/8c8A6MtSkn https://t.co/h0YZvDEDy9",5,0
1374518716453453832,"2021-03-24T00:29:33Z","RT @HoaLQ3: $STRAX #DeFi $BTC $ETH Stratis platform is the new Defi generation.",16,3
1374518708031262720,"2021-03-24T00:29:31Z","🚨NEW PIXO SKINS ALERT🚨   👸🏼*PixoSkins #5👸🏼 “A dream is a wish your heart makes.”   🚨 LISTED AT 0.1 ETH 🚨   YOU CAN BUY ME HERE 🥺👉🏻 https://t.co/eBuWm4QXk1 #nftcollectors #nftart #NFTartist #cryptoart #cryptocurrencies",1,0
1374518697839140870,"2021-03-24T00:29:29Z","@news_of_bsc @BinanceChain @cz_binance #BSC has made #ETH look like an old and neglected blockchain. Is the Ethirium still a thing? Lol $BNB $BSCX https://t.co/AHqZsbNLHb",126,76
1374518695968477193,"2021-03-24T00:29:29Z","📈🚀💶$21,001,620 $ETH LONGED @$1667.3 [24/03/21 00:14:42] 🏪FTX | ETH-PERP  🗣️ 🇫🇷 In France we didnt blame the smicard, we blame the Smic - Chris Smic 🥊",99,20
1374518695666446340,"2021-03-24T00:29:29Z","Any new, talented, unique crypto artists to recommend?  I wanna kickstart them with some ETH like those did for me back in the day [@CollinsCustomIP, @Hans_2024, @SkipperGemx, @gabusch @xavieriturralde .. plus many more]",34,6
1374518684048265216,"2021-03-24T00:29:26Z","We all know how undervalued $ATOM is. If you don't, I'm telling you right now.  It does everything $ETH wanted to do 10 times better. You know that $DOT and $ATOM are similar but one is over-priced the other is not...  $SENT mainnet is this week! 🚀 Excited to stake with @Cosmos https://t.co/cPxGH7DhHj",177,36
1374518672149024781,"2021-03-24T00:29:23Z","My portfolio Futures Low leverage: $BTS $ETH $LINK $RSR $VET $OCEAN  Spot $win $btt $npxs  $hot $dent $vtho $mbl  $sc $mft $ckb $idex $qlc $aergo  I've got a good feeling",6,0
1374518662967693318,"2021-03-24T00:29:21Z","#Bitcoin was supposedly invented by #SatoshiNakamoto but no one knows who he really is and no one has come forward to take credit for being #Nakamoto. Who do you think he really is?  Art 1/50 🐿 🚀  #NFTs #NFT #digitalart #cryptoart #ETH #Ethereum #nftart https://t.co/FfOMll5lXG",1,0
1374518653450809353,"2021-03-24T00:29:18Z","@CarpeNoctom @JonnyMoeTrades $ETH looks bad enough that @ledgerstatus may not be able to afford a steak dinner",2,0
1374518652821590023,"2021-03-24T00:29:18Z","I'm trying not to win here 🤣🤣 (and I'm a tiny fish, seriously). Just couldn't resist 5 $MEGA - who can? That token is going to $100 on TRX and ETH.  @MegaCryptoPolis #playtoearn #NFTs #blockchaingames #simcity https://t.co/nS7sEaUhfq",12,1
1374518646446321670,"2021-03-24T00:29:17Z","The relevant question isn’t who will be harmed by the mere filing of the Complaint.   The relevant question is who benefited by the mere filing of the Complaint (causing the harm)?  It’s not that someone was against #XRP per se but favored or promoted #BTC and #ETH and ?",325,42
1374518640637190150,"2021-03-24T00:29:15Z","Coin Mentions Spiked in reddit for $ETH 24HR Price Change: -1.300% Price: $1655.670 Signal: Short-Term #Neutral  #alert #Ethereum https://t.co/F5YPkJsI85 https://t.co/X6tZcTHARK",0,0
1374518639676694529,"2021-03-24T00:29:15Z","Imagine not toppin up $eth under $1.7K till Friday.",0,0
1374518634534465539,"2021-03-24T00:29:14Z","$CX @exchange_circle is an innovative hybrid CEX/DEX exchange. They have been working for over one year before the went for a raise of 890 ETH which got filled within a few minutes and listed just about two week ago.  1/ https://t.co/nsXl5g6geR",88,37
1374518632932208645,"2021-03-24T00:29:14Z","📈🚀💶$21,001,620 $ETH LONGED @$1667.3 [24/03/21 00:14:42] 🏪FTX | ETH-PERP  🗣️ 🇫🇷 In France we didnt blame the smicard, we blame the Smic - Chris Smic 🥊",99,20
1374518624078065667,"2021-03-24T00:29:11Z","* Daily 24HR ETH Derivatives Volume *  Call volume: $135,257,805.01 Put volume: $55,102,393.36 Futures volume: $268,283,613.06",0,0
1374518617962737669,"2021-03-24T00:29:10Z","⚡️New #FlashLoan 7.6735 $ETH to 0xcbb5dbbccfbf6af8af75d0cbd5646c73d847cd15  https://t.co/jjUxwU1RJJ",0,0
1374518596051759105,"2021-03-24T00:29:05Z","📌 The TokenKennel #Giveaway | Rules 📌 =   - Step 1: Like &amp; Retweet + tag 3-5 People! - Step 2: Follow @KennelToken &amp; @__Bullish__ - Step 3: Join https://t.co/1wcwTits9h - Step 4: Send Proof!   Prize = 100$ in #BTC or #ETH  06/04, we will announce the winner! 🎁",1814,2129
1374518593208029195,"2021-03-24T00:29:04Z","not too enthusiastic about the $ETH chart. Be cautious out there if you are heavily long. This double top and short-term breakdown of the 13/20/50 moving averages is not in favor of the bull trend. https://t.co/hJfPmFRHzI",121,12
1374518589965824005,"2021-03-24T00:29:03Z","Looking to put in some long postions this weekend or next week after the March Futures contracts expire. We're in the whale liquidation zone time right now imo. Looking for a nice #bitcoin and #eth entry for the net big leg up to $btc $70k. https://t.co/iqB1cREeH4",2,1
1374518584815149059,"2021-03-24T00:29:02Z","[Pre] A big chance in a billion! Price: \180188.0 (2021/03/24 09:27) #ETH #ethereum",0,0
1374518561448681474,"2021-03-24T00:28:57Z","i literally am just speaking the truth, eth. https://t.co/97cnHcRI9g",0,0
1374518561012473860,"2021-03-24T00:28:56Z","Great writeup on $VNLA. They chose to build on $MATIC to avoid the terrible $ETH fees. The first deflationary staking coin, it continues to burn 5% on every transaction until only 100,000 coins are left. That means every bet or trade lowers supply.  https://t.co/QdUpHPYa1V",83,17
1374518556222582788,"2021-03-24T00:28:55Z","@cz_binance is the real GOD of #Defi.  #BSC is number one and #ETH is obsolete.    The $BSCX community will be delighted to get listed on the #Binance   Follow GOD and we can be rich!! $BNB Lead, $BSCX will follow!! https://t.co/yCd2nMFLis",185,105
1374518552472870918,"2021-03-24T00:28:54Z","What @VitalikButerin is doing in the below video is much more of an “offering” of a security than any specific sale of #XRP that I’m aware of - (although I’m not aware of all #XRP sales).   The transfer of 500k #ETH sold to @novogratz that Vitalik publicly stated SAVED the https://t.co/xyx1aPHVB0",670,191
1374518539470606340,"2021-03-24T00:28:51Z","@CriptogirlB @_benkaufman hahaha and eth is the cheapest 🤣🤣🤣",2,0
1374518535586676737,"2021-03-24T00:28:50Z","Pair Created! Pairs → BLES-ETH  $BLES = &lt; 0.0001 ETH ($0.0098)  $ETH = 169,103 BLES ($1,658)  Total Liquidity $324,772  https://t.co/cnDjImnaJM",0,0
1374518526644420611,"2021-03-24T00:28:48Z","10 HOURS TO GO!!   Current bid is 2 ETH  from @mondoir 🔥🔥🔥  Check out PARANOIA_04 on @withFND    https://t.co/uASKfc6B9G #nfts #nft #nftdrop https://t.co/sN8CxwlXeI https://t.co/n8EgUmOZTD",24,7
1374518520193544198,"2021-03-24T00:28:47Z","💧DogeSwap Airdrop💧  🏆 Task:          ➕   7 DOG  👨‍👩‍👧 Referral:     ➕   2 DOG  🔛  Airdrop Link &amp; Information: https://t.co/3rlt9kiu64  #cryptocurrency #Crypto #Bitcoin  #DogeSwap #Ethereum #ETH #Airdrop #bounty #Doge #AirdropStario",3945,5026
1374518508084547595,"2021-03-24T00:28:44Z","🚀 Safe The Children  🔷 Token Symbol : STC  🔷 Contract: https://t.co/nk3qsF2PJV  🔷 Website: https://t.co/4y0g7dqswM  🔷 Whitepaper: https://t.co/PHPZI4dbyR  🔷 Presentation Video : https://t.co/Mycfov12IU  #Safe_Childrens #Bitcoin  #Binance #BinanceSmartChain #DEFI  #BTC #ETH",13977,13665
1374518499876380674,"2021-03-24T00:28:42Z","@CoinCitadelCCTL I have more ETH 😂😂",4,0
1374518491076718597,"2021-03-24T00:28:40Z","Please help me. 0.01 ETH I have no money and would like to invest in cryptocurrencies. so I can help my family. $eth @VitalikButerin  #ethereum @ethereum @binance  #cryptocurrency  ADDRESS ETH 0x863F3BBD250762f12e9e2475051bD23DC2C73024 #ETH #ETHUSD @cz_binance https://t.co/hQ0iOyCsLk",2,0
1374518487821938691,"2021-03-24T00:28:39Z","@cz_binance is the real GOD of #Defi.  #BSC is number one and #ETH is obsolete.    The $BSCX community will be delighted to get listed on the #Binance   Follow GOD and we can be rich!! $BNB Lead, $BSCX will follow!! https://t.co/yCd2nMFLis",185,105
1374518487360491522,"2021-03-24T00:28:39Z","There are reports of an internal announcement within the ETH gov stating that 59+ districts in Oromia are either near or completely in OLA hands.  In other words: Nearly 1/4 of Oromia or 90000 sq km, an area larger than Switzerland 🇨🇭 &amp; Denmark 🇩🇰 combined, are under OLA command. https://t.co/Qi6zLLSCRz",94,40
1374518482914533384,"2021-03-24T00:28:38Z","Volume increasing. Big news imminent, this bad boy is about to explode. If you’re not in $sntvt I can’t help you. Massive project and it’s at $50m market cap. Do the math 💥🔥🚀. DYOR  $btc $eth $defi $alts",29,11
1374518452304539657,"2021-03-24T00:28:31Z","Giving away 0.1 ETH  U have to retweet this and like and also follow me After 24 hours i will randomly pick the winner and the winner will be announced per comment under this tweet !!! 🎁🎉🎊 $RWN $WAR $TFT $MOCHI #giveaway #crypto #btc  #altcoin #altcoins #Altseason2021",72,65
1374518448177303553,"2021-03-24T00:28:30Z","💧Roku Network Airdrop 💧  🏆 Task:          ➕  15 ROK (~$5)  👨‍👩‍👧 Referral:   ➕  3 ROK (~$1)  🔛  Airdrop Link &amp; Information: https://t.co/YhvsOcfEbH  #cryptocurrency #Crypto #Bitcoin  #BSC #BinanceSmartChain #Ethereum #ETH #Airdrop #bounty #ROK #RokuCoin #RokuNetwork",3593,4683
1374518446499655684,"2021-03-24T00:28:29Z","My latest design Ethphant Checkout at https://t.co/EmnmZ32PDL #eth #ethereum #nft #nftart https://t.co/jljn5aP9KS",0,0
1374518443853049867,"2021-03-24T00:28:28Z","1/ Earn free #crypto while you read &amp; write about it on @publish0x! Claim FREE #Ethereum #Ampleforth &amp; $FARM tips every day  ⏰LIMITED TIME: $ETH $AMPL withdrawals to @kucoincom get a 10% bonus for the next 2 weeks!  https://t.co/5ubrW3rZ2C #Airdrops #ETH @coinkit_ mon 5 30 btc",9,26
1374518443064487937,"2021-03-24T00:28:28Z","@NFTgirl My digital artwork called White, inspired by Kazimir Malevich. Price is 255.255255 ETH (HTML code for color white) and should only be resold for 255255.255 ETH. https://t.co/sU1OmCVWmX...?",0,0
1374518438169698308,"2021-03-24T00:28:27Z","@WSBPump The good project will bring miracle in the Crypto World, this become a next of $ETH We trust #SAFEBTC  @cerenetwork  @CatsExchange  @BSCPad  @hgunawan82  @WallStreetPump  @ShillCentral  @andre  @PancakeSwap",0,0
1374518436475281417,"2021-03-24T00:28:27Z","@Bitboy_Crypto I first started following you a couple weeks before Valentine’s Day and your ETH prediction has been way off. I hold you responsible for my losses 😭 I’m just playing with you. Just send me a car and we can call it even 😁",0,0
1374518418498486272,"2021-03-24T00:28:22Z","Great writeup on $VNLA. They chose to build on $MATIC to avoid the terrible $ETH fees. The first deflationary staking coin, it continues to burn 5% on every transaction until only 100,000 coins are left. That means every bet or trade lowers supply.  https://t.co/QdUpHPYa1V",83,17
1374518409233244161,"2021-03-24T00:28:20Z","💎Hey! Everyone!! Raising hands   I have some ETH to buy some #NFTs tonight.  1. Follow me 2. Like and retweet 3. Drop your NFTs in the comments, I'll buy your art!  #NFTs #nft #nftcollector #nftart #cryptoart #nftcollectors #NFTcollectibles #NFTartist",222,92
1374518398621679617,"2021-03-24T00:28:18Z","📌 The TokenKennel #Giveaway | Rules 📌 =   - Step 1: Like &amp; Retweet + tag 3-5 People! - Step 2: Follow @KennelToken &amp; @__Bullish__ - Step 3: Join https://t.co/1wcwTits9h - Step 4: Send Proof!   Prize = 100$ in #BTC or #ETH  06/04, we will announce the winner! 🎁",1814,2129
1374518398122557440,"2021-03-24T00:28:18Z","@longtermdaily @david_dot_eth @thorchain_org Which chains does it offer for trade?",0,0
1374518371966885894,"2021-03-24T00:28:11Z","🔥We have started random global airdrop of 100,000 NFTs to single wallet ETH address 🚀 USDT-NFTs is listed on Uniswap  🚀 The contract address: 0x6599fc3e77cbfa6f6e9cac605a30b1e78827eba0  💰 Holding more NFTs makes you richer  🚀Like、Retweet &amp; Tag 3 friends  #NFTs #NFT #AIRDROP https://t.co/1tf4LcEX3C",1086,943
1374518371643912193,"2021-03-24T00:28:11Z","@carlosmarcialt i would had at least left 1 million on ETH 😅",2,0
1374518360004726787,"2021-03-24T00:28:08Z","@Cannaestia Hi everyone! I do glamour NFTs which are B&amp;W digital portraits. Here's a 0.5 ETH portrait available on #opensea https://t.co/EOLDb4FYik Check my IG for more illustrations :) Glad to become a part of the #NFTcommunity Have an amazing day! https://t.co/KN9R2h8OWX",3,1
1374518356666032139,"2021-03-24T00:28:08Z","🔶 ViteX Exchange Dex 🔶 🔸 $VX Staking APR 75%🔸  🚦Join:  https://t.co/24PTq70EWH 🚦Code:  𝟵𝟲𝟭𝟰𝟲𝟭𝟰𝟬𝟰  🌐 Install App &amp; Buy Vite Token 🌐 Mining Staking Vite Token 🌐 Dividends VX Token or #BTC #ETH #USDT 🌐 Trading Income VX Token 🌐 Done  @CTBott Adrop Avg 100 SPKL 50 https://t.co/nbqhZD3l5F",41,45
1374518353595826182,"2021-03-24T00:28:07Z","@Jymbaloo @JP_Mullin009 @CryptoChris519 @MANTRADAO Grown investor that whines because his fees are higher then his staking gains. Buddy its obvious u dont stake enough coins if your fees are bigger then your gains in last 6M. Nothing to do with the project, you should blame ETH network.",3,0
1374518336923443205,"2021-03-24T00:28:03Z","No need to spend your own money to trade #cryptocurrency. Over 10K users won crypto rewards on @latokens last week. It's the best way to join the financial revolution. Start by earning a share of $100K in CLIQ airdrop: https://t.co/urTK7DnJQc #Bitcoin #ETH #Citi #AON #LATOKEN",0,0
1374518321203224583,"2021-03-24T00:27:59Z","Less than 2 hours and boom! It's yours!  Be Stella Like Rocka Fella!    This #nft comes with a domain https://t.co/igXQvvORPO check it out!!! #opensea #rockefeller #digitalasset #Ethereum #eth #investing #newbrain  https://t.co/CMxsTNyW64",0,0
1374518313993138178,"2021-03-24T00:27:58Z","Among all coins in existence, only two (2) support smart contracts and are decentralized to more than 100 block producers; namely, $ETH and $AVAX. https://t.co/dzyro6FZWY",836,169
1374518299988422657,"2021-03-24T00:27:54Z","🛡 MakerDAO Vault #19801 Repaid  🧑‍🚒 14.82k DAI paid back 🧯🧯 📉 8.98 ETH sold 💸  https://t.co/AjuND7zAty",0,0
1374518297144619009,"2021-03-24T00:27:54Z","eth gone, now selling 1871 RMB for Zelle, hmu https://t.co/cVgMydOGZr",2,1
1374518283500617739,"2021-03-24T00:27:50Z","RT @NFTtrade: Ok second collecting time: What #NFT between up to 0.5 ETH is worth having?   Include your why",248,26
1374518237308719108,"2021-03-24T00:27:39Z","🚨NEW PIXO SKINS ALERT🚨   👠*PixoSkins #4👠 Fully loaded with extra Spice   🚨 LISTED AT 0.1 ETH 🚨   YOU CAN BUY ME HERE 🥺👉🏻 https://t.co/tyyQRyPoZg #nftcollector #NFTcollectibles #nftcollectors #cryptoart",1,0
1374518219826888705,"2021-03-24T00:27:35Z","RT @WillyWonkaXRP: Old Guard v New Guard 👇  #ETH + #BTC The Past ☑️  #XRP + #FLR The Future ☑️ 👑   RT if you agree!! 💎🤝 https://t.co/Ohqn44…",289,115
1374518202827378693,"2021-03-24T00:27:31Z","Buy the dip, #hodl the fund, love the nature, kiss the bull 😂  #BTC  #eth #ltc #xrp #algo #hbar #xlm #chainlink #eos #NPXS",2,0
1374518202542125057,"2021-03-24T00:27:31Z","📌 The TokenKennel #Giveaway | Rules 📌 =   - Step 1: Like &amp; Retweet + tag 3-5 People! - Step 2: Follow @KennelToken &amp; @__Bullish__ - Step 3: Join https://t.co/1wcwTits9h - Step 4: Send Proof!   Prize = 100$ in #BTC or #ETH  06/04, we will announce the winner! 🎁",1814,2129
1374518197823565825,"2021-03-24T00:27:30Z","📌 The TokenKennel #Giveaway | Rules 📌 =   - Step 1: Like &amp; Retweet + tag 3-5 People! - Step 2: Follow @KennelToken &amp; @__Bullish__ - Step 3: Join https://t.co/1wcwTits9h - Step 4: Send Proof!   Prize = 100$ in #BTC or #ETH  06/04, we will announce the winner! 🎁",1814,2129
1374518196317745152,"2021-03-24T00:27:29Z","🔥We have started random global airdrop of 100,000 NFTs to single wallet ETH address 🚀 USDT-NFTs is listed on Uniswap  🚀 The contract address: 0x6599fc3e77cbfa6f6e9cac605a30b1e78827eba0  💰 Holding more NFTs makes you richer  🚀Like、Retweet &amp; Tag 3 friends  #NFTs #NFT #AIRDROP https://t.co/1tf4LcEX3C",1086,943
1374518175287504910,"2021-03-24T00:27:24Z","RT @sof1azara03: $60 or 840rb Giveaway ✨  Rt and follow @domscrypto + @boar_eth + me  End : 48 hours.✨",1030,2331
1374518166529871874,"2021-03-24T00:27:22Z","1/ Earn free #crypto while you read &amp; write about it on @publish0x! Claim FREE #Ethereum #Ampleforth &amp; $FARM tips every day  ⏰LIMITED TIME: $ETH $AMPL withdrawals to @kucoincom get a 10% bonus for the next 2 weeks!  https://t.co/5ubrW3rZ2C #Airdrops #ETH @coinkit_ mon 5 30 btc",9,26
1374518165539938309,"2021-03-24T00:27:22Z","📌 The TokenKennel #Giveaway | Rules 📌 =   - Step 1: Like &amp; Retweet + tag 3-5 People! - Step 2: Follow @KennelToken &amp; @__Bullish__ - Step 3: Join https://t.co/1wcwTits9h - Step 4: Send Proof!   Prize = 100$ in #BTC or #ETH  06/04, we will announce the winner! 🎁",1814,2129
1374518158271283200,"2021-03-24T00:27:20Z","03/23/21 UPDATE: Net Assets Under Management, Holdings per Share, and Market Price per Share for our Investment Products.  Total AUM: $42.4 billion  $BTC $BCH $ETH $ETC $ZEN $LTC $XLM $ZEC $BAT $LINK $MANA $FIL $LPT https://t.co/s3vx4MRhrM",624,120
1374518147756167175,"2021-03-24T00:27:18Z","$CKE 1st phase Presale is still ongoing ✅  🍰 Stage 1  Presale price : 🍰1 $CKE = 0.15 ETH  Official Crowdfunding address: 0xb29443665865863e3ea465Db3Ad0F3a35671beC6  Note : *DON’T SEND ETHER FROM AN EXCHANGE ACCOUNT. *DO YOUR OWN PERSONAL RESEARCH BEFORE INVESTING. https://t.co/2cfFXj8xEd",153,162
1374518144539103233,"2021-03-24T00:27:17Z","Rapidolamusica407(prod.Squills) by $$eth on #SoundCloud? #np https://t.co/vgqbNJmXes",1,0
1374518138100850702,"2021-03-24T00:27:16Z","#Bitcoin was supposedly invented by #SatoshiNakamoto but no one knows who he really is and no one has come forward to take credit for being #Nakamoto. Who do you think he really is?  Art 1/50 🐿 🚀  #NFTs #NFT #digitalart #cryptoart #ETH #Ethereum #nftart https://t.co/QJsNQXBlAH",1,0
1374518131595517963,"2021-03-24T00:27:14Z","If it's not the bottom for ETH, prepare for the giant fall.",0,0
1374518121399160835,"2021-03-24T00:27:12Z","@AlphiesN Yo Alphie, let me share some art so you don't slap me 🤣🤣🤣🤣🤣 So let me tell about this one, It's Jinna and she is a Ether Mage she prints Ether when a block is created. She is animated and is only 0.15 ETH And you know what is best? Im rarible verified https://t.co/SqjIvPKpnv",1,1
1374518092458467328,"2021-03-24T00:27:05Z","@peter_szilagyi @sassal0x I really don’t understand this. Bloodbath/unsynced meaning people losing their ETH? What dashboard are you looking at to turn red?",0,0
1374518089329430532,"2021-03-24T00:27:04Z","#Flare vs. #Ethereum  I hear many people describing the Flare Network as the 'Ethereum killer'.   But few actually consider why that might be.  Let's look at the facts, $FLR vs $ETH  🧵[THREAD] https://t.co/Q0OSNidxL0",1211,492
1374518075190431751,"2021-03-24T00:27:01Z","@cz_binance is the real GOD of #Defi.  #BSC is number one and #ETH is obsolete.    The $BSCX community will be delighted to get listed on the #Binance   Follow GOD and we can be rich!! $BNB Lead, $BSCX will follow!! https://t.co/yCd2nMFLis",185,105
1374518054399340550,"2021-03-24T00:26:56Z","📌 The TokenKennel #Giveaway | Rules 📌 =   - Step 1: Like &amp; Retweet + tag 3-5 People! - Step 2: Follow @KennelToken &amp; @__Bullish__ - Step 3: Join https://t.co/1wcwTits9h - Step 4: Send Proof!   Prize = 100$ in #BTC or #ETH  06/04, we will announce the winner! 🎁",1814,2129
1374518035805925387,"2021-03-24T00:26:51Z","This is how you feel, when you switch to #HTMLCOIN from #Ethereum. $html $eth #htmlfam #GasPrice #cryptocurrencies #smartcontracts https://t.co/KVbubUEqoa",36,17
1374518003144949772,"2021-03-24T00:26:43Z","@news_of_bsc @BinanceChain @cz_binance #BSC has made #ETH look like an old and neglected blockchain. Is the Ethirium still a thing? Lol $BNB $BSCX https://t.co/AHqZsbNLHb",126,76
1374517997998514180,"2021-03-24T00:26:42Z","Anything Ethereum can do, Bitcoin SV can do better. In fact, anything ANY blockchain can do can be done faster, cheaper and more secure on Bitcoin SV than any other blockchain on earth. #BSV #ETH  - Bitcoin was perfect to begin with, Satoshi was right!  https://t.co/oQLWT7cnyY",40,11
1374517995976806407,"2021-03-24T00:26:42Z","JUST ADDED to our Document Library under LEGAL CASES: ✅@SEC_News Letter to Judge Netburn opposing @Ripple discovery requests, aka the #BTC and #ETH requested materials are not relevant letter.  Read it here 👇 https://t.co/NqOAEP0XSZ",295,94
1374517990671020032,"2021-03-24T00:26:40Z","@AlphiesN Yo Alphie, let me share some art so you don't slap me 🤣🤣🤣🤣🤣 So let me tell about this one, It's Jinna and she is a Ether Mage she prints Ether when a block is created. She is animated and is only 0.15 ETH And you know what is best? Im rarible verified https://t.co/SqjIvPKpnv",1,1
1374517980449566726,"2021-03-24T00:26:38Z","@NFTtrade Hi NFTtrader! CryptoSmokes explores the use of Blockchain terminology on everyday products and it questions the potential influence and reach of the Cryptocurrencies.✨10 editions are now available at 0.2 Eth each.🚀 https://t.co/GXV9dlTzEO https://t.co/uusnMKQtPp",0,0
1374517978964795401,"2021-03-24T00:26:38Z","Are you ready? @yourCashaa #CAS token just about to start it’s rise to Top 20. DYOR, don’t miss this one. #btc #eth #cryptocurrency #unicorn #fintech #defi #banking #cryptocurrencies #CryptoNews @CryptoFinally @ https://t.co/fUWnq288FI",2,0
1374517976775323655,"2021-03-24T00:26:37Z","There are reports of an internal announcement within the ETH gov stating that 59+ districts in Oromia are either near or completely in OLA hands.  In other words: Nearly 1/4 of Oromia or 90000 sq km, an area larger than Switzerland 🇨🇭 &amp; Denmark 🇩🇰 combined, are under OLA command. https://t.co/Qi6zLLSCRz",94,40
1374517944445591556,"2021-03-24T00:26:29Z","💥 New Listing @ecomi_ 💥  #OMI trading will commence https://t.co/8kWqgEeplL soon 😎  🕘 Time: Mar.23, 2021 10:00 UTC  ▶️ Trade: https://t.co/bn9x77BwwB ⏩ Details: https://t.co/0d59gkBSx9  #ALTSEASON #ETH #DeFi #NFT #Crypto #Blockchain https://t.co/hKKpb1VLNu",434,188
1374517927756537860,"2021-03-24T00:26:25Z","👀🔥 NEWS ALERT!  SEC withholds its documents on BTC, ETH to hide something damning in case vs. Ripple  #XRP $XRP #XRPCommunity https://t.co/B2QeuPcMBp",205,67
1374517927664254985,"2021-03-24T00:26:25Z","🔥We have started random global airdrop of 100,000 NFTs to single wallet ETH address 🚀 USDT-NFTs is listed on Uniswap  🚀 The contract address: 0x6599fc3e77cbfa6f6e9cac605a30b1e78827eba0  💰 Holding more NFTs makes you richer  🚀Like、Retweet &amp; Tag 3 friends  #NFTs #NFT #AIRDROP https://t.co/1tf4LcEX3C",1086,943
1374517914942861318,"2021-03-24T00:26:22Z","yup I sold my eth to buy theta which went down and i’d do it again",2,0
1374517910907932676,"2021-03-24T00:26:21Z","🔄 Prices update in $USD (1 hour):  $BTC - 53914.2 $ (-1.4 %) $ETH - 1657.1 $  (-0.95 %) $DOT - 33.66 $   (-2.54 %) $ADA - 1.1 $     (-2.29 %)  #BTC #ETH #DOT #ADA #Crypto #Bitcoin",1,2
1374517899004547073,"2021-03-24T00:26:19Z","RT @coinbureau: Just as long as he didn't trade in his $ETH or $BTC to buy it 🙈 https://t.co/iynyovfaLZ",653,57
