"ID","created_at","text","like_count","rt_count"
1376949837128667136,"2021-03-30T17:29:58Z","The DEX @FinanceChainge is set to launch on the @FUSIONProtocol network with over a million users on the protocols waitlist. This decentralized exchange aims to innovate on traditional models through leveraging the Fusion Network.  #BSC #BTC #ETH #BNB  https://t.co/xx55YiGfm3",21535,13657
1376949835190915077,"2021-03-30T17:29:57Z","⭐A BIG THANKS TO CRYPTO COMMUNITY⭐  Prostarter raised $300,000 in less than an hour. Made possible with your generous and loyal support. 💯 💥 🚀   FUTURE WITH $PROT is decentralized and interoperable.   #launch #success #blockchain #IDO #DeFi #community #ETH https://t.co/GzTWfxdIVZ",14,4
1376949833005592576,"2021-03-30T17:29:57Z","HAWT. With my partnership with @illuviumio I can give away 100 HOLOGRAPHIC Scoot Scarabok NFTs.  Similar ones have gone for 5 eth to 50 eth.  How to get -Post your ETH address + BATTLE SCOOT! below -Retweet/tag a friend -Follow @illuviumio and join their discord in bio https://t.co/xcCVVW6KdR",2754,2661
1376949832523243521,"2021-03-30T17:29:57Z","Something fishy going on  A big dump may arrive today 1000s of $btc are taken to coinbase,binance,okex From wallets conversion to usdt have started Trade with strict stop loss $Btc $ETH $ADA $DOT $LINK $ORN $EGLD $BAND $ANKR $WAVES $BNB $BEL $ONE $ALICE https://t.co/oqmZZpGAjz",2,0
1376949825036517383,"2021-03-30T17:29:55Z","The DEX @FinanceChainge is set to launch on the @FUSIONProtocol network with over a million users on the protocols waitlist. This decentralized exchange aims to innovate on traditional models through leveraging the Fusion Network.  #BSC #BTC #ETH #BNB  https://t.co/xx55YiGfm3",21535,13657
1376949818946293762,"2021-03-30T17:29:53Z","RT @ThompsonDeFi: #ETH hodlers, ape in noww! It is your timee!  #BSC #LaunchZone",9,3
1376949813422424069,"2021-03-30T17:29:52Z","People mocking me for dumping ETH right before the Visa news about using ETH to move USDC...  Bro... I actually saw this coming and moved most of my ETH to USDC right before.   USDC Bout to MOON!",1397,56
1376949812189409291,"2021-03-30T17:29:52Z","USD chart is useless. $ETH chart shows $HOT potential.  It's still far away from ATH. So much room to grow.  The journey should end up with TOP 10!  The superior tech of #Holochain deserves it. #Blockchain is an old school technology.  Think outside the blocks! https://t.co/qdDtn1Qejp",247,79
1376949806707445766,"2021-03-30T17:29:51Z","RT @crypto_birb: $ETH will easily do 10k until 2021 ends imo",2045,176
1376949794237714439,"2021-03-30T17:29:48Z","Do you know TacoSwap ? The same as SushiSwap but with better yields and profits !!! 🌮❤️ FOLLOW @CRYPTO4YOUoff for more information 💵🚀 #tacotothemoon #ilovetacotoken 🌶️ #defi #tacoswap #skyhigh #BTC #ETH #Sushiswap #Uniswap #crypto #trading #money #binance #coinbase",69,57
1376949788097191937,"2021-03-30T17:29:46Z","@yetitears Very fresh mint! Asking for 1 ETH to support my friend in cryptoart, but I'm open to good offers  https://t.co/HNN1XtpWzC",8,0
1376949781684178944,"2021-03-30T17:29:45Z","Selling 136 000 rmb BUFF balance (prefer all at once) and some skins for ETH / BTC ST Howl 0.009 $19500 ST Howl 2 HR $17000 ST Point Disarray 1 Dig 3 LDLC $16400 Dlore TT $12200 Dlore 0.01 $7000 ST BFK Sapphire 0.02 $9800 ST AK Redline 4 Dig $6700 ST M4a1-s Guardian 4 NaVi $4600 https://t.co/pNltVaUQDl",49,5
1376949774390341645,"2021-03-30T17:29:43Z","@augmentedfin #AGF no one even knows but they will clean up crypto. Keep an eye out for this one when it launches #Bitcoin $btc $eth #ethereum #defi",0,0
1376949772054110216,"2021-03-30T17:29:42Z","RT @LordFarquant: That moment $QNT reduces gas fees by 93%.  $ETH $USDC https://t.co/9avQKLxrQM https://t.co/c2oneAxccK",63,10
1376949765871636484,"2021-03-30T17:29:41Z","The blockchain world is endless. All in on BTC and ETH. Ready for some horse races! Soon enough Vegas will have to join in blockchain for sports betting",0,0
1376949763678085126,"2021-03-30T17:29:40Z","💜Giveaway💜  2 x a @ZiggyCrypto NFT 2 x $25 in ETH or #Bitcoin  -&gt; Like retweet this tweet. Tag  for extra love.  2 x $50 for friends on bitclout-&gt; Drop your username  so I will invest in you as artist there.  My #bitclout=  MissNFT  #giveaway #NFT #CryptoArt",100,64
1376949761740320775,"2021-03-30T17:29:40Z","Close to 380 $pBTC on #Ethereum locked in within #pNetwork!   How many are yours? ☝️  Start moving your assets on #Ethereum today:  https://t.co/TgEyZxsAzP     🦜 $BTC #Bitcoin #interoperability #DeFi 🦜 https://t.co/E6tKxwzmZM",42,9
1376949759965945856,"2021-03-30T17:29:39Z","@thegostep So if I'm interpreting correctly, if someone drains your ETH from a compromised wallet but leaves your ERC20 tokens this will allow you to transfer them out?",3,0
1376949754043727878,"2021-03-30T17:29:38Z","Do you know TacoSwap ? The same as SushiSwap but with better yields and profits !!! 🌮❤️ FOLLOW @CRYPTO4YOUoff for more information 💵🚀 #tacotothemoon #ilovetacotoken 🌶️ #defi #tacoswap #skyhigh #BTC #ETH #Sushiswap #Uniswap #crypto #trading #money #binance #coinbase",104,92
1376949753854877700,"2021-03-30T17:29:38Z","$CXO on #Kucoin in $BTC and $ETH pair. Read. Accumulate. This is your chance https://t.co/XPbgScAcnc",2,0
1376949749455196160,"2021-03-30T17:29:37Z","To celebrate our launch we decided to give away to the #NFT community:  ⚡️1 NiftyMask limited edition 1 ETH worth ⚡️$1500 in ETH  To enter: 📌Retweet 📌Follow @NiftyMasks  📌Tag 3 friends  End when gets 400 retweets, good luck!❤️😍 #NFT #NFTs #Giveaway #Giveaways #nftcollector https://t.co/jUfZouqpHD",374,360
1376949745445433353,"2021-03-30T17:29:36Z","RT @Crypt0mummy: READY FOR #FegEx 🔥🚀  #FEG #FegTrack $FEG #Crypto #CryptoNews #Altcoins #DeFi #bsc #bnb #ETH #Binance https://t.co/hd2aOWL5…",254,118
1376949743608299521,"2021-03-30T17:29:36Z","@davidmatt2001 @MartiniGuyYT I’m the same. ETH TO 10k👌",0,0
1376949743104880644,"2021-03-30T17:29:35Z","@ninafx_ Eth will go 3k but not soon, Be realistic took a toe to get 2k and go back to 1400 ,so if like eth be patient and wait maybe by next year for sure.",0,0
1376949742538784772,"2021-03-30T17:29:35Z","Do you know TacoSwap ? The same as SushiSwap but with better yields and profits !!! 🌮❤️ FOLLOW @CRYPTO4YOUoff for more information 💵🚀 #tacotothemoon #ilovetacotoken 🌶️ #defi #tacoswap #skyhigh #BTC #ETH #Sushiswap #Uniswap #crypto #trading #money #binance #coinbase @elonmusk",68,55
1376949730370981888,"2021-03-30T17:29:32Z","Join $BASE Telegram &amp; Get ready for powerweek: https://t.co/fnmggXK3Ur  ___________________________ @cctip_com airdrop 0.01 ETH 99999  $ETH $LINK $MANA $HOT $OGN $MTL $ERN",98,153
1376949728391335939,"2021-03-30T17:29:32Z","@FATIcrypto Simple, we send EARN$ back to whatever ETH address you used to contribute!",0,0
1376949726805860353,"2021-03-30T17:29:32Z","RT @vixcontango: $ADA will overtake $ETH before the year is over...",29,2
1376949723450466311,"2021-03-30T17:29:31Z","But I need a wallet to transfer that ETH into hmm",0,0
1376949720820678659,"2021-03-30T17:29:30Z","30 day EVIX: 90.3060 ETH/USD vwap: $1,832.40 04/16 expiry volume: $1,416,776.96 04/30 expiry volume: $4,603,727.35 Current time: 17:29:05",0,0
1376949720044740616,"2021-03-30T17:29:30Z","i'm sure this chart may look ridiculous, but i'm being 100% serious when i tell you this is the future i see for $ETH https://t.co/X3FO9DSkuH",691,64
1376949719075758083,"2021-03-30T17:29:30Z","! DROP YOUR $ETH ADDRESS BELOW, like, retweet and tag 2 friends to enter ETH &amp; limited edition #nft #Giveaway 🍔  https://t.co/LnKs0dJ6hw  #Ethereum #ether #BNB   #ALTSEASON #bitcoin #NFTs #cryptoart #cryptoartist #collectible #rarible #digitalart #nftcollector #Crypto #vet #eth",45,33
1376949710712229888,"2021-03-30T17:29:28Z","HAWT. With my partnership with @illuviumio I can give away 100 HOLOGRAPHIC Scoot Scarabok NFTs.  Similar ones have gone for 5 eth to 50 eth.  How to get -Post your ETH address + BATTLE SCOOT! below -Retweet/tag a friend -Follow @illuviumio and join their discord in bio https://t.co/xcCVVW6KdR",2754,2661
1376949710116687873,"2021-03-30T17:29:28Z","EthHub Weekly #159  -Visa choses Ethereum -AllCoreDevs updates from @TimBeiko  -PoW &gt; PoS merge discussion -@Uniswap details v3 -L2 discussion: @optimismPBC, @arbitrum, @hermez_network and @zksync  -ETH is ultrasound money talk  https://t.co/UzjnOsA6CF",35,12
1376949708732702724,"2021-03-30T17:29:27Z","Looks like @IntegralHQ  currently has over $463+ Million in TVL  As liquidity providers can start earning $ITGR via staking  Pools include ETH paired with WBTC, USDT, USDC and DAI https://t.co/Rr93UnJ2qp",26,11
1376949697198317568,"2021-03-30T17:29:24Z","HAWT. With my partnership with @illuviumio I can give away 100 HOLOGRAPHIC Scoot Scarabok NFTs.  Similar ones have gone for 5 eth to 50 eth.  How to get -Post your ETH address + BATTLE SCOOT! below -Retweet/tag a friend -Follow @illuviumio and join their discord in bio https://t.co/xcCVVW6KdR",2754,2661
1376949694966812674,"2021-03-30T17:29:24Z","RT @volmexfinance: What’s your ETH address?  Don’t ask why, just drop it below 👇",4851,1642
1376949684095320078,"2021-03-30T17:29:21Z","🟢 Swapped $183K in #ETH for #LABS on #Uniswap 🦄  🐟 ($121K) #0x697560 https://t.co/2q6eUKJ1XX",0,0
1376949683722055686,"2021-03-30T17:29:21Z","RT @crypto_birb: $ETH will easily do 10k until 2021 ends imo",2045,176
1376949683579392009,"2021-03-30T17:29:21Z","You have to be Insane to pay 5000 times more money in fees in Eth than in Cardano. @TheCryptoLark",97,11
1376949678303019008,"2021-03-30T17:29:20Z","how it will feel eating a $15 cold meal for which you've paid $40 usdc on eth and waited 30min for tx to be confirmed before being able to enjoy it.  do yourself a favor and just switch to $Algo #Algorand https://t.co/k3LrDqWMj4",1,0
1376949676918808577,"2021-03-30T17:29:20Z","$omg upside down chart from the man himself.  2 golden crosses on the weekly waiting to propel it to the ATH. An iH&amp;S on log weekly.   It doesn't get more bullish than that.  $BTC $ETH $XRP $DOT $ADA $LTC $BNB $XLM $UNI $AAVE $DOGE $SNX $EOS $MKR $ATOM $XTZ $SUSHI $SOL $UMA $DAI https://t.co/9i7vKh5sXi",3,0
1376949671822647298,"2021-03-30T17:29:18Z","https://t.co/l97oin09HT $9800  #DomainName For Sale  #NFT #NFTcollectibles #nftcollector #NFTCommunity #superrare #Crypto #Blockchain #Bitcoin #scifiart #conceptart #NFTartist #cryptoart #NFTcollectibles #NFTCommunity #animation #3d #NFTart #digitalart #eth #blenderart #artist https://t.co/t3N62PVwK1",5,2
1376949669503365128,"2021-03-30T17:29:18Z","RT @Crypt0mummy: READY FOR #FegEx 🔥🚀  #FEG #FegTrack $FEG #Crypto #CryptoNews #Altcoins #DeFi #bsc #bnb #ETH #Binance https://t.co/hd2aOWL5…",254,118
1376949665359335434,"2021-03-30T17:29:17Z","@ZssBecker @illuviumio ETH Address = 0xB1ca34C4b543EE0CDAB8e37D26b39986FE5F54E5  BATTLE SCOOT!",0,0
1376949665262792706,"2021-03-30T17:29:17Z","HAWT. With my partnership with @illuviumio I can give away 100 HOLOGRAPHIC Scoot Scarabok NFTs.  Similar ones have gone for 5 eth to 50 eth.  How to get -Post your ETH address + BATTLE SCOOT! below -Retweet/tag a friend -Follow @illuviumio and join their discord in bio https://t.co/xcCVVW6KdR",2754,2661
1376949663870251011,"2021-03-30T17:29:17Z","Anyone sleeping on $ORN will fomo in a couple of months and regret not looking into this amazing project sooner.   If you are a fan of $UNI, $Sushi or any other DEX, you MUST look into $ORN.   @orion_protocol will revolutionize the #crypto trading experience.   $BTC $ETH $BNB https://t.co/HeHSF203kO",10,2
1376949659650899969,"2021-03-30T17:29:16Z","🟩 $BASE Will Moon So Hard 💎  Base Protocol will soon be doing a “Power Week” where they drop news every day.  👉 Hold a bag before it begin 😏 📈 My Target: Minimum 20x 🚀🌙  ___________________________ @cctip_com airdrop 0.01 ETH 99999 https://t.co/WPBJ9ZZp9k",155,213
1376949652889628676,"2021-03-30T17:29:14Z","💜Giveaway💜  2 x a @ZiggyCrypto NFT 2 x $25 in ETH or #Bitcoin  -&gt; Like retweet this tweet. Tag  for extra love.  2 x $50 for friends on bitclout-&gt; Drop your username  so I will invest in you as artist there.  My #bitclout=  MissNFT  #giveaway #NFT #CryptoArt",100,64
1376949649555120129,"2021-03-30T17:29:13Z","HAWT. With my partnership with @illuviumio I can give away 100 HOLOGRAPHIC Scoot Scarabok NFTs.  Similar ones have gone for 5 eth to 50 eth.  How to get -Post your ETH address + BATTLE SCOOT! below -Retweet/tag a friend -Follow @illuviumio and join their discord in bio https://t.co/xcCVVW6KdR",2754,2661
1376949638046089222,"2021-03-30T17:29:10Z","Never got deep into the $ETH Defi but now after learning about $SOL Defi products I can see why everyone is so hyped about Defi  Don't think anything like $COPE has happened yet afaik where you got all the products launched simultaneously like this with this kind of speed/growth",5,0
1376949627849568259,"2021-03-30T17:29:08Z","RT @zhusu: Next key lvls are 72k / 100k on $BTC  And 2.5k / 4k on $ETH",3569,435
1376949613291302920,"2021-03-30T17:29:04Z","RT @Crypt0mummy: READY FOR #FegEx 🔥🚀  #FEG #FegTrack $FEG #Crypto #CryptoNews #Altcoins #DeFi #bsc #bnb #ETH #Binance https://t.co/hd2aOWL5…",254,118
1376949607775694851,"2021-03-30T17:29:03Z","HAWT. With my partnership with @illuviumio I can give away 100 HOLOGRAPHIC Scoot Scarabok NFTs.  Similar ones have gone for 5 eth to 50 eth.  How to get -Post your ETH address + BATTLE SCOOT! below -Retweet/tag a friend -Follow @illuviumio and join their discord in bio https://t.co/xcCVVW6KdR",2754,2661
1376949606173540355,"2021-03-30T17:29:03Z","Layer2 is online now，a Milestone for YFX! BTC_USDT (USDT settlement), ETH_USD (USDC settlement) trading pairs open!#DeFi #Ethereum #Bitcoin #cryptocurrency #Blockchain https://t.co/aPyHmsoidO",93,89
1376949599911428102,"2021-03-30T17:29:01Z","HAWT. With my partnership with @illuviumio I can give away 100 HOLOGRAPHIC Scoot Scarabok NFTs.  Similar ones have gone for 5 eth to 50 eth.  How to get -Post your ETH address + BATTLE SCOOT! below -Retweet/tag a friend -Follow @illuviumio and join their discord in bio https://t.co/xcCVVW6KdR",2754,2661
1376949584212148231,"2021-03-30T17:28:58Z","RT @Kujiin1: @PaulBarba12 Visa + Crypto and choosing $ETH and $USDC.  Of which has a subgraph built on $GRT.  https://t.co/cARA8vKla3",2,1
1376949565484625922,"2021-03-30T17:28:53Z","Thank you all for sharing this exciting news😍  The winners are   🥁 🥁 🥁  - An exclusive #NFT - @Grauwolf12 @tpetrova24  @fernand13421130  - $10 of $ETH - @CryptoMalbo  @JasoJules  @xopowo63389848  @FemiGol91015226  @legrowsr   #play2earn #NFTs https://t.co/WctZxbZ5rr",21,8
1376949548413812748,"2021-03-30T17:28:49Z","@sir_eth Hey friend😅",1,0
1376949531363966978,"2021-03-30T17:28:45Z","7️⃣6️⃣ #BTC KILLERS➡️ $ETH KILLERS  🔅 #BSC is basically a clone of #Ethereum with a higher gas limit! 🔆 Why didn't $ETH just increase the gas limit &amp; just lower the fees? 🚫 Because most other #chains have sacrificed #decentralisation &amp; #security for lower fees.  Remember $BCH ? https://t.co/vfchV0t4tv",3,2
1376949525391179777,"2021-03-30T17:28:43Z","The DEX @FinanceChainge is set to launch on the @FUSIONProtocol network with over a million users on the protocols waitlist. This decentralized exchange aims to innovate on traditional models through leveraging the Fusion Network.  #BSC #BTC #ETH #BNB  https://t.co/xx55YiGfm3",21535,13657
1376949523474485254,"2021-03-30T17:28:43Z","@sd_eth @nftorb Thanksa lot mate really appreciate 🤩🦾",0,0
1376949519871586305,"2021-03-30T17:28:42Z","I love that @KnownOrigin_io is a very helpful platform, your work don't get lost on 6363783373 works on 5 seconds after minting and they actually help you kindly retweeting your work. You won my heart dudes 🤟💀❤️  #nft #NFTs #NFTCommunity #nftcollector #NFTartists #ETH",20,1
1376949514246922246,"2021-03-30T17:28:41Z","@rafael_leka I hodl all my coins. Pennies, dimes, ADA, quarters, DOT, LINK, nickels, ETH and half-dollars.",0,0
1376949510174220294,"2021-03-30T17:28:40Z","HAWT. With my partnership with @illuviumio I can give away 100 HOLOGRAPHIC Scoot Scarabok NFTs.  Similar ones have gone for 5 eth to 50 eth.  How to get -Post your ETH address + BATTLE SCOOT! below -Retweet/tag a friend -Follow @illuviumio and join their discord in bio https://t.co/xcCVVW6KdR",2754,2661
1376949508186193928,"2021-03-30T17:28:39Z","@CyberColection NEW-EVOLUTION-DESTINATION ART on #NFT ...ready for THE DOOR PROJECT ? https://t.co/4jZgzpkZfX sells only for exclusivity - offer a price, only #ETH  new #stuff on the way   #Gallery on https://t.co/KiQdpy5LfE  #bitcoin #crypto #opensea #cryptonews #NFTCommunity #nftcollector",4,2
1376949506915328009,"2021-03-30T17:28:39Z","🏆Weekly top 10 leaderboards update🏆  @nbzncloud @aldridge_roy @DimSteff @AnthonyDuffy @Mikailu @igor @tha_jurist @MrCryptoRisin @lesrilankais @kkapout  Good luck for this week Pickers!❤️  #Play2Earn #NFT #ETH https://t.co/A42UJfDQiY",18,7
1376949501055934468,"2021-03-30T17:28:38Z","Join $BASE Telegram &amp; Get ready for powerweek: https://t.co/fnmggXK3Ur  ___________________________ @cctip_com airdrop 0.01 ETH 99999  $ETH $LINK $MANA $HOT $OGN $MTL $ERN",98,153
1376949500502228992,"2021-03-30T17:28:38Z","Let’s go to the moon doge family 🚀🚀🚀🚀🚀🚀#doge #dogecoin #CryptoNews #cryptocurrencies #altcoins #BTC #Coinbase #Ethereum #ETH #ElonMusk #BitTorrent #Bitcoin #DogecoinRise #DogeSlimJimParty",1,1
1376949494953086977,"2021-03-30T17:28:36Z","These coffee #NFTs are only 🔥0.05 ETH🔥 now! Cool project, go check them out! ☕️ https://t.co/u3W6OTjDC8",5,0
1376949487365713921,"2021-03-30T17:28:34Z","Important day for #sorare and $orn tomorrow! These projects will be huge and will still be here in 10 years. $btc $eth #nft",8,1
1376949484719079431,"2021-03-30T17:28:34Z","Mobie Pay has CONFIRMED launch of the MBX/ETH bridge.. bringing MBX onto the ETH network is massive! Will now allow one of the worlds largest coin exchanges (Uniswap) to begin trading the coin.. almost immediately. The bridge goes live today! With staking following suit tomorrow!",11,2
1376949483838312448,"2021-03-30T17:28:34Z","@Sir_Pepe777 $50 Link or $3K ETH first? Go..",2,0
1376949475923607553,"2021-03-30T17:28:32Z","Have you posted about #BTC, #ETH, #DeFi #NFTs and #crypto related topics on Twitter in the past?   If so, participate in DeGate Social Network Offering!   The list of #crypto keywords has been expanded, more info:  https://t.co/Nu68XZuVQy",47,23
1376949473033719811,"2021-03-30T17:28:31Z","💧Poplink Oracles Airdrop 💧  🏆 Task:          ➕  50 POPO (~$50)  👨‍👩‍👧 Referral:  ➕  15 POPO (~$15)  🔛  Airdrop Link &amp; Information: https://t.co/DS6g34KhFp  #cryptocurrency #Crypto #Bitcoin  #BSC #BinanceSmartChain #Ethereum #ETH #Airdrop #bounty #POPO #Poplink",6695,8526
1376949470370222080,"2021-03-30T17:28:30Z","$eth  Touch the line to the penny...  Break this and we are really in business. https://t.co/LlkCOztoB0",0,0
1376949464640974858,"2021-03-30T17:28:29Z","1,111 is LIVE! https://t.co/4dfbDWhCkH  1,111 unique animated NFTs with varying levels of rarity are up for grabs while supplies last. Some for $ETH and some for $SMOL. RT and tag 3 friends to be entered to win 1 of the 1,1111 after the sale is over!  #nftcollector https://t.co/w91KkK8Yih",172,133
1376949457875574784,"2021-03-30T17:28:27Z","Welcome to massive Q DAO airdrop!   1. go now to telegram https://t.co/COyXgODY1z   2. Stay in telegram chat and wait announcement.  3. HOLD this gem until 10x   (soon - QDAO launch cross-chain for BSC, Polkadot and ETH)",4218,6164
1376949452280365067,"2021-03-30T17:28:26Z","Don't forget to join our Tournaments🏆 1) Go to https://t.co/9KaGXtEtaX 2) Join one of the many tournaments 3) Make some predictions 4) Earn $ETH  #Play2Earn #NFTs #Ethereum #Crypto https://t.co/pMGlPtEvz7",16,11
1376949431594070023,"2021-03-30T17:28:21Z","RT @JRNYcrypto: Goodmorning to everyone besides the people that comment you shouldn't of sold your ETH bro",3833,116
1376949431292026882,"2021-03-30T17:28:21Z","HAWT. With my partnership with @illuviumio I can give away 100 HOLOGRAPHIC Scoot Scarabok NFTs.  Similar ones have gone for 5 eth to 50 eth.  How to get -Post your ETH address + BATTLE SCOOT! below -Retweet/tag a friend -Follow @illuviumio and join their discord in bio https://t.co/xcCVVW6KdR",2754,2661
1376949430818078721,"2021-03-30T17:28:21Z","HAWT. With my partnership with @illuviumio I can give away 100 HOLOGRAPHIC Scoot Scarabok NFTs.  Similar ones have gone for 5 eth to 50 eth.  How to get -Post your ETH address + BATTLE SCOOT! below -Retweet/tag a friend -Follow @illuviumio and join their discord in bio https://t.co/xcCVVW6KdR",2754,2661
1376949424501493764,"2021-03-30T17:28:19Z","@kadenszx @eth_ral The grab ass shot",0,0
1376949423402586113,"2021-03-30T17:28:19Z","RT @ProBit_Exchange: #DFI will be listed on #ProBitExchange March 31 with an ETH market @defiqa3 #DeFi  https://t.co/2ZqO1n8Ezf https://t.c…",574,471
1376949422861467658,"2021-03-30T17:28:19Z","HAWT. With my partnership with @illuviumio I can give away 100 HOLOGRAPHIC Scoot Scarabok NFTs.  Similar ones have gone for 5 eth to 50 eth.  How to get -Post your ETH address + BATTLE SCOOT! below -Retweet/tag a friend -Follow @illuviumio and join their discord in bio https://t.co/xcCVVW6KdR",2754,2661
1376949418910355456,"2021-03-30T17:28:18Z","@EthereumMemes Is that the ETH price? 2025 by 2025?",0,0
1376949418449047554,"2021-03-30T17:28:18Z","#HODL to the moon shirt! Check it out now 🚀🌕👕 #hodlers #HODLing #crypto #cryptoart #altcoin #btc #eth #ltc #xrp #usdt #dot #sol #link #cryptocurrencies #cryptotwitter   https://t.co/nhUoAXIbJs",1,0
1376949417836617729,"2021-03-30T17:28:18Z","@PaulBarba12 Visa + Crypto and choosing $ETH and $USDC.  Of which has a subgraph built on $GRT.  https://t.co/cARA8vKla3",2,1
1376949416200912897,"2021-03-30T17:28:17Z","RT @JRNYcrypto: yOu ShOuLdNt hAvE SoLd yOuR EtH!! https://t.co/hK0WlkwKgS",1890,96
1376949403127283714,"2021-03-30T17:28:14Z","RT @NFTFusion: What’s your ETH address?  No questions, just drop it below 👇 #NFT #NFTs",1955,1480
1376949397502722052,"2021-03-30T17:28:13Z","@MaxMinsker Why do you feel like this is good for ETH?",0,0
1376949395304841217,"2021-03-30T17:28:12Z","$ETH maybe the miners chose April 1st to demonstrate because they know they r only fooling themselves if they gonna actually sabotage their own network that gets them paid",0,0
1376949385662144516,"2021-03-30T17:28:10Z","The Super Contra on #NES was ⬆️⬆️⬇️⬇️⬅️➡️⬅️➡️ AB  Life Cheat code $DAG + $LTX  You're welcome  $npxs $zil $cel $etn $ksm $vet $btc $dyp $one $cake $ankr $chr $luna $sushi $coti $cake $oxt $xrp $ant $nim  $npxs $eth $ada $ankr $klv $hot $icx  $duck $core $xmr $ogn $skl $link https://t.co/OYSl06uSai",31,6
1376949377902723072,"2021-03-30T17:28:08Z","🚨 Hashmasks #680 sold for 3.15 ETH ($5,775.87 USD) 🚨    #Hashmasks #NFT #cryptoart   https://t.co/0ntGGgt3Kr",0,0
1376949374706712577,"2021-03-30T17:28:08Z","I HAVE MY BAGS FUCKING READY, GIVE ME MONEY 🐒💛  #altseason #apeseason #BTC #ETH #ReefFinance #marlinprotocol #SXPUSDT #linearfinance https://t.co/vgNcjgT0mF",0,0
1376949374492753922,"2021-03-30T17:28:08Z","🚨 Breaking News: you can hold Cardano &amp; Ethereum at the same time!  My personal sentiment is that ADA has more upside than ETH in many ways, but my opinions are nothing to be offended by. I’m just a guy on Twitter and YouTube  Relax 🌴",851,45
1376949363751194627,"2021-03-30T17:28:05Z","DCT TOKEN Airdrop Medium Star Claim 1 DCT ($ 100) + 0.045 DCT ($ 10) for each referral you make.   Steps  💎  Join channel and group  💎  Follow twitter, like and retweet pinned message   💎  Submit eth wallet address (ERC-20) Participate now Airdrop link: https://t.co/L24stp8tVI https://t.co/CVYQyLAWwU",8694,8871
1376949342368628744,"2021-03-30T17:28:00Z","@RealVision 20% BTC (actually the rest is irrelevant, since that will prbly suffice for the requested performance)  10% ETH  20% nickel, manganese, copper  30% S&amp;P 500 ETF  20% contemporary art and vintage cars, that's the stuff that might require some active management every 5 years",5,0
1376949339684212739,"2021-03-30T17:27:59Z","$SXP #Swipe $SXPBTC #Bitcoin Pair: I don't have a bag but if you asked me, I see a clean S/R Flip here  Holding above the blue zone means there is a potential to test above mentioned levels  Losing the blue zone won't be a great sign  #Bullish  #Altcoins #ALTSEASON $BTC $ETH https://t.co/aImSSZUlMp",78,17
1376949338027384834,"2021-03-30T17:27:59Z","The DEX @FinanceChainge is set to launch on the @FUSIONProtocol network with over a million users on the protocols waitlist. This decentralized exchange aims to innovate on traditional models through leveraging the Fusion Network.  #BSC #BTC #ETH #BNB  https://t.co/xx55YiGfm3",21535,13657
