"ID","created_at","text","like_count","rt_count"
1376270359255785476,"2021-03-28T20:29:58Z","Ethereum $ETH on CoinSpot currently $AU2214.9623 ($AU2205 buy /  $AU2224.25 sell). #spon https://t.co/ZnKhnJxyzE",0,0
1376270338879807493,"2021-03-28T20:29:53Z","I'm sharing my exact plan for $BTC, $ETH, $VET, $ADA, etc., in today's newsletter.   It'll be out later today.  Get access here:   https://t.co/dwkv0vxBU6",5770,0
1376270330503831557,"2021-03-28T20:29:51Z","There are little tricks and #TPLF propaganda that mesmerized the US policy makers for a while now since November 2021. #ENDF prevented the destruction of a nation by #TPLF. Friends do not feed lies. #TPLF fed lies to the US and the US bought it. @POTUS @VP #UnityForEthiopia",20,0
1376270311839125504,"2021-03-28T20:29:46Z","@blknoiz06 @notsofast Sorry but is there somthing like a Table too See which one hasn't airdropped yet. I mean i know many on ETH but you are talking about BSC and others i guess",0,0
1376270304998264833,"2021-03-28T20:29:45Z","To celebrate @3DPunks_ #100/100 Auction Current bid at 16 ETH ($27K USD)  I'm giving away 3D Punk #049  Which last sold for 6.97 ETH ($12K USD)  How: - Follow @evankeast + @3DPunks_  - Like + Retweet - Tag a friend - Join the discord: https://t.co/5paneepNDb - Say hi in discord https://t.co/SOy3l78yP1",1043,0
1376270288254537732,"2021-03-28T20:29:41Z","@BitScores Wow AweSome Project......👍 Big chance To Win Big......💰💰💰  ETH ADDRESS....👇  0x433a5aa4C3288b102bC5e8EedDe2B731D6d1D732",0,0
1376270279903707142,"2021-03-28T20:29:39Z","Ethereum (PoS) vs Bitcoin (PoW) heavyweight title bout rages on  Bitcoin has been telegraphing punches all night and $ETH countered with a strong left cross sending $BTC to the mat. $BTC is on the ropes. Will they throw in the towel? Here's a count from the referee. 1...2...3... https://t.co/7XfXVOlVOd",0,0
1376270268281335811,"2021-03-28T20:29:36Z","To celebrate @3DPunks_ #100/100 Auction Current bid at 16 ETH ($27K USD)  I'm giving away 3D Punk #049  Which last sold for 6.97 ETH ($12K USD)  How: - Follow @evankeast + @3DPunks_  - Like + Retweet - Tag a friend - Join the discord: https://t.co/5paneepNDb - Say hi in discord https://t.co/SOy3l78yP1",1043,0
1376270267396321292,"2021-03-28T20:29:36Z","Why is #EU and #US failing to understand #TPLF, the money laundering, foreign bank deposits and bank accounts under their radar. @POTUS @KamalaHarris @SecBlinken @BenCardinforMD @SenatorShaheen @SenatorMenendez @ChrisCoonsCMUNC #UnityForEthiopia",12,0
1376270254456852492,"2021-03-28T20:29:33Z","⚡🔥 EASY $10(Litecoin) Giveaway!  To win: ✔ Tag a friend ✔ Retweet ✔ Follow us Thats it! Good luck! 💖  Rolling in 36 hours!  #goodvibes #goodluck #giveaway #bitcoin #Giveaways  #cryptocurrency #eth #btc #BSC #TRON",332,0
1376270253647392768,"2021-03-28T20:29:32Z","Lawlessness in Tigray encouraged by #Tigray Media and #TPLF Diaspora is destroying bridges, hospitals, grain warehouses, cutting telephone &amp; electricity cables. How many times #diaspora TPLF did that &amp; how many times did US and EU condemn? @POTUS @KamalaHarris #UnityForEthiopia",14,0
1376270252980498433,"2021-03-28T20:29:32Z","RT @LordCatoshi: ETH will finally break 2K when everyone shuts up about how high it will go after breaking 2K",37,0
1376270244860325888,"2021-03-28T20:29:30Z","30 day EVIX: 84.2541 ETH/USD vwap: $1,675.93 04/16 expiry volume: $1,257,848.88 04/30 expiry volume: $6,820,278.78 Current time: 20:29:06",0,0
1376270242343686153,"2021-03-28T20:29:30Z","Ethiopia is entitled to use #GERD for its electricity for significant majority of its people. @POTUS @KamalaHarris @SecBlinken @SenatorShaheen @SenatorMenendez @ChrisCoonsCMUNC @ChrisMurphyCT @Timkaine @SenMarkey @SenToddYoung @SenRubioPress @SenatorCardin #UnityForEthiopia",14,0
1376270238610817031,"2021-03-28T20:29:29Z","Did you know: GMNG token will be used for all transactions in the prize payout process or to purchase upcoming optional services (e.g., AI-powered predictions).   It enables the use of Smart Contracts, which are in turn crucial for platform security and transparency.   #eth #defi https://t.co/ANxC4ssFwg",87,0
1376270226619301892,"2021-03-28T20:29:26Z","The largest exchange premiums &amp; discounts seen by @CrossCoinCo at 20:28 UTC: #ETH vs KRW on Bithumb is trading at a 6.9% premium to USD markets; #BTC vs ISK on Isx is trading at a 2.2% discount to USD markets. Visit: https://t.co/xEpwOSyFhm",0,0
1376270226615115777,"2021-03-28T20:29:26Z","The GERD does not affect the amount of water for #Egypt. Ethiopia is within her legal rights to use the #GERD for electricity. EU &amp; US should support Ethiopia. @POTUS @KamalaHarris @SecBlinken @CoryBooker @SenatorLeahy @BernieSanders @MarkWarner @RonWyden #UnityForEthiopia",19,0
1376270222282391552,"2021-03-28T20:29:25Z","RT @IncomeSharks: $ETH flipped both 4h supertrends bullish, usually this will lead us to a big move up. https://t.co/CRivTQEpJI",210,0
1376270206469832713,"2021-03-28T20:29:21Z","$KIN making some moves today!  https://t.co/MYkff6519H https://t.co/eIkW4dVLKk  #Kin #NFTs #DeFi #btc  #bitcoin #solana #bch #usd #xrp #eth #price #crypto #ltc #fintech #blockchain #buythedip https://t.co/Ve95GpwdiQ",20,0
1376270197129105411,"2021-03-28T20:29:19Z","🔸 New Listing🔸   #BKEX will list #DRYCAKE @DryCakeSwap🚀 🚀  - Trading pair: DRYCAKE/USDT - Trading time: 20:00 on Mar 29 (UTC+8)  🔹 🔹 More details: https://t.co/kC2IIebfTT  #Bitcoin #ETH #BKK #Blockchain https://t.co/w8CHyKXaUD",2480,0
1376270194071511044,"2021-03-28T20:29:18Z","1/ Microcap megathread; Offshift $XFT.  @OffshiftXFT is a cross-chain privacy-as-a-service by use of zero knowledge synthetic assets (zkAssets) on $ETH and $DOT/ $KSM (via moonbeam) networks.  zkAssets will be the first to allow for privacy in DeFi = #PriFi.  This will be huge! https://t.co/54XSLPUHH4",77,0
1376270192699969536,"2021-03-28T20:29:18Z","New interesting #Token #Gem found on #ETH #DeFi #AltSeason #BlockChain Covid-19 $cov  contract: 0xdeb173187d7c6ac80abaa139f0c7306fb73801a9 Swap it on @UniSwap https://t.co/Wtd4GlUgCN Telegram: https://t.co/j6bvs7btIu",1,0
1376270191651393543,"2021-03-28T20:29:18Z","Sudan and #Egypt are fanning conflicts and boarder wars to leverage the #GERD negotiations. US and EU must side with justice, Ethiopian position of equitable and fair usage of the Nile. @KamalaHarris @SecBlinken @RepRonnyJackson @RepSaraJacobs @RepCicilline #UnityForEthiopia",19,0
1376270187419295750,"2021-03-28T20:29:17Z","Reminding you guys that my GENESIS Artwork is on sale on @rariblecom for .3 eth 🔥  I'm a concept artist who worked in the gaming industry, now I'm debuting on NFTs!  https://t.co/mo8oUC8MVJ  #NFT #NFTs #nftart #nftcollectors #NFTCommunity #NFTartists #NFTcollectibles #cryptoart https://t.co/UmJpkpVXKc",37,0
1376270179626323968,"2021-03-28T20:29:15Z","The media campaign by Diaspora TPLF, by handful of remnants of #TPLF cadres, to continue killing of civilians who don't fight does not help the people of Tigray. US &amp; EU must stop these goons of tragedy. @SenatorShaheen @SenatorMenendez @ChrisCoonsCMUNC #UnityForEthiopia",10,0
1376270171443134465,"2021-03-28T20:29:13Z","RT @IncomeSharks: $ETH flipped both 4h supertrends bullish, usually this will lead us to a big move up. https://t.co/CRivTQEpJI",210,0
1376270167366328325,"2021-03-28T20:29:12Z","The #Secretary of DOS is outspoken against #Ethiopia and Prime Minister Abiy. What can that accomplish now? Can it bring #peace in Tigray? @POTUS @KamalaHarris @SecBlinken @CoryBooker @SenatorLeahy @BernieSanders @MarkWarner @RonWyden #UnityForEthiopia",11,0
1376270166678331392,"2021-03-28T20:29:12Z","To celebrate @3DPunks_ #100/100 Auction Current bid at 16 ETH ($27K USD)  I'm giving away 3D Punk #049  Which last sold for 6.97 ETH ($12K USD)  How: - Follow @evankeast + @3DPunks_  - Like + Retweet - Tag a friend - Join the discord: https://t.co/5paneepNDb - Say hi in discord https://t.co/SOy3l78yP1",1043,0
1376270165407539200,"2021-03-28T20:29:11Z","Check out one of my original 3D pieces from. Auction ends in 11 days https://t.co/xq63e11l4Z  #collectibles #nfts #nftart #Ethereum #Cryptoart #ETH #nftcollector",9,2
1376270159346855938,"2021-03-28T20:29:10Z","Slow 108 | Normal 112 | Fast 132 | Instant 160 👈 current Ethereum gas prices in gwei. DM me a price and I will DM you as soon as gas drops below that price 👍 #Ethereum #GasPrice #ETHGasPrice #ETH",0,0
1376270157388058635,"2021-03-28T20:29:10Z","To celebrate @3DPunks_ #100/100 Auction Current bid at 16 ETH ($27K USD)  I'm giving away 3D Punk #049  Which last sold for 6.97 ETH ($12K USD)  How: - Follow @evankeast + @3DPunks_  - Like + Retweet - Tag a friend - Join the discord: https://t.co/5paneepNDb - Say hi in discord https://t.co/SOy3l78yP1",1043,0
1376270155764920327,"2021-03-28T20:29:09Z","Why vilify #Amhara? Does Sec Blinken know that terrorist #TPLF took land &amp; redrew the regional maps, in late 1980s killing thousands of Amhara’s by #ethnic cleansing. @POTUS @KamalaHarris @SecBlinken @ChrisCoonsCMUNC @Timkaine @SenMarkey @SenToddYoung #UnityForEthiopia",10,0
1376270150421348356,"2021-03-28T20:29:08Z","@GhostiesNFT hey friend!  I comment that I have available my genesis of @withFND   https://t.co/YbgiFYeG7Z:  I also have 4 works available in rarible,prices from: 0.012eth - 1 eth  https://t.co/AAUeKLPWxT https://t.co/5BSR4G5onw",0,0
1376270148324061187,"2021-03-28T20:29:07Z","Didn’t #TPLF take fertile farmlands of Amhara by genocide in the so called #Western Tigray? Where are the DOS, DODI, CIA, US diplomats in Addis? @POTUS @KamalaHarris @SecBlinken @ChrisCoonsCMUNC @Timkaine @SenMarkey @SenToddYoung @ChrisVanHolen #UnityForEthiopia",10,0
1376270144851222531,"2021-03-28T20:29:07Z","@RyanSAdams @antiprosynth ETH is your shitcoin",1,0
1376270143836319751,"2021-03-28T20:29:06Z","Didn’t #TPLF take fertile farmlands of Amhara by genocide in the so called #Western Tigray? Where are the DOS, DODI, CIA, US diplomats in Addis? @POTUS @KamalaHarris @SecBlinken @ChrisCoonsCMUNC @Timkaine @SenMarkey @SenToddYoung @ChrisVanHolen #UnityForEthiopia",10,0
1376270135942508547,"2021-03-28T20:29:04Z","The media campaign by Diaspora TPLF, by handful of remnants of #TPLF cadres, to continue killing of civilians who don't fight does not help the people of Tigray. US &amp; EU must stop these goons of tragedy. @SenatorShaheen @SenatorMenendez @ChrisCoonsCMUNC #UnityForEthiopia",10,0
1376270134843596801,"2021-03-28T20:29:04Z","Klever is allowing people to send money smarter, providing families with more time to do the things in life that really matter.  #Klever #KLV $KLV #KFI $KFI #bitcoin #btc #eth #bnb #trx https://t.co/A5fpA7CC6T",212,0
1376270134327832582,"2021-03-28T20:29:04Z","Brooo I logged on to twitter to see insane art and not people saying they need a collector for their eth 😭😭",7,0
1376270131974832129,"2021-03-28T20:29:03Z","I just joined this $25k Crypto giveaway by @JRNYcrypto and @sparkpointio Get daily entries to increase your chances of winning! 25 random winners of $1k each! #Bitcoin #Crypto $BTC $ETH $SRK",0,0
1376270131597344771,"2021-03-28T20:29:03Z","There are little tricks and #TPLF propaganda that mesmerized the US policy makers for a while now since November 2021. #ENDF prevented the destruction of a nation by #TPLF. Friends do not feed lies. #TPLF fed lies to the US and the US bought it. @POTUS @VP #UnityForEthiopia",20,0
1376270128871014403,"2021-03-28T20:29:03Z","@TrustlessState If defi tokens outperform Eth, why hold eth? You’re not accounting for the fact that any new Eth is sold for other coins",0,0
1376270124588539905,"2021-03-28T20:29:02Z","⚡🔥 EASY $10(Litecoin) Giveaway!  To win: ✔ Tag a friend ✔ Retweet ✔ Follow us Thats it! Good luck! 💖  Rolling in 36 hours!  #goodvibes #goodluck #giveaway #bitcoin #Giveaways  #cryptocurrency #eth #btc #BSC #TRON",332,0
1376270121807667200,"2021-03-28T20:29:01Z","Sudan and #Egypt are fanning conflicts and boarder wars to leverage the #GERD negotiations. US and EU must side with justice, Ethiopian position of equitable and fair usage of the Nile. @KamalaHarris @SecBlinken @RepRonnyJackson @RepSaraJacobs @RepCicilline #UnityForEthiopia",19,0
1376270114358767617,"2021-03-28T20:28:59Z","Klever is allowing people to send money smarter, providing families with more time to do the things in life that really matter.  #Klever #KLV $KLV #KFI $KFI #bitcoin #btc #eth #bnb #trx https://t.co/A5fpA7CC6T",212,0
1376270112089649153,"2021-03-28T20:28:59Z","#BTC Price: $55083 #ETH Price: $1676 #LTC Price: $181  Next update in 10 minutes Last updated: 16:28:58.08",0,0
1376270107643502592,"2021-03-28T20:28:58Z","The unfortunate conflict in Tigray is the making of #TerroristTplf. It attacked the #Divisions of N. Command of Ethiopia. It attacked #Eritrea to externalize the war in #HOA. It killed Eritreans. No benefit #EU sanctioning #Eritrea @StateDept @POTUS @SecBlinken #UnityForEthiopia",15,0
1376270107127742465,"2021-03-28T20:28:58Z","@elonmusk This 👆 #degenswillprevail #degenarmy #YieldFarming #degentoken #BinanceSmartChain #DeFi $dgnz $adgnz $bnb $cake $link $auto $xvs $eth $btc",6,0
1376270105584271363,"2021-03-28T20:28:57Z","#EU &amp; #US should not abandon Ethiopia with hopeful 120 million people. #TPLF is dead &amp; buried. We must forge ahead a prosperous &amp; stable #HOA free from terrorists that want to destabilize Ethiopia from Western Capitals. US and EU must say no. @POTUS @VP #UnityForEthiopia",11,0
1376270101515673602,"2021-03-28T20:28:56Z","To celebrate @3DPunks_ #100/100 Auction Current bid at 16 ETH ($27K USD)  I'm giving away 3D Punk #049  Which last sold for 6.97 ETH ($12K USD)  How: - Follow @evankeast + @3DPunks_  - Like + Retweet - Tag a friend - Join the discord: https://t.co/5paneepNDb - Say hi in discord https://t.co/SOy3l78yP1",1043,0
1376270094280589318,"2021-03-28T20:28:54Z","The unfortunate conflict in Tigray is the making of #TerroristTplf. It attacked the #Divisions of N. Command of Ethiopia. It attacked #Eritrea to externalize the war in #HOA. It killed Eritreans. No benefit #EU sanctioning #Eritrea @StateDept @POTUS @SecBlinken #UnityForEthiopia",15,0
1376270081391476738,"2021-03-28T20:28:51Z","#EU and #US must help with the elections in Ethiopia. They must stop the hate speech by #TPLF and #OLF terrorists. Then everybody benefits with prosperous and stable #Ethiopia. @POTUS @KamalaHarris @SecBlinken @ChrisCoonsCMUNC @SenToddYoung @ChrisVanHolen #UnityForEthiopia",11,0
1376270079130656768,"2021-03-28T20:28:51Z","#EU &amp; #US should not abandon Ethiopia with hopeful 120 million people. #TPLF is dead &amp; buried. We must forge ahead a prosperous &amp; stable #HOA free from terrorists that want to destabilize Ethiopia from Western Capitals. US and EU must say no. @POTUS @VP #UnityForEthiopia",11,0
1376270069886550026,"2021-03-28T20:28:49Z","'NO WISDOM FOR MR. SLITHERSBERG'  A CLASSIC PIECE IN THE 'LAST CONFIRMATION' COLLAB SERIES. CURRENTLY OWNED BY SUPERCOLLECTOR ETHSQUIAT.  CURRENT 2NDARY PRICE: 8.137 #ETH ($13,420)  https://t.co/Y9XBjJIPr3  #NFT #ETHEREUM #DEFI #NFTS #cryptoartist https://t.co/ucqux1Gwf7",10,0
1376270067818631169,"2021-03-28T20:28:48Z","There are little tricks and #TPLF propaganda that mesmerized the US policy makers for a while now since November 2021. #ENDF prevented the destruction of a nation by #TPLF. Friends do not feed lies. #TPLF fed lies to the US and the US bought it. @POTUS @VP #UnityForEthiopia",20,0
1376270065742544896,"2021-03-28T20:28:48Z","#EU and #US must support the Africa solution for GERD. @POTUS @KamalaHarris @SecBlinken @ChrisCoonsCMUNC @SenToddYoung @RonWyden @ChrisVanHolen @Timkaine @SenMarkey @CoryBooker @SenatorLeahy @BernieSanders @RepSaraJacobs @RepCicilline #UnityForEthiopia",11,0
1376270065096658950,"2021-03-28T20:28:48Z","@theblocklads @VukTheWolfy @intocryptoverse You got me bro... holding a big bag of worthless $ETH. I’m just waiting to dump it for the future gem $ADA.",0,0
1376270055181221889,"2021-03-28T20:28:45Z","Freebie from my alts page.  ETH chart from over a month ago. You could see that price got over-cooked relative to the cyclical curve/ mean of prices. Sure enough, cam back to the tagged price... https://t.co/HbvUG1FxOD",84,0
1376270054208180224,"2021-03-28T20:28:45Z","#Humanitarian agencies are more in the news and rumor mills than helping in the humanitarian assistance. 70% of the humanitarian aid is done by #Ethiopia even when #TPLF is cutting telephone cables in Tigray. @POTUS @KamalaHarris @SecBlinken @ChrisCoonsCMUNC #UnityForEthiopia",12,0
1376270046369038336,"2021-03-28T20:28:43Z","To celebrate @3DPunks_ #100/100 Auction Current bid at 16 ETH ($27K USD)  I'm giving away 3D Punk #049  Which last sold for 6.97 ETH ($12K USD)  How: - Follow @evankeast + @3DPunks_  - Like + Retweet - Tag a friend - Join the discord: https://t.co/5paneepNDb - Say hi in discord https://t.co/SOy3l78yP1",1043,0
1376270044179615754,"2021-03-28T20:28:43Z","🔥🔥🔥🔥🔥🔥🔥🔥🔥🔥🔥🔥  Pluto Coin #Airdrop  🎁 Reward:  8822 PLUT ($1500) 👫 Referral: 40.5 PLUT  ($7)  Click to join the airdrop: https://t.co/ED0MHuE87V  ⛂ Join Telegram group and channel. ⛂ Follow twitter &amp; retweet  ⛂ Submit ETH address and details.",4,0
1376270029604315136,"2021-03-28T20:28:39Z","To celebrate @3DPunks_ #100/100 Auction Current bid at 16 ETH ($27K USD)  I'm giving away 3D Punk #049  Which last sold for 6.97 ETH ($12K USD)  How: - Follow @evankeast + @3DPunks_  - Like + Retweet - Tag a friend - Join the discord: https://t.co/5paneepNDb - Say hi in discord https://t.co/SOy3l78yP1",1043,0
1376270011849961472,"2021-03-28T20:28:35Z","I just joined this $25k Crypto giveaway by @JRNYcrypto and @sparkpointio  Get daily entries to increase your chances of winning! 25 random winners of $1k each!  #Bitcoin #Crypto $BTC $ETH $SRK",1,0
1376270007521308673,"2021-03-28T20:28:34Z","To celebrate @3DPunks_ #100/100 Auction Current bid at 16 ETH ($27K USD)  I'm giving away 3D Punk #049  Which last sold for 6.97 ETH ($12K USD)  How: - Follow @evankeast + @3DPunks_  - Like + Retweet - Tag a friend - Join the discord: https://t.co/5paneepNDb - Say hi in discord https://t.co/SOy3l78yP1",1043,0
1376270006548373504,"2021-03-28T20:28:34Z","To celebrate @3DPunks_ #100/100 Auction Current bid at 16 ETH ($27K USD)  I'm giving away 3D Punk #049  Which last sold for 6.97 ETH ($12K USD)  How: - Follow @evankeast + @3DPunks_  - Like + Retweet - Tag a friend - Join the discord: https://t.co/5paneepNDb - Say hi in discord https://t.co/SOy3l78yP1",1043,0
1376270004694482944,"2021-03-28T20:28:33Z","#givingbacktothecommunity  GENESIS DUST ✨ 3D graffiti piece by @imkorpo on @withFND  🔥  0.75 ETH, 2 hours to go  https://t.co/IqdXNbhkmA https://t.co/0yKbv0vWqA",110,0
1376270003914244097,"2021-03-28T20:28:33Z","To celebrate @3DPunks_ #100/100 Auction Current bid at 16 ETH ($27K USD)  I'm giving away 3D Punk #049  Which last sold for 6.97 ETH ($12K USD)  How: - Follow @evankeast + @3DPunks_  - Like + Retweet - Tag a friend - Join the discord: https://t.co/5paneepNDb - Say hi in discord https://t.co/SOy3l78yP1",1043,0
1376270001011822610,"2021-03-28T20:28:32Z","$feg are deflationary progressive token without limit of burning💎 and the DexCex FegEx gonna launch soon, you gonna be able to earn eth and bnb just by stacking your $FEG $eth $bnb $bsc $sol $btc #cryptocurrency #Crypto #DeFi $dent #rich #MILLIONBOYS #BinanceSmartChain #altcoin https://t.co/Ynn3AtTPNK",147,0
1376269996259569664,"2021-03-28T20:28:31Z","@his_eth My genesis piece is still up on Foundation waiting for a starting bid ❤️  https://t.co/DMfOPzyVVt  https://t.co/k3cI3Szv8u",1,0
1376269987745165316,"2021-03-28T20:28:29Z","$PRCY | #PRCY #YOUTUBE   Thanks Prime Investors for the nice Youtube Video review !! Awesome !   https://t.co/GmGH0sen6b  #Crypto #cryptocurrency #Bitcoin #tech #fintech #Coins #Blockchain #altcoins #Alts #Masternodes $ETH $USDT #BTC #community #PoA #privacy https://t.co/AvSWDRDc5F",31,0
1376269975623729152,"2021-03-28T20:28:26Z","$Solana + $Kin are a perfect match!  Let’s see how high they fly this year!  https://t.co/7OFM9TWdrL https://t.co/A0chFrbk9H  #Kin #NFTs #DeFi #btc  #bitcoin #solana #bch #usd #xrp #eth #price #crypto #ltc #fintech #blockchain #buythedip https://t.co/KarDyrobz9",18,0
1376269975166582787,"2021-03-28T20:28:26Z","It is incredible that Western Media ignores TPLF's criminal acts but amplifies #TPLF lies with diligence! Do not gloss over the truth! TPLF shot 23 deadly missiles at the Eritrean capital Asmara! #UnityForEthiopia @UNSCouncil @EU_Commission What is the sanction about? @StateDept",30,0
1376269972335382533,"2021-03-28T20:28:25Z","@TheIronRoze @jesslynnrose to say nothing of the immense resource cost of cryptocurrency, which requires a massive amount of electricity to be generated at all times in order to 'mine' a coin of Etherium, BitCoin, etc.  So you're killing the planet for a piece of art that you own, but don't really own.",17,0
1376269958158680065,"2021-03-28T20:28:22Z","🌴RETRO FUTURE🌴  Still available on @withFND   0.5 ETH which is a steal compared to current prices 🤙  Link in my bio https://t.co/Vw1w1lwttp",9,1
1376269956023746567,"2021-03-28T20:28:22Z","Good bye old friends, $BTC $ETH $REN $WAN $LINK $AAVE $ALGO $UTK https://t.co/QX4UeMD5vg",1,0
1376269953494573059,"2021-03-28T20:28:21Z","Less Hype more returns.. $SKL is setup for a 2X from here. Check the reversal👇👇👇  💸💵💵🚀🚀🌋🌋🌋  $link $btc $eth $nu $algo $grt $mana $ren $band $cvc $dnt $fil $dash $knc $bnb $oxt $bat $doge $aave $xtz $xlm $xrp $zrx $ada  $sushi $enj $ada $matic https://t.co/XCQ1A39dMs",2,0
1376269949732282368,"2021-03-28T20:28:20Z","The DEX @FinanceChainge is set to launch on the @FUSIONProtocol network with over a million users on the protocols waitlist. This decentralized exchange aims to innovate on traditional models through leveraging the Fusion Network.  #BSC #BTC #ETH #BNB  https://t.co/xx55YiGfm3",21660,0
1376269948482424837,"2021-03-28T20:28:20Z","To celebrate @3DPunks_ #100/100 Auction Current bid at 16 ETH ($27K USD)  I'm giving away 3D Punk #049  Which last sold for 6.97 ETH ($12K USD)  How: - Follow @evankeast + @3DPunks_  - Like + Retweet - Tag a friend - Join the discord: https://t.co/5paneepNDb - Say hi in discord https://t.co/SOy3l78yP1",1043,0
1376269945856786438,"2021-03-28T20:28:19Z","To celebrate @3DPunks_ #100/100 Auction Current bid at 16 ETH ($27K USD)  I'm giving away 3D Punk #049  Which last sold for 6.97 ETH ($12K USD)  How: - Follow @evankeast + @3DPunks_  - Like + Retweet - Tag a friend - Join the discord: https://t.co/5paneepNDb - Say hi in discord https://t.co/SOy3l78yP1",1043,0
1376269943684104196,"2021-03-28T20:28:19Z","@DropYourNFT hey friend!  I comment that I have available my genesis of @withFND   https://t.co/YbgiFYeG7Z:  I also have 4 works available in rarible,prices from: 0.012eth - 1 eth  https://t.co/AAUeKLPWxT https://t.co/i6dk6MgXNi",0,0
1376269943306645504,"2021-03-28T20:28:19Z","🔸 New Listing🔸   #BKEX will list #DRYCAKE @DryCakeSwap🚀 🚀  - Trading pair: DRYCAKE/USDT - Trading time: 20:00 on Mar 29 (UTC+8)  🔹 🔹 More details: https://t.co/kC2IIebfTT  #Bitcoin #ETH #BKK #Blockchain https://t.co/w8CHyKXaUD",2480,0
1376269941414973446,"2021-03-28T20:28:18Z","If someone says that @swissborg is just an ordinary crypto wallet, show them this picture and tell them that it’s just the beginning. 💚 💚 💚 *feel free to share this photo*🙏🏼 #WeAreSwissborg #CHSB #Swissborg #UNI #ETH #BTC #REN #AAVE #USDC #BNB #COMP #KNC #ENJ #PAXG #DAI #DEFI https://t.co/OvuKT3A1sy",181,0
1376269939137478665,"2021-03-28T20:28:18Z","RT @1enjin: If you hate $ETH, you will love $ONE!",76,0
1376269937426231297,"2021-03-28T20:28:17Z","To celebrate @3DPunks_ #100/100 Auction Current bid at 16 ETH ($27K USD)  I'm giving away 3D Punk #049  Which last sold for 6.97 ETH ($12K USD)  How: - Follow @evankeast + @3DPunks_  - Like + Retweet - Tag a friend - Join the discord: https://t.co/5paneepNDb - Say hi in discord https://t.co/SOy3l78yP1",1043,0
1376269931273068545,"2021-03-28T20:28:16Z","Less Hype more returns.. $SKL is setup for a 2X from here. Check the reversal👇👇👇  💸💵💵🚀🚀🌋🌋🌋  $link $btc $eth $nu $algo $grt $mana $ren $band $cvc $dnt $fil $dash $knc $bnb $oxt $bat $doge $aave $xtz $xlm $xrp $zrx $ada  $sushi $enj $ada $matic https://t.co/XCQ1A39dMs",2,2
1376269926525177860,"2021-03-28T20:28:14Z","To celebrate @3DPunks_ #100/100 Auction Current bid at 16 ETH ($27K USD)  I'm giving away 3D Punk #049  Which last sold for 6.97 ETH ($12K USD)  How: - Follow @evankeast + @3DPunks_  - Like + Retweet - Tag a friend - Join the discord: https://t.co/5paneepNDb - Say hi in discord https://t.co/SOy3l78yP1",1043,2
1376269924302196746,"2021-03-28T20:28:14Z","To celebrate @3DPunks_ #100/100 Auction Current bid at 16 ETH ($27K USD)  I'm giving away 3D Punk #049  Which last sold for 6.97 ETH ($12K USD)  How: - Follow @evankeast + @3DPunks_  - Like + Retweet - Tag a friend - Join the discord: https://t.co/5paneepNDb - Say hi in discord https://t.co/SOy3l78yP1",1043,2
1376269920024027141,"2021-03-28T20:28:13Z","@CoolPineapple18 Yep. Easiest one now is centralized. Too easy to label something as such and you know 90%+ of masses just follow the narrative, so it will take some time for adoption unless some ETH OGs really help. Its critical that icp community be welcoming atm",1,0
1376269919118094340,"2021-03-28T20:28:13Z","CRYPTO NEWS - SELLING ETH, Buying Hidden Gems https://t.co/duXadddWRg via @YouTube",0,0
1376269907906732036,"2021-03-28T20:28:10Z","$KLV is now Top 3 coin by Social Engagements, with over 75 million engagements, and only $BTC &amp; $ETH ahead of #KLV!  Thank you for sharing the #klever vision of financial independence for all 🙏🏽 https://t.co/8M4aEksIHQ",664,0
1376269907025793027,"2021-03-28T20:28:10Z","🔥 Bid Updates!  @Bosslogic x @francis_ngannou epic collaboration March to the Throne  The Crowned King high bid of 16 ETH from #barthazian Crowned high bid of $8,700 USD #SkyJedi   Both auctions end tomorrow night! 👇👇 https://t.co/hrcs8SiWy8 https://t.co/OGHxxlS5Uv",56,0
1376269889778909186,"2021-03-28T20:28:06Z","To celebrate @3DPunks_ #100/100 Auction Current bid at 16 ETH ($27K USD)  I'm giving away 3D Punk #049  Which last sold for 6.97 ETH ($12K USD)  How: - Follow @evankeast + @3DPunks_  - Like + Retweet - Tag a friend - Join the discord: https://t.co/5paneepNDb - Say hi in discord https://t.co/SOy3l78yP1",1043,0
1376269888663224322,"2021-03-28T20:28:05Z","@DickWhitmanBTC I think shes an Eth whore myself.",1,0
1376269883948863490,"2021-03-28T20:28:04Z","🏆 Follow us &amp; Retweet this tweet, Specify the ETH address in the tweet comment to get 10 #BIT ($10 worth) or 50 #BIT ($50 worth) #BitScores Airdrop Tokens! 🎁 $250,000 Prize Pool Full rules: https://t.co/N53M5nRXr9  #giveaway #airdrops #bounty #giveaways #defi #eth #btc #airdrop https://t.co/m77hDtRsBv",3577,0
1376269882258452480,"2021-03-28T20:28:04Z","To celebrate @3DPunks_ #100/100 Auction Current bid at 16 ETH ($27K USD)  I'm giving away 3D Punk #049  Which last sold for 6.97 ETH ($12K USD)  How: - Follow @evankeast + @3DPunks_  - Like + Retweet - Tag a friend - Join the discord: https://t.co/5paneepNDb - Say hi in discord https://t.co/SOy3l78yP1",1043,0
1376269873622478854,"2021-03-28T20:28:02Z","I just joined this $25k Crypto giveaway by @JRNYcrypto and @sparkpointio Get daily entries to increase your chances of winning! 25 random winners of $1k each! #Bitcoin #Crypto $BTC $ETH $SRK",2,0
1376269862687870976,"2021-03-28T20:27:59Z","@CryptonikL Going big on this pullback. Looking for 52.8-53 on corn and low 16xx Eth",1,0
1376269853905068035,"2021-03-28T20:27:57Z","$BTC Dominance down to 61% Not 40-50% yet. Before then, some ALTS can have massive spike (in the next 1-2 Months) E.G. 03/2021 Screenshot: $ETH 1700 $VET 0.09 $VTHO 0.018 $CHZ 0.51 $MANA 1 $CTK 2.6 $SKY 2.6 $IQ 0.025 $BTT 0.0035 $NPXS 0.0075 $FLR 1.3 $BNB 260",10,6
1376269849379418118,"2021-03-28T20:27:56Z","To celebrate @3DPunks_ #100/100 Auction Current bid at 16 ETH ($27K USD)  I'm giving away 3D Punk #049  Which last sold for 6.97 ETH ($12K USD)  How: - Follow @evankeast + @3DPunks_  - Like + Retweet - Tag a friend - Join the discord: https://t.co/5paneepNDb - Say hi in discord https://t.co/SOy3l78yP1",1043,6
1376269844887207939,"2021-03-28T20:27:55Z","To celebrate @3DPunks_ #100/100 Auction Current bid at 16 ETH ($27K USD)  I'm giving away 3D Punk #049  Which last sold for 6.97 ETH ($12K USD)  How: - Follow @evankeast + @3DPunks_  - Like + Retweet - Tag a friend - Join the discord: https://t.co/5paneepNDb - Say hi in discord https://t.co/SOy3l78yP1",1043,6
