"ID","created_at","text","like_count","rt_count"
1375734314814570496,"2021-03-27T08:59:55Z","Because he's the hero Ethereum deserves and the one it needs right now.  Aaaaaaastrooooookniiiight!!!   #nahmii #Layer2scaling $NII #NII #HBT $HBT #ETH #Ethereum #nahmiimes #consensys #crypto #cryptocurrency #DeFi #blockchain #cryptoart #cryptoartist #nahmiiknights #knightsofnii https://t.co/z2OagUHAMR",21,0
1375734300679749636,"2021-03-27T08:59:51Z","UBIX moving into real world solutions   #UBIX $UBX  https://t.co/Z5faXz1UOz  #Altseason2021  #altcoin #BTC # #ALTSEASON #sxp #trading #blockchain #binance #nfts #cashback  #Ethereum #doge #alts  #Crypto #CryptoNews #travel #nft #xem   #eth #Bitcoin",6,0
1375734281927004160,"2021-03-27T08:59:47Z","🔥 New #NFTs art available on @rariblecom 🔥  Diamond Hands  #Ethereum #ETH  #NFT   Discover it here 👇 https://t.co/Ur901dKF9k https://t.co/doGogXRdVq",69,0
1375734280001753093,"2021-03-27T08:59:46Z","New GIVEAWAY ! #Okcash $ok $BTC #ETH  “20” WINNERS 5 OK EACH. Valid until the next giveaway.  RULES:  1. Like and Retweet 2. Follow 3. Tag 3 friends 4. Post your Okcash address in answer to this tweet #Bitcoin  #Giveaway #cryptocurrency #Crypto #Sharing #EXCHANGE https://t.co/Zrp8c1iU8P",43,0
1375734268308037632,"2021-03-27T08:59:44Z","#Earn $40 by Learning &amp; Earning about #Crypto. Don't miss it. Hurry Up...  1. Join Right Now: https://t.co/vJNFExvjVJ 2. Verify Email (must) 3. Start Earning by Learning about Crypto.  1. Retweet + Like #CTBot Adrop Ram 3 TRX 90 #btc #bnb #bsc #free #altcoins #Binance #eth #defi https://t.co/cPDVN1a0jk",95,0
1375734266793967618,"2021-03-27T08:59:43Z","*** Giving away 1000 $Dusk ***  To celebrate $BTC reaching 60k I've decided to give you a chance to win 1000 of my favorite altcoin, $dusk, if you: - Like this tweet - Retweet this tweet - Follow me on Twitter.   Contest ends 27-03. $ETH $ADA $BNB $LINK #GiveawayAlert #Crypto https://t.co/nsWo1FFUVQ",271,0
1375734264575057920,"2021-03-27T08:59:43Z","🌋#ATD #Giveaway is on now! @a2dao_ 🌋  10 lucky users will receive $30 each in #ATD ✨  1️⃣Login &amp; Participate ☀️ https://t.co/wrbe0JlJuK   2️⃣Retweet and @ a friend  #DeFi #crypto #ALTSEASON #ETH #NFT https://t.co/oq0O5RbPbj",307,0
1375734261286895619,"2021-03-27T08:59:42Z","@jiggyjayy2 @herAngel00 Earn money for mahala by clicking on the link...no joining fees or no making of payments ever!!!  Let's make money guys; My ETH value grew from R62k to over R90k in just a few days, the easiest few thousand rands you'll ever make 💰 💰 💰💰 💰 💰  https://t.co/R3eHDhlbnP",0,0
1375734260590469121,"2021-03-27T08:59:42Z","🚀 Safe The Children  🔷 Token Symbol : STC  🔷 Contract: https://t.co/nk3qsF2PJV  🔷 Website: https://t.co/4y0g7dqswM  🔷 Whitepaper: https://t.co/PHPZI4dbyR  🔷 Presentation Video : https://t.co/Mycfov12IU  #Safe_Childrens #Bitcoin  #Binance #BinanceSmartChain #DEFI  #BTC #ETH",14721,0
1375734244106964992,"2021-03-27T08:59:38Z","RT @boazcstrike: Created my first NFT with my awesome photographer friend's photo #NFT $NFT #ETH $ETH https://t.co/ZD3PQDe0F1",2,0
1375734227732418560,"2021-03-27T08:59:34Z","🚀 Safe The Children  🔷 Token Symbol : STC  🔷 Contract: https://t.co/nk3qsF2PJV  🔷 Website: https://t.co/4y0g7dqswM  🔷 Whitepaper: https://t.co/PHPZI4dbyR  🔷 Presentation Video : https://t.co/Mycfov12IU  #Safe_Childrens #Bitcoin  #Binance #BinanceSmartChain #DEFI  #BTC #ETH",14721,0
1375734222497800192,"2021-03-27T08:59:33Z","🔥New Listing @a2dao_ 🔥  #ATD trading will be enabled on https://t.co/8kWqgEeplL 😎  👉Trade: https://t.co/ExhZLJsBuu 👉Details: https://t.co/wHKyoIXPWV  #DeFi #crypto #ALTSEASON #ETH #NFT https://t.co/UjKmwZhqea",256,0
1375734214893658112,"2021-03-27T08:59:31Z","The First Impression of Spring @opensea #nft #nfts #nftart #nftcollector #nftcollectors #NFTCommunity  #opensea https://t.co/45l2g0kAqn $dot $ada $btc $ltc $xrp $theta $ksm $reef $eth",16,0
1375734206395977730,"2021-03-27T08:59:29Z","🚀 Pluto Coin  Airdrop 🚀 Rate: ⭐⭐⭐⭐ ⭐ 🎁 Reward:  8822 PLUT ($1500) 👫 Referral: 40.5 PLUT  ($7)  🤖Start Bot here   https://t.co/x5JZchojO8  ⛂ Join Telegram group and channel. ⛂ Follow twitter &amp; retweet  ⛂ Submit ETH address and details.",6005,0
1375734196749049857,"2021-03-27T08:59:27Z","a very good project to participate in. success is always with the project team#STC #ETH #DEFI #Airdrops https://t.co/s3uSTVUUzs",0,0
1375734194635169795,"2021-03-27T08:59:26Z","Welcome to massive Q DAO airdrop!   1. go now to telegram https://t.co/COyXgODY1z   2. Stay in telegram chat and wait announcement.  3. HOLD this gem until 10x   (soon - QDAO launch cross-chain for BSC, Polkadot and ETH)",4254,0
1375734158664761346,"2021-03-27T08:59:17Z","Win #NFT worth ETH!  To WIN #Giveaway You MUST:    1.) Follow @degenasaurus   2.) Retweet the tweet BELOW ⬇️ + comment it  3.) OPTION -&gt; Join discord: https://t.co/alAVVDlyQu  NFT: https://t.co/l37pUrR6Y3  Wish luck!! 🦖♥️🛸👫  @coinkit_ mon 45 2000 BTC  https://t.co/wFeOut8N85",310,0
1375734151459057665,"2021-03-27T08:59:16Z","$14 million $REAP coins are up for grabs🚀  💸💸Legit Airdrop💰💰  Earn your share of 7M $REAP tokens Airdrop by completing easy social tasks.  Join: https://t.co/kugDOvWzoq  #Bitcoin #BTC #Doge #TRX #ETH ____  @rocketbotpro airdrop 0.5 merge 50  #CTBot Adrop Avg 16 CNS 70",51,0
1375734136179204097,"2021-03-27T08:59:12Z","RT @25m42_luk: Last hour is on for this piece   current bid 1.102 ETH🔥🔥🔥  thank you @CryptopolitanG  ❤  https://t.co/KrQaaukE3z",21,0
1375734135751241729,"2021-03-27T08:59:12Z","Bitcoin has added nearly $5,000 since its dip two days ago but its dominance is well below 60% as ETH and other altcoins have surged in value.  https://t.co/8JhxniqiRt",15,0
1375734127287144449,"2021-03-27T08:59:10Z","🚀 Safe The Children  🔷 Token Symbol : STC  🔷 Contract: https://t.co/nk3qsF2PJV  🔷 Website: https://t.co/4y0g7dqswM  🔷 Whitepaper: https://t.co/PHPZI4dbyR  🔷 Presentation Video : https://t.co/Mycfov12IU  #Safe_Childrens #Bitcoin  #Binance #BinanceSmartChain #DEFI  #BTC #ETH",14721,0
1375734119456501762,"2021-03-27T08:59:08Z","Win #NFT worth ETH!  To WIN #Giveaway You MUST:    1.) Follow @degenasaurus   2.) Retweet the tweet BELOW ⬇️ + comment it  3.) OPTION -&gt; Join discord: https://t.co/alAVVDlyQu  NFT: https://t.co/l37pUrR6Y3  Wish luck!! 🦖♥️🛸👫  @coinkit_ mon 45 2000 BTC  https://t.co/wFeOut8N85",310,0
1375734101479673857,"2021-03-27T08:59:04Z","Win Degenasaur #042 #NFT worth ETH! --&gt; https://t.co/l37pUrR6Y3   1.) RT this tweet   2.) Follow @degenasaurus  3.) Comment + tag 3 friends  OPTIONAL extra chance to Win! -&gt; 4.) Join discord post username twitter comp: https://t.co/Ewmuzju2wL  4.) Win randomly Sat 3rd April! https://t.co/eyLZUL4bFz",306,0
1375734089198800898,"2021-03-27T08:59:01Z","Last hour is on for this piece   current bid 1.102 ETH🔥🔥🔥  thank you @CryptopolitanG  ❤  https://t.co/KrQaaukE3z",21,6
1375734075583909889,"2021-03-27T08:58:58Z","Win #NFT worth ETH!  To WIN #Giveaway You MUST:    1.) Follow @degenasaurus   2.) Retweet the tweet BELOW ⬇️ + comment it  3.) OPTION -&gt; Join discord: https://t.co/alAVVDlyQu  NFT: https://t.co/l37pUrR6Y3  Wish luck!! 🦖♥️🛸👫  @coinkit_ mon 45 2000 BTC  https://t.co/wFeOut8N85",310,6
1375734072324984834,"2021-03-27T08:58:57Z","🚀 Safe The Children  🔷 Token Symbol : STC  🔷 Contract: https://t.co/nk3qsF2PJV  🔷 Website: https://t.co/4y0g7dqswM  🔷 Whitepaper: https://t.co/PHPZI4dbyR  🔷 Presentation Video : https://t.co/Mycfov12IU  #Safe_Childrens #Bitcoin  #Binance #BinanceSmartChain #DEFI  #BTC #ETH",14721,6
1375734066331275272,"2021-03-27T08:58:55Z","No need to spend your own money to trade #cryptocurrency. Over 10K users won crypto rewards on @latokens last week. It's the best way to join the financial revolution. Start by earning a share of $100K in CLIQ airdrop: https://t.co/GfA53bicxX #Bitcoin #ETH #Citi #AON #LATOKEN",0,0
1375734017379696640,"2021-03-27T08:58:44Z","@Missing the near future 👀@UTRUST soon leading #CryptoPayments  #ecommercebusiness  #CryptoDeals  $UTK 💎 #cryptocurrencies  #BTC #ETH  @Grayscale https://t.co/rsMjRHkMXU",0,0
1375734015613931520,"2021-03-27T08:58:43Z","Energy Once Created Can Never Be Destroyed. Energize Your Wealth. Find out more at https://t.co/8HaULPc3Cb #kryptohaven #BTC #ETH #Wyoming #bitcoin https://t.co/GrlaPORTsS",0,0
1375733990255042562,"2021-03-27T08:58:37Z","RT @tomaszmro: 🌸 Sweet Dreams 🌸 1/1 on @withFND  Reserve price: 2 ETH  https://t.co/QMqBuKRUSA  #nft #cryptoart #NFTCommunity https://t.co/…",53,0
1375733976061550594,"2021-03-27T08:58:34Z","Win #NFT worth ETH!  To WIN #Giveaway You MUST:    1.) Follow @degenasaurus   2.) Retweet the tweet BELOW ⬇️ + comment it  3.) OPTION -&gt; Join discord: https://t.co/alAVVDlyQu  NFT: https://t.co/l37pUrR6Y3  Wish luck!! 🦖♥️🛸👫  @coinkit_ mon 45 2000 BTC  https://t.co/wFeOut8N85",310,0
1375733969166143490,"2021-03-27T08:58:32Z","The @Uniswap V3 x*y=k animation from @pplpleasr1 was just purchased for 310 ETH ($525,000)  The buyer was 0x067b9Bbbbc42d2AB9b9Ab6bB62646dAF7F344A76, a DAO formed for the sole purpose of forming capital buying this NFT  an NFT SPAC, if you will 🤯🤑💸  https://t.co/d8KrGgPn1L",1342,0
1375733950228819970,"2021-03-27T08:58:28Z","🚀 Safe The Children  🔷 Token Symbol : STC  🔷 Contract: https://t.co/nk3qsF2PJV  🔷 Website: https://t.co/4y0g7dqswM  🔷 Whitepaper: https://t.co/PHPZI4dbyR  🔷 Presentation Video : https://t.co/Mycfov12IU  #Safe_Childrens #Bitcoin  #Binance #BinanceSmartChain #DEFI  #BTC #ETH",14721,0
1375733943580827651,"2021-03-27T08:58:26Z","STC one of the respective thought is for Unprivileged Children in the world. STC 20% of total profit goes to STC special fund for Safe the Children forum. #STC $STC #ETH #DEFI #DONATION",0,0
1375733938967113733,"2021-03-27T08:58:25Z","🚀 Safe The Children  🔷 Token Symbol : STC  🔷 Contract: https://t.co/nk3qsF2PJV  🔷 Website: https://t.co/4y0g7dqswM  🔷 Whitepaper: https://t.co/PHPZI4dbyR  🔷 Presentation Video : https://t.co/Mycfov12IU  #Safe_Childrens #Bitcoin  #Binance #BinanceSmartChain #DEFI  #BTC #ETH",14721,0
1375733933657092096,"2021-03-27T08:58:24Z","excellent project and achieve positive growth dynamics, which will lead us all to wonderful result.#STC #ETH #DEFI #Airdrops https://t.co/W0q72gs4wy",0,0
1375733930339532801,"2021-03-27T08:58:23Z","There is a new king in town and we love miners!!! Come mine with us!!! $flux $eth https://t.co/RJyeeEnL8W",24,9
1375733926963019776,"2021-03-27T08:58:22Z","@Safe_Childrens Good project nice very good @t_sangkala @Amari77412998 @Thousan23649892 @Lalabul310 @Fauzie2721   #Safe_Childrens #Bitcoin #Binance #BinanceSmartChain #DEFI #BTC #ETH",1,0
1375733919954337792,"2021-03-27T08:58:21Z","GIVEAWAY TIME! in one week I will choose one winner to get one copy of The Bleeding Heart is Disconnected To ENTER  LIKE-FOLLOW-RETWEET-COMMENT ETH ADDY! Good luck! MUST DO ALL TO BE ENTERED.  Art Below  #nft #nfts #nftart #nftcommunity #nfthype #nftcollector #nftcollectors https://t.co/rgJEeiuZHV",184,0
1375733904049631235,"2021-03-27T08:58:17Z","$kick #kick looks like a great investment.  #kicktoken M.cap : $4,3M  https://t.co/G7CB5XiqBD   #Bitcoin #cyrpto $xrp #BTC $eth $hot $link $doge $chz $trx $xlm $bnb $nft $ltc $defi $xvg $comp $twt $uni $defi $bat $sushi $ren $enj $grt $lrc $bal $mana $btt #Ethereum #uniswap $usdt https://t.co/nS8JTisKIs",16,0
1375733901444804611,"2021-03-27T08:58:16Z","@Safe_Childrens This is good project #STC #ETH #DEFI #Airdrops",1,0
1375733888610312196,"2021-03-27T08:58:13Z","Win #NFT worth ETH!  To WIN #Giveaway You MUST:    1.) Follow @degenasaurus   2.) Retweet the tweet BELOW ⬇️ + comment it  3.) OPTION -&gt; Join discord: https://t.co/alAVVDlyQu  NFT: https://t.co/l37pUrR6Y3  Wish luck!! 🦖♥️🛸👫  @coinkit_ mon 45 2000 BTC  https://t.co/wFeOut8N85",310,0
1375733886647300097,"2021-03-27T08:58:13Z","STC one of the respective thought is for Unprivileged Children in the world. STC 20% of total profit goes to STC special fund for Safe the Children forum. #STC $STC #ETH #DEFI #DONATION",2306,0
1375733884067966976,"2021-03-27T08:58:12Z","RT @Jopoto1: Current bid : .14 ETH go go go! https://t.co/oxZ8nXwOkx https://t.co/49RPVyZjJn",1,0
1375733868616052740,"2021-03-27T08:58:08Z","$BTC Dom Vs #ALTS  Still being squeezed down. Again, this chart is where I've made most of my money.   If this can break down here we likely get an alt season like 17' once again. Massive extensions.   You need a large impact alt like $Eth to start the move (looks likely) https://t.co/55kfl9KBR6",566,0
1375733863255789568,"2021-03-27T08:58:07Z","Good morning fellow students!  Hope you have an awesome weekend, don’t forget to keep an eye 👀on us because more news are coming! If you haven’t seen my latest post, I’ve already pinned it! #STC #Bitcoin #ETH #DeFi #NFT #Crypto #blockchain #BNB #BSC #altcoins #Coinbase #uniswap",5,1
1375733862131712001,"2021-03-27T08:58:07Z","#BTC Price: $54897 #ETH Price: $1697 #LTC Price: $182  Next update in 10 minutes Last updated: 4:58:7.00",0,0
1375733854200205315,"2021-03-27T08:58:05Z","🚀 Safe The Children  🔷 Token Symbol : STC  🔷 Contract: https://t.co/nk3qsF2PJV  🔷 Website: https://t.co/4y0g7dqswM  🔷 Whitepaper: https://t.co/PHPZI4dbyR  🔷 Presentation Video : https://t.co/Mycfov12IU  #Safe_Childrens #Bitcoin  #Binance #BinanceSmartChain #DEFI  #BTC #ETH",14721,0
1375733853269204994,"2021-03-27T08:58:05Z","#STC  #ETH #DEFI  #Airdrops  Very good project https://t.co/vt8fuJGT50",0,0
1375733848458334208,"2021-03-27T08:58:04Z","Celsius Network (@CelsiusNetwork) is managing over 70,000 #btc   #bitcoin   worth approx $3.85 billion 🤭😮🔥  Over 10,000 have been added since 8th Feb (47 days), that’s an average of approx 225 net increase per day 👏🏻   Great work @Mashinsky 💪🏼   #cel #eth https://t.co/eonZanI8LS",120,0
1375733841655173122,"2021-03-27T08:58:02Z","This is to announce that our Initial Token Offering-ITO(Pre-sale) is now live!  Token information: Ticker: YEY  Total supply: 500,000 YEY  Total allocated to Presale: 105,000 YEY   Hard cap: 500 ETH Soft cap: 200 ETH  Focus: 95% of Presale funds will fund uniswap liquidity pool. https://t.co/zm3gtFBXNj",6496,0
1375733840728166401,"2021-03-27T08:58:02Z","Can't be distracted. Chappelle got our back: We ain't stopping at the moon 🇲🇭  M . A . R . S .  that's where we are going! $SWTH ↗️ --------------------------------------------------  LP's for: $ETH $BTC $USDC $NEO $CEL &amp; $BUSD 🚀  #DeFi works better at https://t.co/ySg7A0tJYX 🌐 https://t.co/IP2qs7idrC",80,0
1375733830003224580,"2021-03-27T08:57:59Z","Look at $VRX AND $ETH market cap and price difference. Looking forward to seeing @Verox_AICrypto jumping $ETH price in the next couple weeks. Don’t have much $ETH BUT TONE OF $VRX ✅✅✅✅✅✅✅✅✅✅✅ https://t.co/pJ9fg9hdJ4",6,0
1375733824617844740,"2021-03-27T08:57:58Z","Fiat entered the room ...expect some BIG pump this weekend!  #crypto #cryptocurrency #blockchain #altcoin #bitcoin #btc #ethereum #eth #xrp #eos #bnb $BTC $ETH $XRP $EOS #nft #defi #news #binance #trading #business #forex #investing #fintech #twitter #art #giveaway #money #invest",0,0
1375733821157502982,"2021-03-27T08:57:57Z","RT @DavosCryptos: $BOLT also for the best #Football content in partnership with @Dugout  #Zilliqa $ZIL $ETH https://t.co/zdRpbY1uW4",297,0
1375733814161334279,"2021-03-27T08:57:55Z","RT @cryptoglodytes: @GODofETH Send it to fking Saturn 🪐🤟 $ETH #Ethereum #Crypto https://t.co/zA46YB5sfv",1,0
1375733807341522944,"2021-03-27T08:57:54Z","Your Spring Getaway! 2 Hours from L.A.   Lake view house for California escapes, outdoor fun &amp; #RemoteWork  Sequoias, Kern River rafting, Lake Isabella  $tsla $gme $amc $doge #btc $cciv $tsla $nkla $hyln $nio $li $aapl #indiedev #pc $arkk #eth $eth $btc https://t.co/E4vtQM49nc",1,0
1375733798587994115,"2021-03-27T08:57:52Z","@AirdropDet #STC  #ETH #DEFI  #Airdrops  Very good projectت",0,0
1375733795870150659,"2021-03-27T08:57:51Z","#ethereum $eth | 4H   Hybrid approach. This gives until next Thursday to hold the up swing, else range to low of 1578, with support at 1270. https://t.co/IgNZ8uoKTB",8,0
1375733795370975234,"2021-03-27T08:57:51Z","1/1 The 7th Twitter Campaign organised by #UnityForEthiopia @UnityForEthio themed  The Truth Defends Ethiopia on 28/3/21, let all of us stand together to make our voice heard for our country #Ethiopia @iyoba4u @EACC_EAN @DeaconYoseph @Qale23 @ams_kas @TagelLeraseh https://t.co/bDwYC2J2X8",317,0
1375733776483946499,"2021-03-27T08:57:46Z","RT @GODofETH: Let’s Fucking Go #ETH",108,0
1375733755130781697,"2021-03-27T08:57:41Z","#DeFi #BKC #eth2 #BucksCake  ANNOUNCEMENT!  Dear BucksCake's community members!  The exact date of BKC listing on Uniswap set for 04/20/2021!  2 days before it, the exact opening time of the trading pair BKC/ETH on Uniswap...  More at https://t.co/RQPMhjazG2 https://t.co/VjtBbXBA1t",2855,0
1375733748365455362,"2021-03-27T08:57:40Z","$NU  #NU Privacy Token  Low MCap  Let's Send It Easy Doble  Join Us🚀  @Coinbase @OKEx $btc $eth $ltc $bch $ada $yfi $atom $comp $link $xlm $dash $band  $knc $uni $wbtc $matic $atom $eos $knc #xrp $Lrc $algo $bal #xrpcommunity $eth $ltc $xtz $uma $yfi $nmr $mkr $zec $grt #Bitcoin",5,0
1375733741604069377,"2021-03-27T08:57:38Z","A good campaign and an interesting concept!#STC #ETH #DEFI #Airdrops https://t.co/miXegc1Z6d",0,0
1375733719412006913,"2021-03-27T08:57:33Z","The DEX @FinanceChainge is set to launch on the @FUSIONProtocol network with over a million users on the protocols waitlist. This decentralized exchange aims to innovate on traditional models through leveraging the Fusion Network.  #BSC #BTC #ETH #BNB  https://t.co/xx55YiGfm3",21659,0
1375733709379403776,"2021-03-27T08:57:30Z","@UltraRareUK Today I checked my wallet and I realised I recieved my #NFTees! Thanks again! Have a great day! #ETN 🚀 #UltraRareUK #Btc #Eth #NFT #Crypto",2,0
1375733706908962818,"2021-03-27T08:57:30Z","@HermelaTV @AbiyAhmedAli @ChrisCoons @SamanthaJPower So we should believe the leader of digital tigray. Group of people who released one of the largest lying machines on to twitter and other social media websites. TPLF is synonymous with looting(27 yrs looted Eth dry) and lies(Seyom mesfin badme is ours). #TPLFLEGACY",0,0
1375733701825421313,"2021-03-27T08:57:29Z","The First Impression of Spring @opensea #nft #nfts #nftart #nftcollector #nftcollectors #NFTCommunity  #opensea https://t.co/45l2g0kAqn $dot $ada $btc $ltc $xrp $theta $ksm $reef $eth",16,1
1375733701523484677,"2021-03-27T08:57:28Z","2100 was created for 100 $MANA ($89.73 USD = 0.0530 $ETH) by https://t.co/m01TV5ySwY https://t.co/gj5zuinKBv #decentraland #names #avatar https://t.co/zqv9tu1smE",0,0
1375733685010464770,"2021-03-27T08:57:25Z","🚀 Pluto Coin  Airdrop 🚀 Rate: ⭐⭐⭐⭐ ⭐ 🎁 Reward:  8822 PLUT ($1500) 👫 Referral: 40.5 PLUT  ($7)  🤖Start Bot here   https://t.co/x5JZchojO8  ⛂ Join Telegram group and channel. ⛂ Follow twitter &amp; retweet  ⛂ Submit ETH address and details.",6005,0
1375733680195334145,"2021-03-27T08:57:23Z","STC one of the respective thought is for Unprivileged Children in the world. STC 20% of total profit goes to STC special fund for Safe the Children forum. #STC $STC #ETH #DEFI #DONATION",2306,0
1375733677360091136,"2021-03-27T08:57:23Z","We are excited to announce that our Trade Squads #NFTs are now on @NiftyMuseum. Also our @NftTradersale is still open to mint your cute NFTs.  https://t.co/SXi4bXN0cW  https://t.co/YzMQQQCT8H  #blockchain #cryptocurrencies #crypto #cryptonews  #ethereum #defi $ETH #ERC20 #ERC721",56,0
1375733669755678722,"2021-03-27T08:57:21Z","@brazilian_Scoin Looking forward to this  💕💕💕💕💕  ETH Address: 0x085bAde86807A6d4D60D75F37a741BdECb2F7c9d https://t.co/Q4KNHKvmBJ",0,0
1375733668967112711,"2021-03-27T08:57:21Z","#VRX $VRX #VEROX Nation what’s your dashboard gonna look like Hold tight.#HODLER @Verox_AICrypto #ALTSEASON #altcoin #BTC  #blockchain #Crypto #cryptocurrency #DeFi #FOMO #Uniswap #bullish #Decentralization #ETH @BrianDEvans @kenny_izevbigie @Reblock_Digital https://t.co/gmic7lw9eW",9,0
1375733641397989376,"2021-03-27T08:57:14Z","No need to spend your own money to trade #cryptocurrency. Over 10K users won crypto rewards on @latokens last week. It's the best way to join the financial revolution. Start by earning a share of $100K in CLIQ airdrop: https://t.co/PSSV5dzGKq #Bitcoin #ETH #Citi #AON #LATOKEN",0,0
1375733637493178378,"2021-03-27T08:57:13Z","Hi friends, it's Friday and the weekend is upon us! Remember we're only human and it's healthy to slow down.  💙The last image of the collection, At World's End - III is still available on @withFND  with a reserve of 1.5 ETH 🌫️🔭  https://t.co/GR1RlD9iTq  #NFT #cryptoart https://t.co/UXdmDiUzE6",106,0
1375733612205645824,"2021-03-27T08:57:07Z","$Pux opens to the Far East. It originates from polypus, which is synonym of octopus.  By using their platform you can turn the time you spend on social media platforms into income.   @polypuXapp  #ETH #DeFi  #PUX https://t.co/WsVIX5QnGS",201,0
1375733593104740355,"2021-03-27T08:57:03Z","🤗 #XYM Lock &amp; Earn has launched at https://t.co/8kWqgEeplL @NEMofficial 🤗  💎Token: #XYM 💎Term: 7 days 💎Zero handling fee &amp; estimated annualized yield of 100%  👉Earn now: https://t.co/yAwwBIBTkA 👉Details: https://t.co/d1rkGcbUBU  #ALTSEASON #Altseason2021 #BTC #ETH https://t.co/OqLaEsRKWT",564,0
1375733587895447557,"2021-03-27T08:57:01Z","Win #NFT worth ETH!  To WIN #Giveaway You MUST:    1.) Follow @degenasaurus   2.) Retweet the tweet BELOW ⬇️ + comment it  3.) OPTION -&gt; Join discord: https://t.co/alAVVDlyQu  NFT: https://t.co/l37pUrR6Y3  Wish luck!! 🦖♥️🛸👫  @coinkit_ mon 45 2000 BTC  https://t.co/wFeOut8N85",310,0
1375733570052874243,"2021-03-27T08:56:57Z","Choose one, only one.  $DEXTF $HTR $ZIL $BONDLY $PKF $LUNA $QNT $RSR $OCEAN $REN $RUNE $BTC $ETH $TRB $KSM $RFOX $ORAI $SHR $ERN $VET $XED $SUPER $DOT $LINK $POLS $CAKE",3,0
1375733566370246659,"2021-03-27T08:56:56Z","🚀 Safe The Children  🔷 Token Symbol : STC  🔷 Contract: https://t.co/nk3qsF2PJV  🔷 Website: https://t.co/4y0g7dqswM  🔷 Whitepaper: https://t.co/PHPZI4dbyR  🔷 Presentation Video : https://t.co/Mycfov12IU  #Safe_Childrens #Bitcoin  #Binance #BinanceSmartChain #DEFI  #BTC #ETH",14721,0
1375733560313667585,"2021-03-27T08:56:55Z","Being a #decentralized platform, we believe that users need to have uncensored information about operations  Be your own master, because all the operations are independently managed on your own pools, wallets, and earnings  Learn more https://t.co/8hA28j5W8f  #BTC #ETH #DefiNews https://t.co/irIqn1kvvB",2,0
1375733556459229186,"2021-03-27T08:56:54Z","$DEFY just passed @TechRate1 audit with flying colours. Here is the link to the audit: https://t.co/Efzjn9A9lc  sincerely first ever deflationary #YieldFarming project.  #DeFi #BinanceSmartChain #binance #BNB $ETH $BTC",14,0
1375733554492100609,"2021-03-27T08:56:53Z","Created my first NFT with my awesome photographer friend's photo #NFT $NFT #ETH $ETH https://t.co/ZD3PQDe0F1",2,1
1375733551971201029,"2021-03-27T08:56:53Z","#VRX $VRX Hey #VEROX search the market and tell me my options Hold tight.#HODLER @Verox_AICrypto #ALTSEASON #altcoin #BTC #blockchain #Crypto #cryptocurrency #DeFi #FOMO #Uniswap #bullish #Decentralization #ETH @BrianDEvans @kenny_izevbigie @Reblock_Digital https://t.co/wjsRB0hBYZ",5,1
1375733549534433280,"2021-03-27T08:56:52Z","👫🏽👫🏽👬🏽👭🏽 The more, the merrier never felt so true! 300K of us inhabiting mothership #SwissBorg. 🛸 Join us on our journey 🌖 : https://t.co/a6lxVRZekg. . , #CHSB #ETH #USDC #Yield #Bitcoin #crypto https://t.co/WEPxZYKyhs",606,1
1375733549161062400,"2021-03-27T08:56:52Z","Great platform. I believe in you. You shall take us all to the moon#STC #ETH #DEFI #Airdrops https://t.co/wCNFdXVtTV",0,0
1375733521864613891,"2021-03-27T08:56:46Z","These are all 1/1 pieces and still available.  RT if you like my work #NFTs #NFTCommunity #nftcollectors   https://t.co/6hS8FhElAK https://t.co/aDgKHqmt8G https://t.co/GPsMw659VC",97,0
1375733520648310785,"2021-03-27T08:56:45Z","My #SAIΞVE trades of the day:   #btc #bnb #pcl #xrp #eth #iota #vet #bitcoin #Binance   #peculium #AI #savings #trading https://t.co/ftxCEd63IE",11,0
1375733509441138688,"2021-03-27T08:56:43Z","The Fear If Heights collection is now for sale on  @opensea  Price: 0.2 ETH   Support me by retweeting! #NFT #NFTCommunity #NFTart #cryptoart #NFTartist   The Link: https://t.co/7S043v3nHc https://t.co/NrLa8lA4rr",9,0
1375733501677424643,"2021-03-27T08:56:41Z","@js_cryptoart Hope you like it! https://t.co/xr6qC3Jb9o #nft #nftart #NFTartist #cryptoart #NFTCommunity #eth #ethereum",8,0
1375733495956439044,"2021-03-27T08:56:39Z","Can't be distracted. Chappelle got our back: We ain't stopping at the moon 🇲🇭  M . A . R . S .  that's where we are going! $SWTH ↗️ --------------------------------------------------  LP's for: $ETH $BTC $USDC $NEO $CEL &amp; $BUSD 🚀  #DeFi works better at https://t.co/ySg7A0tJYX 🌐 https://t.co/IP2qs7idrC",80,10
1375733485730729986,"2021-03-27T08:56:37Z","Available Work ( March 15th, 2021) #nftart #cryptoart   FOUNDATION:  MULTIVERSE ( 1 ETH Reserve ) https://t.co/XsvpX6GQKZ  SUPERRARE:  END BOSS ( 2 ETH Reserve / DM if interested ) https://t.co/keQPwXkyNv  DARK HOURS ( 2 ETH Reserve / DM if interested ) https://t.co/2zRuIBn6si https://t.co/fJj3dBlI5r",212,10
1375733481418883077,"2021-03-27T08:56:36Z","#Bitcoin - new ATH  Ethereum $ETH - new ATH  Cardano $ADA- new ATH  Polkadot $DOT - new ATH  Chainlink $LINK - new ATH  Vechain $VET - new ATH  XRP $XRP -  ?   It’s coming 🔥",1033,10
1375733477182689280,"2021-03-27T08:56:35Z","I still have full faith on $ETH dont mind the doubters. $ETH has made so many great things possible. I have some $ETH on my locked vaults I will not open them untill $ETH takes over the crown from $BTC",1,0
1375733471788863501,"2021-03-27T08:56:34Z","$DEFY just passed @TechRate1 audit with flying colours. Here is the link to the audit: https://t.co/Efzjn9A9lc  sincerely first ever deflationary #YieldFarming project.  #DeFi #BinanceSmartChain #binance #BNB $ETH $BTC",14,0
1375733470136127489,"2021-03-27T08:56:33Z","#VRX $VRX #VEROX Nation Hey VEROX can u pls tell me the score Hold tight.#HODLER @Verox_AICrypto #ALTSEASON #altcoin #BTC #blockchain #Crypto #cryptocurrency #DeFi #FOMO #Uniswap #bullish #Decentralization #ETH @BrianDEvans @kenny_izevbigie @Reblock_Digital https://t.co/gAnqT7devM",5,0
1375733464343965700,"2021-03-27T08:56:32Z","🔥 New #NFTs art available on @rariblecom 🔥  Diamond Hands  #Ethereum #ETH  #NFT   Discover it here 👇 https://t.co/Ur901dKF9k https://t.co/doGogXRdVq",69,0
1375733456286679040,"2021-03-27T08:56:30Z","Hi! I've created my own collections on [Opensea] So it would be a HUGE pleasure to me that if you come and see my NFT Art. retweet pls :)@opensea! #nft #opensea https://t.co/gX0HPyOsgw #nft #nfts #nftart #nftarts #nftcollector #opensea #etherium #NFTCommunity",28,0
1375733411927707650,"2021-03-27T08:56:19Z","@poplink16 Ok Super @nananketsiah99 @MdNasirAhmedTu2 @cuernusi #POPO #ETH #BTC",2,0
