"ID","created_at","text","like_count","rt_count"
1376240167007219717,"2021-03-28T18:29:59Z","🔵⚪🔵 PUT APOLLO $APL ON YOUR RADAR  This is a #crypto that accomplished so much basically without most knowing about it. Its not on the most popular #exchanges yet. There is no reason why they aren't in the top 20 ❤ #apollocurrency #bitcoin #Eth #cardano #ltc #cryptocurrencies https://t.co/388so9baf3",26,0
1376240162838036481,"2021-03-28T18:29:58Z","SUPER SUNDAY FUNDAY #IGGiveaway! 👽  50,000 IGG to be won (~$50) 🤑  To enter: 🔹Follow @IG_Galaxy  🔹Like &amp; RT  🔹Tag 3 people below.. $IGG 🔹Join our official Telegram Group 👇  https://t.co/XYuvAoufKe  #IGG #MATIC #ETH #altcoins #uniswap #cryptocurrencies #esports",159,0
1376240161302966279,"2021-03-28T18:29:58Z","RT @egldfinger: There are now fewer than 8 million $EGLD in circulation.  #EGLD #elrond #crypto #Bitcoin #eth",48,0
1376240158715043843,"2021-03-28T18:29:57Z","At HitBTC, the price of $STAR went down 6.64% compared to $ETH in 1 minute (from 0.0000024033 to 0.0000022438).  The price of $CND went down 9.23% compared to $BTC in 11 minutes. $TNC, $STORJ and $NGC also went down. More: https://t.co/DmT7JWVz1M",0,0
1376240154864713736,"2021-03-28T18:29:56Z","CRYPTO NEWS - SELLING ETH, Buying Hidden Gems https://t.co/xmRXP5j5cl via @YouTube",0,0
1376240152226492419,"2021-03-28T18:29:56Z","All Anchor ETH borrowers and suppliers (including DOLA borrowers using ETH as collateral) are now automatically earning a total of 600 INV rewards. No staking needed!  h/t @Escaped26 for the amazing work on this video",63,0
1376240143305207809,"2021-03-28T18:29:54Z","Is $ETH alright? I don't like that break below the 30m 50MA, which was coming up straight like some sort of alligator. It has been resting a few hours above that average, not a good sign. https://t.co/dObfzN1aIc",2,0
1376240128893411328,"2021-03-28T18:29:50Z","🎁Huge Giveaway!🎁  1x @PlasmaAIO beta key 1x @MooseAlertsCA Monthly 1x @TrinityProxies 1GB Resi 1x @SneakerPings Monthly 1x @studiobreit $100 ETH cash prize  🚨Rules🚨 -Follow all accounts✅ -Retweet🔁 -Tag a friend👥  Ends in 48 hours, good luck!🍀 https://t.co/RsyBvTzUU0",391,0
1376240118227464193,"2021-03-28T18:29:48Z","Top 10 coins for April + Targets: $ADA 🎯$3 $CAKE 🎯$50 $BAKE 🎯$5 $CRV 🎯$20 $SXP 🎯$20 #1INCH 🎯$20 $ALPHA 🎯$20 $DODO 🎯$20 $LINA 🎯$1 $REEF 🎯$1  #AltSeason #DeFi $eth #bnb #bsc $xrp $trx $dot $eos $neo $xtz $atom $avax $aave $uni $algo $link $super $ankr $one $ltc $yfi $egld https://t.co/XyQ4pBOWL3",815,0
1376240117610913793,"2021-03-28T18:29:48Z","The DEX @FinanceChainge is set to launch on the @FUSIONProtocol network with over a million users on the protocols waitlist. This decentralized exchange aims to innovate on traditional models through leveraging the Fusion Network.  #BSC #BTC #ETH #BNB  https://t.co/xx55YiGfm3",21660,0
1376240110534975488,"2021-03-28T18:29:46Z","🏆 Follow us &amp; Retweet this tweet, Specify the ETH address in the tweet comment to get 10 #BIT ($10 worth) or 50 #BIT ($50 worth) #BitScores Airdrop Tokens! 🎁 $250,000 Prize Pool Full rules: https://t.co/N53M5nRXr9  #giveaway #airdrops #bounty #giveaways #defi #eth #btc #airdrop https://t.co/m77hDtRsBv",3577,0
1376240096094076928,"2021-03-28T18:29:42Z","🔶 BitBay Exchange 🔶 🔸Buy &amp; Shell your crypto🔸  🚦 Join:  https://t.co/ECOp3GbkBl   🌐 In the #BitBay application you will 🌐 find a dedicated trading keyboard 🌐 Download and check it yourself  #BTC #ETH #BITBAY #crypto #USD @CTBott Adrop Avg 100 SPKL 50",37,0
1376240092373733379,"2021-03-28T18:29:41Z","#UnityForEthiopia By engaging in hostile acts against Eth, #LeadersofTPLF committed a crime of high treason as defined in Article 248 of the Eth Criminal Code: “Whoever, enjoying Eth nationality... takes up arms or engages in hostile acts against Eth has committed high treaso",0,0
1376240089144160259,"2021-03-28T18:29:41Z","Hey man, I am Wilba. Adventure lie'eth yonder!  In humid season,  a foggy day, I walked to mant hill underground. I robbed a striking carving and kicked 4 pigeon to help with pig shops. https://t.co/I3Zstjdd47",0,0
1376240070487760897,"2021-03-28T18:29:36Z","Join the @Holdefi community in HLD public sale!  #HLD #Holdefi #ETH #BSC #IDO #ICO 👇👇 https://t.co/MBT7g0RxO7",0,0
1376240070424936460,"2021-03-28T18:29:36Z","Have you seen this update from @helioscomm  #Holo #Holochain #hot  #cryptocurrency #CryptoNews #BTC #BTS #ETH #pax #Hbar #Eos #link #doge #Chz #VET #SHA #UNI #THETA #dot #glm #dgb #req #ICX #IOTA #FET https://t.co/vRrsESojFs",40,0
1376240066402648069,"2021-03-28T18:29:35Z","@harvest_finance can I please have the address or where to send ETH fee? My Telegram account was accidently deleted by my daughter and lost all previous convos.",0,0
1376240059230339091,"2021-03-28T18:29:34Z","$PROS lowest cap on binance, launching it's betting plateform tomorow on $AVAX and march 30th on $BSC, $ETH, $MATIC blockchain.  It's already forming a nice W in h1. Fomo is slowly GROWING !! Lets bet on BNB USDT AND ETH #ETH #AVAX #BNB #BSC #MOON @cz_binance  Expose this gem ! https://t.co/eeKOKoWFUk",32,0
1376240054264193025,"2021-03-28T18:29:32Z","WIDE AWAKE AND READY TO BUILD!  @BasenjiDAO $BSJ   #nfts #nftcommunity #nftart #DAO #defi $eth #bitsenji #basenji #dogsoftwitte #puppies #yodel  https://t.co/MrGTWRO2vX https://t.co/sSr3BdDIuY",4,1
1376240054016733184,"2021-03-28T18:29:32Z","[Pre] A big chance in a billion! Price: \184280.0 (2021/03/29 03:27) #ETH #ethereum",0,0
1376240050447417344,"2021-03-28T18:29:31Z","@baran_sarper I recently dropped the price to 0.1 ETH only✨ https://t.co/4MEWjfnHO8",2,1
1376240040767066115,"2021-03-28T18:29:29Z","30 day EVIX: 84.0693 ETH/USD vwap: $1,686.30 04/16 expiry volume: $1,371,945.07 04/30 expiry volume: $7,155,925.11 Current time: 18:29:05",0,0
1376240029920452608,"2021-03-28T18:29:27Z","@10x10Nft @MoeniSastro @opensea Get you Nft We trust NFT🚀🚀🚀  @CRYPTOBMF  @LowCapGem  @MoeniSastro  ETH 0x787B764DbbBc2b397b16E9176d1742a124D8F847",0,0
1376240018671423498,"2021-03-28T18:29:24Z","There’s a 300 INV reward for supplying ETH (including as collateral to borrow DOLA) and an additional 300 INV for borrowing ETH  Which means lending and borrowing ETH have different APYs depending on total borrowed and supplied  Both APYs will be added to the interface soon",83,0
1376240012858130434,"2021-03-28T18:29:23Z","@KingSkip01 🔥🔥Read to the end👇👇🔥🔥 Are you looking for reliable broker. Check this out! To trade volatility indices VIX https://t.co/4efpOBWPcg 👇 1. Click the link☝️, supply your email. Confirm email in your inbox #BestOfBTSMTV #AgainstMyanmarMilitaryCoup #Ethereum #ETH #zonaba #Btc",2,1
1376239998043893760,"2021-03-28T18:29:19Z","@Iamjplaza Feel like eth is bout to pop with all the hype of NFT's and the simplicity of setting up meta wallet and all that on chrome",1,0
1376239997389570049,"2021-03-28T18:29:19Z","@CryptoPresby @_benkaufman My apologies. I forgot to zoom out more. ETH looks real strong since 2017 😂 https://t.co/IRkH2RNTdK",1,0
1376239996370186240,"2021-03-28T18:29:19Z","@TheeHustleHouse @KennethBosak @CryptoStache @riceboy42069 @grantpat @Topshotbabe @Wades_ETH @NBATopShotEast TS cryptobull",1,0
1376239994994589699,"2021-03-28T18:29:18Z","RT @Nydro_token: Nydro Allocation!  Very soon boom of news!   #NIA #NYD #BTC #ETH #BSC #crypto #cryptocurrency #bnb https://t.co/CQhGR6z9AO",46,0
1376239992230473728,"2021-03-28T18:29:18Z","Get you Nft We trust NFT🚀🚀🚀  @CRYPTOBMF  @LowCapGem  @MoeniSastro  ETH 0x787B764DbbBc2b397b16E9176d1742a124D8F847 https://t.co/0lUdVJ211M",0,0
1376239984596852736,"2021-03-28T18:29:16Z","RT @QuinReaper86: @crytoA25 Just lump in a couple more ETH on $POODL",15,0
1376239976296419332,"2021-03-28T18:29:14Z","How nice...  . Got my parents into $tel as hodlers.. .those are the nice gifts. ... As a believer, They love it.. Do you? $btc $eth.  Bought some more tel this dip.. Balls deep, feeling great..",9,1
1376239964774666243,"2021-03-28T18:29:11Z","@FrankTheTank86 @Blockchain_Jay You can sell back into any Eth token like usdt or whatever it doesn’t have to be Eth but you do have to have enough Eth in your wallet to cover the gas fee.",0,0
1376239951302467587,"2021-03-28T18:29:08Z","1️⃣ Reasons why I'm bullish on $SWTH:  Switcheo's Tradehub is connecting many blockchain through @PolyNetwork2 cross chain solution.   A few of the chains: $ETH, #BSC, #NEO, #Zilliqa   @demexchange is Switcheo's front end UI that runs on Tradehub   #Blockchain #DeFi https://t.co/O8yGQI50xF",101,0
1376239949008269319,"2021-03-28T18:29:07Z","🚀 Leveraged MakerDAO Vault #22301 created: 🏦 13.66k DAI borrowed 💵💵 📈 12.00 ETH leveraged 💳 https://t.co/tPBKM3dQX4",0,0
1376239943614259201,"2021-03-28T18:29:06Z","💎 Never Forget 💎  ✨ Artwork by @mbsjq 💰 Sold to arlogo for 70.0 ETH ($119,852.60)  https://t.co/yUYoutql89  #cryptoart #NFT https://t.co/jlY0cHTesc",89,0
1376239938937757697,"2021-03-28T18:29:05Z","At HitBTC, the price of $NGC went down 17.17% compared to $BTC in 1 minute (from 0.000000897 to 0.000000743).  The price of $STAR went down 6.64% compared to $ETH in 1 minute. $GAS, $STORJ and $SYBC also went down. More: https://t.co/cA23XPkOY5",0,0
1376239934135230465,"2021-03-28T18:29:04Z","In ~6 months from now I expect a cyber-war between BTC Maxis and ETH Maxis. EIP-1559 &amp; PoS will be the first real attempt for ETH to overtake BTC as the first spot in MarketCap (BTC has been #1 since its inception). I'll have the popcorn ready. I'll be calmly hedged holding both.",1,0
1376239927428534275,"2021-03-28T18:29:02Z","Cyberdoggies are an #nft collectors best friend! Unique hand-drawn cute pixelart dogs! https://t.co/EZ8aJEVPBq #nft #nftart #cryptoart #eth #NFTcollection #crypto  @NFTConnector @Rare_NFTs",3,0
1376239923007782914,"2021-03-28T18:29:01Z","@Cryptofil2000 You mint it here https://t.co/3NZX2mWI8d",3,0
1376239921170505728,"2021-03-28T18:29:01Z","Join the @Holdefi community in HLD public sale!  #HLD #Holdefi #ETH #BSC #IDO #ICO 👇👇 https://t.co/CvUQrez6i1",0,0
1376239920684048384,"2021-03-28T18:29:01Z","$DYP liquidity providers earned 6,533.78 #Ethereum worth $10,616,674 since launch!  Earn up to 301.35% APY 💰  If you want to start earning #ETH you just need to join one of our liquidity pools: DYP-ETH, DYP-WBTC, DYP-USDC, and DYP-USDT https://t.co/zxyI0V2tnr  #DeFi #Uniswap https://t.co/acaV7p6h3G",406,0
1376239919631233027,"2021-03-28T18:29:00Z","🏆 Follow us &amp; Retweet this tweet, Specify the ETH address in the tweet comment to get 10 #BIT ($10 worth) or 50 #BIT ($50 worth) #BitScores Airdrop Tokens! 🎁 $250,000 Prize Pool Full rules: https://t.co/N53M5nRXr9  #giveaway #airdrops #bounty #giveaways #defi #eth #btc #airdrop https://t.co/m77hDtRsBv",3577,0
1376239917613916164,"2021-03-28T18:29:00Z","RT @DavosCryptos: $BOLT also for the best #Football content in partnership with @Dugout  #Zilliqa $ZIL $ETH https://t.co/zdRpbY1uW4",297,0
1376239916200304641,"2021-03-28T18:28:59Z","@CarterCthulhu @MoeniSastro Get you Nft We trust NFT🚀🚀🚀  @CRYPTOBMF  @LowCapGem  @MoeniSastro  ETH 0x787B764DbbBc2b397b16E9176d1742a124D8F847",1,0
1376239915328016388,"2021-03-28T18:28:59Z","RT @QuinReaper86: @crytoA25 Just lump in a couple more ETH on $POODL",15,0
1376239913193013248,"2021-03-28T18:28:59Z","#DeFi #BKC #eth2 #BucksCake  ANNOUNCEMENT!  Dear BucksCake's community members!  The exact date of BKC listing on Uniswap set for 04/20/2021!  2 days before it, the exact opening time of the trading pair BKC/ETH on Uniswap...  More at https://t.co/RQPMhjazG2 https://t.co/VjtBbXBA1t",2856,0
1376239906800951296,"2021-03-28T18:28:57Z","Crystal of Water is the #002 gemstone of the [ZERO Gemstones Collection]   This is the first article in the [RPG SERIES]💎  Size 2000x2000 || 60 FPS || 10 s loop ✨  Reserve price: 0.888 ETH  #NFT #NFTs #nftart #nftcollector #NFTcollectibles   https://t.co/C789HcgnMi https://t.co/S27g1vxN29",101,0
1376239897632182274,"2021-03-28T18:28:55Z","Professional traders have closed their $ETH longs. #ethereum is on life support and everyone but the heaviest, saltiest bag holder can see that. Expect to hear all of your favourite influencers tell you why they're selling $ETH in the coming months. $ADA https://t.co/9apoKO4d8o",208,0
1376239895233114112,"2021-03-28T18:28:54Z","Ethereum is the property rights economy of the internet.  ETH is the reserve asset of this economy.  ETH is ultra sound money.  Nothing else is close.  Timestamp this. Set a reminder. Whatever.   Just don’t act surprised when it becomes obvious to everyone.",610,0
1376239887679168512,"2021-03-28T18:28:53Z","RT @Jimmy_Wojeca: $RSR reclaimed first position in Google Play store in #Venezuela $BTC $ETH $ALTS https://t.co/G5W4gQgJeh",270,0
1376239886097903617,"2021-03-28T18:28:52Z","⭐️2K FOLLOWER GIVEAWAY⭐️  👉Enter to WIN a CryptoKaren worth 0.1 ETH!  TO ENTER:  1.Follow Us (+1 pt) 2.Retweet (+1 pt) 3.Tag 3 Friends (+3 pts)  Contest enters TMRW 3/29 at 10am EST! 💖💋💁‍♀️  #nftart #nftcollector #nftcommunity #nfts #pixelart #cryptoart #digitalassets #eth https://t.co/Hx83ppBfn2",165,0
1376239884990521346,"2021-03-28T18:28:52Z","Get you Nft We trust NFT🚀🚀🚀  @CRYPTOBMF  @LowCapGem  @MoeniSastro  ETH 0x787B764DbbBc2b397b16E9176d1742a124D8F847 https://t.co/GPjGhTJ23X",0,0
1376239881412874244,"2021-03-28T18:28:51Z","#BTC Price: $55470 #ETH Price: $1688 #LTC Price: $183  Next update in 10 minutes Last updated: 14:28:51.03",0,0
1376239875108839425,"2021-03-28T18:28:50Z","Join the @Holdefi community in HLD public sale!  #HLD #Holdefi #ETH #BSC #IDO #ICO 👇👇 https://t.co/gZ7A1fxt9m",0,0
1376239873384923141,"2021-03-28T18:28:49Z","Win 1 NFT Hub Membership 🎁  Owners will be featured across our social media channels!   Price: 0.025 $ETH Quantity: 20  🌍 Share your $ETH address here 🌍 Follow us on #Rarible 🌍 RT &amp; ❤️   https://t.co/ZAyGMy84MA  #NFTgiveawat #NFTart #NFTCommunity #NFTs",431,0
1376239871644286980,"2021-03-28T18:28:49Z","Bitcoin - breakout, or another move down first ? #Altseason2021 #cryptocurrencies #cryptocurrency #Crypto #Bitcoin #Litecoin #Ethereum #LINK #BTC #LTC #ETH #BNB https://t.co/tBNgo3CROC",189,0
1376239869643653126,"2021-03-28T18:28:48Z","$PROS lowest cap on binance, launching it's betting plateform tomorow on $AVAX and march 30th on $BSC, $ETH, $MATIC blockchain.  It's already forming a nice W in h1. Fomo is slowly GROWING !! Lets bet on BNB USDT AND ETH #ETH #AVAX #BNB #BSC #MOON @cz_binance  Expose this gem ! https://t.co/eeKOKoWFUk",32,0
1376239862215368704,"2021-03-28T18:28:47Z","RT @chainlinkace: 🏆Drop your $ETH address here🏆",937,0
1376239855974293504,"2021-03-28T18:28:45Z","Eternal Return (2016) by ShirleyShor  1 of 3 • Current offer of Ξ 0.5  https://t.co/kLxm44GjCn  @KnownOrigin_io  Art by @ShorShirley  #cryptoart #NFT #cryptoartist #ETH",4,0
1376239850546946051,"2021-03-28T18:28:44Z","My 1st NFT! 1️⃣🌊 on @OpenSea  #dabudoodles #cryptoart #nftart #NFTartists #NFTCommunity #ETH #cryptoartist Link: https://t.co/pJK49kmew1 https://t.co/bR446m5O9E",9,0
1376239834272997377,"2021-03-28T18:28:40Z","🚨🚨 MEGA 4/20 MOMENT GIVEAWAY 🚨🚨  Details in the image below. Follow @TheeHustleHouse as he will be dropping the free NFT tickets on his twitter.   RT This And Follow: @KennethBosak @CryptoStache @riceboy42069 @grantpat @Topshotbabe @Wades_ETH @TheeHustleHouse @NBATopShotEast https://t.co/XLoOTQUQg3",135,0
1376239829994725376,"2021-03-28T18:28:39Z","RT @BagFsw: $fsw @Falcon_Swap will save you $eth if you actively trade on @Uniswap #uniswap #Ethereum #falconswap",11,0
1376239829336358914,"2021-03-28T18:28:39Z","To celebrate @3DPunks_ #100/100 Auction Current bid at 16 ETH ($27K USD)  I'm giving away 3D Punk #049  Which last sold for 6.97 ETH ($12K USD)  How: - Follow @evankeast + @3DPunks_  - Like + Retweet - Tag a friend - Join the discord: https://t.co/5paneepNDb - Say hi in discord https://t.co/SOy3l78yP1",1043,0
1376239816099164162,"2021-03-28T18:28:36Z","RT @grelysian: @BitSnails Reserve 0.5 ETH 😇 https://t.co/rLJH4nJHIq",0,0
1376239812856938499,"2021-03-28T18:28:35Z","Blind Boxes $BLES gets listed on @gate_io and @MXC_Exchange on March 28. BLES/USDT and BLES/ETH markets are live on Gate and BLES/USDT trading is already live on MXC. https://t.co/PGyFMjlpWp https://t.co/PxkJQNp9Fg https://t.co/3zXwxRgnGt",130,0
1376239810847903747,"2021-03-28T18:28:34Z","My 1st NFT! 1️⃣🌊 on @OpenSea  #dabudoodles #cryptoart #nftart #NFTartists #NFTCommunity #ETH #cryptoartist Link: https://t.co/pJK49kmew1 https://t.co/bR446m5O9E",9,2
1376239806917697537,"2021-03-28T18:28:33Z","Welcome to massive Q DAO airdrop!   1. go now to telegram https://t.co/COyXgODY1z   2. Stay in telegram chat and wait announcement.  3. HOLD this gem until 10x   (soon - QDAO launch cross-chain for BSC, Polkadot and ETH)",4254,2
1376239791520448514,"2021-03-28T18:28:30Z","Join the @Holdefi community in HLD public sale!  #HLD #Holdefi #ETH #BSC #IDO #ICO 👇👇 https://t.co/FkdhvkOxV3",0,0
1376239788378910720,"2021-03-28T18:28:29Z","Win 1 NFT Hub Membership 🎁  Owners will be featured across our social media channels!   Price: 0.025 $ETH Quantity: 20  🌍 Share your $ETH address here 🌍 Follow us on #Rarible 🌍 RT &amp; ❤️   https://t.co/ZAyGMy84MA  #NFTgiveawat #NFTart #NFTCommunity #NFTs",431,0
1376239788110528514,"2021-03-28T18:28:29Z","@PunksMonster @MoeniSastro @elly_loe Get you Nft We trust NFT🚀🚀🚀  @CRYPTOBMF  @LowCapGem  @MoeniSastro  ETH 0x787B764DbbBc2b397b16E9176d1742a124D8F847  NUMBER 40 #NFT",1,0
1376239786462183427,"2021-03-28T18:28:29Z","Last 3DPunks #100 bought for 16 ETH ($27398.56)  by @3Deeple    Congratulations to @3Deeple 🎉🎉🎉 You are the King of 3D Punks 🐵👑  #cryptoart #NFTs #nftcollector #NFTCommunity #opensea @opensea  https://t.co/k6dAdW3hfx",107,0
1376239786403434496,"2021-03-28T18:28:29Z","🎁Huge Giveaway!🎁  1x @PlasmaAIO beta key 1x @MooseAlertsCA Monthly 1x @TrinityProxies 1GB Resi 1x @SneakerPings Monthly 1x @studiobreit $100 ETH cash prize  🚨Rules🚨 -Follow all accounts✅ -Retweet🔁 -Tag a friend👥  Ends in 48 hours, good luck!🍀 https://t.co/RsyBvTzUU0",391,0
1376239772235075586,"2021-03-28T18:28:25Z","@MicrosoftNG 🔥🔥Read to the end👇👇🔥🔥 Are you looking for reliable broker. Check this out! To trade volatility indices VIX https://t.co/4efpOBWPcg 👇 1. Click the link☝️, supply your email. Confirm email in your inbox #BestOfBTSMTV #AgainstMyanmarMilitaryCoup #Ethereum #ETH #zonaba #Btc",2,0
1376239760247824385,"2021-03-28T18:28:22Z","Crystal of Water is the #002 gemstone of the [ZERO Gemstones Collection]   This is the first article in the [RPG SERIES]💎  Size 2000x2000 || 60 FPS || 10 s loop ✨  Reserve price: 0.888 ETH  #NFT #NFTs #nftart #nftcollector #NFTcollectibles   https://t.co/C789HcgnMi https://t.co/S27g1vxN29",101,0
1376239754249859074,"2021-03-28T18:28:21Z","Is amazing to see how this project has been out since Dec 2020 and so far Liquidity Providers have earned about 6533.78 $ETH and that is the total value of $10.6 Million dollars. 💪  Also the APY doing 301.35% which is amazing.  #DeFi #UniSwap #BSC #SmartContract #Ethereum https://t.co/9a7rgyoMpE",2385,0
1376239754119766016,"2021-03-28T18:28:21Z","The DEX @FinanceChainge is set to launch on the @FUSIONProtocol network with over a million users on the protocols waitlist. This decentralized exchange aims to innovate on traditional models through leveraging the Fusion Network.  #BSC #BTC #ETH #BNB  https://t.co/xx55YiGfm3",21660,0
1376239734138277891,"2021-03-28T18:28:16Z","RT @Jimmy_Wojeca: $RSR reclaimed first position in Google Play store in #Venezuela $BTC $ETH $ALTS https://t.co/G5W4gQgJeh",270,0
1376239730468216838,"2021-03-28T18:28:15Z","Cyberdoggies are an #nft collectors best friend! Unique hand-drawn cute pixelart dogs! https://t.co/EZ8aJEVPBq #nft #nftart #cryptoart #eth #NFTcollection #crypto  @NFTConnector @Rare_NFTs",3,2
1376239727624417280,"2021-03-28T18:28:15Z","@bittybitbit86 @deanrey3 I almost sniped 2k...now the same eth only gives me 166....... FML",1,0
1376239721840529409,"2021-03-28T18:28:13Z","#Crypto Dashboard by 3 month volume (according to yahoo finance).  Weekly charts with Heiking Ashi candles   Page 1 $BTC $ADA consolidating?  $ETH looks like it will go the way of $BCH&amp; $LINK https://t.co/TiYk30DuCt",1,1
1376239716639641603,"2021-03-28T18:28:12Z","$ETH Maxis unable to see   The Value of Narratives   @tezos is currently the Highest Cap  Most Decentralized POS chain   Who can Mint NFTs with sufficient   Settlement Assurances to Scale  Ecosystem is way behind   But Meh Narratives   $XTZ https://t.co/ZhBwnIR5Ow",0,0
1376239706443288577,"2021-03-28T18:28:09Z","@MicrosoftNG 🔥🔥Read to the end👇👇🔥🔥 Are you looking for reliable broker. Check this out! To trade volatility indices VIX https://t.co/4efpOBWPcg 👇 1. Click the link☝️, supply your email. Confirm email in your inbox #BestOfBTSMTV #AgainstMyanmarMilitaryCoup #Ethereum #ETH #zonaba #Btc",2,2
1376239687807864833,"2021-03-28T18:28:05Z","I'll send $300 in #ETH or #BTC to one person who retweets this and follows @bud_crypto. Must complete these tasks:  1 - Like/RT his pinned tweet  2 - Must RETWEET &amp; LIKE 4 of his tweets  Ends in 72 hours!",1206,2
1376239687405289476,"2021-03-28T18:28:05Z","Slow 120 | Normal 126 | Fast 147 | Instant 156 👈 current Ethereum gas prices in gwei. DM me a price and I will DM you as soon as gas drops below that price 👍 #Ethereum #GasPrice #ETHGasPrice #ETH",0,0
1376239684301492224,"2021-03-28T18:28:04Z","Is amazing to see how this project has been out since Dec 2020 and so far Liquidity Providers have earned about 6533.78 $ETH and that is the total value of $10.6 Million dollars. 💪  Also the APY doing 301.35% which is amazing.  #DeFi #UniSwap #BSC #SmartContract #Ethereum https://t.co/9a7rgyoMpE",2385,0
1376239682695135235,"2021-03-28T18:28:04Z","🎁Huge Giveaway!🎁  1x @PlasmaAIO beta key 1x @MooseAlertsCA Monthly 1x @TrinityProxies 1GB Resi 1x @SneakerPings Monthly 1x @studiobreit $100 ETH cash prize  🚨Rules🚨 -Follow all accounts✅ -Retweet🔁 -Tag a friend👥  Ends in 48 hours, good luck!🍀 https://t.co/RsyBvTzUU0",391,0
1376239680782536711,"2021-03-28T18:28:03Z","🔥 #ODDZ #Giveaway is Now On! @oddz_finance 🔥  10 lucky users will receive $30 each in #ODDZ 😗  1️⃣Login &amp; Participate   https://t.co/81bh5CpMnK  2️⃣Retweet and @ a friend  Share with your friends &amp; get more rewards 💌  #Ethereum #ETH #cryptogiveaway https://t.co/M7MxexMYji",265,0
1376239679536697344,"2021-03-28T18:28:03Z","@kerneltrader Much like ETH",1,0
1376239666354139145,"2021-03-28T18:28:00Z","RT @susietrader: https://t.co/Ep32C9gAWD  ETH is going to die",10,0
1376239653985079296,"2021-03-28T18:27:57Z","RT @StarTrekPool: When #Ethereum $Eth Maxis rip on #Cardano $Ada, they are really just telling us that they are PB&amp;J.... https://t.co/qGQDG…",4,0
1376239652340953094,"2021-03-28T18:27:57Z","@BitSnails Reserve 0.5 ETH 😇 https://t.co/rLJH4nJHIq",0,1
1376239646905147393,"2021-03-28T18:27:55Z","THETA Moon Mission In Trouble If This Happens!!! MUST WATCH Technical Analysis &amp; Price Predictions!!!  Link: https://t.co/ULPiQIigdB 👩‍🚀🧑‍🚀🚀🌚  #THETA #Crypto #cryptotwitter #cryptocurrencynews #CryptoNews #NFTs #lowcap #Ethereum #ETH #cryptocurrency #cryptocurrencies https://t.co/CqIcaoObFI",1,0
1376239644946358276,"2021-03-28T18:27:55Z","🔸 New Listing🔸   #BKEX will list #DRYCAKE @DryCakeSwap🚀 🚀  - Trading pair: DRYCAKE/USDT - Trading time: 20:00 on Mar 29 (UTC+8)  🔹 🔹 More details: https://t.co/kC2IIebfTT  #Bitcoin #ETH #BKK #Blockchain https://t.co/w8CHyKXaUD",2480,0
1376239641599348739,"2021-03-28T18:27:54Z","I'll send $300 in #ETH or #BTC to one person who retweets this and follows @bud_crypto. Must complete these tasks:  1 - Like/RT his pinned tweet  2 - Must RETWEET &amp; LIKE 4 of his tweets  Ends in 72 hours!",1206,0
1376239637157515265,"2021-03-28T18:27:53Z","Great project Eth address: 0x17EAd4a899c55484c1425951e7B18C08554E76e4 https://t.co/vzDNUozytJ",0,0
1376239621856579586,"2021-03-28T18:27:49Z","@his_eth I just listed my first NFT. The work is an animated collage made from negatives found in an out-of-business photo lab. I hope you like it. https://t.co/GUDZ63NL5t",0,0
1376239603980640266,"2021-03-28T18:27:45Z","If you wish you bought more Hex, imagine you didn't buy any like so many Bitcoin maxis 🤣   Hex just keeps making new all time highs and stakers even earn more Hex every day.   #Hex #ETH #BTC #cryptocurrency #memes https://t.co/z1ndPSQoX3",80,0
1376239584489660416,"2021-03-28T18:27:40Z","Updating my pinned post! I currently have two pieces available, one on @opensea and the other on @withFND. The prices are .5 $ETH and a .75 reserve respectively. 😊  https://t.co/Kp70WEaXMu  https://t.co/ZMrIGllhuk  #NFT #cryptoart #nftcollector #nftart #NFTartist https://t.co/7NGMyHS6aw",114,0
1376239578961518592,"2021-03-28T18:27:39Z","Last summer, I told my parents I was going to buy ETH Boy from @trevorjonesart. They asked about the size of the painting. I responded “You’ll love this. No physical dimensions. It’s a jpg.” My mom thought I was the dumbest person alive...even before she knew it cost six figures.",580,0
