"ID","created_at","text","like_count","rt_count"
1376511955222069251,"2021-03-29T12:29:59Z","Visa chose USDC on ETH, that is. The news today",36,1
1376511952432816128,"2021-03-29T12:29:58Z","Is amazing to see how this project has been out since Dec 2020 and so far Liquidity Providers have earned about 6533.78 $ETH and that is the total value of $10.6 Million dollars. 💪  Also the APY doing 301.35% which is amazing.  #DeFi #UniSwap #BSC #SmartContract #Ethereum https://t.co/9a7rgyoMpE",2385,1
1376511949479890947,"2021-03-29T12:29:57Z","🔥HOT🔥 - $100 in Cryptocurrency | Giveaway!  To win: ✔ Follow us &amp; @MatrixAINetwork ✔ Tag a friend ✔ Retweet ✔ Join: https://t.co/R9H48O8Tq3 Thats it! Good luck! 💖 Rolling in 24 hours!  #goodvibes #goodluck #giveaway #bitcoin #Giveaways  #cryptocurrency #eth #btc #BSC #TRON https://t.co/0Eju3gcguv",306,1
1376511945713479681,"2021-03-29T12:29:56Z","INV rewards APY added to Anchor interface  Earn 13.69% APY in INV for supplying ETH Earn 94.23% APY in INV for borrowing ETH  That’s right. You’ll get paid 94% APY to borrow ETH right now  The DeFi federal reserve system at your service https://t.co/d80h8DyoVq https://t.co/RzcdHuGs0f",106,1
1376511944635584514,"2021-03-29T12:29:56Z","Ethereum Classic's design makes a calculated tradeoff between performance and security. In other words, ETC is inefficient, but highly secure.  In fact, much more secure than your devices or online services.  What Is Ethereum Classic? by @CryptoEtherplan https://t.co/sh7dozsDiw",131,1
1376511939925270530,"2021-03-29T12:29:55Z","Is amazing to see how this project has been out since Dec 2020 and so far Liquidity Providers have earned about 6533.78 $ETH and that is the total value of $10.6 Million dollars. 💪  Also the APY doing 301.35% which is amazing.  #DeFi #UniSwap #BSC #SmartContract #Ethereum https://t.co/9a7rgyoMpE",2385,1
1376511937861783556,"2021-03-29T12:29:54Z","@DeFiCryptoCam @investvoyager I’m going on 48 hours for an ETH transfer out of Voyager.  So frustrating @investvoyager",1,0
1376511935148138500,"2021-03-29T12:29:54Z","RT @TylerDurden: So @Visa are using the ETH blockchain to settle payments.  Looking forward to paying $3 for coffee + $900 gas fee and wait…",9326,0
1376511931125800961,"2021-03-29T12:29:53Z","‼️🚀 MINEREUM TO BE LAUNCHED ON BINANCE SMART CHAIN 🚀‼️  👉 All Details here: https://t.co/qCqgOaq9WE  $MNE $ETH #Ethereum $BSC #cryptos #altcoins #crypto $EOS $TRON $TRX $HEX #HEX #bitcoin $BTC #BNB #BSC #BinanceSmartChain $BNB",238,0
1376511928617607168,"2021-03-29T12:29:52Z","Interesting facts 🤓☝️  Top 10 coins mentioned on twitter last week 🌍 $xrp $bch $link $klv $rari $ada $doge $cake $eth $btc https://t.co/TAq64swUFC",3,0
1376511924213592065,"2021-03-29T12:29:51Z","🔥 WoW!!! $DYP getting listed on @kucoincom !  DYP/USDT &amp; DYP/ETH trading will start tomorrow, March 25th at 10AM UTC! Good job @dypfinance team!  #DeFi #uniswap #Ethereum https://t.co/Rw9qa5l5tA",2226,0
1376511922632228871,"2021-03-29T12:29:51Z","🔥HOT🔥 - $100 in Cryptocurrency | Giveaway!  To win: ✔ Follow us &amp; @MatrixAINetwork ✔ Tag a friend ✔ Retweet ✔ Join: https://t.co/R9H48O8Tq3 Thats it! Good luck! 💖 Rolling in 24 hours!  #goodvibes #goodluck #giveaway #bitcoin #Giveaways  #cryptocurrency #eth #btc #BSC #TRON https://t.co/0Eju3gcguv",306,0
1376511921478860803,"2021-03-29T12:29:51Z","🔥HOT🔥 - $100 in Cryptocurrency | Giveaway!  To win: ✔ Follow us &amp; @MatrixAINetwork ✔ Tag a friend ✔ Retweet ✔ Join: https://t.co/R9H48O8Tq3 Thats it! Good luck! 💖 Rolling in 24 hours!  #goodvibes #goodluck #giveaway #bitcoin #Giveaways  #cryptocurrency #eth #btc #BSC #TRON https://t.co/0Eju3gcguv",306,0
1376511920279334914,"2021-03-29T12:29:50Z","@Thecryptomist eTh iS A sTaBLe COiN",0,0
1376511916080824324,"2021-03-29T12:29:49Z","@FlyHigh407 @MrktMeditations @Visa ADA ain’t shit against $ETH, King of the DeFi Kingdom you ada pleb",40,2
1376511910380769281,"2021-03-29T12:29:48Z","Today we will be uploading our first NFT -&gt; SUNI  $SUNI $DEFI $BTC $XRP $LINK $NFT $ETH",3,0
1376511910363897856,"2021-03-29T12:29:48Z","#DeGate unique initial Social Media token offering:📣  To honor contributors to Crypto Assets on social media, DeGate offers an early opportunity to buy DG tokens at a preferential rate. 10 m DG tokens at $0.005  Start ➡️ March 29  https://t.co/5gPWIBwZea  #ETH #BTC #DeFi https://t.co/2qpuVZGJKm",1751,0
1376511908463845383,"2021-03-29T12:29:47Z","💧DogeSwap Airdrop💧  🏆 Task:          ➕   7 DOG  👨‍👩‍👧 Referral:     ➕   2 DOG  🔛  Airdrop Link &amp; Information: https://t.co/3rlt9kiu64  #cryptocurrency #Crypto #Bitcoin  #DogeSwap #Ethereum #ETH #Airdrop #bounty #Doge #AirdropStario",4198,0
1376511907864121345,"2021-03-29T12:29:47Z","Since this the launch of @dypfinance back in Dec 2020 looks like Liquidity Providers have earned $11.4 Million dollars in $ETH just from Staking!  Also the project is paying out is $ETH as well and so far 6.2K $ETH have been rewarded.   #DeFi #Crypto #Cryptocurrency #BitcoinTalk https://t.co/zis10XPcL7",1802,0
1376511907293712392,"2021-03-29T12:29:47Z","$feg are deflationary progressive token without limit of burning💎 and the DexCex FegEx gonna launch soon, you gonna be able to earn eth and bnb just by stacking your $FEG $eth $bnb $bsc $sol $btc #cryptocurrency #Crypto #DeFi $dent #rich #MILLIONBOYS #BinanceSmartChain #altcoin https://t.co/Ynn3AtTPNK",147,0
1376511904810729475,"2021-03-29T12:29:47Z","Use my referral link https://t.co/eqok0jMBMn to sign up for https://t.co/W1cJ5ZxAp3 and we both get $25 USD :)  #crypto #Stmx #BTT #btc #Eth #doge",1,0
1376511898749898757,"2021-03-29T12:29:45Z","$btc $eth $sol $chz $dent $vra $wozx $omi  and now a bag filled with $tara https://t.co/hwZ5rMWTiZ",2,0
1376511896883404800,"2021-03-29T12:29:45Z","RT @NFTFusion: What’s your ETH address?  No questions, just drop it below 👇 #NFT #NFTs",1953,0
1376511890373873669,"2021-03-29T12:29:43Z","Smol and kindly reminder that all 5 editions of Blissful Caustic Portals to Luxurious Self-Annihilation 11 are still available at @KnownOrigin_io!   1 of 5 • Ξ 0.2  https://t.co/1pHiaXazJp  #cryptoart #NFT #cryptoartist #ETH",18,0
1376511890248110082,"2021-03-29T12:29:43Z","⬅ 0.573 pBTC redeemed https://t.co/33Em9HmHKn 👋 Total supply on ETH is 378.207 pBTC",0,0
1376511888398368769,"2021-03-29T12:29:43Z","RT @ki_young_ju: I smell crypto mass adoption here  $ETH",1537,0
1376511887328731143,"2021-03-29T12:29:42Z","#DeGate unique initial Social Media token offering:📣  To honor contributors to Crypto Assets on social media, DeGate offers an early opportunity to buy DG tokens at a preferential rate. 10 m DG tokens at $0.005  Start ➡️ March 29  https://t.co/5gPWIBwZea  #ETH #BTC #DeFi https://t.co/2qpuVZGJKm",1751,0
1376511884937994245,"2021-03-29T12:29:42Z","📰Crypto Week in Review📰  Check out some of the major headlines from the #Crypto space this past week!  📢#Uniswap V3 launching soon! 📢@Tesla now accepts #bitcoin 📢Brazil 🇧🇷approves first $BTC ETF!   $swfl #DeFi $eth #CryptoNews #cryptocurrencies $uni #altcoin $link $dot #ETH https://t.co/I2D33Jj3zp",3,1
1376511883159642112,"2021-03-29T12:29:41Z","If you continue selling your $slp I'm gonna eat all of your sell orders. Have some faith and patience. When $ETH go up, $SLP will follow with higher profit. Moon soon with God's willing.",12,1
1376511882220085253,"2021-03-29T12:29:41Z","Bank? Stocks? Btc? Eth? Nah! All goes to atom beybe! Lezgo Cosmonauts! See you 1000$ $ATOM  $ATOM #blockchain #COSMOS #crypto #altseason #meme https://t.co/TBlVgaOfPS",18,1
1376511874620002305,"2021-03-29T12:29:39Z","🔥HOT🔥 - $100 in Cryptocurrency | Giveaway!  To win: ✔ Follow us &amp; @MatrixAINetwork ✔ Tag a friend ✔ Retweet ✔ Join: https://t.co/R9H48O8Tq3 Thats it! Good luck! 💖 Rolling in 24 hours!  #goodvibes #goodluck #giveaway #bitcoin #Giveaways  #cryptocurrency #eth #btc #BSC #TRON https://t.co/0Eju3gcguv",306,1
1376511871017189382,"2021-03-29T12:29:39Z","Dot eth peeps logging into twitter  today as the visa on ethereum news comes out https://t.co/JExMuGHpoY",99,18
1376511865241669638,"2021-03-29T12:29:37Z","You all know some of my favorite #crypto projects that I have talked about, many for years. I just listened to the most recent #SafeCoin #AMA since re-launching on a modified #Solana codebase. $SAFE is going to change some lives👀  #SafeSwap $SOL $ETH $BTC #DeFi #Validators",7,18
1376511862204985345,"2021-03-29T12:29:36Z","@NCroawell Luke is approaching The Death Star... He has one shot left and is looking through the sight scope. He hears a voice Use the force Luke... To be continued $ETH 😉",1,0
1376511859604520960,"2021-03-29T12:29:36Z","RT @NFTFusion: What’s your ETH address?  No questions, just drop it below 👇 #NFT #NFTs",1953,0
1376511859285721094,"2021-03-29T12:29:36Z","If I tell you what I really think about the Visa news you’ll say I’m the Peter Schiff of Ethereum  So I won’t say it  All I’ll say is that if I can get a .031 entry for an ETH/BTC short I’m taking it",148,0
1376511856106409984,"2021-03-29T12:29:35Z","Ibrahim Sangaré bought for 0.307 ETH (541.78$) by pwnpwn on the primary market   Season: 2020-2021 Level: 0 Serial: 44/100 Price: 541.78$  ⚽ Sorare: https://t.co/hF8F4AyV57  📊: https://t.co/8VMovBIqc6  #Sorare #NFT #Ethereum #FantasyFootball",0,0
1376511850649636864,"2021-03-29T12:29:34Z","RT @benzingacrypto: Visa Allows Payments To Be Settled With Crypto Using Ethereum Network $V $ETH $USDC  https://t.co/DYJpX9PcWa",101,0
1376511847344582661,"2021-03-29T12:29:33Z","30 day EVIX: 85.4530 ETH/USD vwap: $1,784.67 04/16 expiry volume: $1,473,376.23 04/30 expiry volume: $6,397,432.95 Current time: 12:29:07",0,0
1376511839392165888,"2021-03-29T12:29:31Z","This was sent to me today!Banks not paying people they money another reason to use crypto and these problems wouldn’t happen. Remove the third parties and start being your own boss of your own money. #Ethereum #eth #Bitcoin #uniswap #banklessnation @RyanSAdams #CryptoNews #tdecu https://t.co/9iDn5thFNL",0,0
1376511835512393728,"2021-03-29T12:29:30Z","@MrStealYaCrypto @RY_ChimaGun @LomahCrypto Ye, he has more sol than eth :)",0,0
1376511829422219268,"2021-03-29T12:29:29Z","Bank? Stocks? Btc? Eth? Nah! All goes to atom beybe! Lezgo Cosmonauts! See you 1000$ $ATOM  $ATOM #blockchain #COSMOS #crypto #altseason #meme https://t.co/TBlVgaOfPS",18,0
1376511829392945152,"2021-03-29T12:29:29Z","@FinPlanKaluAja1 The #crypto people here will remember Fortron, forsage, ethereum million money, and co.  Cant still believe many long-term players in the industry were insulted by newbies thinking these ponzis were the way forward.  A lot of people bought and lost ETH &amp; Tron last year on these",55,0
1376511829292224514,"2021-03-29T12:29:29Z","Giving 10,000 $VRA to 1 person if we hit .05 by end of Apr ($500USD)  To enter: 1. Just like and retweet that’s it. 2. I recommend you follow @CryptoWizardd  *sorry for post I took away before had to edit, but 💯 will pay  $VRA $ETH $RSR $OCEAN $SXP $BTC $TEL $ALTS #Giveaway",131,0
1376511809625149440,"2021-03-29T12:29:24Z","$ETH price hasn't had any outperformance vs Bitcoin since January.  Visa announced they will now settle payments in stablecoins on Ethereum, which strengthens the global settlement layer narrative.  But idk if it's enough to cause outperformance when $BTC still going this strong. https://t.co/X38ULF8b2r",195,0
1376511803501514752,"2021-03-29T12:29:22Z","RT @TylerDurden: So @Visa are using the ETH blockchain to settle payments.  Looking forward to paying $3 for coffee + $900 gas fee and wait…",9326,0
1376511801836371970,"2021-03-29T12:29:22Z","$ZNZ #zenzo about to #moon!  https://t.co/lZ6nP8VQIG  #crypto #cryptocurrency #blockchain #altcoin #bitcoin #btc #ethereum #eth #xrp #eos #bnb $BTC $ETH $XRP $EOS #nft #defi #news #binance #trading #business #forex #investing #fintech #twitter #art #giveaway #money #investment",2,1
1376511800750051329,"2021-03-29T12:29:22Z","RT @VlanciPictures: The Visa USD stablecoin thing is a nod to ETH BTW.  also this will make them money, not save you money",2,1
1376511797054726148,"2021-03-29T12:29:21Z","🚀 Pluto Coin  Airdrop 🚀 Rate: ⭐⭐⭐⭐ ⭐ 🎁 Reward:  8822 PLUT ($1500) 👫 Referral: 40.5 PLUT  ($7)  🤖Start Bot here   https://t.co/x5JZchojO8  ⛂ Join Telegram group and channel. ⛂ Follow twitter &amp; retweet  ⛂ Submit ETH address and details.",6005,1
1376511794957721600,"2021-03-29T12:29:20Z","RT @benzingacrypto: Visa Allows Payments To Be Settled With Crypto Using Ethereum Network $V $ETH $USDC  https://t.co/DYJpX9PcWa",101,1
1376511793611202562,"2021-03-29T12:29:20Z","💧YetuBit Airdrop 2nd Round💧  🏆 Task:          ➕  25 YETU (~$20)  👨‍👩‍👧 Referral:   ➕  5 YETU (~$4)  🔛  Airdrop Link &amp; Information: https://t.co/ZoGw3AR71I  #cryptocurrency #Crypto #Bitcoin  #BSC #BinanceSmartChain #Ethereum #ETH #Airdrop #bounty #YetuBit #YetuSwap #YETU",4529,1
1376511787407867914,"2021-03-29T12:29:19Z","RT @antiprosynth: @APompliano Yes, on #Ethereum ⟠ $ETH, the universal value settlement layer of the internet.",514,1
1376511780311171076,"2021-03-29T12:29:17Z","If you continue selling your $slp I'm gonna eat all of your sell orders. Have some faith and patience. When $ETH go up, $SLP will follow with higher profit. Moon soon with God's willing.",12,3
1376511776938938370,"2021-03-29T12:29:16Z","$UBT #Unibright  lets go 🔥🔥🚀🚀🚀 The  next 12 months  will bd crazy  dont sell under 30$ $ETH https://t.co/SafknzfXqs",21,0
1376511769758302208,"2021-03-29T12:29:14Z","LUKSO once again leading the pack.  Layer 1 - Eth 2. 0 tech Layer 2 - ERC725 Universal profiles Layer 3 - Ecosystem of creative people and outstanding thought leader advisors Layer 4 - Native &amp; partnership apps ready to deploy on mainnet Layer 5 - Thoughtful UI for mass adoption https://t.co/EM5ueDKLhS",23,0
1376511765165404170,"2021-03-29T12:29:13Z","🎁Huge Giveaway!🎁  1x @PlasmaAIO beta key 1x @MooseAlertsCA Monthly 1x @TrinityProxies 1GB Resi 1x @SneakerPings Monthly 1x @studiobreit $100 ETH cash prize  🚨Rules🚨 -Follow all accounts✅ -Retweet🔁 -Tag a friend👥  Ends in 48 hours, good luck!🍀 https://t.co/RsyBvTzUU0",391,0
1376511757569552386,"2021-03-29T12:29:12Z","🔥HOT🔥 - $100 in Cryptocurrency | Giveaway!  To win: ✔ Follow us &amp; @MatrixAINetwork ✔ Tag a friend ✔ Retweet ✔ Join: https://t.co/R9H48O8Tq3 Thats it! Good luck! 💖 Rolling in 24 hours!  #goodvibes #goodluck #giveaway #bitcoin #Giveaways  #cryptocurrency #eth #btc #BSC #TRON https://t.co/0Eju3gcguv",306,0
1376511753002045440,"2021-03-29T12:29:10Z","🔥HOT🔥 - $100 in Cryptocurrency | Giveaway!  To win: ✔ Follow us &amp; @MatrixAINetwork ✔ Tag a friend ✔ Retweet ✔ Join: https://t.co/R9H48O8Tq3 Thats it! Good luck! 💖 Rolling in 24 hours!  #goodvibes #goodluck #giveaway #bitcoin #Giveaways  #cryptocurrency #eth #btc #BSC #TRON https://t.co/0Eju3gcguv",306,0
1376511752850960388,"2021-03-29T12:29:10Z","RT @intocryptoverse: $ETH under $2k will be only a distant dream in a few years",2303,0
1376511752628658179,"2021-03-29T12:29:10Z","🔥HOT🔥 - $100 in Cryptocurrency | Giveaway!  To win: ✔ Follow us &amp; @MatrixAINetwork ✔ Tag a friend ✔ Retweet ✔ Join: https://t.co/R9H48O8Tq3 Thats it! Good luck! 💖 Rolling in 24 hours!  #goodvibes #goodluck #giveaway #bitcoin #Giveaways  #cryptocurrency #eth #btc #BSC #TRON https://t.co/0Eju3gcguv",306,0
1376511752175812613,"2021-03-29T12:29:10Z","Here we are, the most important Daily region for me, get a close above here and I'm rotating into $ETH and building a futures position. https://t.co/zD9HvZIemL",152,15
1376511749000724483,"2021-03-29T12:29:09Z","$DYP liquidity providers earned 5,970.84 #ethereum worth $10,700,060 since launch!  Join one of their liquidity pools and earn up to 295.02% APY 💰  #defi #uniswap #eth https://t.co/lKbf20w2sm",1795,15
1376511746001801218,"2021-03-29T12:29:09Z","Medium #3738 (M) parcel in Somnium Space sold for 6.5 ETH ($11,476.53 USD) using the Somnium Space Land contract https://t.co/nohgWUnEvu",0,0
1376511732559003648,"2021-03-29T12:29:06Z","Welcome to massive Q DAO airdrop!   1. go now to telegram https://t.co/COyXgODY1z   2. Stay in telegram chat and wait announcement.  3. HOLD this gem until 10x   (soon - QDAO launch cross-chain for BSC, Polkadot and ETH)",4254,0
1376511730788954127,"2021-03-29T12:29:05Z","⭐️2K FOLLOWER GIVEAWAY⭐️  👉Enter to WIN a CryptoKaren worth 0.1 ETH!  TO ENTER:  1.Follow Us (+1 pt) 2.Retweet (+1 pt) 3.Tag 3 Friends (+3 pts)  Contest enters TMRW 3/29 at 10am EST! 💖💋💁‍♀️  #nftart #nftcollector #nftcommunity #nfts #pixelart #cryptoart #digitalassets #eth https://t.co/Hx83ppBfn2",165,0
1376511730742878214,"2021-03-29T12:29:05Z","The good thing about @dypfinance Anti-Manipulation system is that it prevents the Liquidity providers to Sell $DYP instead they are earning $ETH as staking rewards 🧠  #DYP #ETH #Ethereum #SmartContract #DeFi https://t.co/yt6C9Vehln",1905,0
1376511728628817929,"2021-03-29T12:29:05Z","🔥HOT🔥 - $100 in Cryptocurrency | Giveaway!  To win: ✔ Follow us &amp; @MatrixAINetwork ✔ Tag a friend ✔ Retweet ✔ Join: https://t.co/R9H48O8Tq3 Thats it! Good luck! 💖 Rolling in 24 hours!  #goodvibes #goodluck #giveaway #bitcoin #Giveaways  #cryptocurrency #eth #btc #BSC #TRON https://t.co/0Eju3gcguv",306,0
1376511726573789188,"2021-03-29T12:29:04Z","The symposium will include live speaker presentations from Prof. Dr. Shana Sturla from the ETH Zürich @ProfessorShana; Dr. Margaret Faul from Amgen @Faul_Margaret; Prof. Fatima Rivas from Louisiana State University;",5,0
1376511722710724611,"2021-03-29T12:29:03Z","🔥HOT🔥 - $100 in Cryptocurrency | Giveaway!  To win: ✔ Follow us &amp; @MatrixAINetwork ✔ Tag a friend ✔ Retweet ✔ Join: https://t.co/R9H48O8Tq3 Thats it! Good luck! 💖 Rolling in 24 hours!  #goodvibes #goodluck #giveaway #bitcoin #Giveaways  #cryptocurrency #eth #btc #BSC #TRON https://t.co/0Eju3gcguv",306,0
1376511721867669512,"2021-03-29T12:29:03Z","RT @NFTFusion: What’s your ETH address?  No questions, just drop it below 👇 #NFT #NFTs",1953,0
1376511718680100867,"2021-03-29T12:29:02Z","🚀Medium #3738 (M) parcel in Somnium Space🚀 SOLD for 6.5 ETH on OpenSea! Great buy but they would have been better waiting for the @jurassicasylum drop  Check out the transaction: https://t.co/vqyoY0Iv8s #JurassicAsylum #NFT #NFTartist #cryptoart #NFTCommunity https://t.co/CMJGr43Z8m",0,0
1376511717832806402,"2021-03-29T12:29:02Z","RT @TylerDurden: So @Visa are using the ETH blockchain to settle payments.  Looking forward to paying $3 for coffee + $900 gas fee and wait…",9326,0
1376511716842934273,"2021-03-29T12:29:02Z","Save your ETH by paying gas in stablecoins with @biconomy Forward! Try testnet for https://t.co/TCPfn4mXMv now.  0x9b973568b0664BFcA35e8F0Aa39daEEA737b3fcC https://t.co/jeW4IGlAAT",1,0
1376511709939175428,"2021-03-29T12:29:00Z","Since this the launch of @dypfinance back in Dec 2020 looks like Liquidity Providers have earned $11.4 Million dollars in $ETH just from Staking!  Also the project is paying out is $ETH as well and so far 6.2K $ETH have been rewarded.   #DeFi #Crypto #Cryptocurrency #BitcoinTalk https://t.co/zis10XPcL7",1802,0
1376511709683183622,"2021-03-29T12:29:00Z","@PsychedelicBart And that ignores the eth backdoorS 😆",1,0
1376511709133725697,"2021-03-29T12:29:00Z","🔥HOT🔥 - $100 in Cryptocurrency | Giveaway!  To win: ✔ Follow us &amp; @MatrixAINetwork ✔ Tag a friend ✔ Retweet ✔ Join: https://t.co/R9H48O8Tq3 Thats it! Good luck! 💖 Rolling in 24 hours!  #goodvibes #goodluck #giveaway #bitcoin #Giveaways  #cryptocurrency #eth #btc #BSC #TRON https://t.co/0Eju3gcguv",306,0
1376511707653185545,"2021-03-29T12:29:00Z","RT @TylerDurden: So @Visa are using the ETH blockchain to settle payments.  Looking forward to paying $3 for coffee + $900 gas fee and wait…",9326,0
1376511707519012866,"2021-03-29T12:29:00Z","The DEX @FinanceChainge is set to launch on the @FUSIONProtocol network with over a million users on the protocols waitlist. This decentralized exchange aims to innovate on traditional models through leveraging the Fusion Network.  #BSC #BTC #ETH #BNB  https://t.co/xx55YiGfm3",21659,0
1376511702750044169,"2021-03-29T12:28:58Z","RT @benzingacrypto: Visa Allows Payments To Be Settled With Crypto Using Ethereum Network $V $ETH $USDC  https://t.co/DYJpX9PcWa",101,0
1376511700648747014,"2021-03-29T12:28:58Z","@360_trader has gotten it right every step of the way on $TEL. Follow this man and bookmark this tweet / chart and look at it every day if you need incentive to #hodl. When we get to these levels, don't regret selling sub-penny.  #Telcoin #telfam $BTC $ETH #Bitcoin #Bullish https://t.co/K0GKXAZeTo",14,0
1376511698312527875,"2021-03-29T12:28:57Z","ETH has been inofficially decleared a non-security by the SEC. Probably the reason why they chose USDC on ETH. ALGO or XLM are not in the clear. I guess only BTC, ETH &amp; Kin are... thanks to Jay, Hinman &amp; the SEC.",214,0
1376511697813262337,"2021-03-29T12:28:57Z","RT @TylerDurden: So @Visa are using the ETH blockchain to settle payments.  Looking forward to paying $3 for coffee + $900 gas fee and wait…",9326,0
1376511692243369988,"2021-03-29T12:28:56Z","RT @davidiach: Just so you know, Visa will need to buy $ETH to pay for transaction fees.",2333,0
1376511688514531329,"2021-03-29T12:28:55Z","🔥HOT🔥 - $100 in Cryptocurrency | Giveaway!  To win: ✔ Follow us &amp; @MatrixAINetwork ✔ Tag a friend ✔ Retweet ✔ Join: https://t.co/R9H48O8Tq3 Thats it! Good luck! 💖 Rolling in 24 hours!  #goodvibes #goodluck #giveaway #bitcoin #Giveaways  #cryptocurrency #eth #btc #BSC #TRON https://t.co/0Eju3gcguv",306,0
1376511681816313858,"2021-03-29T12:28:53Z","#DeFi Earn now live on   https://t.co/vCNztABJoG   DeFi Wallet  📈  Earn interest without losing control of your crypto   💰 #COMP #DAI #ETH #USDC #USDT #BAT #UNI #WBTC &amp; #ZRX supported  ✅  No Minimum Term or Lock-Up 🚀  Receive The Best Return On Your DeFi Assets Now!",2557,0
1376511673415081985,"2021-03-29T12:28:51Z","RT @davidiach: Just so you know, Visa will need to buy $ETH to pay for transaction fees.",2333,0
1376511672953806849,"2021-03-29T12:28:51Z","🔥 WoW!!! $DYP getting listed on @kucoincom !  DYP/USDT &amp; DYP/ETH trading will start tomorrow, March 25th at 10AM UTC! Good job @dypfinance team!  #DeFi #uniswap #Ethereum https://t.co/Rw9qa5l5tA",2226,0
1376511671313657856,"2021-03-29T12:28:51Z","RT @NFTFusion: What’s your ETH address?  No questions, just drop it below 👇 #NFT #NFTs",1953,0
1376511670353268749,"2021-03-29T12:28:51Z","Realistic Price Prediction for 2021: $BTC $85,000 $BCH $15,000 $ETH $5,000 $VET $2,00 $ADA $6,00 $XRP $12 (with regulations $1500+) $DOGE $0.50 $NPXS $0.20 $FLR $4,00",722,0
1376511668755202049,"2021-03-29T12:28:50Z","Wait until $QNT breaks out of this multi-year channel..  Just know that the show hasn't begun yet..  This will be legendary &amp; $QNT's upcoming move will be studied in future 🚀  $BTC $ETH https://t.co/7OAbAkI4Sp",254,0
1376511667111088133,"2021-03-29T12:28:50Z","@sassal0x Reminder.. It's ETH year :)",0,0
1376511665949208583,"2021-03-29T12:28:50Z","🔥 Rewardiqa Airdrop  💸 Get 15 REW $64  🚀 Airdrop Link: https://t.co/5ZMVR9ydOm  ⚙ How to Join? ✅Start Telegram Bot ✅Join Telegram Group and Channel ✅Follow on Twitter  ✅Subcribe youtibe Rewardiqa ✅Submit your ETH wallet address (ERC-20). https://t.co/w5WNKnaFgy",0,0
1376511665181720581,"2021-03-29T12:28:49Z","Crypto is the future; we are in the future. $ETH $BTC https://t.co/qglJksh2JP",5,1
1376511662052798469,"2021-03-29T12:28:49Z","Nash users can now buy $BTC, $ETH, $USDC and $AAVE and receive their assets directly in their personal wallets. These new markets charge just 1% fees and avoid costs for exiting state channels. See our fee table below. 2/2  #Bitcoin #Ethereum #crypto https://t.co/iKSclJVDm6",234,1
1376511659737411589,"2021-03-29T12:28:48Z","Bitcoin Confidential invites everyone to participate in the Meme Tournament, which starts today!  https://t.co/J4I9ir4lTE  @coinkit_ give 1000 1 $SMART  @btconfidential $BC #memes #crypto #cryptocurrency #blockchain #bitcoin #BTC #eth #ada #binance #altcoin #blogger #bullrun",102,1
1376511654590996484,"2021-03-29T12:28:47Z","RT @antiprosynth: Can someone explain to me what VISA settling tokenized USD on ETH has to do with BTC? 😂",1032,1
1376511651185328129,"2021-03-29T12:28:46Z","🌞Good Morning!🌞  My animation, SPECTRAL RINGS is still available for bidding...  BUT only for about 10 more hours 👀‼️  { Current Bid: .25 ETH }  CHECK IT OUT HERE 👇👇👇  #nftcollector #black3dartist  https://t.co/WNLhnEHYib https://t.co/nPOUvdTDjn",28,1
1376511645464326146,"2021-03-29T12:28:45Z","RT @moonshilla: degens bashing $eth's scale problems never digged into $eth 2.0.. 👁️",95,1
1376511639328075781,"2021-03-29T12:28:43Z","RT @benzingacrypto: Visa Allows Payments To Be Settled With Crypto Using Ethereum Network $V $ETH $USDC  https://t.co/DYJpX9PcWa",101,1
1376511639084732418,"2021-03-29T12:28:43Z","The good thing about @dypfinance Anti-Manipulation system is that it prevents the Liquidity providers to Sell $DYP instead they are earning $ETH as staking rewards 🧠  #DYP #ETH #Ethereum #SmartContract #DeFi https://t.co/yt6C9Vehln",1905,1
