"ID","created_at","text","like_count","rt_count"
1377908661306060801,"2021-04-02T08:59:59Z","RT @flurtft: 💜 $200 in $ETH to someone who retweets this 💜 #Ethereum #ETH #giveaway",3114,6140
1377908660643434498,"2021-04-02T08:59:59Z","If #BTC breaks $69,420 in APRIL 2021 I’ll give a random person my R8  Super SIMPLE: Like ✔️ RT ✔️ Follow ✔️ @JBTheCryptoKing  Drop eth addy ✔️ https://t.co/0ZTkU9CUuI",7875,3934
1377908659431297024,"2021-04-02T08:59:59Z","@M1ssNft I am excited about ETH going to PoS which might be amazing, and stop the crazy gas pruces thing going on right now, which can KILL #ETH  when many more people come in",1,0
1377908653949386756,"2021-04-02T08:59:58Z","@SovrynBTC @sassal0x @antiprosynth @BTC_Vs_ETH_ @RyanSAdams @drakefjustin @DocumentEther @iamDCinvestor @APompliano @RSKsmart @Liquality_io Man i know how to connect the network, why is it i can't connect liquality wallet direct in sovryn and not metamask?",0,0
1377908649973088260,"2021-04-02T08:59:57Z","DCT TOKEN Airdrop Medium Star Claim 1 DCT ($ 100) + 0.045 DCT ($ 10) for each referral you make.   Steps  💎  Join channel and group  💎  Follow twitter, like and retweet pinned message   💎  Submit eth wallet address (ERC-20) Participate now Airdrop link: https://t.co/L24stp8tVI https://t.co/CVYQyLAWwU",8621,8869
1377908641307762688,"2021-04-02T08:59:55Z","To those who think warmer temperatures and more CO2 is good for plants:  Climate change slowed global agricultural productivity growth by ~21% since 1961. That is equivalent of losing about seven years of farm productivity.  https://t.co/RlLAQZ9ci9",220,111
1377908637012725760,"2021-04-02T08:59:54Z","Mt new #NFTart “Abandoned farm RTX” for sale on @withFND! 🌐  This art is inspired by the search for video cards. After all, now they are very difficult to get at an affordable price.  0.6 eth  https://t.co/BEB33UCfZN    #nftcollector #NFTcollectibles #nft #cryptoart  #NFTCommuty https://t.co/8uXaV9CmEA",79,36
1377908631232913408,"2021-04-02T08:59:52Z","RT @flurtft: 💜 $200 in $ETH to someone who retweets this 💜 #Ethereum #ETH #giveaway",3114,6140
1377908628368277504,"2021-04-02T08:59:51Z","Textbook pattern continuation for $STRAX 🚀🔥 $btc $eth $link $dot $etc $atom $band $algo $xrp $waves #bitcoin https://t.co/OGwlxrzboo https://t.co/O4isiheE0C",25,11
1377908622303195136,"2021-04-02T08:59:50Z","@nishoutofwater Trade with only options to manage your risk properly and still make decent gains using leverage. Only trade on BTC and ETH. Follow my account to get calls on various option strategies",0,0
1377908618578825221,"2021-04-02T08:59:49Z","📢AIRDROP📢  Today I will airdrop 50k tokens of my new project $NOPE to the community.  1. Follow @Mr_Chonky 2. Like this tweet 3. Retweet 4. Comment your ETH address below 👇👇👇  to enter the airdrop. https://t.co/heMYCYzBnp",2234,1918
1377908615776935937,"2021-04-02T08:59:48Z","OFFICIAL: $KLV trading is now LIVE on @gate_io Exchange  https://t.co/AZFLfOydmf is ranked Top 4 on @coingecko 's Exchange Ranking with a 10/10 Trust Score.  #KLV pairs: KLV/USDT ➡️ https://t.co/53ek4k8PsY KLV/ETH ➡️ https://t.co/Bo98pcNbAd  Read more ⤵️ https://t.co/6eD84qgRJz",610,288
1377908612924727302,"2021-04-02T08:59:48Z","Ethereum.  I own a lot of Ethereum because I think it’s the closest to a true currency - Mark Cuban.  ETH and DeFi will be on fire in Q2 2021.",1883,232
1377908610542530561,"2021-04-02T08:59:47Z","Join other investors !! 🌏 $ 5 million staked on #tacoswap 🌶 🚀🚀 Don't miss this adventure You want #TacoToken , too? Joins us !!!   #BSC #Bitcoin #BinanceSmartChain #Bepro #blockchain #CoinGecko #crypto #eth #poolz #ADA #Sushiswap #VeChain #Uniswap https://t.co/mxZnpt1QYw",108,82
1377908608764116997,"2021-04-02T08:59:47Z","📢AIRDROP📢  Today I will airdrop 50k tokens of my new project $NOPE to the community.  1. Follow @Mr_Chonky 2. Like this tweet 3. Retweet 4. Comment your ETH address below 👇👇👇  to enter the airdrop. https://t.co/heMYCYzBnp",2234,1918
1377908602552385536,"2021-04-02T08:59:45Z","$Eth going up. #Bitcoin dominance is falling. Load up you're bags because #Altseason2021 is near! 10x 100x 🚀🤯  $VRA $OMI $CHZ $MANA $XVG $SAND $WIN $LTC",5,0
1377908599524052992,"2021-04-02T08:59:45Z","$ETH            vs         $2,000     ( •_•)                          (•_• )     ( ง )ง                          ୧( ୧ )    /︶\                              /︶\",12645,1704
1377908593517793281,"2021-04-02T08:59:43Z","@swissborg Looks like eth killed me in more ways than one  this year. First at failing to do what they promised causing the price to be well bellow than where it should be and now by killing swissborg token with their yield.",1,0
1377908592800493570,"2021-04-02T08:59:43Z","RT @sassal0x: I'm probably late to this but the top trending article on CNBC right now is @mcuban saying that $ETH is money 🔥 https://t.co/…",623,61
1377908585238130688,"2021-04-02T08:59:41Z","RT @LilMoonLambo: BREAKING: Coinbase is expected to go public on April 14th   Are you guys ready for $BTC and $ETH all time highs? https://…",2748,503
1377908583283707906,"2021-04-02T08:59:41Z","RT @CryptoCobain: but sir institutions dont buy eth sir ????????",619,38
1377908572240146432,"2021-04-02T08:59:38Z","If #BTC breaks $69,420 in APRIL 2021 I’ll give a random person my R8  Super SIMPLE: Like ✔️ RT ✔️ Follow ✔️ @JBTheCryptoKing  Drop eth addy ✔️ https://t.co/0ZTkU9CUuI",7875,3934
1377908563339837442,"2021-04-02T08:59:36Z","https://t.co/pTxM5ir115  NFT 1/25 giveaway in 24 hours! 💥💥💥  Price 0.08 ETH =$ 160 !!!  🤝🤝🤝Follow me +@DiamondHodlr 👍 like  💪retweet   🤝two friends+ comment with your ETH wallet adress. 🙏🙏🙏 I wish everyone good luck   #NFTartist #rarible #nft https://t.co/mPglEvYmuF",141,117
1377908555534176258,"2021-04-02T08:59:34Z","400k $ETH flowed out from Coinbase a few days ago.   Speculative guess, institutions are now buying $ETH.  https://t.co/ix1AV5IFOm https://t.co/cYaaHkBgFf",2952,547
1377908541189685250,"2021-04-02T08:59:31Z","🚨 Buh-Bye sold for 3 ETH ($6,000.30 USD) 🚨    #SuperRare #NFT #cryptoart   https://t.co/3zfSW5VJPP",1,0
1377908531454750728,"2021-04-02T08:59:28Z","@OtunbaIcon001 Am I the only one that thinks ETH is increasing at a decreasing rate?",0,0
1377908525293137921,"2021-04-02T08:59:27Z","RT @NFTsShoutout: I have 1 ETH to giveaway to enter just RT this and follow me. I’ll pick one of you tomorrow.",614,749
1377908523065958402,"2021-04-02T08:59:26Z","🚀#FUSECASH  EVENT 💰 #Free up to Fuse #Unicorn #NFT + 500$ in Fuse Tokens  👉👉 https://t.co/uZUWTDkJG6   ✅ Enter Email ✅ Confirm Email  1. Retweet + Like #CTBot Adrop Ram 3 TRX 100 #btc #eth #bnb #bsc #DeFi #nftart #NFTGiveaway #NFTCommunity #NFTartists #NFTs #NFTcollectibles https://t.co/gp0Y08DV9n",105,89
1377908519035371520,"2021-04-02T08:59:25Z","RT @NFTsShoutout: I have 1 ETH to giveaway to enter just RT this and follow me. I’ll pick one of you tomorrow.",614,749
1377908515084365831,"2021-04-02T08:59:24Z","@digishahed @AndreCronjeTech $PANTHER is a deflationary animalcoin, which is trying to help animals in need with every transaction  EXCHANGE Dextools   Proof of lock  The charity being donated to! Take note, the eth is being directly deposited to the charity wallet, and the charity is confirmed to be legit!",0,0
1377908499909287940,"2021-04-02T08:59:21Z","🥳200$ #giveaway paid in $BNB 🎁4 winners ( 50$ each )  ✅RT, Like and Tag 3 friends ✅Join discord: https://t.co/35loidugH9 ✅Verify at discord, post proof here  ⏳Ends in 4 days!  #bitcoin $BTC $ETH $DOT $ADA $SPI $GSPI @300Token https://t.co/FaTN8bD15F",1099,901
1377908495110967296,"2021-04-02T08:59:20Z","$ETH            vs         $2,000     ( •_•)                          (•_• )     ( ง )ง                          ୧( ୧ )    /︶\                              /︶\",12645,1704
1377908491633889283,"2021-04-02T08:59:19Z","@yourdefiguide wat a struggle even to get over 2k, I feel like we should be at 4k but eth seems reluctant",0,0
1377908483597631491,"2021-04-02T08:59:17Z","Don't be a fool this April 1st Get in on our...  🚀Pre-sale in April #giveaways! 🌟20 x (100 #POPO) (worth$100)random winners   ✅RT and like this Tweet ✅TAG 3 Friends ✅Comment with Link and #ETH Wallet address #POPO #Poplink 🚀🚀🚀 https://t.co/PZv72o1Mxx",1028,810
1377908478824624130,"2021-04-02T08:59:16Z","$ETH            vs         $2,000     ( •_•)                          (•_• )     ( ง )ง                          ୧( ୧ )    /︶\                              /︶\",12645,1704
1377908475372654593,"2021-04-02T08:59:15Z","If #BTC breaks $69,420 in APRIL 2021 I’ll give a random person my R8  Super SIMPLE: Like ✔️ RT ✔️ Follow ✔️ @JBTheCryptoKing  Drop eth addy ✔️ https://t.co/0ZTkU9CUuI",7875,3934
1377908468871524355,"2021-04-02T08:59:13Z","Twitter &amp; TG giveaway campaign! To celebrate the opening of new round of Sketchbox, RT &amp; join TG(https://t.co/vy5ZhiZfy7).  1 Winner will get 100$ worth of $PURPLE  New Sketch round begin at 9AM UTC today Reward Pool  0.25 ETH X4ppl (1%)  1 DOT X 30ppl (5%)  1 PLT X 100ppl (15%) https://t.co/I6sMkaLj0v",72,81
1377908456590614529,"2021-04-02T08:59:11Z","Time for WitLink Token #Airdrop!  ✔️ Start the Airdrop bot: https://t.co/8HDV9cCJse  Complete the tasks to earn  Get 10 WAI ($2.5) + Get 4 WAI ($1) For Each Valid Refer   #ETH #BTC #WAI #LINK #Airdrops",1478,1424
1377908451817353221,"2021-04-02T08:59:09Z","RT @westcoastbill: ETH just hit $2000!!!  congrats everyone!!!",2177,169
1377908441046511617,"2021-04-02T08:59:07Z","$ETH            vs         $2,000     ( •_•)                            ( ง )=o                      (x_x )     /︶\                                _/￣|__",5098,613
1377908438982819842,"2021-04-02T08:59:06Z","DCT TOKEN Airdrop Medium Star Claim 1 DCT ($ 100) + 0.045 DCT ($ 10) for each referral you make.   Steps  💎  Join channel and group  💎  Follow twitter, like and retweet pinned message   💎  Submit eth wallet address (ERC-20) Participate now Airdrop link: https://t.co/L24stp8tVI https://t.co/CVYQyLAWwU",8621,8869
1377908433131864066,"2021-04-02T08:59:05Z","$ETH            vs         $2,000     ( •_•)                          (•_• )     ( ง )ง                          ୧( ୧ )    /︶\                              /︶\",12645,1704
1377908429252141057,"2021-04-02T08:59:04Z","@CryptoIRELAND1 there is in act a criminal behavior: holders mass selling of previously ETH based tokens moving to Cardano to kill the capitalization; a violent action to induce project not to migrate and lose capitalization. That's because they are scared because they're heavy invested on ETH.",2,0
1377908420196642829,"2021-04-02T08:59:02Z","Our new paper just out: Public willingness to participate in personalized health research and biobanking: A large-scale Swi ... https://t.co/5KctA1PI25 @EthicsPolicyLab @ETH_en",17,5
1377908417482911748,"2021-04-02T08:59:01Z","DCT TOKEN Airdrop Medium Star Claim 1 DCT ($ 100) + 0.045 DCT ($ 10) for each referral you make.   Steps  💎  Join channel and group  💎  Follow twitter, like and retweet pinned message   💎  Submit eth wallet address (ERC-20) Participate now Airdrop link: https://t.co/L24stp8tVI https://t.co/CVYQyLAWwU",8621,8869
1377908416455323649,"2021-04-02T08:59:01Z","#ethereum 2k 🚀🚀🚀🚀 fee 2.5k 😀😀😀😀😀 $ETH",0,0
1377908408301543426,"2021-04-02T08:58:59Z","RT @Kase_Montero: The fact that $ETH just hit $2K just means that the $ONE pump is going to be so strong. Get ready to 2x again harmonauts!…",45,16
1377908401972383746,"2021-04-02T08:58:57Z","@sparkillabee This is huge ! More than 100k ETH raised, it's like 200m$ 👀",1,0
1377908400172990464,"2021-04-02T08:58:57Z","$STRAX $BTC To see its true upwards potential you need to take a look at #BTC pair. On the monthly chart there is basically no resistance until 20k ($12 at current rates), on weekly there only is 8k res. on the way to 20k. 3....2...1...🚀 $eth $link $dot $etc $atom $band $waves https://t.co/HCph14CrNS",38,14
1377908394661703680,"2021-04-02T08:58:56Z","Re-minting all my work on @hicetnunc2000 and removing from other platforms.  Innovation won't happen on ETH while fees are so high.  Plus, doesn't it just look cool as fuck.  https://t.co/qVrmCu8dGU  #XTZ #cryptoart #tezos #nft #nftart #nftartist #nftcollectors #hicetnunc https://t.co/kYnzO9u5uC",55,11
1377908392631488514,"2021-04-02T08:58:55Z","🚀#FUSECASH  EVENT 💰 #Free up to Fuse #Unicorn #NFT + 500$ in Fuse Tokens  👉👉 https://t.co/uZUWTDkJG6   ✅ Enter Email ✅ Confirm Email  1. Retweet + Like #CTBot Adrop Ram 3 TRX 100 #btc #eth #bnb #bsc #DeFi #nftart #NFTGiveaway #NFTCommunity #NFTartists #NFTs #NFTcollectibles https://t.co/gp0Y08DV9n",105,89
1377908357219094531,"2021-04-02T08:58:47Z","Haha just an FYI I think eth is gonna pop this month and I just  think ETH jokes are funny.  However I think a bag mixed across 5 great alts will perform well better than holding a giant bag of eth.  Mine is (enj,chain,xcur,Ovr,paid,BMI, spi)  Already proving true",532,34
1377908357122637825,"2021-04-02T08:58:47Z","📢AIRDROP📢  Today I will airdrop 50k tokens of my new project $NOPE to the community.  1. Follow @Mr_Chonky 2. Like this tweet 3. Retweet 4. Comment your ETH address below 👇👇👇  to enter the airdrop. https://t.co/heMYCYzBnp",2234,1918
1377908356640215044,"2021-04-02T08:58:47Z","📣 #BCN1 Daily Digest 04/01/2021  📌 @TenseT_io developed Second-generation ETF  📌 @astronauttoken implemented KYC  📌 @Moma_Finance introduced Lending Pool  📌 @YIELDapp launced YLD_ETH SushiSwap Onsen Pool  📌 @saffronfinance_ Weekly Update https://t.co/rwhAuJNgyC",142,135
1377908355457548290,"2021-04-02T08:58:46Z","@saf_coin good project. hope for his future🤙 My ETH adress: 0x3c54859841a2974057cffe557bcc743869c2bd95",0,0
1377908353230376962,"2021-04-02T08:58:46Z","If #BTC breaks $69,420 in APRIL 2021 I’ll give a random person my R8  Super SIMPLE: Like ✔️ RT ✔️ Follow ✔️ @JBTheCryptoKing  Drop eth addy ✔️ https://t.co/0ZTkU9CUuI",7875,3934
1377908352643035136,"2021-04-02T08:58:46Z","Hurry  https://t.co/896x6T5AtX $14K  Premium #Domainname #ForSale @Sedo   #Metaverse #VR #Analytics #AI #MachineLearning #BigData #5G #AR #Robotics #ML #IoT #CloudComputing #futureofwork #Crypto #100DaysOfCode #fintech #Blockchain #LIVE #Bitcoin  #BTC  #LTC #ETH #technology #LINK https://t.co/N8jdKsCNXt",12,24
1377908350055251975,"2021-04-02T08:58:45Z","RT @anonwojak: $FST liquidity on ETH increased by 50% and price only went down. Thinking about buying more here. https://t.co/RzCupAnImB",3,1
1377908347085713408,"2021-04-02T08:58:44Z","@ACryptoniano @GoldisSergiu @CryptoLogikz @jebus911 @Visa Bnb outperformed Eth so far since the start of this year. New investors are looking for cheap solutions into defi such as bnb, dot, and - soon to be - atom, all of which can scale. It's admitted in the Ethereum 2.0 white paper that the upgrade won't fix gas fees. Cope harder.",2,0
1377908339456151558,"2021-04-02T08:58:43Z","RT @intocryptoverse: $2k $ETH",1899,131
1377908337371582465,"2021-04-02T08:58:42Z","RT @Wangarian1: Imagine institutions buying $ADA before $ETH.  Just imagine.",160,1
1377908336998416386,"2021-04-02T08:58:42Z","Bitcoin, ETH, &amp; DeFi: What Happened Crypto Markets this Week? https://t.co/JjMDUyubew",0,0
1377908323966541826,"2021-04-02T08:58:39Z","Glad to announce that @BitKeepOS  reached a strategic Partnership with @JustLiquidity @JulSwap .  Julswap is the first @BinanceChain  Dex fully integrated and deployed in Bitkeep Wallet.  User can now trade,track,favorite Julswap pairs.  #julswap #juld #julb #bnb #BSC #btc #eth https://t.co/nvEpaZd4tn",1298,816
1377908321408016384,"2021-04-02T08:58:38Z","@saf_coin Good project  Eth address - 0xcc61fcdbde17938715df2b5a1e9633ccb6ab7101",0,0
1377908318371463169,"2021-04-02T08:58:38Z","@eladnova $KAI seems to be going to retest 8cents or less, I would wait for selling $ETH for new ATH, bruh $VRA? I'm into $ENJ this week expecting a good push from here",5,0
1377908296150097923,"2021-04-02T08:58:32Z","📢AIRDROP📢  Today I will airdrop 50k tokens of my new project $NOPE to the community.  1. Follow @Mr_Chonky 2. Like this tweet 3. Retweet 4. Comment your ETH address below 👇👇👇  to enter the airdrop. https://t.co/heMYCYzBnp",2234,1918
1377908283583909889,"2021-04-02T08:58:29Z","*GET YOURSELF A US PAYPAL ACCOUNT*  You'll be able to Buy &amp; Sell Crypto (BTC,Eth,Litecoin) With it.  *You'll also be able to send &amp; receive payments from any part of the world*  cost just #5,000  *Click Now to get yours* 👇  https://t.co/VQ9jyQ8NN9 https://t.co/5gKQapYoTe",101,107
1377908280756817920,"2021-04-02T08:58:29Z","RT @flurtft: 💜 $200 in $ETH to someone who retweets this 💜 #Ethereum #ETH #giveaway",3114,6140
1377908278244560899,"2021-04-02T08:58:28Z","$SOS catalysts so far...  - Offering closed today  - Bitcoin mining rigs to arrive 15 April  - Already mining Bitcoin/Ethereum  - $BTC and $ETH possible ATH soon",4,1
1377908271407890433,"2021-04-02T08:58:26Z","RT @NFTsShoutout: I have 1 ETH to giveaway to enter just RT this and follow me. I’ll pick one of you tomorrow.",614,749
1377908268199215104,"2021-04-02T08:58:26Z","$BTC.D update  Finally broke down the 3-year-old trendline. Let's see how does weekly close here.   $ETH is over 2k and if it keeps this pace we will see real alt-season soon. https://t.co/iFvzF2limD",133,17
1377908262163582977,"2021-04-02T08:58:24Z","Similar to @1inchExchange  marginswapRouter routes trade to Uniswap and Sushiswap with the ability to trade across multiple pairs and split trades within these DEXs guaranteeing a trader always gets the best price available.  + 5x Leverage and Loans $MFI $ETH $WBTC $DAI https://t.co/wvxdb64vTZ",39,19
1377908258321657860,"2021-04-02T08:58:23Z","Patience to the #Ethereum holders. 🚀 $ETH #cryptocurrencies #crypto #2k https://t.co/bRiUaMxzwd",1,0
1377908255830142982,"2021-04-02T08:58:23Z","ETH L2 scaling solutions:   + State Channels  + Plasma (childchains)  + Sidechains  + Rollups        + optimistic rollups        + zero knowledge rollups + Validium  + Hybrid solutions  + Sharding https://t.co/oKyTZHpn6v",147,30
1377908250318868482,"2021-04-02T08:58:21Z","@apes_crypto @Zurabi95436746 @Soso99581944 @Tornike13396299  Really amazing and perfect project! Good luck! My ETH address:  0x160b90221f0d956d42724e49F76E831BeEBDcbD7  #NFTCommunity #nftart #nftcollector #NFTcollectibles #NFTGiveaway #NFTdrop $btc $eth $doge",1,0
1377908247152140288,"2021-04-02T08:58:21Z","💎 YOUNG MEDUSA 💎  ✨ Artwork by @delusions_at 💰 Sold to @lucrafund for 1.666 ETH ($3,325.19)  https://t.co/ixoqsMa4ix  #cryptoart #NFT https://t.co/6B8fjd5C8N",7,1
1377908240407801857,"2021-04-02T08:58:19Z","📢AIRDROP📢  Today I will airdrop 50k tokens of my new project $NOPE to the community.  1. Follow @Mr_Chonky 2. Like this tweet 3. Retweet 4. Comment your ETH address below 👇👇👇  to enter the airdrop. https://t.co/heMYCYzBnp",2234,1918
1377908230702166018,"2021-04-02T08:58:17Z","RT @2009Agri: @Binance_Turkish Dexchain BTC Etherium",13,9
1377908227405402112,"2021-04-02T08:58:16Z","RT @alextradesss: @0xPolygon 🚀🦄  “If @decentraland is using it, you can bet that it’s decentralized.”  $MATIC $MANA $ETH https://t.co/FiZJz…",43,8
1377908226696568832,"2021-04-02T08:58:16Z","RT @flurtft: 💜 $200 in $ETH to someone who retweets this 💜 #Ethereum #ETH #giveaway",3114,6140
1377908223127216129,"2021-04-02T08:58:15Z","If #BTC breaks $69,420 in APRIL 2021 I’ll give a random person my R8  Super SIMPLE: Like ✔️ RT ✔️ Follow ✔️ @JBTheCryptoKing  Drop eth addy ✔️ https://t.co/0ZTkU9CUuI",7875,3934
1377908222506450946,"2021-04-02T08:58:15Z","Just when I think I understand crypto I have a mare.... spent a fortune on eth gas costs when all I had to do was use smart chain for the same thing. 😒 for 1% of the cost",0,0
1377908219847249920,"2021-04-02T08:58:14Z","Post photos. Make money. Maintain ownership.  Join the  Relica  revolution and experience an exciting new photo sharing platform built on #Bitcoin where you generate income from your content. https://t.co/PXuopmZiic  #Relica #BSV #Bitcoin #Photos  @cctip_com draw 0.00069 ETH 150",52,88
1377908199106433029,"2021-04-02T08:58:09Z","RT @flurtft: 💜 $200 in $ETH to someone who retweets this 💜 #Ethereum #ETH #giveaway",3114,6140
1377908191808401410,"2021-04-02T08:58:07Z","When you know something is fundamentally solid and you start seeing tweets about it going ‘flat’, ‘all hype’ and people questioning their investment because it’s seen a bit of red for a few weeks..   It’s usually a good time to buy $ALBT  $QNT $ETH $ADA $DOGE $LINK",2,1
1377908190625554434,"2021-04-02T08:58:07Z","📢AIRDROP📢  Today I will airdrop 50k tokens of my new project $NOPE to the community.  1. Follow @Mr_Chonky 2. Like this tweet 3. Retweet 4. Comment your ETH address below 👇👇👇  to enter the airdrop. https://t.co/heMYCYzBnp",2234,1918
1377908173441409024,"2021-04-02T08:58:03Z","https://t.co/pTxM5ir115  NFT 1/25 giveaway in 24 hours! 💥💥💥  Price 0.08 ETH =$ 160 !!!  🤝🤝🤝Follow me +@DiamondHodlr 👍 like  💪retweet   🤝two friends+ comment with your ETH wallet adress. 🙏🙏🙏 I wish everyone good luck   #NFTartist #rarible #nft https://t.co/mPglEvYmuF",141,117
1377908172690661380,"2021-04-02T08:58:03Z","RT @flurtft: 💜 $200 in $ETH to someone who retweets this 💜 #Ethereum #ETH #giveaway",3114,6140
1377908171268894722,"2021-04-02T08:58:02Z","📢AIRDROP📢  Today I will airdrop 50k tokens of my new project $NOPE to the community.  1. Follow @Mr_Chonky 2. Like this tweet 3. Retweet 4. Comment your ETH address below 👇👇👇  to enter the airdrop. https://t.co/heMYCYzBnp",2234,1918
1377908168337014787,"2021-04-02T08:58:02Z","📢AIRDROP📢  Today I will airdrop 50k tokens of my new project $NOPE to the community.  1. Follow @Mr_Chonky 2. Like this tweet 3. Retweet 4. Comment your ETH address below 👇👇👇  to enter the airdrop. https://t.co/heMYCYzBnp",2234,1918
1377908164377645057,"2021-04-02T08:58:01Z","@zildpn: No product / anonymous team / says that #zilliqa marketing sucks / plans to mint tokens on ETH &amp; BSC chains (@view_block score: 29) @_redchillies: Product up &amp; running / team can be reached out on Telegram / focus on features development rather than hype (score 29) DYOR https://t.co/DQuQVijOfO",2,0
1377908158874673153,"2021-04-02T08:58:00Z","🚀#FUSECASH  EVENT 💰 #Free up to Fuse #Unicorn #NFT + 500$ in Fuse Tokens  👉👉 https://t.co/uZUWTDkJG6   ✅ Enter Email ✅ Confirm Email  1. Retweet + Like #CTBot Adrop Ram 3 TRX 100 #btc #eth #bnb #bsc #DeFi #nftart #NFTGiveaway #NFTCommunity #NFTartists #NFTs #NFTcollectibles https://t.co/gp0Y08DV9n",105,89
1377908150834233344,"2021-04-02T08:57:58Z","RT @AdebayoMaas: $BTC is currently hovering around the $59k mark, $ETH is getting closer and closer to $2k, and $DOT is up 12% in the last…",11,6
1377908150381150209,"2021-04-02T08:57:58Z","https://t.co/3Zq8PkPgy9 $35000  Premium #Domainname #ForSale @Sedo   #Metaverse #MetaverseNation #VR #Analytics #AI #MachineLearning #BigData #5G #AR #Robotics #ML #IoT #CloudComputing #futureofwork #Crypto #100DaysOfCode #fintech #Blockchain #LIVE #Bitcoin #LTC #ETH #technology https://t.co/lBA0FoF6pM",6,17
1377908146425958415,"2021-04-02T08:57:57Z","If #BTC breaks $69,420 in APRIL 2021 I’ll give a random person my R8  Super SIMPLE: Like ✔️ RT ✔️ Follow ✔️ @JBTheCryptoKing  Drop eth addy ✔️ https://t.co/0ZTkU9CUuI",7875,3934
1377908139991969792,"2021-04-02T08:57:55Z","📢AIRDROP📢  Today I will airdrop 50k tokens of my new project $NOPE to the community.  1. Follow @Mr_Chonky 2. Like this tweet 3. Retweet 4. Comment your ETH address below 👇👇👇  to enter the airdrop. https://t.co/heMYCYzBnp",2234,1918
1377908135470501889,"2021-04-02T08:57:54Z","📢AIRDROP📢  Today I will airdrop 50k tokens of my new project $NOPE to the community.  1. Follow @Mr_Chonky 2. Like this tweet 3. Retweet 4. Comment your ETH address below 👇👇👇  to enter the airdrop. https://t.co/heMYCYzBnp",2234,1918
1377908133285269506,"2021-04-02T08:57:53Z","If #BTC breaks $69,420 in APRIL 2021 I’ll give a random person my R8  Super SIMPLE: Like ✔️ RT ✔️ Follow ✔️ @JBTheCryptoKing  Drop eth addy ✔️ https://t.co/0ZTkU9CUuI",7875,3934
1377908128403046402,"2021-04-02T08:57:52Z","Curious to see where $ETH lands this short term run... my markers are $2500, $3000, $5000. I think it’ll give a lot of info on how high this cycle goes.",16,3
1377908115572678664,"2021-04-02T08:57:49Z","|￣￣￣￣￣￣￣￣￣￣￣￣￣|    $ETH is back over $2,000 |＿＿＿＿＿＿＿＿＿＿＿＿＿|                      (\__/)  ||                      (•ㅅ•) ||                      / 　 づ",1556,185
