"ID","created_at","text","like_count","rt_count"
1376617644514754566,"2021-03-29T19:29:57Z","🎁Huge Giveaway!🎁  1x @PlasmaAIO beta key 1x @MooseAlertsCA Monthly 1x @TrinityProxies 1GB Resi 1x @SneakerPings Monthly 1x @studiobreit $100 ETH cash prize  🚨Rules🚨 -Follow all accounts✅ -Retweet🔁 -Tag a friend👥  Ends in 48 hours, good luck!🍀 https://t.co/RsyBvTzUU0",391,0
1376617641725530121,"2021-03-29T19:29:56Z","RT @GyasiHenry: @CargoXio is ready to explode!  $CXO $QNT $BTC $ETH https://t.co/At0btQc1E1",7,0
1376617634016419840,"2021-03-29T19:29:54Z","@OdogwuAchina @AfamDeluxo Not even 1 $ETH  for shoe money. A hole 1 BTC!",0,0
1376617630883323912,"2021-03-29T19:29:54Z","@CryptoMichNL $FCL!  🔥@fractalprtcl is an open source protocol for exchanging data in a fair and open way.  🔥It gives access to a fair and open data infrastructure that allows you to effectively power your business.  It's now availabe on @uniswap  https://t.co/3zb79lcZ2H  #DeFi $BTC $ETH https://t.co/ki1WwoloG7",2,0
1376617626152095750,"2021-03-29T19:29:53Z","RT @JacobCanfield: everyone: I’m the eth killer  Eth: https://t.co/EBllFX8XhH",836,0
1376617620359802884,"2021-03-29T19:29:51Z","RT @brick_GA: @crypto_bitlord7 Converted all my $ETH to $ALGO yesterday, best choice I could make 🚀",4,0
1376617606375956480,"2021-03-29T19:29:48Z","Yup.. $ETH swing position still open  TP target: NONE  This is 'add only' season for me!  Taking profit too early at this stage of the cycle is simply ILLEGAL ☠  #btc $ETH $LUNA https://t.co/N4Epl8UE7J",2,0
1376617604186574852,"2021-03-29T19:29:47Z","@Therealchecker7 @maxkeiser Think they will migrate to https://t.co/Abk0DrFksd chain when it’s operational - timing seems too close to be coincidental (and ETH just doesn’t have the capacity yet)",0,0
1376617603402113024,"2021-03-29T19:29:47Z","Tonight's #Raptoreum #Trivia starts at 11pm GMT.  #Play for REAL #RTM with the #FastestFingers on #Discord and #Telegram. https://t.co/7j9wNqkE5h https://t.co/2AyUCIMNd5  #TakePart #Win #Privacy #Blockchain #CompetitionTime #SmartContracts #SmartAssets #SpreadThoseWings #BTC #ETH https://t.co/tVOCXCdITQ",96,0
1376617599845343232,"2021-03-29T19:29:46Z","@coinbase why did you drain my BTC and ETH wallets right at the same time as Robinhood was pulling their BS during the end of January ‘21? says both were to “transfers@coinbase”, not a random wallet like a hacker would do. Why did you ROB ME?",0,0
1376617595672137737,"2021-03-29T19:29:45Z","Jay Clayton, whose SEC declared #BTC and #ETH are not securities and removed all obstacles to trading them, now works for hedge fund that is betting on #BTC and #ETH.  (Coincidentally, he also sued @Ripple, crashed #XRP and forced its delisting.) https://t.co/W7boQD1zYq",2050,0
1376617574545248258,"2021-03-29T19:29:40Z","🍌🔥#GIVEAWAY!! 🔥🍌 We're giving away our Kongz 3D #41  (0.6 eth)!  How to enter: 1. Follow us 2. Like &amp; RT 3. Tag 3 different crypto friends 4. Join our Discord Server: https://t.co/5DHGL6wW5C  Ends March 29th  📅  https://t.co/1wiE31YlmF  #NFT #nftcollector #NFTCommunity https://t.co/4fqQ0fFzlf",115,0
1376617573647720449,"2021-03-29T19:29:40Z","@krakenfx Needs to close above $1934. Probability is to the upside if Eth can hold that level",4,0
1376617571697430533,"2021-03-29T19:29:40Z","🚀✨SPECTRAL RINGS✨🚀  Has ONLY 5 HOURS LEFT &amp; still rests in the hands of @maxcapacity 🤝  Which I’m totally fine with!!!   Unless..........👀  {Current Bid: .25 ETH}  👇🏾👇🏾 CHECK IT OUT HERE 👇🏾👇🏾  https://t.co/WNLhnEHYib https://t.co/AHk630IX0N",10,0
1376617571500326918,"2021-03-29T19:29:40Z","@FatNostril @Bancor Yeah, and those eth fees are astronomical right now....",1,0
1376617568123944969,"2021-03-29T19:29:39Z","Jay Clayton, whose SEC declared #BTC and #ETH are not securities and removed all obstacles to trading them, now works for hedge fund that is betting on #BTC and #ETH.  (Coincidentally, he also sued @Ripple, crashed #XRP and forced its delisting.) https://t.co/W7boQD1zYq",2050,0
1376617563430522889,"2021-03-29T19:29:38Z","@jims_eth @M0D_Official @pan_danil If it's not explicitly stated otherwise rights almost always default to the creator.  It'll be on you to make sure the TOS for your preferred buying platform is granting the rights you want as a collector...do not assume a purchase grants you a broad license. It usually doesn't.",1,0
1376617560473485313,"2021-03-29T19:29:37Z","GIVEAWAY TIME! in one week I will choose one winner to get one copy of The Bleeding Heart is Disconnected To ENTER  LIKE-FOLLOW-RETWEET-COMMENT ETH ADDY! Good luck! MUST DO ALL TO BE ENTERED.  Art Below  #nft #nfts #nftart #nftcommunity #nfthype #nftcollector #nftcollectors https://t.co/rgJEeiuZHV",184,0
1376617558929985542,"2021-03-29T19:29:37Z","✨ The $ETH price has increased over 19% in the last 30 days. Is the price headed back up to $2,000 this week?   https://t.co/J531RCy19b https://t.co/D3EOvuO6pU",261,0
1376617558128869381,"2021-03-29T19:29:36Z","RT @JacobCanfield: everyone: I’m the eth killer  Eth: https://t.co/EBllFX8XhH",836,0
1376617554223976456,"2021-03-29T19:29:35Z","Shouldn’t get too greedy trading today. Woke up to my eth longs in major profit, eth stack up 5% on one trade. Sometimes it’s hard to not overtrade",0,0
1376617551761973252,"2021-03-29T19:29:35Z","🔥@verasitytech $VRA 🔥💎  Top 10 coins by Galaxy Score™ as of 7:10PM UTC Mon, Mar 29 on https://t.co/jbYf1oar9A $npxs #pundix $eth #ethereum $matic #polygonpreviouslymatic $link #chainlink $skl #skale $wan #wanchain $key #selfkey $vra #verasity $atom #cosmos $reef #reeffinance https://t.co/aqHIYcyvGp",159,0
1376617551501742081,"2021-03-29T19:29:35Z","@CryptosBatman Guys. This is long term bearish because there is no way #eth can handle this. It's slow and expensive.   Maybe when 2.0 launches. We have been saying that for years.",0,0
1376617550570741765,"2021-03-29T19:29:35Z","RT @GyasiHenry: @CargoXio is ready to explode!  $CXO $QNT $BTC $ETH https://t.co/At0btQc1E1",7,0
1376617537455198212,"2021-03-29T19:29:31Z","30 day EVIX: 84.8166 ETH/USD vwap: $1,825.19 04/16 expiry volume: $1,701,422.14 04/30 expiry volume: $7,921,082.17 Current time: 19:29:06",0,0
1376617536737964033,"2021-03-29T19:29:31Z","💥Vote for @WeinerFinance to be added to #Blockfolio! https://t.co/VroU682u9t  1 year locked $WENR liquidity  💥#DexTools👉🏼https://t.co/FFldlTLqoO  https://t.co/PtCQwRsDxS  https://t.co/FE0j9MsOfc  $labs $hoge #uniswap $eth $btc #crypto $bles $cards $delta $ern https://t.co/oCStlrjyxQ",21,0
1376617529225834501,"2021-03-29T19:29:29Z","⚒️#TRONCenturyMining: 5-in-1 Mining Now Live!  🚀As of now, #ETH-#TRX mining APR&gt;7835%, #WIN-#TRX mining APR&gt;9788%  Mine and earn at https://t.co/rJYHv3rZ8m 💰 https://t.co/V93VVJ178l",1463,0
1376617527946567684,"2021-03-29T19:29:29Z","The good thing about @dypfinance Anti-Manipulation system is that it prevents the Liquidity providers to Sell $DYP instead they are earning $ETH as staking rewards 🧠  #DYP #ETH #Ethereum #SmartContract #DeFi https://t.co/yt6C9Vehln",1905,0
1376617526822592514,"2021-03-29T19:29:29Z","@bitbns $DAFI.  ⚡️ @DAFiProtocol can incentivize early-users and maintain a network in bearish markets, without issuing large quantities of tokens.  ⚡️No hyperinflation, no excess supply, and the ability to reward early-users &amp; adoption even in low phases of demand.  $BTC $ETH #DeFi https://t.co/Q9Yq6o3eDo",1,0
1376617521722314753,"2021-03-29T19:29:28Z","💧Roku Network Airdrop 💧  🏆 Task:          ➕  15 ROK (~$5)  👨‍👩‍👧 Referral:   ➕  3 ROK (~$1)  🔛  Airdrop Link &amp; Information: https://t.co/YhvsOcfEbH  #cryptocurrency #Crypto #Bitcoin  #BSC #BinanceSmartChain #Ethereum #ETH #Airdrop #bounty #ROK #RokuCoin #RokuNetwork",3811,0
1376617518945685512,"2021-03-29T19:29:27Z","✨ The $ETH price has increased over 19% in the last 30 days. Is the price headed back up to $2,000 this week?   https://t.co/J531RCy19b https://t.co/D3EOvuO6pU",261,0
1376617512402567173,"2021-03-29T19:29:25Z","#Crypto #cryptocurrency #cryptonews #cryptocurrencies #cryptoartist #cryptomarket #CryptocurrencyNews #NFT #NFTs $BTC #btc #Bitcoin #ETH $Atom $Iris #cryptotwitter #www #UNIVERSE #ToTheMoon  #IBC #LaunchPARTY #cRoYpToPaRtY personal Inviting @ you all-JOIN! https://t.co/f14vkpYJxr",0,0
1376617507826589696,"2021-03-29T19:29:24Z","@AnthonyEnglish_ Eth address?",0,0
1376617500956364801,"2021-03-29T19:29:23Z","DYOR.... But $POODL is going cheap but not for much longer!!We’ve ridden the weekend slump like many cryptos and now the pump begins!! New ATH to be met, more news constantly coming!! It’s going to be a good week!🤑🚀🚀 $HOGE $DOGE $GRUMPY  #bitcoin #btc  #crypto #coinbase #eth https://t.co/8xIIMNdvGw",24,0
1376617494731952141,"2021-03-29T19:29:21Z","@udiWertheimer Would be very funny if the cute little gathering on Clubhouse marked the bottom for ETH/BTC.",4,0
1376617491162558464,"2021-03-29T19:29:20Z","Jay Clayton, whose SEC declared #BTC and #ETH are not securities and removed all obstacles to trading them, now works for hedge fund that is betting on #BTC and #ETH.  (Coincidentally, he also sued @Ripple, crashed #XRP and forced its delisting.) https://t.co/W7boQD1zYq",2050,0
1376617490340442116,"2021-03-29T19:29:20Z","Jay Clayton, whose SEC declared #BTC and #ETH are not securities and removed all obstacles to trading them, now works for hedge fund that is betting on #BTC and #ETH.  (Coincidentally, he also sued @Ripple, crashed #XRP and forced its delisting.) https://t.co/W7boQD1zYq",2050,0
1376617488448884740,"2021-03-29T19:29:20Z","@bashycrypto Yeah, $ETH is going to rip hard this year!",1,0
1376617482031628292,"2021-03-29T19:29:18Z","If you followed some influencers yesterday and sold all your $ETH, please learn from your mistakes. They are just chasing pumps and wanting you to do the same.",2259,0
1376617479930327040,"2021-03-29T19:29:18Z","$VRA has formed the Cup ! If it does not moon right now and forms the Handle you better move fast because soon after it's x10 in a month !  Such a perfect potential Cup &amp; Handle is exciting !   Send it !  $FTM $RSR $ETH $LTC $BNB $BTC $VET $THETA $HTR $COTI https://t.co/RCGqtXjURL",24,6
1376617473798250499,"2021-03-29T19:29:16Z","@BraveSampson I mentioned my issue above, but I can't tell if I lost my Room/Eth pair from Uniswap after a transaction to pull it out didn't go through. My balance is gone on Zapper fi. I can give you the details if you want. Thanks.",0,0
1376617472145694720,"2021-03-29T19:29:16Z","TOP 15 coins by @LunarCRUSH Galaxy Score  Galaxy Score is a proprietary score that is constantly measuring crypto against itself with respect to the community metrics pulled in from across the web  $ATOM $TEL $BTC $XEM $XVG $CRO $ETH $QNT $MATIC $EGLD $OCEAN $UTK $AXS $LUNA $FTM https://t.co/9Uzs97knMi",122,0
1376617471973658624,"2021-03-29T19:29:16Z","You learn to appreciate your workstation when you're limited to using a crappy macbook pro from 2015 for a week&lt;3 anyways here's an #AKIRA inspired project im working on  #blender #nft #3dart #rarible #crypto #cryptoartist #etherium #eth https://t.co/VrPu38KPUG",4,0
1376617470501384193,"2021-03-29T19:29:15Z","Pair Created! Pairs → DFY-ETH  $DFY = &lt; 0.0001 ETH ($0.0616)  $ETH = 29,643 DFY ($1,826)  Total Liquidity $63,311  https://t.co/kXrKWO7nru",1,0
1376617469863809025,"2021-03-29T19:29:15Z","my crypto holdings: $btc 60% $eth 35% $ltc 5% ⚡️",166,3
1376617467825430528,"2021-03-29T19:29:15Z","💧Roku Network Airdrop 💧  🏆 Task:          ➕  15 ROK (~$5)  👨‍👩‍👧 Referral:   ➕  3 ROK (~$1)  🔛  Airdrop Link &amp; Information: https://t.co/YhvsOcfEbH  #cryptocurrency #Crypto #Bitcoin  #BSC #BinanceSmartChain #Ethereum #ETH #Airdrop #bounty #ROK #RokuCoin #RokuNetwork",3811,3
1376617465745182722,"2021-03-29T19:29:14Z","Why pick $POODL?  #1 Poodl holders - 7300 strong (+8% daily!) #2 Live Telegram VOICE chat!!! #3 Clean website. - https://t.co/HIsBfCxqyu #4 Telegram community with 7K members!!! #5 Tiktok competition worth $1500!  $feg $doge $hoge $ada $Orn #eth $eth $BTC #BTC #POODL",9,3
1376617458182803456,"2021-03-29T19:29:13Z","@DynastyxCrypto @ryan44649155 @picassopunks @opensea Just got one. I'm in love. This won't leave my collection unless some serious eth is thrown down ❤️💥❤️ #CONGRATS @picassopunks https://t.co/LeESOa35TA",15,3
1376617453757857798,"2021-03-29T19:29:11Z","@AboutDefi $DAFI!  ⚡️ @DAFiProtocol can incentivize early-users and maintain a network in bearish markets, without issuing large quantities of tokens.  📈 $DAFI is now available on @Uniswap, @Bilaxy_exchange and @BitMax_Official.  🔥🔥🔥  $BTC $ETH #DeFi https://t.co/IZ5jshqS1u",1,3
1376617450821844992,"2021-03-29T19:29:11Z","Punk 3609 bought for 375 ETH ($683,054.99 USD) by 0x8847be from 0x4eb676. https://t.co/qzmjC8vbuZ #cryptopunks #ethereum https://t.co/U8VzX58ZzO",176,3
1376617446212182019,"2021-03-29T19:29:10Z","@Trash_Punks Yeah that’s my ETH address. Thank you so much!! I’m so excited!! Hope I’m not too late! https://t.co/vn3I4DRbK3",2,0
1376617445067255809,"2021-03-29T19:29:09Z","The auction for “Golden Afternoon “ just went live on @withFND!   Thank you for the first bid @ung3!     Current bid: 0.55 ETH ($1005.04)   https://t.co/RAolpoNtVa",53,0
1376617438306000896,"2021-03-29T19:29:08Z","💥Vote for @WeinerFinance to be added to #Blockfolio! https://t.co/VroU682u9t  1 year locked $WENR liquidity  💥#DexTools👉🏼https://t.co/FFldlTLqoO  https://t.co/PtCQwRsDxS  https://t.co/FE0j9MsOfc  $labs $hoge #uniswap $eth $btc #crypto $bles $cards $delta $ern https://t.co/oCStlrjyxQ",21,0
1376617425500790786,"2021-03-29T19:29:05Z","RT @alanjohnson03: $Poodl my next 100x looking forward to the journey  $hoge $doge $feg $ada $orn #BTC #Ethereum #etherium #moon #poodl htt…",6,0
1376617423575597061,"2021-03-29T19:29:04Z","✨ The $ETH price has increased over 19% in the last 30 days. Is the price headed back up to $2,000 this week?   https://t.co/J531RCy19b https://t.co/D3EOvuO6pU",261,0
1376617419112730624,"2021-03-29T19:29:03Z","$DYP liquidity providers earned 5,970.84 #ethereum worth $10,700,060 since launch!  Join one of their liquidity pools and earn up to 295.02% APY 💰  #defi #uniswap #eth https://t.co/lKbf20w2sm",1795,0
1376617418953355265,"2021-03-29T19:29:03Z","📢#CryptoPHD is about to start the OTC trading of @BESTokens  #BEST is a Hashrate Token Holding $BEST= Mining $BTC+ $ETH  👇Ruels 1⃣Follow @BESTokens &amp; @CryptoPHD_DeFi  2⃣Retweet &amp; join in tg: https://t.co/y5ClVHPmhB  $BEST #OTC #Hashrate #BTC #ETH https://t.co/NK35WDTSsd",134,0
1376617418202742786,"2021-03-29T19:29:03Z","filmmaker and curator @NICKBLanco_ holds the keys to the underground.  their nfts will forever enshrine the untold legendary tales that shaped today's music and cultural environment.  look out for this drop.   #crypto #film #art #music #blockchain #nft $eth @NftsTips https://t.co/IUclaqc6ul",9,4
1376617416814424068,"2021-03-29T19:29:03Z","If you're using @blocknative's Onboard.js for your dapp be sure to include the Frame wallet module as an option! Onboard does not yet detect injected providers the way web3-react/web3modal do. Adding the Frame module allows users to connect natively to Frame without an extension.",14,4
1376617416688500736,"2021-03-29T19:29:03Z","Preparing my new #nft collection to drop. Check out the ones still available before too late!  https://t.co/4B9jePe0Rl  #nft #nftcollectors #cryptoartist #cryptoart #blockchain #Metaverse #ETH #ethereum #digitalart #blockchainart #marvel #dc #comics #willconrad #bitcoin #nftart https://t.co/lPm7vA0PTE",7,4
1376617406915809287,"2021-03-29T19:29:00Z","Greener and greener 🤙🏻🤙🏻  #cryptocurrencies #CryptoNews #blockchain #altcoins #btc #eth #BNB #LTC #markets #investing #investment #invest #money #NFTs #nftart #NFTCommunity #DeFi #Finance #digitalasset #DigitalTransformation #crypto #trade #Trending #altcoin #LINK #Luna #XRP #sol https://t.co/UHVX9CUptg",2,0
1376617393850552324,"2021-03-29T19:28:57Z","@crypto_bitlord7 Converted all my $ETH to $ALGO yesterday, best choice I could make 🚀",4,1
1376617386300870659,"2021-03-29T19:28:55Z","Tigray Provisional Gov! Keep up the good job! Africans are going to get a bad name because of TPLF's mendacious propaganda. It is getting more terrible and disgusting by the day! ENDF heroes will complete the job of disarming the rogue militia! Rebuild Tigray! #UnityForEthiopia",14,1
1376617384388276224,"2021-03-29T19:28:55Z","Something that worth to take a look 👀 $UBXT the next hidden 100x💎 🔥🔥🔥  @kucoincom 👈💎  $ada $link $coti $fet $vra $tel $ubx $eth $dao $luna $theta #btc https://t.co/u76alpV6t6",22,1
1376617381942939654,"2021-03-29T19:28:54Z","03/26/21 UPDATE: Net Assets Under Management, Holdings per Share, and Market Price per Share for our Investment Products.  Total AUM: $41.0 billion  $BTC $BCH $ETH $ETC $ZEN $LTC $XLM $ZEC $BAT $LINK $MANA $FIL $LPT https://t.co/WbxbHe4L2g",545,1
1376617380638429184,"2021-03-29T19:28:54Z","Visa just announced they're using Ethereum as a settlement layer.  Ethereum.  ETHEREUM.  Visa will be paying ETH holders to use the network.  Lol this is so bullish for ETH and this market is still too dumb to understand it.  ETH under $2000 is hilarious.",3684,1
1376617380621688832,"2021-03-29T19:28:54Z","@CryptoChihiro Yes, specially for $DAFI.  ⚡️No hyperinflation, no excess supply, and the ability to reward early-users &amp; adoption even in low phases of demand.  ⚡️DAFI tokens are staked, which releases synthetic DFY units. These can be burned in return for DAFI.   $BTC $ETH #DeFi https://t.co/SPpFgdJuEJ",1,1
1376617379770286082,"2021-03-29T19:28:54Z","Hello everyone! It's Monday and for the first time in a while I'm excited to start a new week with all of you &lt;3  💎 The last image of the collection, At World's End - III is still available on @withFND with a 1.5 ETH reserve 🌫️🔭  https://t.co/GR1RlD9iTq  #NFT #cryptoart https://t.co/oha2I4DBWC",72,1
1376617375139831819,"2021-03-29T19:28:53Z","03/26/21 UPDATE: Net Assets Under Management, Holdings per Share, and Market Price per Share for our Investment Products.  Total AUM: $41.0 billion  $BTC $BCH $ETH $ETC $ZEN $LTC $XLM $ZEC $BAT $LINK $MANA $FIL $LPT https://t.co/WbxbHe4L2g",545,1
1376617374661550083,"2021-03-29T19:28:53Z","No need to spend your own money to trade #cryptocurrency. Over 10K users won crypto rewards on @latokens last week. It's the best way to join the financial revolution. Start by earning a share of $100K in CLIQ airdrop: https://t.co/WOsGwqovuH #Bitcoin #ETH #Citi #AON #LATOKEN",0,0
1376617364524052481,"2021-03-29T19:28:50Z","✨ The $ETH price has increased over 19% in the last 30 days. Is the price headed back up to $2,000 this week?   https://t.co/J531RCy19b https://t.co/D3EOvuO6pU",261,0
1376617363018117120,"2021-03-29T19:28:50Z","@jims_eth @pan_danil Unless it's in a defined contract specific to the piece then you get commercial rights. If it's in the T&amp;A of a platform you utilize that's a different story and not actively common on platforms here.",1,0
1376617360895918080,"2021-03-29T19:28:49Z","@CryptoFinally Bullish💪  Especially on $CTSI  This one shows strong fundamentals and great usecases too  @cartesiproject enables a limitless coding with massive scalability  Computations run in a Linux environment outside of the #blockchain   $BTC $ETH $LINK #crypto #defi #altseason #alts $DOT https://t.co/k6JbMbF5RD",5,0
1376617359033647104,"2021-03-29T19:28:49Z","@eth_run Moonshot project🚀🚀",0,0
1376617349617479682,"2021-03-29T19:28:47Z","✨ The $ETH price has increased over 19% in the last 30 days. Is the price headed back up to $2,000 this week?   https://t.co/J531RCy19b https://t.co/D3EOvuO6pU",261,0
1376617347914555404,"2021-03-29T19:28:46Z","💥Vote for @WeinerFinance to be added to #Blockfolio! https://t.co/VroU682u9t  1 year locked $WENR liquidity  💥#DexTools👉🏼https://t.co/FFldlTLqoO  https://t.co/PtCQwRsDxS  https://t.co/FE0j9MsOfc  $labs $hoge #uniswap $eth $btc #crypto $bles $cards $delta $ern https://t.co/oCStlrjyxQ",21,0
1376617343959318540,"2021-03-29T19:28:45Z","RT @NFTFusion: What’s your ETH address?  No questions, just drop it below 👇 #NFT #NFTs",1953,0
1376617339425329152,"2021-03-29T19:28:44Z","#XRP holders sure are salty that @Visa chose #Ethereum. Instead of praising adoption, this cult of investors are manning pitchforks and torches. $ETH",0,0
1376617336623529988,"2021-03-29T19:28:44Z","✨ The $ETH price has increased over 19% in the last 30 days. Is the price headed back up to $2,000 this week?   https://t.co/J531RCy19b https://t.co/D3EOvuO6pU",261,0
1376617335713370112,"2021-03-29T19:28:43Z","@unidentifiedta1 You see my only problem with it is that it’s an ERC20 token and I have an intuitive notion that ETH is on the verge of a major setback. If QNT could decouple from the ETH protocol I would be bullish on it",1,0
1376617333305794569,"2021-03-29T19:28:43Z","@HifiFinance When will you guys invest heavily on marketing &amp; promotion, remember, people can't use or buy what they don't know $mft $hifi  $btc $eth $Reef",10,1
1376617333045788686,"2021-03-29T19:28:43Z","RT @The_Half_Soul: Eth concern trolls are back 🤣 $XTZ #Tezos",17,1
1376617330147483652,"2021-03-29T19:28:42Z","Why should journey of $HOT end up with TOP 10 of the market?  No mining No fee Instant transaction  #Holochain is not #blockchain. It has superior tech compared to $BTC $ETH $DOT.  Think outside the blocks! https://t.co/JLcOEb3xxX",599,1
1376617329761525762,"2021-03-29T19:28:42Z","Riddle me first's in ETH: first ETH transaction, first ETH donation to Wikileaks, creation of CryptoPunks contract. @The_Egghunters  #NFT #TheEggHuntersRiddle",4,1
1376617328574570496,"2021-03-29T19:28:42Z","Since this the launch of @dypfinance back in Dec 2020 looks like Liquidity Providers have earned $11.4 Million dollars in $ETH just from Staking!  Also the project is paying out is $ETH as well and so far 6.2K $ETH have been rewarded.   #DeFi #Crypto #Cryptocurrency #BitcoinTalk https://t.co/zis10XPcL7",1802,1
1376617327530278926,"2021-03-29T19:28:41Z","🎁Huge Giveaway!🎁  1x @PlasmaAIO beta key 1x @MooseAlertsCA Monthly 1x @TrinityProxies 1GB Resi 1x @SneakerPings Monthly 1x @studiobreit $100 ETH cash prize  🚨Rules🚨 -Follow all accounts✅ -Retweet🔁 -Tag a friend👥  Ends in 48 hours, good luck!🍀 https://t.co/RsyBvTzUU0",391,1
1376617324761993220,"2021-03-29T19:28:41Z","Made a sale ♥️ so reinvesting that $ETH in another NFT. I'm in the market! Please share your NFT's with me. I'll also retweet. #support   #nftcollector #NFTshill #NFTCommunity #NFTs",324,1
1376617324577427458,"2021-03-29T19:28:41Z","✨ The $ETH price has increased over 19% in the last 30 days. Is the price headed back up to $2,000 this week?   https://t.co/J531RCy19b https://t.co/D3EOvuO6pU",261,1
1376617320030871562,"2021-03-29T19:28:40Z","RT @TylerDurden: So @Visa are using the ETH blockchain to settle payments.  Looking forward to paying $3 for coffee + $900 gas fee and wait…",9326,1
1376617309641576452,"2021-03-29T19:28:37Z","Jay Clayton, whose SEC declared #BTC and #ETH are not securities and removed all obstacles to trading them, now works for hedge fund that is betting on #BTC and #ETH.  (Coincidentally, he also sued @Ripple, crashed #XRP and forced its delisting.) https://t.co/W7boQD1zYq",2050,1
1376617299432464384,"2021-03-29T19:28:35Z","🔥 WoW!!! $DYP getting listed on @kucoincom !  DYP/USDT &amp; DYP/ETH trading will start tomorrow, March 25th at 10AM UTC! Good job @dypfinance team!  #DeFi #uniswap #Ethereum https://t.co/Rw9qa5l5tA",2226,1
1376617296655904768,"2021-03-29T19:28:34Z","$300 #Giveaway  I'm doing a #Giveaways for @FlossingDoggie club collection where 3 people will win $100 in eth each! Just...  👍 Like 👍Retweet 👍Follow @FlossingDoggie 👍Comment 👍Follow on Rarible https://t.co/6T6nK5pGm7  #NFT #NFTs #nftcollector #NFTCommunity #nftcollectors https://t.co/WWNkzgHnBS",140,1
1376617294915198979,"2021-03-29T19:28:34Z","Because CHUBBIE #0 is currently over 30ETH, we will giveaway CHUBBIES #5537 and #1963 (Both Shinies ~$1,500 each)   -to ONE person that retweets this tweet and follows!  Current bid: 69.69 ETH  CHUBBIE #0: https://t.co/NfK8fP1uZP https://t.co/DsIqf9abnz",613,1
1376617294672060417,"2021-03-29T19:28:34Z","✨ The $ETH price has increased over 19% in the last 30 days. Is the price headed back up to $2,000 this week?   https://t.co/J531RCy19b https://t.co/D3EOvuO6pU",261,28
1376617273981550604,"2021-03-29T19:28:29Z","OMG!!! The auction has started🔥 @withFND   Thank you very much for your bid  @GuyNorcal !!!🤍🐱  Starting Price 0,89 ETH 🚀 24 Hours! 👇🏼👇🏼👇🏼 https://t.co/09RHbsOFLm  I'll keep you informed!✨ #NFTCommunity #NFTs #cryptoart https://t.co/EpsG0plbRi",141,28
1376617272865923076,"2021-03-29T19:28:28Z","Eyes are beginning to look in... love to see it😄  $ArGo provides users and developers with a previously non-existent option  Deploy frontend appd/dapps on the #blockchain permanently via the permaweb  Pay a one time fee for hosting, no subsequent charges  https://t.co/ZvpV6Rco3K https://t.co/8R9RT4npud",2,28
1376617271829929988,"2021-03-29T19:28:28Z","Jay Clayton, whose SEC declared #BTC and #ETH are not securities and removed all obstacles to trading them, now works for hedge fund that is betting on #BTC and #ETH.  (Coincidentally, he also sued @Ripple, crashed #XRP and forced its delisting.) https://t.co/W7boQD1zYq",2050,28
1376617265890783232,"2021-03-29T19:28:27Z","Post-EIP-1559.  Each time someone fires up a Visa card with $USDC.  The $ETH supply will go down.  Ok, now try and tell me that's not the news about #Ethereum and #DeFi.",771,28
1376617262589825026,"2021-03-29T19:28:26Z","RT @TylerDurden: So @Visa are using the ETH blockchain to settle payments.  Looking forward to paying $3 for coffee + $900 gas fee and wait…",9326,28
1376617262224965633,"2021-03-29T19:28:26Z","@kctigerfan @Sophjeh @TylerDurden @Visa ETH is buggy as hell slurping Gas by buggy smartcontracts and crappy core developers",0,0
