"ID","created_at","text","like_count","rt_count"
1375787181856464897,"2021-03-27T12:29:59Z","RT @eth_ral: #COLDHEART loading... https://t.co/VgZiUpdkWq",367,0
1375787176831647744,"2021-03-27T12:29:58Z","Hi @Exeedme @Poolz__ @bepronet   What do you think about we organise  a pool Crypto party all together on #tacoswap   Join us : https://t.co/3GeT48f0tm  #crypto #defi #dex #eth #tacoswaptothemoon #tacotoken🌶",1218,0
1375787162042503169,"2021-03-27T12:29:54Z","Just sold for 0.2 eth!! thank you to...  @Motokovault https://t.co/hjcHMRqUP7",12,0
1375787161673375762,"2021-03-27T12:29:54Z","Win #NFT worth ETH!  To WIN #Giveaway You MUST:    1.) Follow @degenasaurus   2.) Retweet the tweet BELOW ⬇️ + comment it  3.) OPTION -&gt; Join discord: https://t.co/alAVVDlyQu  NFT: https://t.co/l37pUrR6Y3  Wish luck!! 🦖♥️🛸👫  @coinkit_ mon 45 2000 BTC  https://t.co/wFeOut8N85",310,0
1375787161514090498,"2021-03-27T12:29:54Z","*** GIVEAWAY ***  LIKE 👍 and RETWEET 🔁 this tweet for a chance to win a huge, fat altseason with green candles that will blow you away! $BTC $ETH $LINK $ADA $VET https://t.co/3SlSYcLS7c",480,0
1375787156728332291,"2021-03-27T12:29:53Z","RT @JJcycles: It is time we start the Ethereum Bullmarket. How high do you think this one can go?  $ETH https://t.co/0kVkxOTHOI",436,0
1375787153205161985,"2021-03-27T12:29:52Z","Talking about cryptocurrency adoption! 💪⚡  #MiamiHeat to play in FTX Arena after county approves $135M deal with crypto exchange  https://t.co/ckVG3NaPAh  $BOLT $ZIL $BNB $ETH #Bitcoin #Ethereum #Blockchain https://t.co/nqqp7yviAE",5,0
1375787138327965697,"2021-03-27T12:29:49Z","Hi @Exeedme @Poolz__ @bepronet   What do you think about we organise  a pool Crypto party all together on #tacoswap   Join us : https://t.co/3GeT48f0tm  #crypto #defi #dex #eth #tacoswaptothemoon #tacotoken🌶",1218,0
1375787138013356040,"2021-03-27T12:29:49Z","@mickalamasse1 @Exeedme @Poolz__ @bepronet Come on @exeedme @poolz__ @bepronet  #cryptocurrency  #defi #dex #eth #tacoswaptothemoon #tacotoken🌶🌶🌶",21,0
1375787136985731076,"2021-03-27T12:29:49Z","$POODL comunity grow in 2 weeks to 4600 telegram members @poodl . And over 7000 holders. What is comming next? 🚀 🐩🌕 @POODLETOKEN  $HOGE $PIKA $TOSA $DOGE $BTC $ADA $ETH #bitcoin https://t.co/tKToQLii3E",32,0
1375787136801120258,"2021-03-27T12:29:48Z","Finally, I dropped my first NTF piece! Big thanks to @suprfan for helping me to mint my first piece and other anonymous people who sent me eth.  #NFT #nftcollector #nftart #NFTCommunity #NFTartists #NFTartist  https://t.co/waTxDtHm5M",127,0
1375787132124418053,"2021-03-27T12:29:47Z","Talking about cryptocurrency adoption! 💪⚡  #MiamiHeat to play in FTX Arena after county approves $135M deal with crypto exchange  https://t.co/ckVG3NaPAh  $BOLT $ZIL $BNB $ETH #Bitcoin #Ethereum #Blockchain https://t.co/nqqp7yviAE",5,0
1375787131126181890,"2021-03-27T12:29:47Z","We are excited to announced that #BTE are now listed on the @blockspot_io🥳  Details👉 https://t.co/68bgmwEJh3  #blockchain #Listing #crypto #ETH #DeFi https://t.co/ud1rqXLAgb",43,0
1375787118664900611,"2021-03-27T12:29:44Z","👇 Drop Your $ETH Address 👇  🟩 Celebrating $BASE Pump 🚀 👉 Remember to Follow with 🔔 &amp; join telegram link below in comments  💎💎 100x LETSGOO 💎💎 https://t.co/VqKi9RoSvP",170,0
1375787098385620993,"2021-03-27T12:29:39Z","New Drop !!! Reserve price 0.60 ETH Bidding started now !!! . . #NFT #NFTs #nftcollector #NFT #blockchain #Ethereum   Check out this artwork by Paschamo on @withFND! 🌐 @unblockgallery   https://t.co/We6XmtMNjt https://t.co/L9V2CJpuOQ",49,0
1375787093050458114,"2021-03-27T12:29:38Z","Hi @Exeedme @Poolz__ @bepronet   What do you think about we organise  a pool Crypto party all together on #tacoswap   Join us : https://t.co/3GeT48f0tm  #crypto #defi #dex #eth #tacoswaptothemoon #tacotoken🌶",1218,0
1375787090693218304,"2021-03-27T12:29:37Z","Cristiano Ronaldo bought for 2.786 ETH (4702.38$) on the secondary market   Season: 2020-2021 Level: 5 Serial: 39/100 Price: 4702.38$  ⚽ Sorare: https://t.co/BTEtRTLyFN  📊: https://t.co/XsSEdqbpLe  #Sorare #NFT #Ethereum #FantasyFootball",0,0
1375787086117232647,"2021-03-27T12:29:36Z","Talking about cryptocurrency adoption! 💪⚡  #MiamiHeat to play in FTX Arena after county approves $135M deal with crypto exchange  https://t.co/ckVG3NaPAh  $BOLT $ZIL $BNB $ETH #Bitcoin #Ethereum #Blockchain https://t.co/nqqp7yviAE",5,2
1375787074297585667,"2021-03-27T12:29:34Z","🚀 Safe The Children  🔷 Token Symbol : STC  🔷 Contract: https://t.co/nk3qsF2PJV  🔷 Website: https://t.co/4y0g7dqswM  🔷 Whitepaper: https://t.co/PHPZI4dbyR  🔷 Presentation Video : https://t.co/Mycfov12IU  #Safe_Childrens #Bitcoin  #Binance #BinanceSmartChain #DEFI  #BTC #ETH",14721,2
1375787066697596929,"2021-03-27T12:29:32Z","30 day EVIX: 86.1966 ETH/USD vwap: $1,674.14 04/16 expiry volume: $1,385,472.13 04/30 expiry volume: $5,903,161.75 Current time: 12:29:07",0,0
1375787064713601031,"2021-03-27T12:29:31Z","🔸 New Listing🔸   #BKEX will list #DRYCAKE @DryCakeSwap🚀 🚀  - Trading pair: DRYCAKE/USDT - Trading time: 20:00 on Mar 29 (UTC+8)  🔹 🔹 More details: https://t.co/kC2IIebfTT  #Bitcoin #ETH #BKK #Blockchain https://t.co/w8CHyKXaUD",2480,0
1375787054395650049,"2021-03-27T12:29:29Z","$14 million $REAP coins are up for grabs🚀  💸💸Legit Airdrop💰💰  Earn your share of 7M $REAP tokens Airdrop by completing easy social tasks.  Join: https://t.co/kugDOvWzoq  #Bitcoin #BTC #Doge #TRX #ETH ____  @rocketbotpro airdrop 0.5 merge 50  #CTBot Adrop Avg 16 CNS 70",51,0
1375787051891707905,"2021-03-27T12:29:28Z","😎The most used #BitcoinSV  wallet worldwide Support #BSV, #BTC, #ETH wallet management                              #DotWallet  Pro has been online in App Store and Google Play now!  📱Download the app https://t.co/aHMXPAVaGh https://t.co/N2kfGCUmuy",104,0
1375787038541148162,"2021-03-27T12:29:25Z","No need to spend your own money to trade #cryptocurrency. Over 10K users won crypto rewards on @latokens last week. It's the best way to join the financial revolution. Start by earning a share of $100K in CLIQ airdrop: https://t.co/hcbKNwUbSi #Bitcoin #ETH #Citi #AON #LATOKEN",0,0
1375787015166328833,"2021-03-27T12:29:19Z","💧Poplink Oracles Airdrop 💧  🏆 Task:          ➕  50 POPO (~$50)  👨‍👩‍👧 Referral:  ➕  15 POPO (~$15)  🔛  Airdrop Link &amp; Information: https://t.co/DS6g34KhFp  #cryptocurrency #Crypto #Bitcoin  #BSC #BinanceSmartChain #Ethereum #ETH #Airdrop #bounty #POPO #Poplink",6788,0
1375787005414674434,"2021-03-27T12:29:17Z","Hi @Exeedme @Poolz__ @bepronet   What do you think about we organise  a pool Crypto party all together on #tacoswap   Join us : https://t.co/3GeT48f0tm  #crypto #defi #dex #eth #tacoswaptothemoon #tacotoken🌶",1218,0
1375787004647067650,"2021-03-27T12:29:17Z","$PIKA ARMY WHERE U AT??!  #CRYPTO $PIKA #DEFI #CRYPTODEFI $POODL $HOGE $FROGE $TOSA $DOGE $RAINI $RUMPY $RFI $ETH $BTC $RAINI #POKEMON #PICKACHU https://t.co/4vku85lj1w",17,0
1375787003053232128,"2021-03-27T12:29:17Z","Few stills of my 1st drop for my new animated collection 👀   - Childhood SP | Collection -   1st drop is the ETH version ! 🎮  As always : Cinema 4D / Octane Render  https://t.co/oo6eAsKj35  #nftart #NFTCommunity #nftcollector #NFTcollectibles #cryptoart #Gameboy #NFTartist https://t.co/glL5sL8eN2",3,0
1375786999098044428,"2021-03-27T12:29:16Z","$GOLD!EARLY AF!!! 1 million MC! Earn passive income on your fag bag, very low supply as well $FEG $nu $al $link $btc $eth $nu $algo $grt $ltc $alpha $ren $band $cvc $dnt $maker $fil $dash $ocean $knc $bnb $oxt $bat $doge $bnt $zrx $aave $xtz $xlm $xrp $eos $zrx $ada $lrc $dot https://t.co/VCVRk6WgWj",3,0
1375786997273485319,"2021-03-27T12:29:15Z","To celebrate our launch, and to give back to the community, we have decided to give away:  ⭐️ 1 Limited edition non fungible ape ⭐️ 500$ in $ETH  To enter: 📌 Retweet  📌 Follow @nonfungibleapes  📌 Tag 1 friend  Ends 27th of March, best of luck! #NFT #nfts #giveaway #giveaways https://t.co/zvEizZpeo5",541,0
1375786994320748546,"2021-03-27T12:29:14Z","👇 Drop Your $ETH Address 👇  🟩 Celebrating $BASE Pump 🚀 👉 Remember to Follow with 🔔 &amp; join telegram link below in comments  💎💎 100x LETSGOO 💎💎 https://t.co/VqKi9RoSvP",170,0
1375786990520664066,"2021-03-27T12:29:14Z","RT @XRP_Productions: ⛽️  BREAKING NEWS  ⛽️  #ETH #XRP #XRPtheStandard #FlareNetworksIsComing  https://t.co/cNuwjUWW3C",414,0
1375786990470189058,"2021-03-27T12:29:14Z","Wont be surprise if $UBX hit major exchanges soon with these daily volume and recognition gaining these past few days , weeks , and months ! Lets not forget the future exchange very first DAG !   $TEL $XRP $BTC $BNB $ETH",37,0
1375786982094352386,"2021-03-27T12:29:12Z","Astro Punk #100 Special Edition - Marz Apollo   Who will start the bidding for this rare shiny #100 astro punk 🚀 Not sure they can get better than this 🔥  Just 0.1 $eth 🛸  https://t.co/igLaJnwcQS  #nft #nfts #nftdrop #nftcollectors https://t.co/ZxxB2b8dcS",12,0
1375786981175726087,"2021-03-27T12:29:11Z","Hot off the press: 1st time interaction between @WesternUnion and hall of fame legend @telcoin_team ! The #remitrance game is heating up! $TEL is gonna knock out #WU when V3 rolls out!  @Benaskren @jakepaul $BTC $ETH #Telcoin #Telfam #MEMES #BenAskren #hilariousmemes #NeverForget https://t.co/I6gmYXTXJB",30,0
1375786976520065030,"2021-03-27T12:29:10Z","$GOLD!EARLY AF!!! 1 million MC! Earn passive income on your fag bag, very low supply as well $FEG $nu $al $link $btc $eth $nu $algo $grt $ltc $alpha $ren $band $cvc $dnt $maker $fil $dash $ocean $knc $bnb $oxt $bat $doge $bnt $zrx $aave $xtz $xlm $xrp $eos $zrx $ada $lrc $dot https://t.co/VCVRk6WgWj",3,1
1375786972652961795,"2021-03-27T12:29:09Z","Mine your own Pi crypto currency for FREE on your phone! It only takes less than 10 seconds per day!  Receive one free 1π through this link: https://t.co/fNb3zRHL7i  $ETH #ETH $BTC #BTC $DOGE #DOGE $XRP #XRP $XLM #XLM $LTC #LTC $ETN #ETN $GRT #GRT $DASH #DASH $DOT #DOT #coinbase",0,0
1375786970715152385,"2021-03-27T12:29:09Z","👇 Drop Your $ETH Address 👇  🟩 Celebrating $BASE Pump 🚀 👉 Remember to Follow with 🔔 &amp; join telegram link below in comments  💎💎 100x LETSGOO 💎💎 https://t.co/VqKi9RoSvP",170,0
1375786966927691777,"2021-03-27T12:29:08Z","Quants Network got granted access to the entity of global systems of Finance , Governments, System Integrators,  Hardware manufacturers and Telecoms within 2 years since inception  $QNT  $xrp $link $eth $btc https://t.co/l27vf64tXf",17,3
1375786952885145603,"2021-03-27T12:29:05Z","#Hot #Holo #Holochain Rocket   #cryptocurrency #Bitcoin #btc #ETH #ADA #XRP #Doge #PAC #SHA #HBAR #BTT #TEL #ONE #STMX #NPXS #GLM #UNI #Storj #EOS #VET #TRX #XVG #ftm #FET #NEO #ZIL #BAT #ORN #ONT #RVN #RDD https://t.co/x30Z2hnPEM",31,3
1375786948128833538,"2021-03-27T12:29:03Z","Hi @Exeedme @Poolz__ @bepronet   What do you think about we organise  a pool Crypto party all together on #tacoswap   Join us : https://t.co/3GeT48f0tm  #crypto #defi #dex #eth #tacoswaptothemoon #tacotoken🌶",1218,3
1375786931569582084,"2021-03-27T12:29:00Z","👇 Drop Your $ETH Address 👇  🟩 Celebrating $BASE Pump 🚀 👉 Remember to Follow with 🔔 &amp; join telegram link below in comments  💎💎 100x LETSGOO 💎💎 https://t.co/VqKi9RoSvP",170,3
1375786930949005315,"2021-03-27T12:28:59Z","@RoganX4 @BenHaleyMade Maybe I can help with that ETH. Do you have those addys in Metamask, under the same seed? If so, try this: in another browser, install Metamask, import your seed words, then add a new account. The way MM works is by adding a derivate acc from your seed.",2,0
1375786929619230724,"2021-03-27T12:28:59Z","RT @BitAllstars: Shill me your favorite NFTs on the market right now 👀  My ETH wallet is ready! Let's grow this community! 💪  #NFT #NFTs #N…",179,0
1375786927752839169,"2021-03-27T12:28:59Z","Welcome to massive Q DAO airdrop!   1. go now to telegram https://t.co/COyXgODY1z   2. Stay in telegram chat and wait announcement.  3. HOLD this gem until 10x   (soon - QDAO launch cross-chain for BSC, Polkadot and ETH)",4254,0
1375786927463354374,"2021-03-27T12:28:59Z","Since this the launch of @dypfinance back in Dec 2020 looks like Liquidity Providers have earned $11.4 Million dollars in $ETH just from Staking!  Also the project is paying out is $ETH as well and so far 6.2K $ETH have been rewarded.   #DeFi #Crypto #Cryptocurrency #BitcoinTalk https://t.co/zis10XPcL7",1802,0
1375786927018946563,"2021-03-27T12:28:58Z","Since equal will be listed on pancakeswap equal only knows one direction and its up to the sky 🚀🚀 #equal #bnb @Equal_Network #crypto #btc #eth #EQL $EQL @Bitboy_Crypto @Crypto_infofr @CryptoDiffer @CryptoFinally @TheCryptoZombie https://t.co/PqHGYDK3eK",3,1
1375786924410036224,"2021-03-27T12:28:58Z","*** GIVEAWAY ***  LIKE 👍 and RETWEET 🔁 this tweet for a chance to win a huge, fat altseason with green candles that will blow you away! $BTC $ETH $LINK $ADA $VET https://t.co/3SlSYcLS7c",480,1
1375786917179109386,"2021-03-27T12:28:56Z","$14 million $REAP coins are up for grabs🚀  💸💸Legit Airdrop💰💰  Earn your share of 7M $REAP tokens Airdrop by completing easy social tasks.  Join: https://t.co/kugDOvWzoq  #Bitcoin #BTC #Doge #TRX #ETH ____  @rocketbotpro airdrop 0.5 merge 50  #CTBot Adrop Avg 16 CNS 70",51,1
1375786915161534467,"2021-03-27T12:28:56Z","Lets join and get reward   @shaakrw  @bacoteuuyy  @tuyulajib1   #Safe_Childrens #Bitcoin  #Binance #BinanceSmartChain #DEFI  #BTC #ETH https://t.co/f8DA7Ph6Cn",0,0
1375786912707919873,"2021-03-27T12:28:55Z","#Hot #Holo #Holochain Rocket   #cryptocurrency #Bitcoin #btc #ETH #ADA #XRP #Doge #PAC #SHA #HBAR #BTT #TEL #ONE #STMX #NPXS #GLM #UNI #Storj #EOS #VET #TRX #XVG #ftm #FET #NEO #ZIL #BAT #NEO #NULS https://t.co/w1DQXLfUQN",37,0
1375786909662736390,"2021-03-27T12:28:54Z","🚀 Safe The Children  🔷 Token Symbol : STC  🔷 Contract: https://t.co/nk3qsF2PJV  🔷 Website: https://t.co/4y0g7dqswM  🔷 Whitepaper: https://t.co/PHPZI4dbyR  🔷 Presentation Video : https://t.co/Mycfov12IU  #Safe_Childrens #Bitcoin  #Binance #BinanceSmartChain #DEFI  #BTC #ETH",14721,0
1375786909092302848,"2021-03-27T12:28:54Z","#DeFi #BKC #eth2 #BucksCake  ANNOUNCEMENT!  Dear BucksCake's community members!  The exact date of BKC listing on Uniswap set for 04/20/2021!  2 days before it, the exact opening time of the trading pair BKC/ETH on Uniswap...  More at https://t.co/RQPMhjazG2 https://t.co/VjtBbXBA1t",2855,0
1375786908236840961,"2021-03-27T12:28:54Z","Mark W. Yusko, CEO of Morgan Creek Capital Management, believes you should own $VET.  Follow the smart money 💰  #VeChain $VET #VeFam $BTC $ETH $ADA $XRP $XLM $DOGE  $DOT $LINK $THETA $AAVE https://t.co/AoJvSiDeQy",224,0
1375786894236078090,"2021-03-27T12:28:51Z","So fun creating 'Cyberdog'!!! for sale on  @withFND!  #nftart #crypto #Bitcoin #ETH #CyberTruck #Tesla  #Dogecoins  Cyberdog By Ryan Church 2021 Personal Work https://t.co/FvejLBAwQ0 https://t.co/hVCM7LOOFC",225,0
1375786893128957954,"2021-03-27T12:28:50Z","Hi @Exeedme @Poolz__ @bepronet   What do you think about we organise  a pool Crypto party all together on #tacoswap   Join us : https://t.co/3GeT48f0tm  #crypto #defi #dex #eth #tacoswaptothemoon #tacotoken🌶",1218,0
1375786892801769475,"2021-03-27T12:28:50Z","*** GIVEAWAY ***  LIKE 👍 and RETWEET 🔁 this tweet for a chance to win a huge, fat altseason with green candles that will blow you away! $BTC $ETH $LINK $ADA $VET https://t.co/3SlSYcLS7c",480,0
1375786886812200965,"2021-03-27T12:28:49Z","RT @MoneyNostra: What do you think happens when Ethereum ( $ETH ) start to burn tokens this summer? 🤑",56,0
1375786866725765122,"2021-03-27T12:28:44Z","ETH, BTC, SSI, DAO, DeFi, Web3  I don't think there's any competition between these. To build the decentralized web we need all of these combined and a few more technologies.",1,0
1375786865215737864,"2021-03-27T12:28:44Z","🚀 Safe The Children  🔷 Token Symbol : STC  🔷 Contract: https://t.co/nk3qsF2PJV  🔷 Website: https://t.co/4y0g7dqswM  🔷 Whitepaper: https://t.co/PHPZI4dbyR  🔷 Presentation Video : https://t.co/Mycfov12IU  #Safe_Childrens #Bitcoin  #Binance #BinanceSmartChain #DEFI  #BTC #ETH",14721,0
1375786861839282177,"2021-03-27T12:28:43Z","💧YetuBit Airdrop 2nd Round💧  🏆 Task:          ➕  25 YETU (~$20)  👨‍👩‍👧 Referral:   ➕  5 YETU (~$4)  🔛  Airdrop Link &amp; Information: https://t.co/ZoGw3AR71I  #cryptocurrency #Crypto #Bitcoin  #BSC #BinanceSmartChain #Ethereum #ETH #Airdrop #bounty #YetuBit #YetuSwap #YETU",4530,0
1375786847104864258,"2021-03-27T12:28:39Z","Crypto news and market update!!  See why I'm bullish on Chainlink $LINK and Ethereum $ETH for end of March  New video: https://t.co/8Pi4aNZqLd",865,0
1375786839731175437,"2021-03-27T12:28:38Z","WE MADE IT TO 200+ FOLLOWERS!!!!! 🎉🎊🍾🥳🍻🥂🙌 GO SHIBArmy GO 🚀🚀🚀🚀🚀🚀🚀🚀🚀🚀  #SHIB #ShibaSwap #SHIBArmy #hodlSHIB $SHIB #PowerToThePeople #SHIBNavy #BTC #LTC $ETH #ResistanceIsFutile @ElonMusk #Bitcoin #DogsOfTwitter #Binance $BNB $ADA   Telegram: https://t.co/tolXXYvXAs https://t.co/AeW66RzZkx",15,0
1375786838401679362,"2021-03-27T12:28:37Z","1SG Exchange Airdrop Platform: ETH  Reward: 100 1SG ($300) Referral Reward: 1 1SG ($3) Complete all tasks  Note: you must refer minimum of 5 members to the campaign, goodluck!  Distribution: May 16, 2021  1. Retweet + Like  #CTBot Adrop Ram 500 GO 40 https://t.co/MSow4fSP9Q",38,0
1375786836870770688,"2021-03-27T12:28:37Z","@ItsAdamtastic If they have the ETH, sure. If not, retweets are free. 😉",1,0
1375786833989148674,"2021-03-27T12:28:36Z","🚀 @LienFinance - a protocol for creating options and stablecoins out of eth   Love the idea  #DeFi #ethereum #options #idol #CTBot Adrop RAM 1.1 trx 50 https://t.co/tLn9T3z5cE",46,0
1375786814766780416,"2021-03-27T12:28:32Z","@Loopifyyy Check out this #NFT for sale on Mintable! Pick up 'Temple in the Jungle #0002' before its swooped up! listed for 0.8 eth on @mintable_app    https://t.co/GAenNVrFiE",0,0
1375786813005176833,"2021-03-27T12:28:31Z","101x $POODL comming to your charts🚀🚀🐩🌕  HOODL the $POODL  Yesterday listed on @WhiteBit6  NEXT -&gt; Charity @POODLETOKEN   $HOGE $PIKA $TOSA $DOGE $BTC $ADA $ETH https://t.co/USLtw6Sn1H",79,0
1375786799792971778,"2021-03-27T12:28:28Z","GOD IS A SCIENTIST  1 of 1 • Now Available for Ξπ  https://t.co/HofOyzTISU  6400x8000  only on @KnownOrigin_io  Art by @ezzyland   #CryptoArt #NFT #CryptoArtist #ETH #NFTCommunity #ArtistsOnTwitter https://t.co/mMuFFGxI6i",170,0
1375786797695967235,"2021-03-27T12:28:28Z","Hi @Exeedme @Poolz__ @bepronet   What do you think about we organise  a pool Crypto party all together on #tacoswap   Join us : https://t.co/3GeT48f0tm  #crypto #defi #dex #eth #tacoswaptothemoon #tacotoken🌶",1218,0
1375786788745265153,"2021-03-27T12:28:25Z","$ETH's versatility as an asset is truly awesome.  - Used to pay fees (burned w/ 1559) - Held as a store of value - Internet bond w/ staking - Trustless collateral in DeFi - Powers the NFT economy - Used as money inside &amp; outside of DeFi/NFTs  And more to come in the future!",404,0
1375786786589454338,"2021-03-27T12:28:25Z","🔥We have started random global airdrop of 100,000 NFTs to single wallet ETH address 🚀 USDT-NFTs is listed on Uniswap  🚀 The contract address: 0x6599fc3e77cbfa6f6e9cac605a30b1e78827eba0  💰 Holding more NFTs makes you richer  🚀Like、Retweet &amp; Tag 3 friends  #NFTs #NFT #AIRDROP https://t.co/CMUC0Q0TXd",854,0
1375786779026972675,"2021-03-27T12:28:23Z","We are excited to announced that #BTE are now listed on the @blockspot_io🥳  Details👉 https://t.co/68bgmwEJh3  #blockchain #Listing #crypto #ETH #DeFi https://t.co/ud1rqXLAgb",43,0
1375786773184450561,"2021-03-27T12:28:22Z","@BullyEsq Maybe she’s a ETH fan girl?",0,0
1375786772337201156,"2021-03-27T12:28:22Z","#bitcoin headed to $38k in the short term! Did you take profit? 🤔  Had a dream last night that #btc was at $38k   Signals: https://t.co/A8nrhLWVD2  $btc $ada #cardano $eth #Ethereum #tron $trx #trx #bnb #bsc $bnb $bsc $alice $stmx $btt #btt $chz $xrp #Turkey $theta $fil https://t.co/dXojwQlLT8",3,1
1375786771028525058,"2021-03-27T12:28:21Z","#BTC Price: $54158 #ETH Price: $1675 #LTC Price: $179  Next update in 10 minutes Last updated: 8:28:21.05",0,0
1375786765890379776,"2021-03-27T12:28:20Z","@benohanlon I read through SingularityNets blog post in regards to it and it seems that they’re keeping some ETH aspects to it. I may have miss read.",2,0
1375786761058590721,"2021-03-27T12:28:19Z","Check out my #NFT collection!  https://t.co/qBKaoNMK8Y  #nft #nftcollectors #cryptoartist #cryptoart #blockchain #Metaverse #ETH #ethereum #digitalart #blockchainart #marvel #dc #comics #willconrad #bitcoin #nftart #ElonMusk #SpaceX https://t.co/8OB1ozFlKo",4,0
1375786756956635138,"2021-03-27T12:28:18Z","@davidgokhshtein Please sir, do you not xDAI!? ($STAKE). I know you know.  BSC fees with the decentralization of ETH, a L2 economy that will eventually accumulate hundreds of millions of dollars in liquidity. AGVE and HNY LP incentives on Honeyswap will melt faces. Don't sleep on it.",0,0
1375786754926473218,"2021-03-27T12:28:17Z","https://t.co/lyYSxJ4Ikk This NFT 1/20 giveaway in 24 hours! 💥💥💥  Price 0.1 ETH =$ 165 !!!  🤝🤝🤝Follow me +@NOFF31497209  👍 like  💪 retweet   🤝two friends+ comment with your ETH wallet adress. 🙏🙏🙏 I wish everyone good luck   #NFTartist #rarible #nft  #cryptoart https://t.co/DByKcZhmtA",208,0
1375786750417674242,"2021-03-27T12:28:16Z","We will be giving away $25 in ETH to 1 random  person in 24 hrs! You need to like, Follow US &amp; @BosonProtocol &amp; retweet our pinned tweet.  Goodluck Everybody!",44,0
1375786749067153408,"2021-03-27T12:28:16Z","@cryptoczlowieku @chia_project Yeah for sure. I converted my ETH mining rig by adding some Intel enterprise SSDs but you could simply add SSDs to any home computer, raspberry pi or nuc. Disks are what's most important with Chia unlike GPUs for POW mining. Join the chia keybase group. There's beginner group",0,1
1375786748186345472,"2021-03-27T12:28:16Z","$BTC | LTF Update  The long tool shows my initial plan for this analysis. The purple percentage tool shows the current situation.  $ETH found its resistance so, we may see some pullback for it. With that information, #BTC may also pull back a bit.   I suggest you take profit. https://t.co/m3VjtOMatp https://t.co/tABrEVKKXA",159,1
1375786744323440640,"2021-03-27T12:28:15Z","@Crypto_Gambit_ Where can I buy ID? Or is the only way to swap eth for ID?",1,0
1375786727168704515,"2021-03-27T12:28:11Z","*** GIVEAWAY ***  LIKE 👍 and RETWEET 🔁 this tweet for a chance to win a huge, fat altseason with green candles that will blow you away! $BTC $ETH $LINK $ADA $VET https://t.co/3SlSYcLS7c",480,0
1375786724715073539,"2021-03-27T12:28:10Z","THIS IS IT ! 🔥☄️  $TACO #TacoToken 🌶   Now live on #Coingecko, up 37% did not even get started yet. Vampires attack all week-end long.  Target: $15  #DeFi 🚀  $sol $eth $link $hot $one $ada $btc $bnb $lina $vra $omi $uni $cake $sushi $xrp $luna $cro $aave $avax $chz $rsr $ankr https://t.co/z45DqRjjp5",3,0
1375786722886225925,"2021-03-27T12:28:10Z","@TheBlock__ ETH is significantly better investment than NFTs!",0,0
1375786718306045952,"2021-03-27T12:28:09Z","We are excited to announced that #BTE are now listed on the @blockspot_io🥳  Details👉 https://t.co/68bgmwEJh3  #blockchain #Listing #crypto #ETH #DeFi https://t.co/ud1rqXLAgb",43,0
1375786716133535747,"2021-03-27T12:28:08Z","Top 30 Trending Searches on @coingecko from 20 - 26 Mar 2021.  Welcome newcomers: @ecomi_ @VesperFi @dentcoin @PundiXLabs @UniMex_Network @bittorrent  $OMI $VSP $DENT $NPXS $UMX $BTT $BTC $ETH $SUPER $MATIC $CAKE $ERN $CHAIN $SPI $ONE $CHZ $OVR $RAMP $THETA $AUDIO $COTI $CFI https://t.co/YKXdN5bvw6",784,0
1375786713994395648,"2021-03-27T12:28:08Z","imagine you had to pick just one token  to create liquidity pairs against  which people may hold for years  you'd want it to be ubiquitous, desirable, valuable with minimal dependencies, and 100% un-ruggable  there's only one choice for that kind of decentralized commerce: $ETH https://t.co/Gy6Kx4uUP1",104,0
1375786703135330306,"2021-03-27T12:28:05Z","🔥I will give $80USDT to 3 Random Followers who retweet this tweet in 24 hours 💰Just Like and Retweet 💰Follow @NFTs_Group  💰Turn notifications on🔔 💰Tag Your 5 Friends + #NFTs 🚀Good luck The more you share, the more likely you win. Let's play!  Leave your ETH wallet address https://t.co/MOwBkJ2nCC",876,0
1375786680800604160,"2021-03-27T12:28:00Z","#BItcoin is over 50k now.. It's getting expensive lol, but you can still rack up some free #BTC with this awesome slot game, and yes. i said Free.. Thank me later --&gt; https://t.co/LWmEEDyMFK #Crypto  #ETH #Doge #Slots #Drip #BTCdrip #cryptocurrencies https://t.co/YLbv210MA8",1,1
1375786677159952387,"2021-03-27T12:27:59Z","Aidan the little astronaut is back in his Journey💖 https://t.co/9zgX1tPK2v Reserve at 0.35 ETH The last artwork Red Thread was sold to  @JaredSturman23 💖  #nftcollectors #NFTartists #NFT #nftart #NFTCommunity #Cryptoart https://t.co/xGZAf5w7P9",136,1
1375786675851304960,"2021-03-27T12:27:59Z","$DYP liquidity providers earned 6,533.78 #Ethereum worth $10,616,674 since launch!  Earn up to 301.35% APY 💰  If you want to start earning #ETH you just need to join one of our liquidity pools: DYP-ETH, DYP-WBTC, DYP-USDC, and DYP-USDT https://t.co/zxyI0V2tnr  #DeFi #Uniswap https://t.co/acaV7p6h3G",406,1
1375786672999202827,"2021-03-27T12:27:58Z","Welcome to massive Q DAO airdrop!   1. go now to telegram https://t.co/COyXgODY1z   2. Stay in telegram chat and wait announcement.  3. HOLD this gem until 10x   (soon - QDAO launch cross-chain for BSC, Polkadot and ETH)",4254,1
1375786665545900042,"2021-03-27T12:27:56Z","We are excited to announced that #BTE are now listed on the @blockspot_io🥳  Details👉 https://t.co/68bgmwEJh3  #blockchain #Listing #crypto #ETH #DeFi https://t.co/ud1rqXLAgb",43,1
1375786661246734344,"2021-03-27T12:27:55Z","No need to spend your own money to trade #cryptocurrency. Over 10K users won crypto rewards on @latokens last week. It's the best way to join the financial revolution. Start by earning a share of $100K in CLIQ airdrop: https://t.co/y4wKhGWXwm #Bitcoin #ETH #Citi #AON #LATOKEN",0,0
1375786642657644548,"2021-03-27T12:27:51Z","Hi @Exeedme @Poolz__ @bepronet   What do you think about we organise  a pool Crypto party all together on #tacoswap   Join us : https://t.co/3GeT48f0tm  #crypto #defi #dex #eth #tacoswaptothemoon #tacotoken🌶",1218,0
1375786634243760135,"2021-03-27T12:27:49Z","No need to spend your own money to trade #cryptocurrency. Over 10K users won crypto rewards on @latokens last week. It's the best way to join the financial revolution. Start by earning a share of $100K in CLIQ airdrop: https://t.co/6Q7N8bDhmI #Bitcoin #ETH #Citi #AON #LATOKEN",0,0
1375786630850691074,"2021-03-27T12:27:48Z","@stone_toss @EveryAmogus 2 ETH for an nft, and considering how much fame you have, it is a laughably small amount, you got scammed my guy",0,0
