"ID","created_at","text","like_count","rt_count"
1376678047626240007,"2021-03-29T23:29:58Z","OMG 😱  Day 1 on CMC   TacoToken🌶  is Top pair on #coinmarketcap    #tacoswaptothemoon #cryptocurrencies #tacoswaptomars #defi #eth #ADA #ethereum #crypto @bepronet @Poolz__ @Xed",1180,0
1376678029934489601,"2021-03-29T23:29:54Z","Love $qlc. Daily needs to close above 208 sats. $btc $eth #Defi https://t.co/JIMSjT49eQ",3,0
1376678012897271809,"2021-03-29T23:29:50Z","@binance Smart move. Why use an affordable working protocol when you can pay $50+ in fees to use #ETH?",0,0
1376678000339644416,"2021-03-29T23:29:47Z","💰What’s your #ETH wallet address?  🚀Don’t ask why, just drop it below👇  🚀Like、Retweet &amp; Tag ALL U CAN  🚀 USDT-NFTs has been listed on Uniswap！  🚀 The contract address: 0x6599fc3e77cbfa6f6e9cac605a30b1e78827eba0  #NFTs #NFT #AIRDROP #UNISWAP https://t.co/H29ZBOR0aL",1386,0
1376677997487534084,"2021-03-29T23:29:46Z","They call eth VOODOO wen u in tune with Nature Forces WHOM ARE DA ANGELS of ELOHIYM get in tune with ELOHIYM whom Dwell in MDU NTR muurs FORGIVE lest u Not Be FORGIVEN for YO CRIMES 1st AGAINST FALLEN HUMANITY",0,0
1376677993771364354,"2021-03-29T23:29:45Z","$DSLA Startup on Gate İo 👀SMALL Startup 🔥Big Gain (NIA)  https://t.co/MZsZOSUaQQ  $btc $eth $ltc #eth #Ethereum #DeFi #NFT #BSC #blockchain #Bitcoin #ALTSEASON $usdt $ksm $bec $pnt $ast $nft $mtl $mana $mkr $chz $doge $hot $win $trx $jst $muse $etc $flow $gto $nbs $bts $iost https://t.co/yJ1UowiSX3",7,0
1376677992068304897,"2021-03-29T23:29:45Z","RT @ProBit_Exchange: #DFI will be listed on #ProBitExchange March 31 with an ETH market @defiqa3 #DeFi  https://t.co/2ZqO1n8Ezf https://t.c…",582,0
1376677987098234882,"2021-03-29T23:29:44Z","We will randomly collect ETH wallet addresses every day and arrange to send the airdrops of 100,000 NFTs until the end of Q2. Those who haven't received NFTs don't need to worry, because it will always be your turn. https://t.co/3APkHz0uO3",886,0
1376677983583232001,"2021-03-29T23:29:43Z","Welcome to massive Q DAO airdrop!   1. go now to telegram https://t.co/COyXgODY1z   2. Stay in telegram chat and wait announcement.  3. HOLD this gem until 10x   (soon - QDAO launch cross-chain for BSC, Polkadot and ETH)",4254,0
1376677965866676225,"2021-03-29T23:29:39Z","There will be lots of opportunities to buy $NU  Sooner the better$$  @Coinbase @OKEx $btc $eth $ltc $bch $ada $yfi $atom $comp $link $xlm $dash $band  $knc $uni $wbtc $matic $atom $eos $knc #xrp $Lrc $algo $bal #xrpcommunity $eth $ltc $xtz $uma $yfi $nmr $mkr $zec $grt #Bitcoin",5,0
1376677953225035784,"2021-03-29T23:29:36Z","Why should journey of $HOT end up with TOP 10 of the market?  No mining No fee Instant transaction  #Holochain is not #blockchain. It has superior tech compared to $BTC $ETH $DOT.  Think outside the blocks! https://t.co/JLcOEb3xxX",599,0
1376677940382031873,"2021-03-29T23:29:33Z","No need to spend your own money to trade #cryptocurrency. Over 10K users won crypto rewards on @latokens last week. It's the best way to join the financial revolution. Start by earning a share of $100K in CLIQ airdrop: https://t.co/Fh5j424xyl #Bitcoin #ETH #Citi #AON #LATOKEN",0,0
1376677938251190272,"2021-03-29T23:29:32Z","Welcome to massive Q DAO airdrop!   1. go now to telegram https://t.co/COyXgODY1z   2. Stay in telegram chat and wait announcement.  3. HOLD this gem until 10x   (soon - QDAO launch cross-chain for BSC, Polkadot and ETH)",4254,0
1376677933704753157,"2021-03-29T23:29:31Z","30 day EVIX: 87.4904 ETH/USD vwap: $1,801.31 04/16 expiry volume: $1,688,930.50 04/30 expiry volume: $6,598,845.80 Current time: 23:29:05",0,0
1376677931204931585,"2021-03-29T23:29:30Z","You don't need: - A bridge network - On demand liquidity - Messaging layer - Software licenses - Mercenary partnerships - $10B treasury &amp; ongoing fundraising - A new token in each Tx - Bankers &amp; IMF - SEC lawsuit  You just need @ethereum.  Simple. Superior. 🌐🔐📡 $ETH $USDC $V https://t.co/acAp2b74ib",1230,0
1376677927752925188,"2021-03-29T23:29:30Z","We will randomly collect ETH wallet addresses every day and arrange to send the airdrops of 100,000 NFTs until the end of Q2. Those who haven't received NFTs don't need to worry, because it will always be your turn. https://t.co/3APkHz0uO3",886,0
1376677923424460804,"2021-03-29T23:29:29Z","@OXCChainNFT Really Awesome project...i am interested join this project ❤️ @jannatfarju   @AnowarH37276003 @Farjana85138184  My BSC/ETH  Address: 0x66286343313cD333F1a5f8B1648C799F73eF0624  Hmmm .... I trade PanCakeSwap before March 18, 2021 100 $ done. I hope to be eligible at this airdrop.",28,0
1376677898153644032,"2021-03-29T23:29:23Z","Even though $BNB is the real king of #DeFi, but it doesn’t mean that $ETH is not important. This is your chance to put your $ETH to work.   Earn huge APY today by mining the liquidity of BETH/ETH on #LaunchZone PoolX: https://t.co/ixhxYwhpMC $BSCX #BSC  #BankOnBSCX @BinanceChain https://t.co/la5ryNM7aS",233,0
1376677881359654916,"2021-03-29T23:29:19Z","We will be also giving away ETH Waifu #14287 to whoever follows @waifusion and retweets this! Giveaway closes 7PM EST tomorrow! https://t.co/melZVZljGL",79,0
1376677870353932289,"2021-03-29T23:29:16Z","We will randomly collect ETH wallet addresses every day and arrange to send the airdrops of 100,000 NFTs until the end of Q2. Those who haven't received NFTs don't need to worry, because it will always be your turn. https://t.co/3APkHz0uO3",886,0
1376677860908273666,"2021-03-29T23:29:14Z","Just uploaded a new market update video!   Felt a little rusty after not recording for a while and might've rambled a little bit but oh well.  I laid out my plans for $BTC and $ETH. Hope this is helpful! RT's appreciated  https://t.co/pj77z4gHZB",48,0
1376677859981418498,"2021-03-29T23:29:13Z","We will be also giving away ETH Waifu #14287 to whoever follows @waifusion and retweets this! Giveaway closes 7PM EST tomorrow! https://t.co/melZVZljGL",79,0
1376677851831894020,"2021-03-29T23:29:11Z","Former SEC boss coward behind lawsuit against Ripple hired by Crypto Hedge Fund that owns Btc and Eth. I will come after you personally, I will see you in court 👊🇳🇱  YOU ARE COMMON CRIMINAL JAY CLAYTON WHO THINKS YOU CAN DO ANYTHING  https://t.co/Nwb1TQRJIU",243,0
1376677851328606215,"2021-03-29T23:29:11Z","Because CHUBBIE #0 is currently over 30ETH, we will giveaway CHUBBIES #5537 and #1963 (Both Shinies ~$1,500 each)   -to ONE person that retweets this tweet and follows!  Current bid: 69.69 ETH  CHUBBIE #0: https://t.co/NfK8fP1uZP https://t.co/DsIqf9abnz",613,0
1376677850535886850,"2021-03-29T23:29:11Z","RT @Chainlinkjunkie: Everyone hating on #Ethereum lately but what if this is the bottom for $eth $btc pair? 👀🤔 https://t.co/qrUBOtiNCd",67,0
1376677831887970311,"2021-03-29T23:29:07Z","In light of this transparency, some of the shady connections Bill Hinman and Jay Clayton have with organisations directly benefiting from ETH and BTC having verbal clarity especially considering Bill Hinman /2",2,0
1376677830231228417,"2021-03-29T23:29:06Z","$TEL floats like a butterfly and stings like a bee...  #WesternUnion's going down, unlike their high fees!  👊👊👊👊👊👊  Q2 this week. #V3 coming. Time to knock out some sell walls just like the #remittance competition.  #SendMoneySmarter #Telcoin #Telfam #Crypto $BTC $ETH https://t.co/hFo7UIS0Qs",28,0
1376677825923649541,"2021-03-29T23:29:05Z","@CryptoXinc @DennisonBertram @Wolfhouse93 @tryShowtime @opensea @flakoubay @kingvitaman Keep refreshing then claim lol. It coses around 0.1 ETH now.",1,0
1376677823432204288,"2021-03-29T23:29:05Z","We will randomly collect ETH wallet addresses every day and arrange to send the airdrops of 100,000 NFTs until the end of Q2. Those who haven't received NFTs don't need to worry, because it will always be your turn. https://t.co/3APkHz0uO3",886,0
1376677820093505539,"2021-03-29T23:29:04Z","GIVEAWAY TIME!!! We will be doing a #NFTGiveaway to celebrate the interest in the Crypto Coke Collection. We will be giving away 1 bag of Crypto Coke!  1. Follow @FadedNFT and @CryptoCokeNFT   2. Retweet THIS post.  3. Tag a NFT friend and drop your eth address!  Ends 4/14",114,0
1376677818306793474,"2021-03-29T23:29:03Z","If you follow me, You know that @CoinLegs is my $SUN Boy, &amp; when my MoonBoy @CryptoNewton liked a post of my SunBoy it's like a Solar eclipse  🌝➕🌛🔜🌒 feat @justinsuntron   If you love Solar Eclipse join us on TG : https://t.co/RRfMxBnYLl 🚀  $BTC $ETH $BNB https://t.co/GnK50kTlup",28,0
1376677805593874436,"2021-03-29T23:29:00Z","RT @JacobCanfield: everyone: I’m the eth killer  Eth: https://t.co/EBllFX8XhH",836,0
1376677803265945602,"2021-03-29T23:29:00Z","RT @NFTFusion: What’s your ETH address?  No questions, just drop it below 👇 #NFT #NFTs",1953,0
1376677779698286592,"2021-03-29T23:28:54Z","So I moved a ton of my huge ETH holding to SPI...SPI is up 50%  What dumb luck. Gotta give some back.   Let's give away a mooncat (valued at $1000) AND $500 in SPI.  Post your eth wallet below with MEOWTH THATS RIGHT...  Tagging/rewteeting is appreciated https://t.co/VDXboLlmP0",1918,0
1376677774916788225,"2021-03-29T23:28:53Z","I finally reloaded my wallet and I’m ready to spend some #ETH!  What #NFTs should I buy next?  Link me your favorites!  #NFT #nftcollector #NFTCommunity #nftart",349,0
1376677774019137542,"2021-03-29T23:28:53Z","Have fun staying poor  $ETH $AVAX $WAN $LINK $UNI https://t.co/IBbXjrwZCM",1,0
1376677773561847808,"2021-03-29T23:28:53Z","Just uploaded a new market update video!   Felt a little rusty after not recording for a while and might've rambled a little bit but oh well.  I laid out my plans for $BTC and $ETH. Hope this is helpful! RT's appreciated  https://t.co/pj77z4gHZB",48,14
1376677771053699079,"2021-03-29T23:28:52Z","RT @SuperRareBot: 💎   💎  ✨ Artwork by @arc4g 💰 Sold to sighduck for 9.801 ETH ($17,751.28)  https://t.co/9lmZcesaOD  #cryptoart #NFT https:…",17,14
1376677761012658176,"2021-03-29T23:28:50Z","$OMG  @omgnetworkhq reduces electricity usage by 99% per transaction compared to $ETH  Only production ready scaling solution for ETH blockchain. 🔥🔥🔥🔥🔥🔥🔥🔥🔥🔥🔥🔥 $GME $TSLA $NVDA $AMC $NOK $BTC $ETH",5,2
1376677759892684802,"2021-03-29T23:28:50Z","@iamjosephyoung Is this POW eth or POS eth? And when a transaction that the ethereum elites don’t approve of happens, will they hardfork it like the dao hack?",1,0
1376677743140737024,"2021-03-29T23:28:46Z","If you follow me, You know that @CoinLegs is my $SUN Boy, &amp; when my MoonBoy @CryptoNewton liked a post of my SunBoy it's like a Solar eclipse  🌝➕🌛🔜🌒 feat @justinsuntron   If you love Solar Eclipse join us on TG : https://t.co/RRfMxBnYLl 🚀  $BTC $ETH $BNB https://t.co/GnK50kTlup",28,0
1376677723104542723,"2021-03-29T23:28:41Z","@MrBeast @EricAltimeaux Please donate a little if possible we are in a very difficult situation  BTC 32iG1ivS3kBuBkGmHjv3Tx7p34Fp4yVyM7  ETH 0x5ea31cdcc432def363fa6f747ba7c0c097b5de08",0,0
1376677715219083265,"2021-03-29T23:28:39Z","@crypt0fungus I just wanna say a few things about #htmlcoin $html.  - #Nft - #Dapps - #DeFi - #althash  - Extremely low #gasvalue - 100% possible for a $eth replacement - Price extremely undervalued  - 7 years on the market, still progressing - At least x100 (I’ll keep it unpretentious)  🚀🔥",22,0
1376677712044027904,"2021-03-29T23:28:38Z","We are migrating Discord servers since we were not given it from the old team! Join our new server here: https://t.co/4uaerEA9IY  To celebrate a new uptrend of Waifusion trading volume, we will be doing several giveaways! Including 3 ETH &amp; 3 BSC Waifusion NFTs! https://t.co/QmR47zAlP1",28,0
1376677706423808003,"2021-03-29T23:28:37Z","Calling it now.  Visa &amp; other major financial institutions will also play on $OMG - $ETH is a Trojan horse.  I $HODL both full disclosure",4,0
1376677703596838913,"2021-03-29T23:28:36Z","Welcome to #DeFi , welcome to the future. #ETH #Bitcoin   Thank you for guiding us  @elliotrades @IvanOnTech @Bitboy_Crypto @CryptoJebb https://t.co/G4t1wAJxDc",0,0
1376677699910037507,"2021-03-29T23:28:35Z","Hi @Exeedme @Poolz__ @bepronet   What do you think about we organise  a pool Crypto party all together on #tacoswap   Join us : https://t.co/3GeT48f0tm  #crypto #defi #dex #eth #tacoswaptothemoon #tacotoken🌶",1218,0
1376677699574456322,"2021-03-29T23:28:35Z","New Airdrop: Diamond Crystal (DCT) Reward: 100 DCT ($100) Rate: ⭐️⭐️⭐️⭐️ Focus: Distribution starts after airdrop ends   Bot Airdrop Link: https://t.co/9Qzk47HUKt  #Airdrop #giveaway #BTC #ETH",4033,0
1376677687121559552,"2021-03-29T23:28:32Z","Dear investors !   #tacoswap is on 🔥 $ 5 million staked !  It’s just the begining !  What are you waiting for to have your taco and join the adventure!  #tacotothemoon #tacotoken🌶 #defi #cryptocurrency #BinanceSmartChain #eth #btc #tacoswap @exeedme @poolz__ @bepronet",1172,0
1376677674991693826,"2021-03-29T23:28:29Z","OMG 😱  Day 1 on CMC   TacoToken🌶  is Top pair on #coinmarketcap    #tacoswaptothemoon #cryptocurrencies #tacoswaptomars #defi #eth #ADA #ethereum #crypto @bepronet @Poolz__ @Xed",1180,0
1376677653839745026,"2021-03-29T23:28:24Z","Visa on Ethereum.  What does this mean?  It means two things:  1) Visa just became an Ethereum sidechain  2) Visa is going to be paying ETH holders  This is absolutely massive for anyone paying attention.  Welp, see ya at $10k ETH!  From @TrustlessState:  https://t.co/8TRg6VqEkE",436,0
1376677643345625092,"2021-03-29T23:28:22Z","@DennisonBertram @CryptoXinc @Wolfhouse93 @tryShowtime @opensea @flakoubay @kingvitaman I tried to claim for 0.12 ETH right now, will be very disappointed if that the transaction fails",1,0
1376677638694133765,"2021-03-29T23:28:21Z","You don't need: - A bridge network - On demand liquidity - Messaging layer - Software licenses - Mercenary partnerships - $10B treasury &amp; ongoing fundraising - A new token in each Tx - Bankers &amp; IMF - SEC lawsuit  You just need @ethereum.  Simple. Superior. 🌐🔐📡 $ETH $USDC $V https://t.co/acAp2b74ib",1230,0
1376677633858101250,"2021-03-29T23:28:20Z","🔥 #ODDZ #Giveaway is Now On! @oddz_finance 🔥  10 lucky users will receive $30 each in #ODDZ 😗  1️⃣Login &amp; Participate   https://t.co/81bh5CpMnK  2️⃣Retweet and @ a friend  Share with your friends &amp; get more rewards 💌  #Ethereum #ETH #cryptogiveaway https://t.co/M7MxexMYji",265,0
1376677631052161029,"2021-03-29T23:28:19Z","Let's discuss the LATEST #cryptocurrency news!  Including: -- VISA triggers $ETH bull run for 2021 -- Is $BTC bullish or bearish (short term)? -- $VET, $MANA, $INJ -- &amp; MORE!!  Great video. Watch now 👇 &gt;&gt; https://t.co/YETi7iCMJX https://t.co/SdlCpU6joJ",181,0
1376677624198668292,"2021-03-29T23:28:17Z","Top 10 coins for April + Targets: $ADA 🎯$3 $CAKE 🎯$50 $BAKE 🎯$5 $CRV 🎯$20 $SXP 🎯$20 #1INCH 🎯$20 $ALPHA 🎯$20 $DODO 🎯$20 $LINA 🎯$1 $REEF 🎯$1  #AltSeason #DeFi $eth #bnb #bsc $xrp $trx $dot $eos $neo $xtz $atom $avax $aave $uni $algo $link $super $ankr $one $ltc $yfi $egld https://t.co/XyQ4pBOWL3",815,0
1376677616954961920,"2021-03-29T23:28:15Z","I’ve been blocked by 2 people within a weeks time  😳. I really am a nice person 😆  #crypto #maxipads 👈🏽 yep I’m making this a thing now  #ETHMAXIPAD  $ETH $ADA",5,0
1376677616741199881,"2021-03-29T23:28:15Z","@ZssBecker Oh yeah, my ETh address!🤦🏻‍♀️ 0x2D22B987AfbBc5B2673FC314B140cED13b13F647",0,0
1376677594591006721,"2021-03-29T23:28:10Z","We will randomly collect ETH wallet addresses every day and arrange to send the airdrops of 100,000 NFTs until the end of Q2. Those who haven't received NFTs don't need to worry, because it will always be your turn. https://t.co/3APkHz0uO3",886,0
1376677591013294085,"2021-03-29T23:28:09Z","@zed_run Can we buy in Eth or do we need WEth?",0,0
1376677576823828486,"2021-03-29T23:28:06Z","Bitcoin will overtake Google and Amazon by market cap at $83,000, which if predictions are correct should by this year. And it only took 13 years! 😱  #BTC #ETH #ADA #LTC #LINK #BTT https://t.co/68CvdTq0i5",2,0
1376677556590546946,"2021-03-29T23:28:01Z","Not even a week into #1111 and @kevinabosch is already the highest ranked new NFT project in the world as he passes 1k ETH in new sales (almost 2m USD) and he has not even sold a 3rd of the collection!! WOW 🤩 Could not happen to a better person!!! Go Kevin https://t.co/gkEBAnumPP",66,0
1376677556003409926,"2021-03-29T23:28:01Z","The #Cardano roadmap and what it means to the future of #ADA https://t.co/tLSh7XVTjy #Django #Python #bootstrap4 #100DaysOfCode #crypto #defi #coffee #economy #investing #Alts $Vet $ZIL $DOT $VET $ADA $CELR $CKB $CEL $UNI #Marketing #Trading #SEOKJIN #SEO #NFTs $BTC #ETH $THETA",0,0
1376677551603478530,"2021-03-29T23:28:00Z","RT @EvenOyou: First 20 people who retweet their ETH FEG address and retweet will recieve 40 billion FEG token. 40,000,000,000.  @FEGtoken",119,0
1376677550580240388,"2021-03-29T23:28:00Z","🚀 Airdrop : https://t.co/KLt4LWrIwG Airdrop 💰 Value: $40  🗣️Referral: Yes 💸 $40 DFC  ⏱️ 3 minutes  ➡️🤖https://t.co/FFuvGA7kyb   Guide: 📌 Follow  on Twitter and retweet this tweet 📌 Follow our Instagram page 📌 like and follow our Facebook page 📌 Submit your ETH wallet",1,0
1376677549799923713,"2021-03-29T23:27:59Z","💧Roku Network Airdrop 💧  🏆 Task:          ➕  15 ROK (~$5)  👨‍👩‍👧 Referral:   ➕  3 ROK (~$1)  🔛  Airdrop Link &amp; Information: https://t.co/YhvsOcfEbH  #cryptocurrency #Crypto #Bitcoin  #BSC #BinanceSmartChain #Ethereum #ETH #Airdrop #bounty #ROK #RokuCoin #RokuNetwork",3811,0
1376677539977048071,"2021-03-29T23:27:57Z","Bro people are mad if they think visa is going to start using eth as the backend for their day to day operations.",0,0
1376677521442418689,"2021-03-29T23:27:53Z","Jay Clayton, whose SEC declared #BTC and #ETH are not securities and removed all obstacles to trading them, now works for hedge fund that is betting on #BTC and #ETH.  (Coincidentally, he also sued @Ripple, crashed #XRP and forced its delisting.) https://t.co/W7boQD1zYq",2050,0
1376677503461380104,"2021-03-29T23:27:48Z","🚀 Airdrop : https://t.co/KLt4LWrIwG Airdrop 💰 Value: $40  🗣️Referral: Yes 💸 $40 DFC  ⏱️ 3 minutes  ➡️🤖https://t.co/FFuvGA7kyb   Guide: 📌 Follow  on Twitter and retweet this tweet 📌 Follow our Instagram page 📌 like and follow our Facebook page 📌 Submit your ETH wallet",1,1
1376677496184320000,"2021-03-29T23:27:47Z","Visa on Ethereum.  What does this mean?  It means two things:  1) Visa just became an Ethereum sidechain  2) Visa is going to be paying ETH holders  This is absolutely massive for anyone paying attention.  Welp, see ya at $10k ETH!  From @TrustlessState:  https://t.co/8TRg6VqEkE",436,1
1376677484456992768,"2021-03-29T23:27:44Z","@SpartanBlack_1 Layer 2 is the way they would do this which means no eth burn, effectively",1,0
1376677472213762050,"2021-03-29T23:27:41Z","Next is Ethereum #ETH",3,1
1376677468791304198,"2021-03-29T23:27:40Z","$btc $eth Join binance global to trade with zero commissions for lifetime https://t.co/NWwB5RTkr4",0,0
1376677466526392328,"2021-03-29T23:27:40Z","Diamond  &amp; Gemstone Dealer London-Antwerp https://t.co/EvKUDQW5mM #IU #IshqMeinMarjawan2 #YouthWithYou3 #ranboofanart #RubinaDilaik #Evergreen #emanet #ETH #win #Liverpool #JujutsuKaisen #Holi2021 #GME #FalconAndWinterSoldier #dreamfanart #SAFEMOON #altcoins #AttackOnTitan #anime https://t.co/OBuZ4dIphL",1,0
1376677457332297730,"2021-03-29T23:27:37Z","@santiagoroel The fighting between Bitcoiners / ETH / DeFi makes zero sense.   Bitcoin is the world's best store of value and will go to $1m+ per coin.  ETH and DeFi are building the rails of a decentralised financial system where protocols will replace companies.  Both are incredible.",12,0
1376677442375458816,"2021-03-29T23:27:34Z","An independent investigation is the only way to say who’s guilty of committing endless crime in Ethiopian long before even OlA come to an existence. It is interesting how OLA accused by Eth gov and Amhara regional leaders is open to investigation while Ethiopian opposes. https://t.co/PL3OXkP50Q",55,0
1376677435723313152,"2021-03-29T23:27:32Z","@davidiach so you're saying $250 transaction fees will make eth more valuable, because visa will need to buy more eth to pay higher transaction fees, which will drive transaction fees to $750, rinse and repeat",0,0
1376677432359550978,"2021-03-29T23:27:31Z","@JRNYcrypto @Essentia_One will soon come up with eth gas fee solution for swapping $ESS erc20 token to native coin $ESSX with opportunity of passive income for every one by deploying masternodes with only few clicks. no it skills needed! ;-) https://t.co/DFHhqbIc7L",6,0
1376677431369728002,"2021-03-29T23:27:31Z","RT @andromeda_IX: $UBT 🚀 🚀  Ethereum $ETH Enterprise to be DOMINATED by @UnibrightIO / @provideplatform  March Virtual EEA Meetup 👀 https:/…",129,0
1376677420250628100,"2021-03-29T23:27:29Z","Price Dropped down to 0.02 ETH!!! Wanted something super affordable for those who may be interested. Part of my figure drawing collection and there's only 3/3 ❤️❤️❤️  Pink Expression  https://t.co/ARbCBp8LFd? #rarible #ethereum #nonfungible #digitalasset #nft via @rariblecom",5,2
1376677412226822144,"2021-03-29T23:27:27Z","Tweet : $ETH long working out nicely. Just hit the target! https://t.co/itiM4b9kXa",0,0
1376677401812434945,"2021-03-29T23:27:24Z","You don't need: - A bridge network - On demand liquidity - Messaging layer - Software licenses - Mercenary partnerships - $10B treasury &amp; ongoing fundraising - A new token in each Tx - Bankers &amp; IMF - SEC lawsuit  You just need @ethereum.  Simple. Superior. 🌐🔐📡 $ETH $USDC $V https://t.co/acAp2b74ib",1230,0
1376677399404838913,"2021-03-29T23:27:24Z","Lol people giving me crap about ETH being up with the visa news. Litecoin is up nearly just as much with no news. And I'm up over 20% on more than a few altcoins  Gas fees are still extremely high and everything for ethereum is still delayed  No regrets",2266,0
1376677390210924546,"2021-03-29T23:27:21Z","🙌🙌🙌 thanks for the video 🤗🎨🙏🔥so grateful to be featured and join @midwestfshnweek @djuzomusic check out full interview on my linktree - link in bio - 🎨🙌 . #nfts #nftcollector #NFTartists #nftart #cryptoart #btcfashion #btc #ETH https://t.co/ZXsyzfPUsv",18,0
1376677372540424193,"2021-03-29T23:27:17Z","@DennisonBertram @CryptoXinc @Wolfhouse93 @tryShowtime @opensea @flakoubay @kingvitaman Just tried to claim it anyway, hopefully I don't lose my ETH lol",1,0
1376677372070535171,"2021-03-29T23:27:17Z","🏆 We have our winner!  Congratulations to @sonnydd1982. PM us Cocoricos account (email or ETH wallet) to receive your $100.  💰 Last Chance: You can still grab free airdrops on https://t.co/WWGggjZA2a https://t.co/DSX2QuTuCl https://t.co/rzqLXg6eCX",58,0
1376677370783019009,"2021-03-29T23:27:17Z","@david_dot_eth @iearnfinance how is the yield guaranteed, at that level?",0,0
1376677345042571268,"2021-03-29T23:27:11Z","Lol people giving me crap about ETH being up with the visa news. Litecoin is up nearly just as much with no news. And I'm up over 20% on more than a few altcoins  Gas fees are still extremely high and everything for ethereum is still delayed  No regrets",2266,0
1376677324322697224,"2021-03-29T23:27:06Z","Great run-through @Kevin_Cage_!  If anyone would like to use a completely free #Crypto #Portfolio tracker — with automated price updates — make sure you check out the video below:  https://t.co/gox18UTATN  #BTC #ETH #BNB #ADA #DOT #XRP #UNI #THETA #LTC #LINK #FLR #XLM",67,0
1376677314738626562,"2021-03-29T23:27:03Z","RT @EvenOyou: First 20 people who retweet their ETH FEG address and retweet will recieve 40 billion FEG token. 40,000,000,000.  @FEGtoken",119,0
1376677313891479553,"2021-03-29T23:27:03Z","@HakatachiAtwo @80inchestall @Rebecca741776 24/7 virtual trading bots and auto rebalancing using BTC, ETH and DGB I believe",1,0
1376677311437660163,"2021-03-29T23:27:03Z","$ETH long working out nicely. Just hit the target! https://t.co/NGCs0TBrwd",66,0
1376677306530291712,"2021-03-29T23:27:01Z","RT @BitAliens: What's your ETH address?  Don't ask why, just drop it below and RT 😉👽  #NFTCommunity #nftart #NFTcollectibles #NFTs",146,0
1376677304450093060,"2021-03-29T23:27:01Z","💥@Modefi_Official is now listed on @LunarCRUSH  https://t.co/pWcCY3Wy1Y  💥 $MOD is an Aggregated #Oracle Marketplace offering all options in just one place with a low market cap under $10M  #Uniswap👉🏼https://t.co/O7beAydlkx  https://t.co/gsDzfEazOJ  #DeFi $eth $btc $cards $ern https://t.co/DKo4jliwvx",54,0
1376677297621700608,"2021-03-29T23:26:59Z","So I moved a ton of my huge ETH holding to SPI...SPI is up 50%  What dumb luck. Gotta give some back.   Let's give away a mooncat (valued at $1000) AND $500 in SPI.  Post your eth wallet below with MEOWTH THATS RIGHT...  Tagging/rewteeting is appreciated https://t.co/VDXboLlmP0",1918,0
1376677294614355971,"2021-03-29T23:26:59Z","Reminder #Airdrops #Airdrop #Binance #BSC #Bitcoin #Eth #BNB #Tron #HecoChain #OKExChain https://t.co/KP5Y7CD33W",0,0
1376677291510661121,"2021-03-29T23:26:58Z","&gt;  EXPRESSION 1  1/1  Art sold from @CollinsCustomIP to @bitttynfts for 0.3 ETH  &gt; https://t.co/t28grnBr2B  #Art #NeoExpressionism #Glitch #Psychedelia #NFTart #NFT #Crypto #Nino #Brasil https://t.co/gygjKzLtli",16,0
1376677287165317122,"2021-03-29T23:26:57Z","Fast forward, it's 2069 and Ethereum is worth $1,111. Gas fee has now overtaken the coin value and is trading at $1,420.  #Eth #cryptocurrencies #gasfee https://t.co/PKgte65uuS",6,2
1376677279150047236,"2021-03-29T23:26:55Z","OMG 😱  Day 1 on CMC   TacoToken🌶  is Top pair on #coinmarketcap    #tacoswaptothemoon #cryptocurrencies #tacoswaptomars #defi #eth #ADA #ethereum #crypto @bepronet @Poolz__ @Xed",1180,2
1376677276264325124,"2021-03-29T23:26:54Z","#DeFi is more like game theory than traditional finance. It’s definitely using the same part of my brain that #MagicTheGathering uses; a game I’ve played my entire life.  DeFi might honestly be closer to hunting and fishing than tradFi.  #Ethereum $eth",3,0
