"ID","created_at","text","like_count","rt_count"
1375266247135227906,"2021-03-26T01:59:59Z","BUNNEH’s #NFT is a #MentalHealth initiative we created!  Please get involved!! All funds from #BUNNEHs #NFT are being used to fund Mental Health Therapy for a loved one! Contribute to a fantastic cause https://t.co/pDr0GrcdGn  All NFT starting 0.005 $ETH @coinkit_ mon 25 1000 BTC",171,0
1375266235298979840,"2021-03-26T01:59:56Z","BUNNEH’s #NFT is a #MentalHealth initiative we created!  Please get involved!! All funds from #BUNNEHs #NFT are being used to fund Mental Health Therapy for a loved one! Contribute to a fantastic cause https://t.co/pDr0GrcdGn  All NFT starting 0.005 $ETH @coinkit_ mon 25 1000 BTC",171,0
1375266219058597888,"2021-03-26T01:59:52Z","RT @CashNCrypto: $150 to one person in 48hrs  Rt &amp; follow me + @domscrypto &amp; @boar_eth",2067,0
1375266216667930625,"2021-03-26T01:59:51Z","New Airdrop: Diamond Crystal (DCT) Reward: 100 DCT ($100) Rate: ⭐️⭐️⭐️⭐️ Focus: Distribution starts after airdrop ends   Bot Airdrop Link: https://t.co/9Qzk47HUKt  #Airdrop #giveaway #BTC #ETH",4033,0
1375266201035755520,"2021-03-26T01:59:48Z","Undeniably stylish and universally fun to drive, shop sports cars with cryptocurrency at https://t.co/wsuweextHa✍  #️crypto #cryptocurrency #cryptocurrencies #bitcoin #btc #ethereum #eth #litecoin #dogecoin #dogecoinrise #dogearmy #sportscars #thursdaythoughts #thursdaymorning https://t.co/oTAvaKhK8O",0,0
1375266196740706305,"2021-03-26T01:59:47Z","🤩CoinEx Spring Events: Try Perpetual Trading and Win 80,000 USDT  🌺First Try Perpetual Trading to Win 50,000 USDT  🌺Join Perpetual Trading Competition to Share 30,000 USDT  ⏰DDL: April 1, 2021 (UTC)  Details: https://t.co/1bV5it4Zxy #CoinEx #giveaway #luckydraw $BTC $ETH $CET https://t.co/tAPPA25Wxb",71,0
1375266167091236869,"2021-03-26T01:59:40Z","The✨GIEVN✨space awaits its owner👋 Take the opportunity to own the piece that set foundation to my digital art journey and shaped my style as an artist.   https://t.co/upCkHMayCI  #nft #NFTs #nftart #nftcollector #artshare #cryptoart #eth #cryptocurrencies #digitalart #Genesis",15,0
1375266165736411136,"2021-03-26T01:59:39Z","RT @CashNCrypto: $150 to one person in 48hrs  Rt &amp; follow me + @domscrypto &amp; @boar_eth",2067,0
1375266152171986948,"2021-03-26T01:59:36Z","Welcome to massive Q DAO airdrop!   1. go now to telegram https://t.co/COyXgODY1z   2. Stay in telegram chat and wait announcement.  3. HOLD this gem until 10x   (soon - QDAO launch cross-chain for BSC, Polkadot and ETH)",4254,0
1375266147386425351,"2021-03-26T01:59:35Z","Aircoins (AIRx) now available on #CoinMarketCap  https://t.co/yq9NxjFWiS  To celebrate we are giving away $200 in #ETH and $200 In #BNB   To enter contest tag #BSC and #CMC   Two lucky winners will be selected March 28th 9am EST. #AIRx is both on #BSC &amp; #ETH networks!🎉🥳📸📱🥂💥 https://t.co/k1ytohl9Fa",479,0
1375266147180769283,"2021-03-26T01:59:35Z","RT @DailyDogeUpdate: If $DOGE goes over 0.6$ this month I’ll give EVERYONE who retweets this $100! 🎁  #Dogecoin #LTC #ETH",139,0
1375266143540281346,"2021-03-26T01:59:34Z","@EpikNFT @TruktorNFT Auction has begun! Current BID 0.10 ETH  Check out this artwork by knikxknok on @withFND! 🌐  here: https://t.co/6AsRZ9esUT https://t.co/WiepYgSRFW",3,1
1375266141208199172,"2021-03-26T01:59:33Z","Kraken - Volume changed on Orchid (ETH/OXT)! Price: $0.00037220 (+6.83%), Volume: +49.34%, Mentions Daily Change: -12.00% https://t.co/xg09DOGLhb",0,0
1375266135717728258,"2021-03-26T01:59:32Z","RT @CashNCrypto: $150 to one person in 48hrs  Rt &amp; follow me + @domscrypto &amp; @boar_eth",2067,0
1375266133440274437,"2021-03-26T01:59:32Z","@MacroCRG ETH is long overdue",1,0
1375266122887483392,"2021-03-26T01:59:29Z","Join ETH distribution on 30/03 #ETHcoin #etherium   https://t.co/66bkrAHpKN",0,0
1375266104147386372,"2021-03-26T01:59:25Z","The account is sponsored by #Maanky 🐵 #BTC #Bitcoin #ETH #FOREX Oil - Next week brings the OPEC+ meeting (April 1) https://t.co/nnL8g3pEIn",1,1
1375266103149035522,"2021-03-26T01:59:24Z","🚀 Safe The Children  🔷 Token Symbol : STC  🔷 Contract: https://t.co/nk3qsF2PJV  🔷 Website: https://t.co/4y0g7dqswM  🔷 Whitepaper: https://t.co/PHPZI4dbyR  🔷 Presentation Video : https://t.co/Mycfov12IU  #Safe_Childrens #Bitcoin  #Binance #BinanceSmartChain #DEFI  #BTC #ETH",14723,1
1375266088364167168,"2021-03-26T01:59:21Z","I have almost 5k in ETH. Thinking I might just throw that into #amc. I can buy back in once we safely on the moon. #amc",1,0
1375266081749622788,"2021-03-26T01:59:19Z","Honored and proud to be part of this team, of this family.    #metrix is ​​a family!  big exchange coming up, lots of real work behind the scenes.  thanks @Chris_Metrix for the nice words ❤️  #btc $btc #ada $mrx $dego $iota $btg $cake $theta $eth #bitcoin $xrp $vet $dot $chz $bnb https://t.co/WAqxHPM99w",43,0
1375266074556518401,"2021-03-26T01:59:18Z","Finally out! #openaccess book Introduction to #Epigenetics with @LabSantoro and non-twitter #Paro #Grossniklaus #Wutz inspired by our #ETH #UZH lectures https://t.co/ZZSwEsusK0  @SpringerCellBio https://t.co/nX4f7Gb28a",245,0
1375266065249402881,"2021-03-26T01:59:15Z","Ethereum https://t.co/kVLCREwaU5  #Ethereum #DeFi #DecentralisedFinance #Eth #Ether #Serenity https://t.co/OrlDRaxeVd",0,0
1375266060031549443,"2021-03-26T01:59:14Z","$BCHA on fire 🔥 🚀 easy 10x from here short term.   $btc $link $bch $rsr $vet $luna $mir $ankr $mft $eth $zil $matic $one $chr $enj $dent $tfuel $xrp $idex",3,0
1375266049629827073,"2021-03-26T01:59:12Z","Buy ETH from Binance  Binance is headquartered in Malta and constantly has some of the highest trading volume. Users can buy ETH with fiat or cryptocurrencies.   https://   #Defi   #MustHaveCrypto https://t.co/CcO8MWBSlf",0,0
1375266042096717826,"2021-03-26T01:59:10Z","🏆 Follow us &amp; Retweet this tweet, Specify the ETH address in the tweet comment to get 10 #BIT ($10 worth) or 50 #BIT ($50 worth) #BitScores Airdrop Tokens! 🎁 $250,000 Prize Pool Full rules: https://t.co/N53M5nRXr9  #giveaway #airdrops #bounty #giveaways #defi #eth #btc #airdrop https://t.co/m77hDtRsBv",3577,0
1375266041232830470,"2021-03-26T01:59:10Z","Exactly 72 days ago, I hit the absolute bottom of my Crypto Portfolio, changed my strategy 100%, pf now is healthy and its time to give some back  $150 each to 2 people in Eth/Usdt/BNB when  $HTR hits $2 or $eRSDL hits $0.50  Rules: -Follow -Like &amp; Retweet  $FWT $CELL $KONO",47,0
1375266034395975683,"2021-03-26T01:59:08Z","RT @volmexfinance: What’s your ETH address?  Don’t ask why, just drop it below 👇",4852,0
1375266028209401858,"2021-03-26T01:59:06Z","New #digitalcurrencyalien #NFT pixel art available on https://t.co/zm1A0zl48c Limited to 1 mint each for 150+ artworks available using $ETH! RT for some free #Bitcoin !!  @coinkit_ com 50 1000 BTC #NFT",207,0
1375266027492245508,"2021-03-26T01:59:06Z","Lulz, noone tells beeple guy shouldn't touch his own ultra sound money, that was $eth.  it's just that his New Yorker interview shows how uninformed he is, &amp; now that some big brains centralized an entire industry around him, they're afraid to be honest.  #nfts",4,0
1375266024220585987,"2021-03-26T01:59:06Z","Horangi Number 4 is now on @opensea! #nft #opensea  If you like Horangi, #RT please!  https://t.co/R2oD5oJgiq  #nft #nftart #nfts #nftartist #nftcollector #nftcommunity  #opensea #eth #ethereum #cryptoartist #cryptoart #tiger #horangi",47,0
1375266009653870596,"2021-03-26T01:59:02Z","$ETH  If the daily candle closes above 2k, it will easily cross 2500$ mark. Keep an eye on it.  Checkout the link in bio for crypto signals  $QLC #bitcoin #cryptocurrency $OCN $ADX $KICK 62944 https://t.co/VakWwlzFRP",2,0
1375266005602029572,"2021-03-26T01:59:01Z","New Airdrop: Diamond Crystal (DCT) Reward: 100 DCT ($100) Rate: ⭐️⭐️⭐️⭐️ Focus: Distribution starts after airdrop ends   Bot Airdrop Link: https://t.co/9Qzk47HUKt  #Airdrop #giveaway #BTC #ETH",4033,0
1375265996248903681,"2021-03-26T01:58:59Z","@CubsLionsUGA May take over etherium's spot in the long run due to faster transactions and cheaper transaction fees. Also uses way less energy to mine. 3rd highest market cap after bitcoin and etherium. Only 15% of what I'm holding since it's a bigger risk. Bitcoin 60% Etherium 35%",1,0
1375265993149325314,"2021-03-26T01:58:58Z","@QavyArt Auction has begun! Current BID 0.10 ETH  Check out this artwork by knikxknok on @withFND! 🌐  here: https://t.co/6AsRZ9esUT https://t.co/N9sXqYj8OZ",3,1
1375265988283879426,"2021-03-26T01:58:57Z","ALL CRYPTOCURRENCIES AND DIGITAL ASSETS BEWARE  All leaders involved in Cryptocurrencies and Digital Assets should read the 74 pages of the March 19 hearing.   The @SEC_Enforcement has not made a material distinction between #ETH #BTC and #XRP.  The SEC attorney’s comments https://t.co/xzd9oRb5mY",507,1
1375265980616613888,"2021-03-26T01:58:55Z","SirSmokeAlot was created for 100 $MANA ($83.88 USD = 0.0521 $ETH) by https://t.co/cqxYVsnGHT https://t.co/KZUjHkTzFs #decentraland #names #avatar https://t.co/Xc3LyCU8J9",1,1
1375265968469934080,"2021-03-26T01:58:52Z","EncoreCasino was created for 100 $MANA ($83.71 USD = 0.0521 $ETH) by https://t.co/WLYvoaOlPi https://t.co/ioeK3Pa5lS #decentraland #names #avatar https://t.co/M01CWPVTj9",1,1
1375265964229414914,"2021-03-26T01:58:51Z","Its official, #Plantbois are now available!  Limited 10/10 edition, who will be the first to unify a full family of #Plantbois? Whoever does gets an ultra rare #NFT piece!  Each #Plantboi is starting at 0.05 ETH. Good Luck! https://t.co/ljISqgIsnY  #NFTcollectibles #nftart #nfts https://t.co/2XwtCJok1O",11,4
1375265957191376900,"2021-03-26T01:58:50Z","WynnCasino was created for 100 $MANA ($83.69 USD = 0.0521 $ETH) by https://t.co/WLYvoaOlPi https://t.co/TWAyHRTuKV #decentraland #names #avatar https://t.co/0KdDuaYTNu",2,4
1375265943719317505,"2021-03-26T01:58:46Z","VenetianMacau was created for 100 $MANA ($84.33 USD = 0.0523 $ETH) by https://t.co/WLYvoaOlPi https://t.co/EjDSAsf8Vz #decentraland #names #avatar https://t.co/NhOL47vKmV",1,4
1375265933925605377,"2021-03-26T01:58:44Z","The✨GIEVN✨space awaits its owner👋 Take the opportunity to own the piece that set foundation to my digital art journey and shaped my style as an artist.   https://t.co/upCkHMayCI  #nft #NFTs #nftart #nftcollector #artshare #cryptoart #eth #cryptocurrencies #digitalart #Genesis",15,4
1375265925058936835,"2021-03-26T01:58:42Z","Holy shit, mannnn 🔥🔥🔥  Guys please check this out, my friend started minting #NFT with his amazing artworks!!!! Yo duy gogogo 🤩🚀 @duypham2607   #cryptoart #NFTs #nftcollectors #cyrptocurrency #digitalart $BTC $ETH $CAKE $MANA $ATOM https://t.co/DPVRFuh4fU",6,4
1375265910638907396,"2021-03-26T01:58:38Z","Q DAO Airdrop is on! If you are doing a lot of #DEFI on $ETH, extra rewards for you!   https://t.co/boJ7u1XAzI",0,0
1375265909955305472,"2021-03-26T01:58:38Z","Rip ETH and congrats to Beeple for executing one of the biggest rugpull. First he FOMO the entire Ethereum community into his dope and then pulled the trigger...  ~$60M worth of ETH savagely dumped for monkey money. Of course this crash is 100% his fault. https://t.co/2vbMRLclon",277,0
1375265908390723585,"2021-03-26T01:58:38Z","VaticanMuseum was created for 100 $MANA ($84.33 USD = 0.0523 $ETH) by https://t.co/WLYvoaOlPi https://t.co/yogmHcnBdM #decentraland #names #avatar https://t.co/lYhiq0TbLF",3,0
1375265907514224645,"2021-03-26T01:58:38Z","Domestic and Foreign Buyers Acquired a 'Tokenized' Apartment in a Spanish City by Paying With Ethereum – News Bitcoin News $BTC $ETH $XRP $BCH $LTC $BNB $DOGE https://t.co/w2K2JFGpRZ",0,0
1375265904540459008,"2021-03-26T01:58:37Z","RT @macrohedged: OTM Call suppression in $ETH &amp; $BTC is incredible, the miners own this. https://t.co/jGCbTLdMfh",52,0
1375265903290425344,"2021-03-26T01:58:37Z","$ETH vs USD / $BTC  3D Chart:  Eth simply has to hold this level. It's crucial to maintain the HH/HL market structure but most importantly. The last place you want to see is it visiting the $1420 17' ath's. It has no business trading there, let alone below there. https://t.co/uNj1NYihKx",162,0
1375265902158045187,"2021-03-26T01:58:36Z","RT @CryptoGodJohn: April thoughts.   $ETH out performs $BTC   $XRP out performs $ETH  DeFi out performs the market.",918,0
1375265900434165762,"2021-03-26T01:58:36Z","Liquidity update:  LP’s added per transaction are now being added to Unicrypt to lock until DAO is functional.   Transaction of incremental lock found here interacting with unicrypt - https://t.co/6g1ex7BL26  $NCAT $BTC $ETH $BNB $ADA https://t.co/6eokeGbkqk",33,8
1375265895577055232,"2021-03-26T01:58:35Z","GameGeist was created for 100 $MANA ($84.33 USD = 0.0523 $ETH) by https://t.co/bq5lXoP9cF https://t.co/GpYuSJ6Agi #decentraland #names #avatar https://t.co/zAahWghwlT",2,8
1375265883271045121,"2021-03-26T01:58:32Z","Cinemax was created for 100 $MANA ($84.13 USD = 0.0522 $ETH) by https://t.co/WLYvoaOlPi https://t.co/J1tNPaTg1g #decentraland #names #avatar https://t.co/koKrlQzYkx",3,8
1375265881278672897,"2021-03-26T01:58:31Z","bearish flag comin’ thru? more for us to buy 😋  $BTC $ETH https://t.co/vvi3AAxxz8",1,0
1375265873464680449,"2021-03-26T01:58:30Z","HappyGilmore was created for 100 $MANA ($84.13 USD = 0.0522 $ETH) by https://t.co/cqxYVsnGHT https://t.co/mXUnuhBijL #decentraland #names #avatar https://t.co/AIoboaNVN7",3,0
1375265872604917762,"2021-03-26T01:58:29Z","RT @lauramellado: Winners are @erika_destiny07 @_liz_eth_ 😜😜",109,0
1375265867076788224,"2021-03-26T01:58:28Z","New Airdrop: Diamond Crystal (DCT) Reward: 100 DCT ($100) Rate: ⭐️⭐️⭐️⭐️ Focus: Distribution starts after airdrop ends   Bot Airdrop Link: https://t.co/9Qzk47HUKt  #Airdrop #giveaway #BTC #ETH",4033,0
1375265859506106368,"2021-03-26T01:58:26Z","ColdcardWallet was created for 100 $MANA ($84.13 USD = 0.0522 $ETH) by https://t.co/WLYvoaOlPi https://t.co/o7fA6FmoI4 #decentraland #names #avatar https://t.co/PlPHJTxGb1",1,0
1375265854032543747,"2021-03-26T01:58:25Z","This would be great once they address the elephant in the room FEES!!! @BlackWallsteet @HUSTLEnSTACK @BoydParviz @Cprime18 #ThursdayThoughts https://t.co/Ojh1DPz7vt",2,1
1375265848655454216,"2021-03-26T01:58:24Z","Bur0x was created for 100 $MANA ($84.00 USD = 0.0520 $ETH) by https://t.co/SPVRYcDG9n https://t.co/m87tpDD6sh #decentraland #names #avatar https://t.co/1OUWkGiWYj",1,1
1375265838329065476,"2021-03-26T01:58:21Z","ShooterMcGavin was created for 100 $MANA ($84.00 USD = 0.0520 $ETH) by https://t.co/cqxYVsnGHT https://t.co/CPEZWRa3QB #decentraland #names #avatar https://t.co/x0emY4YmVd",3,1
1375265836001284099,"2021-03-26T01:58:21Z","RT @x_eightynine: Just got a 1000 $eth from a recent #nft resale.  Spending it all on #cryptoartists   Just post your work and retweet.  /s",354,1
1375265824404086784,"2021-03-26T01:58:18Z","May price prediction:  $BTC 85k $ETH still crapping the bed under 3k  August price prediction: $BTC 150k $ETH finally 10k after eip, or failing eip back to $500 and rank 25.  Your call $ETH miners, lower profits or zero profits.",5,1
1375265822411681792,"2021-03-26T01:58:17Z","Samsara was created for 100 $MANA ($82.10 USD = 0.0516 $ETH) by https://t.co/dSwtAgnXRJ https://t.co/nKxFz9C0kM #decentraland #names #avatar https://t.co/l0hOn4gg8x",3,1
1375265821929451523,"2021-03-26T01:58:17Z","Punk 616 bought for 108 ETH ($174,943.80 USD) by 0x696ed7 from 0x4eb676. https://t.co/GShzvNet9O #cryptopunks #ethereum https://t.co/sWwkFK48Ga",38,3
1375265821287620613,"2021-03-26T01:58:17Z","Tokenizing my 2 very real-world business assets for silent partners ..   https://t.co/4Qey8tAZci  https://t.co/66DFXj2wO8  Which can be traded on the upcoming DEx  Yes, that's the way.  #trading #CryptoNews #ETH $BTC #Bitcoin $NXS",10,3
1375265810378186754,"2021-03-26T01:58:15Z","LennyKravitz was created for 100 $MANA ($81.89 USD = 0.0515 $ETH) by https://t.co/dSwtAgnXRJ https://t.co/IL7MUqoKHO #decentraland #names #avatar https://t.co/exe34QmJBr",3,3
1375265808163606531,"2021-03-26T01:58:14Z","RT @MartinHinrichs8: Some insider: $ZIL - $ETH Bridge live on #PolyNetwork 31 Mar 2021.  #Zilliqa #Ethereum",131,3
1375265795505197059,"2021-03-26T01:58:11Z","RT @CashNCrypto: $150 to one person in 48hrs  Rt &amp; follow me + @domscrypto &amp; @boar_eth",2067,3
1375265783438139396,"2021-03-26T01:58:08Z","AudemarsPiguet was created for 100 $MANA ($81.58 USD = 0.0514 $ETH) by https://t.co/O8zWF5IJz4 https://t.co/RsokpfSQft #decentraland #names #avatar https://t.co/pjyYpcWzlN",2,3
1375265770733596677,"2021-03-26T01:58:05Z","PatekPhilippe was created for 100 $MANA ($81.58 USD = 0.0514 $ETH) by https://t.co/O8zWF5IJz4 https://t.co/Jtj4PoHKFS #decentraland #names #avatar https://t.co/r2uD9FRHlR",1,3
1375265762181537796,"2021-03-26T01:58:03Z","@ui_crystal Amazing project @jamesfurey @bussyjay405 @sdtuck ETH: 0xdf3e1032f72a72d4d3919b5ee7dc6b2b9865d66e",0,0
1375265759471968257,"2021-03-26T01:58:02Z","@myster_EEEE @RuneLink @CryptoMessiah $BNT is also the play here...... remember how $BNB $CAKE blew up....all because they switched from $ETH to #BSC chain , same with $BNT everyone will wanna use $BNT , the fees will be less",11,0
1375265757634830338,"2021-03-26T01:58:02Z","@makersplaceco @CorridorDigital @beeple Will never use @makersplaceco ever again. Placed a bid, was outbid by a lot, but you guys still took my $ETH! WTF?! I didn’t even approve the transaction yet you guys still pulled the ETH from my wallet using my signature. No warnings anywhere on your site that you would do that!",0,0
1375265755449729024,"2021-03-26T01:58:01Z","🚨 NFT GIVEAWAY🚨  I'm giving away one of my new Cryptosaturns!  #04 Culture All you have to do is;   🪐Follow me! 🪐Like! 🪐Retweet!  I'll message the winner asking for their ETH wallet address. Good Luck! #nft #NFTs #nftcollector  #nftgiveaway #nftart #nftartist #cryptoart https://t.co/4d9qMeWwnf",210,0
1375265752719183873,"2021-03-26T01:58:01Z","people are afraid to buy the #bitcoin dip at $51k but still think they'd have bought bitcoin at $10 in 2011 - what a joke #Cryptocurrency #NFT #ETH",7,0
1375265750147997697,"2021-03-26T01:58:00Z","Breitling was created for 100 $MANA ($81.66 USD = 0.0516 $ETH) by https://t.co/O8zWF5IJz4 https://t.co/SFoir3HTTi #decentraland #names #avatar https://t.co/hpGTBpCobH",2,0
1375265736613040135,"2021-03-26T01:57:57Z","RT @sblngr: IN CASE WE FAIL my second #NFT up for 0.2 ETH via  @withFND   https://t.co/ATTf2edclS https://t.co/zUaQKZIYTn",48,0
1375265731705597954,"2021-03-26T01:57:56Z","Hublot was created for 100 $MANA ($82.48 USD = 0.0514 $ETH) by https://t.co/O8zWF5IJz4 https://t.co/U1CWVX66XM #decentraland #names #avatar https://t.co/37JnkeUjOP",3,0
1375265721673003011,"2021-03-26T01:57:53Z","@synpat_crypto @Tweetybirdpaul @iamDCinvestor I'm just losing faith in #eth to be honest, I've been mining it, and involved since 2016. I was 100% #eth until about a year ago. Now I just hold some as nostalgic value and hoping one day they will wake up. HODL it is fine, but I choose to actively trade instead of waiting :)",1,0
1375265720817180673,"2021-03-26T01:57:53Z","DocuSign was created for 100 $MANA ($82.48 USD = 0.0514 $ETH) by https://t.co/O8zWF5IJz4 https://t.co/jWk4c2gzw5 #decentraland #names #avatar https://t.co/VJB10r2op2",4,0
1375265717201817601,"2021-03-26T01:57:52Z","RT @jorgeriosmolina: I wanna connect with new NFT artist! Let your work below, I’ll be sharing my fav ones 🕺🏻💛👌🏻  #NFT #NFTs #BTC #ETH #cry…",228,0
1375265713951186946,"2021-03-26T01:57:52Z","#Sponsored  😍The #DeFi Yield Protocol is developing a unique platform: Anyone can provide #liquidity &amp; be rewarded for the first time with #Ethereum  🤑6,366.95 #ETH worth $10,869,776.32 paid to the #liquidityproviders since launch  Check https://t.co/ftVaR00xr3 for details!! https://t.co/BvE29pWtpX",491,0
1375265712122527749,"2021-03-26T01:57:51Z","@EpikNFT @TruktorNFT Auction has begun! Cureent BID 0.10 ETH  Check out this artwork by knikxknok on @withFND! 🌐 🐘Animation link below BID here: https://t.co/6AsRZ9esUT https://t.co/5OB3FoFu8F",2,1
1375265707860971528,"2021-03-26T01:57:50Z","Holy shit, mannnn 🔥🔥🔥  Guys please check this out, my friend started minting #NFT with his amazing artworks!!!! Yo duy gogogo 🤩🚀 @duypham2607   #cryptoart #NFTs #nftcollectors #cyrptocurrency #digitalart $BTC $ETH $CAKE $MANA $ATOM https://t.co/DPVRFuh4fU",6,1
1375265706745290754,"2021-03-26T01:57:50Z","TDAmeritrade was created for 100 $MANA ($82.48 USD = 0.0514 $ETH) by https://t.co/O8zWF5IJz4 https://t.co/m9cS9L58RV #decentraland #names #avatar https://t.co/2I5HJe222x",2,1
1375265697673060353,"2021-03-26T01:57:48Z","🔥 WoW!!! $DYP getting listed on @kucoincom !  DYP/USDT &amp; DYP/ETH trading will start tomorrow, March 25th at 10AM UTC! Good job @dypfinance team!  #DeFi #uniswap #Ethereum https://t.co/Rw9qa5l5tA",2225,1
1375265695932551170,"2021-03-26T01:57:47Z","Welcome to New NFT Panda Hero  #038 NFT Panda - Shadow (5/5)  He's Shadow. He's here to serve the Empire of Rarible.  No one can't stop NFT Pandas Pump  https://t.co/Kgtq2CeeUA  #nft #nftart #nftpanda #rarible #eth  #NFTs",14,1
1375265685794775041,"2021-03-26T01:57:45Z","🔥 We are thrilled to announce $DYP listing on @kucoincom !  🔷 DYP/USDT &amp; DYP/ETH trading will start tomorrow, March 25th at 10AM UTC!  🔸 Stay tuned: More News and Activities TBA!  ✅ More News at: https://t.co/7xB73Xen1N https://t.co/uQ3Q5sPpq3",570,1
1375265683764736005,"2021-03-26T01:57:44Z","OSRS was created for 100 $MANA ($82.48 USD = 0.0514 $ETH) by https://t.co/O8zWF5IJz4 https://t.co/HDforDcPcu #decentraland #names #avatar https://t.co/MRcjrdeshm",1,1
1375265672352067587,"2021-03-26T01:57:42Z","$DYP trading is now live on #KuCoin!  🚀 DYP/USDT: https://t.co/JRuHleEYrO 🚀 DYP/ETH: https://t.co/fOlQ3xkiGa  Find out more about @dypfinance in #KuCoinCryptoGem card https://t.co/oLT23dSfWq https://t.co/oSDLuCG1Jr",230,1
1375265671018246146,"2021-03-26T01:57:41Z","PancakeSwap was created for 100 $MANA ($83.21 USD = 0.0516 $ETH) by https://t.co/O8zWF5IJz4 https://t.co/H3GOXWtXUT #decentraland #names #avatar https://t.co/cyBUIbNBy3",1,1
1375265668518576134,"2021-03-26T01:57:41Z","@Arturo_P_A @bobrasX @XummWallet as someone who has used many dapps on eth, BSC, and Terra, xApps are so genius. instead of taking your wallet to the app to connect, you bring the app to your wallet. the closest thing other chains have to this is wallets with built in browser which is still clunky UX",1,0
1375265666802929668,"2021-03-26T01:57:40Z","*GIVEAWAY*   To celebrate hitting 100 followers, we have decided to give one lucky follower $25 in $ETH.   All you have to do to enter is RETWEET and FOLLOW my account @PrestigeBulls.   Good luck everyone, we’ll announce the winner next week. #crypto #bitcoin $eRSDL $wCRES $LUNA",30,0
1375265664693235715,"2021-03-26T01:57:40Z","RT @CashNCrypto: $150 to one person in 48hrs  Rt &amp; follow me + @domscrypto &amp; @boar_eth",2067,0
1375265656397033472,"2021-03-26T01:57:38Z","*GIVEAWAY*   To celebrate hitting 100 followers, we have decided to give one lucky follower $25 in $ETH.   All you have to do to enter is RETWEET and FOLLOW my account @PrestigeBulls.   Good luck everyone, we’ll announce the winner next week. #crypto #bitcoin $eRSDL $wCRES $LUNA",30,0
1375265652588482560,"2021-03-26T01:57:37Z","Suning was created for 100 $MANA ($83.21 USD = 0.0516 $ETH) by https://t.co/O8zWF5IJz4 https://t.co/5w1IhNEjPe #decentraland #names #avatar https://t.co/dssHQz3Xdp",1,0
1375265642463510529,"2021-03-26T01:57:35Z","Get out &amp; vote! Vote with $vBNT 𝘸𝘪𝘵𝘩𝘰𝘶𝘵 𝘨𝘢𝘴! (free)  Every new token which is getting listed, is also good for your funds/stake!  more tokens➡️more attention, more attention➡️more volume,  more volume➡️more APY!  $UBT $DIP $FET $BARN $RGT $LINK $ETH $BNT https://t.co/DvHzy0b7bH",62,0
1375265626202198017,"2021-03-26T01:57:31Z","🔄 Prices update in $USDT (1 hour):  $BTC - 52267.12 $      (+0.35 %) $ETH - 1627.54 $       (+0.36 %) $DOT - 30.95 $         (+1.58 %) $ADA - 1.12 $          (-0.69 %)  #BTC #ETH #DOT #ADA #Crypto #Bitcoin",0,0
1375265622817447937,"2021-03-26T01:57:30Z","🔄 Prices update in $USDT (1 hour):  $BTC - 52267.12 $      (+0.35 %) $ETH - 1627.54 $       (+0.36 %) $DOT - 30.95 $         (+1.58 %) $ADA - 1.12 $          (-0.69 %)  #BTC #ETH #DOT #ADA #Crypto #Bitcoin",0,2
1375265609643003909,"2021-03-26T01:57:27Z","RT @CryptoGodJohn: April thoughts.   $ETH out performs $BTC   $XRP out performs $ETH  DeFi out performs the market.",918,2
