"ID","created_at","text","like_count","rt_count"
1375915527139291138,"2021-03-27T20:59:59Z","@ChainlinkNFThub ETH addres : 0x1b32BBb3798BFB848be2FA213350d23fE23Db8e3",0,0
1375915525105184769,"2021-03-27T20:59:59Z","CRYPTO NEWS - SELLING ETH, Buying Hidden Gems https://t.co/FIAsOgCFjM via @YouTube",0,0
1375915501436555267,"2021-03-27T20:59:53Z","RT @AltcoinDailyio: $BTC and $ETH are just babies. We are early. 👶",2021,0
1375915481195016197,"2021-03-27T20:59:48Z","👽YOU'RE ON THE BLACKLIST BUT U HAVE A LOT OF FAKES - 0.3 ETH👽@withFND  Art touches on the topic of creating fake personalities on social networks. Don't be hypocritical, respect my boundaries!   https://t.co/AoqICVddTv  #nft #nftart #cryptoart #NFTs #NFTartists #foundationapp https://t.co/0hxfBNyp8l",251,0
1375915479005454336,"2021-03-27T20:59:48Z","🔔Poll Finance Token Sale - Softcap is now live! Get +20% more tokens as an early participation bonus!  Get your tokens immediately upon sending ETH to the contract.  🔹Send ETH to : 0x67ad111e81408fc444b6a15bd4ffa40c6e919b65  Etherscan : https://t.co/s9GOTZ4E96  $POLL $DEFI https://t.co/H86T6dLHgj",1471,0
1375915477726339073,"2021-03-27T20:59:47Z","👽YOU'RE ON THE BLACKLIST BUT U HAVE A LOT OF FAKES - 0.3 ETH👽@withFND  Art touches on the topic of creating fake personalities on social networks. Don't be hypocritical, respect my boundaries!   https://t.co/AoqICVddTv  #nft #nftart #cryptoart #NFTs #NFTartists #foundationapp https://t.co/0hxfBNyp8l",251,0
1375915463125970947,"2021-03-27T20:59:44Z","@GhostiesNFT Ether Monks! Reserve met at 0.4 ETH https://t.co/GnUuKsYQpD",1,0
1375915460059881483,"2021-03-27T20:59:43Z","@GlitchProtocol GLCH/ETH 4hr MacD just ticked green AND they just announced a partnership with @RampDefi AND they're finalizing a listing on a top 10 CEX !!!!!!!!!!!  This one is going to the MOON.  It's only a matter of time. #DeFi #HiddenGemHunter #Hiddengems https://t.co/9QkEiiLFqF",11,0
1375915458059194370,"2021-03-27T20:59:43Z","Welcome to massive Q DAO airdrop!   1. go now to telegram https://t.co/COyXgODY1z   2. Stay in telegram chat and wait announcement.  3. HOLD this gem until 10x   (soon - QDAO launch cross-chain for BSC, Polkadot and ETH)",4254,0
1375915453856505856,"2021-03-27T20:59:42Z","MAN $POODL IS JUST AWESOME, APE IN BEFORE ITS TOO LATE AND #HOODLTHEPOODL TO JUPITER🚀🐩🪐  $hoge $doge $froge $shib $feg $btc $eth $npxs $pika #crypto #doge @jakepaul @KSI @elonmusk https://t.co/1MbZtOnnmj",19,0
1375915451025219587,"2021-03-27T20:59:41Z","Minted on @opensea! Bot Gear Rookie Card! - Silver Parallel 1/1 #nft #opensea #nfts #NFTartists #nftcollector #NFTcollectibles #Doodles #Cryptoart #cryptoartist #Ethereum #ETH #thehobby #prizm #Panini #SNKRS  #Nike #jordan1 #JORDANS #offwhite   https://t.co/dQ2THT0EHc",1,0
1375915441525252105,"2021-03-27T20:59:39Z","$POODL is 7000 HOODLERS and rising. Did you #HOODLTHEPOODL TODAY? #btc #cryptocurrency #price #blockchain #time #crypto #money #news #coinbase #usd #buying #eth https://t.co/gdcMp7awpY",19,0
1375915433107279880,"2021-03-27T20:59:37Z","🚀 Pluto Coin  Airdrop 🚀 Rate: ⭐⭐⭐⭐ ⭐ 🎁 Reward:  8822 PLUT ($1500) 👫 Referral: 40.5 PLUT  ($7)  🤖Start Bot here   https://t.co/x5JZchojO8  ⛂ Join Telegram group and channel. ⛂ Follow twitter &amp; retweet  ⛂ Submit ETH address and details.",6005,0
1375915427566522369,"2021-03-27T20:59:35Z","$UTK: Cup and handle on the daily chart with a also a bullish flag. Can it get better than this?  $BTC $ETH $LTC $XRP $TRX $DOT $UNI $XLM $FTT $BNB $CHZ https://t.co/JkVAtRVmLU",106,0
1375915425997991940,"2021-03-27T20:59:35Z","👽YOU'RE ON THE BLACKLIST BUT U HAVE A LOT OF FAKES - 0.3 ETH👽@withFND  Art touches on the topic of creating fake personalities on social networks. Don't be hypocritical, respect my boundaries!   https://t.co/AoqICVddTv  #nft #nftart #cryptoart #NFTs #NFTartists #foundationapp https://t.co/0hxfBNyp8l",251,0
1375915424316059650,"2021-03-27T20:59:35Z","@spqrlee mine are better  $ETH ask @RaoulGMI  $LTC meh $XRP 😂 $ADA 🆙 $DOT ask @arrington  $TRX no 1 cares $ALGO 🤔 $ZIL who? $DOGE hey @elonmusk what say ye? $Tel ask my man @360_trader  $XLM ✨ $VET $1+ 😍 $LINK ✔️ $RSR $PLA $HPB $SHA $JUR $OCE 🥱 $BTCST 🤡 Delete this Tweet 😜",1,0
1375915404829323273,"2021-03-27T20:59:30Z","To celebrate our launch, and to give back to the community, we have decided to give away:  ⭐️ 1 Limited edition non fungible ape ⭐️ 500$ in $ETH  To enter: 📌 Retweet  📌 Follow @nonfungibleapes  📌 Tag 1 friend  Ends 27th of March, best of luck! #NFT #nfts #giveaway #giveaways https://t.co/zvEizZpeo5",541,0
1375915401650003970,"2021-03-27T20:59:29Z","⚡️ MY FIRST #NFT ⚡️  artwork HANDY, listed on @withFND for 1.50 ETH  → https://t.co/750LjcBU7J  the backstory of the illustration is below in the replies ↓  #NFTs #NFTart #NFTCommunity #NFTcollectors #NFTcollector #NFTartist #cryptoart #cryptoartist  #digitalartist #digitalart https://t.co/mwi06c34v3",277,0
1375915394817527808,"2021-03-27T20:59:28Z","I don't like Elen, but I love my $POODL!  https://t.co/zpE8X5dQMg  $HOGE $DOGE $GRUMPY  #bitcoin #btc #cryptocurrency #price #blockchain #time #crypto #money #news #coinbase #usd #buying #eth #ada #poodl https://t.co/P0V6fq73GQ",18,0
1375915392376397825,"2021-03-27T20:59:27Z","Nessie #394 has emerged from the depths of Loch Ness and is now minted on the #ETH blockchain via @opensea  PRICE:  Ξ0.085  TOTAL SUPPLY: 889  https://t.co/SKn3S1MFTa  #Nessies #pixelart #cryptopunks #crypto #NFT #NFTs #NFTCommunity https://t.co/VTlni6HWxC",22,0
1375915392225382402,"2021-03-27T20:59:27Z","$SPI update: First of all we need close above 170$, daily candles, then my targets are:  1- 209$ ( ATH )  2- 279$ 3- 366$ ( yes +100%)  Supply: 1M Mcap: 150M  #Uniswap: https://t.co/bpkRQuwH12  Telegram: https://t.co/h21hVSiu3a  #bitcoin $BTC $ETH $BNB $DOT $GSPI @300Token https://t.co/8tlUWDLZ6l",24,0
1375915390828699649,"2021-03-27T20:59:27Z","CRYPTO NEWS - SELLING ETH, Buying Hidden Gems https://t.co/AlfnjEN1rg via @YouTube",0,0
1375915388484124679,"2021-03-27T20:59:26Z","@Padierfind NFTs can be used to monetize digital art yes (despite it being unprotected hhh) but again, not at that cost, artist that build on MUCH LESS DAMAGING currencies are also not the target of the community it's the ETH artists that are getting criticized for good reason",0,0
1375915386051436548,"2021-03-27T20:59:25Z",".       AS LAST YEARS NEW #ECOSYSTEMS ON THE BLOCK   $KSM keeps showing their teeth while heading top 10 , NO DIPS allowed   $DOT is going to breakout out of the doggpound soon, HUNGRY and JACKED  up for $ETH his 🦴  Both parties have HUGE room too grow #PARACHAINS ARE COMING! https://t.co/pS4PUEHpnB",109,0
1375915335136772098,"2021-03-27T20:59:13Z","$SPI update: First of all we need close above 170$, daily candles, then my targets are:  1- 209$ ( ATH )  2- 279$ 3- 366$ ( yes +100%)  Supply: 1M Mcap: 150M  #Uniswap: https://t.co/bpkRQuwH12  Telegram: https://t.co/h21hVSiu3a  #bitcoin $BTC $ETH $BNB $DOT $GSPI @300Token https://t.co/8tlUWDLZ6l",24,8
1375915329189199873,"2021-03-27T20:59:12Z","@bullyb170 This is now an NFT, starting bid is 1 ETH.",4,0
1375915327716986884,"2021-03-27T20:59:12Z","🚀 Pluto Coin  Airdrop 🚀 Rate: ⭐⭐⭐⭐ ⭐ 🎁 Reward:  8822 PLUT ($1500) 👫 Referral: 40.5 PLUT  ($7)  🤖Start Bot here   https://t.co/x5JZchojO8  ⛂ Join Telegram group and channel. ⛂ Follow twitter &amp; retweet  ⛂ Submit ETH address and details.",6005,0
1375915297169944580,"2021-03-27T20:59:04Z","🔶 CryptoDicko Giveaway! 🔶  1/1 Edition Next Suprise CrpytoDicko #NFT  VALUE: 0,1 ETH Follow and RETWEET also Comment! Thank you!   Aradicko Harry Dickor  GET a CryptoDicko limited edition!  #NFT #nftcollector #NFTs #NFTartist #nftcollectors #NFTartists #NFTdrop https://t.co/xJS1gDcIoc",16,0
1375915285472022534,"2021-03-27T20:59:01Z","Punk 6092 bought for 18.99 ETH ($32,428.84 USD) by 0xb1aaf1 from 0x62bdc6. https://t.co/ye6RpwxJae #cryptopunks #ethereum https://t.co/OGXRXRmrHO",7,0
1375915284897349632,"2021-03-27T20:59:01Z","@maria_solve Lady Virgin is in search of her home:   Artist: Anya Ursa  Name: Crypto Virgin Marketplace: FND  Price: 0.5 ETH Copies: 1 https://t.co/irBlt3OKls",0,0
1375915275770605575,"2021-03-27T20:58:59Z","Trade $BLES on @Uniswap! 🚀   📈 We're now live and trading after a successful IDO on @paid_network. 💪 Find us on @DEXToolsApp.  Dextools: 👇 https://t.co/dvzdtRa7NK  #ethereum #eth #crypto #blockchain $ETH https://t.co/xivkdQ4o1Z",164,0
1375915261765763072,"2021-03-27T20:58:56Z","Oooooo @basileus_eth is on fire! He’s placed a bid on the second Save Yourself piece on @KnownOrigin_io 🙏🏽 #CryptoArt #NFTCommunity #Art #NFT https://t.co/ZernsPRs4L https://t.co/UocPdWTmds",7,0
1375915249669435399,"2021-03-27T20:58:53Z","CRYPTO NEWS - SELLING ETH, Buying Hidden Gems https://t.co/vauayt3pvh via @YouTube",0,0
1375915242966941704,"2021-03-27T20:58:51Z","https://t.co/kBNu84AVyQ…  SHITOSHI #9 has been minted on the #ETH blockchain via @opensea  It's a TOPHAT OG = 'UNCOMMON'  PRICE:  Ξ0.01  TOTAL SUPPLY: 999  #NFTs #nftcollector #NFTCommunity #NFTartist #NFTcollectibles #cryptopunks #NFTTOTHEMOON #NFTdrop #NFTDROPS #NFTshill https://t.co/bcw6QS85Wk",4,0
1375915237950554116,"2021-03-27T20:58:50Z","@DropYourNFT mineral ohm 1.1 (0.5 Eth) is my Genesis piece for @KnownOrigin_io. it is a generative piece created with code utilizing correlated noise interacting with nested trigonometric functions. edition 1/1.   https://t.co/kcfpr9sHBk https://t.co/KalyzJlKZp",0,0
1375915237195579395,"2021-03-27T20:58:50Z","Pulling the cork to celebrate the 1st bid @withFND on my very first #NFT! Very excited about it and the thanks goes to @Newer_Economy &amp; #NFTCommunity ! #cryptoart #nftcollector $eth #cryptoart  https://t.co/svHmHQu595",18,4
1375915233018007554,"2021-03-27T20:58:49Z","🚀 Pluto Coin  Airdrop 🚀 Rate: ⭐⭐⭐⭐ ⭐ 🎁 Reward:  8822 PLUT ($1500) 👫 Referral: 40.5 PLUT  ($7)  🤖Start Bot here   https://t.co/x5JZchojO8  ⛂ Join Telegram group and channel. ⛂ Follow twitter &amp; retweet  ⛂ Submit ETH address and details.",6005,4
1375915221563281408,"2021-03-27T20:58:46Z","THE FINAL COUNTDOWN  🥁Drummer Troll🥁  Auction ends @2pm. Clock extends by 10 minutes with each new bid. Part of CYBER WATCH from @TheGuild_NFT on @AsyncArt   sportive-hopper-5688 has the lead, but @basileus_eth + @jjohnsonAUS could still make a play...  https://t.co/CnYe3yMSg2 https://t.co/xHEzN8RCgo",23,4
1375915211417354242,"2021-03-27T20:58:44Z","👽YOU'RE ON THE BLACKLIST BUT U HAVE A LOT OF FAKES - 0.3 ETH👽@withFND  Art touches on the topic of creating fake personalities on social networks. Don't be hypocritical, respect my boundaries!   https://t.co/AoqICVddTv  #nft #nftart #cryptoart #NFTs #NFTartists #foundationapp https://t.co/0hxfBNyp8l",251,4
1375915208464494593,"2021-03-27T20:58:43Z","New Airdrop: Diamond Crystal (DCT) Reward: 100 DCT ($100) Rate: ⭐️⭐️⭐️⭐️ Focus: Distribution starts after airdrop ends   Bot Airdrop Link: https://t.co/9Qzk47HUKt  #Airdrop #giveaway #BTC #ETH",4033,4
1375915208326197251,"2021-03-27T20:58:43Z","Dries Mertens bought for 0.225 ETH (383.81$) on the secondary market   Season: 2019-2020 Level: 11 Serial: 40/100 Price: 383.81$  ⚽ Sorare: https://t.co/zOdW5ZKcRP  📊: https://t.co/wi3MkxJPrt  #Sorare #NFT #Ethereum #FantasyFootball",0,0
1375915198805073920,"2021-03-27T20:58:41Z","@RobertCow_ Lady Virgin is in search of her home:   Artist: Anya Ursa  Name: Crypto Virgin Marketplace: FND  Price: 0.5 ETH Copies: 1 https://t.co/irBlt3OKls",1,0
1375915188063461387,"2021-03-27T20:58:38Z","@RedeemableNFTs @bneiluj It exists to add liquidity to projects, protocols, and otherwise would-be dying to dead tokens.  Exactly the same thing all the ETH pools do for ETH tokens.  It's not meant to be anything like the exchange. Wallet to Wallet, no kyc, etc...",4,0
1375915186213781509,"2021-03-27T20:58:38Z","🚀 Safe The Children  🔷 Token Symbol : STC  🔷 Contract: https://t.co/nk3qsF2PJV  🔷 Website: https://t.co/4y0g7dqswM  🔷 Whitepaper: https://t.co/PHPZI4dbyR  🔷 Presentation Video : https://t.co/Mycfov12IU  #Safe_Childrens #Bitcoin  #Binance #BinanceSmartChain #DEFI  #BTC #ETH",14720,0
1375915185270095876,"2021-03-27T20:58:38Z","@Padierfind @weltraumimport Less energy than YT btw Source for that? Last I knew was that Bitcoin used 3x as much power than Amazon, Google, Microsoft, Facebook, and Apple combined (~45 Twh), and I think Eth was at smth like 30 Twh",2,0
1375915182636027907,"2021-03-27T20:58:37Z","101 billion $POODL could be yours, but are you even trying?   $PANTHER $HOGE $DOGE $GRUMPY  #bitcoin #btc #cryptocurrency #price #blockchain #time #crypto #money #news #coinbase #usd #buying #eth #ada https://t.co/MV9KUggbZQ",29,0
1375915181369405442,"2021-03-27T20:58:37Z","@PlanetsDaily @Fabiche__ mineral ohm 1.1 (0.5 Eth) is my Genesis piece for @KnownOrigin_io. it is a generative piece created with code utilizing correlated noise interacting with nested trigonometric functions. edition 1/1.   https://t.co/kcfpr9sHBk https://t.co/mejAIQ83GG",0,0
1375915180031234049,"2021-03-27T20:58:36Z","https://t.co/Tox1ArW0t8  For Sale !  Be the best known #NFTCommunity in the UK 🇬🇧 with this unique #DomainName  . . #NFTs #Nftart #nftcollector #cryptoart #cryptoartist #NFTartists #Ethereum #NFT #NFTcollection #NFTcollectibles #cryptocurrency #NFTsized #CleanNFT #ETH",0,0
1375915178840236034,"2021-03-27T20:58:36Z","$ETH $KSM $RSR   Will smack April sideways",1,0
1375915170468401154,"2021-03-27T20:58:34Z","@colinsinclair Live auction happening! Reserve met at 0.4 ETH https://t.co/GnUuKsYQpD",6,1
1375915170359349249,"2021-03-27T20:58:34Z","#Holochain is an amazing platform, not blockchain but a peer-to-peer network for hosting decentralized applications. Holochain frees our online lives from corporate control over our choices and information!  $HOT #btc #eth #xrp #link #ada #bnb #eos #ltc #trx #dogecoin #xlm https://t.co/rD3lD5Uu5S",59,1
1375915167230406664,"2021-03-27T20:58:33Z","RT @Massai_: The bids are now 1 Eth 🗣🗣🗣 https://t.co/M0oWL6qLuX",21,1
1375915160104103938,"2021-03-27T20:58:32Z","RT @SmartContracter: did you buy the $eth dip anon?  2.5-3k comes after the abc 0.618 tap. https://t.co/WQN4gUx399",414,1
1375915155985473538,"2021-03-27T20:58:31Z","@JJcycles I would hold $SOL rather than $ETH.",3,0
1375915147424858114,"2021-03-27T20:58:29Z","@OpCryptoUK @CryptoMobsterYT CHSB has done me proud, eth staked too",1,0
1375915145960951810,"2021-03-27T20:58:28Z","@TrustlessState @PeterMcCormack What's ETH max supply?",15,0
1375915141888282624,"2021-03-27T20:58:27Z","CRYPTO NEWS - SELLING ETH, Buying Hidden Gems https://t.co/fugWJKKmsa via @YouTube  @JRNYcrypto",0,0
1375915140919484416,"2021-03-27T20:58:27Z","CRYPTO NEWS - SELLING ETH, Buying Hidden Gems https://t.co/Emkixm0Vkh via @YouTube",0,0
1375915140852248578,"2021-03-27T20:58:27Z","CRYPTO NEWS - SELLING ETH, Buying Hidden Gems https://t.co/3GFAQemuiT via @YouTube",0,0
1375915133466255366,"2021-03-27T20:58:25Z","@maria_solve You can begin the 24h countdown on this with a 0.2 eth bid, all RT are appreciated https://t.co/nDXN88dF2Z",0,0
1375915119205613568,"2021-03-27T20:58:22Z","@harneleon Lady Virgin is in search of her home:   Artist: Anya Ursa  Name: Crypto Virgin Marketplace: FND  Price: 0.5 ETH Copies: 1 https://t.co/irBlt3OKls",0,0
1375915117423030279,"2021-03-27T20:58:21Z","You only #invested a 100 bucks but you just opened your crypto wallet to find 1 million dollars! What could have pumped so hard? Was it #BTC? Was it #ETH? Was it #Doge? But it was... #Pika?! Come find out why everyone loves our community and get in before the pump! https://t.co/HhVxrrTOE4",19,0
1375915111072862209,"2021-03-27T20:58:20Z","Nessie #394 has emerged from the depths of Loch Ness and is now minted on the #ETH blockchain via @opensea  PRICE:  Ξ0.085  TOTAL SUPPLY: 889  https://t.co/SKn3S1MFTa  #Nessies #pixelart #cryptopunks #crypto #NFT #NFTs #NFTCommunity https://t.co/VTlni6HWxC",22,0
1375915105217622017,"2021-03-27T20:58:19Z","CRYPTO NEWS - SELLING ETH, Buying Hidden Gems https://t.co/ykLb6TK1vw via @YouTube",1,0
1375915091422498817,"2021-03-27T20:58:15Z","@McJuggerNuggets $Hoge to the Moon Build Long Term Wealth Not Get Rich Quick Schemes  $BTC 12 yrs old  $LTC 10 yrs old $DOGE 8 yrs old $LINK 8 yrs old $ETH 6 yrs old $HOGE 2 months old  $HOGE is NOW for YOUR FUTURE. It's like DOGE but DeFi! https://t.co/jOtSRcS1fx &lt;-- How to buy",46,0
1375915090311057417,"2021-03-27T20:58:15Z","@treidius Not bad but I’d love to see something like that on Cardano, if possible.   I don’t touch Eth these days.",1,0
1375915082840997888,"2021-03-27T20:58:13Z","Nessie #394 has emerged from the depths of Loch Ness and is now minted on the #ETH blockchain via @opensea  PRICE:  Ξ0.085  TOTAL SUPPLY: 889  https://t.co/SKn3S1MFTa  #Nessies #pixelart #cryptopunks #crypto #NFT #NFTs #NFTCommunity https://t.co/VTlni6HWxC",22,6
1375915076624941056,"2021-03-27T20:58:12Z","Save the date 💎🦋💎  🟢 Chrysalis network migration - April 21st 2021  🟡 Chrysalis network upgrade - April 28th, 2021  🔴 The crypto killer comes to life &amp; unfolds its full power!  $iota #iota $miota #miota #ada #btc #eth #Chainlink #oracles #DeFi #NTFs  https://t.co/2cdj0wVaZE",129,6
1375915068404027392,"2021-03-27T20:58:10Z","Minted on @opensea! Action Dad Rookie Card! - Silver Parallel 1/1 #nft #opensea #nfts #NFTartists #nftcollector #NFTcollectibles #Doodles #Cryptoart #cryptoartist #Ethereum #ETH #thehobby #prizm #Panini   https://t.co/qTh3LxoSL9",4,0
1375915064386064393,"2021-03-27T20:58:09Z","$OMI #ECOMI 🔥🔥🚀💯💎  Upcoming Events ! 🔥🎉🎊   #OMI #BINANCE #BTC #ETH #ALTS #NFT #nftcollector https://t.co/LIrVWuugjj",6,2
1375915064264429570,"2021-03-27T20:58:09Z","@QavyArt Lady Virgin is in search of her home:   Artist: Anya Ursa  Name: Crypto Virgin Marketplace: FND  Price: 0.5 ETH Copies: 1 https://t.co/irBlt3OKls",1,0
1375915062829850626,"2021-03-27T20:58:08Z","@AIA_NFT 📣 A 1/1 collection of AUTO GENERATED #weed #smoking #Alien #potatoes !  First batch is out for only 0.03 eth ! Price will INCREASE for future releases!  There is also a #GIVEAWAY ! RT , like &amp; follow to be one of the five lucky winners! P.S : 1% referral is also avail #ToTheMoon https://t.co/0kbXXmjgCK",3,0
1375915054281814020,"2021-03-27T20:58:06Z","i do think this abc on $eth should be very near completion if not done already.  all subwaves now accounted for imo.  bullish confirmation from here is reclaim of 1754, lets get some hopium back up in this shit. https://t.co/V6Yot5BCFU",385,0
1375915039102795781,"2021-03-27T20:58:03Z","🚀CryptoPunk #6092🚀 SOLD for 18.99 ETH on OpenSea! Great buy but they would have been better waiting for the @jurassicasylum drop  Check out the transaction: https://t.co/kqCGUQSxBf #JurassicAsylum #NFT #NFTartist #cryptoart #NFTCommunity https://t.co/X0bJTSUCec",1,0
1375915022421958660,"2021-03-27T20:57:59Z","@maria_solve 📣 A 1/1 collection of AUTO GENERATED #weed #smoking #Alien #potatoes !  First batch is out for only 0.03 eth ! Price will INCREASE for future releases!  There is also a #GIVEAWAY ! RT , like &amp; follow to be one of the five lucky winners! P.S : 1% referral is also avail #ToTheMoon https://t.co/Xrox59Zkxr",1,0
1375915021662892037,"2021-03-27T20:57:59Z","🤗 #XYM Lock &amp; Earn has launched at https://t.co/8kWqgEeplL @NEMofficial 🤗  💎Token: #XYM 💎Term: 7 days 💎Zero handling fee &amp; estimated annualized yield of 100%  👉Earn now: https://t.co/yAwwBIBTkA 👉Details: https://t.co/d1rkGcbUBU  #ALTSEASON #Altseason2021 #BTC #ETH https://t.co/OqLaEsRKWT",564,0
1375914990180433922,"2021-03-27T20:57:51Z","Atm, looks more like bitcoin vs eth https://t.co/vtKAINhsFc",1,0
1375914988250927104,"2021-03-27T20:57:51Z","@nft_phd 📣 A 1/1 collection of AUTO GENERATED #weed #smoking #Alien #potatoes !  First batch is out for only 0.03 eth ! Price will INCREASE for future releases!  There is also a #GIVEAWAY ! RT , like &amp; follow to be one of the five lucky winners! P.S : 1% referral is also avail #ToTheMoon https://t.co/dMPoNKaeIM",2,0
1375914976884490251,"2021-03-27T20:57:48Z","#MarchMadness got you down? Looking for something new to take up your free time? Come hangout with the #Pika fam and see why our team won’t lose! $pika #doge #tosa #link #btc #eth #BNB #uni #defi #xrp #sendit #lambo #uponly #ada #dot #froge https://t.co/5gIA3Sxbuv @pika_token",15,0
1375914974019612673,"2021-03-27T20:57:47Z","$100 #Safemoon GIVEAWAY!🚀 #Giveaway #pancakeswap #bitmart #BNB #BTC #ETH #cryptocurrency #CryptoNews  1. Retweet 2. Follow @RogueTrade_  LIKE IS ♥️ &amp; leave a comment 🚀🚀🚀 https://t.co/PaMvdjV9u8",213,0
1375914969833869312,"2021-03-27T20:57:46Z","@colinsinclair 💀SK02💀  #2 of a 5 piece collection all inspired by traditional Mexican Candy skulls  💎1/1  🔥0.2 ETH  https://t.co/gJSOwL9bv5",1,0
1375914967069827077,"2021-03-27T20:57:46Z","$Kin is #9 on Top Growing in Finance and Buisiness!  https://t.co/jHWLSGM7Gh  https://t.co/MYkff6519H https://t.co/eIkW4dVLKk  #Kin #NFTs #DeFi #btc #bitcoin #solana #bch #usd #xrp #eth #price #crypto #ltc #fintech #blockchain #buythedip https://t.co/hMn3f3mPlj",68,0
1375914965371129858,"2021-03-27T20:57:45Z","The @holochain community right now. $HOT #Holochain #Holo #Hot  #cryptocurrency #Crypto #HoloFuel #bitcoin #btc #Ethereum #blockchain #eth #Currency #xrp #trading #altcoin #Ripple #Binance #CryptoNews https://t.co/uGmdQxPOiR",44,0
1375914962661572616,"2021-03-27T20:57:45Z","Launching MASK OFF, a rare and exclusive #NFTdrop from myself &amp; @joshCparsons available now on @withFND at a 0.4 $ETH reserve. 💯  Music by EXUMGOD!   ↳ https://t.co/kH35ZMeYlV  #Ethereum #NFTs @FeltZine https://t.co/0JNLWOD1Y6",207,0
1375914955057205250,"2021-03-27T20:57:43Z","@tokenames 📣 A 1/1 collection of AUTO GENERATED #weed #smoking #Alien #potatoes !  First batch is out for only 0.03 eth ! Price will INCREASE for future releases!  There is also a #GIVEAWAY ! RT , like &amp; follow to be one of the five lucky winners! P.S : 1% referral is also avail #ToTheMoon https://t.co/EVQAh71qfd",2,0
1375914951278141441,"2021-03-27T20:57:42Z","Minted on @opensea! Action Mom Rookie Card! - Silver Parallel 1/1 #nft #opensea #nfts #NFTartists #nftcollector #NFTcollectibles #Doodles #Cryptoart #cryptoartist #Ethereum #ETH #thehobby #prizm #Panini   https://t.co/meD8Y39BHn",2,0
1375914946509336582,"2021-03-27T20:57:41Z","First one goes to @jims_eth 🥳! https://t.co/8uyenOlu0Q",1,1
1375914938368155649,"2021-03-27T20:57:39Z","@java_tor @yellowdoodle1 @eosargentina @bytemaster7 @MetaMask I don’t understand your comment. Are you trying to make fun of the CPU of an account used to run dapp services on #EOS?  Try getting 1/2 minute price oracle on #ETH, oh right, you cant.   @vigorprotocol @VIGORespanol",3,0
1375914937948778508,"2021-03-27T20:57:39Z","I just joined this $25k Crypto giveaway by @JRNYcrypto and @sparkpointio Get daily entries to increase your chances of winning! 25 random winners of $1k each! #Bitcoin #Crypto $BTC $ETH $SRK",1,0
1375914933750272003,"2021-03-27T20:57:38Z","$ETH's versatility as an asset is truly awesome.  - Used to pay fees (burned w/ 1559) - Held as a store of value - Internet bond w/ staking - Trustless collateral in DeFi - Powers the NFT economy - Used as money inside &amp; outside of DeFi/NFTs  And more to come in the future!",404,0
1375914924421963778,"2021-03-27T20:57:35Z","@thechulitosclub @opensea 📣 A 1/1 collection of AUTO GENERATED #weed #smoking #Alien #potatoes !  First batch is out for only 0.03 eth ! Price will INCREASE for future releases!  There is also a #GIVEAWAY ! RT , like &amp; follow to be one of the five lucky winners! P.S : 1% referral is also avail #ToTheMoon https://t.co/NhNHjhrkgB",3,0
1375914924350832648,"2021-03-27T20:57:35Z","RT @JSDRAM: @crypto_bitlord7 Stopped someone from buying $ETH?",0,0
1375914918508122114,"2021-03-27T20:57:34Z","Saw someone was peddling the .eth domain for a hot #NFT stock.  It's going to be interesting to see what decentralized companies/individuals that launched dapp will do when hit by trademark lawsuits.",6,2
1375914910845177861,"2021-03-27T20:57:32Z","Join the @Holdefi community in HLD public sale!  #HLD #Holdefi #ETH #BSC #IDO #ICO 👇👇 https://t.co/nJ5JsRPr4a",0,0
1375914908047572997,"2021-03-27T20:57:31Z","RT @TexanHodl: Anyone know the max supply of ETH? I tried running a full eth node and my computer exploded and told me to have fun staying…",210,0
1375914894940368905,"2021-03-27T20:57:28Z","#Grumpee just wants to be like us so be it 🕊 $poodl #spacedoge $tosa $grumpy $shib $pika $feg $hoge $ada $btc $eth $pipi $jedi $grug $tnt $bunny https://t.co/jfkIRUuyLM https://t.co/lpRnKDCZcH",14,0
1375914884798504962,"2021-03-27T20:57:26Z","@matthewjura BTC is money. Being long ETH vs money looks like not such a great idea is my general thesis. To get an idea of ETH the asset, feel free to look at #ADAETH and #ADABTC to compare....",1,0
1375914859100045324,"2021-03-27T20:57:20Z","My Crypto Strategy on ICONOMI just outperformed BTC. Check it out here: https://t.co/reETKV1bkI #bitcoin #invest #eth #bitcoinnews https://t.co/pBmosY89DH",0,0
1375914858139549699,"2021-03-27T20:57:20Z","$BTC vs $ETH https://t.co/hIKW2sRKLo",0,0
1375914853118926854,"2021-03-27T20:57:18Z","Join the @Holdefi community in HLD public sale!  #HLD #Holdefi #ETH #BSC #IDO #ICO 👇👇 https://t.co/RsP95dCPBJ",1,0
