"ID","created_at","text","like_count","rt_count"
1377259373555290112,"2021-03-31T13:59:57Z","Have you made your 4x on $SLM? No? Don't you worry, this is not the long-term top for sure 😉  #Payment plugin launches in Q3 🚀🔝  #DeFi #Crypto #Bitcoin #ETH $BTC $ETH #Uniswap $SPI $COTI #paypal #ecommerce #shopping https://t.co/zr4QGES6q3 https://t.co/Q2FhuQMS9k",12,1
1377259373328752641,"2021-03-31T13:59:57Z","Wills in our generation are going to look like.   I, Chief Oluniyi Jasper give all my possession in BTC to my son.   All my possession in ETH to my daughter.  My extended family gets all my Doge Coin.  My wife gets my USDT wallet.   Donate all my BNB to charity.   Peace ✌️",210,67
1377259371097436162,"2021-03-31T13:59:56Z","@buchara97 My first NFT available on  @mintable_app  No Hope for Humanity @ 1/1 by  @nostalgiarda  Every like means a lot to me ❤️  Sells for 0.01 ETH (~$18)  https://t.co/FLNjrJhY43  #NFT #NFTs #NFTart #NFTartists #NFTCommunity #nftcollector https://t.co/dXc9uxZ8qg",3,0
1377259369411137543,"2021-03-31T13:59:56Z","Any coins with good potential?  $BTC $ETH $FET $THETA $COTI",0,0
1377259366441746432,"2021-03-31T13:59:55Z","NFT GIVEAWAY 17  i pick 1 person, i pay gas $15  requirement 1 POST your rarible url 2 RETWEET&amp;LIKE 3 FOLLOW twitter 4 TAG friends  optional 5 FOLLOW insta https://t.co/YNn3gn37XL  sell the card for&gt;0.05 eth #NFTCommunity #nftcollector #nftart  @rariblecom https://t.co/w4J4U7gMQv",44,31
1377259356794707973,"2021-03-31T13:59:53Z","@paranoidhill @dixon_eth @RealBanCroft Love it 😂",2,0
1377259349211504643,"2021-03-31T13:59:51Z","🎁🎁  AIRDROP  Starts Soon 🎁🎁   We are giving 10,000 users 10,000   YearnCasino -YRNC-    Join the IEO  and grab it while it's still cheap https://t.co/sigigs6qZE   To Join the Airdrop   ✅ Retweet  ✅ Retweet Pinned Tweet  ✅ Follow us ✅ common wallet address  #Airdrop #eth https://t.co/LE1TgGDmxp",137,942
1377259349194645509,"2021-03-31T13:59:51Z","DCT TOKEN Airdrop Medium Star Claim 1 DCT ($ 100) + 0.045 DCT ($ 10) for each referral you make.   Steps  💎  Join channel and group  💎  Follow twitter, like and retweet pinned message   💎  Submit eth wallet address (ERC-20) Participate now Airdrop link: https://t.co/L24stp8tVI https://t.co/CVYQyLAWwU",8692,8870
1377259344371286017,"2021-03-31T13:59:50Z","#eth gas fees are too high.",0,1
1377259337098297346,"2021-03-31T13:59:48Z","@buchara97 1like + 1 cmt + 1 tweet = I can sell my NFT. Here.  https://t.co/n4v11ES9mI Thank for #NFT #nftcollectors #nftcollector #Trx #BTT #ETH  #BTC",4,0
1377259315409608704,"2021-03-31T13:59:43Z","The Tipping Point was 2020.   #MyFirstNFT  #NFT  #NFTs  #NFTCommunity  #NFTartist  #NFTcollectibles  #Bitcoin #Bitcoininvestment #cryptocurrency #cryptoart #Binance #CryptocurrencyNews #Crypto #CryptoNews #etherium #polkamon #nonfungible https://t.co/ZvP4eKAoZp",1,1
1377259311261487106,"2021-03-31T13:59:42Z","@andy8052 @DeezeFi @404tearzzz @ABCSharkTank + #NFTs = 📈  It's simple concepts like this that will bank investors ETH just give me the outlet @mcuban",1,0
1377259310951116810,"2021-03-31T13:59:42Z","@AlsisiOfficial et al don’t understand or care about #Ethiopia’s sovereign rights to utilize the natural sources present within her boundaries. They don’t want equitable share, but want the status quo of everything for them &amp; 0% to ETH. Not going to happen!#GERD #AfricaUnite https://t.co/yzZQc6Ecaw",32,30
1377259299517440008,"2021-03-31T13:59:39Z","@chemdi2002 @ecomi_ @Uniswap @BinanceUS @bitforexcom Transfer as LTC or ETH and convert to USDT on Bitforex.  Easiest way I could figure out to do it.",1,0
1377259287144202240,"2021-03-31T13:59:36Z","Realistically, investing in BOTH $SHIB and $BTC is the key, BUT, $SHIB  hopefully will bring you bigger profits sooner....😃  #SHIB #ShibaSwap #SHIBArmy #hodlSHIB $SHIB #PowerToThePeople #SHIBNavy $BTC #LTC $ETH #ResistanceIsFutile @ElonMusk #Bitcoin $VET #DogsOfTwitter #Cardano https://t.co/VY3aSufbOa",20,9
1377259286359912453,"2021-03-31T13:59:36Z","3.6k$ gas fee for a 200$ transaction to participate in the @splytcore IDO @paid_network $SHOPX $ETH 🤡 https://t.co/dff77gbdnF",0,0
1377259278835269638,"2021-03-31T13:59:34Z","Can anybody please explain the HUGE difference in $BTC Dominance today...  Someone mentioned $ETH fees/money...    but the equation must have changed..  You can't go from 59% to 56.6% w/o seeing the price action change in ALTS Universe..    Not much price action has changed.",0,0
1377259278101180418,"2021-03-31T13:59:34Z","dYdX alert Large Withdraw Tx Hash: https://t.co/gjChEnvwcB Account 0x614659165DD0edD4b2CDd14B9EE827bB2729D58d 119,466.256 ETH Value: $216,950,721.085",0,0
1377259277874700296,"2021-03-31T13:59:34Z","dYdX alert Large Deposit Tx Hash: https://t.co/gjChEnvwcB Account 0x614659165DD0edD4b2CDd14B9EE827bB2729D58d 119,466.256 ETH Value: $216,950,721.085",0,0
1377259276234682375,"2021-03-31T13:59:34Z","For UK tax purposes, profits from a #Crypto trade will be subject to income tax - what does this mean for simple doge/eth/btc hodler?  Sentiment: Negative  I understand that I may need to pay both...  Brief: https://t.co/zju72kCCSr https://t.co/3K9ANgFmzs",1,1
1377259275622305792,"2021-03-31T13:59:34Z","We have passed the 25k followers!   Thanks guys, I will give one person 1 $ETH ( worth 1800 dollars)!   Only thing you have got to do is RT &amp; LIKE this tweet and make sure you follow me so I can DM you.   On to the 30K !   #giveaway",1492,1279
1377259271574917122,"2021-03-31T13:59:33Z","$WOLFY Check out the new Video below @WolfyStreetBets   Still not on #Coinmarketcap or #Coingecko  New DAPP anyday.  #GameChanger   https://t.co/LmvcGmsd2T  https://t.co/cmjgazmwOT  https://t.co/VWYWMWOGp8  #Ethereum #ETH #BTC #wallstreetbets @elonmusk #ElonMusk #MarkCuban #DeFi",22,11
1377259264205545474,"2021-03-31T13:59:31Z","$mln This is amazing. @enzymefinance AUM is almost $22 million. Earlier this month I saw it at $13 million or less. It is growing!   #mln #sulu #defi #altseason #crypto $btc $eth https://t.co/pFXYqYsSY4",9,1
1377259259021250561,"2021-03-31T13:59:30Z","💧YetuBit Airdrop 2nd Round💧  🏆 Task:          ➕  25 YETU (~$20)  👨‍👩‍👧 Referral:   ➕  5 YETU (~$4)  🔛  Airdrop Link &amp; Information: https://t.co/ZoGw3AR71I  #cryptocurrency #Crypto #Bitcoin  #BSC #BinanceSmartChain #Ethereum #ETH #Airdrop #bounty #YetuBit #YetuSwap #YETU",4426,5632
1377259256383217665,"2021-03-31T13:59:29Z","We have passed the 25k followers!   Thanks guys, I will give one person 1 $ETH ( worth 1800 dollars)!   Only thing you have got to do is RT &amp; LIKE this tweet and make sure you follow me so I can DM you.   On to the 30K !   #giveaway",1492,1279
1377259255108100096,"2021-03-31T13:59:29Z","2/2  Here’s an idea - if you’re so certain $ETH will crush $BNB eventually, why not invest in $BNB and #BSC  now to later convent back to $ETH after 10xing your initial $ETH investment.  $BNB has crushed $ETH recently. Don’t let your prejudices hold you back from life changing $.",4,0
1377259254403407872,"2021-03-31T13:59:29Z","@dixon_eth @paranoidhill @RealBanCroft Has @realbanxo changed his name again 😂",1,0
1377259254055366658,"2021-03-31T13:59:29Z","@AltcoinDailyio I got a question for anyone who is willing to help so I bought some eth along time ago on Robinhood before I knew anything really about crypto wallets now I got a wallet should I sell what I have on robinhood and buy in again soni can keep my crypto lmk what u guys would do?",0,0
1377259253497487364,"2021-03-31T13:59:28Z","1/2  Loads of $ETH maxis are saying #BSC  is rubbish and all value will eventually make it back to $ETH so will never invest in $BNB.  This is so shortsighted - even if value will flow back to $ETH eventually, in the meantime you’re missing out on crazy gains.",3,0
1377259251404447748,"2021-03-31T13:59:28Z","We have passed the 25k followers!   Thanks guys, I will give one person 1 $ETH ( worth 1800 dollars)!   Only thing you have got to do is RT &amp; LIKE this tweet and make sure you follow me so I can DM you.   On to the 30K !   #giveaway",1492,1279
1377259249802305537,"2021-03-31T13:59:28Z","Wealth is better than rich, but it's for $SHIB. Get your $SHIB now before the price gets too high, and you start to feel low...😬  #SHIB #ShibaSwap #SHIBArmy #hodlSHIB $SHIB #PowerToThePeople #SHIBNavy #BTC #LTC $ETH #ResistanceIsFutile @ElonMusk #Bitcoin #DogsOfTwitter #Cardano https://t.co/DZa2wa2RDK",70,30
1377259246132207627,"2021-03-31T13:59:27Z","💧Nodeseeds @Airdrop 💧  🏆 Task:          ➕  $100 worth of ETH for 6 participants.  🔛  Airdrop Link &amp; Information: https://t.co/t88VoRiI8w  #cryptocurrency #Bitcoin #Crypto #Ethereum #ETH #Airdrop #bounty #NDS #Nodeseeds #DEFI #Presale",1176,1644
1377259244672536577,"2021-03-31T13:59:26Z","We have passed the 25k followers!   Thanks guys, I will give one person 1 $ETH ( worth 1800 dollars)!   Only thing you have got to do is RT &amp; LIKE this tweet and make sure you follow me so I can DM you.   On to the 30K !   #giveaway",1492,1279
1377259243565367306,"2021-03-31T13:59:26Z","Massive amounts of #tether have been moved into binance, commence ze pump! $btc $eth #cryptotrading #Cryptocurrency #bitcoin #Binance https://t.co/vF0Ck7CNPW",0,0
1377259237902938113,"2021-03-31T13:59:25Z","The world’s first global #eSIM mobile data reseller platform is here 🌋 https://t.co/C6iBswXsEi With the #DENT #Gigastore 🏪 ANY 3rd party can resell mobile data everywhere! 📱Connectivity as a Service 🔥 #dentcoin #ethereum #esim #mobile #data #roaming #connectivity #btc #eth https://t.co/bb4KKvRVYs",1980,704
1377259235902373888,"2021-03-31T13:59:24Z","The world’s first global #eSIM mobile data reseller platform is here 🌋 https://t.co/C6iBswXsEi With the #DENT #Gigastore 🏪 ANY 3rd party can resell mobile data everywhere! 📱Connectivity as a Service 🔥 #dentcoin #ethereum #esim #mobile #data #roaming #connectivity #btc #eth https://t.co/bb4KKvRVYs",1980,704
1377259234740555777,"2021-03-31T13:59:24Z","@dixon_eth @RealBanCroft @TalithaKingArt Oh gooood my twitter",2,0
1377259234228805641,"2021-03-31T13:59:24Z","💧Poplink Oracles Airdrop 💧  🏆 Task:          ➕  50 POPO (~$50)  👨‍👩‍👧 Referral:  ➕  15 POPO (~$15)  🔛  Airdrop Link &amp; Information: https://t.co/DS6g34KhFp  #cryptocurrency #Crypto #Bitcoin  #BSC #BinanceSmartChain #Ethereum #ETH #Airdrop #bounty #POPO #Poplink",6694,8525
1377259225899016206,"2021-03-31T13:59:22Z","#AZART 16. The image below is a 100% detail crop of the represented work.  Read more about the #NFT, see others in the series, and get links to purchase for 0.02 Eth at https://t.co/LmGWqWdJBn https://t.co/zAtZvfKNXf",3,2
1377259220857278465,"2021-03-31T13:59:21Z","💧DogeSwap Airdrop💧  🏆 Task:          ➕   7 DOG  👨‍👩‍👧 Referral:     ➕   2 DOG  🔛  Airdrop Link &amp; Information: https://t.co/3rlt9kiu64  #cryptocurrency #Crypto #Bitcoin  #DogeSwap #Ethereum #ETH #Airdrop #bounty #Doge #AirdropStario",4122,5205
1377259206210883586,"2021-03-31T13:59:17Z","The DEX @FinanceChainge is set to launch on the @FUSIONProtocol network with over a million users on the protocols waitlist. This decentralized exchange aims to innovate on traditional models through leveraging the Fusion Network.  #BSC #BTC #ETH #BNB  https://t.co/xx55YiGfm3",21535,13657
1377259203732021265,"2021-03-31T13:59:17Z","💧Roku Network Airdrop 💧  🏆 Task:          ➕  15 ROK (~$5)  👨‍👩‍👧 Referral:   ➕  3 ROK (~$1)  🔛  Airdrop Link &amp; Information: https://t.co/YhvsOcfEbH  #cryptocurrency #Crypto #Bitcoin  #BSC #BinanceSmartChain #Ethereum #ETH #Airdrop #bounty #ROK #RokuCoin #RokuNetwork",3736,4812
1377259199168606214,"2021-03-31T13:59:15Z","We have passed the 25k followers!   Thanks guys, I will give one person 1 $ETH ( worth 1800 dollars)!   Only thing you have got to do is RT &amp; LIKE this tweet and make sure you follow me so I can DM you.   On to the 30K !   #giveaway",1492,1279
1377259197860093953,"2021-03-31T13:59:15Z","$PERL 🚀🚀🚀🚀 to 0.44$  BUY NOW and HOLD  #BTC $BTC $ETH $CHZ $NPXS #PERL",5,1
1377259174514491394,"2021-03-31T13:59:10Z","@APompliano #PROPY Real Estate $217 trillions market.  Get your free 1000 #PROPY Real Estate tokens by creating an account with https://t.co/A7llZ8pDfL @PropyInc.  More info: https://t.co/WUL2P0XAA8  #xrp #flr #ada #vet #xdc #qnt #tel #pac #bitcoin #btc #eth #doge #bnb #dot #zap #hot",0,1
1377259167459680258,"2021-03-31T13:59:08Z","Everyday is #bitcoin and #ETH news..where is the rest with huge headline???",0,0
1377259167266664452,"2021-03-31T13:59:08Z","#Bitcoin was stopped short at almost $60k, but the total #crypto #marketcap remains close to its highest-ever value.  https://t.co/NcX0agVrqK  #BTC #Bitcoin #ETH #Ethereum #DeFi #CryptoNews #Crypto #Blockchain",3,2
1377259154008547334,"2021-03-31T13:59:05Z","We have passed the 25k followers!   Thanks guys, I will give one person 1 $ETH ( worth 1800 dollars)!   Only thing you have got to do is RT &amp; LIKE this tweet and make sure you follow me so I can DM you.   On to the 30K !   #giveaway",1492,1279
1377259153169780742,"2021-03-31T13:59:05Z","An #NFT collection of F1 personalities. Every item will be 0 ETH for a week  #nftcollector #freenft #sportsnft #cryptoart #nftart #opensea @opensea  https://t.co/NNcxWIpTZr",0,1
1377259149852041219,"2021-03-31T13:59:04Z","@TalithaKingArt @RealBanCroft @dixon_eth Of course lets help the community 💪",1,0
1377259146563747840,"2021-03-31T13:59:03Z","Genuinely curious if Art Twitter is going to boycott Paypal now..??? This is exponentially more environmentally damaging than NFTs because not only is Ethereum supported, but so is Bitcoin, which has 4x the emissions of ETH. What alternative platforms can independent artists use? https://t.co/zek7xyXwqL",1602,473
1377259144776982528,"2021-03-31T13:59:03Z","🚀Picasso Punk #0640🚀 SOLD for 2.75 ETH on OpenSea! Almost as good an investment as a Jurassic Asylum Patient  Check out the transaction: https://t.co/hzyCsB5c7J #JurassicAsylum #NFT #NFTartist #cryptoart #NFTCommunity https://t.co/y6tezWK44z",0,0
1377259134484164610,"2021-03-31T13:59:00Z","hi #HEX fam  you will find last night's stream: https://t.co/prMZKf6fpM  this morning's chart set + images:  HEX CHART SET: 31.2021 - THIS IS BETTER THAN BITCOIN, PAYS YOU &amp; YOU KEE... https://t.co/do0ae60NUx   enjoy 😎  #BTC #ETH #ADA #DOT #GRT #LINK #XRP #XLM #XMR   1/4 https://t.co/HtvzPKtjey",31,6
1377259133150195712,"2021-03-31T13:59:00Z","The DEX @FinanceChainge is set to launch on the @FUSIONProtocol network with over a million users on the protocols waitlist. This decentralized exchange aims to innovate on traditional models through leveraging the Fusion Network.  #BSC #BTC #ETH #BNB  https://t.co/xx55YiGfm3",21535,13657
1377259132919627782,"2021-03-31T13:59:00Z","RT @CyrilObieze: I had a Dream 🌕 $BTC to 100K  $ETH to 5k $BNB to 500$ $KSM to 2000$ $FLOW to $300 $REEF to $5  $RSR to $1",35,5
1377259129748787201,"2021-03-31T13:58:59Z","New to yield farming or @BinanceChain? We put together this ELI5 flow chart on how Harvest now interacts with $BSC ⛓️ $ETH both simultaneously! Get your fill of @PancakeSwap @SwipeWallet $CAKE $SXP some with 100%+ APY and we haven't even started $FARM rewards yet!! https://t.co/CuHDg6CFr3",109,33
1377259118487080961,"2021-03-31T13:58:56Z","Awaiting native $BTC management solutions like Sovryn $SOV, I built a table summarizing yield on @AlphaFinanceLab @autofarmnetwork and @BadgerDAO   Some strategies involve $BNB on #BSC and $ETH - take potential IL in account  Average yield is &gt;36%! https://t.co/qtXosfkIxu",5,0
1377259117014814720,"2021-03-31T13:58:56Z","In the cloud, waiting on send. $Truefi $Eth https://t.co/OlSBqGGRWn",0,0
1377259116767412224,"2021-03-31T13:58:56Z","#Facebook takes your privacy. 👀 #Governments take your rights.  😲      #Banks take your #money. 🧐 #Wanchain gives it all back. 🔥👑💪  $eos $chz $atom $iota $comp $wan $btc $eth $wasp $xrp $ksm $rsr $bnb $fet #BNB #btc #Ethereum #Bitcoin  #Binance #CryptoNews #blockchain #CTK https://t.co/ytdbE9Rire",48,13
1377259098979233794,"2021-03-31T13:58:52Z","RT @QuintenFrancois: $ETH to $2500 in April or I'm giving away 0.3 $ETH to someone who retweets this.",4150,6184
1377259090263482371,"2021-03-31T13:58:50Z","💥 Carnomaly continues Initial Exchange Offering. 👉 Purchase CARR token here: https://t.co/JvLgYlFLGl 🚗 Available CARR token on these Exchanges: #probit_exchange #exmarkets #latoken #coinmargin #bitforex Visit https://t.co/WO3rdVCKj1 for more info. #token #presale #eth #usd https://t.co/olmkaenHc8",0,0
1377259088526995458,"2021-03-31T13:58:49Z","@DeGateDex  @Cannabi74753849 @HuyDNguyen92   About BTC btc, bitcoin, 比特币 About ETH eth, ethereum, 以太坊, 以太币, 以太 About DeFi 0x, 1inch, aave, acala, alpaca, alpha, ampl, ampleforth, ant, api3, augur, auto, bac, badger, bal, balancer, bancor, band, bao, bas, basis, binance https://t.co/fkDEuR4BQH",0,0
1377259082218942465,"2021-03-31T13:58:48Z","@Coachkcrypto @elliotrades I feel I must say that my 3rd biggest investment... well 4 now that SUPER pumped like a mad man is ETH. I just wish fees wouldnt bleed us so much is all",0,0
1377259069581357068,"2021-03-31T13:58:45Z","RT @QuintenFrancois: $ETH to $2500 in April or I'm giving away 0.3 $ETH to someone who retweets this.",4150,6184
1377259044365344780,"2021-03-31T13:58:39Z","@CoinMarketCap 1- $AVAX 2- $BTC 3- $BNB 4- $ETH",11,0
1377259034571464704,"2021-03-31T13:58:36Z","We have passed the 25k followers!   Thanks guys, I will give one person 1 $ETH ( worth 1800 dollars)!   Only thing you have got to do is RT &amp; LIKE this tweet and make sure you follow me so I can DM you.   On to the 30K !   #giveaway",1492,1279
1377259031941668868,"2021-03-31T13:58:36Z","@paranoidhill @RealBanCroft @dixon_eth Thank you so much for the retweet! 🥰💫",1,0
1377259005605683203,"2021-03-31T13:58:29Z","We have passed the 25k followers!   Thanks guys, I will give one person 1 $ETH ( worth 1800 dollars)!   Only thing you have got to do is RT &amp; LIKE this tweet and make sure you follow me so I can DM you.   On to the 30K !   #giveaway",1492,1279
1377259004146094089,"2021-03-31T13:58:29Z","RT @EGLDFreedom: My realistic prices prediction for the end of the year :  $BTC 150 000 $ETH 2 000 $BNB 500 $ADA 0.1 $DOT 100 $XRP 0 $THETA…",42,2
1377258995447164932,"2021-03-31T13:58:27Z","We have passed the 25k followers!   Thanks guys, I will give one person 1 $ETH ( worth 1800 dollars)!   Only thing you have got to do is RT &amp; LIKE this tweet and make sure you follow me so I can DM you.   On to the 30K !   #giveaway",1492,1279
1377258994247610378,"2021-03-31T13:58:27Z","@Ballzy_trading Ape 0.18 ETH 67% 😊",9,0
1377258992850796544,"2021-03-31T13:58:26Z","RT @QuintenFrancois: $ETH to $2500 in April or I'm giving away 0.3 $ETH to someone who retweets this.",4150,6184
1377258990661468164,"2021-03-31T13:58:26Z","💎🏬🔧 #marketplaces #updates #OpenSea $ETH #NFT @OpenSea released a new upgrade🚀:  • Unlockable content attached to #NFTs; • Add the mint number in the stats field; • Bundle page redesign; • Dark Mode; • View stats; • NFT categorization;  Monthly trading volume $140m+🔥 https://t.co/Z2uTnXiMdx",0,0
1377258988010618884,"2021-03-31T13:58:25Z","$COV #Covesting #PrimeXbt $btc $eth $bnb $kcs $tron $neo $ltc $bch $eos $xmr $zec $doge $link $tomo $enj #bitcoin #kucoin $usd $link $AVAX $FWT $SHR $BASE $BTC $SUSHI $IDLE $NIOX $PICKLE $MRPH $XRP $TRX $XLM $UNI $SNX $DeFi $RFI $YFI $LTC $OMG $LOOM $DOT https://t.co/PiyYZCAwc5",11,1
1377258987343728644,"2021-03-31T13:58:25Z","@NFTFusion begood.eth",0,0
1377258981383499780,"2021-03-31T13:58:24Z","Paypal is now supporting $BTC, $ETH, $BCH, and $LTC payments. Is this a good reason to use Paypal? Let us know what you think in the comments. 🤔",107,27
1377258959053193223,"2021-03-31T13:58:18Z","@realbanxo @dixon_eth @TalithaKingArt hi!! this is from 2004 I think. me first artyy digital drawing. https://t.co/EPbYiCoPPe",2,0
1377258944939360257,"2021-03-31T13:58:15Z","Top 5 Mentions Updated Every 5 Minutes   Start Time: Wed Mar 31 2021 09:33:14 GMT+0300 (GMT+03:00)   (BETA STAGE)  1- $ETH==&gt;1593  2- $BNB==&gt;708  3- $XRP==&gt;479  4- $ADA==&gt;365  5- $AMB==&gt;361  - $Bitcoin #Bitcoin $Crypto #Crypto $Altcoin #Altcoin -",0,0
1377258944217944068,"2021-03-31T13:58:15Z","@Morningstar_vc @MoonrockCapital @polkastarter @opensea @polkamon No allocation for Dragon holders Yet ? Then why we spend 20+ eth on 1 Dragon Yesterday to buy on opensea and  Proof of Dragon bought time and holding on legit https://t.co/0U4qIghgkR Check and solve this asap before it spoil investor comunity",0,0
1377258924009791494,"2021-03-31T13:58:10Z","Genuinely curious if Art Twitter is going to boycott Paypal now..??? This is exponentially more environmentally damaging than NFTs because not only is Ethereum supported, but so is Bitcoin, which has 4x the emissions of ETH. What alternative platforms can independent artists use? https://t.co/zek7xyXwqL",1602,473
1377258914870394886,"2021-03-31T13:58:08Z","The staking market does not need the level of decentralization of an eventual efficient eth 2.0 yet, therefore bsc is perfectly enough to fulfill a staking job for the random individual, for now. Cz forcing eth maxis to cope is actually fun to witness.",0,0
1377258902966927362,"2021-03-31T13:58:05Z","RT @scoinaldo: $ETH to 3k USD in April or I’ll delete this tweet.",3154,229
1377258882343444480,"2021-03-31T13:58:00Z","$Zil 1st blockchain to utilize sharding... insane that it's not in the top 25....blows me away!!!!! @zilliqa is enterprise ready .... $Eth and $Ada don't even have working platforms.... Bridge coming soon #buckleup https://t.co/0Cy5wd7E1p",25,8
1377258878228951040,"2021-03-31T13:57:59Z","RT @linkchainlink: Price predictions  $BTC $325k  $ETH $24k  $LINK $25 https://t.co/RJmitalEKI",392,19
1377258857085419522,"2021-03-31T13:57:54Z","We have passed the 25k followers!   Thanks guys, I will give one person 1 $ETH ( worth 1800 dollars)!   Only thing you have got to do is RT &amp; LIKE this tweet and make sure you follow me so I can DM you.   On to the 30K !   #giveaway",1492,1279
1377258849346973702,"2021-03-31T13:57:52Z","Genesis piece in  ▲⬤■  A dry bath  by Pol Escarrer  1 of 1 • Now Available for Ξ 1.0  https://t.co/UuSHCVDz5W  @withFND   Art by @pol_escarrer  #cryptoart #NFT #cryptoartist #ETH #3dart #Octane https://t.co/GnPhBOjb17",54,12
1377258847136538624,"2021-03-31T13:57:52Z","Jay Clayton, whose SEC declared #BTC and #ETH are not securities and removed all obstacles to trading them, now works for hedge fund that is betting on #BTC and #ETH.  (Coincidentally, he also sued @Ripple, crashed #XRP and forced its delisting.) https://t.co/W7boQD1zYq",2047,862
1377258845630779394,"2021-03-31T13:57:51Z","Shill me your favorite altcoin 👀  Bags I'm holding / doing research into right now: #Bitcoin, $ETH, $RUNE, $LINK, $AAVE, $SUPER, $URUS, $APY, $BAO, $DHT, $DPI, $UOS, $BNB, $PLOT, $SUSHI, $DPH, $KWIK   Lmk if you have any favorites here, and what else I should be looking into 👀",397,81
1377258837711974402,"2021-03-31T13:57:49Z","🤗 #XYM Lock &amp; Earn has launched at https://t.co/8kWqgEeplL @NEMofficial 🤗  💎Token: #XYM 💎Term: 7 days 💎Zero handling fee &amp; estimated annualized yield of 100%  👉Earn now: https://t.co/yAwwBIBTkA 👉Details: https://t.co/d1rkGcbUBU  #ALTSEASON #Altseason2021 #BTC #ETH https://t.co/OqLaEsRKWT",566,585
1377258833995829249,"2021-03-31T13:57:48Z","@melecoin_chain I’ll take any airdrops i can get my hands on, HODL!!! Eth addy: 0x0DCc14D2aafFf9585845D70BCEBe8Da588638Dc1",0,0
1377258830728474626,"2021-03-31T13:57:48Z","RT @CryptoFinally: 1 gif to describe trading crypto 👇 $eth https://t.co/cZaYJCheq6",47,11
1377258827142299651,"2021-03-31T13:57:47Z","Is time to be f**king bullish guys 🚀☀️ sun soon 🔜   $btc $eth $dot $sxp $btt $bnb $atom $coti $pond $tru $trb https://t.co/4a752ktle3",1,0
1377258826395713536,"2021-03-31T13:57:47Z","$LIT working on a breakout. Stay tuned! Let it cross $10.11 as first stage. A level at $11 would be great for a second stage and maintain that level before we start the second round heading $12.50. #btc #eth #xrp #altcoins #crypto #invest #altseason https://t.co/VjDWZ2JMqj https://t.co/R5VUGq8ylv",1,0
1377258815385698306,"2021-03-31T13:57:44Z","🚨5 hours left🚨 on the 2 remaining Artificial Bloom pieces, current bids at 1 ETH &amp; 0.75 ETH #nftcollectors #NFTCommunity #NFTartists  https://t.co/1jAhlgDYUr",20,2
1377258814332825601,"2021-03-31T13:57:44Z","@melecoin_chain Eth address : 0x471BE1426995850923fc27252391A5Db4Bf54D19 https://t.co/R6jzo7hee5",0,0
1377258808888672256,"2021-03-31T13:57:42Z","Ethereum Price Moves Higher, ETH / USD Bulls Target $ 2.1k https://t.co/ESrbLhg4vu",0,0
1377258798377762816,"2021-03-31T13:57:40Z","Auction complete 🥂 @RoomNFT   ⚡️ 003 Room.NFT → 💎 3 / 50 minted on ⛓️🌐  Sold for 1.10 ETH ($2,028.70) 📈  Congrats to the collector, treat the room well, it will only appreciate @giaset 🔥  Next 4 / 50 mint (? Location)   Until next auctions, cheers ✨ https://t.co/EdljpcH3zl",33,4
1377258790563815424,"2021-03-31T13:57:38Z","RT @udiWertheimer: I used to think ETH will lose the #2 spot in a couple of years but it might actually lose the #5 spot as well",597,34
1377258777607569412,"2021-03-31T13:57:35Z","@MemberSee Seems like a Chad to me $eth",3,0
1377258769197895684,"2021-03-31T13:57:33Z","💥 Carnomaly continues Initial Exchange Offering. 👉 Purchase CARR token here: https://t.co/owPA0NTga7 🚗 Available CARR token on these Exchanges: #probit_exchange #exmarkets #latoken #coinmargin #bitforex Visit https://t.co/lAC8jLvFHz for more info. #token #presale #eth #usd https://t.co/BXrxotHaBx",0,0
