"ID","created_at","text","like_count","rt_count"
1376527056582832132,"2021-03-29T13:29:59Z","💧Roku Network Airdrop 💧  🏆 Task:          ➕  15 ROK (~$5)  👨‍👩‍👧 Referral:   ➕  3 ROK (~$1)  🔛  Airdrop Link &amp; Information: https://t.co/YhvsOcfEbH  #cryptocurrency #Crypto #Bitcoin  #BSC #BinanceSmartChain #Ethereum #ETH #Airdrop #bounty #ROK #RokuCoin #RokuNetwork",3811,0
1376527047309340673,"2021-03-29T13:29:57Z","WTF is happening???? #CyberWatch just sold for 88 ETH ($150,631) on @AsyncArt 🤩🤩🤩🤪🤪🤪🤪🤪  What a cool day this has been. It's been such an honor working with everyone in @TheGuild_NFT. LOVE YOU ALL &lt;3 https://t.co/5dGiSs3Jrn",56,0
1376527043542843392,"2021-03-29T13:29:56Z","📈💶$2,011,750 $ETH LONGED @$1788.8 [29/03/21 13:29:56] 🏪FTX | ETH-PERP  🗣️He put his peep in an electrical socket. You can’t do that. - JD Scrubs",1,0
1376527043257643015,"2021-03-29T13:29:56Z","@basileus_eth @cryptovoxels @money_alotta Where is my invitation!???? :P",1,0
1376527033497493505,"2021-03-29T13:29:54Z","RT @chainlinkace: 🏆Drop your $ETH address here🏆",937,0
1376527024618147851,"2021-03-29T13:29:51Z","RT @CryptoPanicCom: ⬆ +7 Visa to Accept Cryptocurrencies for Payment Settlements https://t.co/A3G3Q60K5d $ETH #ethereum $USDC #usd coin #bl…",6,0
1376527019706572800,"2021-03-29T13:29:50Z","The $POODL army eating dips be like #HOODLTHEPOODL   By @tomars369 on https://t.co/zohsLvOusn!  $DOGE #SAFEMOON #DOGE #DOGECOIN $HOGE #HOGECOIN #POODL #BTC #ETH #CRYPTO https://t.co/ZkqoUBE3Pw",216,0
1376527006343512066,"2021-03-29T13:29:47Z","Ok boys and girl. It’s Saturday. I bought 4 NFT from last weeks shill thread. Shill me your NFTs. 13 ETH ready to go. #nftcollectors #NFTartists #NFT #NFTs",255,0
1376527005621972997,"2021-03-29T13:29:47Z","In celebration of Holi (Festival of Colors), may today and the coming days color you all GREEN! HAPPY HOLI!  $ABCE $ILUS $HQGE $BDGR $WDLF $ICTY $GTLL $JAMN $HPNN $HMBL $AFOM $AZFL $NIHK $NRPI $CEOS $HCMC $VGID $IGEX $RGBPP $ETH $BTT https://t.co/veW43Wmzws",7,1
1376527001520123907,"2021-03-29T13:29:46Z","And so it begins.....next up $Flux- $Eth and the world of #uniswap #Sushiswap and many more. Let's build the future, today! Fusion is coming. #Flux #blockchain #crypto #cryptocurrancy #bitcoin #tech #technology #cloud #CloudComputing #FluxNodes #mining #build $Flux https://t.co/si7nU9PF9j",41,1
1376526978598240265,"2021-03-29T13:29:40Z","Just listed a unique collection that I love as #NFT 💎available @withFND   Current bid : 0.50 ETH   Link : https://t.co/WyUXYRBmHf  Feel free to retweet 🍺  #nftart #NFTartist #NFTcollectibles #NFTs #cryptoart #nftcollectors #Ethereum #bitcicoin #blockchain https://t.co/U3g3Ue0mNJ",323,1
1376526978048741379,"2021-03-29T13:29:40Z","WOW! I SEA YOUwas SOLD for 5 ETH at secondary market!🔥 Congratulations both to collector who just earned +900%(4.5ETH) on resale &amp; to new owner for great purchase! I cant even explain that feeling when I see how much my art is appreciated! Thank u🥰❤ https://t.co/1xQYAG3aJJ https://t.co/sTAG4Mhqi1",94,1
1376526974009610242,"2021-03-29T13:29:39Z","I'm sharing my exact plan for $BTC, $ETH, $VET, $ADA, etc., in today's newsletter.   It'll be out later today.  Get access here:   https://t.co/dwkv0vxBU6",5770,1
1376526973074169866,"2021-03-29T13:29:39Z","Remember: you can acquire more RSD tokens in https://t.co/qrIpLjHKpf or just by sending ETH/BNB directly to the contract address 0x61ed1c66239d29cc93c8597c6167159e8f69a823. We are on Binance Smart Chain and Ethereum networks.",7,1
1376526972382240768,"2021-03-29T13:29:39Z","You missed $BTC You missed $ETH You missed $LINK  Don't miss $XTZ sir",53,6
1376526957479886852,"2021-03-29T13:29:35Z","🚀 Pluto Coin  Airdrop 🚀 Rate: ⭐⭐⭐⭐ ⭐ 🎁 Reward:  8822 PLUT ($1500) 👫 Referral: 40.5 PLUT  ($7)  🤖Start Bot here   https://t.co/x5JZchojO8  ⛂ Join Telegram group and channel. ⛂ Follow twitter &amp; retweet  ⛂ Submit ETH address and details.",6005,6
1376526956821352453,"2021-03-29T13:29:35Z","@TylerDurden @Visa This is why $ETH is a shitcoin and always will be!",0,0
1376526950378958852,"2021-03-29T13:29:34Z","The days of  #Lattice $LTX being a hidden Gem are coming to an end. The 🌎 is waking up, $10 here we come!!!  $LTX $DAG $DOT $UNI $XRP $BTC $ETH $DOGE $EOS $IOTA $ADA $REEF $ZEC $TRX $LINK $COTI $OCEAN $BNB $ZCX $DASH $XLM $TEL $RUNE $OCTO $QNT $MTV $BAX $NAX $CAKE $TRTL $SUSHI https://t.co/7LdFr8Fb7R",27,4
1376526944255111175,"2021-03-29T13:29:32Z","Ethiopian troops left their posts at the #Eritrean border so that Eritrean troops took the empty posts as a relief to #Ethiopian troops to control the escalation of attack by the unhinged #TPLF murderers to their territory @ChrisVanHollen @SenatorRisch #UnityForEthiopia",18,4
1376526942703259655,"2021-03-29T13:29:32Z","RT @TylerDurden: So @Visa are using the ETH blockchain to settle payments.  Looking forward to paying $3 for coffee + $900 gas fee and wait…",9326,4
1376526940316839949,"2021-03-29T13:29:31Z","🤑One of the biggest flips in the history of #digital assets on🤑 @SuperRare  🔥From .7 #Eth to 1000 Eth in 3 Years🚀🚀  Congratulations @XCOPYART 🎉 &amp; @punk4156 🤩  #NFT #NFTs #blockchain #Crypto #art #cryptoart  https://t.co/JlcYOxAd5K https://t.co/3o7dOKbOB4",121,4
1376526938387320835,"2021-03-29T13:29:31Z","@DeFiScale1 Really Awesome project...i am interested join this project ❤️ @jannatfarju   @AnowarH37276003 @Farjana85138184  My BSC/ETH  Address: 0x66286343313cD333F1a5f8B1648C799F73eF0624 #DFC #Defi #DefiScale",0,0
1376526936915111943,"2021-03-29T13:29:31Z","We will build the biggest PUMP ever!   Estimated profit of 500-1000%!   👉 Join Channel :https://t.co/vUlgM1kbiv  $BTC $ETH #NFT $PERL $ENJ $FLOW $CTSI #BSC $REEF $LUNA $SAND $AXS $TVK $HOGE $CHZ $STX $ROSE $TROY $ONE $CERL $IRIS $ANC $ADA $DIA $XRP $DOGE $ATOM $LUNA $ZCX $BNB https://t.co/fknvPHRIRF",0,0
1376526935841464320,"2021-03-29T13:29:30Z","@moonlet_wallet Does this fix have to do with any issues in the #ETH wallet? I just had 4 sends fail. On some, I maxed the amounts and gas but it refuses to send the transaction. The TID lookup (not found for all) suggests they're not even making it out of the wallet and onto the #blockchain.",0,0
1376526934822162435,"2021-03-29T13:29:30Z","The first set of Ahegao NFTs sold out in a week, so I've been working on some more which are now live at https://t.co/MAOPR2F1DH  #pixel_dailies #nft #NFTs #nftart #nftartist #crypto #blockchain #eth #ethereum #digitalart #art #value #nftcollector #hentai #ahegao https://t.co/YWPHtqTMQv",78,0
1376526934658719749,"2021-03-29T13:29:30Z","30 day EVIX: 86.2875 ETH/USD vwap: $1,781.78 04/16 expiry volume: $1,217,339.83 04/30 expiry volume: $4,382,706.21 Current time: 13:29:06",0,0
1376526933886959616,"2021-03-29T13:29:30Z","I've decided I want to build my twitter and share the defi plays I've been making recently (e.g. $visr, $kpad, $ohm). To kick start the good times, I'll be choosing two random people to give $100 in $usdt, $eth or $bnb.  Entry: 1. Follow me 2. Like/retweet this post  Good luck!",207,0
1376526931731095557,"2021-03-29T13:29:29Z","Hi! #NFTCommunity tonight is a cool night to spend ETH! We just listed “武士 Tokyo Ryu” in collaboration with @bulvarov  for sale on @withFND  https://t.co/KVFlVtWv6g https://t.co/hgxcCKZnK5",98,0
1376526931064053765,"2021-03-29T13:29:29Z","DFC Airdrop ✳ Reward : $40 👉 Register : https://t.co/Sykb80gRas  1. Follow Twitter &amp; RT 2. Join Telegram Group &amp; Channel 3. Completed Another task 4. Submit ETH ERC20 Address 5. Done  #CTBot Adrop Ram 1 DOGE 20",22,0
1376526929474502656,"2021-03-29T13:29:29Z","RT @1CrypticPoet: 💥 Coca-Cola Bottling Harbor' To Use Baseline Protocol &amp; Ethereum Mainnet  https://t.co/2oFwjvnGxj #eth #etheteum #crypto…",33,0
1376526915436118023,"2021-03-29T13:29:25Z","RT @NFTFusion: What’s your ETH address?  No questions, just drop it below 👇 #NFT #NFTs",1953,0
1376526904988200965,"2021-03-29T13:29:23Z","@NFTonFILM Mostly bullish on $KDA as Kadenas Chainweb is a Proof-of-Work blockchain but unlike $ETH scalable. It offers low fees and fast transactions, interoperability with $dot, $atom, $luna or $celo &amp; bridging to $eth, Kadenaswap launching early Q2",5,0
1376526899967619072,"2021-03-29T13:29:22Z","@freedom4speach I don't mind 48 dollars man, the sell would be for 0.27 Bitcoin so i'll take it.  Hoping ETH can out do Bitcoin in the next couple of days..  Hope you are all good mate.",2,1
1376526897975283713,"2021-03-29T13:29:21Z","@JJMaTrader Do you have an idea how $ETH will be used in the deployment of USDC by Visa? Just curious since gas fees are sky high",1,0
1376526891310538755,"2021-03-29T13:29:20Z","@koeppelmann Wow so Kraken and Binance have 25% of the active stake? This is worse than every eth killer out there?",0,0
1376526889246937090,"2021-03-29T13:29:19Z","Save your ETH by paying gas in stablecoins with @biconomy Forward! Try testnet for https://t.co/fEQFx85k5o now.  0x245f6514Ff0b711b2603139BE85b85419Dc8f7aA https://t.co/z3jM6jSl8l",0,0
1376526888038932481,"2021-03-29T13:29:19Z","DFC Airdrop ✳ Reward : $40 👉 Register : https://t.co/Sykb80gRas  1. Follow Twitter &amp; RT 2. Join Telegram Group &amp; Channel 3. Completed Another task 4. Submit ETH ERC20 Address 5. Done  #CTBot Adrop Ram 1 DOGE 20",22,0
1376526882699534338,"2021-03-29T13:29:18Z","Really Awesome project...i am interested join this project ❤️ @jannatfarju   @AnowarH37276003 @Farjana85138184  My BSC/ETH  Address: 0x66286343313cD333F1a5f8B1648C799F73eF0624 #DFC #Defi #DefiScale https://t.co/9hDqVb85tC",0,0
1376526880019337219,"2021-03-29T13:29:17Z","@DiamondNft Here's The Concert  on @withFND  Reserve set at 0.2 ETH  https://t.co/saL8H1os9c https://t.co/Vo8Xr0qnbV",0,0
1376526872574631938,"2021-03-29T13:29:15Z","💰2,823 #ETH (4,758,443 USD) move from unknown wallet to unknown wallet   Date : 2021-03-29 13:28:26 (GMT 0) Blockchain : #ETHEREUM Symbol : #ETH   Detail: https://t.co/i94uJFVovm",0,0
1376526868376002563,"2021-03-29T13:29:14Z","DFC Airdrop ✳ Reward : $40 👉 Register : https://t.co/Sykb80gRas  1. Follow Twitter &amp; RT 2. Join Telegram Group &amp; Channel 3. Completed Another task 4. Submit ETH ERC20 Address 5. Done  #CTBot Adrop Ram 1 DOGE 20",22,0
1376526860004245505,"2021-03-29T13:29:12Z","@Verituselm A layer 2 mechanism that settles far more USD and ETH than it does BTC.  Yeah...",16,0
1376526857793728514,"2021-03-29T13:29:12Z","💧Roku Network Airdrop 💧  🏆 Task:          ➕  15 ROK (~$5)  👨‍👩‍👧 Referral:   ➕  3 ROK (~$1)  🔛  Airdrop Link &amp; Information: https://t.co/YhvsOcfEbH  #cryptocurrency #Crypto #Bitcoin  #BSC #BinanceSmartChain #Ethereum #ETH #Airdrop #bounty #ROK #RokuCoin #RokuNetwork",3811,0
1376526856552321028,"2021-03-29T13:29:11Z","@graphprotocol @beller @radicle Don’t know abt it but at least there’s  lately solid consensus around garbage management: 😅 https://t.co/dGBF5vtqmo",0,0
1376526856489406468,"2021-03-29T13:29:11Z","#DeFi #BKC #eth2 #BucksCake  ANNOUNCEMENT!  Dear BucksCake's community members!  The exact date of BKC listing on Uniswap set for 04/20/2021!  2 days before it, the exact opening time of the trading pair BKC/ETH on Uniswap...  More at https://t.co/RQPMhjazG2 https://t.co/VjtBbXBA1t",2856,0
1376526854618808324,"2021-03-29T13:29:11Z","Swing trading crypto isn't easy in a bear market. So you might as well take up positions while you can. Right now, I don't even worry about my risk exposure. We are in a bull market. $BTC $ETH to the 🌙",0,0
1376526852001558528,"2021-03-29T13:29:10Z","📈💶$2,132,045 $ETH LONGED @$1785.8 [29/03/21 13:29:10] 🏪FTX | ETH-PERP  🗣️just made another deposit - CryptGold",8,1
1376526837942206464,"2021-03-29T13:29:07Z","📈💶$1,633,107 $ETH LONGED @$1784.7 [29/03/21 13:29:07] 🏪FTX | ETH-PERP  🗣️Who isn’t making money on this? - Benji",4,0
1376526837619245057,"2021-03-29T13:29:07Z","@Forbes Gas fees on the ETH network is the problem.  Not gasoline prices being a few pennies more.  Who cares about a couple pennies. Look in your couch if you are worried.",0,0
1376526828895141890,"2021-03-29T13:29:05Z",".@Visa now settles payments in #USDC stablecoin on #Ethereum blockchain  Working with @cryptocom to implement the service  #cryptocurrencies #cryptocurrency #CryptoNews #CryptocurrencyNews #Crypto #blockchain #ETH #StableCoin   https://t.co/WnfRRxH3I3",0,0
1376526826638610441,"2021-03-29T13:29:04Z","I've listed To Infinity and Beyond with a 42 ETH reserve auction. It's 1 of 4 @mbsjq pieces I own. 17 is @mbsjq's birthday and 25 is Boo's birthday; 17+25 = 42 (also the answer to the universe 😉). Happy bidding everyone!  https://t.co/OVCApFMUYm https://t.co/RMbu2pd5Qt",98,0
1376526825220935689,"2021-03-29T13:29:04Z","@RichardMcCrackn @TheCryptoLark Yes I agree. Neutral and fair view. As being invested in both eth and Ada space I hope Ada will be successful. Where I’m a bit concerned is the fact that there is so much negative attitude from cardano community. Until now I was watching CH AMAs. But recently they are unbearable.",2,0
1376526821081055234,"2021-03-29T13:29:03Z","RT @unborncreate: ‘Limitation’ 1/1 is out now on @rariblecom for .09 ETH! #NFT #nftart #cryptoart   https://t.co/bQcG2zjrPx https://t.co/tR…",40,0
1376526815594954753,"2021-03-29T13:29:02Z","Bosch, the biggest motor vehicle parts supplier, confirmed that it is running trials on the Ethereum blockchain.  This is adoption!  https://t.co/BdbeeLOAfS #Ethereum #ETH #Crypto #cryptocurrency #blockchain #adoption",13,0
1376526808741515265,"2021-03-29T13:29:00Z","$ETH to 10k!!! 🤑🤑 https://t.co/yl6cLSH0IJ",0,0
1376526796011794438,"2021-03-29T13:28:57Z","#DeFi #BKC #eth2 #BucksCake  ANNOUNCEMENT!  Dear BucksCake's community members!  The exact date of BKC listing on Uniswap set for 04/20/2021!  2 days before it, the exact opening time of the trading pair BKC/ETH on Uniswap...  More at https://t.co/RQPMhjazG2 https://t.co/VjtBbXBA1t",2856,0
1376526789460119554,"2021-03-29T13:28:55Z","💧Roku Network Airdrop 💧  🏆 Task:          ➕  15 ROK (~$5)  👨‍👩‍👧 Referral:   ➕  3 ROK (~$1)  🔛  Airdrop Link &amp; Information: https://t.co/YhvsOcfEbH  #cryptocurrency #Crypto #Bitcoin  #BSC #BinanceSmartChain #Ethereum #ETH #Airdrop #bounty #ROK #RokuCoin #RokuNetwork",3811,0
1376526788520730629,"2021-03-29T13:28:55Z","Ubisoft plans to leverage Ethereum’s blockchain technology.  Best selling #Ubisoft games: • Assassin's Creed - 100 million • Just Dance - 50 million • Tom Clancy’s Splinter Cell - 31 million  This is adoption!  https://t.co/EOdR4YZxj4 #ETH #crypto #blockchain #ethereum",14,0
1376526775388360704,"2021-03-29T13:28:52Z","Lets impress the NFT Collectors now!   Show us your unsold NFT (under 1 ETH) below ⬇️🔥  #nftcollectors are active now and want to see something 🚀  #nfts will become big - lets do it together 🙌🏼  Drop it - we will rt our favourites!   #nft #nftcollector #NFTCommunity #NFTshill",280,0
1376526775350489100,"2021-03-29T13:28:52Z","Join the @Holdefi community in HLD public sale!  #HLD #Holdefi #ETH #BSC #IDO #ICO 👇👇 https://t.co/Y7RZTBm3GF",0,0
1376526774469713923,"2021-03-29T13:28:52Z","We are happy to announce that #Defiqa #DFI #PreSale is #Live 1 ETH = 40 DFI + #Airdrop rewards + 2 DFI BONUS Min: 0.1 ETH Max: 10 ETH SEND ETH HERE: 0xD62C024DC28a06EFDAB563F30485848B2b564bb4 or use #Bounce  https://t.co/iPx9xc4WB3 #defi #Airdrop #ETH #BTC #investing #Uniswap https://t.co/FlNZOEJHRf",2820,0
1376526769201631237,"2021-03-29T13:28:51Z","DFC Airdrop ✳ Reward : $40 👉 Register : https://t.co/Sykb80gRas  1. Follow Twitter &amp; RT 2. Join Telegram Group &amp; Channel 3. Completed Another task 4. Submit ETH ERC20 Address 5. Done  #CTBot Adrop Ram 1 DOGE 20",22,25
1376526766261596161,"2021-03-29T13:28:50Z","I don’t think people realise how bullish the visa announcement is for $eth. One of the biggest paiement player ins going to use $eth.  $eth #visa Btw $wingby will reach atm this week",0,0
1376526765649235968,"2021-03-29T13:28:50Z","I'm sharing my exact plan for $BTC, $ETH, $VET, $ADA, etc., in today's newsletter.   It'll be out later today.  Get access here:   https://t.co/dwkv0vxBU6",5770,0
1376526765376606209,"2021-03-29T13:28:50Z","$BTC  $ETH  for $8\month it doesn't get any simpler and more profitable than my bullish indicator for Crypto:   CLUSTERSTRUCK jsut made you 8.4% since 3/26/2021 from this $52.2k call and $ETH from $1685   those too cheap to pay $90yr for CLUSTERSTUCK just missed a +$4,800 move https://t.co/oz0UWwyLJ8",3,0
1376526761756794880,"2021-03-29T13:28:49Z","Welcome to massive Q DAO airdrop!   1. go now to telegram https://t.co/COyXgODY1z   2. Stay in telegram chat and wait announcement.  3. HOLD this gem until 10x   (soon - QDAO launch cross-chain for BSC, Polkadot and ETH)",4254,0
1376526760800489475,"2021-03-29T13:28:49Z","RT @TylerDurden: So @Visa are using the ETH blockchain to settle payments.  Looking forward to paying $3 for coffee + $900 gas fee and wait…",9326,0
1376526740516790281,"2021-03-29T13:28:44Z",".@AlchemixFi $ALCX is one of these mind-blowing projects only possible in DeFi. Self-repaying loans with no risk of liquidation. It also is my favorite yield farm right now. 👇",296,0
1376526735034961922,"2021-03-29T13:28:42Z","The Icelandic financial regulator granted the world’s first, fully regulated “electronic money institution” (EMI) license to Monerium, allowing it to put e-money on the #Ethereum public blockchain.  This is adoption! 🚀  https://t.co/kNdRIXMMHP #ETH #Ethereum #blockchain",13,0
1376526734368124932,"2021-03-29T13:28:42Z","People are underestimating Ethereum, this is huge.  Fiat and crypto world merging with Visa testing payment service via $USDC  Bullish for $ETH  https://t.co/3QRSxCA01U",36,0
1376526715233636356,"2021-03-29T13:28:38Z","@iamlirona @MDixken Newly minted FF7 themed stamp!  First of many.  Bidding starts at .03 eth.  https://t.co/DLKbbQTF4M #ff7 #cryptoart #NFTs",1,0
1376526708866748423,"2021-03-29T13:28:36Z","Something that worth to take a look 👀 $UBXT the next hidden 100x💎 🔥🔥🔥  @kucoincom 👈💎  $ada $link $coti $fet $vra $tel $ubx $eth $dao $luna $theta #btc https://t.co/u76alpV6t6",22,10
1376526708745068549,"2021-03-29T13:28:36Z","RT @thestonkmarkt: $SOS DD ... $BTC miner ✅ $ETH miner ✅ DIGITAL ASSET EXCHANGE (NFT) ✅ Crypto Insurance ✅ SuperComputting Center Agreement…",7,10
1376526707788804100,"2021-03-29T13:28:36Z","#PiNetwork could be the next big thing in crypto because it targets the common everyday user for community but will it withstand the test of time? Download it here https://t.co/MrEcTPWuMK use invite code: MatthewEU #Bitcoin #dogecoin #PiArt #cryptocurrency #Crypto #ponzi #ETH https://t.co/3mo4nJ2pzq",4,10
1376526704974434308,"2021-03-29T13:28:35Z","#ZNNAliens are invading the world 👽 $ZNN @Zenon_Network is :   ♻️ 8.7M Total Supply  🧾 Hybrid PoW + PoS  ♾ Ultra-high scalability  #BTC interoperability  📲 join us here : https://t.co/wD8WFG9dR7  #BNB #Binance $ETH $DOT $DOGE $ADA $LINK $UNI $BNB $KAI $HTR https://t.co/PnE8HSwq2n https://t.co/70aYwphCxJ",15,2
1376526704844414980,"2021-03-29T13:28:35Z","🔥 Securitize Users Can Now Directly Trade Security Tokens on the #Ethereum Blockchain With Just a Web Link  https://t.co/YxsDT9xxco #eth $eth #crypto #blockchain",28,2
1376526702109618183,"2021-03-29T13:28:35Z","RT @HeveyArt: @nftpeddler The new Crypto Circles collection (only 0.03 ETH up to #100) 😉 https://t.co/BgihiOVshZ https://t.co/YuHefrt1BL",2,2
1376526702004813824,"2021-03-29T13:28:35Z","RT @_Tradinator: $ETH   Having this plan for coming weeks. Will long &lt; $1600 with $3000 target. Lets see if we get it. https://t.co/eosdwqp…",19,2
1376526697755987970,"2021-03-29T13:28:34Z","Latvian airline airBaltic adds #Dogecoin $DOGE &amp; #Ethereum $ETH as payment options. Around 1,000 clients have used the payment option [...]  #DogeCulture  https://t.co/roi1McodBZ",4,1
1376526696958943236,"2021-03-29T13:28:33Z","RT @eagle_xrp: VISA to accept USDC in its payment network, who will be paying for the GAS fees on the ETH network?",12,1
1376526694996119552,"2021-03-29T13:28:33Z","RT @UFOS_4: Avatar #2 is on sale.  Madonna.  Foundation. Reserve price 0,2 ETH  https://t.co/79GIt4T3O3 https://t.co/eR4yeXisb9",37,1
1376526690038341641,"2021-03-29T13:28:32Z","$WISE is like a leveraged long on ETH. WISE can go up exponentially vs ETH, yet still gets the ETH gains. Unlike other leverage plays, you’d only lose 1/2 your ETH if WISE flops. Never heard of ETH-backed cryptos before? That’s cause we invented it!🦄 https://t.co/iHZagcfihL",147,1
1376526685336702977,"2021-03-29T13:28:31Z","📈💶$1,600,477 $ETH LONGED @$1782.1 [29/03/21 13:28:30] 🏪FTX | ETH-PERP  🗣️Do you even lift bro? - Peter Brandt’s favourite discovery",1,0
1376526661051576320,"2021-03-29T13:28:25Z","@nftpeddler This my First NFT on @withFND 0.3 ETH Wonderful World 1/1 Edition 1440x1440 https://t.co/tXFTSnlVoX  #nft #nftart #nft #nftcollector  https://t.co/W2S79ie3hc",4,0
1376526649118887939,"2021-03-29T13:28:22Z","#PiNetwork could be the next big thing in crypto because it targets the common everyday user for community but will it withstand the test of time? Download it here https://t.co/MrEcTPWuMK use invite code: MatthewEU #Bitcoin #dogecoin #PiArt #cryptocurrency #Crypto #ponzi #ETH https://t.co/3mo4nJ2pzq",4,1
1376526645771837442,"2021-03-29T13:28:21Z","RT @ki_young_ju: I smell crypto mass adoption here  $ETH",1537,1
1376526642823184389,"2021-03-29T13:28:20Z","🔥 Securitize Users Can Now Directly Trade Security Tokens on the #Ethereum Blockchain With Just a Web Link  https://t.co/YxsDT9xxco #eth $eth #crypto #blockchain",28,1
1376526640923152385,"2021-03-29T13:28:20Z","Banks offering products for bitcoin is incredible because they spent 10yrs  campaigning the world to ban it.  Visa using USDC via eth is amazing because that was always the benchmark. how do we get to VISA size tps  Turns out, being able to reliably finalize is what was needed.",476,1
1376526636892360711,"2021-03-29T13:28:19Z","@nftpeddler I've listed my third #nft yesterday. Maybe you like it. Have a look. Reserve price 0.2 ETH. First collector will also get a Collectors Badge  https://t.co/ab1IQZsUO1",2,1
1376526636741365763,"2021-03-29T13:28:19Z","RT @thedefipub: $WISE 100% BACKED BY $ETH Learn more @wise_token 😎🚀🦉 https://t.co/pmzuoVRMeK",98,1
1376526630722568194,"2021-03-29T13:28:18Z","🔥 Securitize Users Can Now Directly Trade Security Tokens on the #Ethereum Blockchain With Just a Web Link  https://t.co/YxsDT9xxco #eth $eth #crypto #blockchain",28,1
1376526624565395458,"2021-03-29T13:28:16Z","If Bitcoin can stay above $60K this is great for $ETH 👀 https://t.co/hcaS8D1fjd",0,0
1376526619569877003,"2021-03-29T13:28:15Z","Go get your free 0,5 eth. Join and make your own referal @  https://t.co/jYi7Ccz1z6",0,0
1376526616181026817,"2021-03-29T13:28:14Z","New post in Bitcoin &amp; Digital Assets: Visa Picks Ethereum Over Facebook Libra to Settle Payments; ETH/USD Up [https://t.co/6uwFl7nlCO]  +35,  -1 (29 minutes ago) https://t.co/FGckIhUlwv",1,0
1376526614939328516,"2021-03-29T13:28:14Z","The DEX @FinanceChainge is set to launch on the @FUSIONProtocol network with over a million users on the protocols waitlist. This decentralized exchange aims to innovate on traditional models through leveraging the Fusion Network.  #BSC #BTC #ETH #BNB  https://t.co/xx55YiGfm3",21659,0
1376526610749390849,"2021-03-29T13:28:13Z","RT @NFTFusion: What’s your ETH address?  No questions, just drop it below 👇 #NFT #NFTs",1953,0
1376526609608495104,"2021-03-29T13:28:13Z","@Pentosh1 This aged well. The same goes for LINK. Huge outflow from exchanges, only around 15% of supply left there. LINK / ETH are the most frustrating coins but will patient people will be rewarded big times. But can you say anything after a  &gt;10x since a year?",0,0
1376526607242903557,"2021-03-29T13:28:12Z","🔥HOT🔥 - $100 in Cryptocurrency | Giveaway!  To win: ✔ Follow us &amp; @MatrixAINetwork ✔ Tag a friend ✔ Retweet ✔ Join: https://t.co/R9H48O8Tq3 Thats it! Good luck! 💖 Rolling in 24 hours!  #goodvibes #goodluck #giveaway #bitcoin #Giveaways  #cryptocurrency #eth #btc #BSC #TRON https://t.co/0Eju3gcguv",306,0
1376526606496333830,"2021-03-29T13:28:12Z","We are happy to announce that $REW will be listed on March 4, deposits now available on #ProBitExchange and to celebrate this #event, we are giving away 400$ #ETH to our community To Enter  1: like &amp; retweet &amp; follow 1 Tag 4 people  2 Comment wallet id #defi #Giveaway  #rewardiqa https://t.co/OozSqzFFno",2405,0
1376526600003534851,"2021-03-29T13:28:10Z","Lets impress the NFT Collectors now!   Show us your unsold NFT (under 1 ETH) below ⬇️🔥  #nftcollectors are active now and want to see something 🚀  #nfts will become big - lets do it together 🙌🏼  Drop it - we will rt our favourites!   #nft #nftcollector #NFTCommunity #NFTshill",280,0
