"ID","created_at","text","like_count","rt_count"
1374881213207429120,"2021-03-25T00:29:59Z","@sassal0x I'm sure @beeple agrees that $ETH is ultra sound money now...",2,0
1374881210435010563,"2021-03-25T00:29:59Z","Chainlink provides ready-made price oracle solutions so #DeFi developers can securely build new dApps that rely on tamper-proof price reference data. Easily integrate the MLN/ETH #Chainlink Price Feed into your smart contract today, already used and supported by @enzymefinance.",503,0
1374881210267209728,"2021-03-25T00:29:59Z","Jeez that was intense. Got stopped out on almost all my positions🤮  Bullish divergence on the lower timeframes + potential bull div on the 4HR. Supported perfectly tested @ $51700📈  It's now or never bulls. RUN IT BACK UP TURBO🐂🚀  $BTC $ETH $DXY $XAU https://t.co/UNSIzcL6ZP",19,0
1374881204210556929,"2021-03-25T00:29:57Z","The year is 2032. You stare at your phone hoping your ETH transaction you payed $534 in fees for goes through so the door to your Tesla unlocks.",1357,0
1374881200548945922,"2021-03-25T00:29:56Z","Chainlink provides ready-made price oracle solutions so #DeFi developers can securely build new dApps that rely on tamper-proof price reference data. Easily integrate the MLN/ETH #Chainlink Price Feed into your smart contract today, already used and supported by @enzymefinance.",503,0
1374881186363928583,"2021-03-25T00:29:53Z","💧Roku Network Airdrop 💧  🏆 Task:          ➕  15 ROK (~$5)  👨‍👩‍👧 Referral:   ➕  3 ROK (~$1)  🔛  Airdrop Link &amp; Information: https://t.co/YhvsOcfEbH  #cryptocurrency #Crypto #Bitcoin  #BSC #BinanceSmartChain #Ethereum #ETH #Airdrop #bounty #ROK #RokuCoin #RokuNetwork",3812,0
1374881180139462659,"2021-03-25T00:29:52Z","Of course this is going to happen and it's terrible for the market.   @DoveyWan highlights similarities to 2017 ICO-mania and I fully agree.  $ETH in crypto hodler hands -&gt; converted into NFT -&gt; $ETH dumped on the open market on the other side.  NFTs are an $ETH dump factory. https://t.co/24QlwoXExN",39,0
1374881179233566726,"2021-03-25T00:29:51Z","2017 Bull Cycle  vs 2021 Bull Cycle READ UP!!!!!!!!!     History repeat itself , stop panicking and read up. The commonality in both cycle and were we at now are so similar that is scary. Check it for yourself $BTC $ETH $ADA $DOT $KSM https://t.co/CVut7eITyj",0,0
1374881165438459907,"2021-03-25T00:29:48Z","Today,Binance registration is ONLINE! We JUST checked! https://t.co/VL0IqipF5A #BTC #BCC #ETH #ETZ #VEN #TNT #LTC #NEO",0,0
1374881163681046528,"2021-03-25T00:29:48Z","Welcome to massive Q DAO airdrop!   1. go now to telegram https://t.co/COyXgODY1z   2. Stay in telegram chat and wait announcement.  3. HOLD this gem until 10x   (soon - QDAO launch cross-chain for BSC, Polkadot and ETH)",4254,0
1374881160799588358,"2021-03-25T00:29:47Z","🚀 Pluto Coin  Airdrop 🚀 Rate: ⭐⭐⭐⭐ ⭐ 🎁 Reward:  8822 PLUT ($1500) 👫 Referral: 40.5 PLUT  ($7)  🤖Start Bot here   https://t.co/x5JZchojO8  ⛂ Join Telegram group and channel. ⛂ Follow twitter &amp; retweet  ⛂ Submit ETH address and details.",6006,0
1374881146320814081,"2021-03-25T00:29:43Z","RT @noEIonMuskerino: Stop trying to make Etherium happen, it's not gonna happen.",1194,0
1374881143254736910,"2021-03-25T00:29:43Z","RT @annettedll: My Genesis Piece Rosé 1/1 is now available on @withFND   Reserve price is set at 0.4 ETH  https://t.co/0OclpFPRXD https:/…",299,0
1374881135512203264,"2021-03-25T00:29:41Z","#btc.   AVAX can be $ 39 tomorrow #Ethereum #eth #etherium #Chinese #blockchain #DeFi #btc    #BTC    #Tether #bnb    #XRP #Chiliz #alicecoin #Taraxa #GateIo #binance    #tezos #TRON    #LINACOIN #busd   #cryptocurrency #Zilliqa #Bitmex #kucoin #OKEx #OKExChain #NFTs #DOTUSDT",1,0
1374881123684212738,"2021-03-25T00:29:38Z","30 day EVIX: 107.5604 ETH/USD vwap: $1,590.60 04/09 expiry volume: $3,363,437.29 04/30 expiry volume: $6,337,868.20 Current time: 00:29:10",0,0
1374881119896793098,"2021-03-25T00:29:37Z","RT @noEIonMuskerino: Stop trying to make Etherium happen, it's not gonna happen.",1194,0
1374881112930070528,"2021-03-25T00:29:36Z","#btc.   AVAX can be $ 39 tomorrow #Ethereum #eth #etherium #Chinese #blockchain #DeFi #btc    #BTC    #Tether #bnb    #XRP #Chiliz #alicecoin #Taraxa #GateIo #binance    #tezos #TRON    #LINACOIN #busd   #cryptocurrency #Zilliqa #Bitmex #kucoin #OKEx #OKExChain #NFTs #DOTUSDT",1,1
1374881101894717444,"2021-03-25T00:29:33Z","RT @CashNCrypto: $150 to one person in 48hrs  Rt &amp; follow me + @domscrypto &amp; @boar_eth",2067,1
1374881093543981061,"2021-03-25T00:29:31Z","RT @MushiesNFT: MAGIC MUSHY DROP  Mushy #016 is dropping at 10pm GMT   Bargain at 0.01 Eth! https://t.co/PJPFmqHf13",19,1
1374881093523009536,"2021-03-25T00:29:31Z","Favor gem investor -&gt; @ape_btc  I made 5X with his calls. At the moment he's waiting for 5,000 subscribers to continue work.  Follow now for getting calls faster -&gt; ➡️ @APE_BTC ⬅️   $aic $ust $arnx $usf $skull $sph $magi $pop $btsg $brg $link $eth $wgp $bbo $btap $kbtc $giv $hot https://t.co/cFLbt2OIXJ",0,0
1374881091052519431,"2021-03-25T00:29:30Z","🔸 New Listing🔸   #BKEX will list #DRYCAKE @DryCakeSwap🚀 🚀  - Trading pair: DRYCAKE/USDT - Trading time: 20:00 on Mar 29 (UTC+8)  🔹 🔹 More details: https://t.co/kC2IIebfTT  #Bitcoin #ETH #BKK #Blockchain https://t.co/w8CHyKXaUD",2480,0
1374881075973906435,"2021-03-25T00:29:27Z","$ETH CASHFLOW GIVEAWAY!  Giving $1000 $ETH, bc our mission is to help you cashflow 4 financial freedom. Tag ur favorite @Twitter account here, &amp; why to follow. So we learn &amp; EARN.  We’ll teach u how to stake ur $ETH &amp; earn 3-5% while ur $ grows.   Follow, like, &amp; tag to enter :)",75,0
1374881066612363276,"2021-03-25T00:29:24Z","RT @FleshNft: caught in the light 0.75 eth reserve over on @withfnd! https://t.co/f0Jn5Ewxre https://t.co/svX21aMTwk",2,0
1374881062283739136,"2021-03-25T00:29:23Z","@TLinkboi @DigitalSage2 @Bancor On this link to vote.   https://t.co/J5ZVUlvTqc",0,0
1374881057170882562,"2021-03-25T00:29:22Z","Been screaming about this gem since the beginning for months now  $VRX is on the left, $AVAX on the right  Don't be shaken out,  5000$ incoming  🚀  Buy $VRX NOW!  Only 47.5k max supply, 60% staked! Game changing coin🔥  #bitcoin $btc $eth  $spi $chain $umx $cfi $ern $lpt $rfr https://t.co/VJheZrWKaa",2447,0
1374881053601640452,"2021-03-25T00:29:21Z","💧Roku Network Airdrop 💧  🏆 Task:          ➕  15 ROK (~$5)  👨‍👩‍👧 Referral:   ➕  3 ROK (~$1)  🔛  Airdrop Link &amp; Information: https://t.co/YhvsOcfEbH  #cryptocurrency #Crypto #Bitcoin  #BSC #BinanceSmartChain #Ethereum #ETH #Airdrop #bounty #ROK #RokuCoin #RokuNetwork",3812,0
1374881045611446273,"2021-03-25T00:29:19Z","Community Upvote 🌐 @withFND  I’m in the running to join Foundation as a creator and start minting NFTs! #NFT #NFTCommunity #NFTartists #nftart #withfoundation #ETH #Ethereum #nftcollectors   Vote → https://t.co/SRu0ALL6Uv https://t.co/qyaSRT8MKm",17,0
1374881032965664770,"2021-03-25T00:29:16Z","Top 10 Coins Mentioned on Twitter Last Week 📣  $BTC 1,751,412 $ETH 267,287 $DOGE 200,050 $CAKE 152,555 $ADA 149,907 $CHZ 78,208 $LINK 71,556 $POLS 59,075 $KLV 52,392 $XRP 48,110 https://t.co/YOrRjJaYhn",99,0
1374881028456742921,"2021-03-25T00:29:15Z","First NFT Drop on @rariblecom  https://t.co/kmRXeiKlUi  #rarible #ethereum #nonfungible #digitalasset #nft #nft #nftart #NFTcommunity #nftcollectors #nftcollector #nftcollections #NFTcollectibles #cryptoart #cryptocurrency #crypto #ETH #ethereum https://t.co/SFk4FPST3w",91,0
1374881015949262848,"2021-03-25T00:29:12Z","💧Roku Network Airdrop 💧  🏆 Task:          ➕  15 ROK (~$5)  👨‍👩‍👧 Referral:   ➕  3 ROK (~$1)  🔛  Airdrop Link &amp; Information: https://t.co/YhvsOcfEbH  #cryptocurrency #Crypto #Bitcoin  #BSC #BinanceSmartChain #Ethereum #ETH #Airdrop #bounty #ROK #RokuCoin #RokuNetwork",3812,0
1374881012870709256,"2021-03-25T00:29:12Z","@dodo_tokens Especially Especially Thanks for the opportunity ❤️ Great project 🥰 I have $DoDo project are success and go to the moon 🌠🚀  ETH Adresse 0x1c754282e5272C64e5F0dBDb72cff8daB3799b11 Good luck  I have done All rules ✅✅",0,0
1374881004129767428,"2021-03-25T00:29:10Z","* Daily 24HR ETH Derivatives Volume *  Call volume: $97,631,283.93 Put volume: $65,053,029.75 Futures volume: $378,350,305.90",0,0
1374880994658897920,"2021-03-25T00:29:07Z","@ChainlinkNFThub My first foray into digital generative art, will definitely not be the last.  https://t.co/8jziAedNva  #nft #nftart #nfts #generativeart #illustration #nftcollector #eth #nftart #NFTCommunity #NFTartist #NFTCommunity #Cryptoart",0,0
1374880991261691912,"2021-03-25T00:29:07Z","Welcome to NFT Flamingos!  This is detailed thread discussing everything about this upcoming project.  Likes or Retweets much appreciated if you're interested in what the future holds for #NFTFlamingos  #NFT #nftart #NFTartists #ethereum #eth #NFTCommunity #NFTdrop #nftcollector https://t.co/36jwIO2M7u",124,0
1374880985083351040,"2021-03-25T00:29:05Z","@sassal0x I actually think Beeple was quite smart in all this.  He's cashed out a fuckload of ETH that people essentially donated to him and he's probably working out his tax bill and checking out the price on luxury yachts now.",1,0
1374880972613750794,"2021-03-25T00:29:02Z","Good video to start learning about $ZNN  @Zenon_Network   $BTC $ETH $ADA $XRP $DOT $KSM https://t.co/TZUyF5frEt",4,0
1374880964636073988,"2021-03-25T00:29:00Z","You can now buy a #Tesla car with #Bitcoin   “Nothing is stronger than habit” @DavosCryptos   $BTC $ETH #TSLA #Cryptocurrency https://t.co/L0UpN4xTtm",678,0
1374880945715617799,"2021-03-25T00:28:56Z","Sometimes the best move, is just to sit back and relax..  Everything will be back before you know it.  $BTC and $ETH are not going out of business.  Dream entries on deck.",819,0
1374880938685960192,"2021-03-25T00:28:54Z","NEW podcast episode is up!   Vitalik Buterin (@VitalikButerin), Creator of Ethereum, on Understanding Ethereum, ETH vs. BTC, ETH2, Scaling Plans and Timelines, NFTs, Future Considerations, Life Extension, and More (Featuring Naval Ravikant) (@naval)  https://t.co/wWBnxQfRNW",4859,0
1374880919081922563,"2021-03-25T00:28:49Z","@krugermacro Another stunningly ignorant post by an uninformed myopic BTC maximalist. Bitcoin may be digital gold, but Ether is “digital oil”, a fuel powering a revolutionary decentralized, peer-to-peer and global blockchain economy that is life changing. Yo dude, Eth ain’t no “altcoin”.",0,0
1374880900106883074,"2021-03-25T00:28:45Z","🚀 Pluto Coin  Airdrop 🚀 Rate: ⭐⭐⭐⭐ ⭐ 🎁 Reward:  8822 PLUT ($1500) 👫 Referral: 40.5 PLUT  ($7)  🤖Start Bot here   https://t.co/x5JZchojO8  ⛂ Join Telegram group and channel. ⛂ Follow twitter &amp; retweet  ⛂ Submit ETH address and details.",6006,0
1374880894100512772,"2021-03-25T00:28:43Z","RT @CashNCrypto: $150 to one person in 48hrs  Rt &amp; follow me + @domscrypto &amp; @boar_eth",2067,0
1374880893844692997,"2021-03-25T00:28:43Z","You missed the rise of Amazon, Facebook, Apple seriously will you miss the rise of @BinanceChain!  You missed the rise of Bitcoin, ETH, BNB, NEO seriously will you miss the rise of $BSCX. The coin was born in the bull market of 2020-2021 and will rise as the newest crypto-asset! https://t.co/gHx4QHBDOk",194,0
1374880891671994369,"2021-03-25T00:28:43Z","Heal thyself from within &amp; injoy a eco friendly life with pure hand made reusable copper straws.   DM me if yah interested in learning how to get one for you &amp; yah loved 1s.   After all, Yah body is a temple so, why not treat eth like one? 13Lov9 13Health 13Wealth 13Blissings https://t.co/nLYgtseMDs",7,0
1374880891252703237,"2021-03-25T00:28:43Z","@Leo_Glisic @engineers_feed Why ETH if eGLD is doing the same thing but 1000x faster and with almost no fees?",0,0
1374880886924013568,"2021-03-25T00:28:42Z","You missed the rise of Amazon, Facebook, Apple seriously will you miss the rise of @BinanceChain!  You missed the rise of Bitcoin, ETH, BNB, NEO seriously will you miss the rise of $BSCX. The coin was born in the bull market of 2020-2021 and will rise as the newest crypto-asset! https://t.co/gHx4QHBDOk",194,0
1374880884076187652,"2021-03-25T00:28:41Z","When you put your glasses on  https://t.co/mL1w7j6G1Y  #crypto #ETH #mint #nftcollector #NFTcollectibles #pixelart #NFTCommunity #unofficialpunks #cryptopunks #Punks #rarible #NFTartist #3dart  #NFT3D #3Dpunks #cryptojaks #Hashmasks https://t.co/xtDYPRydqA",12,0
1374880881815519234,"2021-03-25T00:28:40Z","Have you seen our entire family squares?  Take a look at https://t.co/jvTQXy1mdA 🧐  #ethereum #eth #NFT #NFTs #NFTartists #NFTcollection #nftart #cryptoart #opensea",1,0
1374880877235347460,"2021-03-25T00:28:39Z","Again, I love the timing! It's all coming to a head as $TEL enters Q2 in a few more days and the roadmap's planned announcements and advancements take us to $0.01 and beyond!  #Telcoin #Telfam $BTC $ETH #Bitcoin #crypto https://t.co/327yc8AR5i",44,0
1374880873846349829,"2021-03-25T00:28:39Z","Top 5 Mentions Updated Every 3 Minutes : Thu Mar 25 2021 00:55:37 GMT+0300 (GMT+03:00)   (BETA STAGE)  1- $ETH==&gt;455  2- $XRP==&gt;157  3- $BNB==&gt;156  4- $ADA==&gt;115  5- $DOT==&gt;115",0,0
1374880873611399170,"2021-03-25T00:28:38Z","#Abiy of #ETH said in his speech that People make noise for women raped in tigray by men.But our soldiers were raped there by knife.This shows his soldiers were ordered to rape.@UN @UN_HRC @JoeBiden @SecBlinken @EU_Commission @EUatUN @CNN @SkyNews @AJEnglish @Reuters",0,0
1374880870339854343,"2021-03-25T00:28:38Z","RT @dixon_eth: Check actual gas prices here Thank me later 🚀 RT this for the #nft family https://t.co/WjDabWjsJf https://t.co/AVpr9rVfhV",278,0
1374880861259235331,"2021-03-25T00:28:36Z","RT @CashNCrypto: $150 to one person in 48hrs  Rt &amp; follow me + @domscrypto &amp; @boar_eth",2067,0
1374880860126601216,"2021-03-25T00:28:35Z","RT @DailyDogeUpdate: 🚀 $1000 to anyone who Like, Follow and Retweet 🚀  #Dogecoin #LTC $ETH",1846,0
1374880853684330496,"2021-03-25T00:28:34Z","Dear Squares, One unique piece tsquare are NOW ON SALES!   ---&gt; tsquare superT #008  Grab it already on https://t.co/jvTQXy1mdA! RT to support use :)   #ethereum #eth #NFT #NFTs #NFTartists #NFTcollection #nftart #cryptoart #opensea https://t.co/5yRXunKBTZ",1,0
1374880842493931523,"2021-03-25T00:28:31Z","Midweek Buy Fest!!!  Deposited: 3 ETH to buy some #NFTs today.  1. Follow me 2. Like and retweet 3. Drop your NFTs in the comments, I'll buy your art! #NFTs #nft #nftcollector #nftart #cryptoart #nftcollectors #NFTcollectibles #NFTartist",175,0
1374880842024017920,"2021-03-25T00:28:31Z","RT @CashNCrypto: $150 to one person in 48hrs  Rt &amp; follow me + @domscrypto &amp; @boar_eth",2067,0
1374880828711297025,"2021-03-25T00:28:28Z","💰What’s your #ETH wallet address?  🚀Don’t ask why, just drop it below👇  🚀Like、Retweet &amp; Tag ALL U CAN  🚀 USDT-NFTs has been listed on Uniswap！  🚀 The contract address: 0x6599fc3e77cbfa6f6e9cac605a30b1e78827eba0  #NFTs #NFT #AIRDROP #UNISWAP https://t.co/H29ZBOR0aL",1387,0
1374880827843211273,"2021-03-25T00:28:28Z","RT @jimcramer: Guy comes in and outbids me: 12.12 ETH for the IS GOD DEAD cover for Time!!! Argh.",284,0
1374880823883747328,"2021-03-25T00:28:27Z","The year is 2032. You stare at your phone hoping your ETH transaction you payed $534 in fees for goes through so the door to your Tesla unlocks.",1357,0
1374880820691877894,"2021-03-25T00:28:26Z","The whole collection is for sale now!  @opensea! #nft #opensea #art #abstractArt #abstract #houdini #cryptoArt #eth #generativeArt #generative #nftart  https://t.co/TmIQmj8dXn",5,0
1374880814710857731,"2021-03-25T00:28:24Z","The account is sponsored by #Maanky 🐵 #BTC #Bitcoin #ETH #FOREX US to sanction Myanmar military-owned conglomerates MEC &amp; MEHL https://t.co/OsmsuYtyiu",0,0
1374880795769233416,"2021-03-25T00:28:20Z","RT @CashNCrypto: $150 to one person in 48hrs  Rt &amp; follow me + @domscrypto &amp; @boar_eth",2067,0
1374880785094868992,"2021-03-25T00:28:17Z","To celebrate our launch, and to give back to the community, we are giving away:   ✨ 1 Limited Edition Pikatuff NFT ✨ $600 in $ETH  To enter:  📌 Retweet 📌 Follow @realcryptomon  📌 Tag 1 friend  Ends on March 31st, good luck! #NFT #nfts #giveaway #Giveaways #NFTGiveaway https://t.co/ESsttbpEU8",378,0
1374880775254982665,"2021-03-25T00:28:15Z","Been screaming about this gem since the beginning for months now  $VRX is on the left, $AVAX on the right  Don't be shaken out,  5000$ incoming  🚀  Buy $VRX NOW!  Only 47.5k max supply, 60% staked! Game changing coin🔥  #bitcoin $btc $eth  $spi $chain $umx $cfi $ern $lpt $rfr https://t.co/VJheZrWKaa",2447,0
1374880772922953732,"2021-03-25T00:28:14Z","This one is the smallest one and cheapest one in the collection :)  The whole collection is for sale now!  @opensea! #nft #opensea #art #abstractArt #abstract #houdini #cryptoArt #eth #generativeArt #generative #nftArt  https://t.co/ArXwZcIXnb",2,0
1374880747215986693,"2021-03-25T00:28:08Z","I never cease to be impressed that so few people seem to know that individual BTC transaction fees are far higher than individual ETH transaction fees.  It's almost as if nobody is actually using Bitcoin.",328,0
1374880745848705028,"2021-03-25T00:28:08Z","@breadbuddy_ King $ETH's CryptDeck is prepared for its master  Vitalik. Just minted 10/10. Completely handcrafted to defeat any false challengers!   https://t.co/MuceKE0yqf https://t.co/KYnpqU3wCG",1,0
1374880744795820034,"2021-03-25T00:28:08Z","@UFOS_4 My first foray into digital generative art, will definitely not be the last.  https://t.co/8jziAedNva  #nft #nftart #nfts #generativeart #illustration #nftcollector #eth #nftart #NFTCommunity #NFTartist #NFTCommunity #Cryptoart",2,0
1374880720418660358,"2021-03-25T00:28:02Z","RT @DailyDogeUpdate: 🚀 $1000 to anyone who Like, Follow and Retweet 🚀  #Dogecoin #LTC $ETH",1846,0
1374880704962658304,"2021-03-25T00:27:58Z","@Murfski_ Only yesterday I participated in  ENEX community round sale, clearly see the profit of this investment! What  are the expectations of the @ENEXSPACE people?   $sph $dixt $meth $usd $btcst $solve $one $dcn $family $theta $eth $pop $com $rpepe $bolt $redi $ltc $bbo $bsys $gold $go",1,0
1374880704350183425,"2021-03-25T00:27:58Z","$DYP liquidity providers earned 6,401.87 #Ethereum worth $10,769,945 since launch!  Earn up to 303.11% APY 💰  If you want to start earning #ETH you just need to join one of our liquidity pools: DYP-ETH, DYP-WBTC, DYP-USDC, and DYP-USDT https://t.co/zxyI0V2tnr  #DeFi #uniswap https://t.co/G1k8VLAekB",438,0
1374880694657286146,"2021-03-25T00:27:56Z","@DropYourNFT One unique piece tsquare  ---&gt; tsquare gameTboy #034  Grab it already on https://t.co/jvTQXxJLm2! :)  #ethereum #eth #NFT #NFTs #NFTartists #NFTcollection #nftart #cryptoart #opensea https://t.co/2oIZBwyaoH",0,0
1374880689699479555,"2021-03-25T00:27:55Z","#Sponsored  😍The #DeFi Yield Protocol is developing a unique platform: Anyone can provide #liquidity &amp; be rewarded for the first time with #Ethereum  🤑6,366.95 #ETH worth $10,869,776.32 paid to the #liquidityproviders since launch  Check https://t.co/ftVaR00xr3 for details!! https://t.co/BvE29pWtpX",491,0
1374880686721617920,"2021-03-25T00:27:54Z","RT @JaxsonPohlman: Reserve price is now 1 ETH ✨  #NFT #NFTcollector #CryptoArt https://t.co/GmkBZmHXA4",12,0
1374880672616128514,"2021-03-25T00:27:51Z","🔥 We are thrilled to announce $DYP listing on @kucoincom !  🔷 DYP/USDT &amp; DYP/ETH trading will start tomorrow, March 25th at 10AM UTC!  🔸 Stay tuned: More News and Activities TBA!  ✅ More News at: https://t.co/7xB73Xen1N https://t.co/uQ3Q5sPpq3",570,0
1374880665825652744,"2021-03-25T00:27:49Z","💧Roku Network Airdrop 💧  🏆 Task:          ➕  15 ROK (~$5)  👨‍👩‍👧 Referral:   ➕  3 ROK (~$1)  🔛  Airdrop Link &amp; Information: https://t.co/YhvsOcfEbH  #cryptocurrency #Crypto #Bitcoin  #BSC #BinanceSmartChain #Ethereum #ETH #Airdrop #bounty #ROK #RokuCoin #RokuNetwork",3812,0
1374880664009515009,"2021-03-25T00:27:49Z","I’m very happy i didn’t go all in 5x leverage eth",2,0
1374880647878111243,"2021-03-25T00:27:45Z","🔥 WoW!!! $DYP getting listed on @kucoincom !  DYP/USDT &amp; DYP/ETH trading will start tomorrow, March 25th at 10AM UTC! Good job @dypfinance team!  #DeFi #uniswap #Ethereum https://t.co/Rw9qa5l5tA",2225,0
1374880635295260673,"2021-03-25T00:27:42Z","We are pleased to announce that we have now received our smart contract Audit Report from the Blockchain Consilium &amp; we are proud to say that there is no major bug or high risk found in the smart contract. https://t.co/ExqpbxRH7P  COPS FINANCE #Defi #ETH #UniswapV3 @DEXToolsApp",15,0
1374880627405815812,"2021-03-25T00:27:40Z","RT @dalnaz3: Welcome the Chili’s! $chz $btc $eth https://t.co/0J0JaHRZ6w",2,0
1374880622099849217,"2021-03-25T00:27:39Z","RT @intocryptoverse: A year ago when $ETH was around $200, imagine being upset a year later with a $1500 $ETH. Crazy how quickly crypto sen…",2079,0
1374880604098019330,"2021-03-25T00:27:34Z","Hey! For this week I have already bought CryptoArts for 4 ETH, but this is not enough !? Offer me your art: 1. Follow me 2. Like and retweet 3. Leave your art in the comment!  #nft #defi #NFTs #NFTartist #nftart #cryptoart #nftcollectors #nftcollector #Ethereum #bitcoin #crypto https://t.co/3HYNtONY8A",602,0
1374880603015876609,"2021-03-25T00:27:34Z","3/3 $CKB https://t.co/GFJLjkIp3c $btc $ltc $link $uni $bnb $band $eth $grt $dnt $comp $mkr $omg $one $trx $xvg (fuck xvg) $nu $Ada $vet $zil $matic $egld $doge $cake $bake $atom $bch $bat $oxt $knc $cvc $xlm $loom $algo $rvn $bal $xtz $tomo $fil $lrc $aave $dash $Uma $ox $mana",2,0
1374880602009243649,"2021-03-25T00:27:34Z","RT @CashNCrypto: $150 to one person in 48hrs  Rt &amp; follow me + @domscrypto &amp; @boar_eth",2067,0
1374880600910229504,"2021-03-25T00:27:33Z","If you're not buying $treat on #pancakeswap right now are you even a #degen  #DeFi #crypto #Blockchain #NFTs #DOGE #Bitcoin #ETH #TRON #BTC #moonshot #ElonDOGE #ElonMusk #BinanceSmartChain #BSC $bnb #Binance #BNB #nftart #nftcollectors #nft https://t.co/40l6nseh4J",3,0
1374880599702339584,"2021-03-25T00:27:33Z","🚀 Safe The Children  🔷 Token Symbol : STC  🔷 Contract: https://t.co/nk3qsF2PJV  🔷 Website: https://t.co/4y0g7dqswM  🔷 Whitepaper: https://t.co/PHPZI4dbyR  🔷 Presentation Video : https://t.co/Mycfov12IU  #Safe_Childrens #Bitcoin  #Binance #BinanceSmartChain #DEFI  #BTC #ETH",14723,0
1374880594488913926,"2021-03-25T00:27:32Z","Look what I just discovered on, its a steal just 0.1 ETH 🙃🙂🙃🙂😱  Real Photo, right time and place    @opensea! #nft #opensea https://t.co/IokWV5QBZY",1,0
1374880590801948677,"2021-03-25T00:27:31Z","RT @DailyDogeUpdate: 🚀 $1000 to anyone who Like, Follow and Retweet 🚀  #Dogecoin #LTC $ETH",1846,0
1374880579724840960,"2021-03-25T00:27:28Z","RT @CashNCrypto: $150 to one person in 48hrs  Rt &amp; follow me + @domscrypto &amp; @boar_eth",2067,0
1374880578051338246,"2021-03-25T00:27:28Z","📢Congrats！First launch on Uniswap！ 🚀USDT-NFTs trading pair is live！ 🚀The contract address:  0x6599fc3e77cbfa6f6e9cac605a30b1e78827eba0  💰Hold more NFTs, be richer！  🌸Like、Retweet &amp; Tag 3 friends  🚀Select 10 addresses to airdrop 1,000,000 NFTs, leave wallet #ETH address https://t.co/Slor4FBQzP",2943,0
1374880574649810950,"2021-03-25T00:27:27Z","#BTC Price: $53118 #ETH Price: $1604 #LTC Price: $179  Next update in 10 minutes Last updated: 20:27:27.06",0,0
1374880561848852486,"2021-03-25T00:27:24Z","Hi Collectors stay tune i just start that A-Monster Cloth collectible, more uploads soon  0,02 Eth https://t.co/xPC01BfgRF? #rarible #ethereum #nonfungible #digitalasset #nft a través de @rariblecom",17,0
1374880548452245505,"2021-03-25T00:27:21Z","Potential scenario for larger $ETH retrace before large bull run if moving averages cross bearishly again like early March https://t.co/mDYJousqqo",1,0
1374880539283390464,"2021-03-25T00:27:19Z","STC one of the respective thought is for Unprivileged Children in the world. STC 20% of total profit goes to STC special fund for Safe the Children forum. #STC $STC #ETH #DEFI #DONATION",2307,0
1374880521558257665,"2021-03-25T00:27:15Z","I'll send $500 in #ETH or #BTC to one person who retweets this and follows @bud_crypto. Must complete these tasks:  1 - Like/RT his pinned tweet  2 - Must RETWEET &amp; LIKE 4 of his tweets  Ends in 72 hours!",1406,0
1374880499651506177,"2021-03-25T00:27:09Z","$btc holders going to get a nasty surprise when #Bitcoin dominance tanks and the 3rd gen coins go up while $btc stagnates. $algo $eth $ada $hbar $vet",3,0
1374880496610635776,"2021-03-25T00:27:09Z","🚀 Safe The Children  🔷 Token Symbol : STC  🔷 Contract: https://t.co/nk3qsF2PJV  🔷 Website: https://t.co/4y0g7dqswM  🔷 Whitepaper: https://t.co/PHPZI4dbyR  🔷 Presentation Video : https://t.co/Mycfov12IU  #Safe_Childrens #Bitcoin  #Binance #BinanceSmartChain #DEFI  #BTC #ETH",14723,0
1374880496367378433,"2021-03-25T00:27:09Z","Check out this 5 minute candle for #nimiq/#USDT, #BTC,#etherium   Those bearish #Bots just got #REKT. The only way now for #Nim is #moon https://t.co/1NPqG67tmL",71,0
1374880484900044801,"2021-03-25T00:27:06Z","Sometimes you just gotta buy the dip and step away from the screen $ADA $ETH $VET",0,0
