"ID","created_at","text","like_count","rt_count"
1377636868074962948,"2021-04-01T14:59:59Z","Slow 182 | Normal 187 | Fast 197 | Instant 235 👈 current Ethereum gas prices in gwei. DM me a price and I will DM you as soon as gas drops below that price 👍 #Ethereum #GasPrice #ETHGasPrice #ETH",0,0
1377636853763874823,"2021-04-01T14:59:55Z","eth rt bot era.. maybe https://t.co/Kt2aW3hdxH",0,0
1377636842527367175,"2021-04-01T14:59:53Z","$PUX is  A BEAST!!!! Looks like it  heading to dream LAND. This is going to +$1 very soon. Grab some now and enjoy the ride!   https://t.co/Vcqp7JAe3L $PUX $ETH $BTC @polypuXapp",47,147
1377636824168996865,"2021-04-01T14:59:48Z","@intocryptoverse Am holding Eth long term, it can easily double in price this year. It has gained tones of credibility with institutional investors",0,0
1377636823976050698,"2021-04-01T14:59:48Z","@GeminhighC $LINK  $ETH $BTC $BNT $AAVE",4,0
1377636817055272967,"2021-04-01T14:59:47Z","@nftsaid Trace No.001   Streets are transformed, destroyed, and rebuilt by time, physical events. This scene leads to a new experiment. https://t.co/gX0HPyOsgw  #nft #nfts #nftart #nftarts #nftcollector #opensea #etherium #NFTCommunity",0,0
1377636795827974146,"2021-04-01T14:59:42Z","$PUX is  A BEAST!!!! Looks like it  heading to dream LAND. This is going to +$1 very soon. Grab some now and enjoy the ride!   https://t.co/Vcqp7JAe3L $PUX $ETH $BTC @polypuXapp",47,147
1377636794984886280,"2021-04-01T14:59:41Z","#Space: two #StrangePlanets: #Neptune and #Uranus remain mysterious after new findings — both have a completely skewed #MagneticField 👁‍🗨 https://t.co/QbsMipvRj0 via @eth_en https://t.co/fNdQdIpGrE",26,9
1377636790253858816,"2021-04-01T14:59:40Z","@Polkamonorg would be nice to have a support e-mail or any possibility to contact you guys... i am not willing to share my eth adress on twitter... looking at the txn from 18h ago.. it looks as if my Polkamons have been sent to other eth adresses then mine...",0,0
1377636783048036363,"2021-04-01T14:59:38Z","#RVN​​​​​ - Raven Coin Weather Report, Apr 1, 2021 https://t.co/hnqrR24pok #uni #uniswap #ethereum #eth #crypto #cryptonews #cryptoanalysis #daytrading #btc #chainlink #link #rvn #bnb #binance #ada #cardano #RavenCoin #thesilverback",11,2
1377636772998377480,"2021-04-01T14:59:36Z","Fellow $VRA Community if your not yet registered with one of Australia’s leading crypto exchanges now is a great time &amp; let your voice be heard by registering your interest #Verasity being listed on @coinspotau https://t.co/iRMXvXMgtH #Bitcoin $ETH $DOT $KSM $EWT $OCEAN $WAVES https://t.co/Ld7ZOvtMox",7,0
1377636763515023365,"2021-04-01T14:59:34Z","Free Ethereum - Earn $65 free eth in 5 minutes https://t.co/2Aqc63rBIg #ethereum #freeeth #geteth",0,0
1377636763464839169,"2021-04-01T14:59:34Z","@SoulsTouchGifts @crypt0fungus He had photo and name on Theta website. He had token exactly same name. He had page of Theta (Tfuel community) had 10600 members. Sime of the members text's about buying theta of 100 ETH to 44ETH with very satisfying comments",0,0
1377636762714042368,"2021-04-01T14:59:34Z","Zero Currency Airdrop 🚀 💰 Reward : 5,000 ZER(20$)  ⏰ 24 hrs   Already listed on Bololex  Goto 👇 https://t.co/U6Y8D4kqKJ  📖 Step-by-step guide: 🔹 Do some social tasks   Follow  Retweet  Comment Eth Address   Telegram @ iPower (@iP_latest_crypto_airdrop_page)  #favours🚀 https://t.co/fj1jTlFjXw",1,0
1377636759014608898,"2021-04-01T14:59:33Z","If $Kin is exploding quickly in such a short amount of time, what do you think it will do for the remainder of the bull run?  Still early.  Don’t miss out.  #Kin #NFTs #DeFi #btc  #bitcoin #solana #bch #usd #xrp #eth #price #crypto #ltc #fintech #blockchain #buythedip",34,17
1377636753436147712,"2021-04-01T14:59:31Z","@The_CryptoGuy_ @eth_us @zebpay @AttentionToken @brave @ethereum Any news about zebra nft token?",1,0
1377636752349872128,"2021-04-01T14:59:31Z","What’s your $ETH address? What #NFTs and #crypto you currently own?",3,0
1377636749514469376,"2021-04-01T14:59:30Z","@NFTs_Group I did not receive my token yet I'm still waiting  God bless #NFTs  @quanqizhang @SI5Yam1h4Izquierdo2 @lilin75150533 @joy love nfts #ETH 0x67e4c4cca153f06206005ef3bb7874514bcbaf05",1,1
1377636745198583809,"2021-04-01T14:59:29Z","@BlockFi clients earned over $60M worth of interest in March, including:  &gt;600 #btc  &gt;6,000 #ETH &gt;10M in stablecoins  and &gt;36k Link  Lots of exciting stuff coming up, thanks for your continued support!!",629,45
1377636741755068422,"2021-04-01T14:59:29Z","@cryptobeaver3 @iamDCinvestor Eth fees are high because whales still use and won't budge from eth because the chain is trustless. That's why visa chose eth. Only retail going to cheaper alternatives that big money will avoid like the plague.",0,0
1377636738424791044,"2021-04-01T14:59:28Z","Eth🇪🇹 possibly seeking foreign interference in the #TigrayWar according to local eyewitnesses who observed 🇪🇹, 🇪🇷 and european military personels arrive in #Samre, Maraqk, #Tigray.   Previously: Rus🇷🇺 &amp; Tur🇹🇷 supported the #Tigray aterocities in the UN🇺🇳 security council meeting. https://t.co/oda5Y3z6iy",23,21
1377636734121308162,"2021-04-01T14:59:27Z","RT @beaniemaxi: Wait... wut? A 1/1 Fewo just sold for 35 ETH?!?!",126,9
1377636733391605771,"2021-04-01T14:59:27Z","RT @rektcapital: Imagine what will happen to Altcoins when $ETH breaks out to a new All Time High  #Ethereum",1175,97
1377636733123231744,"2021-04-01T14:59:27Z","The first exchange for #Tenset  token is here! We've just added an ETH/10set pair on #Uniswap  with a total of 2 mln$ liquidity. With  Guys... IT'S BEGAN 🔥🔥🔥🔥🔥🔥  ⬇️ Instructional Video. How to buy #10set on Uniswap  https://t.co/oQDPDLZjYz",351,127
1377636730845556739,"2021-04-01T14:59:26Z","@NFTs_Group @quanqizhang @lilin75150533 @joy I did not receive my token yet I'm still waiting  God bless #NFTs  @quanqizhang @SI5Yam1h4Izquierdo2 @lilin75150533 @joy love nfts #ETH 0x67e4c4cca153f06206005ef3bb7874514bcbaf05",0,0
1377636728463261698,"2021-04-01T14:59:25Z","@shareyournft Trace No.001   Streets are transformed, destroyed, and rebuilt by time, physical events. This scene leads to a new experiment. https://t.co/gX0HPyOsgw  #nft #nfts #nftart #nftarts #nftcollector #opensea #etherium #NFTCommunity",0,0
1377636719307153423,"2021-04-01T14:59:23Z","wtf the eth price is just going 📈📈",1,1
1377636717843210246,"2021-04-01T14:59:23Z","🚘 $1.2 Million &amp; Tesla Giveaway ‼️  $BASE Protocol &amp; @Tesla have pooled over $1.2M USD for a 24h Giveaway MARATHON.  32 $ETH Airdropped every hour for the next 24 hours‼️  ⭐️ The final draw: ONE WALLET WIN A #TESLA CYBERTRUCK 🛻🚀  👉 Comment Ethereum address, Follow &amp; RT! https://t.co/n1tHCrucKk",169,176
1377636715628613633,"2021-04-01T14:59:22Z","I say #ETH for a couple reasons. Firstly, there are many alternative coins that have similar or better capabilities that are cheaper to use; but, more importantly, with the installment of Gary Gensler and the removal of Jay Clayton we will see the legal hammer dropped on #ETH",14,0
1377636701095403531,"2021-04-01T14:59:19Z","RT @TheCryptoWolfOG: $ETH to $2500 in April or I'm giving away 0.5 $ETH to someone who retweets this.",373,638
1377636699568664576,"2021-04-01T14:59:19Z","💧Twinci Airdrop 💧  🏆 Task:          ➕ $15 worth of  TRX                              ➕ $50 worth of TWIN  🔛 Airdrop Link &amp; Information: https://t.co/aV7t49dRDX  #cryptocurrency #Crypto #Bitcoin #Ethereum #ETH #Twinci #TWIN",1336,1777
1377636699195404289,"2021-04-01T14:59:18Z","@cz_binance Its mean that.. Bnb will won over eth.. I like All your speculative word.. I love it.. Bnb will soon defeat ethereum, only matter of time. Maybe this year we will see new number two market cap leader.. Keep spirit cz..",1,0
1377636695017947138,"2021-04-01T14:59:18Z","Single Mystic Axie #1268 was sold for 25 ETH ($47895.81). Buyer: 0xe38171..., seller: 0x3f86f1... 🔥 Congrats to the new owner! Tx: https://t.co/RV5udV9uxd #AxieInfinity #NFT #Ethereum #Play2Earn https://t.co/YwSJUwsP0u",58,13
1377636693881196547,"2021-04-01T14:59:17Z","❤️Can't wait! July can't come fast enough!!! #itsagirl #GOLD #Celsius #BTSE #Dai #Bitcoin #BTC #Ethereum #ETH #XLM #StellarLumens #xrp #LitecoinFam #ZRX #Zcash #alts #Crypto #cryptocurrencies #btclife #bitcoinnews https://t.co/R0mvdjArkJ",3,3
1377636692991959046,"2021-04-01T14:59:17Z","HAWT. With my partnership with @illuviumio I can give away 100 HOLOGRAPHIC Scoot Scarabok NFTs.  Similar ones have gone for 5 eth to 50 eth.  How to get -Post your ETH address + BATTLE SCOOT! below -Retweet/tag a friend -Follow @illuviumio and join their discord in bio https://t.co/xcCVVW6KdR",2755,2661
1377636687338213378,"2021-04-01T14:59:16Z","@sassal0x I just sold my eth for xrp",0,0
1377636686641864708,"2021-04-01T14:59:16Z","🥳200$ #giveaway paid in $BNB 🎁4 winners ( 50$ each )  ✅RT, Like and Tag 3 friends ✅Join discord: https://t.co/35loidugH9 ✅Verify at discord, post proof here  ⏳Ends in 4 days!  #bitcoin $BTC $ETH $DOT $ADA $SPI $GSPI @300Token https://t.co/FaTN8bD15F",1098,900
1377636677385064450,"2021-04-01T14:59:13Z","I´m 100% Sold out on @withFND with 5/5 sold #NFTs (17,86 Eth) + some Tokens of appreciation for the Highest bidders. 🙌🏼🚀 I´m super grateful with all my Collectors and bidders, and also with this great and warm community 🧡 This is only the start of a life changing journey! https://t.co/UxVe4RZlY1",65,3
1377636677020131329,"2021-04-01T14:59:13Z","Last Hour My First drop on @withFND is available right now. Bloody Mary  https://t.co/S91AHSliOw…  #nftart #share #cryptoart #NFTcollector #NFTs #drop #cryptoartist #NFTArtists #NFTCommunity #ETH #NFTcollectors #cryptoartist #collector",12,1
1377636673379397635,"2021-04-01T14:59:12Z","@dAAAb Trace No.001   Streets are transformed, destroyed, and rebuilt by time, physical events. This scene leads to a new experiment. https://t.co/gX0HPyOsgw  #nft #nfts #nftart #nftarts #nftcollector #opensea #etherium #NFTCommunity",0,0
1377636670762274824,"2021-04-01T14:59:12Z","🔥 Hathor Swap - First no-gas DEX to fix $ETH issues  🔥 Hathor Virtual Debit Card - Easy way to spend $HTR  🔥 Hathor WooCommerce Checkout - Cheaper than Stripe.. Settle in seconds  🔥 Hathor Chrome Extension - Go-to extension to build on $HTR  $BTC $ADA $DOT @htrfdt https://t.co/JOzsZxG5fT",395,127
1377636670137323520,"2021-04-01T14:59:12Z","RT @rektcapital: $ETH #ETH #Ethereum   ETH has broken out from this triangle https://t.co/lWmWfii5XZ",400,50
1377636668166012929,"2021-04-01T14:59:11Z","RT @dutchtide: I will be buying a 1000 eth nft today.",263,19
1377636652957454346,"2021-04-01T14:59:07Z","💎 The Perfect Simulation 💎  ✨ Artwork by @gmunk 💰 Sold to @supertopsecret for 20.0 ETH ($36,496.60)  https://t.co/sgTDAVkHJI  #cryptoart #NFT https://t.co/NA1lNkVm7c",4,3
1377636652466774021,"2021-04-01T14:59:07Z","Look what I found! Eth unique collectible https://t.co/4nL6ptXiYi? #rarible #ethereum #nonfungible #digitalasset #nft via @rariblecom",0,0
1377636650956754945,"2021-04-01T14:59:07Z","@Stuz0r @CaptvArt I think a retweet from u and @CaptvArt Is more worth then 10000000000000000000 eth to spend ;) &lt;3",1,0
1377636647894970376,"2021-04-01T14:59:06Z","@PicsouDubai https://t.co/khMRvIXZAU  Small time collector here, this piece is pretty sweet. Probably gonna grab a copy soon .15 ETH",1,0
1377636629595054085,"2021-04-01T14:59:02Z","$PUX is  A BEAST!!!! Looks like it  heading to dream LAND. This is going to +$1 very soon. Grab some now and enjoy the ride!   https://t.co/Vcqp7JAe3L $PUX $ETH $BTC @polypuXapp",47,147
1377636628252999680,"2021-04-01T14:59:02Z","My first NFT Drop on @withFND  Link: https://t.co/t3v8AkjYCv  Face 0 Clear your mind  0.5 ETH  #blockchain #NFT #Artwork #nftart #NFTartist #NFTdrop #opensea #rarible #CryptoArt #cinema4d #CGI #3D #render #design  #octanerender #motion #motiongraphics #motiondesign #withFND https://t.co/645aM2Lll9",76,33
1377636624109080578,"2021-04-01T14:59:01Z","#Space: two #StrangePlanets: #Neptune and #Uranus remain mysterious after new findings — both have a completely skewed #MagneticField 👁‍🗨 https://t.co/QbsMipvRj0 via @eth_en https://t.co/fNdQdIpGrE",26,9
1377636622217453569,"2021-04-01T14:59:00Z","RT @TheCryptoWolfOG: $ETH to $2500 in April or I'm giving away 0.5 $ETH to someone who retweets this.",373,638
1377636613124096005,"2021-04-01T14:58:58Z","@Arinabbart Trace No.001   Streets are transformed, destroyed, and rebuilt by time, physical events. This scene leads to a new experiment. https://t.co/gX0HPyOsgw  #nft #nfts #nftart #nftarts #nftcollector #opensea #etherium #NFTCommunity",0,0
1377636612268429312,"2021-04-01T14:58:58Z","$PUX is  A BEAST!!!! Looks like it  heading to dream LAND. This is going to +$1 very soon. Grab some now and enjoy the ride!   https://t.co/Vcqp7JAe3L $PUX $ETH $BTC @polypuXapp",47,147
1377636611786084354,"2021-04-01T14:58:58Z","$PUX is  A BEAST!!!! Looks like it  heading to dream LAND. This is going to +$1 very soon. Grab some now and enjoy the ride!   https://t.co/Vcqp7JAe3L $PUX $ETH $BTC @polypuXapp",47,147
1377636605838626819,"2021-04-01T14:58:56Z","RT @intocryptoverse: $ETH: The F-Word https://t.co/QRtmvE0vzI",215,25
1377636603317788683,"2021-04-01T14:58:56Z","Did you think Tocotoco was just a bird? Now you see the truth.😏😏😏  🥸0.2 eth 🥸Only 1 copy  Available here👇 https://t.co/AeaI98IrC5 https://t.co/rPtTsIPptC",35,14
1377636598288949251,"2021-04-01T14:58:54Z","@KingNFT2 Price:0.05 ETH https://t.co/KDePT6fror",0,0
1377636596619608065,"2021-04-01T14:58:54Z","definitely did not just buy every graphics card i could find to mine eth https://t.co/W53FknSnbb",2,0
1377636586884583431,"2021-04-01T14:58:52Z","🔥#GiveawayAlert🔥 Prize: 1/1 @BrutalKongz 💎 #nft worth 🔥0.4 $eth 🔥 To enter: ➡Like❤ ➡️RT ➡Follow @BrutalKongz + @Crypt0xNinja ➡Tag 2+ friends who love #NFTs Ends1st April - I will send a DM to the winner - Good luck #NFTCommunity #nftcollector #nftart #Giveaway #NFTs",106,78
1377636576566579203,"2021-04-01T14:58:49Z","2nd Cyber Squad Drop is LIVE🔥 on @rariblecom  https://t.co/nyHrZx1xE8  0.777 ETH Reserve Price  After the reserve price has met. I will accept the highest bid in 24 hours.  🍀Good Luck Everyone🍀  #CyberSquad #NFT #NFTArtist #NFTs #NFTcollector #nftcollectors #NFTcollectibles https://t.co/X95Vop72li",115,42
1377636567444041733,"2021-04-01T14:58:47Z","Now on sale!   CRYPTO GEISHA LAND by @CryptoGeisha   These were exclusively airdropped to #geishagang supporters so now's your chance!  Link: https://t.co/uQrXZNvgBK  #geisha #nft #nftart #nfts #nftcollector #nftcollectibles #nftcollectible #animation #cryptoart #rarible #eth https://t.co/IAkJxshvbi",14,2
1377636566684725250,"2021-04-01T14:58:47Z","I think it's a great project. Thinking about to launch it on eth also good project. Good to go with it #LQF https://t.co/iQRSAvDldJ https://t.co/dlkXpnSCVX https://t.co/VIrNn8Rm1C",0,0
1377636560846262272,"2021-04-01T14:58:46Z","@NFTs_Group I did not receive my token yet I'm still waiting  God bless #NFTs  @quanqizhang @SI5Yam1h4Izquierdo2 @lilin75150533 @joy love nfts #ETH 0x67e4c4cca153f06206005ef3bb7874514bcbaf05",1,1
1377636551556014081,"2021-04-01T14:58:43Z","RT @LeoLemarie1: @mickalamasse1 Go go go!! 🌶  #projetXcrypto   #eth #projetx #defi #dex #tacoswap #tacotoken🌶 #vampireattack #frenchdex #et…",66,46
1377636546980020227,"2021-04-01T14:58:42Z","🔥GIVEAWAY🔥 Win the Crystal ETHereum logo 💎 0.77 ETH worth FOR FREE   Take a chance to win: 1. Go to FND and click follow https://t.co/0lzEfbhPSH  2. Follow @igor_3000A 3. RT this post💙  https://t.co/THGW3ipZhY  #nftcollector #NFT #NFTart #NFTCommunity #cryptoart #NFTGiveaway https://t.co/UT9IeugDud",156,111
1377636543498715140,"2021-04-01T14:58:41Z","RT @iamDCinvestor: imagine betting against $ETH right now  zoom out 👀 https://t.co/nmspEfPBkq",246,34
1377636541254668290,"2021-04-01T14:58:41Z","$STPT +250% so far!   👉 Join Channel: https:https://t.co/qMvuihVCFU  $BTC $ETH #NFT $PERL $ENJ $FLOW $THETA #BSC  $REEF $LUNA $SAND $AXS $TVK $HOGE $CHZ $STX $ROSE $TROY $ONE $CERL $IRIS $ANC $ADA $DIA $XRP $DOGE $ATOM $LUNA $ZCX $BNB $WABI $LTO $CVC https://t.co/FssHADsuqm",3,1
1377636530827620353,"2021-04-01T14:58:38Z","@NFTs_Group @quanqizhang @lilin75150533 @joy I did not receive my token yet I'm still waiting  God bless #NFTs  @quanqizhang @SI5Yam1h4Izquierdo2 @lilin75150533 @joy love nfts #ETH 0x67e4c4cca153f06206005ef3bb7874514bcbaf05",0,0
1377636530433445891,"2021-04-01T14:58:38Z","Dope transitions Awsome effects Brilliant idea It's a game changer $ZNN $ETH $POL $BNB $LINK $SOL $EOS $NEO https://t.co/toLQhkCRJl",4,1
1377636530278166536,"2021-04-01T14:58:38Z","💫 #Ethereum is using crypto to decentralize products &amp; services in a wide range of use cases beyond money.   Ethereum takes a different approach, generalizing so its users can create any number of custom assets &amp; programs governing their operation. https://t.co/JnecQG3xuA $ETH https://t.co/x6pcHLyalW",194,48
1377636519700221958,"2021-04-01T14:58:36Z","Dropping “THE ETH ELEPHANTS” today. @withFND   The boy takes an adventure to find ETH from the Dalí’s elephants. ETH is a myth. He only could find a banana for now. - If you can follow me on https://t.co/4OsUWKE0Wy, I would be forever grateful!!! - https://t.co/ZVqIWyKocu https://t.co/N5oo1OG5Ts",172,37
1377636515510030344,"2021-04-01T14:58:35Z","@krakenfx Thanks for your information. The #BSC craze is sweeping the globe; it addresses the majority of ETH's issues, so users are flocking to #BSC in droves, and #Launchzone will serve as a strong fulcrum for the culture. $BSCX #BSCXHeroes",0,0
1377636508287475715,"2021-04-01T14:58:33Z","@Euro_Printer @beniaminmincu @ElrondNetwork @unifty_io It won't even compare. $POLM is on ETH, on #Elrond you'll do this swaps in seconds with less than 0.001$ fees. x) Those of us who are transacting on the blockchain with @getMaiar or the web wallet know 👊",23,1
1377636503061422086,"2021-04-01T14:58:32Z","2/ Algorand is an L1 competing against Ethereum for dev and user share. As a dev attending an ETH conference to learn more about building on Ethereum, what use is Algorand to me? None. Are they pitching themselves as an L2? Nope.",1,0
1377636502805577728,"2021-04-01T14:58:32Z","RT @LeoLemarie1: @mickalamasse1 Together #projetXcrypto   #eth #projetx #defi #dex #tacoswap #tacotoken🌶 #vampireattack #frenchdex #ethereum",49,40
1377636502772060162,"2021-04-01T14:58:32Z","#EvolveThis @MurAll_art  《Who's blowing bubbles?》 This NFT reflects on the behavior of digital artist Beeple after his &lt;&lt;everydays - the first 5000 days&gt;&gt; works were sold at a high price. @beeple @MetaKovan  An NFT, a blockchain story. 0x82FBcf5E14AbEeEfC6C9596b777190D1B5459898 https://t.co/LfsHSRhVeX",59,17
1377636495843033093,"2021-04-01T14:58:30Z","LMAO 🤣🤣   You know what: I got a #bridge to sell as well.   It's called The #ZIL &lt; &gt; #ETH Bridge. This one is not a joke though. It's a very serious bridge. 😉   Maybe you should look into it? @JohnCleese 🍻 Cheers!    🔽 @MemesZil https://t.co/CCsnsGNCwq https://t.co/jT3EKXXwlc",59,13
1377636495562014720,"2021-04-01T14:58:30Z","@Knutti_ETH @threadreaderapp unroll please?",0,0
1377636486636527617,"2021-04-01T14:58:28Z","NFT GIVEAWAY 17  i pick 1 person, i pay gas $15  requirement 1 POST your rarible url 2 RETWEET&amp;LIKE 3 FOLLOW twitter 4 TAG friends  optional 5 FOLLOW insta https://t.co/YNn3gn37XL  sell the card for&gt;0.05 eth #NFTCommunity #nftcollector #nftart  @rariblecom https://t.co/w4J4U7gMQv",44,31
1377636460027805696,"2021-04-01T14:58:21Z","Kinesis - redemption of 500 KAU (5x 100g bars of gold).   Cost:  Minting Fee (0.45%) $150 approx $100 Fee to Kinesis 2.25 KAU ETH fee ($125) $335 shipping to US / Brinks FedEx. Total: $710   JM Bullion: 5x 100g = $1,090 in premiums. (Free shipping) @JimForsythe5 - for your info",69,14
1377636451286929408,"2021-04-01T14:58:19Z","RT @LeoLemarie1: @mickalamasse1 Projet x #projetXcrypto   #eth #projetx #defi #dex #tacoswap #tacotoken🌶 #vampireattack #frenchdex #ethereum",55,41
1377636440218161153,"2021-04-01T14:58:17Z","DCT TOKEN Airdrop Medium Star Claim 1 DCT ($ 100) + 0.045 DCT ($ 10) for each referral you make.   Steps  💎  Join channel and group  💎  Follow twitter, like and retweet pinned message   💎  Submit eth wallet address (ERC-20) Participate now Airdrop link: https://t.co/L24stp8tVI https://t.co/CVYQyLAWwU",8620,8869
1377636439979003910,"2021-04-01T14:58:17Z","@eth_us ,@zebpay i have bought 375 trx back a month ago and i saw it yesterday only 310 trx left and i havent set any sell order and my 65 trx just disappeared .please help me to back my 65 TRX coin .",1,0
1377636424535662599,"2021-04-01T14:58:13Z","@elonmusk Do you write Etherium 😁",0,0
1377636422950252551,"2021-04-01T14:58:13Z","@mickalamasse1 To the moon !! 🌶🌶🚀  #PoolParty   #projetXcrypto  #eth #projetx #defi #dex #tacoswap #tacotoken🌶 #vampireattack #frenchdex #ethereum",25,23
1377636420706164740,"2021-04-01T14:58:12Z","ALPHA - BNB LINK - BNB USDC - BUSD BUNNY - BNB UST - BUSD SUSHI - ETH COMP - ETH  =&gt; the above pools have been added to https://t.co/aHNJef50HT  HIGH YIELD! Do it now!   #DeFi #BSC $BSCX https://t.co/DfIFCYAncU",525,311
1377636412988612609,"2021-04-01T14:58:10Z","RT @BitBoss_Crypto: Who do you trust?! 💰💼📈 $VAR $ANKR $FET $TRB $WABI $GRT $EGLD $ETH $BTC #HODL https://t.co/JCne3PRnM2",2,1
1377636411759751175,"2021-04-01T14:58:10Z","$XVG +34% from entry!   👉 Join Channel: https:https://t.co/qMvuihVCFU  $BTC $ETH #NFT $PERL $ENJ $FLOW $THETA #BSC  $REEF $LUNA $SAND $AXS $TVK $HOGE $CHZ $STX $ROSE $TROY $ONE $CERL $IRIS $ANC $ADA $DIA $XRP $DOGE $ATOM $LUNA $ZCX $BNB $WABI $LTO $CVC https://t.co/RSUBxowvvd",1,2
1377636397415157762,"2021-04-01T14:58:07Z","@NFT_TV Trace No.001   Streets are transformed, destroyed, and rebuilt by time, physical events. This scene leads to a new experiment. https://t.co/gX0HPyOsgw  #nft #nfts #nftart #nftarts #nftcollector #opensea #etherium #NFTCommunity",1,1
1377636396329005057,"2021-04-01T14:58:06Z","@oloye__ Giveaway in ethereum  Kindly drop your eth address ahead of 9th April for it's a giveaway day on Twitter NG  Boycout Day = Giveaway Day",3,0
1377636392944103429,"2021-04-01T14:58:05Z","@Nsure_network seems legit ... Check news yesterday  + 1000ETH locked within the first 3 hours and almost USD 2m TVL in the Capital Pool 💥  $NSURE is my favorite coin for insurance, Because nobody speaks about it, Save this tweet   Experience DeFi, Risk Free.  $BTC $ETH $BNB https://t.co/slGQu6nmhu",25,5
1377636392373788672,"2021-04-01T14:58:05Z","Robin Lod bought for 0.25 ETH (483.59$) on the secondary market   Season: 2020-2021 Level: 0 Serial: 61/100 Price: 483.59$  ⚽ Sorare: https://t.co/MagrCa5stF  📊: https://t.co/INSS1bPGVL  #Sorare #NFT #Ethereum #FantasyFootball",0,0
1377636386270965767,"2021-04-01T14:58:04Z","$PUX is  A BEAST!!!! Looks like it  heading to dream LAND. This is going to +$1 very soon. Grab some now and enjoy the ride!   https://t.co/Vcqp7JAe3L $PUX $ETH $BTC @polypuXapp",47,147
1377636378519994377,"2021-04-01T14:58:02Z","$PIKA #PIKA getting some love as it bounces of support. Winding up for its next rocket ride?  $FROGE $grumpy $hoge $poodl $eth $doge  #altcoins $mana $jedi $pika $grumpy $poodl $hoge $nds #NFTs #doge https://t.co/RhGGB1rbeA",8,5
1377636371570044938,"2021-04-01T14:58:00Z","RT @KingNFT2: Love my new #NFTs! I will spend 0.5 ETH to buy more #NFTart this night, show me your dope works and retweet this #nftcollecto…",283,72
1377636369615499268,"2021-04-01T14:58:00Z","Dogecoin Rallies After Elon Musk Commits “Literal Moon” to DOGE Bulls https://t.co/0wymnLV6NT #XRP #CryptoNews #BlockchainNews #BitcoinNews #BCH #BLockchain #CryptoCurrency #QASH #BTC #Cryptocurrencynews #ETH #Ethereum",1,1
1377636368868859906,"2021-04-01T14:58:00Z","CryptoWorm #0059 is now minted on the ETH blockchain via opensea 💛💚  PRICE:  Ξ0.01 RARITY: COMMON TOTAL SUPPLY: 1000  #cryptopunks #NFTCOLLECTOR #NFT  https://t.co/w2GI58E1b2",6,2
1377636366452813828,"2021-04-01T14:57:59Z","🔥 $LUNA Eco is growing   Terra - Programmable Money for the Internet  CHAI - Mobile Payment dApp  Mirror - Synthetic Real World Assets (mAssets)  Anchor - Better Savings (20% Fixed APR)  Kash - Faster, Cheaper, Secure Money  Nebula ?  Mars ?  Saturn ?  $BTC $ETH $ANC $MIR $UST https://t.co/x9jY4y8idx",181,50
1377636366167773191,"2021-04-01T14:57:59Z","#Loopring #LRC market review out now.   SUBSCRIBE or miss the bull run. 🐂📈  https://t.co/WXeqqtf5x4  #BullsOfCrypto #Cryptocurrency #Cryptocurrencies #CryptoTrading #CryptoTrader #Crypto  #TheBullRunContinues #YouTube #Blockchain #Eth #Btc #Ethereum #Bitcoin #Blockchain $LRC",1,0
1377636363391078407,"2021-04-01T14:57:58Z","@Goltra I'm guessing this is available pieces only. Well with the 3 pieces available I would say 2.5 for the lot (current valuation is 0.4 ETH + 1 ETH + 2 ETH so 3.4 ETH) so just over 25% discount. I may have gone a bit too far into the math here.😅😂",1,0
