"ID","created_at","text","like_count","rt_count"
1375923073141108736,"2021-03-27T21:29:58Z","Just one week left until farming stage 2!  Catch up on everything you need to know about how CyberTime farming works: https://t.co/rWDNitPrph   Get ready to farm some $NFTL! https://t.co/Y8aMjE97m8",46,0
1375923070360199168,"2021-03-27T21:29:58Z","✴️ 1 HR of Bidding To Go ⤵️  💠 XEN : GENESIS 💎   ⭕️ @withFND   ⴵ @jjs0123 coming back w/ highest bid ⴵ  ↗ ↗ ↗ 0.90 #ETH   𖧹𖧵𖧹 let’s go! ❯  proceeds to @aafcollective @Open__Earth @offsetra   https://t.co/7emyhThGX6",10,0
1375923058117070850,"2021-03-27T21:29:55Z","Hi @Exeedme @Poolz__ @bepronet   What do you think about we organise  a pool Crypto party all together on #tacoswap   Join us : https://t.co/3GeT48f0tm  #crypto #defi #dex #eth #tacoswaptothemoon #tacotoken🌶",1218,0
1375923046070976512,"2021-03-27T21:29:52Z","And if you want the original 1/1 NFT of my self portrait, it's in @iH0DL's collection and available for a cool 257 ETH ($ .4 Million) https://t.co/hrucH4MlhL",1,0
1375923035987980288,"2021-03-27T21:29:49Z","Dips are for buying, tops are for holding or, tops, partial TP.  💎 hands.  #crypto #btc #eth #xrp",0,0
1375923029549588480,"2021-03-27T21:29:48Z","1/ Ethereum's fees are a sleeping giant  Ethereum's fees - are currently worth ETH at $2500 - grew 150x over the past fifteen months - begin accruing to ETH holders when EIP-1559 launches later this year  imo, fees will soon greatly help us get to ETH at $20k. Here's how 👇",712,0
1375923022671052801,"2021-03-27T21:29:46Z","#btc #reef #xrp #eth #hot #dent #eth #dot #avax My yesterday PNL 🧿🧿🙏🙏👍🥃🥃🥃🔥🚀🚀 https://t.co/JsuHAgRHE6",2,0
1375922981378027520,"2021-03-27T21:29:36Z","My ETH short target was the bottom lmao  I didn't keep this one open long enough charting isn't the same as trading but it's satisfying that I'm getting good at levels. https://t.co/D4l46P4HHp",7,0
1375922976852471814,"2021-03-27T21:29:35Z","KEY LINKS FOR $POODL TELEGRAM: https://t.co/vXhJW7WD5c WEBSITE: https://t.co/tvVbp44Nv5  WHERE TO BUY:  -UNISWAP using $ETH -WHITEBIT using $USDT  $HOGE $DOGE $GRUMPY  #bitcoin #btc #cryptocurrency #price #blockchain #time #crypto #money #news #coinbase #usd #buying #eth #ada",41,0
1375922958485557249,"2021-03-27T21:29:31Z","👽YOU'RE ON THE BLACKLIST BUT U HAVE A LOT OF FAKES - 0.3 ETH👽@withFND  Art touches on the topic of creating fake personalities on social networks. Don't be hypocritical, respect my boundaries!   https://t.co/AoqICVddTv  #nft #nftart #cryptoart #NFTs #NFTartists #foundationapp https://t.co/0hxfBNyp8l",251,0
1375922952424787975,"2021-03-27T21:29:29Z","30 day EVIX: 87.7151 ETH/USD vwap: $1,720.82 04/16 expiry volume: $1,592,731.04 04/30 expiry volume: $8,979,694.53 Current time: 21:29:06",0,0
1375922948238929920,"2021-03-27T21:29:28Z","@dixon_eth @rariblecom @ThisIsAito At the end, it's just a game. Market gonna talk",0,0
1375922944933761027,"2021-03-27T21:29:28Z","OMG 😳 HUMBL TESTED SELLING NFTs on link below TODAY then took down link! LOOK AT PHOTO 😳NOTICE PRICE for this is .582 &amp; that dollar amount EQUALS THE PRICE for ETHEREUM on that day &amp; time period? Y’all - I just bought $ETH USD on Bittrex🔥 $HMBL #NFT https://t.co/oQ4kk14FWl https://t.co/gZ997XnD1A https://t.co/wdkZL5v4LM",195,39
1375922942714867716,"2021-03-27T21:29:27Z","@shareyournft Accidental GLTCH is out now for 0.3 Eth.  Check the colletion out now!  https://t.co/UBnUKvHQzu",0,0
1375922938000637958,"2021-03-27T21:29:26Z","My new NFT is already available on @withFND, be sure to give your starting bid, check out: #nft #nfts #eth #ethereum #pixelart #cryptoart #cryptoartist #nonfungibletokens #nonfungible #collectors  https://t.co/2vFiqq0yjm",10,0
1375922936910077952,"2021-03-27T21:29:26Z","The human suffering that Eth &amp; Eri soldiers are causing in Tigray is heart-wrenching. Mibrak's &amp; her siblings' story is a tip of the iceberg.  Mibrak's father begged the soldiers not to shoot but they ruthlessly killed him &amp; his wife. #TigrayGenocide  https://t.co/f1r4tMDi4r",4,0
1375922934468972545,"2021-03-27T21:29:25Z","$ETH showing life. $VET hasn’t stopped. $HBAR picking up steam again.   Someone convince me WHY I should/shouldn’t add $THETA to my portfolio",3,0
1375922922859139078,"2021-03-27T21:29:22Z","My new NFT is already available on @withFND, be sure to give your starting bid, check out: #nft #nfts #eth #ethereum #pixelart #cryptoart #cryptoartist #nonfungibletokens #nonfungible #collectors  https://t.co/2vFiqq0yjm",10,9
1375922916315987972,"2021-03-27T21:29:21Z","@SDonachiue @alexgausman IMO regardless of how much money he had it would have been wiser to hedge bets and keep a large stake (+$10 mil) in ETH to preserve investment potential and social capital. That said, this dump has brought a ton of publicity. Who knows, maybe he's waiting to buy the next dip lol",1,0
1375922910305652737,"2021-03-27T21:29:19Z","@davidgokhshtein CyberRexes is a set of 10.000 unique 1/1 Rexes. No more can ever be created. Price 0.01 ETH  You can mint yours at our website https://t.co/IOjL6qNx7K https://t.co/cOYxTexBsH",0,0
1375922899417194497,"2021-03-27T21:29:17Z","@draecomino @ImTheDebate ETH is a joke !",0,0
1375922892068814863,"2021-03-27T21:29:15Z","TOP 15 coins by @LunarCRUSH Galaxy Score  Galaxy Score is a proprietary score that is constantly measuring crypto against itself with respect to the community metrics pulled in from across the web  $UKT $BNB $REN $FSN $ICX $STORJ $KEY $MANA $NRG $CELR $ETH $CAKE $ALGO $TRX $OM https://t.co/BSHdwUQaI2",361,0
1375922882371551241,"2021-03-27T21:29:13Z","#MarchMadness got you down? Looking for something new to take up your free time? Come hangout with the #Pika fam and see why our team won’t lose! $pika #doge #tosa #link #btc #eth #BNB #uni #defi #xrp #sendit #lambo #uponly #ada #dot #froge https://t.co/5gIA3Sxbuv @pika_token",15,0
1375922872384946183,"2021-03-27T21:29:10Z","I’ll start playing ETH/BTC. a way to Short BTC without direct exposure because BTC trades 24/7 and 365. Plus I don’t have time to watch it daily. So I’ll go long the spread ETH/BTC as ETH flexibility makes it more adaptable into the future. BTC is just a store of something",2,0
1375922870853898242,"2021-03-27T21:29:10Z","RT @intocryptoverse: What would make a portfolio of $BTC $ETH $LINK $ADA and $DOT even better?",2195,0
1375922868589101062,"2021-03-27T21:29:09Z","@davidgokhshtein @davidgokhshtein I would buy more $Eth or bitcoin🕯️🔥🔥🔥🌿",0,0
1375922860703813639,"2021-03-27T21:29:08Z","👋 Hi Crypto Twitter! I need your help to educate the community on the ETH 1.0 &lt;--&gt; ETH 2.0 merge. There's momentum pushing for it to happen fast and I'd love to harness that!   Details here: https://t.co/lAZZiykXDK  Website (living draft) here: https://t.co/isBP00f4Gu",17,6
1375922856018739200,"2021-03-27T21:29:06Z","@crypto_bitlord7 Stopped a man from aping into eth. No doubt.",1,0
1375922843368751111,"2021-03-27T21:29:03Z","@CryptoBethany @BELT_Finance Hey which other protocols on BSC are you involved with? Been making the switch over from ETH and so far have only involved in Pancake and Autofarm.",0,0
1375922838796955659,"2021-03-27T21:29:02Z","@TheMCFaceman @0xd3d3 I tell everyone - I’m NFT rich and cash poor haha - especially with multiple drops a day sucking all of my ETH from my wallets haha!",1,0
1375922828093054979,"2021-03-27T21:29:00Z","Ethereum 2.0 blows my mind. You stake 32 $ETH to become a validator and then run a small piece of software using 30kb/s to validate blocks. Imagine this becomes a mobile validator app. The value/supply chain of the internet would be regulated by users and totally accessible.",52,0
1375922816374169600,"2021-03-27T21:28:57Z","@dixon_eth @rariblecom @ThisIsAito Thanks bro 🙏🥚",0,0
1375922800041422851,"2021-03-27T21:28:53Z","ETH is now a Buffet-style value stock  ETH financials:  2020 revenue: $600M 2021 revenue: $10b (forecast; run rate is $8b) profit margin: ~99%+ (with proof of stake) current P/E ratio: 22x (using last week's fees and an ETH price of $1566)  imo, expect 2023 revenue to be $50b+",447,0
1375922794232487937,"2021-03-27T21:28:52Z","Seco-2021 from @frenetikvoid   Bidding has reached 36 ETH ($58,400 USD) from #3FMusic!  Place your bids here 👇 https://t.co/x88jmuIBYO https://t.co/TScvEHUeLA",103,0
1375922786095480836,"2021-03-27T21:28:50Z","🌺🚀💎 Auction Ends In 3 Hours 🌸💜😍 #astroandtheuniverse 1/1 Edition  arlogo leads the bidding with an AMAZING 70 ETH bid $123,187.90  Will we see the HIGHEST EVER @mbsjq #nft  sell tonight... 👀😳🚀  https://t.co/tkkBd3g1Rl",120,0
1375922775681077248,"2021-03-27T21:28:47Z","@NikiLeSunshine1 📣 A 1/1 collection of AUTO GENERATED #weed #smoking #Alien #potatoes !  First batch is out for only 0.03 eth ! Price will INCREASE for future releases!  There is also a #GIVEAWAY ! RT , like &amp; follow to be one of the five lucky winners! P.S : 1% referral is also avail #ToTheMoon https://t.co/Q3k1j5SmsC",14,0
1375922768362024964,"2021-03-27T21:28:46Z","I just joined the martkist faucet, an easy way to earn $Martk #Martkist #socialmedia #Faucet $eth $btc $Sushi $xrp $om $tomo $yam $ocean $coti #Binance #Bitcoin https://t.co/hRuJWCKD3b",0,0
1375922757888843780,"2021-03-27T21:28:43Z","🔄 Prices update in $USD (1 hour):  $BTC - 55800.0 $  (-0.07 %) $ETH - 1720.0 $   (+0.82 %) $DOT - 32.51 $    (+0.07 %) $ADA - 1.19 $     (-0.09 %)  #BTC #ETH #DOT #ADA #Crypto #Bitcoin",2,0
1375922755657367552,"2021-03-27T21:28:43Z","New green Laundered Money has been released. It is redeemable for 0.25 ETH. https://t.co/i8NfOxDLId",1,0
1375922731305345024,"2021-03-27T21:28:37Z","RT @sensei949: @poplink16 @dhants97 @Didin_1996 @Kaisya04778423  Good project ,, i like it #POPO #ETH #BTC",1,0
1375922728012709888,"2021-03-27T21:28:36Z","$Kin in one year.  What’s coming next?  https://t.co/MYkff6519H https://t.co/eIkW4dVLKk  #Kin #NFTs #DeFi #btc #bitcoin #solana #bch #usd #xrp #eth #price #crypto #ltc #fintech #blockchain #buythedip https://t.co/HMyVqZijrI",26,7
1375922716163796992,"2021-03-27T21:28:33Z","✅ HCL partner with Amazon Web Services to make blockchains Interoperable  Gilbert Verdian speaking extensively on HCL taking $QNT technology to their customers..  You guys really aren't ready for this kind of scale 😏  $BTC $ETH #AWS https://t.co/C1gQ382TyZ",245,7
1375922701542522884,"2021-03-27T21:28:30Z","@poplink16 @dhants97 @Didin_1996 @Kaisya04778423  Good project ,, i like it #POPO #ETH #BTC",1,1
1375922697113378820,"2021-03-27T21:28:29Z","Our first Care Package has been sent out with care ♥️  CARE is the first GHSTY airdrop for few lucky early collectors!  If you owned a previous piece check your ETH address   get on the notify list for our next drop : https://t.co/xhH9sNA8Dl  #rarible #opensea #nft #airdrop https://t.co/7mWzdFQl15",9,1
1375922691794817025,"2021-03-27T21:28:27Z","@alexgausman @Loopifyyy I mean I love crypto but if someone gave me 50 million in ETH I’d for sure turn some of it into fiat to invest in tradefi. At that size you have to diversify, if not for you than for your children and grandchildren. Obviously taking it ALL out is a bit extreme.",2,0
1375922690675068933,"2021-03-27T21:28:27Z","Look what I just discovered on @opensea! #nft #opensea https://t.co/wWpVywljH3 #nft #eth #opensea #coin #crypto #crack #skull #hlebdonskov #btc #darkart",2,0
1375922681481195529,"2021-03-27T21:28:25Z","New Drop🚀 on @withFND    “The Beholder”  Reserve Price ETH = 0,89 🤍  Waiting for your bets, ladies and gentlemen’s! 🤞🏻  I am very proud of this illustration, This is the level Up of my art and creativity ✨  Made with @Procreate App + Apple Pencil 🤍 #NFTs #cryptoart https://t.co/4bFfImrME3",229,0
1375922677374980097,"2021-03-27T21:28:24Z","One for the $ETH bulls?  Pretty simple play where I'll rotate pretty heavily into $ETH. $1750 - $1790 the important reclaim point.  Flip it and I'm dropping heavy into Ethereeeeeums. https://t.co/xRUb0KyipY",339,0
1375922672589283339,"2021-03-27T21:28:23Z","CRYPTO NEWS - SELLING ETH, Buying Hidden Gems https://t.co/GpAkr3QGHR via @YouTube",0,0
1375922655539433474,"2021-03-27T21:28:19Z","👽YOU'RE ON THE BLACKLIST BUT U HAVE A LOT OF FAKES - 0.3 ETH👽@withFND  Art touches on the topic of creating fake personalities on social networks. Don't be hypocritical, respect my boundaries!   https://t.co/AoqICVddTv  #nft #nftart #cryptoart #NFTs #NFTartists #foundationapp https://t.co/0hxfBNyp8l",251,0
1375922646383214594,"2021-03-27T21:28:16Z","@ChubbiesNFT Hmm... I'll say 28.88 ETH",0,0
1375922639273914370,"2021-03-27T21:28:15Z","@oinu_ll Love it! Ethereum has been powering #hopium since 2015. 💎  Hopium #4   #NFT #NFTs #NFTArt #NFTCollector #NFTCollectors #NFTArtists #DigitalArt #Ethereum #ETH #ETHArt #cryptoart #blockchainart #opensea   https://t.co/oNKNLcFFZI",5,0
1375922617337647108,"2021-03-27T21:28:10Z","I just claimed my egg 😄 Costed me around $9 on $ETH gas fees @Polkamonorg  https://t.co/VeS1lnt1hr https://t.co/GPfM08amFL",5,0
1375922568822104066,"2021-03-27T21:27:58Z","🎉 3D MASKS GIVEAWAY 🎉  Value: 0.8+ ETH  Complete the following steps for the chance to win a 1/1 #3dmasks   ✅ Follow @3DMasks_  ✅ Like &amp; Retweet ✅ Comment + tag 3 NFT buddies  The winner will be announced 10AM EST April 6th  #NFTCommunity #nftart #nftgiveaway #nftcollectors https://t.co/NdyOwjzD5Q",331,0
1375922568117501954,"2021-03-27T21:27:58Z","Big solo moves for $ALGO over the past 24hrs. vs. #Bitcoin, $ETH ,and #altcoins  #Algorand kicking off #altcoinseason2021 https://t.co/QuuiH9RYBD",36,0
1375922566397837323,"2021-03-27T21:27:57Z","Only 3 editions left of You Give Me That Feeling. This was an edition of 10 and is still one of my favorite animations :) Butterflies in your stomach or the beautiful decay of a human-being, you decide :) 1 ETH. https://t.co/UlKzmDgx3X #Makersplace #NFT #Cryptoart #3D https://t.co/pueCjInzyf",172,0
1375922538610577410,"2021-03-27T21:27:51Z","DeFi tools for beginners:  @MetaMask Browser wallet = #DeFi 🔑  @Trezor Hardware integration = 🔒✔️  @zapper_fi  Farm &amp; DEX aggregator ⚡️ $ETH &amp; #BSC  @compoundfinance @CreamdotFinance Lend, Borrow on $ETH + #BSC  @SushiSwap $ETH @PancakeSwap #BSC DEX &amp; Farm 👀  Start learning 💡",523,0
1375922523540426752,"2021-03-27T21:27:47Z","@duckdarryl @alexgausman @Loopifyyy Exactly.There is the thing called taxes-like 15-20m $ , depending which state he lives in.Can you imagine some crash , where ETH goes to 700$ and he gambled all his money away and is BE after the tax event. It's also not cool everyone knows you have 20 mln $ stashed on a ldgr",2,0
1375922522877743113,"2021-03-27T21:27:47Z","To celebrate 🎉 this milestone im giving away 5555 $hex (about 100$ usd)  Everybody like, RT, and follow  ALL ENTRIES WILL BE DRAWN FROM THIS TWEET’s RT’s so be sure to RT to enter! good luck to all those participating the winner will be drawn Monday night 8PM!!!! #btc #eth #hex https://t.co/ram4Yvq5wg",178,0
1375922519358771205,"2021-03-27T21:27:46Z","Win #NFT worth ETH!  To WIN #Giveaway You MUST:    1.) Follow @degenasaurus   2.) Retweet the tweet BELOW ⬇️ + comment it  3.) OPTION -&gt; Join discord: https://t.co/alAVVDlyQu  NFT: https://t.co/l37pUrR6Y3  Wish luck!! 🦖♥️🛸👫  @coinkit_ mon 45 2000 BTC  https://t.co/wFeOut8N85",310,0
1375922514631786509,"2021-03-27T21:27:45Z","Did you know: GMNG token will be used for all transactions in the prize payout process or to purchase upcoming optional services (e.g., AI-powered predictions).   It enables the use of Smart Contracts, which are in turn crucial for platform security and transparency.   #eth #defi https://t.co/ANxC4ssFwg",87,0
1375922507367260160,"2021-03-27T21:27:43Z",".       AS LAST YEARS NEW #ECOSYSTEMS ON THE BLOCK   $KSM keeps showing their teeth while heading top 10 , NO DIPS allowed   $DOT is going to breakout out of the doggpound soon, HUNGRY and JACKED  up for $ETH his 🦴  Both parties have HUGE room too grow #PARACHAINS ARE COMING! https://t.co/pS4PUEHpnB",109,0
1375922500064972800,"2021-03-27T21:27:42Z","@spencernoon 📣 A 1/1 collection of AUTO GENERATED #weed #smoking #Alien #potatoes !  First batch is out for only 0.03 eth ! Price will INCREASE for future releases!  There is also a #GIVEAWAY ! RT , like &amp; follow to be one of the five lucky winners! P.S : 1% referral is also avail #ToTheMoon https://t.co/TrvYZqaisB",4,2
1375922491147882503,"2021-03-27T21:27:39Z","📌Presale Price - $.10/EARN$ (currently 17070 EARN$ per ETH)  📌Listing Price - $.12/EARN$ (currently 14225 EARN$ per ETH)  Join the whitelist here: https://t.co/YKuJzrS3mm",8,5
1375922489717575681,"2021-03-27T21:27:39Z","TOMORROW is #swap with #BTC #ETH #TRX #SST on #socialswap #dex starting 😎🚀  1⃣register 2⃣swap #SST 3⃣Invite  #friends and get 10% #gift  https://t.co/nH1Obw6uIU  #Uniswap #bitcoin #Klever #Tronlink #cryptofit @Socialswapdefi #TRON $TRX   #NEO #N3 #IOTA #Microsoft #Apple #Tesla https://t.co/nxAgWVfdly",3,3
1375922464430059522,"2021-03-27T21:27:33Z","RT @The_NFT_Hub: 🎁Drop your $ETH address below🎁",1165,3
1375922457907978241,"2021-03-27T21:27:32Z","@alubenNFT buy this one and you’ll get 121  0.403389 ETH  #NFTCommunity  #nftcollectors   https://t.co/ZGhii2vDu7",0,0
1375922454489489411,"2021-03-27T21:27:31Z","$ETH!!!!   lOLS",39,1
1375922453365489667,"2021-03-27T21:27:30Z","$AMB sell wall 😂😂😂 WTH!  Pump it!  -  $BTC $ETH $UNFI $UTK $COTI $THETA",3,0
1375922448860860418,"2021-03-27T21:27:29Z","@intocryptoverse More ADA and less ETH",0,0
1375922435967610882,"2021-03-27T21:27:26Z","i guess that's the 'implied' point but i suppose im just tired of seeing those 'gotchas' over and over. the point isn't the unique art. the point is strengthening eth (or whatever other crypto) as an asset",4,0
1375922434847633408,"2021-03-27T21:27:26Z","RT @EthereumMemes: 🎵 I bought $ETH under $2K 🎵 https://t.co/z9Xvd0rywL",904,0
1375922431374819328,"2021-03-27T21:27:25Z","TOP 15 DAPPS BY ACTIVE USERS  $UNI $ETH $CAKE $FLOW $TT $WAX $JULD $AUTO $BAKE $EOS $RARI $TRX  Data from: @DappRadar https://t.co/DSXoWwVGCw",543,0
1375922421593673734,"2021-03-27T21:27:23Z","$SHA (3) Retraced to 0.382, I thought was to pull back to 0.618     -  Falling Wedge broke out (Orange), next target is (5) forming the 1st Macro Wave, before correction.  -RSI &amp; MACD on the Daily looks to be bullish.  Who's Ready?  $BTC $VET $BNB $ONE $MATIC $DGB $DOT $ETH https://t.co/633nzk7U74",32,0
1375922421421600769,"2021-03-27T21:27:23Z","@davidgokhshtein Holding the 1 $ETH and not buying anything. #HODL",0,0
1375922419043475460,"2021-03-27T21:27:22Z","$Kai it's almost Q2! Kaidex launch and T1 exchanges! Join the kai army🤞💪 I'm giving away 1000 $kai to one lucky person on monday!  All you have to do is : Follow me🤞 Retweet👆 And like👍 $kai strong let's go🇻🇳🚀🚀  $BTC $ETH $neo $zil $uni",138,0
1375922418934550529,"2021-03-27T21:27:22Z","@CL207 @alexgausman He can spin up a niftygateway drop and accumulate more ETH than 99% of the maxis on twitter in less than a day. If I were him i'd be dumping everything too",0,0
1375922411015610368,"2021-03-27T21:27:20Z","@defizerohedge @JacobTsangg @_alchemistcoin @thegostep $mist/#eth lp for now",0,0
1375922407324717059,"2021-03-27T21:27:19Z","$DOGE Approved $PIKA!!!!! WE ARE STAYING!  $grumpy $hoge $shib $feg $eth $btc $froge $poodl $pika $link $jedi $rbc $drc $lead $shib $bdog $toma $eth $btc #meme #dogecoin #Dogecoinarmy $xrp $chz $scat $raini #cryptomoonshots https://t.co/edQ9DG4tIK",27,10
1375922394150277122,"2021-03-27T21:27:16Z","Join our airdrop and Earn 400 TKM and additional 40 TKM for every Referral  https://t.co/h6oyRpmJoh  #airdrop #tkm #crypto #eth https://t.co/7i0hyv5LE5",8468,10
1375922372625235971,"2021-03-27T21:27:11Z","CRYPTO NEWS - SELLING ETH, Buying Hidden Gems https://t.co/fxrSXqUDfy via @YouTube",1,0
1375922370288836608,"2021-03-27T21:27:11Z","RT @intocryptoverse: What would make a portfolio of $BTC $ETH $LINK $ADA and $DOT even better?",2195,0
1375922365503275014,"2021-03-27T21:27:09Z","@kty9839 @TheV4F @BITCOINandSEX @crypto_birb Nab biggest SHITCOIN is bitcoin actually 0 usecase it's only hyped because it's the first coin that's it. Actually bitcoin 0 utilities. calling eth a shitcoin you must be mental, literally every second crypto is based on eth, dog.",3,0
1375922360839200768,"2021-03-27T21:27:08Z","@JonnyB_NFT @BillyLuedtke @Bitcoin ETH has utility ???  Only for 10% of whales :)  I want to say binance / bnb / bsc is Utility.",0,0
1375922359610306568,"2021-03-27T21:27:08Z","🔶 SEND YOUR #NFT I spend 2.1 Eth I have allocated a budget of 0.9 Eth.  I want to add pieces of talents to my collection.  Could you please share your works? And RETWEET! Thank you!  #NFT #nftcollector #NFTs #NFTartist #nftcollectors #NFTartists #NFTdrop https://t.co/0ri3udZsdx",296,0
1375922357777399815,"2021-03-27T21:27:08Z","Win a part of $100,000 USDT by participating in Binance's Giveaway  https://t.co/xHOcGswJfG  #Bitcoin #crypto #cryptocurrency #blockchain #HODL #BTC #ETH #Giveaway #trading #competition https://t.co/8LJzmzvmYb",0,1
1375922353763389447,"2021-03-27T21:27:07Z","KEY LINKS FOR $POODL TELEGRAM: https://t.co/vXhJW7WD5c WEBSITE: https://t.co/tvVbp44Nv5  WHERE TO BUY:  -UNISWAP using $ETH -WHITEBIT using $USDT  $HOGE $DOGE $GRUMPY  #bitcoin #btc #cryptocurrency #price #blockchain #time #crypto #money #news #coinbase #usd #buying #eth #ada",41,1
1375922336373817352,"2021-03-27T21:27:03Z","🚀1058🚀 SOLD for 2.025963955026455 ETH on OpenSea! Great buy but they would have been better waiting for the @jurassicasylum drop  Check out the transaction: https://t.co/N1wNSnjKJq #JurassicAsylum #NFT #NFTartist #cryptoart #NFTCommunity https://t.co/NU6Xx85KyS",0,0
1375922330136895490,"2021-03-27T21:27:01Z","@its__enzo Obvi bro bitcoin eth r major those r hella easy to buy I’m talkin bout lowkey cryptos that aren’t on any major platform yet u gotta do bare shit",2,0
1375922323065344007,"2021-03-27T21:26:59Z","CRYPTO NEWS - SELLING ETH, Buying Hidden Gems https://t.co/ryddCCnjoj via @YouTube",0,0
1375922320360013827,"2021-03-27T21:26:59Z","Chilling with my bro looking to drop 100 $ETH into some random shitcoin   Pre party drinks with a quick yolo ape then we off @FrenchyBro https://t.co/xm81PIAwVS",877,0
1375922320238202880,"2021-03-27T21:26:59Z","@Cryptoment0r @wise_token It literally cant go to zero, NEVER, EVER!!!! If every single wise was sold back to Uniswap (staked and liquid) there would still be almost 30K ETH left in the Wise/ETH pool.",2,0
1375922315167416320,"2021-03-27T21:26:57Z","RT @intocryptoverse: What would make a portfolio of $BTC $ETH $LINK $ADA and $DOT even better?",2195,0
1375922309425430529,"2021-03-27T21:26:56Z","Order successful!  Estate Id: 1212 Estate Size: 2 Price: 14,990 $MANA ($13,824.87 USD = 8.0867 $ETH)  Purchased by https://t.co/vGr5pKfzr2 from https://t.co/mpzbTCxIJI  https://t.co/rX8nh3rYuU #decentraland #land #parcel #estate #mana https://t.co/BZLHTyp6Sh",5,0
1375922309190594570,"2021-03-27T21:26:56Z","#cryptocurrency last 1 hour. -TOP COINS. #Bitcoin $BTC #Ethereum $ETH #Binance Coin $BNB -TOP GAINERS #Hedgetrade $HEDG #Helium $HNT #Ankr $ANKR #AscendEX $BITMAX #Holo $HOT",1,0
1375922289884209153,"2021-03-27T21:26:51Z","Explain #xcash using only emojis 👀  $xcash #weareXCASH #Binance #cryptocurrency #cryptocurrencies #CryptoNews #privacy #crypto #fintech #monero #dpops #bitcoin #xcashians #Doge #Ethereum #eth #DeFi #cardano #ADA #atom #dex #sushi #nft",25,0
1375922289187954701,"2021-03-27T21:26:51Z","RT @crypto_birb: $BTC 90k $ETH 5k coming soon https://t.co/kKro6dgdJL",2404,0
1375922277087318023,"2021-03-27T21:26:48Z","@NikiLeSunshine1 📣 A 1/1 collection of AUTO GENERATED #weed #smoking #Alien #potatoes !  First batch is out for only 0.03 eth ! Price will INCREASE for future releases!  There is also a #GIVEAWAY ! RT , like &amp; follow to be one of the five lucky winners! P.S : 1% referral is also avail #ToTheMoon https://t.co/Q3k1j5SmsC",14,10
1375922276990808064,"2021-03-27T21:26:48Z","The case for $100k $ETH:  @Bitcoin is already worth $1T.  #Ethereum is AT LEAST 10x more valuable to society than #btc.  $10T market cap = $100k $ETH.",762,10
1375922258468872197,"2021-03-27T21:26:44Z","Top 10 trending searches as of 9:26PM UTC Sat, Mar 27 on https://t.co/jHWsOy0d2J $nim #nimiq $cake #pancakeswap $eos #eos $hot #holo $ankr #ankr $btc #bitcoin $matic #polygon(previouslymatic) $npxs #pundix $ada #cardano $eth #ethereum #cryptocurrency #crypto #altcoins",3,0
