"ID","created_at","text","like_count","rt_count"
1375726774827499521,"2021-03-27T08:29:57Z","🚀 Safe The Children  🔷 Token Symbol : STC  🔷 Contract: https://t.co/nk3qsF2PJV  🔷 Website: https://t.co/4y0g7dqswM  🔷 Whitepaper: https://t.co/PHPZI4dbyR  🔷 Presentation Video : https://t.co/Mycfov12IU  #Safe_Childrens #Bitcoin  #Binance #BinanceSmartChain #DEFI  #BTC #ETH",14721,0
1375726762567426048,"2021-03-27T08:29:54Z","Win #NFT worth ETH!  To WIN #Giveaway You MUST:    1.) Follow @degenasaurus   2.) Retweet the tweet BELOW ⬇️ + comment it  3.) OPTION -&gt; Join discord: https://t.co/alAVVDlyQu  NFT: https://t.co/l37pUrR6Y3  Wish luck!! 🦖♥️🛸👫  @coinkit_ mon 45 2000 BTC  https://t.co/wFeOut8N85",310,0
1375726758314577920,"2021-03-27T08:29:53Z","Had the same feeling, until I +20x’d my initial in a month.. best thing about it? I’m using those profits to accumulate more ETH/defi bags lol https://t.co/Q9gEXdm4DM",6,0
1375726757375053829,"2021-03-27T08:29:53Z","@BitAllstars Current Bid 0.3 ETH 💜  https://t.co/qc2Q48xQhL",2,0
1375726751100383232,"2021-03-27T08:29:51Z","You follow me I follow you 🤣 $BTC $XRP $BTT $WIN $DENT $ETH https://t.co/23eyVVnzFV",1,0
1375726737313521664,"2021-03-27T08:29:48Z","New Airdrop: Diamond Crystal (DCT) Reward: 100 DCT ($100) Rate: ⭐️⭐️⭐️⭐️ Focus: Distribution starts after airdrop ends   Bot Airdrop Link: https://t.co/9Qzk47HUKt  #Airdrop #giveaway #BTC #ETH",4033,0
1375726731609268225,"2021-03-27T08:29:47Z","🏆 Follow us &amp; Retweet this tweet, Specify the ETH address in the tweet comment to get 10 #BIT ($10 worth) or 50 #BIT ($50 worth) #BitScores Airdrop Tokens! 🎁 $250,000 Prize Pool Full rules: https://t.co/N53M5nRXr9  #giveaway #airdrops #bounty #giveaways #defi #eth #btc #airdrop https://t.co/m77hDtRsBv",3577,0
1375726729369649152,"2021-03-27T08:29:46Z","*** Giving away 1000 $Dusk ***  To celebrate $BTC reaching 60k I've decided to give you a chance to win 1000 of my favorite altcoin, $dusk, if you: - Like this tweet - Retweet this tweet - Follow me on Twitter.   Contest ends 27-03. $ETH $ADA $BNB $LINK #GiveawayAlert #Crypto https://t.co/nsWo1FFUVQ",271,0
1375726721182404611,"2021-03-27T08:29:44Z","okok Zobteam that was fast 😅😂 : $NGM @emoney_com (24M cap) Audited by Ernst &amp; Young , Compliant , Fiat ramp , IBC/AVAX/ETH, Token backed in governemment bond and more.... D.Y.O.R friends and follow da Zob https://t.co/JVeOGJEbwf https://t.co/YbHXfmRW5W",58,0
1375726694674407424,"2021-03-27T08:29:38Z","Don't be too hard on yourself..  You are operating in the most volatile market in history.. #crypto is the stock market on steroids!  So yes, you will get it wrong from time to time.. And it will hurt..  But don't be too hard on yourself..  This shit isn't easy  $BTC $ETH",219,0
1375726693831352320,"2021-03-27T08:29:38Z","Current Bid 0.20 ETH #NFT #nftcollector  Check out this artwork by @finearturkey  on @withFND! 🌐  https://t.co/6S6AEk1auj",6,3
1375726692874952704,"2021-03-27T08:29:38Z","🚀 Safe The Children  🔷 Token Symbol : STC  🔷 Contract: https://t.co/nk3qsF2PJV  🔷 Website: https://t.co/4y0g7dqswM  🔷 Whitepaper: https://t.co/PHPZI4dbyR  🔷 Presentation Video : https://t.co/Mycfov12IU  #Safe_Childrens #Bitcoin  #Binance #BinanceSmartChain #DEFI  #BTC #ETH",14721,3
1375726688810774529,"2021-03-27T08:29:37Z","Astro Chill - Available on @withFND  #NFTs   Use headphone for the best experience!! Reserve Price: 0.5 ETH #NFTCommunity #nftcollectors #NFTartists #NFTcollectibles   Check out - https://t.co/6Nkl8HojMJ",11,3
1375726687879503874,"2021-03-27T08:29:36Z","Win #NFT worth ETH!  To WIN #Giveaway You MUST:    1.) Follow @degenasaurus   2.) Retweet the tweet BELOW ⬇️ + comment it  3.) OPTION -&gt; Join discord: https://t.co/alAVVDlyQu  NFT: https://t.co/l37pUrR6Y3  Wish luck!! 🦖♥️🛸👫  @coinkit_ mon 45 2000 BTC  https://t.co/wFeOut8N85",310,3
1375726681797840897,"2021-03-27T08:29:35Z","Good morning bros) And specially @DEFIBUZZ thank yu for support and buy lovely Bulma!) https://t.co/DW85iMaPBG #NFTCommunity #NFT #nftcollection #NFTART #animepunks @opensea  #anime #NFTs #GEM #GEMS $ETH  #punkverse #unofficialpunks #pixelart #cryptopunks @UnofficialPunks",10,0
1375726681558769665,"2021-03-27T08:29:35Z","I believe in numbers and energy so as promised changed my piece for 8.88 ETH and this tweet would be posted at 21:21 but I’m too slow:( https://t.co/f92SCfRYZq #NFT  #NFTartist #cryptoart  @Crypto888crypto",33,0
1375726674424295428,"2021-03-27T08:29:33Z","Alien 1979 by michelepetrelliart  1 of 1 • Now Available for Ξ 0.9  https://t.co/7fpQzhuT5d  @KnownOrigin_io  Art by @michelepetrelli  #cryptoart #NFT #cryptoartist #ETH https://t.co/dJ6KQTn1Gs",59,12
1375726668547911680,"2021-03-27T08:29:32Z","Pair Created! Pairs → UNO-ETH  $UNO = &lt; 0.0001 ETH ($0.0016)  $ETH = 1,049,761 UNO ($1,691)  Total Liquidity $321,628  https://t.co/X37JjJElv0",0,0
1375726666652082177,"2021-03-27T08:29:31Z","Win #NFT worth ETH!  To WIN #Giveaway You MUST:    1.) Follow @degenasaurus   2.) Retweet the tweet BELOW ⬇️ + comment it  3.) OPTION -&gt; Join discord: https://t.co/alAVVDlyQu  NFT: https://t.co/l37pUrR6Y3  Wish luck!! 🦖♥️🛸👫  @coinkit_ mon 45 2000 BTC  https://t.co/wFeOut8N85",310,0
1375726659647717376,"2021-03-27T08:29:30Z","Z #EU has been doggedly working 2 save &amp; bring back 2 power z defunct TPLF clique &amp; 2 undermine z region’s own efforts 2 address challenges &amp; advance comprehensive &amp; durable cooperation. Z EU has particularly targeted #Eritrea in a futile attempt 2 drive a wedge between Eri &amp; Eth https://t.co/h500ybPmhL",28,0
1375726658938929152,"2021-03-27T08:29:29Z","30 day EVIX: 87.2343 ETH/USD vwap: $1,683.35 04/16 expiry volume: $1,355,985.28 04/30 expiry volume: $4,413,334.13 Current time: 08:29:05",0,0
1375726640248971267,"2021-03-27T08:29:25Z","No need to spend your own money to trade #cryptocurrency. Over 10K users won crypto rewards on @latokens last week. It's the best way to join the financial revolution. Start by earning a share of $100K in CLIQ airdrop: https://t.co/7UodgShJzV #Bitcoin #ETH #Citi #AON #LATOKEN",0,0
1375726638999040001,"2021-03-27T08:29:25Z","A wonderful project, a very good concept, it really sounds good#STC #ETH #DEFI #Airdrops https://t.co/dz0GPNZdgN",0,0
1375726634540617728,"2021-03-27T08:29:24Z","Do you need to buy crypto like :  #bitcoin #btc #eth #altcoins  yes ? With Low fees &amp; credit card accepted / fast &amp; secure / click here : https://t.co/oljQVQIMax https://t.co/Wt8rJ8h009",0,0
1375726634188337152,"2021-03-27T08:29:24Z","Win #NFT worth ETH!  To WIN #Giveaway You MUST:    1.) Follow @degenasaurus   2.) Retweet the tweet BELOW ⬇️ + comment it  3.) OPTION -&gt; Join discord: https://t.co/alAVVDlyQu  NFT: https://t.co/l37pUrR6Y3  Wish luck!! 🦖♥️🛸👫  @coinkit_ mon 45 2000 BTC  https://t.co/wFeOut8N85",310,0
1375726606950539268,"2021-03-27T08:29:17Z","Win #NFT worth ETH!  To WIN #Giveaway You MUST:    1.) Follow @degenasaurus   2.) Retweet the tweet BELOW ⬇️ + comment it  3.) OPTION -&gt; Join discord: https://t.co/alAVVDlyQu  NFT: https://t.co/l37pUrR6Y3  Wish luck!! 🦖♥️🛸👫  @coinkit_ mon 45 2000 BTC  https://t.co/wFeOut8N85",310,0
1375726594396880896,"2021-03-27T08:29:14Z","Win #NFT worth ETH!  To WIN #Giveaway You MUST:    1.) Follow @degenasaurus   2.) Retweet the tweet BELOW ⬇️ + comment it  3.) OPTION -&gt; Join discord: https://t.co/alAVVDlyQu  NFT: https://t.co/l37pUrR6Y3  Wish luck!! 🦖♥️🛸👫  @coinkit_ mon 45 2000 BTC  https://t.co/wFeOut8N85",310,0
1375726593822371842,"2021-03-27T08:29:14Z","🚀 Pluto Coin  Airdrop 🚀 Rate: ⭐⭐⭐⭐ ⭐ 🎁 Reward:  8822 PLUT ($1500) 👫 Referral: 40.5 PLUT  ($7)  🤖Start Bot here   https://t.co/x5JZchojO8  ⛂ Join Telegram group and channel. ⛂ Follow twitter &amp; retweet  ⛂ Submit ETH address and details.",6005,0
1375726589971849219,"2021-03-27T08:29:13Z","🏆 Follow us &amp; Retweet this tweet, Specify the ETH address in the tweet comment to get 10 #BIT ($10 worth) or 50 #BIT ($50 worth) #BitScores Airdrop Tokens! 🎁 $250,000 Prize Pool Full rules: https://t.co/N53M5nRXr9  #giveaway #airdrops #bounty #giveaways #defi #eth #btc #airdrop https://t.co/m77hDtRsBv",3577,0
1375726565200257028,"2021-03-27T08:29:07Z","Win #NFT worth ETH!  To WIN #Giveaway You MUST:    1.) Follow @degenasaurus   2.) Retweet the tweet BELOW ⬇️ + comment it  3.) OPTION -&gt; Join discord: https://t.co/alAVVDlyQu  NFT: https://t.co/l37pUrR6Y3  Wish luck!! 🦖♥️🛸👫  @coinkit_ mon 45 2000 BTC  https://t.co/wFeOut8N85",310,0
1375726549475950594,"2021-03-27T08:29:03Z","Win #NFT worth ETH!  To WIN #Giveaway You MUST:    1.) Follow @degenasaurus   2.) Retweet the tweet BELOW ⬇️ + comment it  3.) OPTION -&gt; Join discord: https://t.co/alAVVDlyQu  NFT: https://t.co/l37pUrR6Y3  Wish luck!! 🦖♥️🛸👫  @coinkit_ mon 45 2000 BTC  https://t.co/wFeOut8N85",310,0
1375726549178126342,"2021-03-27T08:29:03Z","Can you believe that ETH was $114 dollars about 1 yr ago?  Now we have DeFi, NFTs, and Virtual Real Estate and 1500+ price point.  Even if you were super late to the party, like almost 5 years late, and jumped in because you had the famous enlightenment, you still 10x’d.  Insane.",15,0
1375726533038383104,"2021-03-27T08:28:59Z","Radamel Falcao bought for 0.199 ETH (338.43$) on the secondary market   Season: 2020-2021 Level: 0 Serial: 12/100 Price: 338.43$  ⚽ Sorare: https://t.co/diVK8kxLtc  📊: https://t.co/WQa9q7Fs5N  #Sorare #NFT #Ethereum #FantasyFootball",0,0
1375726496527093760,"2021-03-27T08:28:51Z","The @Uniswap V3 x*y=k animation from @pplpleasr1 was just purchased for 310 ETH ($525,000)  The buyer was 0x067b9Bbbbc42d2AB9b9Ab6bB62646dAF7F344A76, a DAO formed for the sole purpose of forming capital buying this NFT  an NFT SPAC, if you will 🤯🤑💸  https://t.co/d8KrGgPn1L",1342,0
1375726493364486150,"2021-03-27T08:28:50Z","Win #NFT worth ETH!  To WIN #Giveaway You MUST:    1.) Follow @degenasaurus   2.) Retweet the tweet BELOW ⬇️ + comment it  3.) OPTION -&gt; Join discord: https://t.co/alAVVDlyQu  NFT: https://t.co/l37pUrR6Y3  Wish luck!! 🦖♥️🛸👫  @coinkit_ mon 45 2000 BTC  https://t.co/wFeOut8N85",310,0
1375726484049031168,"2021-03-27T08:28:48Z","🚀 Safe The Children  🔷 Token Symbol : STC  🔷 Contract: https://t.co/nk3qsF2PJV  🔷 Website: https://t.co/4y0g7dqswM  🔷 Whitepaper: https://t.co/PHPZI4dbyR  🔷 Presentation Video : https://t.co/Mycfov12IU  #Safe_Childrens #Bitcoin  #Binance #BinanceSmartChain #DEFI  #BTC #ETH",14721,0
1375726483826597888,"2021-03-27T08:28:48Z","RT @QuintenFrancois: My top 10 #crypto holdings:  1. $BTC 2. $LINK 3. $ETH 4. $VET 5. $ERN 6. $BNB 7. $BNT 8. $MATIC 9. $POLK 10. $ENJ   Wh…",2518,0
1375726473517092865,"2021-03-27T08:28:45Z","Will be taking eth short profits at 1665 and flip long into more short squeeze during the weekend 🤝 https://t.co/kwVVze4xAL",0,0
1375726458686029825,"2021-03-27T08:28:42Z","🚀 Pluto Coin  Airdrop 🚀 Rate: ⭐⭐⭐⭐ ⭐ 🎁 Reward:  8822 PLUT ($1500) 👫 Referral: 40.5 PLUT  ($7)  🤖Start Bot here   https://t.co/x5JZchojO8  ⛂ Join Telegram group and channel. ⛂ Follow twitter &amp; retweet  ⛂ Submit ETH address and details.",6005,0
1375726458367279106,"2021-03-27T08:28:42Z","send me ETH for a big surprise 0x8D0a9De2104deB8e6CDc43971B0645A7D617963B",0,0
1375726457641652226,"2021-03-27T08:28:41Z","@santiagoroel @pleasrdao Anybody up for getting a ton of eth locked in one?",0,0
1375726447625523205,"2021-03-27T08:28:39Z","Nice concept with best team#STC #ETH #DEFI #Airdrops https://t.co/8XQdEYB1Mp",0,0
1375726444081344512,"2021-03-27T08:28:38Z","Win #NFT worth ETH!  To WIN #Giveaway You MUST:    1.) Follow @degenasaurus   2.) Retweet the tweet BELOW ⬇️ + comment it  3.) OPTION -&gt; Join discord: https://t.co/alAVVDlyQu  NFT: https://t.co/l37pUrR6Y3  Wish luck!! 🦖♥️🛸👫  @coinkit_ mon 45 2000 BTC  https://t.co/wFeOut8N85",310,0
1375726427203530755,"2021-03-27T08:28:34Z","03/26/21 UPDATE: Net Assets Under Management, Holdings per Share, and Market Price per Share for our Investment Products.  Total AUM: $41.0 billion  $BTC $BCH $ETH $ETC $ZEN $LTC $XLM $ZEC $BAT $LINK $MANA $FIL $LPT https://t.co/WbxbHe4L2g",545,0
1375726422799564805,"2021-03-27T08:28:33Z","@shiluvankuna Earn money for mahala by clicking on the link...no joining fees or no making of payments ever!!!  Let's make money guys; My ETH value grew from R62k to over R90k in just a few days, the easiest few thousand rands you'll ever make 💰 💰 💰💰 💰 💰  https://t.co/R3eHDhlbnP",0,0
1375726416700993536,"2021-03-27T08:28:32Z","RT @Trung74270839: i will keep tweeting this until $htr reach atleast 35$  $HTR $CTHOR $ADA $ETH $DOT https://t.co/y7eYbKtg4O",143,0
1375726378956455944,"2021-03-27T08:28:23Z","Win #NFT worth ETH!  To WIN #Giveaway You MUST:    1.) Follow @degenasaurus   2.) Retweet the tweet BELOW ⬇️ + comment it  3.) OPTION -&gt; Join discord: https://t.co/alAVVDlyQu  NFT: https://t.co/l37pUrR6Y3  Wish luck!! 🦖♥️🛸👫  @coinkit_ mon 45 2000 BTC  https://t.co/wFeOut8N85",310,0
1375726370345521155,"2021-03-27T08:28:21Z","PFI going parabolic presale price: 65$/95$  current price on exchanges (ATH) : 160$ Exchange listed : uniswap, hotbit, cointiger, digifinex  Buy PFI on Uniswap https://t.co/YGI3Y5YtPU  @cctip_io draw 0.010 ETH 1000 #PFI https://t.co/nF5NF9lXk2",1829,0
1375726368353226759,"2021-03-27T08:28:20Z","Win #NFT worth ETH!  To WIN #Giveaway You MUST:    1.) Follow @degenasaurus   2.) Retweet the tweet BELOW ⬇️ + comment it  3.) OPTION -&gt; Join discord: https://t.co/alAVVDlyQu  NFT: https://t.co/l37pUrR6Y3  Wish luck!! 🦖♥️🛸👫  @coinkit_ mon 45 2000 BTC  https://t.co/wFeOut8N85",310,0
1375726367929667584,"2021-03-27T08:28:20Z","🗣️ @TheCryptoLark a renowned Crypto Analyst covered @seascapenetwork in one of his most recent videos.  In this video, Davis told investors he was bullish on Seascape ( $CWS )🚀 https://t.co/V18v5IuwDD  #BSC $CWS #DeFi #Seacape #NFT #ETH #CryptoNews  #CTBot Adrop RAM 1 trx 50",34,0
1375726358005956609,"2021-03-27T08:28:18Z","🚀 Pluto Coin  Airdrop 🚀 Rate: ⭐⭐⭐⭐ ⭐ 🎁 Reward:  8822 PLUT ($1500) 👫 Referral: 40.5 PLUT  ($7)  🤖Start Bot here   https://t.co/x5JZchojO8  ⛂ Join Telegram group and channel. ⛂ Follow twitter &amp; retweet  ⛂ Submit ETH address and details.",6005,0
1375726357993381888,"2021-03-27T08:28:18Z","Martkist Max supply 37m Current supply 16m 2ph/s mining pow sha256 about 40,000 blocks away from the next halving. $Martk #Martkist #Bitcoin $ETH $RUNE $LINK $AAVE $SUPER $URUS $APY $BAO $DHT $DPI $UOS $BNB $PLOT $SUSHI $DPH $KWIK https://t.co/KvShTNjJQu",14,0
1375726357880127490,"2021-03-27T08:28:18Z","🚀 Pluto Coin  Airdrop 🚀 Rate: ⭐⭐⭐⭐ ⭐ 🎁 Reward:  8822 PLUT ($1500) 👫 Referral: 40.5 PLUT  ($7)  🤖Start Bot here   https://t.co/x5JZchojO8  ⛂ Join Telegram group and channel. ⛂ Follow twitter &amp; retweet  ⛂ Submit ETH address and details.",6005,0
1375726354319163393,"2021-03-27T08:28:17Z","$BURGER is still good IMO 👉 Join Channel: https://t.co/Cg2lD5W9dI  $BTC $ETH #NFT $PERL $ENJ $FLOW $THETA #BSC $REEF $LUNA $SAND $AXS $TVK $HOGE $CHZ $STX $ROSE $TROY $ONE $CERL $IRIS $ANC $ADA $DIA $XRP $DOGE $ATOM $LUNA $ZCX $BNB $WABI $LTO $CVC https://t.co/tONXSDl9vk",6,2
1375726350326063107,"2021-03-27T08:28:16Z","The DEX @FinanceChainge is set to launch on the @FUSIONProtocol network with over a million users on the protocols waitlist. This decentralized exchange aims to innovate on traditional models through leveraging the Fusion Network.  #BSC #BTC #ETH #BNB  https://t.co/xx55YiGfm3",21659,2
1375726338359881729,"2021-03-27T08:28:13Z","Great project by team.Hope to get moon #Safe_Childrens #Bitcoin  #Binance #BinanceSmartChain #DEFI  #BTC #ETH https://t.co/0icDqZoIcy",0,0
1375726338070380546,"2021-03-27T08:28:13Z","RT @Anthony00439858: Free ETH  1. Retweet + Like  #CTBot Adrop Ram .1 TRX 30",19,0
1375726335570538496,"2021-03-27T08:28:12Z","100 followers giveaway!  Choosing 4 winners for $25 each!  paying in any stable coins (USD,USDT,UST)  Simply follow @KatanaSlayerx , like &amp; retweet to enter!  $VRA $CAKE $WOO $BNB $ETH $SENT $BTC #bitcoin",63,0
1375726333225922564,"2021-03-27T08:28:12Z","Win #NFT worth ETH!  To WIN #Giveaway You MUST:    1.) Follow @degenasaurus   2.) Retweet the tweet BELOW ⬇️ + comment it  3.) OPTION -&gt; Join discord: https://t.co/alAVVDlyQu  NFT: https://t.co/l37pUrR6Y3  Wish luck!! 🦖♥️🛸👫  @coinkit_ mon 45 2000 BTC  https://t.co/wFeOut8N85",310,0
1375726331640487938,"2021-03-27T08:28:11Z","https://t.co/4xoNNq9Lpu: AntMiner T9+ 10.5TH/s @ 0.136W/GH 16nm ASIC Bitcoin &amp; Bitcoin Cash Miner: Computers &amp; Accessories https://t.co/9lE3Q9thKU https://t.co/Geav6pi6Lb",0,0
1375726322597588992,"2021-03-27T08:28:09Z","🔥 $LUNA mcap triples in one month  🔥 $UST mcap exceeds $1b &amp; rising  🔥 $MIR surpasses $1b in TVL  🔥 $ANC launches with Fixed 20% APR  🔥 $LUNA community pool burned  🔥 $100m+ deposits in $ANC  🔥 Pay With Terra API payments gateway created  That's just March ✅  $BTC $ETH https://t.co/SoFjdJ7CKM",313,0
1375726307644948481,"2021-03-27T08:28:06Z","Win Degenasaur #042 #NFT worth ETH! --&gt; https://t.co/l37pUrR6Y3   1.) RT this tweet   2.) Follow @degenasaurus  3.) Comment + tag 3 friends  OPTIONAL extra chance to Win! -&gt; 4.) Join discord post username twitter comp: https://t.co/Ewmuzju2wL  4.) Win randomly Sat 3rd April! https://t.co/eyLZUL4bFz",306,0
1375726306751569920,"2021-03-27T08:28:05Z","@PlanetsDaily Hello)) Auction has been started!!! 0.25 ETH https://t.co/WvpKKf8Dub",4,0
1375726304662814722,"2021-03-27T08:28:05Z","#BTC Price: $54826 #ETH Price: $1693 #LTC Price: $182  Next update in 10 minutes Last updated: 4:28:5.02",0,0
1375726303769333762,"2021-03-27T08:28:05Z","🔸 New Listing🔸   #BKEX will list #DRYCAKE @DryCakeSwap🚀 🚀  - Trading pair: DRYCAKE/USDT - Trading time: 20:00 on Mar 29 (UTC+8)  🔹 🔹 More details: https://t.co/kC2IIebfTT  #Bitcoin #ETH #BKK #Blockchain https://t.co/w8CHyKXaUD",2480,0
1375726295347126276,"2021-03-27T08:28:03Z","Win #NFT worth ETH!  To WIN #Giveaway You MUST:    1.) Follow @degenasaurus   2.) Retweet the tweet BELOW ⬇️ + comment it  3.) OPTION -&gt; Join discord: https://t.co/alAVVDlyQu  NFT: https://t.co/l37pUrR6Y3  Wish luck!! 🦖♥️🛸👫  @coinkit_ mon 45 2000 BTC  https://t.co/wFeOut8N85",310,0
1375726292633550853,"2021-03-27T08:28:02Z","ETH layer 2 solution and UniSwapV3 got delayed once again. Since I'm team Cardano I kinda have to smirk about that. 🥲  I feel bad for people going ham on ETH now though, those fees are gonna be expensive.",1,0
1375726291270434817,"2021-03-27T08:28:02Z","#Earn $40 by Learning &amp; Earning about #Crypto. Don't miss it. Hurry Up...  1. Join Right Now: https://t.co/vJNFExvjVJ 2. Verify Email (must) 3. Start Earning by Learning about Crypto.  1. Retweet + Like #CTBot Adrop Ram 3 TRX 90 #btc #bnb #bsc #free #altcoins #Binance #eth #defi https://t.co/cPDVN1a0jk",95,0
1375726273306198016,"2021-03-27T08:27:57Z","🤗 #XYM Lock &amp; Earn has launched at https://t.co/8kWqgEeplL @NEMofficial 🤗  💎Token: #XYM 💎Term: 7 days 💎Zero handling fee &amp; estimated annualized yield of 100%  👉Earn now: https://t.co/yAwwBIBTkA 👉Details: https://t.co/d1rkGcbUBU  #ALTSEASON #Altseason2021 #BTC #ETH https://t.co/OqLaEsRKWT",564,0
1375726261457195009,"2021-03-27T08:27:55Z","Win #NFT worth ETH!  To WIN #Giveaway You MUST:    1.) Follow @degenasaurus   2.) Retweet the tweet BELOW ⬇️ + comment it  3.) OPTION -&gt; Join discord: https://t.co/alAVVDlyQu  NFT: https://t.co/l37pUrR6Y3  Wish luck!! 🦖♥️🛸👫  @coinkit_ mon 45 2000 BTC  https://t.co/wFeOut8N85",310,0
1375726234210983942,"2021-03-27T08:27:48Z","Astro Chill - Available on @withFND  #NFTs   Use headphone for the best experience!! Reserve Price: 0.5 ETH #NFTCommunity #nftcollectors #NFTartists #NFTcollectibles   Check out - https://t.co/6Nkl8HojMJ",11,5
1375726230956310533,"2021-03-27T08:27:47Z","Prediction time  By EOY :  &gt; All top 50 coins will be 15-20b+ &gt; Top 100 -&gt; 8-10b+ &gt; Coins among them : $HTR (0.25b) &gt; Coins that might : $ORAI (0.035b), $OCTO (0.025b) &gt; $ETH lags until Q3 / 4, alternatives outperform &gt; Seigniorage &amp; Privacy revival due large '$' sums made / regs",295,5
1375726217840582663,"2021-03-27T08:27:44Z","@Blockchain_Data i bought some DTA on Huobi and sent to metamask and it didnt work... coins disappeared. Same thing when sending to ledger. Both were sent as ETH addresses. Can you explain why my coins are lost",0,0
1375726217773600770,"2021-03-27T08:27:44Z","Sarcasm was created for 100 $MANA ($89.60 USD = 0.0529 $ETH) by https://t.co/O8zWF5IJz4 https://t.co/TLBy1s8i7w #decentraland #names #avatar https://t.co/crhBg7ee1d",1,1
1375726215110135812,"2021-03-27T08:27:44Z","RT @QuintenFrancois: My top 10 #crypto holdings:  1. $BTC 2. $LINK 3. $ETH 4. $VET 5. $ERN 6. $BNB 7. $BNT 8. $MATIC 9. $POLK 10. $ENJ   Wh…",2518,1
1375726209066172417,"2021-03-27T08:27:42Z","RT @volmexfinance: What’s your ETH address?  Don’t ask why, just drop it below 👇",4852,1
1375726201860452353,"2021-03-27T08:27:40Z","👋 Hey #crypto world!   🔥  Lots of incredible developments by @ShiftNrg  📰  Read up: https://t.co/zaI1rf4yah  👉  Obtain $wSHIFT at: https://t.co/p7rTLgRvM9  #wSHIFT $SHIFT #SHIFT #Bitcoin #uniswap #DOT #polkadot $BTC $ETH #ipfs #substrate #freeweb #web3 #DecentralizeEverything",7,1
1375726191471116289,"2021-03-27T08:27:38Z","1/1 The 7th Twitter Campaign organised by #UnityForEthiopia @UnityForEthio themed  The Truth Defends Ethiopia on 28/3/21, let all of us stand together to make our voice heard for our country #Ethiopia @iyoba4u @EACC_EAN @DeaconYoseph @Qale23 @ams_kas @TagelLeraseh https://t.co/bDwYC2J2X8",317,1
1375726187658510340,"2021-03-27T08:27:37Z","RT @AltstreetBet: $ETH, Few months later in hindsight you'll think this level was obvious buy.   3 0 0 0 $ https://t.co/D48qqGYgut",328,1
1375726184693080065,"2021-03-27T08:27:36Z","Good Project with the experienced team members and the good management team#STC #ETH #DEFI #Airdrops https://t.co/HSvdB4Eaep",0,0
1375726180444295169,"2021-03-27T08:27:35Z","No need to spend your own money to trade #cryptocurrency. Over 10K users won crypto rewards on @latokens last week. It's the best way to join the financial revolution. Start by earning a share of $100K in CLIQ airdrop: https://t.co/q2UG0rg4bs #Bitcoin #ETH #Citi #AON #LATOKEN",1,0
1375726171778859008,"2021-03-27T08:27:33Z","$UST listing on @binance with $BTC $ETH $LUNA $USDT pairs Let’s do it @cz_binance listen the community.  Lunatics like&amp;retweet pls. https://t.co/fofVoCOw9x",491,0
1375726171334189061,"2021-03-27T08:27:33Z","Win #NFT worth ETH!  To WIN #Giveaway You MUST:    1.) Follow @degenasaurus   2.) Retweet the tweet BELOW ⬇️ + comment it  3.) OPTION -&gt; Join discord: https://t.co/alAVVDlyQu  NFT: https://t.co/l37pUrR6Y3  Wish luck!! 🦖♥️🛸👫  @coinkit_ mon 45 2000 BTC  https://t.co/wFeOut8N85",310,0
1375726161758728195,"2021-03-27T08:27:31Z","RT @richie_fallclis: Bought into $WOO when it was $0.05 and had some $ETH sitting in my wallet........  20X incoming🥳",19,0
1375726145136553988,"2021-03-27T08:27:27Z","🚀 Safe The Children  🔷 Token Symbol : STC  🔷 Contract: https://t.co/nk3qsF2PJV  🔷 Website: https://t.co/4y0g7dqswM  🔷 Whitepaper: https://t.co/PHPZI4dbyR  🔷 Presentation Video : https://t.co/Mycfov12IU  #Safe_Childrens #Bitcoin  #Binance #BinanceSmartChain #DEFI  #BTC #ETH",14721,0
1375726131576455170,"2021-03-27T08:27:24Z","✍️👏👇  @ShiftNrg's Second Developer's Update Available Now:  https://t.co/OLVb6NvuMg  Vote for us at #PolkadotDecoded (under Lightning Pitch):  https://t.co/cHudcP9w3V  #ShiftOn  #DecentralizeEverything $wSHIFT #wSHIFT $SHIFT #SHIFT #Bitcoin #defi #polkadot $BTC $ETH $DOT",3,0
1375726131127672832,"2021-03-27T08:27:24Z","🚀 Safe The Children  🔷 Token Symbol : STC  🔷 Contract: https://t.co/nk3qsF2PJV  🔷 Website: https://t.co/4y0g7dqswM  🔷 Whitepaper: https://t.co/PHPZI4dbyR  🔷 Presentation Video : https://t.co/Mycfov12IU  #Safe_Childrens #Bitcoin  #Binance #BinanceSmartChain #DEFI  #BTC #ETH",14721,0
1375726129278038018,"2021-03-27T08:27:23Z","Don't be too hard on yourself..  You are operating in the most volatile market in history.. #crypto is the stock market on steroids!  So yes, you will get it wrong from time to time.. And it will hurt..  But don't be too hard on yourself..  This shit isn't easy  $BTC $ETH",219,0
1375726102811799553,"2021-03-27T08:27:17Z","#Earn $40 by Learning &amp; Earning about #Crypto. Don't miss it. Hurry Up...  1. Join Right Now: https://t.co/vJNFExvjVJ 2. Verify Email (must) 3. Start Earning by Learning about Crypto.  1. Retweet + Like #CTBot Adrop Ram 3 TRX 90 #btc #bnb #bsc #free #altcoins #Binance #eth #defi https://t.co/cPDVN1a0jk",95,0
1375726102761586692,"2021-03-27T08:27:17Z","🚀 Pluto Coin  Airdrop 🚀 Rate: ⭐⭐⭐⭐ ⭐ 🎁 Reward:  8822 PLUT ($1500) 👫 Referral: 40.5 PLUT  ($7)  🤖Start Bot here   https://t.co/x5JZchojO8  ⛂ Join Telegram group and channel. ⛂ Follow twitter &amp; retweet  ⛂ Submit ETH address and details.",6005,0
1375726093001490432,"2021-03-27T08:27:14Z","Perspective.  Global wealth is approx $400 trillion.  US wealth $140tr.  Crypto wealth is $1.5-2 tr.   so like 35-50bps.     This will grow to 1-2 percent in a year or two.  That’s 3-4 times.   Just musing.  $BTC $ETH $LUNA $GLXY.",1557,0
1375726091306815491,"2021-03-27T08:27:14Z","https://t.co/4xoNNq9Lpu: Bitcoin BTC Crypto to the Moon Shirt Featuring Astronaut T-Shirt: Clothing https://t.co/5qaMyKPrsX",0,0
1375726085594222592,"2021-03-27T08:27:13Z","@fish_finance Don't miss guys @ysin2511 @Ynewk1  @AhmedSa17628773  @PawarS20012102   My Bsc Address ✅ 0x4E4A5e67dF9Ea24D5b0fCDBd3A6600AA1D14F7b8   #binancesmartchain #tunatoken  $btc $bnb $eth $ada $xrp $cake",0,0
1375726069324541956,"2021-03-27T08:27:09Z","No need to spend your own money to trade #cryptocurrency. Over 10K users won crypto rewards on @latokens last week. It's the best way to join the financial revolution. Start by earning a share of $100K in CLIQ airdrop: https://t.co/XNfrO7Bvot #Bitcoin #ETH #Citi #AON #LATOKEN",1,0
1375726040052547584,"2021-03-27T08:27:02Z","When researching a project, a question I always ask myself is..  ❔ Could this be a Top 20 project?  If yes, I will move with full conviction..  $QNT  $LUNA $ALBT $HTR $MRPH $ZCX  Can achieve this.. Some will even be Top 10.. Few of them will crack Top 5 ✅  $BTC $ETH https://t.co/Acfq4LXGCP",277,0
1375726039662534656,"2021-03-27T08:27:02Z","🛑  @ShiftNrg will be shutting down our Lisk-based mainnet on April 30th @12pm CST in anticipation of our transition to @Substrate_io later this year! 🥳  📰  Read up: https://t.co/zaI1reMWLH 👀  #ShiftOn   $wSHIFT $SHIFT #SHIFT #Bitcoin #alts #uniswap #defi #polkadot $BTC $ETH https://t.co/3j07nSbSDi",6,0
1375726037569581057,"2021-03-27T08:27:01Z","#DeFi #BKC #eth2 #BucksCake  ANNOUNCEMENT!  Dear BucksCake's community members!  The exact date of BKC listing on Uniswap set for 04/20/2021!  2 days before it, the exact opening time of the trading pair BKC/ETH on Uniswap...  More at https://t.co/RQPMhjazG2 https://t.co/VjtBbXBA1t",2855,0
1375726024034545665,"2021-03-27T08:26:58Z","Win #NFT worth ETH!  To WIN #Giveaway You MUST:    1.) Follow @degenasaurus   2.) Retweet the tweet BELOW ⬇️ + comment it  3.) OPTION -&gt; Join discord: https://t.co/alAVVDlyQu  NFT: https://t.co/l37pUrR6Y3  Wish luck!! 🦖♥️🛸👫  @coinkit_ mon 45 2000 BTC  https://t.co/wFeOut8N85",310,0
1375726020431515649,"2021-03-27T08:26:57Z","$DYP liquidity providers earned 6,533.78 #Ethereum worth $10,616,674 since launch!  Earn up to 301.35% APY 💰  If you want to start earning #ETH you just need to join one of our liquidity pools: DYP-ETH, DYP-WBTC, DYP-USDC, and DYP-USDT https://t.co/zxyI0V2tnr  #DeFi #Uniswap https://t.co/acaV7p6h3G",406,0
1375726007592816640,"2021-03-27T08:26:54Z","We're 33% up from our initial #AlgoVest portfolio and growing returns ready for more #buybacks. We did our first $AVS token buyback &amp; gave it up as a #bugbounty for contract #security purposes. See the txhash here: https://t.co/GNhFLOng3k $DAO #CyberSecurity #Ethereum $ETH #AVS https://t.co/17NPZqgKgv",18,0
