"ID","created_at","text","like_count","rt_count"
1377123461433155586,"2021-03-31T04:59:53Z","Want to giveaway some cryptocurrency over night.  #Bitcoin #ETH #CEL #MATIC #LINK  I got most of them in my wallet, and you can choose.  How to win:  -RT/Like this tweet -join: https://t.co/VWkNllhEqB -tag a Celsian(a)  ⏰Winner drawn tomorrow after waking up.  #StrongTogether https://t.co/cql1OfcwsJ",145,126
1377123461416378370,"2021-03-31T04:59:53Z","@crypto_rand @EthernityChain It's already pumped hard. I'm looking into @polkaswitch to find out the next one from their platform. Polkaswitch is building the ideal DEX aggregator for all Defi and NFTs based on eth &amp; dot Blockchain. https://t.co/UbEecRXW3p",73,53
1377123453887684615,"2021-03-31T04:59:51Z","$VET $THETA $FEG $WCRES $ID $SHA $DSLA $PUS $HOGE $CHZ $OCEAN $KCS $LUNA $COTI $BTC $ETH $XRP $DOT $LINK $RSR $SOL $LTC $UBX $SHA $ANKR $VRA $FET $KIN $DAG $ONE $BTC $ANKR  4 million clients trade with him For new customers, 5000 $ Deposit Bonus Get it  https://t.co/r3w2PD7Tk8",1,0
1377123451693981707,"2021-03-31T04:59:51Z","RT @WhaleAgents: $ETH will flip to 5k at 2021",166,137
1377123442315563009,"2021-03-31T04:59:49Z","#DeGate unique initial Social Media token offering:📣  To honor contributors to Crypto Assets on social media, DeGate offers an early opportunity to buy DG tokens at a preferential rate. 10 m DG tokens at $0.005  Start ➡️ March 29  https://t.co/5gPWIBwZea  #ETH #BTC #DeFi https://t.co/2qpuVZGJKm",1751,1359
1377123437089419265,"2021-03-31T04:59:47Z","@BitcoinTre couple hundred bucks in hex tied up at tewkenaire, by a couple hundred bucks in eth fees to move it lol",0,0
1377123434237288453,"2021-03-31T04:59:47Z","@NFT_TV life's tough. you got any spare change for gas? i'll give you something. cheap. 0.01 eth. come on buddy. i fell on hard times https://t.co/toJ2xtego1",0,0
1377123430814785537,"2021-03-31T04:59:46Z","$sparta MC$75m = $snx MC$2B competitor   $Sparta has recommendation &amp; support from  @cz_binance founder of @binance  Derivatives markets is worth $trillions  You know @cz_binance is going to back a decentralised version with his emphasis on innovation  $btc $eth $slp $lrc $grt https://t.co/OYoLmpABPZ",10,2
1377123409243463693,"2021-03-31T04:59:41Z","It's @SpencerMarell and @spaceghosttt adding to their #cryptodunks collection! Congrats!  DM me your eth address!  #NFTCommunity #nftart #cryptodunks #zedrun",5,1
1377123403149107201,"2021-03-31T04:59:39Z","RT @QuintenFrancois: $ETH to $2500 in April or I'm giving away 0.3 $ETH to someone who retweets this.",4150,6184
1377123403002343428,"2021-03-31T04:59:39Z","Holding $CNS is like holding #ETH in 2016. It's okay to doubt and it's also okay to take a leap of faith. @CentricRise is clearly defined, a  unique project with a dual token protocol with a predictive future.   $CNS is undervalued.   🚀🚀🚀",125,51
1377123400854896644,"2021-03-31T04:59:39Z","RT @QuintenFrancois: $ETH to $2500 in April or I'm giving away 0.3 $ETH to someone who retweets this.",4150,6184
1377123397239382019,"2021-03-31T04:59:38Z","@crypto_rand @EthernityChain It's already pumped hard. I'm looking into @polkaswitch to find out the next one from their platform. Polkaswitch is building the ideal DEX aggregator for all Defi and NFTs based on eth &amp; dot Blockchain. https://t.co/UbEecRXW3p",73,53
1377123392168452097,"2021-03-31T04:59:37Z","@_Seitoff_ life's tough. you got any spare change for gas? i'll give you something. cheap. 0.01 eth. come on buddy. i fell on hard times https://t.co/toJ2xtego1",0,0
1377123382953607172,"2021-03-31T04:59:34Z","RT @QuintenFrancois: $ETH to $2500 in April or I'm giving away 0.3 $ETH to someone who retweets this.",4150,6184
1377123376175587331,"2021-03-31T04:59:33Z","I'm feeling the event horizon pull towards the crypto rabbit hole again.   What one cryptocurrency would you most love to hear a deep dive on?   no BTC or ETH allowed in the answers.",649,30
1377123373419962371,"2021-03-31T04:59:32Z","DCT TOKEN Airdrop Medium Star Claim 1 DCT ($ 100) + 0.045 DCT ($ 10) for each referral you make.   Steps  💎  Join channel and group  💎  Follow twitter, like and retweet pinned message   💎  Submit eth wallet address (ERC-20) Participate now Airdrop link: https://t.co/L24stp8tVI https://t.co/CVYQyLAWwU",8692,8870
1377123372090355720,"2021-03-31T04:59:32Z","Genuinely curious if Art Twitter is going to boycott Paypal now..??? This is exponentially more environmentally damaging than NFTs because not only is Ethereum supported, but so is Bitcoin, which has 4x the emissions of ETH. What alternative platforms can independent artists use? https://t.co/zek7xyXwqL",1602,473
1377123358874071049,"2021-03-31T04:59:29Z","Giving away 1,000 $DOGE 🎁  Steps: 1. Like 2. Retweet 3. Follow @GivesSelfAway  📜You have to do all 3 Steps to participate ⏰Giveaway ends in 5 Days  #Giveaway #Free #Crypto #Tron #Ethereum #TRX #BTC #Bitcoin #ETH #DEFI #trading #blockchain #dogecoin #doge #ElonDoge",31,30
1377123347276832770,"2021-03-31T04:59:26Z","Win #NFT worth ETH!  To WIN You MUST:    1.) Follow @degenasaurus  2.) RT tweet BELOW + comment it  3.) OPTION -&gt; Join Discord post name in twitter comp channel: https://t.co/alAVVDlyQu  NFT: https://t.co/l37pUrR6Y3  Luck!!  @coinkit_ mon 35 1000 BTC  https://t.co/wFeOut8N85",116,856
1377123346786095105,"2021-03-31T04:59:26Z","RT @RookieXBT: $ETH  Are you ready? https://t.co/4ydw2qd1Ik",1923,189
1377123343908794371,"2021-03-31T04:59:25Z","@Clphotogs life's tough. you got any spare change for gas? i'll give you something. cheap. 0.01 eth. come on buddy. i fell on hard times https://t.co/toJ2xtego1",1,0
1377123342600171528,"2021-03-31T04:59:25Z","Genuinely curious if Art Twitter is going to boycott Paypal now..??? This is exponentially more environmentally damaging than NFTs because not only is Ethereum supported, but so is Bitcoin, which has 4x the emissions of ETH. What alternative platforms can independent artists use? https://t.co/zek7xyXwqL",1602,473
1377123342331744260,"2021-03-31T04:59:25Z","💧Roku Network Airdrop 💧  🏆 Task:          ➕  15 ROK (~$5)  👨‍👩‍👧 Referral:   ➕  3 ROK (~$1)  🔛  Airdrop Link &amp; Information: https://t.co/YhvsOcfEbH  #cryptocurrency #Crypto #Bitcoin  #BSC #BinanceSmartChain #Ethereum #ETH #Airdrop #bounty #ROK #RokuCoin #RokuNetwork",3737,4813
1377123341362896900,"2021-03-31T04:59:24Z","@crypto_rand @EthernityChain It's already pumped hard. I'm looking into @polkaswitch to find out the next one from their platform. Polkaswitch is building the ideal DEX aggregator for all Defi and NFTs based on eth &amp; dot Blockchain. https://t.co/UbEecRXW3p",73,53
1377123329493004291,"2021-03-31T04:59:22Z","The DEX @FinanceChainge is set to launch on the @FUSIONProtocol network with over a million users on the protocols waitlist. This decentralized exchange aims to innovate on traditional models through leveraging the Fusion Network.  #BSC #BTC #ETH #BNB  https://t.co/xx55YiGfm3",21535,13658
1377123317295980552,"2021-03-31T04:59:19Z","@infinite_jeff @TheFirstMint @unclejeffe @Wades_ETH @topshotnoobie @LgDoucet @PlungeFather @SteefCrypto @chugsnbugs I do think the values will rise again, but at a slower pace. I wonder how much of the big pump was driven by the bots that  they've done well to combat.",0,0
1377123315265937419,"2021-03-31T04:59:18Z","$SOUL Roadmap to $10+  #NFT #blockchain #crypto $KCAL $ETH $BTC $BNB $NEO $DANK $ENJ $FLOW $WAX $CHZ $BONDLY $RARI $MEME $TVK $PHA $MANA $HOT $ERN $SPI $OGN $MTL $WAXP $RFOX $RARI $UOS $REVV $COS $DEGO $XED $AXS $FTX $BNB $HOGE $PLAY $KIMCHI $HOGL $DOT $UNI $DOGE $SOL $KSM $CAKE https://t.co/jzuMu6qm5w",49,15
1377123312967450629,"2021-03-31T04:59:18Z","RT @QuintenFrancois: $ETH to $2500 in April or I'm giving away 0.3 $ETH to someone who retweets this.",4150,6184
1377123308433403911,"2021-03-31T04:59:17Z","🦄 @JulSwap has confirmed to release #NFT card with Usage from its staking event in #JulWallet.   Meanwhile, the article by @JustLiquidity states that JulWallet supports both ERC721 tokens on #ETH &amp; BSC and ERC1155 tokens on BSC.  Receiving #NFTs on #BSC? You can do it! https://t.co/9crAMsjMzm",397,105
1377123307799990285,"2021-03-31T04:59:16Z","Russian power auction is started! 0.25 ETH NOW!!! @withFND https://t.co/cAk136DzfV https://t.co/sFpAmpV7Fm #NFTs #NFTCommunity #crypto #Ethereum #nftart #NFT #blockchain https://t.co/uz5wdG3sNI",5,1
1377123304759156738,"2021-03-31T04:59:16Z","RT @QuintenFrancois: $ETH to $2500 in April or I'm giving away 0.3 $ETH to someone who retweets this.",4150,6184
1377123303966449665,"2021-03-31T04:59:16Z","Welcome to massive Q DAO airdrop!   1. go now to telegram https://t.co/COyXgODY1z   2. Stay in telegram chat and wait announcement.  3. HOLD this gem until 10x   (soon - QDAO launch cross-chain for BSC, Polkadot and ETH)",4217,6165
1377123302225764359,"2021-03-31T04:59:15Z","RT @QuintenFrancois: $ETH to $2500 in April or I'm giving away 0.3 $ETH to someone who retweets this.",4150,6184
1377123298719375365,"2021-03-31T04:59:14Z","BECOME A #LINK MILLIONAIRE! Use @binance sign up code https://t.co/kHTka3Jq3u to get half off your trading fees!$BTC $ETH $EOS $TRX $XRP $BCH $ETC $LTC $DASH $BTG $XLM $XMR $ZEC $ADA $NEO $OMG $XEM $LSK $DGB $ZRX $XVG $GRS $NANO $ZCL $ICX $STORM $VEN $WTC $ONT $BNB $LINK $BINAN…",0,0
1377123293249998852,"2021-03-31T04:59:13Z","Welcome to massive Q DAO airdrop!   1. go now to telegram https://t.co/COyXgODY1z   2. Stay in telegram chat and wait announcement.  3. HOLD this gem until 10x   (soon - QDAO launch cross-chain for BSC, Polkadot and ETH)",4217,6165
1377123292616687620,"2021-03-31T04:59:13Z","@SharkPunks life's tough. you got any spare change for gas? i'll give you something. cheap. 0.01 eth. come on buddy. i fell on hard times https://t.co/toJ2xtego1",0,0
1377123274333691910,"2021-03-31T04:59:08Z","@crypto_rand @EthernityChain It's already pumped hard. I'm looking into @polkaswitch to find out the next one from their platform. Polkaswitch is building the ideal DEX aggregator for all Defi and NFTs based on eth &amp; dot Blockchain. https://t.co/UbEecRXW3p",73,53
1377123271036956674,"2021-03-31T04:59:08Z","Made a quick little #vfxbreakdown of TO THE MOON for your enjoyment! I wish i had recorded the modeling process of the rocket, but oh well, maybe next time!😅  🚨This piece is still available on FND reserve price .555 ETH! #cryptoart #NFTs #NFTartists  ➡️https://t.co/VNtlMBrVjD https://t.co/nc3qbnl1AR",24,3
1377123266913964036,"2021-03-31T04:59:07Z","RT @QuintenFrancois: $ETH to $2500 in April or I'm giving away 0.3 $ETH to someone who retweets this.",4150,6184
1377123257334210561,"2021-03-31T04:59:04Z","@cynemical Hi friend look this price is .01 eth https://t.co/YrELa6jNZn",2,1
1377123256667283461,"2021-03-31T04:59:04Z","Weekly #BTC dom chart. i think if this breaks down below that bottom line alts are really going to run. $link $dot $bnt $grt $eth $klv we're all gonna make it https://t.co/rWTaRYBqfX",16,2
1377123236224278529,"2021-03-31T04:58:59Z","My @opensea Genesis, listed for .3 ETH  Cliffs over the Cove Is the first in a Minecraft rendering series, wherein I spend time reflecting on my life.  Each work includes a description, an insight into my experiences, and thoughts as an artist.  https://t.co/ovxF04V63z",57,15
1377123232046673924,"2021-03-31T04:58:58Z","RT @LilMoonLambo: Good morning to everyone bullish on $BTC and $ETH only",400,23
1377123218457169925,"2021-03-31T04:58:55Z","RT @QuintenFrancois: $ETH to $2500 in April or I'm giving away 0.3 $ETH to someone who retweets this.",4150,6184
1377123215567323140,"2021-03-31T04:58:54Z","RT @QuintenFrancois: $ETH to $2500 in April or I'm giving away 0.3 $ETH to someone who retweets this.",4150,6184
1377123209112211458,"2021-03-31T04:58:53Z","Top 5 Mentions Updated Every 3 Minutes   Start Time: Wed Mar 31 2021 00:13:52 GMT+0300 (GMT+03:00)   (BETA STAGE)  1- $AMB==&gt;1485  2- $BTS==&gt;1480  3- $ETH==&gt;1415  4- $BNB==&gt;599  5- $XRP==&gt;448  - $Bitcoin #Bitcoin $Crypto #Crypto $Altcoin #Altcoin -",0,0
1377123195455561737,"2021-03-31T04:58:50Z","@crypto_rand @EthernityChain It's already pumped hard. I'm looking into @polkaswitch to find out the next one from their platform. Polkaswitch is building the ideal DEX aggregator for all Defi and NFTs based on eth &amp; dot Blockchain. https://t.co/UbEecRXW3p",73,53
1377123189449363462,"2021-03-31T04:58:48Z","Today, news broke that PayPal is ready to launch cryptocurrency payments to merchants, allowing its massive userbase of millions to pay with Bitcoin and the other altcoins has offered since the middle of last year.  #Bitcoin #btc #cryptocurrency #eth https://t.co/dgyBFv5C6d",0,0
1377123178489675789,"2021-03-31T04:58:46Z","RT @QuintenFrancois: $ETH to $2500 in April or I'm giving away 0.3 $ETH to someone who retweets this.",4150,6184
1377123177814319112,"2021-03-31T04:58:45Z","Win #NFT worth ETH!  To WIN You MUST:    1.) Follow @degenasaurus  2.) RT tweet BELOW + comment it  3.) OPTION -&gt; Join Discord post name in twitter comp channel: https://t.co/alAVVDlyQu  NFT: https://t.co/l37pUrR6Y3  Luck!!  @coinkit_ mon 35 1000 BTC  https://t.co/wFeOut8N85",116,856
1377123171246088195,"2021-03-31T04:58:44Z","In the SEC v. Ripple lawsuit, the court has rejected the SEC’s attempt to block XRP holders’ Motion to Intervene and has set submission deadlines for the motion to be filed as well as for responses from the SEC and Ripple.  ##Bitcoin ##BTC ##ETH # https://t.co/fElzkpGuNd",1,0
1377123155412537344,"2021-03-31T04:58:40Z","- The Chicago Mercantile Exchange (CME) has announced a new Bitcoin-based financial derivative. - More than 69,000 BTC have been traded on a daily average of over 13,800 contracts on the CME since its launch in 2017.  #Bitcoin #btc #cryptocurrency #eth https://t.co/ucEg0mC0Cj",0,0
1377123136710189062,"2021-03-31T04:58:36Z","@crypto_rand @EthernityChain It's already pumped hard. I'm looking into @polkaswitch to find out the next one from their platform. Polkaswitch is building the ideal DEX aggregator for all Defi and NFTs based on eth &amp; dot Blockchain. https://t.co/UbEecRXW3p",73,53
1377123129055571975,"2021-03-31T04:58:34Z","🦄 @JulSwap has confirmed to release #NFT card with Usage from its staking event in #JulWallet.   Meanwhile, the article by @JustLiquidity states that JulWallet supports both ERC721 tokens on #ETH &amp; BSC and ERC1155 tokens on BSC.  Receiving #NFTs on #BSC? You can do it! https://t.co/9crAMsjMzm",397,105
1377123119035424769,"2021-03-31T04:58:31Z","@GualJeganu Let's remeber. As a toxic leader, Abiy  -is motivated by personal ambition - not shared  or common goal  -usually lacks self-awareness so he creates illusions, alternative facts (e.g. Eth economy is growing, accomplished the war, etc) -runs his informal power network: Berhan Nega",0,0
1377123095928958977,"2021-03-31T04:58:26Z","Earn with a legit #Airdrop! Join now! 📎https://t.co/FdZmpw0YZh  ♦Sign up using this link and earn up to $3000USD: https://t.co/FdZmpw0YZh  Get started now! Don't miss out! #crypto #Airdrops #airdropalert #FreeCrypto #Eth #dgb #dogecoin  @coinkit_ mon 5 100 #BTC",19,71
1377123095442378758,"2021-03-31T04:58:26Z","@crypto_rand @EthernityChain It's already pumped hard. I'm looking into @polkaswitch to find out the next one from their platform. Polkaswitch is building the ideal DEX aggregator for all Defi and NFTs based on eth &amp; dot Blockchain. https://t.co/UbEecRXW3p",73,53
1377123092430872578,"2021-03-31T04:58:25Z","Win #NFT worth ETH!  To WIN You MUST:    1.) Follow @degenasaurus  2.) RT tweet BELOW + comment it  3.) OPTION -&gt; Join Discord post name in twitter comp channel: https://t.co/alAVVDlyQu  NFT: https://t.co/l37pUrR6Y3  Luck!!  @coinkit_ mon 35 1000 BTC  https://t.co/wFeOut8N85",116,856
1377123075611717635,"2021-03-31T04:58:21Z","Current supply 16,1m Max supply 37m Next halving in 36,576 blocks #cryptocurrency $Martk #Martkist Community focus No ico No premine, all Sha256 miners come join us, #Bitcoin $ETH $RUNE $LINK $AAVE $SUPER $URUS $APY $BAO $DHT $DPI $UOS $BNB $PLOT $SUSHI $DPH $KWIK $ADA $NANO $DOT https://t.co/0G4u0vSBRu",18,28
1377123068531732481,"2021-03-31T04:58:19Z","Win #NFT worth ETH!  To WIN You MUST:    1.) Follow @degenasaurus  2.) RT tweet BELOW + comment it  3.) OPTION -&gt; Join Discord post name in twitter comp channel: https://t.co/alAVVDlyQu  NFT: https://t.co/l37pUrR6Y3  Luck!!  @coinkit_ mon 35 1000 BTC  https://t.co/wFeOut8N85",116,856
1377123060654907400,"2021-03-31T04:58:18Z","“The https://t.co/d24jrwbZ25 gallery is in beta :) visit and see awesome art from our awesome artists!” - at https://t.co/d24jrwbZ25 Art Enclave - by decentricity.eth https://t.co/OOGh5ijpDC https://t.co/3gbAG7EakV",2,0
1377123060440997890,"2021-03-31T04:58:17Z","RT @QuintenFrancois: $ETH to $2500 in April or I'm giving away 0.3 $ETH to someone who retweets this.",4150,6184
1377123038752215049,"2021-03-31T04:58:12Z","Genuinely curious if Art Twitter is going to boycott Paypal now..??? This is exponentially more environmentally damaging than NFTs because not only is Ethereum supported, but so is Bitcoin, which has 4x the emissions of ETH. What alternative platforms can independent artists use? https://t.co/zek7xyXwqL",1602,473
1377123027565957120,"2021-03-31T04:58:10Z","@crypto_rand @EthernityChain It's already pumped hard. I'm looking into @polkaswitch to find out the next one from their platform. Polkaswitch is building the ideal DEX aggregator for all Defi and NFTs based on eth &amp; dot Blockchain. https://t.co/UbEecRXW3p",73,53
1377123025225588744,"2021-03-31T04:58:09Z","The first 5 DreamGen Punks have made their way into the waters of the @opensea !   the first 25 will be .025 $ETH 25-50 : .03 $ETH 50-75: .04 $ETH 75-100: .05 $ETH  And so on!  Its an #unofficialpunk party!  #NFT #NFTs #NFTCommunity #AI #unofficialpunks #cryptoart https://t.co/ckQWfIsPjv",15,12
1377123023401091072,"2021-03-31T04:58:09Z","@TheCryptoLark Buy 1 $KSM   10 million supply and about to waltz into the top 5 to join its cousin $DOT to take incredibly large chunks of market cap out of grandpa $ETH",5,0
1377123022499323906,"2021-03-31T04:58:08Z","@mickalamasse1 @Uniswap @SushiSwap To the moon ☁️      🛰         🌙     ☁️        ☁️ ☁️    🚀    ☁️            *       ☁️                   *       ☁️    *              *            *          *        *      *  💥 TacoToken 🌶  🌶️🌶️🌶️🌶️ tacoswap is the best #dex on the blockchain #eth",24,30
1377123021425504258,"2021-03-31T04:58:08Z","Holding $CNS is like holding #ETH in 2016. It's okay to doubt and it's also okay to take a leap of faith. @CentricRise is clearly defined, a  unique project with a dual token protocol with a predictive future.   $CNS is undervalued.   🚀🚀🚀",125,51
1377123003864031232,"2021-03-31T04:58:04Z","Fishbowl @opensea! #nft #opensea  #NFT #NFTartist #NFTs #NFTcollection #nftart #nftcollectors #nftcollector #cryptoartist #cryptoart #NFTcollectibles #NFTartists #nftbuyers #NFTCommunity #ETH #ArtistOnTwitter #artwork https://t.co/VDoIv4b7LY",8,0
1377123003285217281,"2021-03-31T04:58:04Z","🦄 @JulSwap has confirmed to release #NFT card with Usage from its staking event in #JulWallet.   Meanwhile, the article by @JustLiquidity states that JulWallet supports both ERC721 tokens on #ETH &amp; BSC and ERC1155 tokens on BSC.  Receiving #NFTs on #BSC? You can do it! https://t.co/9crAMsjMzm",397,105
1377122997715169281,"2021-03-31T04:58:03Z","RT @QuintenFrancois: $ETH to $2500 in April or I'm giving away 0.3 $ETH to someone who retweets this.",4150,6184
1377122986356998146,"2021-03-31T04:58:00Z","#NFTs on #Rewardiqa coming soon ! 🔥🚀🚀🚀👨‍🎨 #NFTCommunity  #nftcollector #NFTdrop #NFTGiveaway #REW #DeFi #BSCPAD #eth #btc #opensea #marketplace #bullrun #BinanceSmartChain https://t.co/Bo1M9Pox2L",820,756
1377122986071744515,"2021-03-31T04:58:00Z","This is why $HAI is destined for greatness. The team &amp; the boss @buda_kyiv have no ego. They just want to provide value for $HAI holders. They are happy to listen to any proposals which will benefit $HAI. $10 in 2021 (45x from here) #crypto #FinancialFreedom #makemoney $ETH #BTC https://t.co/wzBRjgJRhq",26,9
1377122981319602179,"2021-03-31T04:57:59Z","RT @QuintenFrancois: $ETH to $2500 in April or I'm giving away 0.3 $ETH to someone who retweets this.",4150,6184
1377122980120068107,"2021-03-31T04:57:58Z","🦄 @JulSwap has confirmed to release #NFT card with Usage from its staking event in #JulWallet.   Meanwhile, the article by @JustLiquidity states that JulWallet supports both ERC721 tokens on #ETH &amp; BSC and ERC1155 tokens on BSC.  Receiving #NFTs on #BSC? You can do it! https://t.co/9crAMsjMzm",397,105
1377122978085826561,"2021-03-31T04:57:58Z","RT @zhusu: Next key lvls are 72k / 100k on $BTC  And 2.5k / 4k on $ETH",3569,435
1377122970322104324,"2021-03-31T04:57:56Z","RT @QuintenFrancois: $ETH to $2500 in April or I'm giving away 0.3 $ETH to someone who retweets this.",4150,6184
1377122961514057732,"2021-03-31T04:57:54Z","@crypto_rand @EthernityChain It's already pumped hard. I'm looking into @polkaswitch to find out the next one from their platform. Polkaswitch is building the ideal DEX aggregator for all Defi and NFTs based on eth &amp; dot Blockchain. https://t.co/UbEecRXW3p",73,53
1377122951279964160,"2021-03-31T04:57:51Z","No, those aren’t flaws. They are security features. Security features that clones throw away. $ETH #cryptocurrencies",0,0
1377122932351066120,"2021-03-31T04:57:47Z","RT @QuintenFrancois: $ETH to $2500 in April or I'm giving away 0.3 $ETH to someone who retweets this.",4150,6184
1377122928739852288,"2021-03-31T04:57:46Z","RT @scoinaldo: $ETH to 3k USD in April or I’ll delete this tweet.",3154,229
1377122918023405568,"2021-03-31T04:57:44Z","@JanusJanus16 Yeah this was a big scam, I think ETH was 200$ when I fell for this scam... They are set for life",1,0
1377122911069212683,"2021-03-31T04:57:42Z","RT @QuintenFrancois: $ETH to $2500 in April or I'm giving away 0.3 $ETH to someone who retweets this.",4150,6184
1377122898930900995,"2021-03-31T04:57:39Z","This sentiment is bang on - EVERYONE who does DD on $FSN buys a bag - the no brainer of no brainers #FusionProtocol   $ela $ftm $xrp $ltc $ada $xmr $trx $btc $eth $zil $bch $vet $link $dot $xlm $eos $nem $rune $ren $uni $sushi $dai https://t.co/wW8kuKwy1F",16,5
1377122880962453519,"2021-03-31T04:57:35Z","$eth gas fees are bogus right now",0,0
1377122873563774976,"2021-03-31T04:57:33Z","To answer the “and what about ETH” questions... Original protocols with real cash flows and moats have a shot. There will be some fantastic value play opportunities in the next bear.",68,2
1377122869994348545,"2021-03-31T04:57:32Z","Let it ride. #Ethereum #ETH https://t.co/WILWPsjnGe",0,0
1377122869239447557,"2021-03-31T04:57:32Z","RT @QuintenFrancois: $ETH to $2500 in April or I'm giving away 0.3 $ETH to someone who retweets this.",4150,6184
1377122863040266242,"2021-03-31T04:57:30Z","RT @QuintenFrancois: $ETH to $2500 in April or I'm giving away 0.3 $ETH to someone who retweets this.",4150,6184
1377122856304209926,"2021-03-31T04:57:29Z","Win #NFT worth ETH!  To WIN You MUST:    1.) Follow @degenasaurus  2.) RT tweet BELOW + comment it  3.) OPTION -&gt; Join Discord post name in twitter comp channel: https://t.co/alAVVDlyQu  NFT: https://t.co/l37pUrR6Y3  Luck!!  @coinkit_ mon 35 1000 BTC  https://t.co/wFeOut8N85",116,856
1377122852902608899,"2021-03-31T04:57:28Z","Genuinely curious if Art Twitter is going to boycott Paypal now..??? This is exponentially more environmentally damaging than NFTs because not only is Ethereum supported, but so is Bitcoin, which has 4x the emissions of ETH. What alternative platforms can independent artists use? https://t.co/zek7xyXwqL",1602,473
1377122851484921861,"2021-03-31T04:57:28Z","Slow 97 | Normal 100 | Fast 108 | Instant 124 👈 current Ethereum gas prices in gwei. DM me a price and I will DM you as soon as gas drops below that price 👍 #Ethereum #GasPrice #ETHGasPrice #ETH",0,0
1377122844753027072,"2021-03-31T04:57:26Z","Time for WitLink Token #Airdrop!  ✔️ Start the Airdrop bot: https://t.co/8HDV9cCJse  Complete the tasks to earn  Get 10 WAI ($2.5) + Get 4 WAI ($1) For Each Valid Refer   #ETH #BTC #WAI #LINK #Airdrops",1478,1424
1377122833331982343,"2021-03-31T04:57:23Z","RT @QuintenFrancois: $ETH to $2500 in April or I'm giving away 0.3 $ETH to someone who retweets this.",4150,6184
1377122823752183816,"2021-03-31T04:57:21Z","$RVN - 14:00 minute mark: Eye popping 🧐 @Ravencoin price potential with just $ETH miner migration.  It’s coming IMHO, it’s only a matter of when.  VERY impressed by the brainpower in the @rvn_foundation community.  @tronblack and @BitsBeTrippin are the 💣!  Lock it up! https://t.co/kxz96eSMXP",52,10
1377122822628118533,"2021-03-31T04:57:21Z","HAWT. With my partnership with @illuviumio I can give away 100 HOLOGRAPHIC Scoot Scarabok NFTs.  Similar ones have gone for 5 eth to 50 eth.  How to get -Post your ETH address + BATTLE SCOOT! below -Retweet/tag a friend -Follow @illuviumio and join their discord in bio https://t.co/xcCVVW6KdR",2754,2661
1377122809613148160,"2021-03-31T04:57:18Z","Ethereum extended its rally above the $1,800 resistance against the US Dollar. ETH price is currently correcting lower from $1,840, but it might find bids near $1,750. - Ethereum remained in a positive zone and it pumped above the $1,800 resistance. https://t.co/Zl2XX9KZsb",0,0
1377122800226328576,"2021-03-31T04:57:15Z","@udiWertheimer and kids , this is how I turned 1 btc in 33 eth and now I cant feed you .",1,0
1377122785567285252,"2021-03-31T04:57:12Z","https://t.co/sG6dX3ingI  This NFT 1/10 giveaway in 24 hours! 💥💥💥  Price 0.3 ETH =$ 550 !!!  🤝🤝🤝Follow me +@CryptoClownNft  👍 like  💪retweet   🤝two friends+ comment with your ETH wallet adress. 🙏🙏🙏 I wish everyone good luck   #NFTartist #rarible #nft https://t.co/4k1FIGVhZc",232,197
