"ID","created_at","text","like_count","rt_count"
1376632750334046210,"2021-03-29T20:29:58Z","$KIN has a triving ecosystem (most used cryptocurrency in consumer apps), SEC Clarity, only 3 coins have been named not a security by the SEC: BTC, ETH and $KIN. Growing and active community, ranked 9 on Reddits most active communities for Finance and Business. +5223% this year!",66,0
1376632749814071297,"2021-03-29T20:29:58Z","@BobAmorMusic NEW DROPS ALERTPolice cars revolving light  #014 already SOLD..   #012 #013 is available at #opensea with low prices https://t.co/5cwNZpADYk  #NFTCollectors #NFTs #crypto #cryptoart #nftart #nftdrop #nftcommunity #eth #pixelart #NFTartist #NFT   https://t.co/eEXN5YGTSE",0,0
1376632741740093450,"2021-03-29T20:29:56Z","RT @Mrbankstips: This VISA news should get ETH back above $2k https://t.co/Yu5Veg2lGH",116,0
1376632741530202114,"2021-03-29T20:29:56Z","RT @frombroke2bags: #VISA is using the #Ethereum network. The “Eth killer” FUD officially ended today.",490,0
1376632739789684736,"2021-03-29T20:29:56Z","5 Reasons why the March 31st @TenseT_io launch will be 🔥  1) 5000 ETH presale would have ended in 12 mins if ETH worked 2) HUGE interest from 🐳 in Japan &amp; Korea 🇯🇵/🇰🇷 3) I've never witnessed such fomo on any project. It's real 💯",639,0
1376632736866258947,"2021-03-29T20:29:55Z","Hi @Exeedme @Poolz__ @bepronet   What do you think about we organise  a pool Crypto party all together on #tacoswap   Join us : https://t.co/3GeT48f0tm  #crypto #defi #dex #eth #tacoswaptothemoon #tacotoken🌶",1218,0
1376632734697861131,"2021-03-29T20:29:55Z","Dear investors !   #tacoswap is on 🔥 $ 5 million staked !  It’s just the begining !  What are you waiting for to have your taco and join the adventure!  #tacotothemoon #tacotoken🌶 #defi #cryptocurrency #BinanceSmartChain #eth #btc #tacoswap @exeedme @poolz__ @bepronet",1172,0
1376632732889980930,"2021-03-29T20:29:54Z","So I moved a ton of my huge ETH holding to SPI...SPI is up 50%  What dumb luck. Gotta give some back.   Let's give away a mooncat (valued at $1000) AND $500 in SPI.  Post your eth wallet below with MEOWTH THATS RIGHT...  Tagging/rewteeting is appreciated https://t.co/VDXboLlmP0",1918,0
1376632731564662791,"2021-03-29T20:29:54Z","@mickalamasse1 @Exeedme @Poolz__ @bepronet Friends,   The futur is near...   #tacoswap is on 🔥 $ 5 million staked !  #tacotothemoon #tacotoken🌶 #defi #cryptocurrency #BinanceSmartChain #eth #btc #tacoswap @exeedme @poolz__ @bepronet",3,0
1376632731405279232,"2021-03-29T20:29:54Z","Good day for crypto $BTC, $MARA, $ETH and large tech $FB $TWTR and $BABA.   Bad day for high growth.   Added $TDOC $168, $LOTZ $7.19 and $CURI $12.89 today.",2,1
1376632726699311107,"2021-03-29T20:29:53Z","RT @IamCryptoWolf: Where all the $ETH disbelievers now ?",1212,1
1376632720219123728,"2021-03-29T20:29:51Z","RT @CryptoMaestro: BTC pumping on news that Visa using ETH for transaction settlement",869,1
1376632718927097857,"2021-03-29T20:29:51Z","@cryptotrad2moon @defi_punk @digi_banc @muneeb ETH was smart contracts platform 1st, sound money asset 2nd, now trying improve its sound money-ness by implementing monetary policy + consensus security changes.   BTC was digital gold / sound money 1st, now trying to get into complex smart contracts via L2s like Stacks.",1,0
1376632707027922946,"2021-03-29T20:29:48Z","💥 Very excited that @OKEx has listed $SKL, continuing the community momentum.   📌 https://t.co/jTBYH9gFOj #ethereum #eth #eth2 #layer2 #blockchain #crypto #defi #DAPPS #fintech #fintechnews",171,0
1376632703383175172,"2021-03-29T20:29:47Z","Hi @Exeedme @Poolz__ @bepronet   What do you think about we organise  a pool Crypto party all together on #tacoswap   Join us : https://t.co/3GeT48f0tm  #crypto #defi #dex #eth #tacoswaptothemoon #tacotoken🌶",1218,0
1376632697230098432,"2021-03-29T20:29:46Z","RT @BitAliens: What's your ETH address?  Don't ask why, just drop it below and RT 😉👽  #NFTCommunity #nftart #NFTcollectibles #NFTs",146,0
1376632695145574400,"2021-03-29T20:29:45Z","@etja16 @withFND Music with access to every sound, plus some videos, most for 0.027 ETH https://t.co/rJVxs5pcDZ",0,0
1376632692695920641,"2021-03-29T20:29:45Z","The #KINARMY gets thing done.      $KIN #KIN #Bitcoin #BTC #Ethereum #ETH #Solana #SOL #XRP #NFT #DeFi #Altcoin #alt #usd #fintech #blockchain #crypto #buythedip #gold #silver #SEC https://t.co/hMB9XwD4I0",47,0
1376632691211255808,"2021-03-29T20:29:44Z","RT @uniswaptokenbot: Pair Created! Pairs → ETH-SQRT  $ETH = 25.53b SQRT ($1,835)  $SQRT = &lt; 0.0001 ETH  Total Liquidity $2,569  https://t.c…",5,0
1376632690674434061,"2021-03-29T20:29:44Z","Dear investors !   #tacoswap is on 🔥 $ 5 million staked !  It’s just the begining !  What are you waiting for to have your taco and join the adventure!  #tacotothemoon #tacotoken🌶 #defi #cryptocurrency #BinanceSmartChain #eth #btc #tacoswap @exeedme @poolz__ @bepronet",1172,0
1376632686261985284,"2021-03-29T20:29:43Z","$DENT easy!         Follow me if you want signals like this                                                                                       $btc $eth $xrp $dot $ksm $xlm $one $Ada $neo https://t.co/DBIUXBwgEr",3,0
1376632683590213633,"2021-03-29T20:29:43Z","@SorareUsa Ochoa will probably be around 1.7-1.9 eth in 1 year",1,0
1376632682751348743,"2021-03-29T20:29:42Z","💧Roku Network Airdrop 💧  🏆 Task:          ➕  15 ROK (~$5)  👨‍👩‍👧 Referral:   ➕  3 ROK (~$1)  🔛  Airdrop Link &amp; Information: https://t.co/YhvsOcfEbH  #cryptocurrency #Crypto #Bitcoin  #BSC #BinanceSmartChain #Ethereum #ETH #Airdrop #bounty #ROK #RokuCoin #RokuNetwork",3811,0
1376632672219447302,"2021-03-29T20:29:40Z","@Wades_ETH @GOON8686 @WhaleShark_Pro Thanks for putting me on and helping create the #TimelessToken",0,0
1376632669182832642,"2021-03-29T20:29:39Z","Vote #FEGtoken❗️@FEGtoken  🚨More news coming tonight 🚨 You can buy #FEG on your Trust Wallet using #BSC  #BNB through #PancakeSwap with minimal transactions fees. #FEGex $FEG #DogeCoin #ETH #AltCoins #Crypto  #bscscan  #cryptocurrency  https://t.co/YrHEA6Yyx0 https://t.co/vwTL0NtNFW https://t.co/ymK7pPGsic",13,3
1376632667991592962,"2021-03-29T20:29:39Z","📈💶$1,000,329 $ETH LONGED @$1814.6 [29/03/21 20:29:38] 🏪FTX | ETH-PERP  🗣️That was definitely the bottom - MasterLoads",6,0
1376632667769348109,"2021-03-29T20:29:39Z","$hbar network transaction volume &amp; new account creation, just sayin’ $btc $eth https://t.co/N31fU8Q1Ag",10,3
1376632665907073033,"2021-03-29T20:29:38Z","@ChangeonsLeJeu @RodolpheSteffan Dear investors !   #tacoswap is on 🔥 $ 5 million staked !  It’s just the begining !  What are you waiting for to have your taco and join the adventure!  #tacotothemoon #tacotoken🌶 #defi #cryptocurrency #BinanceSmartChain  #eth #btc  #tacoswap @exeedme @poolz__ @bepronet",4,3
1376632663189061633,"2021-03-29T20:29:38Z","The DEX @FinanceChainge is set to launch on the @FUSIONProtocol network with over a million users on the protocols waitlist. This decentralized exchange aims to innovate on traditional models through leveraging the Fusion Network.  #BSC #BTC #ETH #BNB  https://t.co/xx55YiGfm3",21659,3
1376632640871223306,"2021-03-29T20:29:32Z","RT @JacobCanfield: everyone: I’m the eth killer  Eth: https://t.co/EBllFX8XhH",836,3
1376632635993305102,"2021-03-29T20:29:31Z","30 day EVIX: 85.8778 ETH/USD vwap: $1,809.16 04/16 expiry volume: $1,710,384.74 04/30 expiry volume: $7,175,861.59 Current time: 20:29:06",0,0
1376632627655020549,"2021-03-29T20:29:29Z","RT @duckdarryl: Visa is by far the biggest endorser of ethereum blockchain. #eth #ethereum $eth  SEND IT.",33,0
1376632624467177473,"2021-03-29T20:29:28Z","$ETH  Strong bounce on ETHBTC. Will need to see how price moves this week but a close above this zone and it'll look good. https://t.co/LSIg42AKor",0,0
1376632619245334530,"2021-03-29T20:29:27Z","RT @BitAliens: What's your ETH address?  Don't ask why, just drop it below and RT 😉👽  #NFTCommunity #nftart #NFTcollectibles #NFTs",146,0
1376632614363234308,"2021-03-29T20:29:26Z","$ETH &gt; $BTC https://t.co/CFt3ZU3b0b",1,0
1376632614069604353,"2021-03-29T20:29:26Z","The largest cross-border arbitrage seen by @CrossCoinCo at 20:28 UTC: buy #ETH for PLN on Bitbay, then transfer it to Bithumb and sell it for KRW. The arbitrage spread is 5.6%.  More: https://t.co/xEpwOSyFhm",0,0
1376632613054644229,"2021-03-29T20:29:26Z","The largest exchange premiums &amp; discounts seen by @CrossCoinCo at 20:28 UTC: #LTC vs KRW on Bithumb is trading at a 3.7% premium to USD markets; #ETH vs PLN on Bitbay is trading at a 1.8% discount to USD markets. Visit: https://t.co/xEpwOSyFhm",0,0
1376632607773970435,"2021-03-29T20:29:24Z","$HOGL 💸💰🔥🚀 to moon, Second move just about to start #crypto #cryptocurrency #cryptocurrencies #blockchains #cryptogirl $btc $eth $xrp $ada $bnb #dogecoin $hot $dot $lua $sylo $one $algo $rsr $uni $link $aave $xlm $vet $atom $tron $doge $ramp $ern $tidal $dank #nft $beam $vra https://t.co/ANNXGuvmmX https://t.co/4zDThsd4hw",4,0
1376632602354982913,"2021-03-29T20:29:23Z","The first set of Ahegao NFTs sold out in a week, so I've been working on some more which are now live at https://t.co/MAOPR2F1DH  #pixel_dailies #nft #NFTs #nftart #nftartist #crypto #blockchain #eth #ethereum #digitalart #art #value #nftcollector #hentai #ahegao https://t.co/YWPHtqTMQv",78,0
1376632599196540930,"2021-03-29T20:29:22Z","@BTCSambo &amp; just a few week prior. 🔮 $ETH 😉 https://t.co/ztRxqHAFSG",3,0
1376632597342732295,"2021-03-29T20:29:22Z","@TheEpicGameHub @jaguirre390 @sassal0x its funny but 90% of the competitors dont have 30 % of $ETH transactions on their networks , so yeah the fees are low",3,0
1376632588991930383,"2021-03-29T20:29:20Z","@karpedm55 That’s what I’m working on.  I got 700 staked.  Bought 75 yesterday. Sure wish i listened in Dec bought at 5$. Thought I was too late till I read everything.  12 was cheap then.  Just like 18 yesterday.  Enough said.  #luna  I sold my snx now eyeing my eth, dot and even link. 💎 https://t.co/6o5eNNb6WI",6,1
1376632584839516160,"2021-03-29T20:29:19Z","RT @BitAliens: What's your ETH address?  Don't ask why, just drop it below and RT 😉👽  #NFTCommunity #nftart #NFTcollectibles #NFTs",146,1
1376632579357601793,"2021-03-29T20:29:18Z","Welcome to massive Q DAO airdrop!   1. go now to telegram https://t.co/COyXgODY1z   2. Stay in telegram chat and wait announcement.  3. HOLD this gem until 10x   (soon - QDAO launch cross-chain for BSC, Polkadot and ETH)",4254,1
1376632575935057925,"2021-03-29T20:29:17Z","Hi everybody joined my compagny in #tacoswap is on 🔥 $ 5 million staked ! FIVE MILLION DOLLARS What are you waiting for to have your TACOTOKEN ? I DON'T UNDERSTAND.. #tacotoken🌶 #defi #cryptocurrency #BinanceSmartChain #eth #btc #tacoswap @exeedme @poolz__ @bepronet JOINED ME",63,1
1376632574995542018,"2021-03-29T20:29:17Z","Dear investors !   #tacoswap is on 🔥 $ 5 million staked !  It’s just the begining !  What are you waiting for to have your taco and join the adventure!  #tacotothemoon #tacotoken🌶 #defi #cryptocurrency #BinanceSmartChain #eth #btc #tacoswap @exeedme @poolz__ @bepronet",1172,1
1376632573716271113,"2021-03-29T20:29:16Z","@mrjeffhsiao @deMelloGroup @ETH_en Woohoo! Here’s to first of many :)",2,0
1376632572537528321,"2021-03-29T20:29:16Z","Why are the eth bros so territorial about their coin man 😂 theirs enough moneys in this game for all of us to prosper it cost like 100 dollars in GAS FEES just to buy a 5 dollar coffee with eth 🤡.",0,0
1376632571761729540,"2021-03-29T20:29:16Z","@800HotSauce @GreekTycoon_ Been asking this question to myself for days. Im a vfx artist for the industry with emmy awards for vfx... yet ive sold a single piece for .03 eth. What is high end....",1,0
1376632562685259779,"2021-03-29T20:29:14Z","So I moved a ton of my huge ETH holding to SPI...SPI is up 50%  What dumb luck. Gotta give some back.   Let's give away a mooncat (valued at $1000) AND $500 in SPI.  Post your eth wallet below with MEOWTH THATS RIGHT...  Tagging/rewteeting is appreciated https://t.co/VDXboLlmP0",1918,0
1376632546646188036,"2021-03-29T20:29:10Z","Hi @Exeedme @Poolz__ @bepronet   What do you think about we organise  a pool Crypto party all together on #tacoswap   Join us : https://t.co/3GeT48f0tm  #crypto #defi #dex #eth #tacoswaptothemoon #tacotoken🌶",1218,0
1376632538165354499,"2021-03-29T20:29:08Z","The Ethereum Fractal You Have Got To See #UX #ethereum via https://t.co/iWAHge7rvy https://t.co/l6nacaLi5b",0,0
1376632533622910985,"2021-03-29T20:29:07Z","RT @carlosmarcialt: Decentralized access to capital is the most revolutionary thing any of us will ever witness during the XXI century. #bt…",31,0
1376632532804993028,"2021-03-29T20:29:07Z","You literally have to take a deep dive to comprehend the shere size of #FusionProtocol ecosystem...  🧜‍♂️ Suit up &amp; #DYOR ⤵️ https://t.co/nyfxx07CKu  https://t.co/dFkaqIf5W1  #defi #dcrm #finance #fsn #any #chng #nft #ecb #crypto #CHNgo #btc #eth #frc758 #timelock #ALTSEASON https://t.co/1wW0vpI9ch",17,7
1376632526006013954,"2021-03-29T20:29:05Z","@brendanlane00 I agree, but isn't that an argument for ETH since the ethereum network is accruing massive amounts of innovative projects and locked value, even outside the price appreciation of its native asset?",0,0
1376632518191943680,"2021-03-29T20:29:03Z","RT @BitAliens: What's your ETH address?  Don't ask why, just drop it below and RT 😉👽  #NFTCommunity #nftart #NFTcollectibles #NFTs",146,0
1376632514442301444,"2021-03-29T20:29:02Z","I finally reloaded my wallet and I’m ready to spend some #ETH!  What #NFTs should I buy next?  Link me your favorites!  #NFT #nftcollector #NFTCommunity #nftart",349,0
1376632509555896320,"2021-03-29T20:29:01Z","RT @BitAliens: What's your ETH address?  Don't ask why, just drop it below and RT 😉👽  #NFTCommunity #nftart #NFTcollectibles #NFTs",146,0
1376632507182022657,"2021-03-29T20:29:00Z","@mickalamasse1 @Exeedme @Poolz__ @bepronet #tacotothemoon #tacotoken🌶    #eth #btc #tacoswap  @exeedme @poolz__ @bepronet @binance @hatimo8 @cz_binance @CoinMarketCap @coingecko   i'm in and i hold 💪TACOTOTHEMOON",14,0
1376632505860767750,"2021-03-29T20:29:00Z","Latvian @airBaltic has started accepting payment with #Ether ($ETH) and #Dogecoin ($DOGE). Airline passengers have been making crypto payments since 2014. The company has already sold tickets for $BCH, $USDC, $BUSD, $GUSD and $PAX.",0,0
1376632499594436610,"2021-03-29T20:28:59Z","Wt do we have here?!  $MRPH  $ETH $BTC ethereum bitcoin cryptocurrency $DOT $XMR $UBT $EWT $OCEAN $TRAC $VET https://t.co/9N64o7tA9h supply chain #FCL #coke FEMSA SENASA #Bayer iot ML AI LITS https://t.co/nxqOQfz3Ki",17,0
1376632486856376327,"2021-03-29T20:28:56Z","🚨 NFT GIVEAWAY 🖼   How to get your  FREE jasper york NFT:   1) Drop your ETH address below👇  2) ❤️ This 3) Retweet ♻️  ✨ First come first serve ✨  Enjoy your jasper ☺️ 💕  #NFTCommunity #nftcollector #NFTartist #NFT #NFTart #NFTgiveaway #crypto #Ethereum #NFThypesquad https://t.co/MayseiqpV9",140,0
1376632485006745620,"2021-03-29T20:28:55Z","@KuddlesK @NftWonder @NFT_Hyperspace Music with access to every sound, plus some videos if you interested in, most items for 0.027 ETH, cheers ! https://t.co/rJVxs5pcDZ",1,0
1376632479650549761,"2021-03-29T20:28:54Z","@MMCrypto So what, fuck off showing off your wealth. #bitcoin #Ethereum #dogecoin #polkadot #DeFi #Binance #Chainlink $link $btc $eth $dot",0,0
1376632478891319298,"2021-03-29T20:28:54Z","I finally reloaded my wallet and I’m ready to spend some #ETH!  What #NFTs should I buy next?  Link me your favorites!  #NFT #nftcollector #NFTCommunity #nftart",349,0
1376632476399992838,"2021-03-29T20:28:53Z","What groupthink does to you...  The ETH maxis think BTC has lost and is a shadow of its former self.   The BTC maxis think ETH is a useless scam.  The Reality: Both systems are finding use cases and thriving at ATH's. https://t.co/JVUrgtMpyd",637,0
1376632475372331009,"2021-03-29T20:28:53Z","Very proud and grateful to announce my debut piece with @withFND ! 🕊  .3 ETH  Celestial Dawn | Rise   Beings of light having first contact. 1 being that fell from grace, going against sovereignty, to create a forbidden bond  This signifies the beginning.  https://t.co/tDuC7eql3X https://t.co/7MXhVhCAFt",61,0
1376632468476952577,"2021-03-29T20:28:51Z","We know your #NFT art should speak for itself, but not everyone who makes great art is also a great marketer or sales person. We are trying to highlight both proven and unproven #NFTartists.  Share your art below and we'll try and pick one under .5 ETH and buy it / interview you.",363,0
1376632465649979397,"2021-03-29T20:28:51Z","Memento mori: #1/13  https://t.co/uiPchktvlJ  #nft #cryptoart #nftartist #ethereum #cryptoartist #blockchain #nftcards #cryptoworld #tradingcards #nonfungibletoken #crypto #bitcoin #eth #opensea #demon #nftgold #nftart #futures #nftart #hlebdonskov #nftart #nftcollectors #NFTsale https://t.co/5yKgD687t4",0,0
1376632460763627534,"2021-03-29T20:28:49Z","@mickalamasse1 @Exeedme @Poolz__ @bepronet welcome aboard the rocket🚀🚀 to the moon🌖🌖 #tacoswaptothemoon #tacoswap #crd #DeFi #Binance #eth #Ethereum #btc @mickalamasse1 🌶🇫🇷🇪🇺🇺🇸🇷🇺🇩🇿🌍🌎🌏🌶 https://t.co/PMlzmIqgze",21,0
1376632460667101184,"2021-03-29T20:28:49Z","So I moved a ton of my huge ETH holding to SPI...SPI is up 50%  What dumb luck. Gotta give some back.   Let's give away a mooncat (valued at $1000) AND $500 in SPI.  Post your eth wallet below with MEOWTH THATS RIGHT...  Tagging/rewteeting is appreciated https://t.co/VDXboLlmP0",1918,0
1376632458364518406,"2021-03-29T20:28:49Z","@GregFromCos @BrianRoemmele Any of my friends that could provide infirmation/data on this quistion?  #btc #eth #DeFi",1,0
1376632454052786184,"2021-03-29T20:28:48Z","Made a sale ♥️ so reinvesting that $ETH in another NFT. I'm in the market! Please share your NFT's with me. I'll also retweet. #support   #nftcollector #NFTshill #NFTCommunity #NFTs",324,0
1376632453067071493,"2021-03-29T20:28:48Z","@TheSeanNance Ahhhhh yes!!!!! Eth and Luna!!!",0,0
1376632448470167560,"2021-03-29T20:28:46Z","@PepeXBT Like 5 to 10 ETH?",1,0
1376632448226881536,"2021-03-29T20:28:46Z","RT @Cointelegraph: If bulls secure a daily close above $58,000, altcoins and BTC could make a run at new all-time highs. https://t.co/W4w7n…",166,0
1376632446477770752,"2021-03-29T20:28:46Z","@engineers_feed Pretty close to zero as ETH takes the lead and does everything that BTC does (but better) and also does a bunch of other stuff that BTC doesn't",55,0
1376632438575693826,"2021-03-29T20:28:44Z","While $DOT, $ADA, $EGLD and others rightfully compete to be the next $ETH L1, $DAG will supplant $BTC as the de facto digital store of value. Yes, that means becoming the institutional hedge to USD.  Skeptical? Take up my challenge and read Tokenomics V2.  https://t.co/XDGocKpv1a",36,0
1376632432120770569,"2021-03-29T20:28:43Z","Visa using USDC is better for ALGO and XLM than ETH",0,0
1376632430887628809,"2021-03-29T20:28:42Z","RT @BitAliens: What's your ETH address?  Don't ask why, just drop it below and RT 😉👽  #NFTCommunity #nftart #NFTcollectibles #NFTs",146,0
1376632428723322893,"2021-03-29T20:28:42Z","@cryptotrad2moon @a3voices @u_Peng_Fei @TylerDurden @Visa Nobody ever even mentjoned flipping Ethereum. But you can’t Ignore Algorand XRP etc, even Flare while Eth 2.0 is still in the works",1,0
1376632424579338247,"2021-03-29T20:28:41Z","Visa is using etherium already.",1,0
1376632423761469443,"2021-03-29T20:28:41Z","@crypt0fungus I just wanna say a few things about #htmlcoin $html.  - #Nft - #Dapps - #DeFi - #althash  - Extremely low #gasvalue - 100% possible for a $eth replacement - Price extremely undervalued  - 7 years on the market, still progressing - At least x100 (I’ll keep it unpretentious)  🚀🔥",22,0
1376632421324627969,"2021-03-29T20:28:40Z","We know your #NFT art should speak for itself, but not everyone who makes great art is also a great marketer or sales person. We are trying to highlight both proven and unproven #NFTartists.  Share your art below and we'll try and pick one under .5 ETH and buy it / interview you.",363,0
1376632419378429955,"2021-03-29T20:28:40Z","So I moved a ton of my huge ETH holding to SPI...SPI is up 50%  What dumb luck. Gotta give some back.   Let's give away a mooncat (valued at $1000) AND $500 in SPI.  Post your eth wallet below with MEOWTH THATS RIGHT...  Tagging/rewteeting is appreciated https://t.co/VDXboLlmP0",1918,0
1376632415473573889,"2021-03-29T20:28:39Z","@CyberBuckridge Newly minted FF7 themed stamp!  First of many.  Bidding starts at .03 eth.  https://t.co/DLKbbQTF4M #ff7 #cryptoart #NFTs",0,0
1376632401615462404,"2021-03-29T20:28:35Z","@FeltZine https://t.co/I1d9MYyFNb  @KnownOrigin_io  Art by @_kenaim  #cryptoart #NFT #cryptoartist #ETH",2,0
1376632401166802945,"2021-03-29T20:28:35Z","@mickalamasse1 @Exeedme @Poolz__ @bepronet Dear investors !   #tacoswap is on 🔥 $ 5 million staked !  It’s just the begining !  What are you waiting for to have your taco and join the adventure!  #tacotothemoon #tacotoken🌶 #defi #cryptocurrency #BinanceSmartChain #eth #btc #tacoswap  @exeedme   @poolz__   @bepronet",10,0
1376632394959122432,"2021-03-29T20:28:34Z","Are you a $Kin whale?  One word:  accumulate.  #Kin #NFTs #DeFi #btc #bitcoin #solana #bch #usd #xrp #eth #price #crypto #ltc #fintech #blockchain #buythedip https://t.co/4ZQESVHLfz",57,0
1376632394745253892,"2021-03-29T20:28:34Z","The is ZERO XRP in this article Jay Clayton..  Institutional bitcoin firm One River Digital is backed by billionaire hedge fund manager Alan Howard and has invested $600 million in bitcoin and ether (ETH, +8.18%) for institutional clients.  https://t.co/bBRKUei14R via @coindesk",58,0
1376632392270643203,"2021-03-29T20:28:33Z","Without Bitcoin's energy consumption pitfalls, Ethereum may boast higher levels of decentralization, security and efficiency.  @christine_dkim and @benjaminion_xyz explore the development of Ethereum's journey to PoS.  New episodes every Thursday: https://t.co/yBvAtPEIIo https://t.co/yHkjW4DDwh",203,0
1376632368937627649,"2021-03-29T20:28:28Z","RT @JacobCanfield: everyone: I’m the eth killer  Eth: https://t.co/EBllFX8XhH",836,0
1376632361106997249,"2021-03-29T20:28:26Z","The first set of Ahegao NFTs sold out in a week, so I've been working on some more which are now live at https://t.co/MAOPR2F1DH  #pixel_dailies #nft #NFTs #nftart #nftartist #crypto #blockchain #eth #ethereum #digitalart #art #value #nftcollector #hentai #ahegao https://t.co/YWPHtqTMQv",78,0
1376632358506487820,"2021-03-29T20:28:25Z","🔄 Prices update in $EUR (1 hour):  $BTC - 48708.5  € (-0.42 %) $ETH - 1533.52  € (-0.72 %) $DOT - 28.85  € (+0.04 %) $ADA - 1.02  €  (-0.44 %)  #BTC #ETH #DOT #ADA #Crypto #Bitcoin",0,0
1376632356962934787,"2021-03-29T20:28:25Z","🏆 Follow us &amp; Retweet this tweet, Specify the ETH address in the tweet comment to get 10 #BIT ($10 worth) or 50 #BIT ($50 worth) #BitScores Airdrop Tokens! 🎁 $250,000 Prize Pool Full rules: https://t.co/N53M5nRXr9  #giveaway #airdrops #bounty #giveaways #defi #eth #btc #airdrop https://t.co/m77hDtRsBv",3577,0
1376632354307969025,"2021-03-29T20:28:24Z","@CryptoStewiee Token:  GLYPH token $GLY (soon on #uniswap), join at Discord via the following invite and get familiar with the token   https://t.co/4IGwgL2uPR   Coin:  @ElectraProtocol $XEP  $XEP #logistics #SupplyChain #erc20 #transport #eth #XEP #shipping #packaging #eth #BTC",1,0
1376632349618810885,"2021-03-29T20:28:23Z","Hello everyone!🧊  We can finally share with all of you our $ICE contract address!⛓️  The address is: 0xf16e81dce15b08f326220742020379b855b87df9  It is the same for FTM, BSC and ETH.  Add $ICE to your Metamask and be ready, airdrops are coming soon!🪂",481,0
1376632345206349828,"2021-03-29T20:28:22Z","So I moved a ton of my huge ETH holding to SPI...SPI is up 50%  What dumb luck. Gotta give some back.   Let's give away a mooncat (valued at $1000) AND $500 in SPI.  Post your eth wallet below with MEOWTH THATS RIGHT...  Tagging/rewteeting is appreciated https://t.co/VDXboLlmP0",1918,0
1376632340357636098,"2021-03-29T20:28:21Z","The DEX @FinanceChainge is set to launch on the @FUSIONProtocol network with over a million users on the protocols waitlist. This decentralized exchange aims to innovate on traditional models through leveraging the Fusion Network.  #BSC #BTC #ETH #BNB  https://t.co/xx55YiGfm3",21659,0
1376632336171819009,"2021-03-29T20:28:20Z","Visa just announced they're using Ethereum as a settlement layer.  Ethereum.  ETHEREUM.  Visa will be paying ETH holders to use the network.  Lol this is so bullish for ETH and this market is still too dumb to understand it.  ETH under $2000 is hilarious.",3684,0
