"ID","created_at","text","like_count","rt_count"
1376859243681353728,"2021-03-30T11:29:59Z","40 hours until Main Net 🚀  40 of the most popular tokens will be available across $ETH and BSC chains, including $BTC, $ETH, $LINK, $DOT, $ADA, $YFI, $UNI, $OMG, $GRT, $BNB, and $XRP.  Via complex swap, #OrionTerminal will have 1,500+ pairs via unique cross-pair functionality. https://t.co/QAOfl6Z1wn",743,235
1376859226027397125,"2021-03-30T11:29:54Z","CryptoAnime #NFT #giveaway!  To be eligible to participate in this #NFTgiveaway you must:  1) Follow us, like our last 3 tweets and retweet them. 2) Tag 3 friends in the comments of this tweet 3) Post your $ETH #Ethereum address in comments  We'll pick a lucky winner on 15 April! https://t.co/OixVzImfrn",144,109
1376859220860153857,"2021-03-30T11:29:53Z","Excited to see Visa building on the $ETH Blockchain.  Also excited to wait 45 minutes for my Mc Donald’s transaction to go through along with the £90 gas bill attached 😂",2,0
1376859220713250816,"2021-03-30T11:29:53Z","Welcome to massive Q DAO airdrop!   1. go now to telegram https://t.co/COyXgODY1z   2. Stay in telegram chat and wait announcement.  3. HOLD this gem until 10x   (soon - QDAO launch cross-chain for BSC, Polkadot and ETH)",4218,6165
1376859218083422209,"2021-03-30T11:29:53Z","The Crowned King  @Bosslogic x @francis_ngannou   Bidding has reached  Ξ55.15 ETH ($100,000 USD) from #EgglestonEmporium  1 of 1 ends in just one hour!!  👇👇 https://t.co/GvdbcTrHdU  #NFT #CryptoArt https://t.co/VM4ltVpZY0",132,30
1376859209430671360,"2021-03-30T11:29:50Z","RT @krugman25: $ETH $BTC https://t.co/FsM5WjRImh",1235,115
1376859192695218177,"2021-03-30T11:29:47Z","#DeGate unique initial Social Media token offering:📣  To honor contributors to Crypto Assets on social media, DeGate offers an early opportunity to buy DG tokens at a preferential rate. 10 m DG tokens at $0.005  Start ➡️ March 29  https://t.co/5gPWIBwZea  #ETH #BTC #DeFi https://t.co/2qpuVZGJKm",1751,1359
1376859191395053571,"2021-03-30T11:29:46Z","*Giveaway Easter*  One lucky spirit will get this 1/1 Moon Lighter - 1.8 ETH ~$3200  1. Follow us 2. RT/share this post 3. Tag 2 friends  Winner selected Sunday 04/04  #NFT #Giveaway #nftart #cryptoart #NFTCommunity #NFTGiveaway #nftcollector #nfts   https://t.co/3hZH3GC6nh",88,81
1376859191139201029,"2021-03-30T11:29:46Z","The DEX @FinanceChainge is set to launch on the @FUSIONProtocol network with over a million users on the protocols waitlist. This decentralized exchange aims to innovate on traditional models through leveraging the Fusion Network.  #BSC #BTC #ETH #BNB  https://t.co/xx55YiGfm3",21536,13658
1376859187645444101,"2021-03-30T11:29:45Z","@mayazi @MarcHochstein It’s a treasury play, and IMHO a very clever one, betting they can play the market better than average person and I’m sure they are right.  My ETH isn’t sold to pay merchant.  I buy a book for $10 in ETH. PayPal deduct from “my” ETH. Then they use their USD to pay the merchant.",1,0
1376859175612002307,"2021-03-30T11:29:42Z","$KAVA Facing Resistance RN, Flip 6.6 Range and it'll moon!🚀  BIP[Bullish Index Point]: 4/10  Join Team Professor For More! 👇👇 https://t.co/gR4adw5zum  $BTC $ETH $LINK $DOT $SXP $BNB $AAVE $KAVA $CRV $XRP $ALGO $WAVES $YFI $OMG $SRM $BAND https://t.co/BamIvtHWPk",4,3
1376859172571086849,"2021-03-30T11:29:42Z","We are happy to announce a new partnership with @dmarket_com, making buying and selling in-game assets a whole lot easier 🎉  Coinify Deposits make it easy and effortless to deposit funds to your account in #ETH and #LTC - so you can spend your time grinding for loot instead 😎 https://t.co/Kr5F5VG72v",7,0
1376859162529959938,"2021-03-30T11:29:39Z","@unclebobcrypto @DefiOracle @CryptoR0ller @Nick31903348 @kevstar121 @PapeStacka @99PerCentToken @BlakeJuniour $DOT is a proper banger and $DOT based projects are even banger-er(uhm.. not sure if that's how it's spelled lol ?)  $POLK is a $dot powered prediction market currently on eth. take a look, it's kinda cool what they're doing. https://t.co/CdwaU2OhTd",0,0
1376859155349139457,"2021-03-30T11:29:38Z","Innovative automated World-class crypto trading bot platform https://t.co/ElNRyGOLL6 #btc #bitcoin #usd # #암호화폐 #암호화폐거래소 #투자 #재테크 #금융 #비트코인 #bitcoin #btc #이더리움 #ethereum #eth #crypto #cryptocurrency #gate #gateio #gatekr #gatechain",0,0
1376859143626235906,"2021-03-30T11:29:35Z","🆕 NEW ATH FOR $FEG ‼️  🔹Join the community: @FEGtoken  #Crypto #CryptoNews #Cryptocurrency #DeFi #FEG #FEGarmy #FegEx #bsc #eth #Binance #Bitcoin https://t.co/tsvb5sw3ux",162,61
1376859142338572288,"2021-03-30T11:29:34Z","RT @JimmyRagosa: Hi, I'm Jimmy. I outperform this dude by buying ETH once per month since 2015 on my Moto g4.",1683,110
1376859141054992384,"2021-03-30T11:29:34Z","I hope the price coin = ETH soon https://t.co/tHCznGaDy9",0,0
1376859132930625547,"2021-03-30T11:29:32Z","@Nftart3 I recently dropped the price to 0.1 ETH only✨ https://t.co/4MEWjfnHO8",4,0
1376859121874505728,"2021-03-30T11:29:30Z","30 day EVIX: 90.3059 ETH/USD vwap: $1,838.41 04/16 expiry volume: $2,206,523.76 04/30 expiry volume: $6,117,007.00 Current time: 11:29:04",0,0
1376859115645898757,"2021-03-30T11:29:28Z","Welcome to massive Q DAO airdrop!   1. go now to telegram https://t.co/COyXgODY1z   2. Stay in telegram chat and wait announcement.  3. HOLD this gem until 10x   (soon - QDAO launch cross-chain for BSC, Polkadot and ETH)",4218,6165
1376859107936903170,"2021-03-30T11:29:26Z","40 hours until Main Net 🚀  40 of the most popular tokens will be available across $ETH and BSC chains, including $BTC, $ETH, $LINK, $DOT, $ADA, $YFI, $UNI, $OMG, $GRT, $BNB, and $XRP.  Via complex swap, #OrionTerminal will have 1,500+ pairs via unique cross-pair functionality. https://t.co/QAOfl6Z1wn",743,235
1376859104652705797,"2021-03-30T11:29:26Z","Latvia’s flag air carrier, AirBaltic now announced to accept digital assets, including Ether (ETH), Dogecoin (DOGE) and Bitcoin Cash (BCH). In 2014, it was the first to accept payments in crypto, with the newly added token options, it now has a total of eight cryptocurrencies as https://t.co/YgUoWZi9Gp",2,1
1376859102429773829,"2021-03-30T11:29:25Z","@ai_uehara_ex how many ETH do you have？",0,0
1376859098575216640,"2021-03-30T11:29:24Z","Don't forget to join our Tournaments🏆 1) Go to https://t.co/9KaGXtEtaX 2) Join one of the many tournaments 3) Make some predictions 4) Earn $ETH  #Play2Earn #NFTs #Ethereum #Crypto https://t.co/pMGlPtEvz7",16,11
1376859095836200973,"2021-03-30T11:29:23Z","*Giveaway Easter*  One lucky spirit will get this 1/1 Moon Lighter - 1.8 ETH ~$3200  1. Follow us 2. RT/share this post 3. Tag 2 friends  Winner selected Sunday 04/04  #NFT #Giveaway #nftart #cryptoart #NFTCommunity #NFTGiveaway #nftcollector #nfts   https://t.co/3hZH3GC6nh",88,81
1376859087711969280,"2021-03-30T11:29:21Z","#dailyFEG Sunday, 28 March 2021 Where to buy: $FEG #ETH at @Uniswap @1inchExchange $FEG #BSC at @PancakeSwap  #FEG #FEGex #FEGtrack #altcoin #altseason #blockchain #BNB #BTC #crypto #cryptonews #cryptoworld #cryptoinvestor #cryptotrader #DeFi #ERC20 #BEP20 #HODL #NFT #ToTheMoon https://t.co/HxLRhf59dS",91,48
1376859087204315138,"2021-03-30T11:29:21Z","Time for WitLink Token #Airdrop!  ✔️ Start the Airdrop bot: https://t.co/8HDV9cCJse  Complete the tasks to earn  Get 10 WAI ($2.5) + Get 4 WAI ($1) For Each Valid Refer   #ETH #BTC #WAI #LINK #Airdrops",1478,1424
1376859086948597760,"2021-03-30T11:29:21Z","Latvia’s flag air carrier, AirBaltic now announced to accept digital assets, including Ether (ETH), Dogecoin (DOGE) and Bitcoin Cash (BCH). In 2014, it was the first to accept payments in crypto, with the newly added token options, it now has a total of eight cryptocurrencies as https://t.co/YgUoWZi9Gp",2,1
1376859084599689222,"2021-03-30T11:29:21Z","Welcome to massive Q DAO airdrop!   1. go now to telegram https://t.co/COyXgODY1z   2. Stay in telegram chat and wait announcement.  3. HOLD this gem until 10x   (soon - QDAO launch cross-chain for BSC, Polkadot and ETH)",4218,6165
1376859070452301825,"2021-03-30T11:29:17Z","Is amazing to see how this project has been out since Dec 2020 and so far Liquidity Providers have earned about 6533.78 $ETH and that is the total value of $10.6 Million dollars. 💪  Also the APY doing 301.35% which is amazing.  #DeFi #UniSwap #BSC #SmartContract #Ethereum https://t.co/9a7rgyoMpE",2385,2476
1376859049539612674,"2021-03-30T11:29:12Z","$GRT Looking Bullish af here but I'll wait for ema retest, anything around 1.7 will be a good buy, we'll see how it goes!  Join Team Professor For More! 👇👇 https://t.co/gR4adw5zum  $BTC $ETH $LINK $DOT $SXP $BNB $AAVE $KAVA $CRV $XRP $ALGO $WAVES $YFI $OMG $SRM $BAND https://t.co/sCy2Ol1FH6",6,4
1376859043751370753,"2021-03-30T11:29:11Z","RT @zhusu: Next key lvls are 72k / 100k on $BTC  And 2.5k / 4k on $ETH",3569,435
1376859043633848331,"2021-03-30T11:29:11Z","I'll send $300 in #ETH or #BTC to one person who retweets this and follows @bud_crypto. Must complete these tasks:  1 - Like/RT his pinned tweet  2 - Must RETWEET &amp; LIKE 4 of his tweets  Ends in 72 hours!",1210,1759
1376859041603977220,"2021-03-30T11:29:10Z","Hades -into the Underworld /animation @withFND   Price 0.4 ETH  https://t.co/QOIHW6cInB  #NFT #nfts #nftcollector #nftcollectors #NFTartist #NFTartists #nftdrop #animation #sculpt #Crypto #cryptoart #nftcommunity https://t.co/Ndt7zTLu0I",26,4
1376859025250381825,"2021-03-30T11:29:07Z","Way back in Apr 2019 Ocean Protocol @oceanprotocol released a blog post entitled “Ocean Protocol + Chainlink Integration”  https://t.co/irsVdtPAdx   Well @Chainlink just created an OCEAN / ETH price feed.  Isn’t it great to see early promises finally turning into reality https://t.co/bgUBhUdtFt",107,16
1376859023140610055,"2021-03-30T11:29:06Z","@TylerDurden @Visa Eth 2.0 will change all that.",0,0
1376859021081186308,"2021-03-30T11:29:06Z","@janetmachuka_ I did mechanical engineering and lecturer but today I'm a Guru of digital currency  earning thousands of cash.... I'm a investor for big guys in kenya I sell USDT BTC ETH and Filcoin  this place is awesome  DM me for more Info @janetmachuka_  retweet for me https://t.co/5AN3Eb1DPA",0,0
1376859014965829633,"2021-03-30T11:29:04Z","Breaking: Clayton joins One River Asset Management ~ a pivotal Bitcoin player late 2020 by scooping up $600 million in BTC and ETH. The firm said it expected to own roughly $1 billion worth of BTC and Ether (ETH) by the first half of 2021. @JohnEDeaton1 @attorneyjeremy @FilanLaw",678,151
1376859009093894146,"2021-03-30T11:29:03Z","‼️🚀 MINEREUM TO BE LAUNCHED ON BINANCE SMART CHAIN 🚀‼️  👉 All Details here: https://t.co/qCqgOaq9WE  $MNE $ETH #Ethereum $BSC #cryptos #altcoins #crypto $EOS $TRON $TRX $HEX #HEX #bitcoin $BTC #BNB #BSC #BinanceSmartChain $BNB",241,145
1376859004954046465,"2021-03-30T11:29:02Z","Welcome to massive Q DAO airdrop!   1. go now to telegram https://t.co/COyXgODY1z   2. Stay in telegram chat and wait announcement.  3. HOLD this gem until 10x   (soon - QDAO launch cross-chain for BSC, Polkadot and ETH)",4218,6165
1376858974490927107,"2021-03-30T11:28:54Z","The account is sponsored by #Maanky 🐵 #BTC #Bitcoin #ETH #FOREX ForexLive European FX news wrap: Keep calm and steepen on https://t.co/JmsAelqTwJ",0,0
1376858973924564998,"2021-03-30T11:28:54Z","Time for WitLink Token #Airdrop!  ✔️ Start the Airdrop bot: https://t.co/8HDV9cCJse  Complete the tasks to earn  Get 10 WAI ($2.5) + Get 4 WAI ($1) For Each Valid Refer   #ETH #BTC #WAI #LINK #Airdrops",1478,1424
1376858961106755587,"2021-03-30T11:28:51Z","Time for WitLink Token #Airdrop!  ✔️ Start the Airdrop bot: https://t.co/8HDV9cCJse  Complete the tasks to earn  Get 10 WAI ($2.5) + Get 4 WAI ($1) For Each Valid Refer   #ETH #BTC #WAI #LINK #Airdrops",1478,1424
1376858954064666625,"2021-03-30T11:28:50Z","Every 10 seconds a new $FREE coin blockchain wallet is created (most on #BSC, others on #ETH and #TronNetwork ) 🚀  This is a clear and objective indication of the accelerated adoption of the $FREE coin ❤️  @binance @BinanceResearch @BinanceChain @cz_binance @bepalliance https://t.co/zLRntXqfUQ",431,199
1376858939485208576,"2021-03-30T11:28:46Z","Unusual #volume spike in $MATIC/USD  104 times the average volume in $MATIC - $USD pair  #FTX #crypto $crypto #BTC $BTC #ETH $ETH #LTC $LTC #DOGE $DOGE  Don't have an FTX account? Create one for free (5% off on fee) https://t.co/q3F4YZFC9b https://t.co/xSOuPPQowK",13,1
1376858930232619015,"2021-03-30T11:28:44Z","$CELR Should Bounce From Here Right?👀 Each &amp; Every Opinions Will Be Appreciated!  Join Team Professor For More! 👇👇 https://t.co/gR4adw5zum  $BTC $ETH $LINK $DOT $SXP $BNB $AAVE $KAVA $CRV $XRP $ALGO $WAVES $YFI $OMG $SRM $BAND https://t.co/nAVloHVBPW",5,4
1376858920698880002,"2021-03-30T11:28:42Z","GIVEAWAY TIME!!! We will be doing a #NFTGiveaway to celebrate the interest in the Crypto Coke Collection. We will be giving away 1 bag of Crypto Coke!  1. Follow @FadedNFT and @CryptoCokeNFT   2. Retweet THIS post.  3. Tag a NFT friend and drop your eth address!  Ends 4/14",118,94
1376858902109642753,"2021-03-30T11:28:37Z","Welcome to massive Q DAO airdrop!   1. go now to telegram https://t.co/COyXgODY1z   2. Stay in telegram chat and wait announcement.  3. HOLD this gem until 10x   (soon - QDAO launch cross-chain for BSC, Polkadot and ETH)",4218,6165
1376858900268527616,"2021-03-30T11:28:37Z","Former SEC boss coward behind lawsuit against Ripple hired by Crypto Hedge Fund that owns Btc and Eth. I will come after you personally, I will see you in court 👊🇳🇱  YOU ARE COMMON CRIMINAL JAY CLAYTON WHO THINKS YOU CAN DO ANYTHING  https://t.co/Nwb1TQRJIU",243,81
1376858882153189376,"2021-03-30T11:28:32Z","🌟 $DAM(Datamine) and $FLUX Listed on Hoo Exchange @dataminecrypto    🔸Trading pair :  DAM/USDT, DAM/ETH FLUX/USDT, FLUX/ETH   🔸Trading starts : 15:00 on July 8, 2020  (UTC+8)   👉🏻Deposit: Enabled 👉🏻Withdrawal: 15:00 on July 9(UTC+8)  🕹More details: https://t.co/omvYupILLj https://t.co/iGc7wMrxKC",102,81
1376858877795442695,"2021-03-30T11:28:31Z","@TheCryptoLark @ADAFORLIFE1 Getting conflicting messages from this. Do you want his ADA or are you an ETH maxi? Both can't be true at the same time.",0,0
1376858872544030723,"2021-03-30T11:28:30Z","Want free money while holding your $ETH exposure?  1. Lock ETH to @MakerDAO (personally I use @DeFiSaver) 2. Generate DAI, deposit to @PoolTogether_ (currently give you 40% APR) 3. Buy protection on @NexusMutual  Cost 2.6% currently for your asset",6,1
1376858870736252930,"2021-03-30T11:28:30Z","🔸 New Listing🔸   #BKEX will list #DRYCAKE @DryCakeSwap🚀 🚀  - Trading pair: DRYCAKE/USDT - Trading time: 20:00 on Mar 29 (UTC+8)  🔹 🔹 More details: https://t.co/kC2IIebfTT  #Bitcoin #ETH #BKK #Blockchain https://t.co/w8CHyKXaUD",2449,3537
1376858860921577473,"2021-03-30T11:28:27Z","What a day! @Visa is ready, @PayPal is ready, @Verifone @Ingenico @PundiXLabs #XPOS #FXwallet are ready. Are you ready for #btc #eth #npxs #fx #pundix #cryptocurrency? https://t.co/TjJxdqOtBC",71,22
1376858860883902464,"2021-03-30T11:28:27Z","💧DogeSwap Airdrop💧  🏆 Task:          ➕   7 DOG  👨‍👩‍👧 Referral:     ➕   2 DOG  🔛  Airdrop Link &amp; Information: https://t.co/3rlt9kiu64  #cryptocurrency #Crypto #Bitcoin  #DogeSwap #Ethereum #ETH #Airdrop #bounty #Doge #AirdropStario",4123,5207
1376858859952738314,"2021-03-30T11:28:27Z","Is amazing to see how this project has been out since Dec 2020 and so far Liquidity Providers have earned about 6533.78 $ETH and that is the total value of $10.6 Million dollars. 💪  Also the APY doing 301.35% which is amazing.  #DeFi #UniSwap #BSC #SmartContract #Ethereum https://t.co/9a7rgyoMpE",2385,2476
1376858856995704843,"2021-03-30T11:28:26Z","Time for WitLink Token #Airdrop!  ✔️ Start the Airdrop bot: https://t.co/8HDV9cCJse  Complete the tasks to earn  Get 10 WAI ($2.5) + Get 4 WAI ($1) For Each Valid Refer   #ETH #BTC #WAI #LINK #Airdrops",1478,1424
1376858856647581697,"2021-03-30T11:28:26Z","SEE the thread below from @CryptoPlotz 😉😉  $OLT is best traded right now with the $ETH Pair  due to Ethereum being sideways &amp; OneLedger having greater strength 💪💪💪   This has 500% PROFIT POTENTIAL 🤑🤑🤑  AVAIL on @kucoincom Get an account👇👇👇 https://t.co/CC8kya9eiQ https://t.co/rDHkIbXZ7U https://t.co/mBPBbe3IqE",97,34
1376858845780185090,"2021-03-30T11:28:24Z","Former SEC boss coward behind lawsuit against Ripple hired by Crypto Hedge Fund that owns Btc and Eth. I will come after you personally, I will see you in court 👊🇳🇱  YOU ARE COMMON CRIMINAL JAY CLAYTON WHO THINKS YOU CAN DO ANYTHING  https://t.co/Nwb1TQRJIU",243,81
1376858842856890369,"2021-03-30T11:28:23Z","https://t.co/8LMdz1f3bC auction is ending in one hour!! Current bid is 0.25 #ETH on @withFND  #nft #auction #collection",1,0
1376858833763463173,"2021-03-30T11:28:21Z","#Giveaway to every follower! Get a SEXY SHRIMP #NFT  300 up for grabs.   To receive #FreeNFT  complete :   ➡️Follow  @ParrotfishJ ➡️Like &amp; Retweet ➡️Comment this tweet with your wax wallet #NFTgiveaway #btc #waxp #eth #cryptoart #digitalart  #doge #xrp  https://t.co/2jcUuVRXah",68,61
1376858832987652098,"2021-03-30T11:28:21Z","So I moved a ton of my huge ETH holding to SPI...SPI is up 50%  What dumb luck. Gotta give some back.   Let's give away a mooncat (valued at $1000) AND $500 in SPI.  Post your eth wallet below with MEOWTH THATS RIGHT...  Tagging/rewteeting is appreciated https://t.co/VDXboLlmP0",1916,1134
1376858830177456130,"2021-03-30T11:28:20Z","💧Roku Network Airdrop 💧  🏆 Task:          ➕  15 ROK (~$5)  👨‍👩‍👧 Referral:   ➕  3 ROK (~$1)  🔛  Airdrop Link &amp; Information: https://t.co/YhvsOcfEbH  #cryptocurrency #Crypto #Bitcoin  #BSC #BinanceSmartChain #Ethereum #ETH #Airdrop #bounty #ROK #RokuCoin #RokuNetwork",3738,4815
1376858829493739524,"2021-03-30T11:28:20Z","@poplink16 @RajeshK00557295  @NIRMALDEVI15  @Jazz29028567  #POPO#ETH#BTC",0,0
1376858820249550855,"2021-03-30T11:28:18Z","The upwards potential on $sake is huge. Will melt this #ALTSEASON   #BSC + $ETH 22 mil market cap Slippage capture feature 🔥 #SakePerp   Don’t sleep on this one ! https://t.co/qRcZNxwKez",11,2
1376858815736471558,"2021-03-30T11:28:17Z","You don't have to be a whale, to avoid gas fees killing your profits on #Zilliqa.  No gatekeeping in this #Zilfam's DeFi opportunities!  Week after week, the list of things #ETH  has that you can't do better with $Zil is shrinking.            #polynetbridge  @DevPillar https://t.co/uDhPRiCZKN",31,10
1376858796664836102,"2021-03-30T11:28:12Z","We will randomly collect ETH wallet addresses every day and arrange to send the airdrops of 100,000 NFTs until the end of Q2. Those who haven't received NFTs don't need to worry, because it will always be your turn. https://t.co/3APkHz0uO3",888,664
1376858793191952384,"2021-03-30T11:28:11Z","$paid &amp; $xcur both flying 🤑✅😎🚀👩‍🚀🔥😊  #uniswapgems #uniswap #bitcoingem #BTC #Bitcoin #Crypto #cryptotrading #cryptocurrency #cryptocurrencies #ETH @paid_network @curateproject",5,1
1376858789320740864,"2021-03-30T11:28:10Z","COME ON GUYS!!!  I told u about $ETHV week ago and here we go!!!   https://t.co/XysG50EGmd  THIS GONNA EXPLODE!  #CRYPTO #GAMING #GTAV #MINECRAFT #PRESALE #AIRDROP #WHITELIST #SALE #NFT #COLLECTIBLES $ERN $AXS $MOD $PAID $POLS $BTC $ETH $ADA $AVA $TRX $XRP https://t.co/s2aoxWzpYO",7,2
1376858780797911043,"2021-03-30T11:28:08Z","@PayPal Crypto Merchant Payment is finally here #cryptocurrency #btc #ltc #eth  @JRNYcrypto #MOONSHOT 🚀🚀",0,0
1376858759268470787,"2021-03-30T11:28:03Z","Welcome to massive Q DAO airdrop!   1. go now to telegram https://t.co/COyXgODY1z   2. Stay in telegram chat and wait announcement.  3. HOLD this gem until 10x   (soon - QDAO launch cross-chain for BSC, Polkadot and ETH)",4218,6165
1376858757846589445,"2021-03-30T11:28:03Z","RT @zhusu: Next key lvls are 72k / 100k on $BTC  And 2.5k / 4k on $ETH",3569,435
1376858756424720384,"2021-03-30T11:28:02Z","HoneypotDAO invites hackers to put the SafeSnap module to the test, as it ushers in the start of truly autonomous decentralized organizations.  🍯️DAO.eth currently holds $42K from Gnosis, @iearnfinance, @dHedgeOrg and @BalancerLabs with more on the way.  https://t.co/AHdb9T9Shy",34,8
1376858750372352003,"2021-03-30T11:28:01Z","The DEX @FinanceChainge is set to launch on the @FUSIONProtocol network with over a million users on the protocols waitlist. This decentralized exchange aims to innovate on traditional models through leveraging the Fusion Network.  #BSC #BTC #ETH #BNB  https://t.co/xx55YiGfm3",21536,13658
1376858749277720576,"2021-03-30T11:28:01Z","Time for WitLink Token #Airdrop!  ✔️ Start the Airdrop bot: https://t.co/8HDV9cCJse  Complete the tasks to earn  Get 10 WAI ($2.5) + Get 4 WAI ($1) For Each Valid Refer   #ETH #BTC #WAI #LINK #Airdrops",1478,1424
1376858747008655363,"2021-03-30T11:28:00Z","@binance Thank you to regularise the double spend problem Support trade OF 11EB 2021  ETHER 0.11133500 ETH  https://t.co/5GIViuryzh &amp; https://t.co/LHOWuzno7J TETHER 196DOLLARS not completed to 0xab52fbdf965888a6ddd4fcb4b35f1189e22d9f89 By dynamic changelly offert exchange in jaxx wallet",0,0
1376858742004797441,"2021-03-30T11:27:59Z","The Binance Smart Chains' De-Fi landscape continues its expansion with 4 new projects added to this weeks graphic. Take a look at our curated list of projects on this weeks DeFi landscape.  @bolt_dollar @SwampFinance @CubiexEsports @cybertime_eth  #BSC #BinanceSmartChain #DeFi https://t.co/xHrc0nvMLq",360,139
1376858727706361856,"2021-03-30T11:27:56Z","#DeGate unique initial Social Media token offering:📣  To honor contributors to Crypto Assets on social media, DeGate offers an early opportunity to buy DG tokens at a preferential rate. 10 m DG tokens at $0.005  Start ➡️ March 29  https://t.co/5gPWIBwZea  #ETH #BTC #DeFi https://t.co/2qpuVZGJKm",1751,1359
1376858723340128261,"2021-03-30T11:27:55Z","❗️#NFTGiveaway #CryptoCrawlerz ❗️  LIKE + RETWEET + FOLLOW @cryptocrawlerz TO ENTER 🐛🦋🐝💚  🐞(1) WINNER WILL RECEIVE (1) SERIES 02 / #003 / 'SCARLETT' 🐞  WINNER TBA 3/31 🔥  VIEW / PURCHASE ON @rariblecom 👇👇👇👇  https://t.co/skWtkNgWpu  #NFT $ETH #NFTCommunity #Cryptoart https://t.co/Ju1eycLJqY",225,153
1376858696345653248,"2021-03-30T11:27:48Z","I'm not in the business of making predictions or giving advice, but as an OG $TEL holder dating back 3 years, I'm bullish beyond words that #Telcoin will have the single biggest month of its history in April. We may never forget what's about to happen.   #Telfam $BTC $ETH #Crypto https://t.co/C2VEYwkuc3",76,17
1376858686174326787,"2021-03-30T11:27:46Z","#cryptopunksfloorhistory Tuesday Update:  Larva Labs floor: 17.99Ξ 📈 361 punks for sale below 30Ξ (+7) https://t.co/hSfxyI0xkF  OpenSea floor (Wrapped CryptoPunks): 36.90Ξ 😴 https://t.co/cfrUwtZBYw  #CryptoPunks #CryptoPunk #NFT $ETH https://t.co/xUCkpCACQL",3,2
1376858682181316613,"2021-03-30T11:27:45Z","RT @TraderWario: $PROS will be back at #BinanceSmartChain 4PM UTC. 🔥🔥🔥🔥   More news to follow. A lot is cooking for $PROS.  #binance $AVAX…",10,2
1376858680629547013,"2021-03-30T11:27:44Z","@TheCryptoDog PayPal started allowing U.S. consumers to use their crypto holdings to pay at millions of online merchants globally.  Customers holding $BTC $ETH bitcoin cash and litecoin in digital wallets can convert holdings into fiat at checkouts to make purchases.  https://t.co/DNsTNEllGW",1,0
1376858677433528325,"2021-03-30T11:27:44Z","The buzz is that there is a buzz building around this buzzworthy project $FSN #FSN #FusionProtocol   $ela $ftm $xrp $ltc $ada $xmr $trx $btc $eth $zil $bch $vet $link $dot $xlm $eos $nem $rune $ren $uni $sushi $dai $snx $ont $omg https://t.co/fSAVGw1izi",10,4
1376858663831277572,"2021-03-30T11:27:40Z","Between PayPal and Visa, at least two Fortune 500 companies are likely to start holding $ETH on their balance sheets. https://t.co/4YNNx8ymuE",262,32
1376858651588063235,"2021-03-30T11:27:37Z","Welcome to massive Q DAO airdrop!   1. go now to telegram https://t.co/COyXgODY1z   2. Stay in telegram chat and wait announcement.  3. HOLD this gem until 10x   (soon - QDAO launch cross-chain for BSC, Polkadot and ETH)",4218,6165
1376858648710766599,"2021-03-30T11:27:37Z","$TRTL  $TRTL is flying get in it’s still early before it gets to its all time high 🚀🚀🚀 buy @kucoincom   $btc $eth $xrp $uni $sushi $matic $nano $xlm $grt $icx $bnb $cake $ada $doge $bch $crv $egld $link $band $waves $sol $yfi $reef $vet $one $wolfy $shib https://t.co/OzpUzoyCy9",6,2
1376858648614379520,"2021-03-30T11:27:37Z","The DEX @FinanceChainge is set to launch on the @FUSIONProtocol network with over a million users on the protocols waitlist. This decentralized exchange aims to innovate on traditional models through leveraging the Fusion Network.  #BSC #BTC #ETH #BNB  https://t.co/xx55YiGfm3",21536,13658
1376858643220590592,"2021-03-30T11:27:35Z","$CLO will get more hashrate as $ETC changes Algo, and $ETH becomes fully POS #Callisto is progressive and innovative, it went up about 1000% on one year and now volumes are comming🚀🚀 a good positive community &amp; devs with a good future development😎 https://t.co/HFzc3Qyhmm",19,15
1376858638707433476,"2021-03-30T11:27:34Z","Every 10 seconds a new $FREE coin blockchain wallet is created (most on #BSC, others on #ETH and #TronNetwork ) 🚀  This is a clear and objective indication of the accelerated adoption of the $FREE coin ❤️  @binance @BinanceResearch @BinanceChain @cz_binance @bepalliance https://t.co/zLRntXqfUQ",431,199
1376858615378804745,"2021-03-30T11:27:29Z","🐱NCAT Audit is Complete!🐱  BSC Gemz (@bscgemz) has successfully completed our audit of NCAT and the results can be found here: https://t.co/k7Ci2wATpP  Thanks, everyone!  $btc $eth $ada $ltc $ncat",52,22
1376858614456012802,"2021-03-30T11:27:29Z","@a3voices @econoar If it’s so great why come shill it on a eth tweet? Pathetic",0,0
1376858604796514306,"2021-03-30T11:27:26Z","I'm starting to think, even after all the ETH killers that popped up, and even if it happens to underperform BTC, ETH is not going away https://t.co/NG3HzB1LV6",1,0
1376858598026907652,"2021-03-30T11:27:25Z","📰: KEK. How to buy $COPE? A2DAO are intriguing. CryptoPups follows CryptoPunks. Airdrops and NFT. Digest and You.  https://t.co/AKjG3BIxpG  #️⃣: #Airdrop #NFT $FORCE $ICE #CRYPTOPUNK $USDT #cryptocurrencies @CryptoPupsNFT #nftcollector #nftart #ETH #ethereum #crypto",5,0
1376858593459232769,"2021-03-30T11:27:24Z","Time for WitLink Token #Airdrop!  ✔️ Start the Airdrop bot: https://t.co/8HDV9cCJse  Complete the tasks to earn  Get 10 WAI ($2.5) + Get 4 WAI ($1) For Each Valid Refer   #ETH #BTC #WAI #LINK #Airdrops",1478,1424
1376858576279498752,"2021-03-30T11:27:20Z","‘ $eth is money ’ is a narrative that is going to change the entire space",0,0
1376858567404310531,"2021-03-30T11:27:17Z","@fvckrender @niftygateway Here is mine also in case you are interested!  Here my recent work on @withFND RESERVE PRICE: 0.14 ETH https://t.co/uz3voLIEfs",0,0
1376858550782341120,"2021-03-30T11:27:13Z","RT @JimmyRagosa: Hi, I'm Jimmy. I outperform this dude by buying ETH once per month since 2015 on my Moto g4.",1683,110
1376858538761277443,"2021-03-30T11:27:11Z","Welcome to massive Q DAO airdrop!   1. go now to telegram https://t.co/COyXgODY1z   2. Stay in telegram chat and wait announcement.  3. HOLD this gem until 10x   (soon - QDAO launch cross-chain for BSC, Polkadot and ETH)",4218,6165
1376858535548628993,"2021-03-30T11:27:10Z","No need to spend your own money to trade #cryptocurrency. Over 10K users won crypto rewards on @latokens last week. It's the best way to join the financial revolution. Start by earning a share of $100K in CLIQ airdrop: https://t.co/5u6v0vOG6k #Bitcoin #ETH #Citi #AON #LATOKEN",0,0
