"ID","created_at","text","like_count","rt_count"
1377146136402612230,"2021-03-31T06:29:59Z","RT @QuintenFrancois: $ETH to $2500 in April or I'm giving away 0.3 $ETH to someone who retweets this.",4150,6184
1377146132724244485,"2021-03-31T06:29:58Z","DCT TOKEN Airdrop Medium Star Claim 1 DCT ($ 100) + 0.045 DCT ($ 10) for each referral you make.   Steps  💎  Join channel and group  💎  Follow twitter, like and retweet pinned message   💎  Submit eth wallet address (ERC-20) Participate now Airdrop link: https://t.co/L24stp8tVI https://t.co/CVYQyLAWwU",8692,8870
1377146131713466368,"2021-03-31T06:29:58Z","RT @beautyofhelin: 2017 HODLers ➰ New Investors 😬😂  It's been a wild ride 🎢  #Bitcoin $Btc $Eth #Crypto #Defi #HODL https://t.co/vaHzpVqFsO",5199,2357
1377146120724377605,"2021-03-31T06:29:55Z","Have fun staying poor  $ETH $AVAX $WAN $LINK $UNI https://t.co/QOyiTRKCan",1,0
1377146119503847427,"2021-03-31T06:29:55Z","OMG 😱  Day 1 on CMC   TacoToken🌶  is Top pair on #coinmarketcap    #tacoswaptothemoon #cryptocurrencies #tacoswaptomars #defi #eth #ADA #ethereum #crypto @bepronet @Poolz__ @Xed",1184,1072
1377146112595816453,"2021-03-31T06:29:54Z","HAWT. With my partnership with @illuviumio I can give away 100 HOLOGRAPHIC Scoot Scarabok NFTs.  Similar ones have gone for 5 eth to 50 eth.  How to get -Post your ETH address + BATTLE SCOOT! below -Retweet/tag a friend -Follow @illuviumio and join their discord in bio https://t.co/xcCVVW6KdR",2754,2661
1377146109433323521,"2021-03-31T06:29:53Z","@QuintenFrancois I have 0.2 ETH I'll make half an ETH with yours 0xECD72eb7504fA26b52682f61878920D43534eB8c",0,0
1377146109420703750,"2021-03-31T06:29:53Z","First drop ⚡️ on Foundation @withFND   auction 👀 current price 0,666 ETH  🔎Link - https://t.co/yYHpypd74e  #NFT #ETH #cryptoart #nftart #nftcollector #nftbastards #NFTCommunity #Foundation #withFND #Drop #share https://t.co/rYbaFviU7Q",191,75
1377146105868115973,"2021-03-31T06:29:52Z","Is this it? Is it finally happening? $BTC $ETH https://t.co/AGYOIyxhL9",1,0
1377146103850672130,"2021-03-31T06:29:51Z","Ok, time to go full blown on #ETH #Ethereum",0,0
1377146102332321792,"2021-03-31T06:29:51Z","DCT TOKEN Airdrop Medium Star Claim 1 DCT ($ 100) + 0.045 DCT ($ 10) for each referral you make.   Steps  💎  Join channel and group  💎  Follow twitter, like and retweet pinned message   💎  Submit eth wallet address (ERC-20) Participate now Airdrop link: https://t.co/L24stp8tVI https://t.co/CVYQyLAWwU",8692,8870
1377146097206927365,"2021-03-31T06:29:50Z","$vite ---&gt;hiden GEM in @binance   Private Sale tokens comprise 40.43% of total supply. It was conducted in May 2018 for 404.33MM VITE at a rate of 7,000 VITE = 1 ETH and raised a total of 57,762 ETH (~$40.43MM) at ~$0.10 per token, selling 40.43% of the total token supply.",5,2
1377146095176884227,"2021-03-31T06:29:49Z","🥳@DefiStone will create a $STN/ETH liquidity pool on DODO Vending Machine (DVM) (ETH network) on March 31 at 15:30 PM UTC+8.  📈Trading of STN will go live then against any ERC20 pair.   🐣Initial liquidity is approximately equivalent to $100K with starting price at 0.00013 ETH. https://t.co/7w4Ui0FiYJ",99,26
1377146091922092032,"2021-03-31T06:29:49Z","The series of @launchzoneann #BSC Spring Festival Referral Trading Challenge is blowing my mind 🤯  Get ready for your upcoming $BUSD $BNB $ETH $USDT $BETH $DOT $ADA rewards guys 🔥 Join them from 30th Mar 11:30 PM to 30th Apr 11:30 PM (HKT)!  Rewards &amp; more details below 👇 https://t.co/8IC291Bgo7",249,137
1377146085559308297,"2021-03-31T06:29:47Z","https://t.co/sG6dX3ingI  This NFT 1/10 giveaway in 24 hours! 💥💥💥  Price 0.3 ETH =$ 550 !!!  🤝🤝🤝Follow me +@CryptoClownNft  👍 like  💪retweet   🤝two friends+ comment with your ETH wallet adress. 🙏🙏🙏 I wish everyone good luck   #NFTartist #rarible #nft https://t.co/4k1FIGVhZc",232,197
1377146077887954949,"2021-03-31T06:29:45Z","5 Reasons why the March 31st @TenseT_io launch will be 🔥  1) 5000 ETH presale would have ended in 12 mins if ETH worked 2) HUGE interest from 🐳 in Japan &amp; Korea 🇯🇵/🇰🇷 3) I've never witnessed such fomo on any project. It's real 💯",636,534
1377146065279852547,"2021-03-31T06:29:42Z","DCT TOKEN Airdrop Medium Star Claim 1 DCT ($ 100) + 0.045 DCT ($ 10) for each referral you make.   Steps  💎  Join channel and group  💎  Follow twitter, like and retweet pinned message   💎  Submit eth wallet address (ERC-20) Participate now Airdrop link: https://t.co/L24stp8tVI https://t.co/CVYQyLAWwU",8692,8870
1377146059659431936,"2021-03-31T06:29:41Z","‼️Please be aware of scams‼️ There are fake groups, channels, and liquidity pools. We have not listed on Uniswap yet.   Here are our token information: HECO COOK: https://t.co/KAqnJkWzZv BSC COOK: https://t.co/1wLk7iUZv0 ETH COOK: https://t.co/sxCF2FDApD",127,40
1377146059583987722,"2021-03-31T06:29:41Z","DCT TOKEN Airdrop Medium Star Claim 1 DCT ($ 100) + 0.045 DCT ($ 10) for each referral you make.   Steps  💎  Join channel and group  💎  Follow twitter, like and retweet pinned message   💎  Submit eth wallet address (ERC-20) Participate now Airdrop link: https://t.co/L24stp8tVI https://t.co/CVYQyLAWwU",8692,8870
1377146056329240576,"2021-03-31T06:29:40Z","The series of @launchzoneann #BSC Spring Festival Referral Trading Challenge is blowing my mind 🤯  Get ready for your upcoming $BUSD $BNB $ETH $USDT $BETH $DOT $ADA rewards guys 🔥 Join them from 30th Mar 11:30 PM to 30th Apr 11:30 PM (HKT)!  Rewards &amp; more details below 👇 https://t.co/8IC291Bgo7",249,137
1377146052613038080,"2021-03-31T06:29:39Z","DCT TOKEN Airdrop Medium Star Claim 1 DCT ($ 100) + 0.045 DCT ($ 10) for each referral you make.   Steps  💎  Join channel and group  💎  Follow twitter, like and retweet pinned message   💎  Submit eth wallet address (ERC-20) Participate now Airdrop link: https://t.co/L24stp8tVI https://t.co/CVYQyLAWwU",8692,8870
1377146049458962457,"2021-03-31T06:29:38Z","Win #NFT worth ETH!  To WIN You MUST:    1.) Follow @degenasaurus  2.) RT tweet BELOW + comment it  3.) OPTION -&gt; Join Discord post name in twitter comp channel: https://t.co/alAVVDlyQu  NFT: https://t.co/l37pUrR6Y3  Luck!!  @coinkit_ mon 35 1000 BTC  https://t.co/wFeOut8N85",116,856
1377146042827694085,"2021-03-31T06:29:37Z","RT @BitAliens: What's your ETH address?  Don't ask why, just drop it below and RT 😉👽  #nftcollector #nftart #nftcollectors #NFTCommunity",130,102
1377146042500571140,"2021-03-31T06:29:37Z","🔴#GIVEAWAY ITEM NO.4:  💎 HighPotato #0004 💰Value : 0.03 #ETH  📣LAST CHANCE to be one of the five lucky winners of the HighPotato GIVEAWAY!🎁  ⏰ March 31, 4:20 PM-GMT🥔💨🚀  Criteria : Follow us, RT &amp; like any tweet!  https://t.co/BnczqfZ735   #NFT #nftcollector #NFTartist",46,33
1377146039593885703,"2021-03-31T06:29:36Z","RT @QuintenFrancois: $ETH to $2500 in April or I'm giving away 0.3 $ETH to someone who retweets this.",4150,6184
1377146029116563461,"2021-03-31T06:29:34Z","RT @QuintenFrancois: $ETH to $2500 in April or I'm giving away 0.3 $ETH to someone who retweets this.",4150,6184
1377146020815990788,"2021-03-31T06:29:32Z","30 day EVIX: 88.3525 ETH/USD vwap: $1,845.62 04/16 expiry volume: $1,663,987.15 04/30 expiry volume: $7,226,457.05 Current time: 06:29:05",0,0
1377146018504957954,"2021-03-31T06:29:31Z","Pair : GBPUSD  Order Type :Buy  Stop Loss at :1.37000 Take Profit at : 1.37900  #forextrading #forex #trading #forexsignals #XAUUSD #GBPUSD #EURUSD #EURJPY #GBPJPY #Bitcoin #Binance #ETH #cryptocurrency",3,0
1377146017263493124,"2021-03-31T06:29:31Z","#DeGate unique initial Social Media token offering:📣  To honor contributors to Crypto Assets on social media, DeGate offers an early opportunity to buy DG tokens at a preferential rate. 10 m DG tokens at $0.005  Start ➡️ March 29  https://t.co/5gPWIBwZea  #ETH #BTC #DeFi https://t.co/2qpuVZGJKm",1751,1359
1377146014990143491,"2021-03-31T06:29:30Z","DCT TOKEN Airdrop Medium Star Claim 1 DCT ($ 100) + 0.045 DCT ($ 10) for each referral you make.   Steps  💎  Join channel and group  💎  Follow twitter, like and retweet pinned message   💎  Submit eth wallet address (ERC-20) Participate now Airdrop link: https://t.co/L24stp8tVI https://t.co/CVYQyLAWwU",8692,8870
1377146014314815488,"2021-03-31T06:29:30Z","DCT TOKEN Airdrop Medium Star Claim 1 DCT ($ 100) + 0.045 DCT ($ 10) for each referral you make.   Steps  💎  Join channel and group  💎  Follow twitter, like and retweet pinned message   💎  Submit eth wallet address (ERC-20) Participate now Airdrop link: https://t.co/L24stp8tVI https://t.co/CVYQyLAWwU",8692,8870
1377146011181719558,"2021-03-31T06:29:29Z","Join the @Holdefi community in HLD public sale!  #HLD #Holdefi #ETH #BSC #IDO #ICO 👇👇 https://t.co/1d9OZ9U5A2",0,0
1377146008841285636,"2021-03-31T06:29:29Z","RT @intocryptoverse: I would not mind being reminded of what a $1900 $ETH feels like.",1541,69
1377146007205474306,"2021-03-31T06:29:28Z","DCT TOKEN Airdrop Medium Star Claim 1 DCT ($ 100) + 0.045 DCT ($ 10) for each referral you make.   Steps  💎  Join channel and group  💎  Follow twitter, like and retweet pinned message   💎  Submit eth wallet address (ERC-20) Participate now Airdrop link: https://t.co/L24stp8tVI https://t.co/CVYQyLAWwU",8692,8870
1377146003443183616,"2021-03-31T06:29:28Z","Also given that $ETH is becoming more efficient, this will only help $LINK in the long run towards more adoption. I feel like the next mega bull run will involve an $ETH run up to new ATH and any related ERC20. Perhaps it will be the first time $ETH overtakes and outperforms $BTC",1,1
1377145980848463878,"2021-03-31T06:29:22Z","DCT TOKEN Airdrop Medium Star Claim 1 DCT ($ 100) + 0.045 DCT ($ 10) for each referral you make.   Steps  💎  Join channel and group  💎  Follow twitter, like and retweet pinned message   💎  Submit eth wallet address (ERC-20) Participate now Airdrop link: https://t.co/L24stp8tVI https://t.co/CVYQyLAWwU",8692,8870
1377145972975828999,"2021-03-31T06:29:20Z","DCT TOKEN Airdrop Medium Star Claim 1 DCT ($ 100) + 0.045 DCT ($ 10) for each referral you make.   Steps  💎  Join channel and group  💎  Follow twitter, like and retweet pinned message   💎  Submit eth wallet address (ERC-20) Participate now Airdrop link: https://t.co/L24stp8tVI https://t.co/CVYQyLAWwU",8692,8870
1377145966373924870,"2021-03-31T06:29:19Z","#NFTs on #Rewardiqa coming soon ! 🔥🚀🚀🚀👨‍🎨 #NFTCommunity  #nftcollector #NFTdrop #NFTGiveaway #REW #DeFi #BSCPAD #eth #btc #opensea #marketplace #bullrun #BinanceSmartChain https://t.co/Bo1M9Pox2L",820,756
1377145964381700100,"2021-03-31T06:29:18Z","DCT TOKEN Airdrop Medium Star Claim 1 DCT ($ 100) + 0.045 DCT ($ 10) for each referral you make.   Steps  💎  Join channel and group  💎  Follow twitter, like and retweet pinned message   💎  Submit eth wallet address (ERC-20) Participate now Airdrop link: https://t.co/L24stp8tVI https://t.co/CVYQyLAWwU",8692,8870
1377145962833997828,"2021-03-31T06:29:18Z","🥳@DefiStone will create a $STN/ETH liquidity pool on DODO Vending Machine (DVM) (ETH network) on March 31 at 15:30 PM UTC+8.  📈Trading of STN will go live then against any ERC20 pair.   🐣Initial liquidity is approximately equivalent to $100K with starting price at 0.00013 ETH. https://t.co/7w4Ui0FiYJ",99,26
1377145961168871426,"2021-03-31T06:29:17Z","The DEX @FinanceChainge is set to launch on the @FUSIONProtocol network with over a million users on the protocols waitlist. This decentralized exchange aims to innovate on traditional models through leveraging the Fusion Network.  #BSC #BTC #ETH #BNB  https://t.co/xx55YiGfm3",21535,13658
1377145952922791941,"2021-03-31T06:29:15Z","RT @QuintenFrancois: $ETH to $2500 in April or I'm giving away 0.3 $ETH to someone who retweets this.",4150,6184
1377145949181538304,"2021-03-31T06:29:15Z","RT @intocryptoverse: $BTC $ETH $LINK $ADA and $DOT remains the best portfolio IMO.  Yes, I have other coins too, but positions are much sma…",2237,157
1377145945297616903,"2021-03-31T06:29:14Z","The series of @launchzoneann #BSC Spring Festival Referral Trading Challenge is blowing my mind 🤯  Get ready for your upcoming $BUSD $BNB $ETH $USDT $BETH $DOT $ADA rewards guys 🔥 Join them from 30th Mar 11:30 PM to 30th Apr 11:30 PM (HKT)!  Rewards &amp; more details below 👇 https://t.co/8IC291Bgo7",249,137
1377145945016557575,"2021-03-31T06:29:14Z","DCT TOKEN Airdrop Medium Star Claim 1 DCT ($ 100) + 0.045 DCT ($ 10) for each referral you make.   Steps  💎  Join channel and group  💎  Follow twitter, like and retweet pinned message   💎  Submit eth wallet address (ERC-20) Participate now Airdrop link: https://t.co/L24stp8tVI https://t.co/CVYQyLAWwU",8692,8870
1377145936359485440,"2021-03-31T06:29:12Z","DCT TOKEN Airdrop Medium Star Claim 1 DCT ($ 100) + 0.045 DCT ($ 10) for each referral you make.   Steps  💎  Join channel and group  💎  Follow twitter, like and retweet pinned message   💎  Submit eth wallet address (ERC-20) Participate now Airdrop link: https://t.co/L24stp8tVI https://t.co/CVYQyLAWwU",8692,8870
1377145932278427652,"2021-03-31T06:29:11Z","DCT TOKEN Airdrop Medium Star Claim 1 DCT ($ 100) + 0.045 DCT ($ 10) for each referral you make.   Steps  💎  Join channel and group  💎  Follow twitter, like and retweet pinned message   💎  Submit eth wallet address (ERC-20) Participate now Airdrop link: https://t.co/L24stp8tVI https://t.co/CVYQyLAWwU",8692,8870
1377145931880013830,"2021-03-31T06:29:10Z","The series of @launchzoneann #BSC Spring Festival Referral Trading Challenge is blowing my mind 🤯  Get ready for your upcoming $BUSD $BNB $ETH $USDT $BETH $DOT $ADA rewards guys 🔥 Join them from 30th Mar 11:30 PM to 30th Apr 11:30 PM (HKT)!  Rewards &amp; more details below 👇 https://t.co/8IC291Bgo7",249,137
1377145931577970693,"2021-03-31T06:29:10Z","$ORN very excited about the public launch later today. with #BSC integration it really makes sense for #defi trading #crypto . Previously only supported $ETH and who wants to trade with those network fees? CEX was winning. DEX finally getting a 1+ up!",2,0
1377145926620307456,"2021-03-31T06:29:09Z","Join $BASE Telegram &amp; Get ready for powerweek: https://t.co/fnmggXK3Ur  ___________________________ @cctip_com airdrop 0.01 ETH 99999  $ETH $LINK $MANA $HOT $OGN $MTL $ERN",98,153
1377145918688874499,"2021-03-31T06:29:07Z","@KingNFT2 The 3D Crypto Punk Pixelation NFT of Mario https://t.co/148jOQlMPC #cryptoart #NFT #cryptoartist #ETH https://t.co/XPCsicwCIU",2,0
1377145914255503368,"2021-03-31T06:29:06Z","Genuinely curious if Art Twitter is going to boycott Paypal now..??? This is exponentially more environmentally damaging than NFTs because not only is Ethereum supported, but so is Bitcoin, which has 4x the emissions of ETH. What alternative platforms can independent artists use? https://t.co/zek7xyXwqL",1602,473
1377145909776015361,"2021-03-31T06:29:05Z","DCT TOKEN Airdrop Medium Star Claim 1 DCT ($ 100) + 0.045 DCT ($ 10) for each referral you make.   Steps  💎  Join channel and group  💎  Follow twitter, like and retweet pinned message   💎  Submit eth wallet address (ERC-20) Participate now Airdrop link: https://t.co/L24stp8tVI https://t.co/CVYQyLAWwU",8692,8870
1377145904138919938,"2021-03-31T06:29:04Z","Morning update:  In the past 24 hours, on-chain metrics have seen minor changes:  $BTC and $ETH supply on known exchange addresses has slightly increased meaning that some market participants are starting to take some profit. This is healthy and much needed ✅ https://t.co/0gsgJa4RKQ",16,7
1377145901001568259,"2021-03-31T06:29:03Z","DCT TOKEN Airdrop Medium Star Claim 1 DCT ($ 100) + 0.045 DCT ($ 10) for each referral you make.   Steps  💎  Join channel and group  💎  Follow twitter, like and retweet pinned message   💎  Submit eth wallet address (ERC-20) Participate now Airdrop link: https://t.co/L24stp8tVI https://t.co/CVYQyLAWwU",8692,8870
1377145897981595649,"2021-03-31T06:29:02Z","DCT TOKEN Airdrop Medium Star Claim 1 DCT ($ 100) + 0.045 DCT ($ 10) for each referral you make.   Steps  💎  Join channel and group  💎  Follow twitter, like and retweet pinned message   💎  Submit eth wallet address (ERC-20) Participate now Airdrop link: https://t.co/L24stp8tVI https://t.co/CVYQyLAWwU",8692,8870
1377145896605937664,"2021-03-31T06:29:02Z","🌵https://t.co/bzGU9OalGd🌵  Massive artworks from @okinmakesart  amazing colors and style!   check out the page for more links  and other featured artists!   #nft #nfts #nftart #nftcommunity #nftcollectors #nftartist #cryptoart #dark $eth #eth #xtz $xtz #tezos @KnownOrigin_io https://t.co/9afJ4ftOnR",14,3
1377145896559734786,"2021-03-31T06:29:02Z","The #STC App is available on #AppStore! Working perfectly, new features will be available soon! As for the #Android version the team is waiting for #Google to validate and upload it! #Bitcoin #ETH #DeFi #NFT #Crypto #Blockchain #altcoin #Binance #Bnb #BSC #altcoins #ALTSEASON https://t.co/rugHZUPzOu",17,6
1377145896408731657,"2021-03-31T06:29:02Z","First thing I bought after making some money through NFT is this Wacom Cintiq!!! I literally bought this with ETH as well from @jackmaschka  Can’t wait to create more! https://t.co/tIn7xIdsa5",242,7
1377145896077385731,"2021-03-31T06:29:02Z","Welcome to massive Q DAO airdrop!   1. go now to telegram https://t.co/COyXgODY1z   2. Stay in telegram chat and wait announcement.  3. HOLD this gem until 10x   (soon - QDAO launch cross-chain for BSC, Polkadot and ETH)",4217,6165
1377145891920867333,"2021-03-31T06:29:01Z","🟩 $BASE Will Moon So Hard 💎  Base Protocol will soon be doing a “Power Week” where they drop news every day.  👉 Hold a bag before it begin 😏 📈 My Target: Minimum 20x 🚀🌙  ___________________________ @cctip_com airdrop 0.01 ETH 99999 https://t.co/WPBJ9ZZp9k",155,213
1377145890960404485,"2021-03-31T06:29:01Z","DCT TOKEN Airdrop Medium Star Claim 1 DCT ($ 100) + 0.045 DCT ($ 10) for each referral you make.   Steps  💎  Join channel and group  💎  Follow twitter, like and retweet pinned message   💎  Submit eth wallet address (ERC-20) Participate now Airdrop link: https://t.co/L24stp8tVI https://t.co/CVYQyLAWwU",8692,8870
1377145890914197506,"2021-03-31T06:29:01Z","DCT TOKEN Airdrop Medium Star Claim 1 DCT ($ 100) + 0.045 DCT ($ 10) for each referral you make.   Steps  💎  Join channel and group  💎  Follow twitter, like and retweet pinned message   💎  Submit eth wallet address (ERC-20) Participate now Airdrop link: https://t.co/L24stp8tVI https://t.co/CVYQyLAWwU",8692,8870
1377145883310006272,"2021-03-31T06:28:59Z","They are fucking stupid bro,   They are probably the same people that think they’ll make bank when $xrp hits $589 (Deluded)  $eth is my biggest holding as I know nothing kills it. I also know where it’s going. 🔥🚀 https://t.co/Ty57Wnthxq",0,0
1377145879442821128,"2021-03-31T06:28:58Z","@BMindfulofDeath How much ETH for this NFT I don’t know how to “save-as” sir lolz?",3,0
1377145875722477568,"2021-03-31T06:28:57Z","DCT TOKEN Airdrop Medium Star Claim 1 DCT ($ 100) + 0.045 DCT ($ 10) for each referral you make.   Steps  💎  Join channel and group  💎  Follow twitter, like and retweet pinned message   💎  Submit eth wallet address (ERC-20) Participate now Airdrop link: https://t.co/L24stp8tVI https://t.co/CVYQyLAWwU",8692,8870
1377145872358670339,"2021-03-31T06:28:56Z","DCT TOKEN Airdrop Medium Star Claim 1 DCT ($ 100) + 0.045 DCT ($ 10) for each referral you make.   Steps  💎  Join channel and group  💎  Follow twitter, like and retweet pinned message   💎  Submit eth wallet address (ERC-20) Participate now Airdrop link: https://t.co/L24stp8tVI https://t.co/CVYQyLAWwU",8692,8870
1377145871201042435,"2021-03-31T06:28:56Z","Happening TODAY at 3:30 PM: Looking forward to discussing with you advances and challenges in the rapidly evolving field of spatial #singlecell biology!  Please forward to colleagues who might be interested in this #eSymposium, thanks for RT! https://t.co/lvLkZrD4mt",2,2
1377145867124150277,"2021-03-31T06:28:55Z","New Airdrop: Diamond Crystal (DCT) Reward: 100 DCT ($100) Rate: ⭐️⭐️⭐️⭐️ Focus: Distribution starts after airdrop ends   Bot Airdrop Link: https://t.co/9Qzk47HUKt  #Airdrop #giveaway #BTC #ETH",3979,4240
1377145862506250250,"2021-03-31T06:28:54Z","DCT TOKEN Airdrop Medium Star Claim 1 DCT ($ 100) + 0.045 DCT ($ 10) for each referral you make.   Steps  💎  Join channel and group  💎  Follow twitter, like and retweet pinned message   💎  Submit eth wallet address (ERC-20) Participate now Airdrop link: https://t.co/L24stp8tVI https://t.co/CVYQyLAWwU",8692,8870
1377145858307727369,"2021-03-31T06:28:53Z","Top 5 Mentions Updated Every 3 Minutes   Start Time: Wed Mar 31 2021 00:13:52 GMT+0300 (GMT+03:00)   (BETA STAGE)  1- $ETH==&gt;1711  2- $AMB==&gt;1634  3- $BTS==&gt;1629  4- $BNB==&gt;734  5- $XRP==&gt;569  - $Bitcoin #Bitcoin $Crypto #Crypto $Altcoin #Altcoin -",0,0
1377145855807877131,"2021-03-31T06:28:52Z","@knikxknok LOST LAND - 0.05 ETH  https://t.co/bBaqyPL454 https://t.co/7k9hRXQ9FR",0,0
1377145842117668869,"2021-03-31T06:28:49Z","DCT TOKEN Airdrop Medium Star Claim 1 DCT ($ 100) + 0.045 DCT ($ 10) for each referral you make.   Steps  💎  Join channel and group  💎  Follow twitter, like and retweet pinned message   💎  Submit eth wallet address (ERC-20) Participate now Airdrop link: https://t.co/L24stp8tVI https://t.co/CVYQyLAWwU",8692,8870
1377145835469725698,"2021-03-31T06:28:47Z","NOW IS THE TIME! 9 March 2021  #BTCBAM IEO is launching on #ProbitExchange  ♨️10% Bonus for PROB,  ♨️5% bonus for BTC, ETH, XRP and USDT ♨️BTC/1.95 USDT rate.  Never miss the most important IEO of the year!  Trade now!  https://t.co/yjdIouFanG  #btcbam #ieo https://t.co/O4JemyE0dL",113,31
1377145828125503502,"2021-03-31T06:28:46Z","FRESH MINT!!!!  Living Tissue  1/1 at 0.23 $ETH! available on @opensea!  #nft #opensea #digitalart #noisedeck @noisedeck  https://t.co/gNH02ZKqK5 https://t.co/7sTiNG6AKj",29,8
1377145824010903561,"2021-03-31T06:28:45Z","RT @HosseinTouhid: Join the @Holdefi community in HLD public sale!  #HLD #Holdefi #ETH #BSC #IDO #ICO 👇👇 https://t.co/onxZ4tZmKo",1,1
1377145823285284873,"2021-03-31T06:28:45Z","DCT TOKEN Airdrop Medium Star Claim 1 DCT ($ 100) + 0.045 DCT ($ 10) for each referral you make.   Steps  💎  Join channel and group  💎  Follow twitter, like and retweet pinned message   💎  Submit eth wallet address (ERC-20) Participate now Airdrop link: https://t.co/L24stp8tVI https://t.co/CVYQyLAWwU",8692,8870
1377145816192675847,"2021-03-31T06:28:43Z","DCT TOKEN Airdrop Medium Star Claim 1 DCT ($ 100) + 0.045 DCT ($ 10) for each referral you make.   Steps  💎  Join channel and group  💎  Follow twitter, like and retweet pinned message   💎  Submit eth wallet address (ERC-20) Participate now Airdrop link: https://t.co/L24stp8tVI https://t.co/CVYQyLAWwU",8692,8870
1377145816050098182,"2021-03-31T06:28:43Z","New Airdrop: Diamond Crystal (DCT) Reward: 100 DCT ($100) Rate: ⭐️⭐️⭐️⭐️ Focus: Distribution starts after airdrop ends   Bot Airdrop Link: https://t.co/9Qzk47HUKt  #Airdrop #giveaway #BTC #ETH",3979,4240
1377145813009190913,"2021-03-31T06:28:42Z","DCT TOKEN Airdrop Medium Star Claim 1 DCT ($ 100) + 0.045 DCT ($ 10) for each referral you make.   Steps  💎  Join channel and group  💎  Follow twitter, like and retweet pinned message   💎  Submit eth wallet address (ERC-20) Participate now Airdrop link: https://t.co/L24stp8tVI https://t.co/CVYQyLAWwU",8692,8870
1377145810748547074,"2021-03-31T06:28:42Z","DCT TOKEN Airdrop Medium Star Claim 1 DCT ($ 100) + 0.045 DCT ($ 10) for each referral you make.   Steps  💎  Join channel and group  💎  Follow twitter, like and retweet pinned message   💎  Submit eth wallet address (ERC-20) Participate now Airdrop link: https://t.co/L24stp8tVI https://t.co/CVYQyLAWwU",8692,8870
1377145807162380291,"2021-03-31T06:28:41Z","DCT TOKEN Airdrop Medium Star Claim 1 DCT ($ 100) + 0.045 DCT ($ 10) for each referral you make.   Steps  💎  Join channel and group  💎  Follow twitter, like and retweet pinned message   💎  Submit eth wallet address (ERC-20) Participate now Airdrop link: https://t.co/L24stp8tVI https://t.co/CVYQyLAWwU",8692,8870
1377145806952669185,"2021-03-31T06:28:41Z","🟢 Swapped $138K in #ETH for #RGT on #Sushiswap 🍣  🐬 ($1.31M) #0x8552Aa https://t.co/ld4f0Pp86b",0,0
1377145802372485122,"2021-03-31T06:28:40Z","DCT TOKEN Airdrop Medium Star Claim 1 DCT ($ 100) + 0.045 DCT ($ 10) for each referral you make.   Steps  💎  Join channel and group  💎  Follow twitter, like and retweet pinned message   💎  Submit eth wallet address (ERC-20) Participate now Airdrop link: https://t.co/L24stp8tVI https://t.co/CVYQyLAWwU",8692,8870
1377145784919945227,"2021-03-31T06:28:35Z","DCT TOKEN Airdrop Medium Star Claim 1 DCT ($ 100) + 0.045 DCT ($ 10) for each referral you make.   Steps  💎  Join channel and group  💎  Follow twitter, like and retweet pinned message   💎  Submit eth wallet address (ERC-20) Participate now Airdrop link: https://t.co/L24stp8tVI https://t.co/CVYQyLAWwU",8692,8870
1377145766381199364,"2021-03-31T06:28:31Z","Win #NFT worth ETH!  To WIN You MUST:    1.) Follow @degenasaurus  2.) RT tweet BELOW + comment it  3.) OPTION -&gt; Join Discord post name in twitter comp channel: https://t.co/alAVVDlyQu  NFT: https://t.co/l37pUrR6Y3  Luck!!  @coinkit_ mon 35 1000 BTC  https://t.co/wFeOut8N85",116,856
1377145764413988864,"2021-03-31T06:28:31Z","DCT TOKEN Airdrop Medium Star Claim 1 DCT ($ 100) + 0.045 DCT ($ 10) for each referral you make.   Steps  💎  Join channel and group  💎  Follow twitter, like and retweet pinned message   💎  Submit eth wallet address (ERC-20) Participate now Airdrop link: https://t.co/L24stp8tVI https://t.co/CVYQyLAWwU",8692,8870
1377145757984194561,"2021-03-31T06:28:29Z","DCT TOKEN Airdrop Medium Star Claim 1 DCT ($ 100) + 0.045 DCT ($ 10) for each referral you make.   Steps  💎  Join channel and group  💎  Follow twitter, like and retweet pinned message   💎  Submit eth wallet address (ERC-20) Participate now Airdrop link: https://t.co/L24stp8tVI https://t.co/CVYQyLAWwU",8692,8870
1377145757757710345,"2021-03-31T06:28:29Z","DCT TOKEN Airdrop Medium Star Claim 1 DCT ($ 100) + 0.045 DCT ($ 10) for each referral you make.   Steps  💎  Join channel and group  💎  Follow twitter, like and retweet pinned message   💎  Submit eth wallet address (ERC-20) Participate now Airdrop link: https://t.co/L24stp8tVI https://t.co/CVYQyLAWwU",8692,8870
1377145755371114500,"2021-03-31T06:28:28Z","DCT TOKEN Airdrop Medium Star Claim 1 DCT ($ 100) + 0.045 DCT ($ 10) for each referral you make.   Steps  💎  Join channel and group  💎  Follow twitter, like and retweet pinned message   💎  Submit eth wallet address (ERC-20) Participate now Airdrop link: https://t.co/L24stp8tVI https://t.co/CVYQyLAWwU",8692,8870
1377145749578768384,"2021-03-31T06:28:27Z","DCT TOKEN Airdrop Medium Star Claim 1 DCT ($ 100) + 0.045 DCT ($ 10) for each referral you make.   Steps  💎  Join channel and group  💎  Follow twitter, like and retweet pinned message   💎  Submit eth wallet address (ERC-20) Participate now Airdrop link: https://t.co/L24stp8tVI https://t.co/CVYQyLAWwU",8692,8870
1377145745380319235,"2021-03-31T06:28:26Z","DCT TOKEN Airdrop Medium Star Claim 1 DCT ($ 100) + 0.045 DCT ($ 10) for each referral you make.   Steps  💎  Join channel and group  💎  Follow twitter, like and retweet pinned message   💎  Submit eth wallet address (ERC-20) Participate now Airdrop link: https://t.co/L24stp8tVI https://t.co/CVYQyLAWwU",8692,8870
1377145741525708805,"2021-03-31T06:28:25Z","RT @_Man_WithNoName: Eth is the Eth killer, Send It 🚀 #Ethereum https://t.co/KSni3yMN9c",135,26
1377145738807836674,"2021-03-31T06:28:24Z","We love this cheat sheet! Just check it out and comment what you think!  @stratisplatform @OpdexProtocol @alphabitltd @travalacom @CsharpCorner @Microsoft @Azure @unity3d @dotnet #Crypto #btc #bsc #eth @binance @Web3Shane https://t.co/q2bvWt2Cns",22,9
1377145738761629700,"2021-03-31T06:28:24Z","DCT TOKEN Airdrop Medium Star Claim 1 DCT ($ 100) + 0.045 DCT ($ 10) for each referral you make.   Steps  💎  Join channel and group  💎  Follow twitter, like and retweet pinned message   💎  Submit eth wallet address (ERC-20) Participate now Airdrop link: https://t.co/L24stp8tVI https://t.co/CVYQyLAWwU",8692,8870
1377145735049662467,"2021-03-31T06:28:24Z","DCT TOKEN Airdrop Medium Star Claim 1 DCT ($ 100) + 0.045 DCT ($ 10) for each referral you make.   Steps  💎  Join channel and group  💎  Follow twitter, like and retweet pinned message   💎  Submit eth wallet address (ERC-20) Participate now Airdrop link: https://t.co/L24stp8tVI https://t.co/CVYQyLAWwU",8692,8870
1377145724048089092,"2021-03-31T06:28:21Z","Genuinely curious if Art Twitter is going to boycott Paypal now..??? This is exponentially more environmentally damaging than NFTs because not only is Ethereum supported, but so is Bitcoin, which has 4x the emissions of ETH. What alternative platforms can independent artists use? https://t.co/zek7xyXwqL",1602,473
1377145718951931909,"2021-03-31T06:28:20Z","RT @intocryptoverse: I would not mind being reminded of what a $1900 $ETH feels like.",1541,69
1377145711850975234,"2021-03-31T06:28:18Z","🔥Shill Me The Next 100x‼️👇  I already got $BASE and will get even more.   👉 What else to get? 💎💵💎  🟩🟩🟩🟩🟩🟩🟩🟩🟩🟩🟩 @cctip_com airdrop 0.01 ETH 99999 $eth #crypto $dot #Ethereum",185,177
1377145711213473794,"2021-03-31T06:28:18Z","1) Take ETH flash loan(s) 2) Mint a X tokens 3) Add ETH-X liquidity 4) In a loop, do back and forth swaps between X and ETH to generate artificial trade volume of billions 5) Withdraw liquidity and pay back the flash loan(s) 6) (Optional) Pay millions in taxes.",60,5
