"ID","created_at","text","like_count","rt_count"
1375281312777469955,"2021-03-26T02:59:51Z","@LgDoucet interviewing @Wades_ETH is the @nbatopshot podcast equivalent of @KingJames and @StephenCurry30 playing on the same team for the #NBAAllStar game... except the game actually means something. https://t.co/zPx8LePVMV",3,0
1375281303117946885,"2021-03-26T02:59:48Z","BUNNEH’s #NFT is a #MentalHealth initiative we created!  Please get involved!! All funds from #BUNNEHs #NFT are being used to fund Mental Health Therapy for a loved one! Contribute to a fantastic cause https://t.co/pDr0GrcdGn  All NFT starting 0.005 $ETH @coinkit_ mon 25 1000 BTC",171,0
1375281261061627911,"2021-03-26T02:59:38Z","Aircoins (AIRx) now available on #CoinMarketCap  https://t.co/yq9NxjFWiS  To celebrate we are giving away $200 in #ETH and $200 In #BNB   To enter contest tag #BSC and #CMC   Two lucky winners will be selected March 28th 9am EST. #AIRx is both on #BSC &amp; #ETH networks!🎉🥳📸📱🥂💥 https://t.co/k1ytohl9Fa",479,0
1375281243428823044,"2021-03-26T02:59:34Z","RT @scoinaldo: We aren’t finished before $BTC 150k and $ETH 9k.  Good Night 🌙",3062,0
1375281234172076034,"2021-03-26T02:59:32Z","@Eth__J13 Faitin",1,0
1375281212835524608,"2021-03-26T02:59:27Z","🔥 New #NFTs art available on @rariblecom 🔥  Diamond Hands  #Ethereum #ETH  #NFT   Discover it here 👇 https://t.co/Ur901dKF9k https://t.co/doGogXRdVq",69,0
1375281203108974595,"2021-03-26T02:59:24Z","Keep sending your crypto &amp; fiat money My way.  I love seeing your virtual stash diminish in value as Mine goes up. It’s all about sacrifice.  I like BTC, ETH, ADA, XLM, DASH, ALGO, and the US dollar.  you’ve been great with BTC &amp; XLM. Keep going, or branch out.  *findom* https://t.co/FQ2wRcJdui",92,0
1375281190580613120,"2021-03-26T02:59:21Z","🔥 New #NFTs art available on @rariblecom 🔥  Diamond Hands  #Ethereum #ETH  #NFT   Discover it here 👇 https://t.co/Ur901dKF9k https://t.co/doGogXRdVq",69,0
1375281181986418688,"2021-03-26T02:59:19Z","BUNNEH’s #NFT is a #MentalHealth initiative we created!  Please get involved!! All funds from #BUNNEHs #NFT are being used to fund Mental Health Therapy for a loved one! Contribute to a fantastic cause https://t.co/pDr0GrcdGn  All NFT starting 0.005 $ETH @coinkit_ mon 25 1000 BTC",171,0
1375281174118010884,"2021-03-26T02:59:18Z","🗺️Anyone will be able to buy #NFTs on #TheSandbox Marketplace!  All you need are: 🔹An Account on The Sandbox 👉 https://t.co/9RYx8Fv8Iu 🔹$SAND (+$ETH for fees) to buy the #NFT of your choice 👉 https://t.co/KmurcwZaut  ⏳Launch: 30th March! https://t.co/2CoQ41swwb https://t.co/Jdp9ioYnch",144,0
1375281166199058435,"2021-03-26T02:59:16Z","🔥Yo are you excited ?  @dypfinance will be listing on my favourite exchange,  KuCoin!💫  ■DYP/USDT &amp; DYP/ETH trading will start tomorrow, March 25th at 10AM UTC!  ✅ More News at: https://t.co/vYtPN50K4e  ☆Stay tuned for more thrilling news  and innovations from $DYP https://t.co/Xd8hgWK2m2",283,0
1375281145546305542,"2021-03-26T02:59:11Z","@slaveofsaturn think it captures it?... we now live in a surreal world of tokens, &amp; dices of luck  dropped now: https://t.co/gSAa4V7kTE full collection link in my bio  #nft #NFTS #NFTART #artwork #nftcollectors #opensea #mintable #superrare #rarible #eth #cryptoart #cryptoartist  #nftcommunity",2,0
1375281098863771650,"2021-03-26T02:59:00Z","@lovecrypto11 There are a few options available, however I personally use ChartEx with their highest premium plan. Need to hold 5000 $CHART tokens (ETH network), and you get some handy features. Highly recommend",0,0
1375281085286780931,"2021-03-26T02:58:56Z","Any #cryptowhales wanna make an anonymous interview? The story of accumulating all the coins. Retweet plz. #Bitcoin #btc #eth #nft #nfts #Cryptocurrency #CryptoNews #blockchain #cryptowhale",1,0
1375281083990691847,"2021-03-26T02:58:56Z","RT @CryptoGodJohn: April thoughts.   $ETH out performs $BTC   $XRP out performs $ETH  DeFi out performs the market.",918,0
1375281074163609600,"2021-03-26T02:58:54Z","@JRNYcrypto I picked up a little more $ETH and also picked up a couple of small bags of $ALGO and $MANA.",4,0
1375281072393494532,"2021-03-26T02:58:53Z","Wow! 20k Followers!😍  Our family is growing exponentially, so to celebrate we're doing a competition! 🎁  ❶ Follow + RT ❷ Tag a friend and tell them what you like best about #ValueDefi  👉After 48h, 20 comments will win 6.8 $gvVALUE-B each!  Good luck frens!🍀  #BSC #ETH #DeFi https://t.co/WHnV5DU7TU",333,0
1375281062876741633,"2021-03-26T02:58:51Z","Any #cryptowhales wanna make an anonymous interview? The story of accumulating all the coins. Retweet plz. #Bitcoin #btc #eth #nft #nfts #Cryptocurrency #CryptoNews #blockchain #cryptowhale",1,1
1375281035970142208,"2021-03-26T02:58:45Z","Welcome to New NFT Panda Hero  #038 NFT Panda - Shadow (5/5)  He's Shadow. He's here to serve the Empire of Rarible.  No one can't stop NFT Pandas Pump  https://t.co/Kgtq2CeeUA  #nft #nftart #nftpanda #rarible #eth  #NFTs",13,1
1375281035622064138,"2021-03-26T02:58:45Z","Migration completed notice  RPO Dapp has completed migration from ETH to HECO. RPO DAPP  https://t.co/9BfS36oR7d RPO contract address: 0x3Dd639626f106Bd818E92bDCb102911C020CED77 Just importing ETH  private keys into HT Wallet to get your $RPO and NFT cars. LET'S START IT NOW! https://t.co/2eviIC6Ixp",206,1
1375280998531801092,"2021-03-26T02:58:36Z","RT @CashNCrypto: $150 to one person in 48hrs  Rt &amp; follow me + @domscrypto &amp; @boar_eth",2067,1
1375280988532568069,"2021-03-26T02:58:33Z","🌴 NEW ART DROP 🌴 'Green Oasis' only on @withFND 1/1 Reserve price 0.4 ETH #nftart #nftdrop #nftartist #nftcollectors #cryptoart  https://t.co/7yWvGfqccV https://t.co/w7Fpmm9dEk",111,1
1375280965468135430,"2021-03-26T02:58:28Z","$DYP liquidity providers earned 5,970.84 #ethereum worth $10,700,060 since launch!  Join one of their liquidity pools and earn up to 295.02% APY 💰  #defi #uniswap #eth https://t.co/lKbf20w2sm",1795,1
1375280947071905795,"2021-03-26T02:58:23Z","The good thing about @dypfinance Anti-Manipulation system is that it prevents the Liquidity providers to Sell $DYP instead they are earning $ETH as staking rewards 🧠  #DYP #ETH #Ethereum #SmartContract #DeFi https://t.co/yt6C9Vehln",1905,1
1375280938200920067,"2021-03-26T02:58:21Z","@slaveofsaturn 'stars &amp; dreams in her hand'  https://t.co/YnP97Amdri  #nft #NFTS #NFTART #opensource #artwork #nftcollectors #opensea #mintable #superrare #rarible #eth #cryptoart #cryptoartist  #nftcommunity #nftcollector",2,1
1375280915769819136,"2021-03-26T02:58:16Z","@slaveofsaturn 'stars &amp; dreams in her hand'  https://t.co/YnP97Amdri  #nft #NFTS #NFTART #opensource #artwork #nftcollectors #opensea #mintable #superrare #rarible #eth #cryptoart #cryptoartist  #nftcommunity #nftcollector",2,2
1375280910375915523,"2021-03-26T02:58:15Z","Since this the launch of @dypfinance back in Dec 2020 looks like Liquidity Providers have earned $11.4 Million dollars in $ETH just from Staking!  Also the project is paying out is $ETH as well and so far 6.2K $ETH have been rewarded.   #DeFi #Crypto #Cryptocurrency #BitcoinTalk https://t.co/zis10XPcL7",1802,2
1375280892940218369,"2021-03-26T02:58:11Z","RT @imporkchopNFT: @cryptomon_eth Becux Porky makes your day better! #nft   https://t.co/NY5EP1SEOU https://t.co/UkVwADKBNh",0,2
1375280884157358080,"2021-03-26T02:58:08Z","🔥 WoW!!! $DYP getting listed on @kucoincom !  DYP/USDT &amp; DYP/ETH trading will start tomorrow, March 25th at 10AM UTC! Good job @dypfinance team!  #DeFi #uniswap #Ethereum https://t.co/Rw9qa5l5tA",2225,2
1375280882941009924,"2021-03-26T02:58:08Z","@COVID88_bio @TheCryptoLark @fabulopolous Tons of dapps are making things to deal with the fees like uniswap v4 for now until eip 1559 comes out. So it will eventually go up but eth is just lagging very heavily.",0,0
1375280869624152064,"2021-03-26T02:58:05Z","@cryptomon_eth Becux Porky makes your day better! #nft   https://t.co/NY5EP1SEOU https://t.co/UkVwADKBNh",0,1
1375280869468897281,"2021-03-26T02:58:05Z","♦️ Attention #Etherians! ♦️   Space has opened in the #Ethereum pool on #Bancor for an additional 6,461.08 $ETH!  Stake single-sided with IL protection ➡️ https://t.co/e78uDra6sD",45,1
1375280850800050178,"2021-03-26T02:58:00Z","@Chasta_McNasty @CargoXio It’s on Kucoin, has a $BTC and $ETH pair",1,0
1375280833376837643,"2021-03-26T02:57:56Z","🔥Yo are you excited ?  @dypfinance will be listing on my favourite exchange,  KuCoin!💫  ■DYP/USDT &amp; DYP/ETH trading will start tomorrow, March 25th at 10AM UTC!  ✅ More News at: https://t.co/vYtPN50K4e  ☆Stay tuned for more thrilling news  and innovations from $DYP https://t.co/Xd8hgWK2m2",283,0
1375280828582830089,"2021-03-26T02:57:55Z","I'll send $500 in #ETH or #BTC to one person who retweets this and follows @bud_crypto. Must complete these tasks:  1 - Like/RT his pinned tweet  2 - Must RETWEET &amp; LIKE 4 of his tweets  Ends in 72 hours!",1406,0
1375280801407889412,"2021-03-26T02:57:49Z","RT @Zwistillus: Just made 69420 eth from a nft sale!!! 🤯🤯🤯🤯 Link your nft down below so I can buy them! 🤡",296,0
1375280793656901634,"2021-03-26T02:57:47Z","Looking to sell ¥13500 worth of buff balance for BTC/ETH. You must have rep. Better rate if you buy it all",0,0
1375280792755077123,"2021-03-26T02:57:47Z","Not too late to get in $jedi if you missed out on $poodl, $hoge, and you hate being rugged. Never too late to become a whale. https://t.co/NgNyWn35lm… #jedi #starwars $froge $grumpy $hoge $poodl $grug $btc $eth $conv $doge $pika $tnt $cate $war #bitcoin #Greys #ETH #DeFi",7,1
1375280776258801669,"2021-03-26T02:57:43Z","Bitcoin No. 12, 2020 #nft #art collectible $btc $rari $eth https://t.co/tHpzOykzvD? #rarible #ethereum #nonfungible #digitalasset #nfts #nftartist #cryptoart",3,0
1375280768700715012,"2021-03-26T02:57:41Z","#OKEx Earn up to $50 1. Buy crypto 2. Deposit 3. Complete trading milestones  🐰 Join OKEx with link  👉 https://t.co/BlAozkfRa6 to Earn #BTC from easy tasks!  #CTBot Adrop Ram 250 WIN 100 #JoinOKEx #OKEx #OKB #Bitcoin #ETH #DeFi https://t.co/OXff4vzPrN",42,0
1375280767383695361,"2021-03-26T02:57:41Z","📣Haze Finance #Giveaway📣  👉🏻We will be giving away 20 $HAZE(~$115 USD) to one lucky winner!👈🏻  ⏰Starting time: March 24th 7:15 pm EST ⏰Ending time:  March 28th 7:15 pm EST   #airdrop #prize $bnb $eth $btc #bsc #binance #defi #BinanceSmartChain #YieldFarming https://t.co/mE7CHtrFf9",28,0
1375280766851153920,"2021-03-26T02:57:40Z","RT IF YOU ARE HOLDING $FEG 🔥  LET'S SEE HOW MANY APES WE ARE 🦍  #FEG #FegEx #FEGarmy #Crypto #CryptoNews #bsc #ETH #Binance #PancakeSwap @FEGtoken https://t.co/EXwy2mWJar",503,0
1375280766377070593,"2021-03-26T02:57:40Z","🚀 Safe The Children  🔷 Token Symbol : STC  🔷 Contract: https://t.co/nk3qsF2PJV  🔷 Website: https://t.co/4y0g7dqswM  🔷 Whitepaper: https://t.co/PHPZI4dbyR  🔷 Presentation Video : https://t.co/Mycfov12IU  #Safe_Childrens #Bitcoin  #Binance #BinanceSmartChain #DEFI  #BTC #ETH",14722,0
1375280765504659460,"2021-03-26T02:57:40Z","🔄 Prices update in $USDT (1 hour):  $BTC - 51738.05 $      (-1.01 %) $ETH - 1613.45 $       (-0.87 %) $DOT - 30.9 $          (-0.15 %) $ADA - 1.11 $          (-0.83 %)  #BTC #ETH #DOT #ADA #Crypto #Bitcoin",0,0
1375280737427972098,"2021-03-26T02:57:33Z","Introducing //CreativeWorkStudios. NFT Collectables [experimental ​works from the studio engine room]  Now be releasing artworks daily, in varying editions. Today, Flex Squid @ 0.05 ETH  https://t.co/v0MzSTbek1  @ExtendedVictory @alexandermazzei @yetitears @TrendChaos #nft https://t.co/5soH1gKZcl",10,0
1375280723192541189,"2021-03-26T02:57:30Z","Good project, must join guys @erikpratama46 @arissetiawan342 #STC #ETH #DEFI #Airdrop https://t.co/NerTNjXN79",0,0
1375280717270163469,"2021-03-26T02:57:29Z","I just listed “Can't Hold Onto A Ghost ” for sale on @withFND! 🌐 Reserve is set @ 0.4 ETH! I really love this piece and would love for it to go to a loving collection.  https://t.co/DnGWypcnlB",44,0
1375280715223433216,"2021-03-26T02:57:28Z","Introducing //CreativeWorkStudios. NFT Collectables [experimental ​works from the studio engine room]  Now be releasing artworks daily, in varying editions. Today, Flex Squid @ 0.05 ETH  https://t.co/v0MzSTbek1  @ExtendedVictory @alexandermazzei @yetitears @TrendChaos #nft https://t.co/5soH1gKZcl",10,0
1375280696613216256,"2021-03-26T02:57:24Z","BUNNEH’s #NFT is a #MentalHealth initiative we created!  Please get involved!! All funds from #BUNNEHs #NFT are being used to fund Mental Health Therapy for a loved one! Contribute to a fantastic cause https://t.co/pDr0GrcdGn  All NFT starting 0.005 $ETH @coinkit_ mon 25 1000 BTC",171,0
1375280695652720642,"2021-03-26T02:57:23Z","Excited to release..ETHLady #FashionIllustrationNFT  #LatinaNFTArtist #NFT #NFTart #NFTCommunity #NFTFashion #ETH #ETHFashion #Ethereum #Fashionista   @alexandermazzei @ExtendedVictory @NFTArghtee @shareyournft @museumofnft @nftsuperstars @MobaGallery   https://t.co/kT5TftHDxQ",6,0
1375280679240491008,"2021-03-26T02:57:20Z","Crypto is a crowded space. Outside of $BTC and maybe $ETH, you're gonna need a good front man.",1,0
1375280673376862211,"2021-03-26T02:57:18Z","Excited to release..ETHLady #FashionIllustrationNFT  #LatinaNFTArtist #NFT #NFTart #NFTCommunity #NFTFashion #ETH #ETHFashion #Ethereum #Fashionista   @alexandermazzei @ExtendedVictory @NFTArghtee @shareyournft @museumofnft @nftsuperstars @MobaGallery   https://t.co/kT5TftHDxQ",6,0
1375280660772872195,"2021-03-26T02:57:15Z","Luciano Acosta bought for 0.204 ETH (332.11$) by CryptoKicks on the primary market   Season: 2020-2021 Level: 0 Serial: 34/100 Price: 332.11$  ⚽ Sorare: https://t.co/Stzo9BXGKt  📊: https://t.co/zI0jcqLARO  #Sorare #NFT #Ethereum #FantasyFootball",0,0
1375280647095246848,"2021-03-26T02:57:12Z","58.888 ETH ($95,325 USD) from @Crypto888crypto takes the lead!  10 mins left 👇  https://t.co/Oe5dSfVs07 https://t.co/sJrHwZ36NV",6,0
1375280639558045698,"2021-03-26T02:57:10Z","I don’t really expect $ETH to consistently be over $1743 until after April 11th, and most likely not until April 19th",1,0
1375280634147401735,"2021-03-26T02:57:09Z","@chrisjfranko “P964 Erste Abstrakt Explo Entwicklung” still available for bid with reserve price 0,36 ETH on @withFND. This is part 2/4 of my P Abstrkt Explo Proj collection  Link: https://t.co/izWle8Xjo1  #nft #nftart #cryptoart #3D #render #NFTartist #nftcollector #NFTCommunity",5,0
1375280633627348992,"2021-03-26T02:57:09Z","What to do with Bitcoin right now?🤔  #Ethereum #ETH #ethereum2 #cryptocurrencies #Crypto #Bitcoin #bitcoinprice #bitcoinnews #btc #CryptoNews #altcoins #BTC #bitcoinmining #cryptoexchange  https://t.co/GyQAy0nYoN",63,0
1375280622470582274,"2021-03-26T02:57:06Z","Check this out;    #PundiX 💎  CC: $btc $eth $NPXS $zpae $trx $dot #XPOS #XWallet $vet $XLM $theta #blockchain #cryptocurrency #Retail  #RetailTech #doge #altcoins #alts $algo #Airdrop $ada $ankr #AI $link $wrx $cos $cake $xrp #DeFi $enj $uni $bnb $luna $one $sol $hbar $CHZ $btt https://t.co/gLaVvUOZAv",285,0
1375280602585296901,"2021-03-26T02:57:01Z","@ChainCreatures @ILoveNFTs My first NFT is a surreal render of a fractal. Hope youll like them. Its available on @rariblecom  1/1 : price 0.425 ETH Also accepting bids https://t.co/JgG1hhboNi",2,0
1375280598034440196,"2021-03-26T02:57:00Z","Keep sending your crypto &amp; fiat money My way.  I love seeing your virtual stash diminish in value as Mine goes up. It’s all about sacrifice.  I like BTC, ETH, ADA, XLM, DASH, ALGO, and the US dollar.  you’ve been great with BTC &amp; XLM. Keep going, or branch out.  *findom* https://t.co/FQ2wRcJdui",92,0
1375280592447700994,"2021-03-26T02:56:59Z","Swap #Eth and #ERC20 tokens on the $HPB #blockchain network, and avoid the crazy #uniswap gas fees! - Mytrade on #HPB - https://t.co/T5RxWgwAvH",29,0
1375280579898351619,"2021-03-26T02:56:56Z","Ok Just got verified , more FLEET series on the way. https://t.co/pyixFb7s7I Working on bounty hunter ships.  #cryptoart #Cryptoartists #NFTs  #NFTCommunity  #nftcollector  #ETH  #ethereum #nft #nftart  #cryptocollectible #cryptoartists #opensea  @rariblecom #NFTCommunity https://t.co/U6MF6sOYnp",9,0
1375280568821108744,"2021-03-26T02:56:53Z","@tedtalksmacro what makes you think games are being played and it isn't because narratives of eth bottoming are floating around?",0,0
1375280566992429056,"2021-03-26T02:56:53Z","Bullish candle forming ✅ $ARPA @arpaofficial 🔥 📌Buback burn event end of this month 👀 📌Large scale test for privacy-preserving genome analysis. 📌ETH 2.0 BLS signature standard integration into ARPA MPC node. $CHZ $CHR $STMX $XVG $VRA $ONE $TROY $BNB $SC $DGB $ETH $ANKR $TRX https://t.co/yX2oDF9mvx",7,0
1375280544649465856,"2021-03-26T02:56:47Z","#btc Crypto's   #ETH - 0x3BC690c604d170BB53c155cb66074B4DE1172C36",0,0
1375280541528907778,"2021-03-26T02:56:47Z","#Holochain US patent. #crypto #cryptocurrency #CryptoNews #btc #bitcoin #ETH #Ethereum #xrp #Binance #altcoin #altcoins #invest #investing https://t.co/8Kn3etbzsr",47,0
1375280540861964290,"2021-03-26T02:56:47Z","RT @Einztein2: Any #NFT #nftart #nftartists #nftcollector #NFTCommunity with NFT's less than 1 Eth? Keep in touch with me...",378,0
1375280490039545857,"2021-03-26T02:56:34Z","Bullish candle forming ✅ $ARPA @arpaofficial 🔥 📌Buback burn event end of this month 👀 📌Large scale test for privacy-preserving genome analysis. 📌ETH 2.0 BLS signature standard integration into ARPA MPC node. $CHZ $CHR $STMX $XVG $VRA $ONE $TROY $BNB $SC $DGB $ETH $ANKR $TRX https://t.co/yX2oDF9mvx",7,0
1375280485870432258,"2021-03-26T02:56:33Z","🚀 Safe The Children  🔷 Token Symbol : STC  🔷 Contract: https://t.co/nk3qsF2PJV  🔷 Website: https://t.co/4y0g7dqswM  🔷 Whitepaper: https://t.co/PHPZI4dbyR  🔷 Presentation Video : https://t.co/Mycfov12IU  #Safe_Childrens #Bitcoin  #Binance #BinanceSmartChain #DEFI  #BTC #ETH",14722,0
1375280468354994182,"2021-03-26T02:56:29Z","Lucas Zelarayán bought for 0.443 ETH (721.20$) by U.S. Saturno SIT on the primary market   Season: 2020-2021 Level: 0 Serial: 58/100 Price: 721.20$  ⚽ Sorare: https://t.co/YEMu0Sa7wr  📊: https://t.co/RBksveOedR  #Sorare #NFT #Ethereum #FantasyFootball",0,0
1375280461262385157,"2021-03-26T02:56:28Z","New #digitalcurrencyalien #NFT pixel art available on https://t.co/zm1A0zl48c Limited to 1 mint each for 150+ artworks available using $ETH! RT for some free #Bitcoin !!  @coinkit_ com 50 1000 BTC #NFT",207,0
1375280454429909001,"2021-03-26T02:56:26Z","New #digitalcurrencyalien #NFT pixel art available on https://t.co/zm1A0zl48c Limited to 1 mint each for 150+ artworks available using $ETH! RT for some free #Bitcoin !!  @coinkit_ com 50 1000 BTC #NFT",207,0
1375280445919621127,"2021-03-26T02:56:24Z","Lucas Zelarayán bought for 0.443 ETH (721.20$) by U.S. Saturno SIT on the primary market   Season: 2020-2021 Level: 0 Serial: 58/100 Price: 721.20$  ⚽ Sorare: https://t.co/YEMu0Sa7wr  📊: https://t.co/RBksveOedR  #Sorare #NFT #Ethereum #FantasyFootball",0,1
1375280423316594692,"2021-03-26T02:56:19Z","Decentralized Exchange Uniswap Reveals Protocol Version 3 With New Automated Elements – Exchanges Bitcoin News $BTC $ETH $XRP $BCH $LTC $BNB $DOGE https://t.co/ligC2mwBiV",0,0
1375280421923999746,"2021-03-26T02:56:18Z","Bullish candle forming ✅ $ARPA @arpaofficial 🔥 📌Buback burn event end of this month 👀 📌Large scale test for privacy-preserving genome analysis. 📌ETH 2.0 BLS signature standard integration into ARPA MPC node. $CHZ $CHR $STMX $XVG $VRA $ONE $TROY $BNB $SC $DGB $ETH $ANKR $TRX https://t.co/yX2oDF9mvx",7,0
1375280418841227267,"2021-03-26T02:56:17Z","Who's hungry!😋 Mine PI on your phone! 🍕Click link  https://t.co/yPs5UI4ow0  Use code to get 1 PI free to get started  🍟Invitation code (only1loiloi)   #airdrop #cryptocurrency #bitcoin #binance #trx #eth #bnb #hungry4airdrops #bsc",0,0
1375280413443170307,"2021-03-26T02:56:16Z","Yooo !! $DYP trading is now live on #KuCoin!🚀  ☆ DYP/USDT: https://t.co/3R7KC2Vfy6 ◇ DYP/ETH: https://t.co/AkCQ30DqAq  You can find out more about @dypfinance in #KuCoinCryptoGem card  Join @dypfinance telegram growing community for latest updates  https://t.co/B5yzhwGqg8 https://t.co/vuTbQ7D1gn",217,0
1375280396535963649,"2021-03-26T02:56:12Z","$AKRO my old friend I'm buying here 🤡 . . . $BTC $ETH $XRP $DOT $KSM $LINK $BAT $GRT $THETA $LUNA $QTM $CHR $SXP $CRV $BNT $ROSE $STORJ $LTO $AUDIO $UTK $DOCK $AXS $AKRO $TROY $MBL $STMX  $ONE $TCT $NPXS $STORJ $ANKR $AUDIO $ASR $OSR $OG $NBS $MDT",2,1
1375280374230609925,"2021-03-26T02:56:07Z","i'm looking forward to the article in 5 years or less on how   Beeple could have been a billionaire if he had just held on to his $ETH   yes, i believe that will happen  i don't fault him for selling, btw, but it'll be a good headline nonetheless",195,1
1375280372372570115,"2021-03-26T02:56:06Z","Ripple Scores Goal: Court Assigns Telephonic Conference on #SEC Documents Regarding #BTC and #ETH  Here comes the 🔥   HODL #XRP!! 📈📈📈 https://t.co/3HjYFhN28R",555,1
1375280365607256065,"2021-03-26T02:56:05Z","The Pickers family now counts over 25k players🎉  To celebrate this milestone, we are giving away $50 of ETH and 3 exclusive #NFTs  How to join? ► Follow @CryptoPickHQ ► Like &amp; Retweet ► Tag 2 friends ► Comment your CryptoPick username below  🎁8 winners -⌛️Ends in 48H https://t.co/ItWwew1yv2",283,1
1375280357524693000,"2021-03-26T02:56:03Z","#BNB #BSC (Top Volume Coins)  #BSC #MidasDollar $MDO $MDS #Seigniorag #シニョリッジ #followback #Crypto #Blockchain  #Defi #zenism #ETH #BTC https://t.co/ILlwgMK3wF",0,0
1375280345772269570,"2021-03-26T02:56:00Z","Cryptoroo #018 is now live  a small homage to ETH Priced at 0.01 Eth Available @opensea   #NFTs #nftcollector #nftart #NFTartist #NFTcollectibles #CryptoNews #cryptocurrencies #cryptopunks   https://t.co/hU8u5npIoM https://t.co/ZWPFukrxaB",11,0
1375280335932452871,"2021-03-26T02:55:58Z","BUNNEH’s #NFT is a #MentalHealth initiative we created!  Please get involved!! All funds from #BUNNEHs #NFT are being used to fund Mental Health Therapy for a loved one! Contribute to a fantastic cause https://t.co/pDr0GrcdGn  All NFT starting 0.005 $ETH @coinkit_ mon 25 1000 BTC",171,0
1375280320682020864,"2021-03-26T02:55:54Z","Excited to release..ETHLady #FashionIllustrationNFT  #LatinaNFTArtist #NFT #NFTart #NFTCommunity #NFTFashion #ETH #ETHFashion #Ethereum #Fashionista   @alexandermazzei @ExtendedVictory @NFTArghtee @shareyournft @museumofnft @nftsuperstars @MobaGallery   https://t.co/kT5TftHDxQ",6,0
1375280318547066883,"2021-03-26T02:55:54Z","RT @NSapProductions: Ahhh yeah getting stoked for some staked $DIVI on $ETH courtesy of @stakedTokens! 🚀 https://t.co/QhTTBbJNzQ",95,0
1375280308602298368,"2021-03-26T02:55:51Z","BUNNEH’s #NFT is a #MentalHealth initiative we created!  Please get involved!! All funds from #BUNNEHs #NFT are being used to fund Mental Health Therapy for a loved one! Contribute to a fantastic cause https://t.co/pDr0GrcdGn  All NFT starting 0.005 $ETH @coinkit_ mon 25 1000 BTC",171,0
1375280293997764610,"2021-03-26T02:55:48Z","Big month for the 2021 Top 10 #cryptocurrencies, now up +194% in just two months.  $BNB, $ADA, &amp; $DOT were up *triple* digits in Feb while $BCH dropped out of the Top 10. How did the rest do?   https://t.co/20B0PORStf  #BTC  #ETH #Chainlink  #XRP #LTC #BCH #BNB #ADA #Polkadot https://t.co/HsHbw5QiwO",5,0
1375280276222382081,"2021-03-26T02:55:43Z","This is how eth projects distribute airdrops ontop of eth infra and basically give you shitty imitation fried onion rings that aren’t even paid for yet https://t.co/laqL0gKoTD",2,0
1375280272539783168,"2021-03-26T02:55:43Z","@BullyEsq Lol hbar does everything ethereum does only way way better   Hbar Over 100,000 tps  Eth a pathetic 7-10 tps  Hbar Asynchronous Byzantine fault Tolerant- strongest security possible  Eth kinda safe   Hbar exact fairness in ordering   Hbar 3 seconds to finality",1,0
1375280231074914306,"2021-03-26T02:55:33Z","@cryptomon_eth Because you like to look at it.",0,0
1375280195817508865,"2021-03-26T02:55:24Z","This shit reads different than most of the crypto whitepapers I've read. They're releasing a yellowpaper about the zApps enviroment.  $ZNN #bitcoin #eth #bnb #buythedip #zenonnetwork #cryptotwitter #ada #algo #DOT https://t.co/rT99QNROLb",1,0
1375280195121291277,"2021-03-26T02:55:24Z","Free 12,900 ONO for the first 9 people who liquidate at justswap  #airdrop #Airdrops #TRX #ONO #etherium #bitcoins   Join ONO Group https://t.co/vYKuY5mEJh https://t.co/zkVmRyJ95g",129,0
1375280182810923011,"2021-03-26T02:55:21Z","◽️ $LUNA 2021 Price Prediction Chart  This was created two months ago &amp; we are already ahead of schedule..  Apr - $14 May - $21 Jun - $31 Jul - $46 Aug - $66 Sep - $91 Oct - $125 Nov - $166 Dec - $216  This is due to burnt $LUNA &amp; its reducing circ supply 🔥  $UST $ANC $BTC $ETH https://t.co/fYagNobXQj",294,0
1375280175248769025,"2021-03-26T02:55:19Z","@TiborPNagyJr Not only #Eritrea committed war crime in #Tigray z Ethiopian government is also responsible for using starvation, rape,&amp;killing civilians as a weapon.z https://t.co/JrMCUu1EMK’t is the one who invited #Eritrea to do the Genocide in Tigray along with his troops and Amhara militias",0,0
1375280174078386176,"2021-03-26T02:55:19Z","We create a Safe Digital Trading Platform - you enjoy all benefits and become a professional trader with XcelToken Exchange!  #ExchangePlatform #Token #trader #btc #eth #XLD #XLAB #DigitalTrading #Forex #CryptoInvestor #Blockchain #Fintech #ERC20 #FinanceWorld #XcelDeFi #ledger https://t.co/w7hFu0SKZb",12,0
1375280144928141313,"2021-03-26T02:55:12Z","🔴BITCOIN &amp; ETHEREUM Price Prediction: 24. 3. 2021 [BTC &amp; ETH] Daily Crypto Technical Analysis https://t.co/AbXpi82CLW",0,0
1375280143669751813,"2021-03-26T02:55:12Z","What did you guys fill your bags with yesterday?  I got $ADA, $LINK, $ETH and $DOT",2,0
1375280142105202688,"2021-03-26T02:55:12Z","Innovative automated World-class crypto trading bot platform https://t.co/ElNRyGOLL6 #btc #bitcoin #usd # #암호화폐 #암호화폐거래소 #투자 #재테크 #금융 #비트코인 #bitcoin #btc #이더리움 #ethereum #eth #crypto #cryptocurrency #gate #gateio #gatekr #gatechain",0,0
1375280128364777481,"2021-03-26T02:55:08Z","1/ In the early days the symbols of blockchain land we came to explore and build on were merch &amp; events (we wear the highest priced BTC/ETH t-shirts), some even had a joy to taste BTC Pizza.🍕 Early pixel algo's came to create human-like symbols we relate to, as #CypherPunk NFTs.",1,0
