"ID","created_at","text","like_count","rt_count"
1374548993322086407,"2021-03-24T02:29:52Z","📌 The TokenKennel #Giveaway | Rules 📌 =   - Step 1: Like &amp; Retweet + tag 3-5 People! - Step 2: Follow @KennelToken &amp; @__Bullish__ - Step 3: Join https://t.co/1wcwTits9h - Step 4: Send Proof!   Prize = 100$ in #BTC or #ETH  06/04, we will announce the winner! 🎁",1814,2129
1374548991065559042,"2021-03-24T02:29:52Z","RT @volmexfinance: What’s your ETH address?  Don’t ask why, just drop it below 👇",4854,1656
1374548986627907587,"2021-03-24T02:29:50Z","💧Roku Network Airdrop 💧  🏆 Task:          ➕  15 ROK (~$5)  👨‍👩‍👧 Referral:   ➕  3 ROK (~$1)  🔛  Airdrop Link &amp; Information: https://t.co/YhvsOcfEbH  #cryptocurrency #Crypto #Bitcoin  #BSC #BinanceSmartChain #Ethereum #ETH #Airdrop #bounty #ROK #RokuCoin #RokuNetwork",3593,4683
1374548986535817217,"2021-03-24T02:29:50Z","$AKT  Strong tokenomics are a key factor we look at when assessing projects. @akashnet_'s inflation schedule will accelerate adoption of the network while rewarding early adopters.   #Crypto #Altseason2021 #ethereum #cryptocurrency  #akash #COSMOS $ATOM $SENT $BTC $ETH $KAVA https://t.co/ToFLghjl86",55,17
1374548972702818305,"2021-03-24T02:29:47Z","📌 The TokenKennel #Giveaway | Rules 📌 =   - Step 1: Like &amp; Retweet + tag 3-5 People! - Step 2: Follow @KennelToken &amp; @__Bullish__ - Step 3: Join https://t.co/1wcwTits9h - Step 4: Send Proof!   Prize = 100$ in #BTC or #ETH  06/04, we will announce the winner! 🎁",1814,2129
1374548972027613190,"2021-03-24T02:29:47Z","RT @volmexfinance: What’s your ETH address?  Don’t ask why, just drop it below 👇",4854,1656
1374548970618372096,"2021-03-24T02:29:47Z","@CryptoHass @Bancor Did you look at the pool before entering?   Amp/BNT pool has $56 dollars in fees generated in 24 hours, and it’s not a rewards boosted pool, so your solely earning fees of how busy the pool is.  At $56 / 24 hours it’s effectively dead  https://t.co/VM0eMkEDZH",5,0
1374548967632015361,"2021-03-24T02:29:46Z","🦉Owl #16 (The Punk Owl) has just been minted and dropped :) 🌕  Listed at 0.02 ETH   #NFT #NFTs #nftcollector #NFTcollectibles #nftcollection #NFTartist #nftart   Link —&gt; https://t.co/qzokSTITPp https://t.co/IJPpKQ1MLI",9,1
1374548965706899456,"2021-03-24T02:29:45Z","@CLongstockings @jkarlin929 @whale_alert I don’t hate eth but i just think 2021 is nt for eth",0,0
1374548963605372930,"2021-03-24T02:29:45Z","📌 The TokenKennel #Giveaway | Rules 📌 =   - Step 1: Like &amp; Retweet + tag 3-5 People! - Step 2: Follow @KennelToken &amp; @__Bullish__ - Step 3: Join https://t.co/1wcwTits9h - Step 4: Send Proof!   Prize = 100$ in #BTC or #ETH  06/04, we will announce the winner! 🎁",1814,2129
1374548962380685315,"2021-03-24T02:29:45Z","🔥We have started random global airdrop of 100,000 NFTs to single wallet ETH address 🚀 USDT-NFTs is listed on Uniswap  🚀 The contract address: 0x6599fc3e77cbfa6f6e9cac605a30b1e78827eba0  💰 Holding more NFTs makes you richer  🚀Like、Retweet &amp; Tag 3 friends  #NFTs #NFT #AIRDROP https://t.co/CMUC0Q0TXd",848,741
1374548956135395331,"2021-03-24T02:29:43Z","So dumb I figured it out. I don’t hold ETH and it’s making me pay for the gas fees with eth so I gotta buy some. Fuckin retarded. Exactly why I’m done with eth network all together",84,10
1374548954163990528,"2021-03-24T02:29:43Z","RT @BitAliens: What's your ETH address?  Don't ask why, just drop it below and RT 😉👽  https://t.co/htrPiAQfY2",144,143
1374548950452084736,"2021-03-24T02:29:42Z","💧Roku Network Airdrop 💧  🏆 Task:          ➕  15 ROK (~$5)  👨‍👩‍👧 Referral:   ➕  3 ROK (~$1)  🔛  Airdrop Link &amp; Information: https://t.co/YhvsOcfEbH  #cryptocurrency #Crypto #Bitcoin  #BSC #BinanceSmartChain #Ethereum #ETH #Airdrop #bounty #ROK #RokuCoin #RokuNetwork",3593,4683
1374548946161262592,"2021-03-24T02:29:41Z","🔥I will give $80USDT to 3 Random Followers who retweet this tweet in 24 hours 💰Just Like and Retweet 💰Follow @NFTs_Group  💰Turn notifications on🔔 💰Tag Your 5 Friends + #NFTs 🚀Good luck The more you share, the more likely you win. Let's play!  Leave your ETH wallet address https://t.co/MOwBkJ2nCC",871,783
1374548942680072200,"2021-03-24T02:29:40Z","I don't call #ETH the King of Fees for no reason. https://t.co/o2BKsGS9u9",3,0
1374548929933676544,"2021-03-24T02:29:37Z","📌 The TokenKennel #Giveaway | Rules 📌 =   - Step 1: Like &amp; Retweet + tag 3-5 People! - Step 2: Follow @KennelToken &amp; @__Bullish__ - Step 3: Join https://t.co/1wcwTits9h - Step 4: Send Proof!   Prize = 100$ in #BTC or #ETH  06/04, we will announce the winner! 🎁",1814,2129
1374548925982539779,"2021-03-24T02:29:36Z","🟣🟡New drop on @withFND🟡🟣  → https://t.co/xWc4yW3WOA  👁1/1 EDITION👁   ✨ETH 0,25 ✨  🔥Check out the story and hidden details!!🔥  #nftart #nftartist #nftcollector #nfthypesquad #cryptoart #eth #nft #artwithastory https://t.co/3qgDDrWajN",30,3
1374548917996679169,"2021-03-24T02:29:34Z","@BitcoinDood Agree, I don’t own ETH or any coin associated with it! Makes no sense economically... 👎",1,0
1374548916725764101,"2021-03-24T02:29:34Z","30 day EVIX: 96.1082 ETH/USD vwap: $1,676.43 04/09 expiry volume: $2,933,630.39 04/30 expiry volume: $9,153,494.32 Current time: 02:29:07",0,0
1374548916641787905,"2021-03-24T02:29:34Z","Btc liq supply ⬇️ since des 2020,, good news,, we will have big pump today $btc $eth $ada $xlm $xrp $xem $uni $comp $bnb $cake $bake $ltc $bch $iost $zil $doge $egld $eos #bitcoin #elonmusk $neo $atom $ltc $trx $aoa $luna $link $yfi $grt $sfi https://t.co/4gTRmzRd0L",2,0
1374548907112460289,"2021-03-24T02:29:31Z","#ProBit Exchange will open up $XDC wallets in 40 minutes, trading kicks off on the 26th with USDT, ETH, and KRW pairs 🎉 @XinFin_Official   https://t.co/ihzoNW8Q6U https://t.co/K4Kw3IsVwz",466,170
1374548906613354497,"2021-03-24T02:29:31Z","🔥We have started random global airdrop of 100,000 NFTs to single wallet ETH address 🚀 USDT-NFTs is listed on Uniswap  🚀 The contract address: 0x6599fc3e77cbfa6f6e9cac605a30b1e78827eba0  💰 Holding more NFTs makes you richer  🚀Like、Retweet &amp; Tag 3 friends  #NFTs #NFT #AIRDROP https://t.co/1tf4LcEX3C",1086,943
1374548903413043201,"2021-03-24T02:29:31Z","🦉Owl #15 (The Wizard Owl) has just been minted and dropped :) 🌕  Listed at 0.02 ETH  #NFT #NFTs #nftcollector #NFTcollectibles #nftcollection #NFTartist #nftart   Link —&gt; https://t.co/Nw2WpQykh0 https://t.co/N2sENZ7vbJ",4,1
1374548895506792448,"2021-03-24T02:29:29Z","🦉Owl #16 (The Punk Owl) has just been minted and dropped :) 🌕  Listed at 0.02 ETH   #NFT #NFTs #nftcollector #NFTcollectibles #nftcollection #NFTartist #nftart   Link —&gt; https://t.co/qzokSTITPp https://t.co/IJPpKQ1MLI",9,1
1374548888712065035,"2021-03-24T02:29:27Z","Today my $THETA bag passed my $ETH and $BTC bags  #Bitcoin https://t.co/51y2hcuGMb",4,0
1374548887290015749,"2021-03-24T02:29:27Z","@eligh I guess it’s time for me to acquire some eth",1,0
1374548882525462529,"2021-03-24T02:29:26Z","@weekinpolygon @0xPolygon @unmarshal @cryptocom Matic, I prefer matic, mind if I call you matic, you been my day 1, let’s show these ppl why your etherium’s solution!! https://t.co/AHVkgAYW5q",0,0
1374548881657184256,"2021-03-24T02:29:25Z","RT @davidgokhshtein: $ETH will smash $10,000 this year. No doubt about it.",1714,169
1374548878901571590,"2021-03-24T02:29:25Z","🎊Total Value Locked(TVL) in #TRON #DeFi Exceeded $6.2 Billion.  🚀As of 20:30, Feb 21, 2021(HKT), the total value locked in #JustStable, #JustLend, #JustSwap, #JustBTC/ETH/LTC, Total #TRX Frozen, SR Total Votes already exceeded $6.2 Billion.  🙌Thanks to all the users. https://t.co/8e49guWnSk",1912,1066
1374548858445959172,"2021-03-24T02:29:20Z","@IOHK_Charles Put simply.  You are trying to emulate Bitcoin BTC &amp; it's Immutable Truth without fear or favour  You already failed, you cannot. Your best case is a level 2, but you have already failed, ETH is years ahead, so now you are level 3, maybe not so bad?  Preacher's v Immutable Truth",0,0
1374548857930059776,"2021-03-24T02:29:20Z","🦉Owl #14 (The Maraca Owl) has just been minted and dropped :) 🌕   First animated Owl of the collection :)  Listed at 0.05 ETH  #NFT #NFTs #nftcollector #NFTcollectibles #nftcollection #NFTartist #nftart   Link —&gt; https://t.co/QKGcpdrVy1 https://t.co/hjIQh2ZMhm",1,1
1374548855736262662,"2021-03-24T02:29:19Z","📢Congrats！First launch on Uniswap！ 🚀USDT-NFTs trading pair is live！ 🚀The contract address:  0x6599fc3e77cbfa6f6e9cac605a30b1e78827eba0  💰Hold more NFTs, be richer！  🌸Like、Retweet &amp; Tag 3 friends  🚀Select 10 addresses to airdrop 1,000,000 NFTs, leave wallet #ETH address https://t.co/Slor4FBQzP",2958,2443
1374548846773108737,"2021-03-24T02:29:17Z","RT @NFTtrade: Ok second collecting time: What #NFT between up to 0.5 ETH is worth having?   Include your why",248,26
1374548845284139008,"2021-03-24T02:29:17Z","@poplink16 @saflornet666 @RSuwarko @AnggiKusmayati  Awesome project #POPO #ETH #BTC",0,0
1374548844843765760,"2021-03-24T02:29:17Z","🦉Owl #15 (The Wizard Owl) has just been minted and dropped :) 🌕  Listed at 0.02 ETH  #NFT #NFTs #nftcollector #NFTcollectibles #nftcollection #NFTartist #nftart   Link —&gt; https://t.co/Nw2WpQykh0 https://t.co/N2sENZ7vbJ",4,1
1374548839571415041,"2021-03-24T02:29:15Z","⚠️Stay tuned! ⚠️  Check out the latest chat with @GramCustodian  and the rest of the community! Updates and other $ZERO path forward 🙌🏻  🎵👉🏻https://t.co/6W4zq3Kdeu  #ZERODEX $AVAX $ETH $BSC #BSC #DEFI",133,23
1374548833347149825,"2021-03-24T02:29:14Z","✅ 𝗪𝗜𝗡 $1000 worth of #SAFEBTC  Expecting a #SAFEBTC bull run this month, regardless of what $BTC &amp; $ETH perform 🔥 To enter..   ✅ Follow, Like, Retweet &amp; Tag a Friend Below - Join https://t.co/4Irvtr1AHp  The winner will be chosen at random on APR 20, 2021 👍  Good luck!",58,48
1374548817056501761,"2021-03-24T02:29:10Z","@MasaSonCap Yes, this is why I'm 90% BTC &amp; only 10% ETH. ETH is more like a company stock however at some point they will relinquish all control to the stakers &amp; the protocol.  The code can run itself with no leaders just like BTC.",1,0
1374548809984794626,"2021-03-24T02:29:08Z","🔥We have started random global airdrop of 100,000 NFTs to single wallet ETH address 🚀 USDT-NFTs is listed on Uniswap  🚀 The contract address: 0x6599fc3e77cbfa6f6e9cac605a30b1e78827eba0  💰 Holding more NFTs makes you richer  🚀Like、Retweet &amp; Tag 3 friends  #NFTs #NFT #AIRDROP https://t.co/1tf4LcEX3C",1086,943
1374548805362855942,"2021-03-24T02:29:07Z","Just a reminder, Multichain Chaosnet will support 5 chains.   Cold, hard Layer1 liquidity.   Wouldn't have it any other way.   $RUNE $BTC $ETH $BCH $LTC $BNB https://t.co/f1CIcIKETX",220,39
1374548802846093316,"2021-03-24T02:29:07Z","💧YetuBit Airdrop 2nd Round💧  🏆 Task:          ➕  25 YETU (~$20)  👨‍👩‍👧 Referral:   ➕  5 YETU (~$4)  🔛  Airdrop Link &amp; Information: https://t.co/ZoGw3AR71I  #cryptocurrency #Crypto #Bitcoin  #BSC #BinanceSmartChain #Ethereum #ETH #Airdrop #bounty #YetuBit #YetuSwap #YETU",4310,5496
1374548750689996803,"2021-03-24T02:28:54Z","DO NOT MISS THIS!   Tomorrow we are going to be LIVE on @joinclubhouse with our partner @Bridge_Mutual 💥🙌🏻😍  #ZERODEX $AVAX $ETH $BSC $BMI #BSC #DEFI https://t.co/Y78M4dX2OK",128,27
1374548749779804162,"2021-03-24T02:28:54Z","📌 The TokenKennel #Giveaway | Rules 📌 =   - Step 1: Like &amp; Retweet + tag 3-5 People! - Step 2: Follow @KennelToken &amp; @__Bullish__ - Step 3: Join https://t.co/1wcwTits9h - Step 4: Send Proof!   Prize = 100$ in #BTC or #ETH  06/04, we will announce the winner! 🎁",1814,2129
1374548741693259778,"2021-03-24T02:28:52Z","RT @DreadBong0: $VXV getting a shout out on James Corden's The Late Late Show on Primetime TV 👀  $BTC $ETH #crypto https://t.co/Tcb2Gn6VMS",216,57
1374548728263147523,"2021-03-24T02:28:49Z","@IOHK_Charles @AIHammer Put simply.  You are trying to emulate Bitcoin BTC &amp; it's Immutable Truth without fear or favour  You already failed, you cannot. Your best case is a level 2, but you have already failed, ETH is years ahead, so now you are level 3, maybe not so bad?  Preacher's v Immutable Truth",0,0
1374548723104165888,"2021-03-24T02:28:48Z","🦉Owl #14 (The Maraca Owl) has just been minted and dropped :) 🌕   First animated Owl of the collection :)  Listed at 0.05 ETH  #NFT #NFTs #nftcollector #NFTcollectibles #nftcollection #NFTartist #nftart   Link —&gt; https://t.co/QKGcpdrVy1 https://t.co/hjIQh2ZMhm",1,1
1374548713675358210,"2021-03-24T02:28:45Z","RT @imBagsy: Buying up the entire $ETH supply. Get out of my way.",1238,54
1374548705618104320,"2021-03-24T02:28:43Z","down in usd down in $btc up in $eth",0,0
1374548700765257732,"2021-03-24T02:28:42Z","RT @buchara97: What’s your ETH address?  Don’t ask why, just drop it below 👇",210,35
1374548678778703872,"2021-03-24T02:28:37Z","Good bye old friends, $BTC $ETH $REN $WAN $LINK $AAVE $ALGO $UTK https://t.co/apUE5JIbNn",0,0
1374548669324689413,"2021-03-24T02:28:35Z","💧Roku Network Airdrop 💧  🏆 Task:          ➕  15 ROK (~$5)  👨‍👩‍👧 Referral:   ➕  3 ROK (~$1)  🔛  Airdrop Link &amp; Information: https://t.co/YhvsOcfEbH  #cryptocurrency #Crypto #Bitcoin  #BSC #BinanceSmartChain #Ethereum #ETH #Airdrop #bounty #ROK #RokuCoin #RokuNetwork",3593,4683
1374548666971615232,"2021-03-24T02:28:34Z","📌 The TokenKennel #Giveaway | Rules 📌 =   - Step 1: Like &amp; Retweet + tag 3-5 People! - Step 2: Follow @KennelToken &amp; @__Bullish__ - Step 3: Join https://t.co/1wcwTits9h - Step 4: Send Proof!   Prize = 100$ in #BTC or #ETH  06/04, we will announce the winner! 🎁",1814,2129
1374548664580861952,"2021-03-24T02:28:34Z","RT @kunalkamble: Next 1000x #coin #cryptocurrency #bitcoin #ALTSEASON #html $html #Ethereum #alternative $eth #gasfee",12,6
1374548622704996356,"2021-03-24T02:28:24Z","💧Roku Network Airdrop 💧  🏆 Task:          ➕  15 ROK (~$5)  👨‍👩‍👧 Referral:   ➕  3 ROK (~$1)  🔛  Airdrop Link &amp; Information: https://t.co/YhvsOcfEbH  #cryptocurrency #Crypto #Bitcoin  #BSC #BinanceSmartChain #Ethereum #ETH #Airdrop #bounty #ROK #RokuCoin #RokuNetwork",3593,4683
1374548622591725572,"2021-03-24T02:28:24Z","@krugman25 I’m not ignoring the idea that eth could not drop that low but that would most likely mean bitcoin would dump a large percentage from here as well?",0,0
1374548611535491077,"2021-03-24T02:28:21Z","Great news! @dypfinance team currently running tests on Kovan Test Network for the DYP Earn Vault!  ⭐Some features of $DYP Earn Vault: ~Support #ETH, WBTC, USDC, USDT, DAI ~5 different lockup durations ~Fixed APY for each pool  e.t.c  The DYP Earn Vault should be launched soon🥳 https://t.co/XyOBxjujIp",307,302
1374548611531468806,"2021-03-24T02:28:21Z","RT @SkillLVLKIMCHI: $drgn #drgn #eth #btc Not too late to jump on board ;) https://t.co/z3DdXdXtyH",23,6
1374548599032385542,"2021-03-24T02:28:18Z","RT @whale_alert: 🚨  6,000 #ETH (10,086,095 USD) transferred from unknown wallet to #Binance  https://t.co/YVFhjpb4hJ",45,7
1374548591532863491,"2021-03-24T02:28:16Z","Do keep up with #crypto news?   👀 How was #Bitcoin doing last week? 📈What assets outperformed $BTC and $ETH last week?  🏦 Which bank outlined a case for #cryptocurrency?   Install Stoic and beat FOMO with just 1 short weekly update:  📲https://t.co/EOz68V0w0S",25,4
1374548590840836102,"2021-03-24T02:28:16Z","💧DogeSwap Airdrop💧  🏆 Task:          ➕   7 DOG  👨‍👩‍👧 Referral:     ➕   2 DOG  🔛  Airdrop Link &amp; Information: https://t.co/3rlt9kiu64  #cryptocurrency #Crypto #Bitcoin  #DogeSwap #Ethereum #ETH #Airdrop #bounty #Doge #AirdropStario",3945,5026
1374548590438150144,"2021-03-24T02:28:16Z","No need to spend your own money to trade #cryptocurrency. Over 10K users won crypto rewards on @latokens last week. It's the best way to join the financial revolution. Start by earning a share of $100K in CLIQ airdrop: https://t.co/gUDENmkjbA #Bitcoin #ETH #Citi #AON #LATOKEN",0,0
1374548576735477767,"2021-03-24T02:28:13Z","What a great day!  Budget: 8 ETH to buy some #NFTs tonight.  1. Follow me 2. Like and retweet 3. Drop your NFTs in the comments, I'll buy your art! #NFTs #nft #nftcollector #nftart #cryptoart #nftcollectors #NFTcollectibles #NFTartist",346,167
1374548570716532738,"2021-03-24T02:28:11Z","No need to spend your own money to trade #cryptocurrency. Over 10K users won crypto rewards on @latokens last week. It's the best way to join the financial revolution. Start by earning a share of $100K in CLIQ airdrop: https://t.co/zGdcEaVrXf #Bitcoin #ETH #Citi #AON #LATOKEN",0,0
1374548569772986369,"2021-03-24T02:28:11Z","Сontinue to work and await offers for drops on @withFND ✨ 🔥🔥   #NFTs #NFTartist #ETH #nftcollectors https://t.co/l4fswYzbsN",2,0
1374548523216166913,"2021-03-24T02:28:00Z","RT @basedkarbon: Look at the bright side  The lower ETH goes, the less shitty you’ll feel about all the money you spent on NFTs",205,5
1374548495084949504,"2021-03-24T02:27:53Z","$drgn #drgn #eth #btc Not too late to jump on board ;) https://t.co/z3DdXdXtyH",23,6
1374548494870974466,"2021-03-24T02:27:53Z","Going back-to-back milestones, we just smashed through $300m of cross-chain TVL.🥇  A gain of over $50m in a few days, mostly going to #vPegSwap &amp; #vSafe.⭐️  Even with this massive amount of liquidity locked, there are still several 10k+ APY% #vFarms to join. ✅  #BSC #ETH #DeFi https://t.co/yBrYzKhu3N",139,66
1374548493499387910,"2021-03-24T02:27:53Z","📌 The TokenKennel #Giveaway | Rules 📌 =   - Step 1: Like &amp; Retweet + tag 3-5 People! - Step 2: Follow @KennelToken &amp; @__Bullish__ - Step 3: Join https://t.co/1wcwTits9h - Step 4: Send Proof!   Prize = 100$ in #BTC or #ETH  06/04, we will announce the winner! 🎁",1814,2129
1374548474860077056,"2021-03-24T02:27:48Z","@JeffInTokyo @nicksdjohnson where can one buy carbon offsets directly with ETH without having to give out personal info? cc: @offsetra",3,0
1374548474629218305,"2021-03-24T02:27:48Z","🚀 Safe The Children  🔷 Token Symbol : STC  🔷 Contract: https://t.co/nk3qsF2PJV  🔷 Website: https://t.co/4y0g7dqswM  🔷 Whitepaper: https://t.co/PHPZI4dbyR  🔷 Presentation Video : https://t.co/Mycfov12IU  #Safe_Childrens #Bitcoin  #Binance #BinanceSmartChain #DEFI  #BTC #ETH",13977,13665
1374548465380904960,"2021-03-24T02:27:46Z","@davthewave They read one Medium post about Elliot waves and can't spell Fibonacci but they think they got it figured out and go all into alts, not realizing they are simply gambling. This is true for many newbies and thus say: If you are new, stick to BTC (and maybe ETH). Don't get greedy.",0,0
1374548449329225729,"2021-03-24T02:27:42Z","📌 The TokenKennel #Giveaway | Rules 📌 =   - Step 1: Like &amp; Retweet + tag 3-5 People! - Step 2: Follow @KennelToken &amp; @__Bullish__ - Step 3: Join https://t.co/1wcwTits9h - Step 4: Send Proof!   Prize = 100$ in #BTC or #ETH  06/04, we will announce the winner! 🎁",1814,2129
1374548446267334656,"2021-03-24T02:27:42Z","📌 The TokenKennel #Giveaway | Rules 📌 =   - Step 1: Like &amp; Retweet + tag 3-5 People! - Step 2: Follow @KennelToken &amp; @__Bullish__ - Step 3: Join https://t.co/1wcwTits9h - Step 4: Send Proof!   Prize = 100$ in #BTC or #ETH  06/04, we will announce the winner! 🎁",1814,2129
1374548444052881408,"2021-03-24T02:27:41Z","📌 The TokenKennel #Giveaway | Rules 📌 =   - Step 1: Like &amp; Retweet + tag 3-5 People! - Step 2: Follow @KennelToken &amp; @__Bullish__ - Step 3: Join https://t.co/1wcwTits9h - Step 4: Send Proof!   Prize = 100$ in #BTC or #ETH  06/04, we will announce the winner! 🎁",1814,2129
1374548430970884097,"2021-03-24T02:27:38Z","@buchara97 widmer.eth should lead you to it.",2,0
1374548429330866177,"2021-03-24T02:27:38Z","$BTC obvious godzilla pattern.  $btc $eth $ada $bnb $xrp $dot $ltc $link $xlm $doge $uni $aave $eos $atom $trx $trx $avax $vet $xmr $btc https://t.co/DaiHnlk3LY",386,80
1374548423307796482,"2021-03-24T02:27:36Z","@queenwartooth Stick to ~ 80% BTC, maybe some ETH/BNB and you'll be set momma",0,0
1374548421596606467,"2021-03-24T02:27:36Z","Awesome news for $ENJ #Enjin  https://t.co/VE2rG2YiXZ  $etc $eth $btc $xtz $vet $cro $xvg $ltc $xrp $matic $enj $game $mana $senso $doge $iota $edr $hbar $cv $ada $xlm $cro",6,2
1374548421265166338,"2021-03-24T02:27:36Z","📌 The TokenKennel #Giveaway | Rules 📌 =   - Step 1: Like &amp; Retweet + tag 3-5 People! - Step 2: Follow @KennelToken &amp; @__Bullish__ - Step 3: Join https://t.co/1wcwTits9h - Step 4: Send Proof!   Prize = 100$ in #BTC or #ETH  06/04, we will announce the winner! 🎁",1814,2129
1374548415510552576,"2021-03-24T02:27:34Z","My Possessed collectible is now on sale for 17 Eth 👀😳 https://t.co/KFIoH9t16x",5,1
1374548397005365248,"2021-03-24T02:27:30Z","@his_eth Candyfloss is the newest addition to my Jackalope collection! https://t.co/Zvao08TMJE https://t.co/bw0mQI0fDF",0,0
1374548394451070977,"2021-03-24T02:27:29Z","5th #GIVEAWAY : Tester Opportunity &amp; #NFT  Looking for another 50 Testers using $UNI $SUSHI $COMP $CAKE $XVS $AUTO  to join our new DeFi product testing &amp; get NFT!   1. RT &amp; Follow  2. Comment your BSC address  #Defi #BSC #ETH #Airdrop #YieldFarming #LiquidityMining",244,246
1374548391573737478,"2021-03-24T02:27:29Z","RT @volmexfinance: What’s your ETH address?  Don’t ask why, just drop it below 👇",4854,1656
1374548378533515264,"2021-03-24T02:27:25Z","Which Blockchain system do you see as a strong, fast, secure and future investment? #bitcoin #bsc #heco #ethereum #avax #avalanche #solana #binance $eth $sol $avax $bnb $ht",33,7
1374548378525134848,"2021-03-24T02:27:25Z","Future eth https://t.co/oMKfEqA5Ft",0,0
1374548373483700234,"2021-03-24T02:27:24Z","I just listed “Realization ” for sale on @withFND! 🌐  0.25 ETH Reserve Price Support is appreciated! 🎨  https://t.co/xD9gqyw9nu https://t.co/GfwoXzW6uG",196,38
1374548336816975877,"2021-03-24T02:27:16Z","📌 The TokenKennel #Giveaway | Rules 📌 =   - Step 1: Like &amp; Retweet + tag 3-5 People! - Step 2: Follow @KennelToken &amp; @__Bullish__ - Step 3: Join https://t.co/1wcwTits9h - Step 4: Send Proof!   Prize = 100$ in #BTC or #ETH  06/04, we will announce the winner! 🎁",1814,2129
1374548326461362180,"2021-03-24T02:27:13Z","@volmexfinance philbirt.eth",0,0
1374548316353007616,"2021-03-24T02:27:11Z","#ProBit Exchange will open up $XDC wallets in 40 minutes, trading kicks off on the 26th with USDT, ETH, and KRW pairs 🎉 @XinFin_Official   https://t.co/ihzoNW8Q6U https://t.co/K4Kw3IsVwz",466,170
1374548302948077573,"2021-03-24T02:27:07Z","$POODL Gives back to the community $POODL Helps animal charities $POODL Loves poodles $POODL Loves all animals $POODL Is going to the moon!!!!!  Like &amp; Retweet this to be entered in the draw for $100 worth of eth!! https://t.co/IuYxcjNqHQ",68,51
1374548295138222086,"2021-03-24T02:27:06Z","🔥We have started random global airdrop of 100,000 NFTs to single wallet ETH address 🚀 USDT-NFTs is listed on Uniswap  🚀 The contract address: 0x6599fc3e77cbfa6f6e9cac605a30b1e78827eba0  💰 Holding more NFTs makes you richer  🚀Like、Retweet &amp; Tag 3 friends  #NFTs #NFT #AIRDROP https://t.co/1tf4LcEX3C",1086,943
1374548291610947586,"2021-03-24T02:27:05Z","Ultrarare Sapphire Master Art P&amp;M Jewelry Collection  Special offer before final burn Ξ 0.2  https://t.co/Lc1CSvBUTc  Want to win a NFT?  &gt; Retweet this post &gt; Tag 2 NFT enthusiasts   #rarible #ethereum #collectable #NFT #3D #art $ETH $rari #art  #nftgiveaway #superrare https://t.co/PMxOJEx1Vu",104,79
1374548264536567811,"2021-03-24T02:26:58Z","RT @Devic_eth: @CHANYEOLxNA Brooklyn 99 😎  #TheBoxOfficialRelease #BreakTheBoxWithChanyeol #더박스_지훈이의세상을응원해 #찬열이의_TheBox  #CHANYEOL #찬열",0,2
1374548260900114432,"2021-03-24T02:26:57Z","No need to spend your own money to trade #cryptocurrency. Over 10K users won crypto rewards on @latokens last week. It's the best way to join the financial revolution. Start by earning a share of $100K in CLIQ airdrop: https://t.co/i5181ggWPD #Bitcoin #ETH #Citi #AON #LATOKEN",0,0
1374548258702381058,"2021-03-24T02:26:57Z","@CryptAbby Doge and ETH, IMHO",0,0
1374548248107446273,"2021-03-24T02:26:54Z","Great news! @dypfinance team currently running tests on Kovan Test Network for the DYP Earn Vault!  ⭐Some features of $DYP Earn Vault: ~Support #ETH, WBTC, USDC, USDT, DAI ~5 different lockup durations ~Fixed APY for each pool  e.t.c  The DYP Earn Vault should be launched soon🥳 https://t.co/XyOBxjujIp",307,302
1374548233846804481,"2021-03-24T02:26:51Z","@cz_binance is the real GOD of #Defi.  #BSC is number one and #ETH is obsolete.    The $BSCX community will be delighted to get listed on the #Binance   Follow GOD and we can be rich!! $BNB Lead, $BSCX will follow!! https://t.co/yCd2nMFLis",185,105
1374548227156971521,"2021-03-24T02:26:49Z","ABUELITA is a personal treasure. .2 ETH reserve right now on Foundation. - https://t.co/FPXjEXqrIG - Hear the story in the comments below. - #NFTcommunity #NFTstories #NFTphotographer #NFtcollector",8,2
1374548220454580224,"2021-03-24T02:26:48Z","💧Roku Network Airdrop 💧  🏆 Task:          ➕  15 ROK (~$5)  👨‍👩‍👧 Referral:   ➕  3 ROK (~$1)  🔛  Airdrop Link &amp; Information: https://t.co/YhvsOcfEbH  #cryptocurrency #Crypto #Bitcoin  #BSC #BinanceSmartChain #Ethereum #ETH #Airdrop #bounty #ROK #RokuCoin #RokuNetwork",3593,4683
