"ID","created_at","text","like_count","rt_count"
1377855809527279616,"2021-04-02T05:29:58Z","$BTC looks quite a bit like $ETH did below $1400 🧐 https://t.co/aKXnnDV2mn",17,1
1377855797514788869,"2021-04-02T05:29:56Z","🔥@Modefi_official staking is off to an amazing start in less than 24 hours! 🔥  $2,437,776 TVL $400,000 in liquidity on @AnyswapNetwork ✅ 10x liquidity ✅ Over 10% of circulating supply is now locked up in staking ✅🚀  #Defi #Oracle #ETH #MOD $MOD $SWAP",217,73
1377855785531740161,"2021-04-02T05:29:53Z","🚘 $1.2 Million &amp; Tesla Giveaway ‼️  $BASE Protocol &amp; @Tesla have pooled over $1.2M USD for a 24h Giveaway MARATHON.  32 $ETH Airdropped every hour for the next 24 hours‼️  ⭐️ The final draw: ONE WALLET WIN A #TESLA CYBERTRUCK 🛻🚀  👉 Comment Ethereum address, Follow &amp; RT! https://t.co/n1tHCrucKk",169,176
1377855784009134081,"2021-04-02T05:29:52Z","RT @sassal0x: $ETH is now 20% of the way to $10,000.",1477,132
1377855783656947715,"2021-04-02T05:29:52Z","To those who think warmer temperatures and more CO2 is good for plants:  Climate change slowed global agricultural productivity growth by ~21% since 1961. That is equivalent of losing about seven years of farm productivity.  https://t.co/RlLAQZ9ci9",220,111
1377855774274113546,"2021-04-02T05:29:50Z","@akinxplufic26 @smelsopol @jchatterleyCNN @bgarlinghouse @Ripple After register then you can buy at this link :)  https://t.co/kNs3IMrWI9",0,0
1377855771543805957,"2021-04-02T05:29:49Z","If #BTC breaks $69,420 in APRIL 2021 I’ll give a random person my R8  Super SIMPLE: Like ✔️ RT ✔️ Follow ✔️ @JBTheCryptoKing  Drop eth addy ✔️ https://t.co/0ZTkU9CUuI",7875,3934
1377855764824518656,"2021-04-02T05:29:48Z","As $BTC and $ETH pumping hard and going up and down #alts having a hard time to breathe. As soon As this settles all alts will have a run IMO. Here some chartes how i think this is going to play out. $FLOW $BADGER $ALGO $REN https://t.co/WHzpv3yvd1",3,0
1377855752145154048,"2021-04-02T05:29:45Z","The first set of Ahegao NFTs sold out in a week, so I've been working on some more which are now live at https://t.co/MAOPR2F1DH  #pixel_dailies #nft #NFTs #nftart #nftartist #crypto #blockchain #eth #ethereum #digitalart #art #value #nftcollector #hentai #ahegao https://t.co/YWPHtqTMQv",78,704
1377855742825398274,"2021-04-02T05:29:43Z","My second piece is finally out! BLUE EYES TWO for sale on @withFND! 🌐  Bid starts at 1 ETH   Check it out https://t.co/UxlI4LHYRx #NFTs #NFT #NFTartist https://t.co/qhDAwPytb6",44,11
1377855713888804873,"2021-04-02T05:29:36Z","Twitter &amp; TG giveaway campaign! To celebrate the opening of new round of Sketchbox, RT &amp; join TG(https://t.co/vy5ZhiZfy7).  1 Winner will get 100$ worth of $PURPLE  New Sketch round begin at 9AM UTC today Reward Pool  0.25 ETH X4ppl (1%)  1 DOT X 30ppl (5%)  1 PLT X 100ppl (15%) https://t.co/I6sMkaLj0v",72,81
1377855713834233856,"2021-04-02T05:29:36Z","RT @transmissions11: @Tetranode @idan_stern fwiw there is a min borrow of 1 eth worth of DAI",5,1
1377855708427812864,"2021-04-02T05:29:34Z","$EPS and $AUTO 🔥  Buy at @PancakeSwap   $BTC $ETH $USDT $BNB $BUSD $LINK $GRT $BLZ $GRT $SNX $CAKE $BAKE $BIFI $DOGE $FIL $ADA $XLM $COMP $COTI $CHR $CHZ $DOT $REN $RSR $YFI $XCUR $TRX $EOS $ATOM $TOMO $SKL $CTK $HBAR $WAVES $XMR https://t.co/RWklX8axaq",3,0
1377855706045407232,"2021-04-02T05:29:34Z","A Legendary Bitcoin Chibi #NFT just sold for $4000 USDC! 👀  Another copy sold for 1.7 ETH ($3400) ! 👀  A lucky player made a 40x return on the winning spin!   \(★ω★)/  Check out more machines here~ https://t.co/SO2J41aZ18  $DOKI $AZUKI #DeGacha https://t.co/q7JjnwXC8d",51,22
1377855703164026880,"2021-04-02T05:29:33Z","Glad to announce that @BitKeepOS  reached a strategic Partnership with @JustLiquidity @JulSwap .  Julswap is the first @BinanceChain  Dex fully integrated and deployed in Bitkeep Wallet.  User can now trade,track,favorite Julswap pairs.  #julswap #juld #julb #bnb #BSC #btc #eth https://t.co/nvEpaZd4tn",1298,816
1377855696704786433,"2021-04-02T05:29:32Z","IMPORTANT NOTICE:   When you send $ETH or $USDT to buy $PRIVA on Pre-sale, please also send your Transaction ID (TxID) by using your account at https://t.co/OqxJNfnUuE. You can find your TxID at your withdrawal history on your exchange or wallet. https://t.co/CrlODtEFtv",235,185
1377855694884499456,"2021-04-02T05:29:31Z","Vite App is a wallet that supports Ethererum and the $Vite blockchain. There is a built-in DEX, which is called @ViteXExchange. To trade in ViteX, you need to convert your tokens from native to the mapping token on Vite. ie ETH and ETH-000 https://t.co/tsEb0Y5gn0",10,4
1377855687770968069,"2021-04-02T05:29:29Z","RT @kickexcom: 💵Today’s #crypto prices   $KICK TO THE MOON🚀  #Trade 👉🏽 https://t.co/YXe1MNNzjz  $BTC $ETH $BCH https://t.co/hNHMgkWCHY",43,9
1377855687523409924,"2021-04-02T05:29:29Z","Ripple/XRP-SEC vs Ripple Brad Garlinghouse Gives Update,XRP Has Competition,XRP New All Time High!  https://t.co/ucq4WeQBtZ  #XRP #BTC #ETH #BCH #LTC #xrpthestandard #ripple #ripplenews #DigitalPerspectives #Crypto #CryptonairesDocumentary https://t.co/iMdLinA4EA",69,15
1377855676526034945,"2021-04-02T05:29:27Z","If #BTC breaks $69,420 in APRIL 2021 I’ll give a random person my R8  Super SIMPLE: Like ✔️ RT ✔️ Follow ✔️ @JBTheCryptoKing  Drop eth addy ✔️ https://t.co/0ZTkU9CUuI",7875,3934
1377855666761691136,"2021-04-02T05:29:24Z","Current #SwipeSwap Liquidity Provider APY rates:  On #BSC: 104% $SXP-#BUSD  65% $SXP-#BNB  91% $SXP-#BTC  21% $USDT-#BUSD  95% $BTC-#BNB  87% $XVS-#BNB 74% $BNB-#BUSD 116% $BNB-#VAI 77% $ETH-#BNB 161% $DOT-#BNB 91% $ADA-#BNB 187% $TWT-#BNB  Get started 👉 https://t.co/i2uw3BGQZQ",645,117
1377855665847296003,"2021-04-02T05:29:24Z","If #BTC breaks $69,420 in APRIL 2021 I’ll give a random person my R8  Super SIMPLE: Like ✔️ RT ✔️ Follow ✔️ @JBTheCryptoKing  Drop eth addy ✔️ https://t.co/0ZTkU9CUuI",7875,3934
1377855648554045443,"2021-04-02T05:29:20Z","🏆 Top 5 Volume Leaders on https://t.co/y6LEWqrbWW 💚 $FIL @Filecoin 💚 $ETH @ethereum 💚 $BTC @Bitcoin 💚 $DOGE @dogecoin 💚 $EOS @block_one_ How many of these do you HODL? 👇",167,94
1377855616476196866,"2021-04-02T05:29:12Z","@majinsayan Ok so 1 Eth? Be 5k soon I promise",1,0
1377855595370323971,"2021-04-02T05:29:07Z","@trashstar_eth Oh What a Beautiful Life💜💚💛 https://t.co/SQVgWygkJZ",3,1
1377855583345336320,"2021-04-02T05:29:05Z","To those who think warmer temperatures and more CO2 is good for plants:  Climate change slowed global agricultural productivity growth by ~21% since 1961. That is equivalent of losing about seven years of farm productivity.  https://t.co/RlLAQZ9ci9",220,111
1377855579444613120,"2021-04-02T05:29:04Z","@WillZwey The Twin Sisters have been unleashed into the OpenSea ! #opensea @opensea #cryptoart #nonfungible #digitalasset #nft #nftart #nftcollectors #nftcollector #artist #BTC #NFTcollectibles #NFTCommunity #octopus #NFTs #NFTartists #digitalart #ETH #Ethereum 🐙🔗 https://t.co/moCt4757PH",2,0
1377855572104597504,"2021-04-02T05:29:02Z","If #BTC breaks $69,420 in APRIL 2021 I’ll give a random person my R8  Super SIMPLE: Like ✔️ RT ✔️ Follow ✔️ @JBTheCryptoKing  Drop eth addy ✔️ https://t.co/0ZTkU9CUuI",7875,3934
1377855568212332546,"2021-04-02T05:29:01Z","RT @jackbutcher: Reply🪙 &amp; RT to scratch.  (Winner will need an ETH wallet) https://t.co/A47BDcJpVd",651,836
1377855564374405122,"2021-04-02T05:29:00Z","*Giveaway Easter*  One lucky spirit will get this 1/1 Moon Lighter - 1.8 ETH ~$3200  1. Follow us 2. RT/share this post 3. Tag 2 friends  Winner selected Sunday 04/04  #NFT #Giveaway #nftart #cryptoart #NFTCommunity #NFTGiveaway #nftcollector #nfts   https://t.co/3hZH3GC6nh",88,81
1377855558351396867,"2021-04-02T05:28:59Z","Not much to chart on the OMI/ETH front yet. The trade record is still too low to do much with it, but at least it made a higher-low against Ethereum. Don't know if that'll last if ETH tears upward, though. https://t.co/Owna2joRjo",2,0
1377855555159654400,"2021-04-02T05:28:58Z","$ETH            vs         $2,000     ( •_•)                          (•_• )     ( ง )ง                          ୧( ୧ )    /︶\                              /︶\",12645,1704
1377855548968693767,"2021-04-02T05:28:56Z","RT @coinlistings: New CoinGecko Listing: $DETO  Twitter: @Delta_Exchange Contract: #ERC20 #ETH #bitcoin #crypto #coingecko https://t.co/VBF…",14,5
1377855547244961793,"2021-04-02T05:28:56Z","#Bitcoin hits $60,000, #ETH hits $2,000, #EGLD hits $160.  It's ironic that #EGLD seems to have the most room to explode.  New TA video coming tomorrow! New Video on the story of how I got into crypto coming this weekend! Do not miss it! 💎 🙌👊",172,27
1377855546544377861,"2021-04-02T05:28:56Z","If #BTC breaks $69,420 in APRIL 2021 I’ll give a random person my R8  Super SIMPLE: Like ✔️ RT ✔️ Follow ✔️ @JBTheCryptoKing  Drop eth addy ✔️ https://t.co/0ZTkU9CUuI",7875,3934
1377855545055576064,"2021-04-02T05:28:55Z","RT @CryptoSignalX: Last call for $GVT 🚀  pump coming 🔥🔥🔥  #BTC #ETH #BNB",17,5
1377855542044073984,"2021-04-02T05:28:55Z","#Binance Adds New Trading Pairs:  🔸 $NAV/ $ETH @Navcoin  🔸 $RVN/ $TRY @Ravencoin  🔸 $THETA/ $EUR @Theta_Network  🔸 $XVG/ $BUSD @vergecurrency   https://t.co/uHjlEnLPAS",987,283
1377855540898922497,"2021-04-02T05:28:54Z","A Legendary Bitcoin Chibi #NFT just sold for $4000 USDC! 👀  Another copy sold for 1.7 ETH ($3400) ! 👀  A lucky player made a 40x return on the winning spin!   \(★ω★)/  Check out more machines here~ https://t.co/SO2J41aZ18  $DOKI $AZUKI #DeGacha https://t.co/q7JjnwXC8d",51,22
1377855534297182208,"2021-04-02T05:28:53Z","$ETH            vs         $2,000     ( •_•)                            ( ง )=o                      (x_x )     /︶\                                _/￣|__",5098,613
1377855532032221187,"2021-04-02T05:28:52Z","400k $ETH flowed out from Coinbase a few days ago.   Speculative guess, institutions are now buying $ETH.  https://t.co/ix1AV5IFOm https://t.co/cYaaHkBgFf",2952,547
1377855528148201479,"2021-04-02T05:28:51Z","@scizocreator send me your eth addy,",1,0
1377855526671900672,"2021-04-02T05:28:51Z","🚨🎨 My first ever giveaway from my first NFT collection 🎨🚨 To win a #2 Street Wayne by NGB just : 1. RT this tweet and Follow me 2. Tag 2 people and drop your ETH address! Winner picked 4/4 ONLY 8 OF THESE EXIST! #nft #NFTCommunity #nfts #eth #opensea  https://t.co/MwzpYSlc7w",42,43
1377855520745291785,"2021-04-02T05:28:50Z","Ethereum.  I own a lot of Ethereum because I think it’s the closest to a true currency - Mark Cuban.  ETH and DeFi will be on fire in Q2 2021.",1883,232
1377855504068739074,"2021-04-02T05:28:46Z","@UFOS_4 @hicetnunc2000 @muratpak I think it is more friendly and inclusive, but I get how ETH has this premium appeal.",1,0
1377855496443588608,"2021-04-02T05:28:44Z","💧Twinci Airdrop 💧  🏆 Task:          ➕ $15 worth of  TRX                              ➕ $50 worth of TWIN  🔛 Airdrop Link &amp; Information: https://t.co/aV7t49dRDX  #cryptocurrency #Crypto #Bitcoin #Ethereum #ETH #Twinci #TWIN",1336,1777
1377855493633417217,"2021-04-02T05:28:43Z","RT @Bullrun_Gravano: $ETH  Send this bitch straight to $4K now. https://t.co/QO6cMv9Zws",174,15
1377855488205803527,"2021-04-02T05:28:42Z","⁦In 2015, @AlsisiOfficial⁩ signed the DoP among #Eth &amp; #Sud heads of states, overriding what he claims the colonial rights. Ironically, brags terrorizing the HoA.   One living in a glass house never stats throwing a rock!  ⁦@igadsecretariat⁩   https://t.co/7Nr0Jc8Q1b",0,0
1377855484657422336,"2021-04-02T05:28:41Z","💧Twinci Airdrop 💧  🏆 Task:          ➕ $15 worth of  TRX                              ➕ $50 worth of TWIN  🔛 Airdrop Link &amp; Information: https://t.co/aV7t49dRDX  #cryptocurrency #Crypto #Bitcoin #Ethereum #ETH #Twinci #TWIN",1336,1777
1377855463518216195,"2021-04-02T05:28:36Z","@elonmusk can we expect Tesla to use $ETH",0,0
1377855459948965889,"2021-04-02T05:28:35Z","RT @jackbutcher: Reply🪙 &amp; RT to scratch.  (Winner will need an ETH wallet) https://t.co/A47BDcJpVd",651,836
1377855456584949766,"2021-04-02T05:28:34Z","eth is so over now.  bmb is the new et Hirium!",76,0
1377855455821754368,"2021-04-02T05:28:34Z","If $VET is truly trailing $ADA then the next four weeks should be spectacular. $ADA went from 0.34$ to 1.48$ in the run that succeeded Point D. $VET is exactly at Point D now. Do your own research #VeFam. @JustinBennettFX @cryptoJTT @SalehAhmedd_   $BTC $ETH #bitcoin #ethereum https://t.co/mqvoj1HuVZ",756,166
1377855450184441857,"2021-04-02T05:28:33Z","RT @NFTsShoutout: I have 1 ETH to giveaway to enter just RT this and follow me. I’ll pick one of you tomorrow.",614,749
1377855449907617796,"2021-04-02T05:28:33Z","@randomboy86 $KAI millionaire making mechanism. APRIL updates you show you why!  $BTC $ETH $ADA $KAI $DOGE $LINK",15,0
1377855447240040448,"2021-04-02T05:28:32Z","💧Twinci Airdrop 💧  🏆 Task:          ➕ $15 worth of  TRX                              ➕ $50 worth of TWIN  🔛 Airdrop Link &amp; Information: https://t.co/aV7t49dRDX  #cryptocurrency #Crypto #Bitcoin #Ethereum #ETH #Twinci #TWIN",1336,1777
1377855424020504602,"2021-04-02T05:28:27Z","$ETH looks ready right here right now.",0,0
1377855422057508865,"2021-04-02T05:28:26Z","Thanks to our automation systems, you can make transfers comfortably and effortlessly 💸   Sending and exchanging your #cryptos is now much easier ✅   https://t.co/Y8sozj455P  $SAP $SAPG $BTC $ETH #BTC #ETH #cryptocurrency #crypto #Trade #Trading",2,1
1377855417481564160,"2021-04-02T05:28:25Z","RT @girlgone_crypto: 60k #bitcoin and 2k $ETH 🔥",2175,221
1377855416462307330,"2021-04-02T05:28:25Z","Cliq DAO Airdrop Officially Launched Fill this Form https://t.co/AFdBErdRVn to Get 500 CLQ Tokens Worth $50 USD  Don't Miss this chance  Token Distribution April 2021 Month End. #BSC $BNB $ETH $BTC  #Bitcoin #BinanceSmartChain #BNB #cryptocurrency #crypto #NFTs #Airdrops #Airdrop https://t.co/8whsgLzhEl",530,426
1377855411877974017,"2021-04-02T05:28:24Z","RT @sassal0x: $ETH is now 20% of the way to $10,000.",1477,132
1377855387416715264,"2021-04-02T05:28:18Z","RT @econoar: Front page of CNBC right now. @mcuban knows ETH is money. https://t.co/FMrBKDuExc",2088,348
1377855387001626636,"2021-04-02T05:28:18Z","To those who think warmer temperatures and more CO2 is good for plants:  Climate change slowed global agricultural productivity growth by ~21% since 1961. That is equivalent of losing about seven years of farm productivity.  https://t.co/RlLAQZ9ci9",220,111
1377855370085814277,"2021-04-02T05:28:14Z","Look what I just discovered on @opensea! #nft #opensea #nftartist #cryptoartist #NFTshill #nftcollector #cryptopunks #Ethereum #ETH https://t.co/c7FA4tjZF7",1,0
1377855366525026304,"2021-04-02T05:28:13Z","Top 10 coins for April + Targets: $ADA 🎯$3 $CAKE 🎯$50 $BAKE 🎯$5 $CRV 🎯$20 $SXP 🎯$20 #1INCH 🎯$20 $ALPHA 🎯$20 $DODO 🎯$20 $LINA 🎯$1 $REEF 🎯$1  #AltSeason #DeFi $eth #bnb #bsc $xrp $trx $dot $eos $neo $xtz $atom $avax $aave $uni $algo $link $super $ankr $one $ltc $yfi $egld https://t.co/XyQ4pBOWL3",815,227
1377855364792680448,"2021-04-02T05:28:12Z","📢AIRDROP📢  Today I will airdrop 50k tokens of my new project $NOPE to the community.  1. Follow @Mr_Chonky 2. Like this tweet 3. Retweet 4. Comment your ETH address below 👇👇👇  to enter the airdrop. https://t.co/heMYCYzBnp",2234,1918
1377855364205449218,"2021-04-02T05:28:12Z","@MaxMinsker @TopShotFanatic @topshotanalytix @Topshotbabe @Alanfalcon @sassal0x @MetaKingJames @NBATopShotEast @DanVerno @Block_J_ 50/50 ETH/BTC",2,0
1377855357599420417,"2021-04-02T05:28:11Z","@JBTheCryptoKing Mine ETH address is 0x26C7A8d4a003299534bc889D9dbFF78eC5DB1640",0,0
1377855334375518208,"2021-04-02T05:28:05Z","A Legendary Bitcoin Chibi #NFT just sold for $4000 USDC! 👀  Another copy sold for 1.7 ETH ($3400) ! 👀  A lucky player made a 40x return on the winning spin!   \(★ω★)/  Check out more machines here~ https://t.co/SO2J41aZ18  $DOKI $AZUKI #DeGacha https://t.co/q7JjnwXC8d",51,22
1377855332324573185,"2021-04-02T05:28:05Z","RT @NFTsShoutout: I have 1 ETH to giveaway to enter just RT this and follow me. I’ll pick one of you tomorrow.",614,749
1377855328537169922,"2021-04-02T05:28:04Z","Current #SwipeSwap Liquidity Provider APY rates:  On #BSC: 104% $SXP-#BUSD  65% $SXP-#BNB  91% $SXP-#BTC  21% $USDT-#BUSD  95% $BTC-#BNB  87% $XVS-#BNB 74% $BNB-#BUSD 116% $BNB-#VAI 77% $ETH-#BNB 161% $DOT-#BNB 91% $ADA-#BNB 187% $TWT-#BNB  Get started 👉 https://t.co/i2uw3BGQZQ",645,117
1377855324883873802,"2021-04-02T05:28:03Z","RT @CryptoTraderPro: #ETH https://t.co/X8nCdZoaox 🌍 SAFEST https://t.co/P1fGvLjInp ⟶ https://t.co/2cRSy2B7Nw √ https://t.co/YuryEbgojm",1,1
1377855320949731334,"2021-04-02T05:28:02Z","End of April Predictions: 🚨🔥🔥🚀    $RSR ~ $0.25 ￼  $DOT ~ $60   $KSM ~ $650 ￼  $LINK ~ $45   $VRA ~ $0.25 ￼  $ETH ~ $2.5k ￼  $BTC ~ $65k  Save this tweet and you can say he told me so otherwise if I’m wrong call me on it 🧐",244,30
1377855319041314816,"2021-04-02T05:28:02Z","0,15 ETH - How The Infection Grows Check out my second NFT listed on  @withFND  !  https://t.co/chHvY8wv3B    #Foundation #NFTCommunity #NFTCreator #NFTCollector #CryptoArt",1,0
1377855286237667328,"2021-04-02T05:27:54Z","😎TRIBUTE DROP!! @crypto_karens😎  Roo #790 has hopped onto the #ETH #Blockchain &amp; is now minted via @OpenSea.   Price:  Ξ0.25  Total Supply: 888  https://t.co/yvY5AG79ay  #tribute #nftcollectors #NFT #pixelart #NFTcommunity #NFTart https://t.co/WtvkblIGts",17,5
1377855284949946368,"2021-04-02T05:27:53Z","Which crypto is better and has a bigger future $ETH or $ALGO  #Algorand #Ethereum #BTC #Crypto #cryptocurrency $ALGO $ETH #ALTSEASON #altcoin",1,0
1377855275042971651,"2021-04-02T05:27:51Z","💧Fly Amanita Airdrop 💧  🏆 Task:          ➕ $5 worth of FLY  👨‍👩‍👧 Referral:   ➕ $0.5 worth of FLY  🔛Airdrop Link &amp; Information: https://t.co/Teh5tZDNPE  #cryptocurrency #Crypto #Bitcoin #Ethereum #ETH #Airdrop #bounty #FlyAmanita #FLY",1468,1809
1377855266994188290,"2021-04-02T05:27:49Z","Mark Cuban owns 30% ETH because it’s ‘closest to a true currency’  Mark Cuban recently stated that Bitcoin is a better alternative to gold, and compared Ethereum's smart contracts to the internet boom of the late 1990s.  Billionaire Mark Cuban believes E… https://t.co/Mcmy6bk0H8 https://t.co/4fmUY1DVA9",1,0
1377855266318733314,"2021-04-02T05:27:49Z","RT @cryptodude180: OMG SOMEONE BID 1 ETH ON MY ANIMATION!! 🚀🚀🚀🥚🥚🥚",523,13
1377855261759696897,"2021-04-02T05:27:48Z","Hi #NFTartists   Shill your NFT art below  👇  I still got some ETH in my wallet! 🤑 Couldn't pick one to buy myself an #NFT?  Like+RT+Follow for more recognition👀  #NFTCollector #NFTs #NFTCollectors #nftart #CryptoArt https://t.co/VUcAdjGmkB",153,42
1377855258089697281,"2021-04-02T05:27:47Z","400k $ETH flowed out from Coinbase a few days ago.   Speculative guess, institutions are now buying $ETH.  https://t.co/ix1AV5IFOm https://t.co/cYaaHkBgFf",2952,547
1377855251080957952,"2021-04-02T05:27:45Z","RT @intocryptoverse: 1 year ago, $ETH was &lt;$200. Now we are flirting with $2k.  I cannot wait until $ETH starts to do something",1456,87
1377855245569515524,"2021-04-02T05:27:44Z","@Cipher_eth @jamie247 Pretty cool, I’ll have to check it out.",0,0
1377855229270454276,"2021-04-02T05:27:40Z","RT @Antifiat_Atfi: Antifiat is listed on uniswap https://t.co/9TkJJOzegt  Liquidity locked  https://t.co/6yhdFFfrdQ  https://t.co/YWP2TGvy88",768,966
1377855222328872961,"2021-04-02T05:27:38Z","An #NFT of Elon Musks April fools tweet.  #elonmusk #aprilfools #crypto #cryptoart #cryptocurrency #bitcoin #eth #dogecoin #gme #amc  https://t.co/BZuug6X6oo",1,0
1377855208693379072,"2021-04-02T05:27:35Z","RT @Cointelegraph: The season of all-time highs isn't over!  ETH breaks $2,000 https://t.co/inelNFX9wk",477,100
1377855206717677570,"2021-04-02T05:27:35Z","#ETH https://t.co/X8nCdZoaox 🌍 SAFEST https://t.co/P1fGvLjInp ⟶ https://t.co/2cRSy2B7Nw √ https://t.co/YuryEbgojm",1,1
1377855188539691010,"2021-04-02T05:27:30Z","Stink bids on $BTC, $ETH, $LTC.  BTC - $55k-$56k ETH - $1750-$1800 LTC - $185-$190  Good chance we don't come back that low but if we do I want to be buying.",436,33
1377855184769064960,"2021-04-02T05:27:30Z","Ethereum 2000$ 🚀 #Ethereum #ETH",0,0
1377855171376594947,"2021-04-02T05:27:26Z","400k $ETH flowed out from Coinbase a few days ago.   Speculative guess, institutions are now buying $ETH.  https://t.co/ix1AV5IFOm https://t.co/cYaaHkBgFf",2952,547
1377855170311229442,"2021-04-02T05:27:26Z","RT @NiftyReport: #cryptopunks floor price falling rather quickly. Now at 17 ETH. https://t.co/4uHffVH0Be",182,27
1377855165328408576,"2021-04-02T05:27:25Z","If #BTC breaks $69,420 in APRIL 2021 I’ll give a random person my R8  Super SIMPLE: Like ✔️ RT ✔️ Follow ✔️ @JBTheCryptoKing  Drop eth addy ✔️ https://t.co/0ZTkU9CUuI",7875,3934
1377855161347940354,"2021-04-02T05:27:24Z","/6 $ETH | $USD: [5m] Would love to get some wicks in this green box below...but 2K is looking like the LTF floor atm...pretty neat stuff. Next immediate targets if this level holds are 2039, 2062 https://t.co/IplhGNkvIi",0,0
1377855154553290752,"2021-04-02T05:27:22Z","If #BTC breaks $69,420 in APRIL 2021 I’ll give a random person my R8  Super SIMPLE: Like ✔️ RT ✔️ Follow ✔️ @JBTheCryptoKing  Drop eth addy ✔️ https://t.co/0ZTkU9CUuI",7875,3934
1377855148236546048,"2021-04-02T05:27:21Z","RT @TheCryptoWolfOG: $ETH to $2500 in April or I'm giving away 0.5 $ETH to someone who retweets this.",373,638
1377855148165369857,"2021-04-02T05:27:21Z","@PeterLBrandt @PeterLBrandt that would be a very risky move especially if Eth 2.0 doesn't take care of the Gas fees if it doesn't you are screwed",0,0
1377855138673520640,"2021-04-02T05:27:19Z","$ETH            vs         $2,000     ( •_•)                            ( ง )=o                      (x_x )     /︶\                                _/￣|__",5098,613
1377855137578766336,"2021-04-02T05:27:18Z","Ⓜ️ Win Unique #NFTⓂ️  🎯 Register👉 https://t.co/IEckR49FYj  🔹 Enter Your BEP20 BSC Address 🔹 Enter Your Email  1. Retweet + Like #CTBot Adrop Ram 3 TRX 90 #eth #bnb #bsc #DeFi #nftart #NFTGiveaway #NFTCommunity #NFTartists #NFTs #NFTcollectibles #free #Airdrop #btc #altcoins https://t.co/N6bcD0m8ho",87,85
1377855136224055299,"2021-04-02T05:27:18Z","@saf_coin Nice Project all👌 #Saf #Bsv #Algo #Chz #Hbar #Dai #Btt #ust #Busd #Wbtc #Luna  My ETHERIUM Address: 0x1756b3F2684c2A1c9cC6cfD10199938d76A85DC3  Most Join @krabhishek1984  @Munakum83276776  @moneyloo38",1,0
1377855130490429442,"2021-04-02T05:27:17Z","$ETH            vs         $2,000     ( •_•)                          (•_• )     ( ง )ง                          ୧( ୧ )    /︶\                              /︶\",12645,1704
1377855129576112130,"2021-04-02T05:27:16Z","We've got a DJ set kicking off tomorrow's Cipher followed by a freestyle sesh in our Discord, high noon, 12 PM PST. https://t.co/d7K3kYWiFk  $ETH prizes up for grabs for the best flow.  Y'all know about Cipher yet? https://t.co/HHAalmARqR #CollectibleHipHop is on the horizon. https://t.co/mslk0Hl8HH",7,4
