"ID","created_at","text","like_count","rt_count"
1377002691210178563,"2021-03-30T20:59:59Z","@JRNYcrypto Ok Tony, now that @PayPal has launched their crypto checkout service, what's next for #ETH and #LTC?",0,0
1377002686944575490,"2021-03-30T20:59:58Z","@EndFiatNow @WoundedWookie @Jermeh8 @AleksSvetski @cloudatio @Bitcoinclaat Lol so I win again. I have a minor bag of eth that I’ll sell when I want to. Meanwhile, you’ll be my clown and entertainment",0,0
1377002684293734406,"2021-03-30T20:59:58Z","20. development in the $GME/ $AMC sage. We need EVERYONE to know about this.   Stay tuned for more My love to you all, kings and queens, thank you for your endless support. -Carlos #amc #gme #doge #btc #stock #stocks #ElonMusk #eth #etherium #amcstock #GME1M #Holo #Holi #Holi2021",356,67
1377002681395466241,"2021-03-30T20:59:57Z","#ETH to 3k USD in April or I’ll remove all my followers. 🙂 https://t.co/tI031bNqlM",0,0
1377002676521594881,"2021-03-30T20:59:56Z","I'll send $300 in #ETH or #BTC to one person who retweets this and follows @bud_crypto. Must complete these tasks:  1 - Like/RT his pinned tweet  2 - Must RETWEET &amp; LIKE 4 of his tweets  Ends in 72 hours!",1210,1759
1377002675695411203,"2021-03-30T20:59:56Z","RT @QuintenFrancois: $ETH to $2500 in April or I'm giving away 0.3 $ETH to someone who retweets this.",4150,6184
1377002668208627715,"2021-03-30T20:59:54Z","HAWT. With my partnership with @illuviumio I can give away 100 HOLOGRAPHIC Scoot Scarabok NFTs.  Similar ones have gone for 5 eth to 50 eth.  How to get -Post your ETH address + BATTLE SCOOT! below -Retweet/tag a friend -Follow @illuviumio and join their discord in bio https://t.co/xcCVVW6KdR",2754,2661
1377002662009339905,"2021-03-30T20:59:52Z","Join the official Telegram community for Release Projects to quickly get useful information about crypto assets REL token!  ★Let's go community 　https://t.co/BhRFvZLxlB  #Telegram #REL #BTC #ETH #USDT #Cryptocurrency #Investor #token #HotBit #AzBit #CoinsBit #Uniswap https://t.co/pnu3jg7FHg",22,7
1377002650995056641,"2021-03-30T20:59:50Z","@SpartanCasino Initial Capital is raised by IDO. This project raised captipal 2 times with ETH and BSC. (IRON and WAR)",0,0
1377002650982473729,"2021-03-30T20:59:50Z","RT @QuintenFrancois: $ETH to $2500 in April or I'm giving away 0.3 $ETH to someone who retweets this.",4150,6184
1377002639628455936,"2021-03-30T20:59:47Z","RT @QuintenFrancois: $ETH to $2500 in April or I'm giving away 0.3 $ETH to someone who retweets this.",4150,6184
1377002637611044864,"2021-03-30T20:59:46Z","RT @money_blizzard: Slide on down to our newest pools!   ❄️The ICE is NICE❄️  Stake your $BLZD to earn $ETH or $BTC https://t.co/kIJ9ghmG4a",41,12
1377002632166969350,"2021-03-30T20:59:45Z","To be a $1 Billion Project.. You only need to be in the Top 90  ✅ Top 90 - $1b ✅ Top 50 - $2b ✅ Top 10 - $12b ✅ Top 5 - $38b  Soon all Top 100 projects will have $1b mcaps 🔥  $QNT, $ZCX, $ALBT, $HTR, $MRPH, $ANC will be Top 50 projects..  Do the math 🚀  $BTC $ETH $DOT https://t.co/WNiR64ItVp",271,49
1377002629679747075,"2021-03-30T20:59:45Z","RT @QuintenFrancois: $ETH to $2500 in April or I'm giving away 0.3 $ETH to someone who retweets this.",4150,6184
1377002627918135297,"2021-03-30T20:59:44Z","RT @QuintenFrancois: $ETH to $2500 in April or I'm giving away 0.3 $ETH to someone who retweets this.",4150,6184
1377002626152329217,"2021-03-30T20:59:44Z","40 hours until Main Net 🚀  40 of the most popular tokens will be available across $ETH and BSC chains, including $BTC, $ETH, $LINK, $DOT, $ADA, $YFI, $UNI, $OMG, $GRT, $BNB, and $XRP.  Via complex swap, #OrionTerminal will have 1,500+ pairs via unique cross-pair functionality. https://t.co/QAOfl6Z1wn",743,235
1377002623946080257,"2021-03-30T20:59:43Z","As an early adopter of @lasereyepunks  (Andrew punk) I saw how he scaled his following and it has inspired me to do something similar. This NFT is created for you. Send me your eth address and you can claim for free 💥💥  https://t.co/UzgWSCTm6x https://t.co/MkpTV3CLBO",4,0
1377002617088450564,"2021-03-30T20:59:42Z","we all dumping our $ETH shares at resistance right?",0,0
1377002611510026241,"2021-03-30T20:59:40Z","RT @QuintenFrancois: $ETH to $2500 in April or I'm giving away 0.3 $ETH to someone who retweets this.",4150,6184
1377002608708231179,"2021-03-30T20:59:40Z","“Leonardo Di Vinci only created ONE Mona Lisa not TWO Mona Lisa” - Silvio Micali, Algorand Founder, explaining why chains like ALGORAND that NEVER FORK are superior for #NFTs versus chains like $ETH that fork.  The vast majority of blockchains suffer from forking  $ALGO is better https://t.co/wbKUod9coC",172,49
1377002608636932104,"2021-03-30T20:59:40Z","RT @QuintenFrancois: $ETH to $2500 in April or I'm giving away 0.3 $ETH to someone who retweets this.",4150,6184
1377002601514999809,"2021-03-30T20:59:38Z","Look what I just discovered on @opensea! #nft #opensea https://t.co/2PP9SoGUOA #the #Deaf  #guides when the #Eye  #cannot #see #drawing #line #portraits #collections #Bitcoin #ETH",2,0
1377002600793526273,"2021-03-30T20:59:38Z","One of my favourite photos is available on @opensea for 0.6 ETH 💚  I hope you love it as much as I do 👽  #cryptoart #NFTCommunity #NFTs #NFTartist   https://t.co/rnOMUhhQt2 https://t.co/MegFg1QgLa",72,24
1377002599082160130,"2021-03-30T20:59:37Z","❄️ NEW POOLS ON https://t.co/BPiqFSXLQu! ❄️  Earn $ETH or $BTC by staking $BLZD  YETI FAST, our pools will close in 6 days. https://t.co/j7f8lU7r7Y",89,24
1377002595169005568,"2021-03-30T20:59:36Z","20. development in the $GME/ $AMC sage. We need EVERYONE to know about this.   Stay tuned for more My love to you all, kings and queens, thank you for your endless support. -Carlos #amc #gme #doge #btc #stock #stocks #ElonMusk #eth #etherium #amcstock #GME1M #Holo #Holi #Holi2021",356,67
1377002587258511360,"2021-03-30T20:59:34Z","I just burned all my #NFTs on Opensea except for Abstract Planes to mint them on @signArtApp.  It's definetely better for non-collection based creations to move them there and give others opportunity to buy them without silly ETH gas fees.",26,5
1377002583244558339,"2021-03-30T20:59:33Z","🔸 New Listing🔸   #BKEX will list #DRYCAKE @DryCakeSwap🚀 🚀  - Trading pair: DRYCAKE/USDT - Trading time: 20:00 on Mar 29 (UTC+8)  🔹 🔹 More details: https://t.co/kC2IIebfTT  #Bitcoin #ETH #BKK #Blockchain https://t.co/w8CHyKXaUD",2449,3537
1377002581738815489,"2021-03-30T20:59:33Z","Mitchel Bakker bought for 0.204 ETH (379.20$) on the secondary market   Season: 2020-2021 Level: 0 Serial: 50/100 Price: 379.20$  ⚽ Sorare: https://t.co/qIK7giOked  📊: https://t.co/5qVLKIbyAa  #Sorare #NFT #Ethereum #FantasyFootball",0,0
1377002580862205952,"2021-03-30T20:59:33Z","IMPORTANT NOTICE:   When you send $ETH or $USDT to buy $PRIVA on Pre-sale, please also send your Transaction ID (TxID) by using your account at https://t.co/OqxJNfnUuE. You can find your TxID at your withdrawal history on your exchange or wallet. https://t.co/CrlODtEFtv",234,184
1377002577573806081,"2021-03-30T20:59:32Z","RT @JRNYcrypto: Goodmorning to everyone besides the people that comment you shouldn't of sold your ETH bro",3833,116
1377002573966635008,"2021-03-30T20:59:31Z","@chenzenGG @sassal0x The $ADA maxis are busy focusing on their own investment. Something you Eth maxis should entertain.",0,0
1377002562822504450,"2021-03-30T20:59:29Z","If $ETH hits $2,000 by 9pm ET, I’ll send a random follower 100 $ALGO with screenshots to document. I only have 1 follower at the moment so it’s looking good for you, @DNelly03!  $BTC $ADA",2,1
1377002558821068801,"2021-03-30T20:59:28Z","🍄VOTE to name the 1st #NFT Etherian #Crypto Prophet from gen.1   Comment+RT  1. Stump 2. Hollow Prince 3. Ancestree 4. Mighty Oak  #nftcollectors #gaming_news #blockchaingame #matic #blockchain #cryptocurrency #CT #Polygon  #NFTs #ETH #Ethereum   Sign up: https://t.co/EjmDEIe0jV https://t.co/IXgx85xgDu",273,229
1377002555570540551,"2021-03-30T20:59:27Z","@JRNYcrypto Lmao, I sold my ETH and bought some BNB at $269, my only regret is trying to buy some LTC on Coinbase prior to this decision, since Coinbase wouldn't and still wont let me transfer my LTC to Binance for another week. LTC went up too though, so I guess I'm winning? 😂",0,0
1377002549652434953,"2021-03-30T20:59:25Z","19. I hope this was clear for you guys. I will cover this in a video, and I am working on the script already. Follow me if you havent &amp;please PLEASE I beg, please like and quote retweet this with #amc and #gme hashtags. Like go crazy, this is a huge ... $gme $amc $koss #doge #eth https://t.co/K6uZC77rUb",274,67
1377002541943164929,"2021-03-30T20:59:24Z","Cryptocurrency: whatever the future holds, right now it is a way to make money (whatever form 'money' eventually takes). And the great thing about trading from Australia is we will be the first to see #Bitcoin hit 80K. Soon too, from the looks of it. #BTC #XMR #ETH #DENT #FET",3,0
1377002534934433792,"2021-03-30T20:59:22Z","To be a $1 Billion Project.. You only need to be in the Top 90  ✅ Top 90 - $1b ✅ Top 50 - $2b ✅ Top 10 - $12b ✅ Top 5 - $38b  Soon all Top 100 projects will have $1b mcaps 🔥  $QNT, $ZCX, $ALBT, $HTR, $MRPH, $ANC will be Top 50 projects..  Do the math 🚀  $BTC $ETH $DOT https://t.co/WNiR64ItVp",271,49
1377002533684703234,"2021-03-30T20:59:22Z","RT @QuintenFrancois: $ETH to $2500 in April or I'm giving away 0.3 $ETH to someone who retweets this.",4150,6184
1377002531046449157,"2021-03-30T20:59:21Z","To be a $1 Billion Project.. You only need to be in the Top 90  ✅ Top 90 - $1b ✅ Top 50 - $2b ✅ Top 10 - $12b ✅ Top 5 - $38b  Soon all Top 100 projects will have $1b mcaps 🔥  $QNT, $ZCX, $ALBT, $HTR, $MRPH, $ANC will be Top 50 projects..  Do the math 🚀  $BTC $ETH $DOT https://t.co/WNiR64ItVp",271,49
1377002525560307718,"2021-03-30T20:59:20Z","RT @QuintenFrancois: $ETH to $2500 in April or I'm giving away 0.3 $ETH to someone who retweets this.",4150,6184
1377002517406625801,"2021-03-30T20:59:18Z","$POLY was at $0.50 Is now above $0.65 $KMD was at $1.73 Is now above $2.75 $XVS was at $37 is now above $63 $XRP was at $0.46 is now above $0.56  Imagine not having a #mentor! I could be yours  ;)  #NFT #DeFi #cryptocurrency #ETH #BNB #BTT # https://t.co/9ZVbcLCWkt",3,0
1377002502357417992,"2021-03-30T20:59:14Z","@MaazaMengiste in particular wants to muddy the waters by drawing attn away from the fact that what is happening in Tigray is violence of a scale diff than anywhere in eth, genocidal and state sanctioned. Hence, why she has to draw in George Floyd, colonialism and photography",51,9
1377002496787324930,"2021-03-30T20:59:13Z","@elonmusk Can you consider donating to an amazing App called Storyfire.  You can actually buy it. Reserve price is 1 ETH at Open Sea. Includes source codes, logo, brilliant community of writers and video creators and a one of a kind NFT art collectable. Social feed is great too!!",4,2
1377002494459543552,"2021-03-30T20:59:12Z","RT @QuintenFrancois: $ETH to $2500 in April or I'm giving away 0.3 $ETH to someone who retweets this.",4150,6184
1377002493834592263,"2021-03-30T20:59:12Z","$AUDIO  Up 10X since March and it still looks like it’s gonna get sent. This is the next $THETA , but on the $ETH / $SOL block chains.  #Bitcoin #Binance #DeFi https://t.co/7J8tjv3xsN",2,1
1377002488847536129,"2021-03-30T20:59:11Z","@luvthoties @eth_ral i love this",1,0
1377002487362764806,"2021-03-30T20:59:11Z",". @LBRYcom, we from @scashofficial are at your side. Count on us!  FLW, LIKE &amp; RT  @coinkit_ give 100 10 $smart #helplbrysavecrypto  #crypto #cryptocurrency  #DeFi #altcoins  #altcoin #ETH #BNB #BCH #BTC #BSC #bitcoin #btc #ADA #Binance #NFT #NFTs #nftart #NFTCommunity #NFTartist",165,224
1377002482543513600,"2021-03-30T20:59:09Z","$HOT is only getting started.  @holochain  Hodlr @H_O_L_O_  $HOT #Holochain #Holo #Hot  #cryptocurrency #Crypto #HoloFuel #bitcoin  #btc  #Ethereum #blockchain #eth #Currency #xrp #altcoin #Binance  #CryptoNews https://t.co/Uv952tzsVH",17,4
1377002479032877060,"2021-03-30T20:59:09Z","RT @QuintenFrancois: $ETH to $2500 in April or I'm giving away 0.3 $ETH to someone who retweets this.",4150,6184
1377002478126907398,"2021-03-30T20:59:08Z","HAWT. With my partnership with @illuviumio I can give away 100 HOLOGRAPHIC Scoot Scarabok NFTs.  Similar ones have gone for 5 eth to 50 eth.  How to get -Post your ETH address + BATTLE SCOOT! below -Retweet/tag a friend -Follow @illuviumio and join their discord in bio https://t.co/xcCVVW6KdR",2754,2661
1377002476818341895,"2021-03-30T20:59:08Z","Here's ATPunk 046: Garbiñe Muguruza. A former world number 1, she also holds 2 Grand Slam titles! 1/1 #NFT available for 0.04 $ETH on @opensea: https://t.co/msQc5MhR0V #NFTs #unofficialpunks #nftcollectibles",2,0
1377002470799462403,"2021-03-30T20:59:07Z","HAWT. With my partnership with @illuviumio I can give away 100 HOLOGRAPHIC Scoot Scarabok NFTs.  Similar ones have gone for 5 eth to 50 eth.  How to get -Post your ETH address + BATTLE SCOOT! below -Retweet/tag a friend -Follow @illuviumio and join their discord in bio https://t.co/xcCVVW6KdR",2754,2661
1377002467846549505,"2021-03-30T20:59:06Z","@QuintenFrancois Hook me up . As I must hop on this ETH train and hodl",0,0
1377002457209921540,"2021-03-30T20:59:03Z","RT @cousincrypt0: Smell that? Smells like 2K $eth around the corner 😏",1299,65
1377002456371060736,"2021-03-30T20:59:03Z","To be a $1 Billion Project.. You only need to be in the Top 90  ✅ Top 90 - $1b ✅ Top 50 - $2b ✅ Top 10 - $12b ✅ Top 5 - $38b  Soon all Top 100 projects will have $1b mcaps 🔥  $QNT, $ZCX, $ALBT, $HTR, $MRPH, $ANC will be Top 50 projects..  Do the math 🚀  $BTC $ETH $DOT https://t.co/WNiR64ItVp",271,49
1377002455809019905,"2021-03-30T20:59:03Z","$COPE-USDC Fusion pool is up and running on Raydium.   COPE rewards for staked LPs will begin shortly to give a chance to get into the pools.  USDC trading pairs for BTC, ETH, SOL, SRM, FTT, YFI, SUSHI also up!   @cyrii_MM https://t.co/LROBquugP5",319,72
1377002455200841730,"2021-03-30T20:59:03Z","RT @QuintenFrancois: $ETH to $2500 in April or I'm giving away 0.3 $ETH to someone who retweets this.",4150,6184
1377002439992283136,"2021-03-30T20:58:59Z","Seems like things are looking bullish for $ETH again. Time for some sentiment analysis...  When will it break $2k? 🤔",164,15
1377002432153092098,"2021-03-30T20:58:57Z","Oasis Protocol Foundation is Designed for the next generation of blockchain, the @OasisProtocol is the first privacy-enabled blockchain platform for open finance and a responsible data economy. $ROSE #OasisNetwork   #CTBot Adrop Avg 0.0001 ETH 65 https://t.co/LffUpljIqq",70,79
1377002430215421958,"2021-03-30T20:58:57Z","#Blockchain technology powers more than just $BTC and $ETH. Learn more about Grayscale Basic Attention Token Trust. $BAT https://t.co/uBB2SlAIZc https://t.co/Y6EtaWDZL0",168,28
1377002428386660352,"2021-03-30T20:58:57Z","RT @QuintenFrancois: $ETH to $2500 in April or I'm giving away 0.3 $ETH to someone who retweets this.",4150,6184
1377002421755506692,"2021-03-30T20:58:55Z","@tcrpty King $ETH's CryptDeck is prepared for its master  Vitalik. Just minted 10/10. Completely handcrafted to defeat any false challengers!   https://t.co/toWteGgkDu https://t.co/F5dG8DoKE9",1,0
1377002402767835136,"2021-03-30T20:58:50Z","💡Describe compound interest? 🗣️Me 2 wards coming to my mind #Wanswap  + #Wanchain = 🚀Money Printer! 👀😲  $wan $wasp   $atom $iota $comp $agi $btc $eth $link $rsr $bnb $celr $algo $uni $theta $orai $enj $hbar $qnt $ada $crypto $btc $eth #crypto #btc #eth $neo $luna $mit   ⏬⏬ https://t.co/tMqJ40R7aS",37,10
1377002400800718854,"2021-03-30T20:58:50Z","RT @JimmyRagosa: Hi, I'm Jimmy. I outperform this dude by buying ETH once per month since 2015 on my Moto g4.",1683,110
1377002399701811201,"2021-03-30T20:58:50Z","RT @QuintenFrancois: $ETH to $2500 in April or I'm giving away 0.3 $ETH to someone who retweets this.",4150,6184
1377002396807688192,"2021-03-30T20:58:49Z","RT @QuintenFrancois: $ETH to $2500 in April or I'm giving away 0.3 $ETH to someone who retweets this.",4150,6184
1377002394245070854,"2021-03-30T20:58:48Z","$GTO I hope you invested in this coin. Because it gives +120% profit after my call. Risks are yours. For more follow and join my telegram https://t.co/B6ClnBaxuR #btc #bitcoin #BNB #doge #eth #ALTSEASON #altcoin #Binance #btt #holo #dent #XTZ #xrp #xlm #trx #doge #mtl #gto https://t.co/JvXVE9ulDK",3,1
1377002389866213376,"2021-03-30T20:58:47Z","I feel like $ETH is due for a rally to catch up with $BTC soon. https://t.co/ms7ce1rwX9",43,7
1377002384002592768,"2021-03-30T20:58:46Z","@Clphotogs Hi! I'm Terence The Spider, a #NFTartist specializing in funny and thought provoking #nftart, #nftcomics, and #nftmusic. I currently have #NFTs ranging from 0.1 - 0.75 #ETH.  Appreciate you checking out my work!  https://t.co/D14VKiuS5K https://t.co/d9IlPprIai",0,0
1377002379619500032,"2021-03-30T20:58:45Z","Luis Henrique bought for 0.282 ETH (524.18$) by bilibom on the primary market   Season: 2020-2021 Level: 0 Serial: 58/100 Price: 524.18$  ⚽ Sorare: https://t.co/W6jlqjf6G7  📊: https://t.co/ug5igadMK7  #Sorare #NFT #Ethereum #FantasyFootball",0,0
1377002373965619205,"2021-03-30T20:58:44Z","20. development in the $GME/ $AMC sage. We need EVERYONE to know about this.   Stay tuned for more My love to you all, kings and queens, thank you for your endless support. -Carlos #amc #gme #doge #btc #stock #stocks #ElonMusk #eth #etherium #amcstock #GME1M #Holo #Holi #Holi2021",356,67
1377002368571736066,"2021-03-30T20:58:42Z","We are not forking #hex, we are forking #eth. Most likely 1 to 1 for eth holders. Your hex position would be duplicated on the new chain. https://t.co/Lq0fEvudLU",101,11
1377002368500432898,"2021-03-30T20:58:42Z","#Blockchain technology powers more than just $BTC and $ETH. Learn more about Grayscale Basic Attention Token Trust. $BAT https://t.co/uBB2SlAIZc https://t.co/Y6EtaWDZL0",168,28
1377002365241466882,"2021-03-30T20:58:41Z","@liferips Last sweep before take off. I feel the same with ETH to test or get close to neckline of ih&amp;s. Like your content/opinions mate. GL ✌🏻",1,0
1377002356320112640,"2021-03-30T20:58:39Z","To be a $1 Billion Project.. You only need to be in the Top 90  ✅ Top 90 - $1b ✅ Top 50 - $2b ✅ Top 10 - $12b ✅ Top 5 - $38b  Soon all Top 100 projects will have $1b mcaps 🔥  $QNT, $ZCX, $ALBT, $HTR, $MRPH, $ANC will be Top 50 projects..  Do the math 🚀  $BTC $ETH $DOT https://t.co/WNiR64ItVp",271,49
1377002351001657346,"2021-03-30T20:58:38Z","RT @QuintenFrancois: $ETH to $2500 in April or I'm giving away 0.3 $ETH to someone who retweets this.",4150,6184
1377002349626003460,"2021-03-30T20:58:38Z","$FET bullrunn 🦬 coming after the Mainnet launch tomorrow 🚀💶  10X  Q2 2021  #cryptocurrency #Crypto #Bitcoin #etherium #Binance $SXP $ENJ $CHZ $OCEAN $AST $TRAC $SHA $ada $link $xvs $SRK $vidt $lto $grt https://t.co/FP1tPFjnhm",10,1
1377002339719114754,"2021-03-30T20:58:35Z","I’m baffled by how Eth ‘progressive’ elites are consistently talking about state sanctioned ethnic cleansing in Tigray like a natural disaster, as if there isn’t a culprit behind the acts. With no interest in gov accountability. &amp; yet adopt a super critical view on anytg western https://t.co/wiKw39D7Lo",163,49
1377002328205656065,"2021-03-30T20:58:33Z","We are happy to announce that #Rewardefi #WFI #PreSale is #Live 1 ETH = 5 WFI + 5 WFI BONUS + Airdrop reward Min: 0.1 ETH Max: 10 ETH SEND ETH HERE: 0xa5dd2E119E42b5de8fAdD3330853ED20BEbC398A or use Metamask on: https://t.co/2K0grjKICg #defi #uniswap #Airdrop #ETH #BTC #investing https://t.co/qwfw8EBlz6",76,65
1377002320865624064,"2021-03-30T20:58:31Z","RT @QuintenFrancois: $ETH to $2500 in April or I'm giving away 0.3 $ETH to someone who retweets this.",4150,6184
1377002311499841540,"2021-03-30T20:58:29Z","@tryShowtime Bats by ShantyShawn  1 of 1 • Now Available for Ξ 0.45  https://t.co/tK7h6pcqkc  @KnownOrigin_io  Art by @shantyshawn  #cryptoart #NFT #cryptoartist #ETH",0,1
1377002307590754307,"2021-03-30T20:58:28Z","Top 10:  1 $BTC 2 $ETH  3 $BNB - centralised ETH copypaste 4 $USDT - literal scam 5 $ADA - ghost chain 6 $DOT - hype chain 7 $XRP - lol 8 $UNI 9 $THETA - literal who 10 $LTC - founder sold boomer scam   11 $LINK - literally enabler of coming 4th industrial revolution   crypto yes",478,51
1377002300846317570,"2021-03-30T20:58:26Z","FREE NFT on @opensea! #nft #opensea https://t.co/AU9wYGyybw  #freenft #nftart #nft #cryptoart #crypto #eth #ethereum #superrare #rarible #opensea #openseaio #art #nftcollector #nftcollectors #rari #flow #erc721 #nftartist #blockchain",4,0
1377002296668782593,"2021-03-30T20:58:25Z","HAWT. With my partnership with @illuviumio I can give away 100 HOLOGRAPHIC Scoot Scarabok NFTs.  Similar ones have gone for 5 eth to 50 eth.  How to get -Post your ETH address + BATTLE SCOOT! below -Retweet/tag a friend -Follow @illuviumio and join their discord in bio https://t.co/xcCVVW6KdR",2754,2661
1377002287172837384,"2021-03-30T20:58:23Z","Want to giveaway some cryptocurrency over night.  #Bitcoin #ETH #CEL #MATIC #LINK  I got most of them in my wallet, and you can choose.  How to win:  -RT/Like this tweet -join: https://t.co/VWkNllhEqB -tag a Celsian(a)  ⏰Winner drawn tomorrow after waking up.  #StrongTogether https://t.co/cql1OfcwsJ",145,126
1377002282336784390,"2021-03-30T20:58:22Z","When I tried airdrop and lending for $UFT, it wants so much gas fee (1.5 eth for 2.1k $UFT). What am I missing? I didn't add any eth to my metamask wallet.",0,0
1377002282081005571,"2021-03-30T20:58:22Z","DCT TOKEN Airdrop Medium Star Claim 1 DCT ($ 100) + 0.045 DCT ($ 10) for each referral you make.   Steps  💎  Join channel and group  💎  Follow twitter, like and retweet pinned message   💎  Submit eth wallet address (ERC-20) Participate now Airdrop link: https://t.co/L24stp8tVI https://t.co/CVYQyLAWwU",8694,8871
1377002281133076483,"2021-03-30T20:58:21Z","RT @QuintenFrancois: $ETH to $2500 in April or I'm giving away 0.3 $ETH to someone who retweets this.",4150,6184
1377002278813581312,"2021-03-30T20:58:21Z","So I moved a ton of my huge ETH holding to SPI...SPI is up 50%  What dumb luck. Gotta give some back.   Let's give away a mooncat (valued at $1000) AND $500 in SPI.  Post your eth wallet below with MEOWTH THATS RIGHT...  Tagging/rewteeting is appreciated https://t.co/VDXboLlmP0",1916,1134
1377002273272856576,"2021-03-30T20:58:20Z","Top 10:  1 $BTC 2 $ETH  3 $BNB - centralised ETH copypaste 4 $USDT - literal scam 5 $ADA - ghost chain 6 $DOT - hype chain 7 $XRP - lol 8 $UNI 9 $THETA - literal who 10 $LTC - founder sold boomer scam   11 $LINK - literally enabler of coming 4th industrial revolution   crypto yes",478,51
1377002271523897347,"2021-03-30T20:58:19Z","#DENT IS THE FUTURE! $DENT $DENTCOIN #eSIM #DATA #cryptocurrencies #cryptocurrency  #Ethereum #ETH #Space #Travel  IMAGINE IT!🚀♥️♥️♥️♥️♥️🚀 https://t.co/hgaSRVPlFs",20,8
1377002268810076160,"2021-03-30T20:58:19Z","@CoinraiseCrypto @JuJuCatherine @GEICO @NamebaseHQ Nah. If they go $HNS like Visa went $USDC / $ETH, they’d claim .GEICO/ which is reserved for them @NamebaseHQ &amp; setup agency.geico/ + create usernames like marksmith.geico/ that are OAuth accounts &amp; human meaningful policy IDs rolled into one.  They could leapfrog the industry.",5,1
1377002260920639489,"2021-03-30T20:58:17Z","The DEX @FinanceChainge is set to launch on the @FUSIONProtocol network with over a million users on the protocols waitlist. This decentralized exchange aims to innovate on traditional models through leveraging the Fusion Network.  #BSC #BTC #ETH #BNB  https://t.co/xx55YiGfm3",21535,13657
1377002260350164992,"2021-03-30T20:58:16Z","RT @PeterTarka: Steal alert 🚨 Reserve price 0.5 ETH https://t.co/3udcxcwM5r https://t.co/RULdeK9Sfl",242,26
1377002242767646720,"2021-03-30T20:58:12Z","RT @PepeXBT: 2 types of people in this world  people giga long eth here, and dicklets",307,8
1377002242713255937,"2021-03-30T20:58:12Z","#DENT IS THE FUTURE! $DENT $DENTCOIN #eSIM #DATA #cryptocurrencies #cryptocurrency  #Ethereum #ETH #Space #Travel  IMAGINE IT!🚀♥️♥️♥️♥️♥️🚀 https://t.co/hgaSRVPlFs",20,8
1377002241035501569,"2021-03-30T20:58:12Z","DCT TOKEN Airdrop Medium Star Claim 1 DCT ($ 100) + 0.045 DCT ($ 10) for each referral you make.   Steps  💎  Join channel and group  💎  Follow twitter, like and retweet pinned message   💎  Submit eth wallet address (ERC-20) Participate now Airdrop link: https://t.co/L24stp8tVI https://t.co/CVYQyLAWwU",8694,8871
1377002229979176963,"2021-03-30T20:58:09Z","Top 10:  1 $BTC 2 $ETH  3 $BNB - centralised ETH copypaste 4 $USDT - literal scam 5 $ADA - ghost chain 6 $DOT - hype chain 7 $XRP - lol 8 $UNI 9 $THETA - literal who 10 $LTC - founder sold boomer scam   11 $LINK - literally enabler of coming 4th industrial revolution   crypto yes",478,51
1377002229543096327,"2021-03-30T20:58:09Z","To be a $1 Billion Project.. You only need to be in the Top 90  ✅ Top 90 - $1b ✅ Top 50 - $2b ✅ Top 10 - $12b ✅ Top 5 - $38b  Soon all Top 100 projects will have $1b mcaps 🔥  $QNT, $ZCX, $ALBT, $HTR, $MRPH, $ANC will be Top 50 projects..  Do the math 🚀  $BTC $ETH $DOT https://t.co/WNiR64ItVp",271,49
1377002225264852993,"2021-03-30T20:58:08Z","#DeFi #BKC #eth2 #BucksCake  ANNOUNCEMENT!  Dear BucksCake's community members!  The exact date of BKC listing on Uniswap set for 04/20/2021!  2 days before it, the exact opening time of the trading pair BKC/ETH on Uniswap...  More at https://t.co/RQPMhjazG2 https://t.co/VjtBbXBA1t",2829,2636
