"ID","created_at","text","like_count","rt_count"
1374601872317632516,"2021-03-24T05:59:59Z","This change focused on the Binance Chain mainnet and reduced multiple fees. We can expect further proposals to lower fees on the Binance Chain and the Binance Smart Chain as BNB price continues its steady accent higher. @BinanceChain  #BSC #BTC #ETH #BNB  https://t.co/oJLLPs1Icv",276,122
1374601869796904961,"2021-03-24T05:59:59Z","CryptoMusk #060 has a bed time. Too bad musk!  Live on @opensea  https://t.co/eDrf7otoq4   #CryptoMusksV2 #NFTs #cryptopunks #eth #pixelart  #NFTcommunity #cybertruck #chubbies",4,0
1374601868043812864,"2021-03-24T05:59:58Z","@AltcoinDailyio First they ignore you , then they laugh at you , then they fight you , then you win! $btc $eth $theta $dot $link $ocean $zefu",0,1
1374601849286717443,"2021-03-24T05:59:54Z","#Airdrop is live now Complete tasks to get an airdrop. #Airdrop worth 5000 #DEFI (~$50000 at current price)  🔹️Follow 🔹️Like, RT &amp; Tag 5 friends 🔹️Join https://t.co/cGXUyW3sNJ 🔹️Follow Like &amp; Share https://t.co/LX8VEkTyjY 🔹️Comment ETH address  #ETH #ICO #Ethereum #DeFi https://t.co/pwG9tSiJaO",926,677
1374601841372057600,"2021-03-24T05:59:52Z","The entire concept of #Bitcoin decreasing on exchanges is similar for #Ethereum.  People are underestimating the potential of $ETH in this regard.  I'm looking to accumulate it heavily in the coming weeks and have been accumulating a portion already. https://t.co/d0d4riHJRJ",330,47
1374601809147293697,"2021-03-24T05:59:44Z","💧Roku Network Airdrop 💧  🏆 Task:          ➕  15 ROK (~$5)  👨‍👩‍👧 Referral:   ➕  3 ROK (~$1)  🔛  Airdrop Link &amp; Information: https://t.co/YhvsOcfEbH  #cryptocurrency #Crypto #Bitcoin  #BSC #BinanceSmartChain #Ethereum #ETH #Airdrop #bounty #ROK #RokuCoin #RokuNetwork",3593,4682
1374601799986900992,"2021-03-24T05:59:42Z","No need to spend your own money to trade #cryptocurrency. Over 10K users won crypto rewards on @latokens last week. It's the best way to join the financial revolution. Start by earning a share of $100K in CLIQ airdrop: https://t.co/qb8TSbOEIx #Bitcoin #ETH #Citi #AON #LATOKEN",0,0
1374601786334588928,"2021-03-24T05:59:39Z","2Loval Airdrop 1. FREE 1,000 L2L-Tokens 2. PAID AFFILIATE GET 7,300 L2L-Tokens 3. COMPETITION GET UP TO 3 TIMES AMOUNT PAID Airdrop Competition  🌍 https://t.co/u8UutF0KyK  https://t.co/glFJNplVKj   #summer #blockchain #bitcoin #eth #crypto #cool #cute #beauty #earth #exchange",0,0
1374601766315040769,"2021-03-24T05:59:34Z","The DEX @FinanceChainge is set to launch on the @FUSIONProtocol network with over a million users on the protocols waitlist. This decentralized exchange aims to innovate on traditional models through leveraging the Fusion Network.  #BSC #BTC #ETH #BNB  https://t.co/xx55YiGfm3",21105,13409
1374601762129203200,"2021-03-24T05:59:33Z","$VIDT surpassed 100k documents in March and still 7 days to go.  At this time the next token burn of 20% used vidt will be about 58500 VIDT on april 1st and a buyback of 10%( 29500 vidt)  @VIDT_Datalink has strong and deflationafy Tokenomics   $btc #nft $eth $chz $thetha $bnb https://t.co/HH8vYXqxhq",32,13
1374601758270484481,"2021-03-24T05:59:32Z","Thanks again all, I have hit my 10k follower target &amp; i am going to try to offer more content than just the usual BTC charts.  I will spend more time scanning for hidden GEMs 💎 &amp; up my daily posts to include ETH &amp; other majors.  I hope to provide u additional Alpha.  Play Safu! https://t.co/ALtyDJZ5e5",31,1
1374601755967688708,"2021-03-24T05:59:32Z","RT @volmexfinance: What’s your ETH address?  Don’t ask why, just drop it below 👇",4854,1656
1374601754499633152,"2021-03-24T05:59:31Z","💧YetuBit Airdrop 2nd Round💧  🏆 Task:          ➕  25 YETU (~$20)  👨‍👩‍👧 Referral:   ➕  5 YETU (~$4)  🔛  Airdrop Link &amp; Information: https://t.co/ZoGw3AR71I  #cryptocurrency #Crypto #Bitcoin  #BSC #BinanceSmartChain #Ethereum #ETH #Airdrop #bounty #YetuBit #YetuSwap #YETU",4310,5496
1374601747688259585,"2021-03-24T05:59:30Z","Win up to $300 worth of #Ethereum tokens #ETH every hour. https://t.co/d7J8WaJtQe",0,0
1374601738464813058,"2021-03-24T05:59:27Z","💰What’s your #ETH wallet address?  🚀Don’t ask why, just drop it below👇  🚀Like、Retweet &amp; Tag ALL U CAN  🚀 USDT-NFTs has been listed on Uniswap！  🚀 The contract address: 0x6599fc3e77cbfa6f6e9cac605a30b1e78827eba0  #NFTs #NFT #AIRDROP #UNISWAP https://t.co/H29ZBOR0aL",1380,1178
1374601735004512257,"2021-03-24T05:59:27Z","RT @volmexfinance: What’s your ETH address?  Don’t ask why, just drop it below 👇",4854,1656
1374601730101538816,"2021-03-24T05:59:25Z","Next? $eth 5000k?☑️ #ALTSEASON #alt #altcoins",0,0
1374601726007734273,"2021-03-24T05:59:25Z","💧Roku Network Airdrop 💧  🏆 Task:          ➕  15 ROK (~$5)  👨‍👩‍👧 Referral:   ➕  3 ROK (~$1)  🔛  Airdrop Link &amp; Information: https://t.co/YhvsOcfEbH  #cryptocurrency #Crypto #Bitcoin  #BSC #BinanceSmartChain #Ethereum #ETH #Airdrop #bounty #ROK #RokuCoin #RokuNetwork",3593,4682
1374601715597651968,"2021-03-24T05:59:22Z","@LINKisthePIPE It's looking more like April might be worth the wait but yes if $LINK follows $ETH's 2017 move where $ETH moved from $40 to $350 from March to June, then the wait will be worth it lol",1,0
1374601707724754947,"2021-03-24T05:59:20Z","1/ Earn free #crypto while you read &amp; write about it on @publish0x! Claim FREE #Ethereum #Ampleforth &amp; $FARM tips every day  ⏰LIMITED TIME: $ETH $AMPL withdrawals to @kucoincom get a 10% bonus for the next 2 weeks!  https://t.co/5ubrW3rZ2C #Airdrops #ETH @coinkit_ mon 5 30 btc",9,26
1374601694236016641,"2021-03-24T05:59:17Z","💰What’s your #ETH wallet address?  🚀Don’t ask why, just drop it below👇  🚀Like、Retweet &amp; Tag ALL U CAN  🚀 USDT-NFTs has been listed on Uniswap！  🚀 The contract address: 0x6599fc3e77cbfa6f6e9cac605a30b1e78827eba0  #NFTs #NFT #AIRDROP #UNISWAP https://t.co/H29ZBOR0aL",1380,1178
1374601691870285827,"2021-03-24T05:59:16Z","Getting into crypto: BTC and ETH are everything. To the moon!  After doing research with an open mind: #IOTA could overtake everyone. The sheer audacity of this project is humbling.",240,46
1374601685499187202,"2021-03-24T05:59:15Z","🚨NEW PIXO SKINS ALERT🚨   🗡*PixoSkins #7🗡 I have the power ! 💥  🚨 LISTED AT 0.1 ETH 🚨   YOU CAN BUY ME HERE 🥺👉🏻 https://t.co/5tK9AkT75y @opensea #nftcollector #nftcollectors #Crypto #cryptoartist #cryptocurrency #NFTs",5,0
1374601681602682881,"2021-03-24T05:59:14Z","RT @Coin98Analytics: Which blockchain do you like most now? Tell us the reasons  $SOL $ATOM $DOT $AVAX $BNB $ETH https://t.co/iAxxRr7LSQ",739,145
1374601672639410176,"2021-03-24T05:59:12Z","💧Roku Network Airdrop 💧  🏆 Task:          ➕  15 ROK (~$5)  👨‍👩‍👧 Referral:   ➕  3 ROK (~$1)  🔛  Airdrop Link &amp; Information: https://t.co/YhvsOcfEbH  #cryptocurrency #Crypto #Bitcoin  #BSC #BinanceSmartChain #Ethereum #ETH #Airdrop #bounty #ROK #RokuCoin #RokuNetwork",3593,4682
1374601672379432965,"2021-03-24T05:59:12Z","@merit1776 @noel_castellano @iamDCinvestor The plebs bashing eth on lagging on 2.0 is just too funny, especially the fee narrative.",1,0
1374601660778086401,"2021-03-24T05:59:09Z","@nftool @HotFrost_ I am selling every drawing in my collection for only 0.05 ETH so many have the chance to enjoy it.  The goal is to get this art out of my hands and into yours at a low cost.  Help me spread my art and retweet this post. Thanks in advance.  #ronnykamp #nft  https://t.co/FA88dW6NSK https://t.co/lk0id2gqyL",1,0
1374601635603771394,"2021-03-24T05:59:03Z","Been screaming about this gem since the beginning for months now  $VRX is on the left, $AVAX on the right  Don't be shaken out,  5000$ incoming  🚀  Buy $VRX NOW!  Only 47.5k max supply, 60% staked! Game changing coin🔥  #bitcoin $btc $eth  $spi $chain $umx $cfi $ern $lpt $rfr https://t.co/VJheZrWKaa",2435,3576
1374601621720686594,"2021-03-24T05:59:00Z","RT @volmexfinance: What’s your ETH address?  Don’t ask why, just drop it below 👇",4854,1656
1374601617043902465,"2021-03-24T05:58:59Z","The entire concept of #Bitcoin decreasing on exchanges is similar for #Ethereum.  People are underestimating the potential of $ETH in this regard.  I'm looking to accumulate it heavily in the coming weeks and have been accumulating a portion already. https://t.co/d0d4riHJRJ",330,47
1374601602296860672,"2021-03-24T05:58:55Z","To celebrate the launch of our project, we are doing our very first #NFTGiveaway 🥳  Yes, 3 Doodes will be given away! To participate:  1. Like 2. Retweet 3. Follow  and drop your ETH address below!  Winners will be announced this Saturday!  #nftart  #NFTs #NFT #nftcollector https://t.co/tlEJEc8EKD",301,195
1374601594940006400,"2021-03-24T05:58:53Z","RT @DailyDogeUpdate: 🚀 $1000 to anyone who Like, Follow and Retweet 🚀  #Dogecoin #LTC $ETH",1838,1206
1374601594835070976,"2021-03-24T05:58:53Z","@_StaRK_Crypto_ Steel heart person you are.... ETH 🐳🐳",1,0
1374601590301155332,"2021-03-24T05:58:52Z","#ProBit Exchange will open up $XDC wallets in 40 minutes, trading kicks off on the 26th with USDT, ETH, and KRW pairs 🎉 @XinFin_Official   https://t.co/ihzoNW8Q6U https://t.co/K4Kw3IsVwz",466,170
1374601589994909698,"2021-03-24T05:58:52Z","💰What’s your #ETH wallet address?  🚀Don’t ask why, just drop it below👇  🚀Like、Retweet &amp; Tag ALL U CAN  🚀 USDT-NFTs has been listed on Uniswap！  🚀 The contract address: 0x6599fc3e77cbfa6f6e9cac605a30b1e78827eba0  #NFTs #NFT #AIRDROP #UNISWAP https://t.co/H29ZBOR0aL",1380,1178
1374601577030430720,"2021-03-24T05:58:49Z","RT @WhaleTrades: 📈💶$1,994,875 $ETH LONGED @$1675.4 [24/03/21 05:58:28] 🏪FTX | ETH-PERP  🗣️Craig Wright is NOT Satoshi - RCoat13",11,3
1374601576703270914,"2021-03-24T05:58:49Z","[Secondary Sale] @Hackatao &amp; @hex6c Cypher::Prophet Layer resold earlier today!   @basileus_eth bought The Staff of Cryptopower at 1ETH ($142) back in 2020, and resold for 5ETH ($8K+) - 5773% return!  https://t.co/ndBplDp7Xc  #AsyncArt #ProgrammableArt #NFTs https://t.co/GYIMMzxka9",33,5
1374601544335642627,"2021-03-24T05:58:41Z","📌 The TokenKennel #Giveaway | Rules 📌 =   - Step 1: Like &amp; Retweet + tag 3-5 People! - Step 2: Follow @KennelToken &amp; @__Bullish__ - Step 3: Join https://t.co/1wcwTits9h - Step 4: Send Proof!   Prize = 100$ in #BTC or #ETH  06/04, we will announce the winner! 🎁",1814,2129
1374601534210646018,"2021-03-24T05:58:39Z","This change focused on the Binance Chain mainnet and reduced multiple fees. We can expect further proposals to lower fees on the Binance Chain and the Binance Smart Chain as BNB price continues its steady accent higher. @BinanceChain  #BSC #BTC #ETH #BNB  https://t.co/oJLLPs1Icv",276,122
1374601532025536513,"2021-03-24T05:58:38Z","Punk 8606 bought for 35.5 ETH ($59,399.31 USD) by 0xb565d5 from 0x596572. https://t.co/TSEJjv0La9 #cryptopunks #ethereum https://t.co/RACkqiSoTl",9,0
1374601507010658305,"2021-03-24T05:58:32Z","To celebrate the launch of our project, we are doing our very first #NFTGiveaway 🥳  Yes, 3 Doodes will be given away! To participate:  1. Like 2. Retweet 3. Follow  and drop your ETH address below!  Winners will be announced this Saturday!  #nftart  #NFTs #NFT #nftcollector https://t.co/tlEJEc8EKD",301,195
1374601500035481600,"2021-03-24T05:58:31Z","RT @sof1azara03: $60 or 840rb Giveaway ✨  Rt and follow @domscrypto + @boar_eth + me  End : 48 hours.✨",1030,2331
1374601499074990084,"2021-03-24T05:58:30Z","I the SEC vs Rippe case, the SEC says oranges (#XRP) are securities, but they don’t want to provide the documents where they deemed apples (#BTC) and lemons (#ETH) non securities. This is Our  government at its best. Shady and corrupt beyond comprehension!",784,138
1374601495207948288,"2021-03-24T05:58:29Z","🚀 MakerDAO Vault #21665 Boosted  🏦 4,987.50 DAI borrowed 💵 📈 2.98 ETH bought 💳 https://t.co/leHZtEKT5y",0,0
1374601490707451904,"2021-03-24T05:58:28Z","📈💶$1,994,875 $ETH LONGED @$1675.4 [24/03/21 05:58:28] 🏪FTX | ETH-PERP  🗣️Craig Wright is NOT Satoshi - RCoat13",11,3
1374601485581959170,"2021-03-24T05:58:27Z","🐵 Buy R3FI with $Btc on @IndoEx_LTD or $eth on @Uniswap 🐵 #altcoin #erc20 #Defitoken #rewards #cryptocurrency  #crypto #yieldfarming https://t.co/tiwcy0OZpR",9,4
1374601480330612740,"2021-03-24T05:58:26Z","No need to spend your own money to trade #cryptocurrency. Over 10K users won crypto rewards on @latokens last week. It's the best way to join the financial revolution. Start by earning a share of $100K in CLIQ airdrop: https://t.co/K5mqCF0IDW #Bitcoin #ETH #Citi #AON #LATOKEN",0,0
1374601428757585920,"2021-03-24T05:58:14Z","@RobertCow_ I am selling every drawing in my collection for only 0.05 ETH so many have the chance to enjoy it.  The goal is to get this art out of my hands and into yours at a low cost.  Help me spread my art and retweet this post. Thanks in advance.  #ronnykamp #nft  https://t.co/FA88dW6NSK https://t.co/e2Cv0W8lVi",3,0
1374601427738267653,"2021-03-24T05:58:13Z","In case you missed, we recently dropped GMNG whitepaper in our chat. Website update to follow soon!  #gmng #eth #defi #btc https://t.co/16ikZ5VpYb",89,50
1374601408620662785,"2021-03-24T05:58:09Z","CRYPTOPROPHECIES #AIRDROP Reward  $5 TCP / Refferal $5 TCP  Join: https://t.co/tozVAfNQU7  👉Join telegram group  👉Enter Username  👉Enter Email (Verification)  👉Enter Eth address  👉DONE",2,2
1374601404602478592,"2021-03-24T05:58:08Z","💧Roku Network Airdrop 💧  🏆 Task:          ➕  15 ROK (~$5)  👨‍👩‍👧 Referral:   ➕  3 ROK (~$1)  🔛  Airdrop Link &amp; Information: https://t.co/YhvsOcfEbH  #cryptocurrency #Crypto #Bitcoin  #BSC #BinanceSmartChain #Ethereum #ETH #Airdrop #bounty #ROK #RokuCoin #RokuNetwork",3593,4682
1374601397178658816,"2021-03-24T05:58:06Z","@amrock15494 Ya @Twitter  Has a very inappropriate an forceful illegal way of suspending people aka shit happens.  #Crypto #COVID19 #CovidHoax  #Bitcoin #Stimulus #BLM #AllLivesMatter #DOGE  #ETH #TwitterStepOFF  don't attempt treding on me.",1,1
1374601389503041537,"2021-03-24T05:58:04Z","@NFTs_Group @Basitbalogun9  @kcpraize @SavvyRinu @hellunic @asralea @charbelych   Eth adrress : 0x9dD92d9c2fb2E86c4c22AB426d337bdc72ab631c Thanks in advance🙏🙏",1,0
1374601387867308032,"2021-03-24T05:58:04Z","Big +rep to @Spanky354 sold him my dlore for eth and i went first :)",2,0
1374601385904250887,"2021-03-24T05:58:03Z","RT @sof1azara03: $60 or 840rb Giveaway ✨  Rt and follow @domscrypto + @boar_eth + me  End : 48 hours.✨",1030,2331
1374601380053192704,"2021-03-24T05:58:02Z","Bought a nice bag of $ZUZ.  Chart seems good here, the channel has taken us into demand.   That said never blow your load at once! Will DCA.  A sharded, AWS integrated NFT network at 7.6M MC (450k Circ) - seems a steal.  $HTR $ETH $DOT $KSM $TRB $DAOFI $DGCL $MPH $YLD $BONDLY https://t.co/lENqgGu9PA",26,5
1374601377641496577,"2021-03-24T05:58:01Z","The entire concept of #Bitcoin decreasing on exchanges is similar for #Ethereum.  People are underestimating the potential of $ETH in this regard.  I'm looking to accumulate it heavily in the coming weeks and have been accumulating a portion already. https://t.co/d0d4riHJRJ",330,47
1374601376379047936,"2021-03-24T05:58:01Z","@amrock15494 Ya @Twitter  Has a very inappropriate an forceful illegal way of suspending people aka shit happens.  #Crypto #COVID19 #CovidHoax  #Bitcoin #Stimulus #BLM #AllLivesMatter #DOGE  #ETH #TwitterStepOFF  don't attempt treding on me.",1,1
1374601373074001921,"2021-03-24T05:58:00Z","@kumo_ph what's your eth address",1,0
1374601367424102403,"2021-03-24T05:57:59Z","This change focused on the Binance Chain mainnet and reduced multiple fees. We can expect further proposals to lower fees on the Binance Chain and the Binance Smart Chain as BNB price continues its steady accent higher. @BinanceChain  #BSC #BTC #ETH #BNB  https://t.co/oJLLPs1Icv",276,122
1374601358498701314,"2021-03-24T05:57:57Z","The entire concept of #Bitcoin decreasing on exchanges is similar for #Ethereum.  People are underestimating the potential of $ETH in this regard.  I'm looking to accumulate it heavily in the coming weeks and have been accumulating a portion already. https://t.co/d0d4riHJRJ",330,47
1374601356439343106,"2021-03-24T05:57:56Z","🚀 Safe The Children  🔷 Token Symbol : STC  🔷 Contract: https://t.co/nk3qsF2PJV  🔷 Website: https://t.co/4y0g7dqswM  🔷 Whitepaper: https://t.co/PHPZI4dbyR  🔷 Presentation Video : https://t.co/Mycfov12IU  #Safe_Childrens #Bitcoin  #Binance #BinanceSmartChain #DEFI  #BTC #ETH",13977,13664
1374601345672609792,"2021-03-24T05:57:54Z","C'mon $SNTVT!!!! POWER THROUGH!!!!  The $ETH pair just touched 1000gwei... I smell it.. BRING THE VOLUME!!!  VOLUME..... Volume.... volume... https://t.co/MaUg0fspJO",62,16
1374601345588621313,"2021-03-24T05:57:54Z","The DEX @FinanceChainge is set to launch on the @FUSIONProtocol network with over a million users on the protocols waitlist. This decentralized exchange aims to innovate on traditional models through leveraging the Fusion Network.  #BSC #BTC #ETH #BNB  https://t.co/xx55YiGfm3",21105,13409
1374601337678163975,"2021-03-24T05:57:52Z","💧Roku Network Airdrop 💧  🏆 Task:          ➕  15 ROK (~$5)  👨‍👩‍👧 Referral:   ➕  3 ROK (~$1)  🔛  Airdrop Link &amp; Information: https://t.co/YhvsOcfEbH  #cryptocurrency #Crypto #Bitcoin  #BSC #BinanceSmartChain #Ethereum #ETH #Airdrop #bounty #ROK #RokuCoin #RokuNetwork",3593,4682
1374601334092013569,"2021-03-24T05:57:51Z","Pair Created! Pairs → XFB-ETH  $XFB = 0 ETH  $ETH = 10,000 XFB ($1,678)  Total Liquidity $0.17  https://t.co/usKVMqUYU0",0,0
1374601310050381827,"2021-03-24T05:57:45Z","'soulmate', my first digital abstract piece, is now available on @withFND with a reserve price of 1.5 eth   once the reserve is met, the 24-hour auction will start and the highest bidder will also receive a physical copy!   https://t.co/kqufCLJcTg thank you in advance! https://t.co/8cqhDS7Fmb",360,71
1374601306426413058,"2021-03-24T05:57:44Z","#Airdrop is live now Complete tasks to get an airdrop. #Airdrop worth 5000 #DEFI (~$50000 at current price)  🔹️Follow 🔹️Like, RT &amp; Tag 5 friends 🔹️Join https://t.co/cGXUyW3sNJ 🔹️Follow Like &amp; Share https://t.co/LX8VEkTyjY 🔹️Comment ETH address  #ETH #ICO #Ethereum #DeFi https://t.co/pwG9tSiJaO",926,677
1374601298826256384,"2021-03-24T05:57:43Z","Phore to airdrop Graphene on #BinanceSmartChain   Just hold #Phore in your wallet and get #Graphene for free!🚀  1 $PHR = 10 $GFN 💰  #Airdrop Snapshot 2 = April 11th 📅  #Ethereum #Bitcoin #Binance $BNB $ETH $BTC  @binance @cz_binance https://t.co/oXllSY3w95",170,112
1374601279679426561,"2021-03-24T05:57:38Z","📢Congrats！First launch on Uniswap！ 🚀USDT-NFTs trading pair is live！ 🚀The contract address:  0x6599fc3e77cbfa6f6e9cac605a30b1e78827eba0  💰Hold more NFTs, be richer！  🌸Like、Retweet &amp; Tag 3 friends  🚀Select 10 addresses to airdrop 1,000,000 NFTs, leave wallet #ETH address https://t.co/Slor4FBQzP",2958,2443
1374601234078924800,"2021-03-24T05:57:27Z","🔥 Burned 12.610 #renBTC (683,827.69 USD) on #ETH. Darknodes fee: 0.0126 #BTC (683.83 USD) https://t.co/MroCg735N3",1,0
1374601232791203841,"2021-03-24T05:57:27Z","RT @volmexfinance: What’s your ETH address?  Don’t ask why, just drop it below 👇",4854,1656
1374601207994445829,"2021-03-24T05:57:21Z","💧Roku Network Airdrop 💧  🏆 Task:          ➕  15 ROK (~$5)  👨‍👩‍👧 Referral:   ➕  3 ROK (~$1)  🔛  Airdrop Link &amp; Information: https://t.co/YhvsOcfEbH  #cryptocurrency #Crypto #Bitcoin  #BSC #BinanceSmartChain #Ethereum #ETH #Airdrop #bounty #ROK #RokuCoin #RokuNetwork",3593,4682
1374601204794228736,"2021-03-24T05:57:20Z","I am confused! people in crypto always complaining about banks and there high fees, but #ETH fees are worse then any bank.",0,0
1374601184632311811,"2021-03-24T05:57:15Z","@merit1776 @iamDCinvestor Oof. You wreak of BTC maximalism, buddy. Bring it down a notch.   Have you used any De-Fi platforms? Not read about. Used.   I'm willing to bet money you haven't. That's why you think what you think.   I own both and I like BTC. But I love ETH. Try it. You might like it.",0,0
1374601178407919621,"2021-03-24T05:57:14Z","JUST ADDED to our Document Library under LEGAL CASES: ✅@SEC_News Letter to Judge Netburn opposing @Ripple discovery requests, aka the #BTC and #ETH requested materials are not relevant letter.  Read it here 👇 https://t.co/NqOAEP0XSZ",295,94
1374601171004915718,"2021-03-24T05:57:12Z","RT @volmexfinance: What’s your ETH address?  Don’t ask why, just drop it below 👇",4854,1656
1374601166596808705,"2021-03-24T05:57:11Z","Ethereum Struggles Below $1,700, Why ETH Could Accelerate Losses #CryptoCurrency #ethereum via https://t.co/eBW8Lmmpx7 https://t.co/m2AX6o7b8L",0,0
1374601163895541761,"2021-03-24T05:57:10Z","📌 The TokenKennel #Giveaway | Rules 📌 =   - Step 1: Like &amp; Retweet + tag 3-5 People! - Step 2: Follow @KennelToken &amp; @__Bullish__ - Step 3: Join https://t.co/1wcwTits9h - Step 4: Send Proof!   Prize = 100$ in #BTC or #ETH  06/04, we will announce the winner! 🎁",1814,2129
1374601160569450498,"2021-03-24T05:57:10Z","5th #GIVEAWAY : Tester Opportunity &amp; #NFT  Looking for another 50 Testers using $UNI $SUSHI $COMP $CAKE $XVS $AUTO  to join our new DeFi product testing &amp; get NFT!   1. RT &amp; Follow  2. Comment your BSC address  #Defi #BSC #ETH #Airdrop #YieldFarming #LiquidityMining",244,246
1374601155146358786,"2021-03-24T05:57:08Z","To celebrate the launch of our project, we are doing our very first #NFTGiveaway 🥳  Yes, 3 Doodes will be given away! To participate:  1. Like 2. Retweet 3. Follow  and drop your ETH address below!  Winners will be announced this Saturday!  #nftart  #NFTs #NFT #nftcollector https://t.co/tlEJEc8EKD",301,195
1374601152059297792,"2021-03-24T05:57:08Z","My favorite card from any TCG in crypto 🤩  Thanks to @dontrugme #FUD #FUDFinance for this amazing game and NFTs   #NFT #TCG #nftcollector #NFTs #NFTartist #nftcollectors #DRM #Waifu #ETHdigger #Ethereum #ETH #opensea   https://t.co/O2JNM6ie2O",7,1
1374601135797985280,"2021-03-24T05:57:04Z","@santimentfeed This is so crystal clear.  Eth improvements are coming soon and whales know this will dramatically move the ERC-20 markets.  get ready.",1,0
1374601126973165568,"2021-03-24T05:57:02Z","Do you realize where we are #Klever family? Look at this roadmap. The possibilities are endless thanks to our incredible #KLV team. We are in 2021 Quarter 1. We haven’t even begun! @klever_io will change the #Crypto world and hopefully bring everyone with it! #BTC #ETH #BNB #ADA https://t.co/JYTUjv2cox",151,51
1374601109482840066,"2021-03-24T05:56:58Z","📌 The TokenKennel #Giveaway | Rules 📌 =   - Step 1: Like &amp; Retweet + tag 3-5 People! - Step 2: Follow @KennelToken &amp; @__Bullish__ - Step 3: Join https://t.co/1wcwTits9h - Step 4: Send Proof!   Prize = 100$ in #BTC or #ETH  06/04, we will announce the winner! 🎁",1814,2129
1374601092781211649,"2021-03-24T05:56:54Z","Sound #financialadvice. Load up coz this #giraffe needs to feed his family.  $ada $btc $eth #Crypto https://t.co/EYHXWu1mbj",0,0
1374601092550496257,"2021-03-24T05:56:53Z","Optimism for scalability, ETH 2.0, Polygon growing daily, Uniswap V3, Balancer V2, Kyber V3, Synthetix V2, etc etc etc   Don't bet against #ethereum",822,114
1374601065081937920,"2021-03-24T05:56:47Z","🔥We have started random global airdrop of 100,000 NFTs to single wallet ETH address 🚀 USDT-NFTs is listed on Uniswap  🚀 The contract address: 0x6599fc3e77cbfa6f6e9cac605a30b1e78827eba0  💰 Holding more NFTs makes you richer  🚀Like、Retweet &amp; Tag 3 friends  #NFTs #NFT #AIRDROP https://t.co/1tf4LcEX3C",1086,943
1374601064192872449,"2021-03-24T05:56:47Z","💰What’s your #ETH wallet address?  🚀Don’t ask why, just drop it below👇  🚀Like、Retweet &amp; Tag ALL U CAN  🚀 USDT-NFTs has been listed on Uniswap！  🚀 The contract address: 0x6599fc3e77cbfa6f6e9cac605a30b1e78827eba0  #NFTs #NFT #AIRDROP #UNISWAP https://t.co/H29ZBOR0aL",1380,1178
1374601060220727302,"2021-03-24T05:56:46Z","💧Roku Network Airdrop 💧  🏆 Task:          ➕  15 ROK (~$5)  👨‍👩‍👧 Referral:   ➕  3 ROK (~$1)  🔛  Airdrop Link &amp; Information: https://t.co/YhvsOcfEbH  #cryptocurrency #Crypto #Bitcoin  #BSC #BinanceSmartChain #Ethereum #ETH #Airdrop #bounty #ROK #RokuCoin #RokuNetwork",3593,4682
1374601051760959495,"2021-03-24T05:56:44Z","'soulmate', my first digital abstract piece, is now available on @withFND with a reserve price of 1.5 eth   once the reserve is met, the 24-hour auction will start and the highest bidder will also receive a physical copy!   https://t.co/kqufCLJcTg thank you in advance! https://t.co/8cqhDS7Fmb",360,71
1374601045800710146,"2021-03-24T05:56:42Z","This change focused on the Binance Chain mainnet and reduced multiple fees. We can expect further proposals to lower fees on the Binance Chain and the Binance Smart Chain as BNB price continues its steady accent higher. @BinanceChain  #BSC #BTC #ETH #BNB  https://t.co/oJLLPs1Icv",276,122
1374601028851572738,"2021-03-24T05:56:38Z","This is to announce that our Initial Token Offering-ITO(Pre-sale) is now live!  Token information: Ticker: YEY  Total supply: 500,000 YEY  Total allocated to Presale: 105,000 YEY   Hard cap: 500 ETH Soft cap: 200 ETH  Focus: 95% of Presale funds will fund uniswap liquidity pool. https://t.co/zm3gtFBXNj",6508,6801
1374601026888605699,"2021-03-24T05:56:38Z","🔥We have started random global airdrop of 100,000 NFTs to single wallet ETH address 🚀 USDT-NFTs is listed on Uniswap  🚀 The contract address: 0x6599fc3e77cbfa6f6e9cac605a30b1e78827eba0  💰 Holding more NFTs makes you richer  🚀Like、Retweet &amp; Tag 3 friends  #NFTs #NFT #AIRDROP https://t.co/1tf4LcEX3C",1086,943
1374601026184089600,"2021-03-24T05:56:38Z","RT @DailyDogeUpdate: 🚀 $1000 to anyone who Like, Follow and Retweet 🚀  #Dogecoin #LTC $ETH",1838,1206
1374601012212686850,"2021-03-24T05:56:34Z","Been screaming about this gem since the beginning for months now  $VRX is on the left, $AVAX on the right  Don't be shaken out,  5000$ incoming  🚀  Buy $VRX NOW!  Only 47.5k max supply, 60% staked! Game changing coin🔥  #bitcoin $btc $eth  $spi $chain $umx $cfi $ern $lpt $rfr https://t.co/VJheZrWKaa",2435,3576
1374600997973106689,"2021-03-24T05:56:31Z","💰What’s your #ETH wallet address?  🚀Don’t ask why, just drop it below👇  🚀Like、Retweet &amp; Tag ALL U CAN  🚀 USDT-NFTs has been listed on Uniswap！  🚀 The contract address: 0x6599fc3e77cbfa6f6e9cac605a30b1e78827eba0  #NFTs #NFT #AIRDROP #UNISWAP https://t.co/H29ZBOR0aL",1380,1178
1374600995959869440,"2021-03-24T05:56:30Z","$MATIC testing 12 hour upper resistance‼️  ⭐️   $AAVE $ADA $ALGO $ATOM $BCH $BNB $BSV $BTC $BTT $CAKE $COMP $DOGE $DOT $ELGD $EOS $ETH $GRT $IOTA $KSM $LINK $LTC $LUNA $MATIC $MKR $NANO $NEO $OMG $ONE $RVN $SNX $SUSHI $THETA $TRX $UMA $UNI $VET $ZIL https://t.co/DN1qDDsXaj",1,0
1374600992382197762,"2021-03-24T05:56:30Z","💰What’s your #ETH wallet address?  🚀Don’t ask why, just drop it below👇  🚀Like、Retweet &amp; Tag ALL U CAN  🚀 USDT-NFTs has been listed on Uniswap！  🚀 The contract address: 0x6599fc3e77cbfa6f6e9cac605a30b1e78827eba0  #NFTs #NFT #AIRDROP #UNISWAP https://t.co/H29ZBOR0aL",1380,1178
1374600980755517443,"2021-03-24T05:56:27Z","Hey guys, I'll have an announcement.  🔶 SEND YOUR #NFT I spend 1.4 Eth I have allocated a budget of 1.6 Eth.  I want to add pieces of talents to my collection.  Could you please share your works? And RETWEET! Thank you!  #NFT #NFTcollectors #NFTs #NFTcommunity https://t.co/MVgQTbW4Qa",132,47
