"ID","created_at","text","like_count","rt_count"
1375115254514937863,"2021-03-25T15:59:59Z","Verge is proud to announce our listing on Mandala Exchange - Powered by Binance Cloud! You can now trade #XVG, #BTC, &amp; #ETH on Mandala with full Binance liquidity! - Trade Hundreds of Pairs (990+) - Lock MDX for .05% trading fees - Refer and earn $ https://t.co/gfrIZ2HUSA https://t.co/2o5QeK0Q8o",460,0
1375115249683197956,"2021-03-25T15:59:58Z","RT @Anthony00439858: Free ETH Claim  https://t.co/ZwjU3cDVT7  1. Retweet + Like  #CTBot Adrop Ram 75 TATM 25",21,0
1375115245740560393,"2021-03-25T15:59:57Z","Eric Oelschlägel bought for 0.371 ETH (593.18$) by Nutred on the primary market   Season: 2020-2021 Level: 0 Serial: 40/100 Price: 593.18$  ⚽ Sorare: https://t.co/HcmwhVJ9tc  📊: https://t.co/FdDZ4Tmoa1  #Sorare #NFT #Ethereum #FantasyFootball",1,0
1375115240052953089,"2021-03-25T15:59:56Z","The same people who called early #ethereum investors who got in at the ground floor (before live smart contracts) visionaries and geniuses call #cardano investors deluded morons who worship at the alter of a ghost chain. The double standard is baffling. $ADA = $ETH 3.0",438,0
1375115233514127369,"2021-03-25T15:59:54Z","New Airdrop: Diamond Crystal (DCT) Reward: 100 DCT ($100) Rate: ⭐️⭐️⭐️⭐️ Focus: Distribution starts after airdrop ends   Bot Airdrop Link: https://t.co/9Qzk47HUKt  #Airdrop #giveaway #BTC #ETH",4033,0
1375115232897597449,"2021-03-25T15:59:54Z","While #BTC is correcting, van de Poppe (@CryptoMichNL) sees #Ethereum $ETH and #Polkadot $DOT as two nice choices to buy the dip.  https://t.co/dNH3NYTZjw",0,0
1375115224852918286,"2021-03-25T15:59:52Z","💥Introducing $SKEY now trading on #Kucoin &amp; #Uniswap!  With @SmartKeyDeFi  technology:   ✅Connects the world of #DeFi &amp; blockchain w/ the world of physical assets  ✅Claims to outperform $LINK  ✅Whitepaper looks great https://t.co/x7KXIOHzUM  https://t.co/gXa6CBIKNE  $btc $eth https://t.co/WwKaGmWmbF",272,0
1375115223644930050,"2021-03-25T15:59:52Z","ALL CRYPTOCURRENCIES AND DIGITAL ASSETS BEWARE  All leaders involved in Cryptocurrencies and Digital Assets should read the 74 pages of the March 19 hearing.   The @SEC_Enforcement has not made a material distinction between #ETH #BTC and #XRP.  The SEC attorney’s comments https://t.co/xzd9oRb5mY",507,0
1375115220390060040,"2021-03-25T15:59:51Z","Price DROP by lockdown !! Reserve Price 1.2 ETH now. . . . #nft #NFTdrop #NFTs   Check out this artwork by Paschamo on @withFND! 🌐  https://t.co/hx8UIMZC64",15,0
1375115205009502216,"2021-03-25T15:59:47Z","💎#05. Birth of Franken AJE💎  Sold at 28.0 ETH ($44,984.24) at @SuperRare  Thanks and congrats @gblsts !!🎉🎉  *I canceled reserve auction for 💎#03. 💎 I'll open another auction with higher price. https://t.co/FdxftoM2jk",198,0
1375115199477342211,"2021-03-25T15:59:46Z","@rabbitely The First Piece from my New Collection has Just been Minted!   Lost Marbles Just Now Listed for .15 #eth   Follow and Keep your eyes out for the next 4 Pieces of this Exclusive Collection!! #nft #NFTCommunity #nftart #cryptoart #cryptoartist  #blender   https://t.co/VdidjpO6sI",4,0
1375115197350875136,"2021-03-25T15:59:46Z","Price DROP by lockdown !! Reserve Price 1.2 ETH now. . . . #nft #NFTdrop #NFTs   Check out this artwork by Paschamo on @withFND! 🌐  https://t.co/hx8UIMZC64",15,6
1375115196767830016,"2021-03-25T15:59:45Z","1/  🛸 Here comes a new farming program with @VesperFi!  🌐 Liquidity providers to $1INCH-$VSP pool will collect 150k $1INCH tokens and 100k $VSP tokens distributed over a 24-week period 🔷  #1inch #DeFi #Ethereum #ETH https://t.co/PMpUbnEybF",254,6
1375115196042207234,"2021-03-25T15:59:45Z","@ChainlinkNFThub $ETH THIS IS MY OWN ADDRESS  0xAce61E4a51CEa543fA63A253E196767Fc77fFa3C",1,0
1375115192099430401,"2021-03-25T15:59:44Z","RT @whale_alert: 🚨 🚨 🚨 🚨 🚨 🚨 🚨 🚨 🚨 🚨  200,000 #ETH (316,517,267 USD) transferred from unknown wallet to unknown wallet  https://t.co/6xkwNz…",114,0
1375115176106553346,"2021-03-25T15:59:41Z","RT @samxonite: BSC Bridge Integration on @EasyfiNetwork  #DoMoreWithDeFi   #CTBot Adrop Avg 0.0001 ETH 65 https://t.co/QgrSMuQfs9",66,0
1375115173011292165,"2021-03-25T15:59:40Z","@exitscumsoon @exitpump Ok, now time to buy $eth and sell in a few months 🤝",1,0
1375115171308449794,"2021-03-25T15:59:39Z","$BOLT is among the top gainers @Bolt_Global @BitMax_Official @kucoincom  Why: + Media Platform, partnership with #Hisense and #Zilliqa  + Watch content 24/7 + Amazing content creators like @aaronpkowalski + BOLT X integration  + Global userbase  $ZIL $BTC $ETH #Crypto $Alts https://t.co/IUaCcuwieH",493,0
1375115167273381891,"2021-03-25T15:59:38Z","@volmexfinance Today is happy to you!I want together!This is my #ETH address.Thank you!: 0xa4Ea02E3bc402f7c02C9e8c883a9A6c4D884053E",0,0
1375115164375257088,"2021-03-25T15:59:38Z","RT @MysticalNewt: feels good just chilling in bancor earning fees, no IL my bags just growing and growing. ez   $BNT $OCEAN $ETH",11,0
1375115162118725633,"2021-03-25T15:59:37Z","🔥 WoW!!! $DYP getting listed on @kucoincom !  DYP/USDT &amp; DYP/ETH trading will start tomorrow, March 25th at 10AM UTC! Good job @dypfinance team!  #DeFi #uniswap #Ethereum https://t.co/Rw9qa5l5tA",2225,0
1375115159685980162,"2021-03-25T15:59:37Z","@UNHumanRights, distance yourself from the intended joint invstgtn with @EthioHRC .We believe it is a sham and an 11th hour desperation to coverup the crimes of the Eth. govt. Listen to the victims, the people of Tigray. #investigate yourself, alone! #TigrayGenocide @mbachelet https://t.co/wu309bZlqU",11,0
1375115159467819013,"2021-03-25T15:59:37Z","No need to spend your own money to trade #cryptocurrency. Over 10K users won crypto rewards on @latokens last week. It's the best way to join the financial revolution. Start by earning a share of $100K in CLIQ airdrop: https://t.co/XNe2kQCn9H #Bitcoin #ETH #Citi #AON #LATOKEN",0,0
1375115151330918407,"2021-03-25T15:59:35Z","@KaraniAygun @PancakeSwap Because he’s probably using fast and not using slow and then altering gwei to 10. I paid  £6 my first transaction, and that hurt so I learnt quickly. I thought £6 was bad until I experienced ETH theft.",0,0
1375115146033569796,"2021-03-25T15:59:33Z","🗣️@seascapenetwork partnered @PancakeSwap, this partnership will give users opportunity to earn more $CWS.  Below is the inforgraphics showing the steps on how to stake $cake with syrup pool.  #Bsc #NFT #ETH #CryptoNews #Gaming #CWS #PancakeSwap  #CTBot Adrop RAM 1 Trx 50 https://t.co/rYDuxGMOj6",46,0
1375115134532780032,"2021-03-25T15:59:31Z","Breaking: Binance has hired two former FATF executives as its regulatory and compliance advisors.  https://t.co/r96dAwGQIZ  For updates: https://t.co/BCSdz2erc5 #bitcoin #crypto #eth #btc #tipster #bets",1,0
1375115124600664065,"2021-03-25T15:59:28Z","🚨DO NOT FALL FOR SCAMS🚨  $EBOX token is not  trading anywhere at the moment-official contract address will only be posted on our  channels as following🤝  Official $EBOX Contract Address:   0x33840024177a7daca3468912363bed8b425015c5  Decimals: 18   Ticker: EBOX  #staysafe #ETH",234,0
1375115124537765889,"2021-03-25T15:59:28Z","Some interesting insights into the project's recent history! https://t.co/NwN7ElKFtd  Give us a clap and on Medium write us a comment about what you thought below the article. The best comment wins $50 in ETH!   One random retweeter of this tweet will also win $20 in ETH!",21,0
1375115124302868490,"2021-03-25T15:59:28Z","I just joined this $25k Crypto giveaway by @JRNYcrypto and @sparkpointio  Get daily entries to increase your chances of winning! 25 random winners of $1k each!  #Bitcoin #Crypto $BTC $ETH $SRK https://t.co/BlkuNzse6V",0,0
1375115119068393476,"2021-03-25T15:59:27Z","The Nebular issue 6 is out!  You can read it here if you haven't subscribed yet:  https://t.co/pTDBQHrDNY  What's covered:  - Adopting an investor's mindset - MTF analysis of $BTC and $ETH - $ALPHA, $BAT, $ENJ, $QTUM, $CRV  Enjoy!  Likes/RTs are appreciated💎",17,0
1375115113607352327,"2021-03-25T15:59:26Z","RT @scottmelker: Going to say something crazy but....  $ETH actually looks good against $BTC right now.",1800,0
1375115112533651457,"2021-03-25T15:59:25Z","@HodlDepot @AniyomEbinne @BTC_Archive @PeterSchiff Buy ETH",0,0
1375115102643486731,"2021-03-25T15:59:23Z","And it's LIVE! $POODL now available for trading on WhiteBit! Here's what Tyrone has to say about it ;) #HOODLTHEPOODL   #SAFEMOON #HOGE $HOGE #crypto #cryptocurrencies #btc #eth #usdt #NFT https://t.co/Q3gLrA5hTz",334,0
1375115099753615361,"2021-03-25T15:59:22Z","Swiss bank Bordier &amp; Cie clients can now buy, hold and trade #cryptocurrencies - #Bitcoin #Ethereum #BitcoinCash and #Tezos @BordierCie @sygnumofficial @tezos @IgnoranceIt #XTZ #blockchain #FinTech #ETH #Crypto #Cryptocurrency #DigitalAssets #Switzerland  https://t.co/esrzMCUwiA",65,0
1375115095232102409,"2021-03-25T15:59:21Z","Top 10 coins by Shared Links as of 3:37PM UTC Thu, Mar 25 on @LunarCRUSH.  $btc #bitcoin $eth #ethereum $bch #bitcoincash $rari #rarible $cake #pancakeswap $doge #dogecoin $ada #cardano $xtz #tezos $fil #filecoin $zil #zilliqa   https://t.co/GdhBp3iHCe https://t.co/b124hhc2km",52,0
1375115092245774336,"2021-03-25T15:59:21Z","I'll send $500 in #ETH or #BTC to one person who retweets this and follows @bud_crypto. Must complete these tasks:  1 - Like/RT his pinned tweet  2 - Must RETWEET &amp; LIKE 4 of his tweets  Ends in 72 hours!",1406,0
1375115068858318852,"2021-03-25T15:59:15Z","And it's LIVE! $POODL now available for trading on WhiteBit! Here's what Tyrone has to say about it ;) #HOODLTHEPOODL   #SAFEMOON #HOGE $HOGE #crypto #cryptocurrencies #btc #eth #usdt #NFT https://t.co/Q3gLrA5hTz",334,0
1375115068568784906,"2021-03-25T15:59:15Z","New Airdrop: Diamond Crystal (DCT) Reward: 100 DCT ($100) Rate: ⭐️⭐️⭐️⭐️ Focus: Distribution starts after airdrop ends   Bot Airdrop Link: https://t.co/9Qzk47HUKt  #Airdrop #giveaway #BTC #ETH",4033,0
1375115066417238021,"2021-03-25T15:59:14Z","The race for a #BitcoinETF is on:  -VanEck -Valkyrie -NYDIG -WisdomTree -Fidelity -Goldman Sachs  #bitcoin #btc $btc #ethereum #eth $eth #crypto #cryptocurrency #cryptocurrencies #NFT #HODL #DeFi #CryptoTwitter #stonks #stockmarket #wallstreetbets #WSB  https://t.co/dwkx0Wx6Bl",4,0
1375115063233757188,"2021-03-25T15:59:14Z","@btcr3volution @VitalikButerin ...but I'm just a biology guy. Maybe your lightning network will let BTC compete with ETH, I dunno.   But it's just another tool in Skynet's toolbox, doesn't help carbon-based organisms avoid control.",0,0
1375115058779467783,"2021-03-25T15:59:13Z","RT @eth_classic: Grayscale can't seem to get enough of $ETC, adding ~161,612 more in the last 30 days.  https://t.co/1fzod6Mk90",159,0
1375115055046520834,"2021-03-25T15:59:12Z","Swole Doge LeDoge 23 0.08 ETH 10 of 10  Boost your Dogecoin. 🏀🏀 Second season. Collectible NFT Swole Doge’s. 📈📈 https://t.co/Q6Ua0YqOcr #NFT #Cryptoart #rarible #nft_ru #cryptoworld #ethereum https://t.co/UWSl2lBPK2",106,0
1375115048629235715,"2021-03-25T15:59:10Z","@justintrimble @mcuban #Mooncats are at an absolute bargain.   Some people will regret letting them go for under 5 eth!   You cannot place a value on history and with a story like moon cats, it is quite a unique one.",10,0
1375115043944214534,"2021-03-25T15:59:09Z","🚨COLLECTED🚨  Artist: @AnthonyAzekwoh  Piece: Limited Edition Tomorrow Woman Sketch Platform: @SuperRare  Edition: 1 of 1  💰 SOLD to dolats for 0.4 ETH ($677.81)  #blackart #blacknft #cryptoart #21Titles https://t.co/AhulqjuToj",4,0
1375115038327980035,"2021-03-25T15:59:08Z","@scottmelker Rather than use $ETH to swap I exchanged it for $USDT on https://t.co/jRS5ZN2BDj, I did that so I could get $HOGE, ETH gas prices are too damn high!",0,0
1375115028878258178,"2021-03-25T15:59:05Z","$ETH | $BTC  Price is currently in the process of retesting the trendline we've been above since the beginning of 2020.  As long as this holds, I don't think there's a reason to panic just yet. https://t.co/2iHV7cMTCn",26,4
1375115026109988867,"2021-03-25T15:59:05Z","💎 Limited Edition Tomorrow Woman Sketch 💎  ✨ Artwork by @AnthonyAzekwoh 💰 Sold to dolats for 0.4 ETH ($677.81)  https://t.co/TRNehT4WQO  #cryptoart #NFT https://t.co/OErqMN3Lws",6,4
1375115021496295433,"2021-03-25T15:59:04Z","🚨COLLECTED🚨  Artist: @AnthonyAzekwoh  Piece: Limited Edition Tomorrow Woman Sketch Platform: @SuperRare  Edition: 1 of 1  💰 SOLD to dolats for 0.4 ETH ($677.81)  #blackart #blacknft #cryptoart #21Titles https://t.co/AhulqjuToj",4,4
1375115008946888710,"2021-03-25T15:59:01Z","Looking for pivots here (~1570 and ~50k) on #ETH and #BTC.  If we break those levels I’ll be looking at ~1400 and 47k respectively. Exciting times if you are team #HODL https://t.co/oMbMrSf32g",0,0
1375115003439710217,"2021-03-25T15:58:59Z","#DeFi #BKC #eth2 #BucksCake #Airdrops  During BucksCake Private Pre-Sale  with our Staking Program🎫  you can get up to 💥 422% APY profit 🛥  Current APY% Rates: ❇️  ETH Staking - 9% APY 🚙 BNB Staking - 10%  APY 🛵 🔥 BKC Staking - 422% APY 🚀  More at https://t.co/RQPMhjazG2 https://t.co/jAz6gHuvbE",1405,0
1375115001443278851,"2021-03-25T15:58:59Z","Top 5 Mentions Updated Every 3 Minutes   Start Time: Thu Mar 25 2021 08:49:58 GMT+0300 (GMT+03:00)   (BETA STAGE)  1- $ETH==&gt;1663  2- $BNB==&gt;636  3- $DOGE==&gt;549  4- $XRP==&gt;489  5- $ADA==&gt;487",0,0
1375114999623004160,"2021-03-25T15:58:58Z","RT @crypto_birb: $BTC $ETH 👀 https://t.co/i9HAJX4WtV",241,0
1375114998394073091,"2021-03-25T15:58:58Z","💎#05. Birth of Franken AJE💎  Sold at 28.0 ETH ($44,984.24) at @SuperRare  Thanks and congrats @gblsts !!🎉🎉  *I canceled reserve auction for 💎#03. 💎 I'll open another auction with higher price. https://t.co/FdxftoM2jk",198,0
1375114984158502912,"2021-03-25T15:58:55Z","This is such a bullish article about #Hedera and its partners.  $Crypto Twitter #Btc #Eth this is not an I told you so moment.  Get on the boat.  GET ON THE BOAT!!  https://t.co/nXYo961yD3",6,1
1375114976549998594,"2021-03-25T15:58:53Z","I'll send $500 in #ETH or #BTC to one person who retweets this and follows @bud_crypto. Must complete these tasks:  1 - Like/RT his pinned tweet  2 - Must RETWEET &amp; LIKE 4 of his tweets  Ends in 72 hours!",1406,1
1375114974805254150,"2021-03-25T15:58:53Z","We are building a trustless gaming environment leveraging the true decentralization features of the blockchain. Join us in the journey.   #gmng #eth #defi #btc #bsc https://t.co/h0lLjeFHVB",86,1
1375114971487612928,"2021-03-25T15:58:52Z","FEB 28 !! martkist Legacy features: masternodes - mate (martkist asset token ecosystem) decentralized listings - blockchain id alias - certificates - marketplace ecosystem. $Martk #Martkist #blockchaintechnology #masternodes #tokenization #decentralized $BTC $ETH $UNI $LINK https://t.co/Y3ZKhX3fYe",5,1
1375114969797300230,"2021-03-25T15:58:51Z","RT @AleyArtist: A month has passed since I was in #nft ... and I have already earned around 8 ETH...don't stop believing in yourself...✨ I’…",457,1
1375114964340518919,"2021-03-25T15:58:50Z","@sandhu_hamid @mhussain5000 @MNM197 @JamilBathaa @HumasajjadShah @MaryamNSharif @BBhuttoZardari @MoulanaOfficial @p4pakipower @786N1R @MuhamadAfzalECP @MirMuzaffarH @gardezimabida @Defender_747 @RanaMasoodAli1 @Q1Shaheen @AmbzJehangir @javiqbal09 @Fatimabhurgri99 Year founded: Updated🇵🇹  🇮🇹University of Bologna 1088 🇬🇧 Oxford: 1096 🇬🇧Cambridge 1209 🇵🇹UoCoimbra 1290 🇺🇸Harvard 1636 🇨🇦University of Toronto 1827 🇨🇭ETH Zurich: 1855 🇺🇸Massachusetts Inst. of Tech 1861 🇺🇸California Inst. of Tech 1891 🇺🇸Stanford 1891 🇬🇧Imperial College London 1907 https://t.co/SVwBxV0eA6",8,1
1375114962989838336,"2021-03-25T15:58:50Z","@pascalboyart @ChaseIt @opensea 100 ETH incoming!!",2,0
1375114958262870019,"2021-03-25T15:58:49Z","Auction ends at 8:33am pst   Current bid 0.75 ETH from our beloved @_other_world_0 please don't bid I want my friend to have this 😂😅🤣😭  https://t.co/MfKAM1rOXa",6,0
1375114951795351552,"2021-03-25T15:58:47Z","RT @Pollo2x: At least he died doing what he loved (bag holding Eth). https://t.co/1oTFtV4itO",119,0
1375114941997281281,"2021-03-25T15:58:45Z","Are you looking for a project to profit from ?  $PUX  is for you 💯  Great time to Buy $PUX because  it has less now!  Buy and HOLD. Enjoy the profits! Awesome project.   @polypuXapp #ETH #DeFi https://t.co/yNPdOV8uaY",33,0
1375114941905051653,"2021-03-25T15:58:45Z","🚨DO NOT FALL FOR SCAMS🚨  $EBOX token is not  trading anywhere at the moment-official contract address will only be posted on our  channels as following🤝  Official $EBOX Contract Address:   0x33840024177a7daca3468912363bed8b425015c5  Decimals: 18   Ticker: EBOX  #staysafe #ETH",234,0
1375114940546187274,"2021-03-25T15:58:44Z","I'll send $500 in #ETH or #BTC to one person who retweets this and follows @bud_crypto. Must complete these tasks:  1 - Like/RT his pinned tweet  2 - Must RETWEET &amp; LIKE 4 of his tweets  Ends in 72 hours!",1406,0
1375114929502621697,"2021-03-25T15:58:42Z","Which centralized finance platform do you recommend to a friend to invest early in to create passive income using your #crypto? @NexoFinance @CelsiusNetwork @BlockFi #btc #eth",180,0
1375114929426997251,"2021-03-25T15:58:42Z","🔥 WoW!!! $DYP getting listed on @kucoincom !  DYP/USDT &amp; DYP/ETH trading will start tomorrow, March 25th at 10AM UTC! Good job @dypfinance team!  #DeFi #uniswap #Ethereum https://t.co/Rw9qa5l5tA",2225,0
1375114929410297857,"2021-03-25T15:58:42Z","@PlanetsDaily https://t.co/SiWquMuRKl Brand new NFT art! First from a new artist with many more to come once I get some ETH to cover the gas costs. I think they're cheap vs many others, but bids are welcome :D",0,0
1375114924989423616,"2021-03-25T15:58:41Z","RT @CashNCrypto: $150 to one person in 48hrs  Rt &amp; follow me + @domscrypto &amp; @boar_eth",2067,0
1375114910569529344,"2021-03-25T15:58:37Z","@bulldogholmes @YahooFinance We need to provide access to these Millennials using #RobinHood Trading App  $HIVE.V $HVBTF #ESG #GreenEconomy #Green #Energy  #GreenEnergy #CleanEnergy #Bitcoin #Ethereum #BTC #ETH #mining",4,0
1375114910527590404,"2021-03-25T15:58:37Z","Today's Gun of the Day  Today we have the Radical Firearms RF-15 AR Pistol. Chambered in 5.56 NATO w/ 10.5 Barrel, 10 RPR M-Lok handguard, ambi selector, MFT grip &amp; SBA3 brace. Loaded w/ features at a great price #Ethereum #ETH #Mondayvibes #StockMarket https://t.co/AtT4iISOdB",94,0
1375114903044775939,"2021-03-25T15:58:35Z","I'll send $500 in #ETH or #BTC to one person who retweets this and follows @bud_crypto. Must complete these tasks:  1 - Like/RT his pinned tweet  2 - Must RETWEET &amp; LIKE 4 of his tweets  Ends in 72 hours!",1406,0
1375114897198043143,"2021-03-25T15:58:34Z","Which centralized finance platform do you recommend to a friend to invest early in to create passive income using your #crypto? @NexoFinance @CelsiusNetwork @BlockFi #btc #eth",180,0
1375114888134197248,"2021-03-25T15:58:32Z","The DEX @FinanceChainge is set to launch on the @FUSIONProtocol network with over a million users on the protocols waitlist. This decentralized exchange aims to innovate on traditional models through leveraging the Fusion Network.  #BSC #BTC #ETH #BNB  https://t.co/xx55YiGfm3",21660,0
1375114886833786886,"2021-03-25T15:58:32Z","@Wades_ETH @Nevableed Congrats @Nevableed !! It was fun! Thank you for hosting @Wades_ETH !",1,0
1375114882744344578,"2021-03-25T15:58:31Z","We have dropped our very first art on @opensea! Super excited !! Link below as there is only one of this art 🤯💯 Tittle: Eyes Cream Price : 0.03 ETH   #nft #opensea  #NFT #nftcollector #nftart #NFTartist #NFTs #cryptoartist #cryptoeyeball #eyescream   https://t.co/fFJxZo65M5",9,0
1375114876331438083,"2021-03-25T15:58:29Z","The account is sponsored by #Maanky 🐵 #BTC #Bitcoin #ETH #FOREX EURUSD cracks to a new session low https://t.co/sRcfZuMcGE",0,0
1375114874011934721,"2021-03-25T15:58:29Z","For short-term profit, would you rather buy $ETH or $SABR ?",0,0
1375114866407526406,"2021-03-25T15:58:27Z","$BTC $ETH 👀 🤖 https://t.co/bmI6HDsxNT",0,0
1375114865581428739,"2021-03-25T15:58:27Z","Cardano360 - March 2021    #Cardano $ADA #ETH #BTC #BITCOIN  EVEREST SUMMIT POOL  TICKER:ESP https://t.co/8gYFXHhDsT",2,2
1375114862964137984,"2021-03-25T15:58:26Z","@PeterMcCormack @Zen_Trades1 @elonmusk It's not 2017 homie. The only clear project back then with any weight behind it was ETH. You making this statement proves you don't know all the great projects that exist. Even ones with DEFI costing less than pennies to transact exist right now.",1,0
1375114859180744707,"2021-03-25T15:58:25Z","Which centralized finance platform do you recommend to a friend to invest early in to create passive income using your #crypto? @NexoFinance @CelsiusNetwork @BlockFi #btc #eth",180,0
1375114859159904258,"2021-03-25T15:58:25Z","#cardano 360 event today. Birds dive bombing the #ethereum basecamp as centralised $ETH miners prepare for a show of force (preceding an all out revolt) on April 1st. Battle lines being drawn. $ADA looking primed to dethrone the sluggish old man. https://t.co/E8n1QSmhjF",194,0
1375114854319595523,"2021-03-25T15:58:24Z","🏆 Follow us &amp; Retweet this tweet, Specify the ETH address in the tweet comment to get 10 #BIT ($10 worth) or 50 #BIT ($50 worth) #BitScores Airdrop Tokens! 🎁 $250,000 Prize Pool Full rules: https://t.co/N53M5nRXr9  #giveaway #airdrops #bounty #giveaways #defi #eth #btc #airdrop https://t.co/m77hDtRsBv",3577,0
1375114851245293569,"2021-03-25T15:58:23Z","RT @kaspertrades: $10k $ETH before July and everybody who retweets this gets 250$",0,0
1375114844349870080,"2021-03-25T15:58:21Z","Holders of these @raccoonbrand #NFT Rarities receive a free card from our upcoming set!  Rare / Epic / Legendary / Mythical (Scroll down #NFTs to check Rarity)  View Listings ➡️ https://t.co/ijhpLoqduS  #WAX #DeFi #Crypto #Blockchain $WAXP $WAXE $WAXG $ETH $BTC https://t.co/H6ObEKFj4T",21,0
1375114844085571589,"2021-03-25T15:58:21Z","@NFTFix @Dariocavaliere3 https://t.co/U3EzXelSp4  “LiquidDistance” 👽✨  Price: 0.25 ETH",2,0
1375114836355387400,"2021-03-25T15:58:20Z","Pair Created! Pairs → EBOX-ETH  $EBOX = &lt; 0.0001 ETH ($0.0899)  $ETH = 17,690 EBOX ($1,591)  Total Liquidity $257,187  https://t.co/oBoYqZVSPz",0,0
1375114823080439811,"2021-03-25T15:58:16Z","🚀 Safe The Children  🔷 Token Symbol : STC  🔷 Contract: https://t.co/nk3qsF2PJV  🔷 Website: https://t.co/4y0g7dqswM  🔷 Whitepaper: https://t.co/PHPZI4dbyR  🔷 Presentation Video : https://t.co/Mycfov12IU  #Safe_Childrens #Bitcoin  #Binance #BinanceSmartChain #DEFI  #BTC #ETH",14723,0
1375114819234369544,"2021-03-25T15:58:15Z","🏀🐶Final FOUR of DOGE Madness! We will be selecting the winner of Dogepunk (valued at 3.5 ETH/$6.3k) when we crown the winner!  You will get an entry by: 1. Following us 2. Retweeting this (each RT is an entry) 3. Tagging 3 friends to vote!  @opensea #nft #doge #dogearmy https://t.co/bm4jiG76W2",14,0
1375114811965501442,"2021-03-25T15:58:14Z","Verge is proud to announce our listing on Mandala Exchange - Powered by Binance Cloud! You can now trade #XVG, #BTC, &amp; #ETH on Mandala with full Binance liquidity! - Trade Hundreds of Pairs (990+) - Lock MDX for .05% trading fees - Refer and earn $ https://t.co/gfrIZ2HUSA https://t.co/2o5QeK0Q8o",460,0
1375114807729385473,"2021-03-25T15:58:13Z","RT @Pollo2x: At least he died doing what he loved (bag holding Eth). https://t.co/1oTFtV4itO",119,0
1375114798631776256,"2021-03-25T15:58:11Z","$ETH  Fine-tuned this a bit, let's see when does this go wrong😅  Remember this is just for fun. I have no hopes for this. https://t.co/Lru1Uzavux https://t.co/N0BegEH8jg",0,0
1375114785382150147,"2021-03-25T15:58:07Z","@tormenta263 the gist of what's going on is the blockchain is proof of ownership.    People 'dont get it' because owning a physical tangible good was the only proof   Technology has moved past it  The prices are high because the people bidding have a lot of money (ETH) from being in the space",1,0
1375114782320156673,"2021-03-25T15:58:07Z","#DeFi #BKC #eth2 #BucksCake #Airdrops  During BucksCake Private Pre-Sale  with our Staking Program🎫  you can get up to 💥 422% APY profit 🛥  Current APY% Rates: ❇️  ETH Staking - 9% APY 🚙 BNB Staking - 10%  APY 🛵 🔥 BKC Staking - 422% APY 🚀  More at https://t.co/RQPMhjazG2 https://t.co/jAz6gHuvbE",1405,0
1375114778721595394,"2021-03-25T15:58:06Z","We would both make 10% if you use this referral. #binance #cryptocurrency #crypto #ToTheMoon #dogecoin #Bitcoin #ETH #ethereum #etc   https://t.co/hjAprjLhoA  Referral ID KNU8PB88",0,0
1375114767904423937,"2021-03-25T15:58:03Z","@ChainlinkNFThub My Eth wallet  0x584f36B7cB4D151fF6e2E519c3A084904148d94f",0,0
1375114754130345991,"2021-03-25T15:58:00Z","🚀 Pluto Coin  Airdrop 🚀 Rate: ⭐⭐⭐⭐ ⭐ 🎁 Reward:  8822 PLUT ($1500) 👫 Referral: 40.5 PLUT  ($7)  🤖Start Bot here   https://t.co/x5JZchojO8  ⛂ Join Telegram group and channel. ⛂ Follow twitter &amp; retweet  ⛂ Submit ETH address and details.",6006,0
1375114753815773202,"2021-03-25T15:58:00Z","RT @whale_alert: 🚨 🚨 🚨 🚨  30,000 #ETH (47,581,652 USD) transferred from unknown wallet to unknown wallet  https://t.co/x1Lj1UOdeN",40,0
1375114752708509696,"2021-03-25T15:58:00Z","💥Dear users, we are glad to announce that BTCA token will be available on Coinsbit on 01.03.2021!  💵Pairs: BTCA/BTC BTCA/ETH BTCA/USDT  ✅Follow the link below to get more info:  https://t.co/BeJZxNMvjb  🌈Stay tuned to get updates and latest news from Coinsbit! https://t.co/ddDOswq9Zk",45,0
