﻿Date,Time,Open,High,Low,Close,Volume
03/24/2021,9:45 AM,77.55,78.4658,77.41,77.95,3639992
03/24/2021,10:00 AM,77.95,78.08,77.03,77.27,2204689
03/24/2021,10:15 AM,77.27,77.69,77.15,77.195,1710852
03/24/2021,10:30 AM,77.2,77.32,76.7049,77.29,1778312
03/24/2021,10:45 AM,77.27,77.82,77.1183,77.76,1457051
03/24/2021,11:00 AM,77.77,78.28,77.72,78.2,1681634
03/24/2021,11:15 AM,78.21,78.6186,78.21,78.59,1339201
03/24/2021,11:30 AM,78.58,78.8,78.34,78.67,1407328
03/24/2021,11:45 AM,78.67,78.675,78.18,78.54,1240991
03/24/2021,12:00 PM,78.54,78.58,77.97,78.19,840253
03/24/2021,12:15 PM,78.2,78.3,78.0301,78.23,756798
03/24/2021,12:30 PM,78.23,78.38,77.83,78.07,998906
03/24/2021,12:45 PM,78.05,78.08,77.85,77.9699,696065
03/24/2021,1:00 PM,77.97,77.97,77.61,77.75,779103
03/24/2021,1:15 PM,77.75,77.82,77.39,77.575,1243994
03/24/2021,1:30 PM,77.58,77.93,77.54,77.81,776285
03/24/2021,1:45 PM,77.8058,77.9755,77.535,77.575,653064
03/24/2021,2:00 PM,77.6,78.09,77.6,78.01,673406
03/24/2021,2:15 PM,78.01,78.09,77.85,77.885,711944
03/24/2021,2:30 PM,77.89,78.15,77.74,77.77,812508
03/24/2021,2:45 PM,77.76,77.7679,77.3,77.41,1064922
03/24/2021,3:00 PM,77.41,77.7,77.1699,77.23,1077453
03/24/2021,3:15 PM,77.24,77.53,77.16,77.385,1027197
03/24/2021,3:30 PM,77.38,77.5202,77.1677,77.2,926844
03/24/2021,3:45 PM,77.21,77.297,76.82,76.861,1619213
03/24/2021,4:00 PM,76.86,77.15,76.4,76.45,3308827
03/25/2021,9:45 AM,75.85,76.55,75.33,76.3,3371104
03/25/2021,10:00 AM,76.3099,76.72,75.89,76.33,2539345
03/25/2021,10:15 AM,76.33,76.84,76.009,76.34,1893329
03/25/2021,10:30 AM,76.34,76.6199,76.01,76.0301,1534217
03/25/2021,10:45 AM,76.06,76.09,75.73,75.82,1287784
03/25/2021,11:00 AM,75.81,75.99,74.96,75.32,2138011
03/25/2021,11:15 AM,75.315,75.58,75.09,75.41,1492534
03/25/2021,11:30 AM,75.41,75.745,75.0899,75.735,1106830
03/25/2021,11:45 AM,75.73,76.16,75.6,75.633,1130041
03/25/2021,12:00 PM,75.63,76.09,75.37,76.046,1080431
03/25/2021,12:15 PM,76.04,76.46,76.04,76.19,1070492
03/25/2021,12:30 PM,76.195,76.84,76.195,76.78,1237043
03/25/2021,12:45 PM,76.77,76.845,76.44,76.68,818882
03/25/2021,1:00 PM,76.68,76.95,76.57,76.575,844182
03/25/2021,1:15 PM,76.57,76.74,76.165,76.705,1395233
03/25/2021,1:30 PM,76.71,76.79,76.145,76.28,1002158
03/25/2021,1:45 PM,76.2752,76.47,76.01,76.315,1043905
03/25/2021,2:00 PM,76.3,76.46,75.935,75.94,923713
03/25/2021,2:15 PM,75.95,75.9793,75.49,75.6,1109911
03/25/2021,2:30 PM,75.59,75.72,75.15,75.2157,1072285
03/25/2021,2:45 PM,75.23,75.86,75.19,75.75,1247699
03/25/2021,3:00 PM,75.76,76.27,75.67,76.19,1039975
03/25/2021,3:15 PM,76.17,76.46,76.08,76.19,1145022
03/25/2021,3:30 PM,76.21,76.39,76.15,76.23,826522
03/25/2021,3:45 PM,76.23,76.47,76.07,76.325,1332929
03/25/2021,4:00 PM,76.34,76.69,76.1601,76.23,1974279
03/26/2021,9:45 AM,76.62,76.69,75.96,76.484,2408680
03/26/2021,10:00 AM,76.52,77,76.49,76.63,1974389
03/26/2021,10:15 AM,76.66,76.77,76.26,76.5605,1620711
03/26/2021,10:30 AM,76.55,76.65,76.16,76.5718,1459281
03/26/2021,10:45 AM,76.59,77.37,76.51,77.35,1886269
03/26/2021,11:00 AM,77.35,77.4,76.52,76.68,1445614
03/26/2021,11:15 AM,76.68,76.78,76.25,76.38,1144618
03/26/2021,11:30 AM,76.39,76.57,76.15,76.29,919557
03/26/2021,11:45 AM,76.285,76.85,76.17,76.79,994148
03/26/2021,12:00 PM,76.81,76.98,76.69,76.98,1119241
03/26/2021,12:15 PM,76.97,77.15,76.66,76.915,941121
03/26/2021,12:30 PM,76.92,77.18,76.68,77.1,785146
03/26/2021,12:45 PM,77.11,77.255,77.08,77.1319,1137653
03/26/2021,1:00 PM,77.145,77.37,76.81,76.84,1261998
03/26/2021,1:15 PM,76.845,77.17,76.845,77.15,788056
03/26/2021,1:30 PM,77.15,77.4778,77.08,77.3,1201036
03/26/2021,1:45 PM,77.31,77.38,76.87,76.938,881221
03/26/2021,2:00 PM,76.93,76.93,76.494,76.65,1060754
03/26/2021,2:15 PM,76.65,76.92,75.9,75.98,1954242
03/26/2021,2:30 PM,75.98,76.01,75.52,75.7,1958465
03/26/2021,2:45 PM,75.6916,75.83,75.405,75.44,1883270
03/26/2021,3:00 PM,75.44,75.82,75.03,75.76,2504120
03/26/2021,3:15 PM,75.77,76.25,75.73,76.1,1473290
03/26/2021,3:30 PM,76.1,76.82,76.08,76.76,1261320
03/26/2021,3:45 PM,76.77,76.87,76.54,76.66,1814429
03/26/2021,4:00 PM,76.665,77.4995,76.505,77.41,3643898
03/29/2021,9:45 AM,77.03,77.79,76.26,77.31,3055418
03/29/2021,10:00 AM,77.32,78.02,76.84,77.0133,2437897
03/29/2021,10:15 AM,77.01,77.25,76.72,77.12,1622740
03/29/2021,10:30 AM,77.1,77.43,76.8201,77.08,1548434
03/29/2021,10:45 AM,77.07,77.54,76.98,77.47,1305664
03/29/2021,11:00 AM,77.46,77.58,77.01,77.07,1319628
03/29/2021,11:15 AM,77.065,77.41,76.79,77.11,1286626
03/29/2021,11:30 AM,77.11,77.11,76.55,76.79,1185554
03/29/2021,11:45 AM,76.8,76.88,76.57,76.78,1000316
03/29/2021,12:00 PM,76.76,77.19,76.55,76.89,920037
03/29/2021,12:15 PM,76.88,76.96,76.555,76.67,852698
03/29/2021,12:30 PM,76.67,77.03,76.64,76.972,733465
03/29/2021,12:45 PM,76.975,77.4697,76.87,77.37,949544
03/29/2021,1:00 PM,77.37,77.655,77.28,77.63,803956
03/29/2021,1:15 PM,77.63,77.805,77.51,77.635,849653
03/29/2021,1:30 PM,77.66,77.765,77.45,77.49,627456
03/29/2021,1:45 PM,77.495,77.82,77.405,77.47,775267
03/29/2021,2:00 PM,77.465,77.7,77.16,77.195,862902
03/29/2021,2:15 PM,77.195,77.225,76.865,77.16,990070
03/29/2021,2:30 PM,77.15,77.1511,76.85,76.94,913203
03/29/2021,2:45 PM,76.93,76.95,76.58,76.595,1105975
03/29/2021,3:00 PM,76.59,76.91,76.4,76.599,975880
03/29/2021,3:15 PM,76.61,77.025,76.61,76.91,998236
03/29/2021,3:30 PM,76.9,77.2,76.81,77.1521,915692
03/29/2021,3:45 PM,77.16,77.26,76.9699,77.0499,1085924
03/29/2021,4:00 PM,77.045,77.25,76.96,77.15,2160178
03/30/2021,9:45 AM,76.47,76.56,74.85,75.0201,4073021
03/30/2021,10:00 AM,75.0223,75.4599,74.87,75.31,2214116
03/30/2021,10:15 AM,75.29,75.6999,75.13,75.61,1796098
03/30/2021,10:30 AM,75.615,75.64,75.08,75.46,1552935
03/30/2021,10:45 AM,75.46,75.6599,75.297,75.63,1652407
03/30/2021,11:00 AM,75.64,75.925,75.52,75.705,1433229
03/30/2021,11:15 AM,75.71,75.99,75.545,75.96,1371589
03/30/2021,11:30 AM,75.95,75.96,75.59,75.799,1133485
03/30/2021,11:45 AM,75.8,76,75.52,75.615,1343177
03/30/2021,12:00 PM,75.6199,75.645,75.175,75.3097,1569202
03/30/2021,12:15 PM,75.315,75.5,75.25,75.485,973974
03/30/2021,12:30 PM,75.485,75.62,75.13,75.585,1122060
03/30/2021,12:45 PM,75.58,75.765,75.5,75.68,830181
03/30/2021,1:00 PM,75.66,75.8201,75.515,75.54,774861
03/30/2021,1:15 PM,75.55,75.68,75.35,75.66,744988
03/30/2021,1:30 PM,75.65,75.98,75.65,75.86,834337
03/30/2021,1:45 PM,75.86,75.93,75.705,75.745,749167
03/30/2021,2:00 PM,75.745,75.9,75.58,75.5996,688123
03/30/2021,2:15 PM,75.59,75.7,75.48,75.695,969052
03/30/2021,2:30 PM,75.69,75.88,75.52,75.7679,828330
03/30/2021,2:45 PM,75.7699,76.12,75.7,75.972,946002
03/30/2021,3:00 PM,75.98,76.16,75.905,76.1259,756178
03/30/2021,3:15 PM,76.1217,76.14,75.995,76.055,782943
03/30/2021,3:30 PM,76.06,76.22,75.89,75.9163,993265
03/30/2021,3:45 PM,75.92,76.03,75.8,75.85,1023685
03/30/2021,4:00 PM,75.84,76.02,75.59,76.01,2276359
03/31/2021,9:45 AM,76.57,77.31,76.52,77.24,3015329
03/31/2021,10:00 AM,77.24,77.94,77.21,77.64,2269181
03/31/2021,10:15 AM,77.65,77.89,77.35,77.4601,1834749
03/31/2021,10:30 AM,77.47,77.8,77.355,77.45,1324772
03/31/2021,10:45 AM,77.47,78.2,77.44,78.19,1631502
03/31/2021,11:00 AM,78.1815,78.28,77.86,77.97,1161271
03/31/2021,11:15 AM,77.96,78.32,77.92,78.12,843192
03/31/2021,11:30 AM,78.125,78.22,78.01,78.04,822839
03/31/2021,11:45 AM,78.03,78.24,77.8,77.8415,938512
03/31/2021,12:00 PM,77.85,78.15,77.815,78.092,812251
03/31/2021,12:15 PM,78.1,78.35,78.07,78.25,905398
03/31/2021,12:30 PM,78.26,78.58,78.23,78.48,1466323
03/31/2021,12:45 PM,78.475,78.7,78.46,78.505,1028526
03/31/2021,1:00 PM,78.51,78.76,78.35,78.48,1039330
03/31/2021,1:15 PM,78.49,78.76,78.36,78.72,857819
03/31/2021,1:30 PM,78.7114,78.88,78.7101,78.77,787825
03/31/2021,1:45 PM,78.775,78.819,78.51,78.51,782466
03/31/2021,2:00 PM,78.5101,78.63,78.42,78.49,860731
03/31/2021,2:15 PM,78.4929,78.6399,78.3,78.59,1028450
03/31/2021,2:30 PM,78.58,78.91,78.58,78.8999,796963
03/31/2021,2:45 PM,78.9,78.935,78.65,78.79,777746
03/31/2021,3:00 PM,78.79,79.1,78.75,79.07,1029844
03/31/2021,3:15 PM,79.07,79.13,78.84,78.908,1083027
03/31/2021,3:30 PM,78.905,79.045,78.81,78.88,1041128
03/31/2021,3:45 PM,78.8809,79.005,78.77,78.77,1192394
03/31/2021,4:00 PM,78.765,78.855,78.29,78.51,3049707
04/01/2021,9:45 AM,80.155,80.6,79.48,80.5,4566641
04/01/2021,10:00 AM,80.51,80.67,80.19,80.365,2156141
04/01/2021,10:15 AM,80.37,80.44,79.68,80.37,2232343
04/01/2021,10:30 AM,80.37,80.75,80.25,80.52,1793402
04/01/2021,10:45 AM,80.53,80.6178,80.19,80.48,1211141
04/01/2021,11:00 AM,80.49,80.505,80.16,80.4221,956287
04/01/2021,11:15 AM,80.42,80.67,80.28,80.36,1062800
04/01/2021,11:30 AM,80.37,80.86,80.25,80.837,1682058
04/01/2021,11:45 AM,80.835,80.89,80.24,80.3401,1553748
04/01/2021,12:00 PM,80.341,80.4901,80.19,80.3617,829996
04/01/2021,12:15 PM,80.35,80.61,80.315,80.595,744393
04/01/2021,12:30 PM,80.5891,80.71,80.41,80.6709,675670
04/01/2021,12:45 PM,80.68,80.77,80.54,80.665,666933
04/01/2021,1:00 PM,80.67,80.89,80.54,80.882,1177553
04/01/2021,1:15 PM,80.885,80.96,80.66,80.7909,999135
04/01/2021,1:30 PM,80.795,80.83,80.49,80.505,838640
04/01/2021,1:45 PM,80.5,81.065,80.495,81,1152365
04/01/2021,2:00 PM,80.99,81.0501,80.76,80.86,867664
04/01/2021,2:15 PM,80.86,81.035,80.735,81,689422
04/01/2021,2:30 PM,81.0069,81.07,80.9,81.04,668131
04/01/2021,2:45 PM,81.035,81.221,81.03,81.205,808836
04/01/2021,3:00 PM,81.205,81.28,81.085,81.275,758855
04/01/2021,3:15 PM,81.27,81.31,80.91,80.9501,1084766
04/01/2021,3:30 PM,80.955,81.1,80.9301,81.01,755710
04/01/2021,3:45 PM,81.015,81.11,80.82,80.905,1126510
04/01/2021,4:00 PM,80.91,81.13,80.8,81.1,2166560
04/05/2021,9:45 AM,81.74,81.9,80.67,80.9811,3757705
04/05/2021,10:00 AM,80.99,81.29,80.82,81.0802,1903123
04/05/2021,10:15 AM,81.1,81.1399,80.82,80.925,1326801
04/05/2021,10:30 AM,80.93,81.4934,80.85,81.435,1488571
04/05/2021,10:45 AM,81.435,81.5617,80.9217,81.07,1472504
04/05/2021,11:00 AM,81.08,81.13,80.77,80.8499,1108043
04/05/2021,11:15 AM,80.85,80.8977,80.47,80.835,1267537
04/05/2021,11:30 AM,80.84,80.92,80.56,80.585,619335
04/05/2021,11:45 AM,80.585,80.84,80.54,80.6601,975613
04/05/2021,12:00 PM,80.66,80.67,80.39,80.442,924587
04/05/2021,12:15 PM,80.445,80.64,80.41,80.63,657323
04/05/2021,12:30 PM,80.615,80.82,80.56,80.765,716262
04/05/2021,12:45 PM,80.77,80.92,80.6801,80.85,769421
04/05/2021,1:00 PM,80.86,80.965,80.82,80.9024,552484
04/05/2021,1:15 PM,80.91,81.14,80.86,81.14,553967
04/05/2021,1:30 PM,81.14,81.285,81.04,81.05,828284
04/05/2021,1:45 PM,81.05,81.18,81.005,81.055,650686
04/05/2021,2:00 PM,81.0553,81.2,81.04,81.16,561214
04/05/2021,2:15 PM,81.17,81.42,81.17,81.4,886236
04/05/2021,2:30 PM,81.4073,81.4499,81.26,81.29,628786
04/05/2021,2:45 PM,81.285,81.465,81.265,81.395,690561
04/05/2021,3:00 PM,81.39,81.54,81.3392,81.5302,716926
04/05/2021,3:15 PM,81.52,81.6,81.31,81.425,960153
04/05/2021,3:30 PM,81.42,81.54,81.31,81.4227,861074
04/05/2021,3:45 PM,81.43,81.455,81.2701,81.33,924881
04/05/2021,4:00 PM,81.325,81.53,81.19,81.41,1823949
04/06/2021,9:45 AM,81.21,82.1597,81.03,81.9491,2937365
04/06/2021,10:00 AM,81.9401,82.11,81.6501,82.0398,1504401
04/06/2021,10:15 AM,82.03,82.1302,81.595,81.8053,1372229
04/06/2021,10:30 AM,81.795,81.91,81.51,81.6,1175958
04/06/2021,10:45 AM,81.6,81.665,81.42,81.53,1018120
04/06/2021,11:00 AM,81.54,81.905,81.47,81.885,938332
04/06/2021,11:15 AM,81.89,82.22,81.74,82.1908,1116770
04/06/2021,11:30 AM,82.19,82.455,82.18,82.44,1170670
04/06/2021,11:45 AM,82.43,82.43,82.16,82.21,751709
04/06/2021,12:00 PM,82.215,82.29,82.08,82.26,595142
04/06/2021,12:15 PM,82.26,82.31,81.96,81.98,645081
04/06/2021,12:30 PM,81.97,82.025,81.86,81.86,550395
04/06/2021,12:45 PM,81.85,82,81.59,81.7611,896303
04/06/2021,1:00 PM,81.76,81.93,81.745,81.86,740690
04/06/2021,1:15 PM,81.85,81.9,81.422,81.565,1005854
04/06/2021,1:30 PM,81.56,81.59,81.01,81.06,1088257
04/06/2021,1:45 PM,81.0627,81.3865,80.88,81.3101,1142322
04/06/2021,2:00 PM,81.32,81.49,81.2882,81.4713,533797
04/06/2021,2:15 PM,81.48,81.62,81.41,81.4968,719938
04/06/2021,2:30 PM,81.4989,81.66,81.44,81.585,484996
04/06/2021,2:45 PM,81.58,81.76,81.461,81.68,726143
04/06/2021,3:00 PM,81.685,81.75,81.53,81.695,471544
04/06/2021,3:15 PM,81.695,81.7681,81.3992,81.52,702871
04/06/2021,3:30 PM,81.51,81.57,81.445,81.53,628343
04/06/2021,3:45 PM,81.53,81.57,81.43,81.48,646320
04/06/2021,4:00 PM,81.48,81.51,81.16,81.45,1586288
04/07/2021,9:45 AM,81.32,81.5,80.35,81.0635,3565954
04/07/2021,10:00 AM,81.07,81.53,80.93,81.4501,2086641
04/07/2021,10:15 AM,81.46,81.73,81.3801,81.5799,1326057
04/07/2021,10:30 AM,81.57,82.01,81.49,81.96,1284166
04/07/2021,10:45 AM,81.97,82.06,81.69,81.8601,919248
04/07/2021,11:00 AM,81.86,81.9499,81.689,81.74,649733
04/07/2021,11:15 AM,81.75,82.31,81.75,82.29,1047535
04/07/2021,11:30 AM,82.29,82.31,81.84,81.901,1003283
04/07/2021,11:45 AM,81.91,81.95,81.5336,81.865,1367242
04/07/2021,12:00 PM,81.87,82.26,81.8,82.15,857557
04/07/2021,12:15 PM,82.15,82.29,82,82.025,914660
04/07/2021,12:30 PM,82.028,82.03,81.69,81.73,797920
04/07/2021,12:45 PM,81.73,81.985,81.69,81.7889,684767
04/07/2021,1:00 PM,81.78,81.856,81.725,81.77,575306
04/07/2021,1:15 PM,81.76,81.94,81.61,81.93,846443
04/07/2021,1:30 PM,81.93,81.98,81.8099,81.87,462914
04/07/2021,1:45 PM,81.87,82.21,81.8073,82.205,693813
04/07/2021,2:00 PM,82.205,82.26,82.08,82.2,711231
04/07/2021,2:15 PM,82.2,83.1,82.2,83.035,2096614
04/07/2021,2:30 PM,83.04,83.1,82.81,82.94,1515997
04/07/2021,2:45 PM,82.9401,83.1,82.74,82.8301,1256266
04/07/2021,3:00 PM,82.83,82.8777,82.62,82.6528,987977
04/07/2021,3:15 PM,82.66,82.94,82.51,82.54,1173469
04/07/2021,3:30 PM,82.53,82.59,82.25,82.31,1142071
04/07/2021,3:45 PM,82.31,82.31,82.032,82.1565,1291701
04/07/2021,4:00 PM,82.155,82.41,82.01,82.19,1670546
04/08/2021,9:45 AM,83.32,83.38,82.66,82.98,3315347
04/08/2021,10:00 AM,82.99,83.43,82.7101,83.3451,2806245
04/08/2021,10:15 AM,83.345,83.79,82.84,83.05,3457921
04/08/2021,10:30 AM,83.05,83.2716,82.74,82.83,1802814
04/08/2021,10:45 AM,82.82,82.98,82.54,82.8909,1429711
04/08/2021,11:00 AM,82.91,82.94,82.435,82.74,1376898
04/08/2021,11:15 AM,82.75,82.97,82.605,82.9081,1030722
04/08/2021,11:30 AM,82.91,83.205,82.845,83.1604,1106798
04/08/2021,11:45 AM,83.1682,83.441,83.13,83.35,1235638
04/08/2021,12:00 PM,83.345,83.41,83.17,83.185,890807
04/08/2021,12:15 PM,83.185,83.215,82.8301,83.16,1076763
04/08/2021,12:30 PM,83.16,83.245,82.9801,83.0973,761243
04/08/2021,12:45 PM,83.0901,83.295,83.05,83.24,704142
04/08/2021,1:00 PM,83.24,83.29,82.9,83.22,877406
04/08/2021,1:15 PM,83.22,83.4199,83.1815,83.28,751027
04/08/2021,1:30 PM,83.29,83.44,83.18,83.2901,581659
04/08/2021,1:45 PM,83.3,83.4171,83.02,83.125,859810
04/08/2021,2:00 PM,83.12,83.2,83.06,83.165,635670
04/08/2021,2:15 PM,83.17,83.565,83.17,83.5611,1009363
04/08/2021,2:30 PM,83.57,83.66,83.4301,83.485,781291
04/08/2021,2:45 PM,83.48,83.57,83.4098,83.545,822670
04/08/2021,3:00 PM,83.545,83.575,83.35,83.52,689436
04/08/2021,3:15 PM,83.525,83.525,83.31,83.315,740505
04/08/2021,3:30 PM,83.31,83.539,83.3,83.49,875242
04/08/2021,3:45 PM,83.4887,83.51,83.22,83.31,1425464
04/08/2021,4:00 PM,83.305,83.45,83.19,83.4,2098728
04/09/2021,9:45 AM,82.8,82.97,82.16,82.605,2870105
04/09/2021,10:00 AM,82.6,82.92,82.481,82.72,1797878
04/09/2021,10:15 AM,82.72,83.12,82.72,82.92,1321489
04/09/2021,10:30 AM,82.9277,83.3088,82.8601,83.18,1191869
04/09/2021,10:45 AM,83.19,83.245,82.92,83.12,1173695
04/09/2021,11:00 AM,83.1,83.4999,83.1,83.2892,1125229
04/09/2021,11:15 AM,83.29,83.4308,83.07,83.14,909847
04/09/2021,11:30 AM,83.14,83.53,83.14,83.245,891707
04/09/2021,11:45 AM,83.2409,83.2409,83.06,83.15,689369
04/09/2021,12:00 PM,83.155,83.24,83.03,83.215,679714
04/09/2021,12:15 PM,83.215,83.28,82.99,83.0299,877453
04/09/2021,12:30 PM,83.03,83.1681,82.9519,83.0199,773409
04/09/2021,12:45 PM,83.015,83.05,82.71,82.77,823192
04/09/2021,1:00 PM,82.7701,83.0199,82.73,83,741731
04/09/2021,1:15 PM,83,83.118,82.94,83.04,635079
04/09/2021,1:30 PM,83.03,83.29,82.99,83.245,681015
04/09/2021,1:45 PM,83.25,83.42,83.2112,83.34,515294
04/09/2021,2:00 PM,83.35,83.47,83.27,83.4319,573677
04/09/2021,2:15 PM,83.44,83.59,83.385,83.48,515353
04/09/2021,2:30 PM,83.475,83.475,83.27,83.31,584041
04/09/2021,2:45 PM,83.3169,83.38,83.17,83.345,605764
04/09/2021,3:00 PM,83.3401,83.432,83.28,83.3299,450564
04/09/2021,3:15 PM,83.33,83.335,83.07,83.1,694092
04/09/2021,3:30 PM,83.09,83.2,83.01,83.1872,1163434
04/09/2021,3:45 PM,83.19,83.31,83.14,83.155,1133996
04/09/2021,4:00 PM,83.155,83.23,82.67,82.76,4228125
04/12/2021,9:45 AM,82.055,82.18,81.48,81.6969,2634495
04/12/2021,10:00 AM,81.69,81.8,80.9091,81.065,2037313
04/12/2021,10:15 AM,81.0687,81.64,81.06,81.53,1489704
04/12/2021,10:30 AM,81.54,81.73,81.48,81.55,982178
04/12/2021,10:45 AM,81.55,81.57,80.9298,81.1,1353922
04/12/2021,11:00 AM,81.1,81.82,81.049,81.78,1302647
04/12/2021,11:15 AM,81.79,81.92,81.65,81.77,1003618
04/12/2021,11:30 AM,81.765,81.9492,81.52,81.71,806607
04/12/2021,11:45 AM,81.72,81.7499,81.4085,81.605,774413
04/12/2021,12:00 PM,81.61,81.69,81.38,81.6801,631777
04/12/2021,12:15 PM,81.69,81.92,81.68,81.7651,620472
04/12/2021,12:30 PM,81.77,81.81,80.74,80.8949,3093181
04/12/2021,12:45 PM,80.9,81.2,80.27,80.455,2745643
04/12/2021,1:00 PM,80.455,80.46,79.915,80.335,2755260
04/12/2021,1:15 PM,80.335,80.4599,80.06,80.1685,1381597
04/12/2021,1:30 PM,80.16,80.17,79.675,79.71,1617375
04/12/2021,1:45 PM,79.7,79.71,78.94,79.035,3366246
04/12/2021,2:00 PM,79.035,79.15,78.76,78.8274,2977202
04/12/2021,2:15 PM,78.8215,79.29,78.79,79,3012875
04/12/2021,2:30 PM,79,79.06,78.55,78.565,2508496
04/12/2021,2:45 PM,78.5501,78.68,78.31,78.4237,2762233
04/12/2021,3:00 PM,78.425,78.6,78.35,78.56,1631078
04/12/2021,3:15 PM,78.555,78.6,78.22,78.435,2004597
04/12/2021,3:30 PM,78.435,78.52,78.13,78.144,2225647
04/12/2021,3:45 PM,78.15,78.55,78.03,78.535,2931360
04/12/2021,4:00 PM,78.535,78.69,78.45,78.6174,4674153
04/13/2021,9:45 AM,79.67,80.72,79.27,80.45,5052627
04/13/2021,10:00 AM,80.46,80.6199,80.1,80.26,2198791
04/13/2021,10:15 AM,80.27,80.3,79.315,79.465,2440696
04/13/2021,10:30 AM,79.47,79.59,78.98,79.5039,2033029
04/13/2021,10:45 AM,79.51,79.52,79.06,79.335,1254430
04/13/2021,11:00 AM,79.33,79.72,79.2234,79.63,1375712
04/13/2021,11:15 AM,79.63,79.71,79.29,79.36,930513
04/13/2021,11:30 AM,79.37,79.46,79.18,79.3099,913054
04/13/2021,11:45 AM,79.305,79.74,79.25,79.6981,979768
04/13/2021,12:00 PM,79.695,79.7,79.49,79.581,744272
04/13/2021,12:15 PM,79.585,79.635,79.34,79.4,520170
04/13/2021,12:30 PM,79.4078,79.47,79.315,79.368,381220
04/13/2021,12:45 PM,79.365,79.67,79.355,79.6653,481736
04/13/2021,1:00 PM,79.66,79.71,79.5,79.68,524190
04/13/2021,1:15 PM,79.685,79.97,79.685,79.9642,809237
04/13/2021,1:30 PM,79.965,80.14,79.945,80.099,889225
04/13/2021,1:45 PM,80.0911,80.22,80.045,80.075,672459
04/13/2021,2:00 PM,80.075,80.08,79.94,79.95,559460
04/13/2021,2:15 PM,79.95,80.04,79.865,80.03,690034
04/13/2021,2:30 PM,80.03,80.06,79.755,79.87,624990
04/13/2021,2:45 PM,79.8613,80.05,79.8501,79.97,605355
04/13/2021,3:00 PM,79.98,80.145,79.843,80.13,621278
04/13/2021,3:15 PM,80.12,80.16,80.01,80.135,819940
04/13/2021,3:30 PM,80.14,80.29,80.125,80.265,779641
04/13/2021,3:45 PM,80.27,80.275,80.06,80.16,929080
04/13/2021,4:00 PM,80.155,80.3,79.91,80.18,2265501
04/14/2021,9:45 AM,79.88,80.13,79.09,79.5509,2952160
04/14/2021,10:00 AM,79.5655,79.98,79.35,79.93,2123119
04/14/2021,10:15 AM,79.93,79.935,79.55,79.6354,1210935
04/14/2021,10:30 AM,79.6399,79.685,78.97,79.0086,1299105
04/14/2021,10:45 AM,79.02,79.29,79,79.14,1220036
04/14/2021,11:00 AM,79.15,79.39,79.1411,79.205,873281
04/14/2021,11:15 AM,79.21,79.25,79.04,79.095,889179
04/14/2021,11:30 AM,79.09,79.09,78.43,78.67,1664310
04/14/2021,11:45 AM,78.67,79.095,78.63,79.06,1183599
04/14/2021,12:00 PM,79.0601,79.17,78.9724,79.1601,883492
04/14/2021,12:15 PM,79.17,79.185,78.79,79.0249,802062
04/14/2021,12:30 PM,79.02,79.21,78.99,79.02,624513
04/14/2021,12:45 PM,79.02,79.11,78.945,78.955,396886
04/14/2021,1:00 PM,78.9584,78.9978,78.863,78.885,427741
04/14/2021,1:15 PM,78.88,78.98,78.79,78.9401,678032
04/14/2021,1:30 PM,78.94,79,78.77,78.7886,423524
04/14/2021,1:45 PM,78.78,78.78,78.535,78.545,676225
04/14/2021,2:00 PM,78.545,78.6499,78.19,78.28,1002097
04/14/2021,2:15 PM,78.27,78.32,77.935,78.2466,1550746
04/14/2021,2:30 PM,78.25,78.65,78.19,78.585,1076590
04/14/2021,2:45 PM,78.58,78.73,78.5,78.67,788806
04/14/2021,3:00 PM,78.66,78.75,78.43,78.455,776662
04/14/2021,3:15 PM,78.445,78.54,78.175,78.5,989436
04/14/2021,3:30 PM,78.496,78.75,78.455,78.7,964778
04/14/2021,3:45 PM,78.69,78.87,78.58,78.65,1147705
04/14/2021,4:00 PM,78.67,78.73,78.4,78.58,1982853
04/15/2021,9:45 AM,80.32,81.1901,79.97,80.57,6341219
04/15/2021,10:00 AM,80.58,81.07,80.48,80.565,2702269
04/15/2021,10:15 AM,80.5677,81.57,80.24,81.42,3362869
04/15/2021,10:30 AM,81.42,81.43,80.96,81.2,2499736
04/15/2021,10:45 AM,81.19,81.455,81.02,81.44,1823461
04/15/2021,11:00 AM,81.435,82.12,81.3121,81.77,3406363
04/15/2021,11:15 AM,81.78,82.25,81.64,81.94,2516967
04/15/2021,11:30 AM,81.945,82.12,81.77,81.87,1482041
04/15/2021,11:45 AM,81.87,82.11,81.625,82.1,1457843
04/15/2021,12:00 PM,82.105,82.47,82.105,82.34,2129961
04/15/2021,12:15 PM,82.34,82.755,82.17,82.695,1860502
04/15/2021,12:30 PM,82.69,82.9,82.495,82.85,1808315
04/15/2021,12:45 PM,82.841,82.97,82.78,82.845,701968
04/15/2021,1:00 PM,82.841,82.97,82.78,82.845,701968
04/15/2021,1:15 PM,82.841,82.97,82.78,82.845,701968
04/15/2021,1:30 PM,82.841,82.97,82.78,82.845,701968
04/15/2021,1:45 PM,82.841,82.97,82.78,82.845,701968
04/15/2021,2:00 PM,82.841,82.97,82.78,82.845,701968
04/15/2021,2:15 PM,82.841,82.97,82.78,82.845,701968
04/15/2021,2:30 PM,82.841,82.97,82.78,82.845,701968
04/15/2021,2:45 PM,82.841,82.97,82.78,82.845,701968
04/15/2021,3:00 PM,82.841,82.97,82.78,82.845,701968
04/15/2021,3:15 PM,82.841,82.97,82.78,82.845,701968
04/15/2021,3:30 PM,82.841,82.97,82.78,82.845,701968
04/15/2021,3:45 PM,82.841,82.97,82.78,82.845,701968
04/15/2021,4:00 PM,82.841,82.97,82.78,82.845,701968
