﻿Date,Time,Open,High,Low,Close,Volume
03/02/2021,10:00 AM,86.92,86.95,85.56,85.94,4571591
03/02/2021,10:30 AM,85.94,86.38,85.64,85.96,3412733
03/02/2021,11:00 AM,85.96,86.44,85.7497,85.99,2098462
03/02/2021,11:30 AM,85.97,86.17,85.24,85.66,2714989
03/02/2021,12:00 PM,85.6501,85.6502,85.02,85.39,1660986
03/02/2021,12:30 PM,85.39,85.5,85.1399,85.4984,1781499
03/02/2021,1:00 PM,85.5,85.8,85.47,85.6501,1199147
03/02/2021,1:30 PM,85.66,85.915,85.515,85.74,1113335
03/02/2021,2:00 PM,85.72,86.06,85.71,85.945,1290225
03/02/2021,2:30 PM,85.93,86.14,85.3298,85.38,1972205
03/02/2021,3:00 PM,85.4,85.565,85.26,85.46,1463841
03/02/2021,3:30 PM,85.46,85.5701,84.83,84.9007,1658069
03/02/2021,4:00 PM,84.905,85.1884,84.04,84.12,3347846
03/03/2021,10:00 AM,84.28,84.38,83.16,83.25,4209715
03/03/2021,10:30 AM,83.22,83.4199,82.36,82.62,4190770
03/03/2021,11:00 AM,82.62,83.23,82.38,83.09,3206991
03/03/2021,11:30 AM,83.07,83.67,82.9802,83.66,2439300
03/03/2021,12:00 PM,83.65,84,83,83.06,2559695
03/03/2021,12:30 PM,83.06,83.07,82.38,82.425,1724924
03/03/2021,1:00 PM,82.42,82.51,81.9,81.915,1970879
03/03/2021,1:30 PM,81.9184,82.53,81.86,82.3,2198577
03/03/2021,2:00 PM,82.29,82.4,81.55,81.71,2022441
03/03/2021,2:30 PM,81.71,81.74,80.99,81.05,2870317
03/03/2021,3:00 PM,81.05,81.68,80.905,81.58,3231829
03/03/2021,3:30 PM,81.575,81.7399,80.9,81.115,2488443
03/03/2021,4:00 PM,81.115,81.75,80.85,80.85,3946987
03/04/2021,10:00 AM,80.23,81.8067,79.68,79.78,5672055
03/04/2021,10:30 AM,79.78,79.98,78.68,79.15,4930915
03/04/2021,11:00 AM,79.16,80.62,79.08,80.36,3919685
03/04/2021,11:30 AM,80.37,80.6999,79.64,79.93,2570901
03/04/2021,12:00 PM,79.93,80.91,79.9,80.5,1904131
03/04/2021,12:30 PM,80.53,80.7599,78.91,79.29,3085843
03/04/2021,1:00 PM,79.31,79.33,78.06,78.36,3608518
03/04/2021,1:30 PM,78.35,78.5701,77.65,78.36,4064895
03/04/2021,2:00 PM,78.35,78.37,76.91,76.912,3817815
03/04/2021,2:30 PM,76.91,77.9095,76.78,77.75,4433062
03/04/2021,3:00 PM,77.75,78.1467,77.22,78.07,2940214
03/04/2021,3:30 PM,78.06,78.21,77.2,77.58,2695214
03/04/2021,4:00 PM,77.585,78.55,77.43,77.79,5252657
03/05/2021,10:00 AM,79,79.48,76.59,77.11,6264569
03/05/2021,10:30 AM,77.105,77.59,76.01,76.0327,4966261
03/05/2021,11:00 AM,76.05,76.59,75.42,75.89,4304681
03/05/2021,11:30 AM,75.92,76.1,74.2,74.48,4732957
03/05/2021,12:00 PM,74.5,75.99,74.5,75.85,3934924
03/05/2021,12:30 PM,75.84,77.2,75.7,77.14,3036936
03/05/2021,1:00 PM,77.14,77.64,76.74,77.57,3521373
03/05/2021,1:30 PM,77.56,78.49,77.04,78.41,3205896
03/05/2021,2:00 PM,78.42,78.65,77.83,78.22,2804033
03/05/2021,2:30 PM,78.22,78.37,77.62,78.15,2354463
03/05/2021,3:00 PM,78.16,78.89,77.93,78.7499,2539547
03/05/2021,3:30 PM,78.75,78.89,78.26,78.505,1985107
03/05/2021,4:00 PM,78.51,78.67,78.245,78.53,4022694
03/08/2021,10:00 AM,78.03,79,77.38,77.58,6254169
03/08/2021,10:30 AM,77.58,77.97,76.9507,77.6,4401727
03/08/2021,11:00 AM,77.6001,78.44,77.38,77.51,3121463
03/08/2021,11:30 AM,77.53,77.76,76.72,77.04,2793040
03/08/2021,12:00 PM,77.05,77.2936,75.99,76.04,2971825
03/08/2021,12:30 PM,76.04,76.63,75.69,76.5,3237221
03/08/2021,1:00 PM,76.49,76.84,76.075,76.095,1731044
03/08/2021,1:30 PM,76.0987,76.34,76.0201,76.205,1868630
03/08/2021,2:00 PM,76.2,76.225,75.13,75.24,2378286
03/08/2021,2:30 PM,75.23,75.63,75.1,75.56,2821471
03/08/2021,3:00 PM,75.575,75.83,74.93,75.0054,2589819
03/08/2021,3:30 PM,75,75,74.04,74.1,4529223
03/08/2021,4:00 PM,74.11,74.865,73.86,73.95,5969296
03/09/2021,10:00 AM,76.73,77.37,75.77,77.27,7352920
03/09/2021,10:30 AM,77.28,77.9262,77.18,77.56,3763280
03/09/2021,11:00 AM,77.58,77.6899,77,77.28,3183260
03/09/2021,11:30 AM,77.2865,78.18,77.12,78.05,2296156
03/09/2021,12:00 PM,78.06,78.16,77.5099,77.896,1984413
03/09/2021,12:30 PM,77.91,78.43,77.78,78.07,1975030
03/09/2021,1:00 PM,78.065,78.32,77.87,77.98,1629943
03/09/2021,1:30 PM,77.99,78.56,77.98,78.27,1994764
03/09/2021,2:00 PM,78.27,78.87,78.25,78.81,1562621
03/09/2021,2:30 PM,78.81,78.84,78.09,78.2,1503598
03/09/2021,3:00 PM,78.2,78.965,78.2,78.79,1714603
03/09/2021,3:30 PM,78.79,78.99,78.675,78.9,1777077
03/09/2021,4:00 PM,78.91,79.215,78.34,78.52,4390847
03/10/2021,10:00 AM,79.75,80.04,78.48,79.14,6360583
03/10/2021,10:30 AM,79.125,79.55,77.73,77.8,4777160
03/10/2021,11:00 AM,77.814,78.63,77.605,78.49,3496616
03/10/2021,11:30 AM,78.51,79.44,78.36,79.1,3342607
03/10/2021,12:00 PM,79.1,79.21,78.3,78.73,2371616
03/10/2021,12:30 PM,78.73,78.81,78.1,78.11,1508523
03/10/2021,1:00 PM,78.115,78.5998,77.575,78.44,2454718
03/10/2021,1:30 PM,78.47,78.5,77.73,78.2848,2682325
03/10/2021,2:00 PM,78.28,78.38,77.41,77.85,2172615
03/10/2021,2:30 PM,77.865,78.37,77.7301,78.13,1873691
03/10/2021,3:00 PM,78.13,78.49,77.871,78.0998,1670085
03/10/2021,3:30 PM,78.12,78.32,77.68,77.68,1910959
03/10/2021,4:00 PM,77.69,78.24,77.45,77.48,3756612
03/11/2021,10:00 AM,79.4,80.89,79.37,80.49,6503515
03/11/2021,10:30 AM,80.5,80.82,79.71,79.78,3600787
03/11/2021,11:00 AM,79.78,80.4,79.78,80.275,2548199
03/11/2021,11:30 AM,80.28,80.905,80.28,80.824,2702964
03/11/2021,12:00 PM,80.83,81.15,80.69,80.87,2638619
03/11/2021,12:30 PM,80.87,81.26,80.63,81.235,3028157
03/11/2021,1:00 PM,81.235,81.45,81.0387,81.23,2534326
03/11/2021,1:30 PM,81.2383,81.6,81.15,81.33,1990443
03/11/2021,2:00 PM,81.34,81.56,81.09,81.33,1722861
03/11/2021,2:30 PM,81.33,81.87,81.3284,81.54,2244232
03/11/2021,3:00 PM,81.55,81.89,81.385,81.6384,1849689
03/11/2021,3:30 PM,81.635,81.8,81.42,81.534,1904455
03/11/2021,4:00 PM,81.54,81.5599,81.07,81.23,2898134
03/12/2021,10:00 AM,79.73,80.91,79.23,80.86,5663248
03/12/2021,10:30 AM,80.86,81.06,79.8802,80.21,3199104
03/12/2021,11:00 AM,80.21,80.62,79.8,79.96,2915000
03/12/2021,11:30 AM,79.94,80.43,79.665,80.355,1900238
03/12/2021,12:00 PM,80.36,80.73,80.1907,80.54,1429190
03/12/2021,12:30 PM,80.56,80.78,80.43,80.72,1242453
03/12/2021,1:00 PM,80.73,80.9517,80.43,80.695,1408597
03/12/2021,1:30 PM,80.695,80.94,80.57,80.93,1142149
03/12/2021,2:00 PM,80.9223,81.09,80.65,80.73,1334728
03/12/2021,2:30 PM,80.74,80.8801,80.645,80.83,1005194
03/12/2021,3:00 PM,80.83,81.13,80.7223,81.025,1232298
03/12/2021,3:30 PM,81.03,81.0599,80.72,80.91,1247077
03/12/2021,4:00 PM,80.915,81.19,80.815,81.05,2819703
03/15/2021,10:00 AM,81.91,82.85,81.2,82.4113,5568420
03/15/2021,10:30 AM,82.39,83.39,82.35,82.64,4165776
03/15/2021,11:00 AM,82.634,83.18,82.27,82.98,2404621
03/15/2021,11:30 AM,82.98,83.36,82.35,82.452,2640035
03/15/2021,12:00 PM,82.46,82.7,82.03,82.39,2513679
03/15/2021,12:30 PM,82.39,82.49,82.1,82.29,1528480
03/15/2021,1:00 PM,82.29,82.53,81.8,81.94,2039186
03/15/2021,1:30 PM,81.95,82.04,81.76,81.95,1527313
03/15/2021,2:00 PM,81.95,82.05,81.62,81.8,1601578
03/15/2021,2:30 PM,81.81,82.37,81.81,82.27,1646733
03/15/2021,3:00 PM,82.29,82.61,82.27,82.56,1346665
03/15/2021,3:30 PM,82.5626,82.5626,82.085,82.245,1806197
03/15/2021,4:00 PM,82.24,82.57,82.16,82.51,3311920
03/16/2021,10:00 AM,83.66,84.67,83.1,84.11,7265570
03/16/2021,10:30 AM,84.11,84.64,84.03,84.25,3299273
03/16/2021,11:00 AM,84.25,84.75,84.2399,84.42,2762704
03/16/2021,11:30 AM,84.4283,84.72,84.22,84.4,2077655
03/16/2021,12:00 PM,84.3901,84.535,84.06,84.16,1894349
03/16/2021,12:30 PM,84.17,84.28,83.28,83.345,2370609
03/16/2021,1:00 PM,83.34,83.82,83.295,83.68,1786791
03/16/2021,1:30 PM,83.69,84.08,83.69,83.73,1820947
03/16/2021,2:00 PM,83.74,83.7683,83.165,83.34,1710538
03/16/2021,2:30 PM,83.33,83.45,82.44,82.57,2555962
03/16/2021,3:00 PM,82.57,82.9,82.255,82.865,2979864
03/16/2021,3:30 PM,82.85,83.14,82.59,82.996,1741855
03/16/2021,4:00 PM,83,83.2885,82.55,82.78,3161394
03/17/2021,10:00 AM,81.75,82.02,80.61,81.4816,5236080
03/17/2021,10:30 AM,81.47,81.99,81.2701,81.56,2796688
03/17/2021,11:00 AM,81.55,81.7,81.09,81.37,2441597
03/17/2021,11:30 AM,81.38,81.66,80.95,81.38,2072844
03/17/2021,12:00 PM,81.39,81.435,80.88,80.95,1836654
03/17/2021,12:30 PM,80.94,81.16,80.63,81.1267,2426815
03/17/2021,1:00 PM,81.13,81.14,80.411,80.49,1973050
03/17/2021,1:30 PM,80.48,81.14,80.4206,81.0866,2116498
03/17/2021,2:00 PM,81.09,81.1001,80.75,81.06,1483698
03/17/2021,2:30 PM,81.08,82.76,81.08,81.8599,4863359
03/17/2021,3:00 PM,81.86,83.03,81.775,82.97,3830904
03/17/2021,3:30 PM,82.99,83.25,82.56,82.63,3021318
03/17/2021,4:00 PM,82.64,83.12,82.27,82.64,3468980
03/18/2021,10:00 AM,81.055,81.62,79.57,80.205,6825402
03/18/2021,10:30 AM,80.19,80.35,79.6101,80.23,3606518
03/18/2021,11:00 AM,80.24,80.51,79.8429,80.4,2961877
03/18/2021,11:30 AM,80.41,80.8,80.08,80.4,2286600
03/18/2021,12:00 PM,80.41,80.44,80.01,80.25,1505327
03/18/2021,12:30 PM,80.25,80.65,80.1701,80.6,1949230
03/18/2021,1:00 PM,80.58,80.635,79.6,79.645,2231851
03/18/2021,1:30 PM,79.635,79.9499,79.54,79.715,2417292
03/18/2021,2:00 PM,79.7101,79.89,79.31,79.8299,2650963
03/18/2021,2:30 PM,79.83,79.865,79.11,79.135,2390753
03/18/2021,3:00 PM,79.1385,79.38,78.41,78.75,4367229
03/18/2021,3:30 PM,78.73,78.985,78.38,78.76,3330441
03/18/2021,4:00 PM,78.75,78.76,78.01,78.13,5866295
03/19/2021,10:00 AM,78.49,79.21,77.67,78.33,5739531
03/19/2021,10:30 AM,78.34,78.58,77.59,78.42,2816259
03/19/2021,11:00 AM,78.42,78.73,77.86,78.645,2526680
03/19/2021,11:30 AM,78.65,78.82,78.06,78.46,1811050
03/19/2021,12:00 PM,78.445,78.86,78.29,78.71,1550667
03/19/2021,12:30 PM,78.72,79.0113,78.67,78.75,1543454
03/19/2021,1:00 PM,78.75,79.34,78.7499,79.19,1575788
03/19/2021,1:30 PM,79.19,79.24,78.76,79.1702,1363640
03/19/2021,2:00 PM,79.1899,79.27,78.855,78.985,1200265
03/19/2021,2:30 PM,78.99,79.11,78.61,78.7901,1565923
03/19/2021,3:00 PM,78.79,78.98,78.64,78.845,1542015
03/19/2021,3:30 PM,78.84,78.9,78.055,78.25,1805603
03/19/2021,4:00 PM,78.26,79.11,78.22,79.07,5147065
03/22/2021,10:00 AM,79.99,80.86,79.63,79.6894,5037298
03/22/2021,10:30 AM,79.69,79.89,79.22,79.71,3239122
03/22/2021,11:00 AM,79.71,80.27,79.61,80.27,2150151
03/22/2021,11:30 AM,80.28,80.5299,80.03,80.3299,2609752
03/22/2021,12:00 PM,80.33,80.59,80.12,80.45,1937251
03/22/2021,12:30 PM,80.46,80.91,80.46,80.81,1768537
03/22/2021,1:00 PM,80.81,81.255,80.75,81.141,1953961
03/22/2021,1:30 PM,81.15,81.25,80.83,80.9,1537129
03/22/2021,2:00 PM,80.89,81.26,80.8701,81.22,1315932
03/22/2021,2:30 PM,81.225,81.265,80.89,81.005,1211305
03/22/2021,3:00 PM,81.01,81.17,80.7528,81.0599,1670620
03/22/2021,3:30 PM,81.0599,81.0884,80.32,80.365,1913053
03/22/2021,4:00 PM,80.36,80.6,80.115,80.29,3248057
03/23/2021,10:00 AM,80.13,80.34,78.615,79.03,5724254
03/23/2021,10:30 AM,79.01,79.2791,78.74,78.8,3245267
03/23/2021,11:00 AM,78.79,79.24,78.47,79.125,2814728
03/23/2021,11:30 AM,79.11,79.37,78.895,79.17,2163856
03/23/2021,12:00 PM,79.17,79.29,78.66,78.8,2090529
03/23/2021,12:30 PM,78.81,79.04,78.5,78.86,1803724
03/23/2021,1:00 PM,78.87,79.14,78.74,79.115,1342341
03/23/2021,1:30 PM,79.12,79.26,78.735,78.81,1573539
03/23/2021,2:00 PM,78.81,78.815,78.16,78.21,2300620
03/23/2021,2:30 PM,78.22,78.62,78.15,78.573,1785108
03/23/2021,3:00 PM,78.57,78.63,77.95,77.955,1824176
03/23/2021,3:30 PM,77.953,78.325,77.95,78.1199,2242537
03/23/2021,4:00 PM,78.105,78.5,78.04,78.38,4434444
03/24/2021,10:00 AM,77.55,78.4658,77.03,77.27,5844681
03/24/2021,10:30 AM,77.27,77.69,76.7049,77.29,3489164
03/24/2021,11:00 AM,77.27,78.28,77.1183,78.2,3138685
03/24/2021,11:30 AM,78.21,78.8,78.21,78.67,2746529
03/24/2021,12:00 PM,78.67,78.675,77.97,78.19,2081244
03/24/2021,12:30 PM,78.2,78.38,77.83,78.07,1755704
03/24/2021,1:00 PM,78.05,78.08,77.61,77.75,1475168
03/24/2021,1:30 PM,77.75,77.93,77.39,77.81,2020279
03/24/2021,2:00 PM,77.8058,78.09,77.535,78.01,1326470
03/24/2021,2:30 PM,78.01,78.15,77.74,77.77,1524452
03/24/2021,3:00 PM,77.76,77.7679,77.1699,77.23,2142375
03/24/2021,3:30 PM,77.24,77.53,77.16,77.2,1954041
03/24/2021,4:00 PM,77.21,77.297,76.4,76.45,4928040
03/25/2021,10:00 AM,75.85,76.72,75.33,76.33,5910449
03/25/2021,10:30 AM,76.33,76.84,76.009,76.0301,3427546
03/25/2021,11:00 AM,76.06,76.09,74.96,75.32,3425795
03/25/2021,11:30 AM,75.315,75.745,75.0899,75.735,2599364
03/25/2021,12:00 PM,75.73,76.16,75.37,76.046,2210472
03/25/2021,12:30 PM,76.04,76.84,76.04,76.78,2307535
03/25/2021,1:00 PM,76.77,76.95,76.44,76.575,1663064
03/25/2021,1:30 PM,76.57,76.79,76.145,76.28,2397391
03/25/2021,2:00 PM,76.2752,76.47,75.935,75.94,1967618
03/25/2021,2:30 PM,75.95,75.9793,75.15,75.2157,2182196
03/25/2021,3:00 PM,75.23,76.27,75.19,76.19,2287674
03/25/2021,3:30 PM,76.17,76.46,76.08,76.23,1971544
03/25/2021,4:00 PM,76.23,76.69,76.07,76.23,3307208
03/26/2021,10:00 AM,76.62,77,75.96,76.63,4383069
03/26/2021,10:30 AM,76.66,76.77,76.16,76.5718,3079992
03/26/2021,11:00 AM,76.59,77.4,76.51,76.68,3331883
03/26/2021,11:30 AM,76.68,76.78,76.15,76.29,2064175
03/26/2021,12:00 PM,76.285,76.98,76.17,76.98,2113389
03/26/2021,12:30 PM,76.97,77.18,76.66,77.1,1726267
03/26/2021,1:00 PM,77.11,77.37,76.81,76.84,2399651
03/26/2021,1:30 PM,76.845,77.4778,76.845,77.3,1989092
03/26/2021,2:00 PM,77.31,77.38,76.494,76.65,1941975
03/26/2021,2:30 PM,76.65,76.92,75.52,75.7,3912707
03/26/2021,3:00 PM,75.6916,75.83,75.03,75.76,4387390
03/26/2021,3:30 PM,75.77,76.82,75.73,76.76,2734610
03/26/2021,4:00 PM,76.77,77.4995,76.505,77.41,5458327
03/29/2021,10:00 AM,77.03,78.02,76.26,77.0133,5493315
03/29/2021,10:30 AM,77.01,77.43,76.72,77.08,3171174
03/29/2021,11:00 AM,77.07,77.58,76.98,77.07,2625292
03/29/2021,11:30 AM,77.065,77.41,76.55,76.79,2472180
03/29/2021,12:00 PM,76.8,77.19,76.55,76.89,1920353
03/29/2021,12:30 PM,76.88,77.03,76.555,76.972,1586163
03/29/2021,1:00 PM,76.975,77.655,76.87,77.63,1753500
03/29/2021,1:30 PM,77.63,77.805,77.45,77.49,1477109
03/29/2021,2:00 PM,77.495,77.82,77.16,77.195,1638169
03/29/2021,2:30 PM,77.195,77.225,76.85,76.94,1903273
03/29/2021,3:00 PM,76.93,76.95,76.4,76.599,2081855
03/29/2021,3:30 PM,76.61,77.2,76.61,77.1521,1913928
03/29/2021,4:00 PM,77.16,77.26,76.96,77.15,3246102
03/30/2021,10:00 AM,76.47,76.56,74.85,75.31,6287137
03/30/2021,10:30 AM,75.29,75.6999,75.08,75.46,3349033
03/30/2021,11:00 AM,75.46,75.925,75.297,75.705,3085636
03/30/2021,11:30 AM,75.71,75.99,75.545,75.799,2505074
03/30/2021,12:00 PM,75.8,76,75.175,75.3097,2912379
03/30/2021,12:30 PM,75.315,75.62,75.13,75.585,2096034
03/30/2021,1:00 PM,75.58,75.8201,75.5,75.54,1605042
03/30/2021,1:30 PM,75.55,75.98,75.35,75.86,1579325
03/30/2021,2:00 PM,75.86,75.93,75.58,75.5996,1437290
03/30/2021,2:30 PM,75.59,75.88,75.48,75.7679,1797382
03/30/2021,3:00 PM,75.7699,76.16,75.7,76.1259,1702180
03/30/2021,3:30 PM,76.1217,76.22,75.89,75.9163,1776208
03/30/2021,4:00 PM,75.92,76.03,75.59,76.01,3300044
03/31/2021,10:00 AM,76.57,77.94,76.52,77.64,5284510
03/31/2021,10:30 AM,77.65,77.89,77.35,77.45,3159521
03/31/2021,11:00 AM,77.47,78.28,77.44,77.97,2792773
03/31/2021,11:30 AM,77.96,78.32,77.92,78.04,1666031
03/31/2021,12:00 PM,78.03,78.24,77.8,78.092,1750763
03/31/2021,12:30 PM,78.1,78.58,78.07,78.48,2371721
03/31/2021,1:00 PM,78.475,78.76,78.35,78.48,2067856
03/31/2021,1:30 PM,78.49,78.88,78.36,78.77,1645644
03/31/2021,2:00 PM,78.775,78.819,78.42,78.49,1643197
03/31/2021,2:30 PM,78.4929,78.91,78.3,78.8999,1825413
03/31/2021,3:00 PM,78.9,79.1,78.65,79.07,1807590
03/31/2021,3:30 PM,79.07,79.13,78.81,78.88,2124155
03/31/2021,4:00 PM,78.8809,79.005,78.29,78.51,4242101
04/01/2021,10:00 AM,80.155,80.67,79.48,80.365,6722782
04/01/2021,10:30 AM,80.37,80.75,79.68,80.52,4025745
04/01/2021,11:00 AM,80.53,80.6178,80.16,80.4221,2167428
04/01/2021,11:30 AM,80.42,80.86,80.25,80.837,2744858
04/01/2021,12:00 PM,80.835,80.89,80.19,80.3617,2383744
04/01/2021,12:30 PM,80.35,80.71,80.315,80.6709,1420063
04/01/2021,1:00 PM,80.68,80.89,80.54,80.882,1844486
04/01/2021,1:30 PM,80.885,80.96,80.49,80.505,1837775
04/01/2021,2:00 PM,80.5,81.065,80.495,80.86,2020029
04/01/2021,2:30 PM,80.86,81.07,80.735,81.04,1357553
04/01/2021,3:00 PM,81.035,81.28,81.03,81.275,1567691
04/01/2021,3:30 PM,81.27,81.31,80.91,81.01,1840476
04/01/2021,4:00 PM,81.015,81.13,80.8,81.1,3293070
04/05/2021,10:00 AM,81.74,81.9,80.67,81.0802,5660828
04/05/2021,10:30 AM,81.1,81.4934,80.82,81.435,2815372
04/05/2021,11:00 AM,81.435,81.5617,80.77,80.8499,2580547
04/05/2021,11:30 AM,80.85,80.92,80.47,80.585,1886872
04/05/2021,12:00 PM,80.585,80.84,80.39,80.442,1900200
04/05/2021,12:30 PM,80.445,80.82,80.41,80.765,1373585
04/05/2021,1:00 PM,80.77,80.965,80.6801,80.9024,1321905
04/05/2021,1:30 PM,80.91,81.285,80.86,81.05,1382251
04/05/2021,2:00 PM,81.05,81.2,81.005,81.16,1211900
04/05/2021,2:30 PM,81.17,81.4499,81.17,81.29,1515022
04/05/2021,3:00 PM,81.285,81.54,81.265,81.5302,1407487
04/05/2021,3:30 PM,81.52,81.6,81.31,81.4227,1821227
04/05/2021,4:00 PM,81.43,81.53,81.19,81.41,2748830
04/06/2021,10:00 AM,81.21,82.1597,81.03,82.0398,4441766
04/06/2021,10:30 AM,82.03,82.1302,81.51,81.6,2548187
04/06/2021,11:00 AM,81.6,81.905,81.42,81.885,1956452
04/06/2021,11:30 AM,81.89,82.455,81.74,82.44,2287440
04/06/2021,12:00 PM,82.43,82.43,82.08,82.26,1346851
04/06/2021,12:30 PM,82.26,82.31,81.86,81.86,1195476
04/06/2021,1:00 PM,81.85,82,81.59,81.86,1636993
04/06/2021,1:30 PM,81.85,81.9,81.01,81.06,2094111
04/06/2021,2:00 PM,81.0627,81.49,80.88,81.4713,1676119
04/06/2021,2:30 PM,81.48,81.66,81.41,81.585,1204934
04/06/2021,3:00 PM,81.58,81.76,81.461,81.695,1197687
04/06/2021,3:30 PM,81.695,81.7681,81.3992,81.53,1331214
04/06/2021,4:00 PM,81.53,81.57,81.16,81.45,2232608
04/07/2021,10:00 AM,81.32,81.53,80.35,81.4501,5652595
04/07/2021,10:30 AM,81.46,82.01,81.3801,81.96,2610223
04/07/2021,11:00 AM,81.97,82.06,81.689,81.74,1568981
04/07/2021,11:30 AM,81.75,82.31,81.75,81.901,2050818
04/07/2021,12:00 PM,81.91,82.26,81.5336,82.15,2224799
04/07/2021,12:30 PM,82.15,82.29,81.69,81.73,1712580
04/07/2021,1:00 PM,81.73,81.985,81.69,81.77,1260073
04/07/2021,1:30 PM,81.76,81.98,81.61,81.87,1309357
04/07/2021,2:00 PM,81.87,82.26,81.8073,82.2,1405044
04/07/2021,2:30 PM,82.2,83.1,82.2,82.94,3612611
04/07/2021,3:00 PM,82.9401,83.1,82.62,82.6528,2244243
04/07/2021,3:30 PM,82.66,82.94,82.25,82.31,2315540
04/07/2021,4:00 PM,82.31,82.41,82.01,82.19,2962247
04/08/2021,10:00 AM,83.32,83.43,82.66,83.3451,6121592
04/08/2021,10:30 AM,83.345,83.79,82.74,82.83,5260735
04/08/2021,11:00 AM,82.82,82.98,82.435,82.74,2806609
04/08/2021,11:30 AM,82.75,83.205,82.605,83.1604,2137520
04/08/2021,12:00 PM,83.1682,83.441,83.13,83.185,2126445
04/08/2021,12:30 PM,83.185,83.245,82.8301,83.0973,1838006
04/08/2021,1:00 PM,83.0901,83.295,82.9,83.22,1581548
04/08/2021,1:30 PM,83.22,83.44,83.18,83.2901,1332686
04/08/2021,2:00 PM,83.3,83.4171,83.02,83.165,1495480
04/08/2021,2:30 PM,83.17,83.66,83.17,83.485,1790654
04/08/2021,3:00 PM,83.48,83.575,83.35,83.52,1512106
04/08/2021,3:30 PM,83.525,83.539,83.3,83.49,1615747
04/08/2021,4:00 PM,83.4887,83.51,83.19,83.4,3524192
04/09/2021,10:00 AM,82.8,82.97,82.16,82.72,4667983
04/09/2021,10:30 AM,82.72,83.3088,82.72,83.18,2513358
04/09/2021,11:00 AM,83.19,83.4999,82.92,83.2892,2298924
04/09/2021,11:30 AM,83.29,83.53,83.07,83.245,1801554
04/09/2021,12:00 PM,83.2409,83.2409,83.03,83.215,1369083
04/09/2021,12:30 PM,83.215,83.28,82.9519,83.0199,1650862
04/09/2021,1:00 PM,83.015,83.05,82.71,83,1564923
04/09/2021,1:30 PM,83,83.29,82.94,83.245,1316094
04/09/2021,2:00 PM,83.25,83.47,83.2112,83.4319,1088971
04/09/2021,2:30 PM,83.44,83.59,83.27,83.31,1099394
04/09/2021,3:00 PM,83.3169,83.432,83.17,83.3299,1056328
04/09/2021,3:30 PM,83.33,83.335,83.01,83.1872,1857526
04/09/2021,4:00 PM,83.19,83.31,82.67,82.76,5362121
04/12/2021,10:00 AM,82.055,82.18,80.9091,81.065,4671808
04/12/2021,10:30 AM,81.0687,81.73,81.06,81.55,2471882
04/12/2021,11:00 AM,81.55,81.82,80.9298,81.78,2656569
04/12/2021,11:30 AM,81.79,81.9492,81.52,81.71,1810225
04/12/2021,12:00 PM,81.72,81.7499,81.38,81.6801,1406190
04/12/2021,12:30 PM,81.69,81.92,80.74,80.8949,3713653
04/12/2021,1:00 PM,80.9,81.2,79.915,80.335,5500903
04/12/2021,1:30 PM,80.335,80.4599,79.675,79.71,2998972
04/12/2021,2:00 PM,79.7,79.71,78.76,78.8274,6343448
04/12/2021,2:30 PM,78.8215,79.29,78.55,78.565,5521371
04/12/2021,3:00 PM,78.5501,78.68,78.31,78.56,4393311
04/12/2021,3:30 PM,78.555,78.6,78.13,78.144,4230244
04/12/2021,4:00 PM,78.15,78.69,78.03,78.6174,7605513
04/13/2021,10:00 AM,79.67,80.72,79.27,80.26,7251418
04/13/2021,10:30 AM,80.27,80.3,78.98,79.5039,4473725
04/13/2021,11:00 AM,79.51,79.72,79.06,79.63,2630142
04/13/2021,11:30 AM,79.63,79.71,79.18,79.3099,1843567
04/13/2021,12:00 PM,79.305,79.74,79.25,79.581,1724040
04/13/2021,12:30 PM,79.585,79.635,79.315,79.368,901390
04/13/2021,1:00 PM,79.365,79.71,79.355,79.68,1005926
04/13/2021,1:30 PM,79.685,80.14,79.685,80.099,1698462
04/13/2021,2:00 PM,80.0911,80.22,79.94,79.95,1231919
04/13/2021,2:30 PM,79.95,80.06,79.755,79.87,1315024
04/13/2021,3:00 PM,79.8613,80.145,79.843,80.13,1226633
04/13/2021,3:30 PM,80.12,80.29,80.01,80.265,1599581
04/13/2021,4:00 PM,80.27,80.3,79.91,80.18,3194581
04/14/2021,10:00 AM,79.88,80.13,79.09,79.93,5075279
04/14/2021,10:30 AM,79.93,79.935,78.97,79.0086,2510040
04/14/2021,11:00 AM,79.02,79.39,79,79.205,2093317
04/14/2021,11:30 AM,79.21,79.25,78.43,78.67,2553489
04/14/2021,12:00 PM,78.67,79.17,78.63,79.1601,2067091
04/14/2021,12:30 PM,79.17,79.21,78.79,79.02,1426575
04/14/2021,1:00 PM,79.02,79.11,78.863,78.885,824627
04/14/2021,1:30 PM,78.88,79,78.77,78.7886,1101556
04/14/2021,2:00 PM,78.78,78.78,78.19,78.28,1678322
04/14/2021,2:30 PM,78.27,78.65,77.935,78.585,2627336
04/14/2021,3:00 PM,78.58,78.75,78.43,78.455,1565468
04/14/2021,3:30 PM,78.445,78.75,78.175,78.7,1954214
04/14/2021,4:00 PM,78.69,78.87,78.4,78.58,3130558
04/15/2021,10:00 AM,80.32,81.1901,79.97,80.565,9043488
04/15/2021,10:30 AM,80.5677,81.57,80.24,81.2,5862605
04/15/2021,11:00 AM,81.19,82.12,81.02,81.77,5229824
04/15/2021,11:30 AM,81.78,82.25,81.64,81.87,3999008
04/15/2021,12:00 PM,81.87,82.47,81.625,82.34,3587804
04/15/2021,12:30 PM,82.34,82.9,82.17,82.85,3668817
04/15/2021,1:00 PM,82.841,82.97,82.78,82.8509,679096
04/15/2021,1:30 PM,82.841,82.97,82.78,82.8509,679096
04/15/2021,2:00 PM,82.841,82.97,82.78,82.8509,679096
04/15/2021,2:30 PM,82.841,82.97,82.78,82.8509,679096
04/15/2021,3:00 PM,82.841,82.97,82.78,82.8509,679096
04/15/2021,3:30 PM,82.841,82.97,82.78,82.8509,679096
04/15/2021,4:00 PM,82.841,82.97,82.78,82.8509,679096
