"ID","created_at","text","like_count","rt_count"
"1378498732006707204","2021-04-04T00:04:43.000Z","This is my sad tweet 😔😔😔😔😔😔😔😔😔😔😔",2,0
"1378498732006707204","2021-04-04T00:04:43.000Z","This is 😃 😃 😃 my mixed tweet 😃 😃 😔😔😔😔😔",2,0
"1378498721042755588","2021-04-04T00:04:41.000Z","Happy feet? more like happy tweet 😃 😃 😃 😃 😃 😃 ",2,0
"1","2021-04-04T02:04:41.000Z","📈💶 stonks i love them",0,0
"2","2021-04-04T03:04:41.000Z","📉💶 bad this sucks boo",0,0
"3","2021-04-04T23:04:41.000Z","📉📉📉📉 bad bad",0,0
"4","2021-04-04T17:04:41.000Z","no emojis give me 0.5 plz",0,0
